BIC,2011-09-06,7300.0
BIC,2011-09-07,7000.0
BIC,2011-09-08,7300.0
BIC,2011-09-09,7200.0
BIC,2011-09-12,6800.0
BIC,2011-09-13,6900.0
BIC,2011-09-14,6600.0
BIC,2011-09-15,6500.0
BIC,2011-09-16,6300.0
BIC,2011-09-19,6400.0
BIC,2011-09-20,6200.0
BIC,2011-09-21,6000.0
BIC,2011-09-22,6200.0
BIC,2011-09-23,6200.0
BIC,2011-09-26,6000.0
BIC,2011-09-27,6000.0
BIC,2011-09-28,6000.0
BIC,2011-09-29,5900.0
BIC,2011-09-30,6000.0
BIC,2011-10-03,5900.0
BIC,2011-10-04,5600.0
BIC,2011-10-05,5800.0
BIC,2011-10-06,5900.0
BIC,2011-10-07,5800.0
BIC,2011-10-10,5700.0
BIC,2011-10-11,5700.0
BIC,2011-10-12,5500.0
BIC,2011-10-13,5600.0
BIC,2011-10-14,5600.0
BIC,2011-10-17,5600.0
BIC,2011-10-18,5500.0
BIC,2011-10-19,5400.0
BIC,2011-10-20,5300.0
BIC,2011-10-21,5600.0
BIC,2011-10-24,5400.0
BIC,2011-10-25,5200.0
BIC,2011-10-26,5000.0
BIC,2011-10-27,5000.0
BIC,2011-10-28,5100.0
BIC,2011-10-31,4900.0
BIC,2011-11-01,4700.0
BIC,2011-11-02,4800.0
BIC,2011-11-03,4800.0
BIC,2011-11-04,4800.0
BIC,2011-11-07,4700.0
BIC,2011-11-08,4700.0
BIC,2011-11-09,4800.0
BIC,2011-11-10,4800.0
BIC,2011-11-11,4800.0
BIC,2011-11-14,4900.0
BIC,2011-11-15,5200.0
BIC,2011-11-16,5400.0
BIC,2011-11-17,5600.0
BIC,2011-11-18,5600.0
BIC,2011-11-21,5300.0
BIC,2011-11-22,5200.0
BIC,2011-11-23,5300.0
BIC,2011-11-24,5200.0
BIC,2011-11-25,5000.0
BIC,2011-11-28,5100.0
BIC,2011-11-29,5200.0
BIC,2011-11-30,5200.0
BIC,2011-12-01,5200.0
BIC,2011-12-02,5200.0
BIC,2011-12-05,5400.0
BIC,2011-12-06,5400.0
BIC,2011-12-07,5600.0
BIC,2011-12-08,5600.0
BIC,2011-12-09,5600.0
BIC,2011-12-12,5600.0
BIC,2011-12-13,5500.0
BIC,2011-12-14,5300.0
BIC,2011-12-15,5200.0
BIC,2011-12-16,5300.0
BIC,2011-12-19,5300.0
BIC,2011-12-20,5200.0
BIC,2011-12-21,5200.0
BIC,2011-12-22,5100.0
BIC,2011-12-23,5100.0
BIC,2011-12-26,5100.0
BIC,2011-12-27,5100.0
BIC,2011-12-28,5000.0
BIC,2011-12-29,5000.0
BIC,2011-12-30,4800.0
BIC,2012-01-03,4900.0
BIC,2012-01-04,4900.0
BIC,2012-01-05,5000.0
BIC,2012-01-06,4900.0
BIC,2012-01-09,5000.0
BIC,2012-01-10,5100.0
BIC,2012-01-11,5200.0
BIC,2012-01-12,5200.0
BIC,2012-01-13,5200.0
BIC,2012-01-16,5300.0
BIC,2012-01-17,5400.0
BIC,2012-01-18,5500.0
BIC,2012-01-19,5600.0
BIC,2012-01-20,5600.0
BIC,2012-01-30,5600.0
BIC,2012-01-31,5600.0
BIC,2012-02-01,5600.0
BIC,2012-02-02,5700.0
BIC,2012-02-03,5600.0
BIC,2012-02-06,5600.0
BIC,2012-02-07,5600.0
BIC,2012-02-08,5600.0
BIC,2012-02-09,5700.0
BIC,2012-02-10,5600.0
BIC,2012-02-13,5600.0
BIC,2012-02-14,5600.0
BIC,2012-02-15,5500.0
BIC,2012-02-16,5500.0
BIC,2012-02-17,5600.0
BIC,2012-02-20,5700.0
BIC,2012-02-21,5600.0
BIC,2012-02-22,5500.0
BIC,2012-02-23,5500.0
BIC,2012-02-24,5600.0
BIC,2012-02-27,5800.0
BIC,2012-02-28,5700.0
BIC,2012-02-29,5600.0
BIC,2012-03-01,5700.0
BIC,2012-03-02,5700.0
BIC,2012-03-05,6000.0
BIC,2012-03-06,6200.0
BIC,2012-03-07,6400.0
BIC,2012-03-08,6400.0
BIC,2012-03-09,6000.0
BIC,2012-03-12,5800.0
BIC,2012-03-13,6000.0
BIC,2012-03-14,5800.0
BIC,2012-03-15,6000.0
BIC,2012-03-16,6000.0
BIC,2012-03-19,5900.0
BIC,2012-03-20,6000.0
BIC,2012-03-21,6000.0
BIC,2012-03-22,6200.0
BIC,2012-03-23,6400.0
BIC,2012-03-26,6800.0
BIC,2012-03-27,6700.0
BIC,2012-03-28,6700.0
BIC,2012-03-29,6600.0
BIC,2012-03-30,6400.0
BIC,2012-04-03,6400.0
BIC,2012-04-04,6200.0
BIC,2012-04-05,6300.0
BIC,2012-04-06,6400.0
BIC,2012-04-09,6500.0
BIC,2012-04-10,6400.0
BIC,2012-04-11,6500.0
BIC,2012-04-12,6400.0
BIC,2012-04-13,6400.0
BIC,2012-04-16,6500.0
BIC,2012-04-17,6400.0
BIC,2012-04-18,6700.0
BIC,2012-04-19,7000.0
BIC,2012-04-20,6800.0
BIC,2012-04-23,6800.0
BIC,2012-04-24,6800.0
BIC,2012-04-25,6800.0
BIC,2012-04-26,7100.0
BIC,2012-04-27,7300.0
BIC,2012-05-02,7700.0
BIC,2012-05-03,8100.0
BIC,2012-05-04,8400.0
BIC,2012-05-07,8800.0
BIC,2012-05-08,9200.0
BIC,2012-05-09,9400.0
BIC,2012-05-10,9100.0
BIC,2012-05-11,8900.0
BIC,2012-05-14,8500.0
BIC,2012-05-15,8200.0
BIC,2012-05-16,7800.0
BIC,2012-05-17,7900.0
BIC,2012-05-18,7600.0
BIC,2012-05-21,8000.0
BIC,2012-05-22,7900.0
BIC,2012-05-23,7500.0
BIC,2012-05-24,7200.0
BIC,2012-05-25,7400.0
BIC,2012-05-28,7800.0
BIC,2012-05-29,7700.0
BIC,2012-05-30,7400.0
BIC,2012-05-31,7500.0
BIC,2012-06-01,7800.0
BIC,2012-06-04,7400.0
BIC,2012-06-05,7600.0
BIC,2012-06-06,7600.0
BIC,2012-06-07,7800.0
BIC,2012-06-08,7700.0
BIC,2012-06-11,7700.0
BIC,2012-06-12,7500.0
BIC,2012-06-13,7500.0
BIC,2012-06-14,7500.0
BIC,2012-06-15,7800.0
BIC,2012-06-18,7800.0
BIC,2012-06-19,7600.0
BIC,2012-06-20,7500.0
BIC,2012-06-21,7500.0
BIC,2012-06-22,7300.0
BIC,2012-06-25,7200.0
BIC,2012-06-26,6900.0
BIC,2012-06-27,6800.0
BIC,2012-06-28,6800.0
BIC,2012-06-29,7000.0
BIC,2012-07-02,6800.0
BIC,2012-07-03,6600.0
BIC,2012-07-04,6600.0
BIC,2012-07-05,6700.0
BIC,2012-07-06,6900.0
BIC,2012-07-09,6600.0
BIC,2012-07-10,6400.0
BIC,2012-07-11,6400.0
BIC,2012-07-12,6500.0
BIC,2012-07-13,6800.0
BIC,2012-07-16,6800.0
BIC,2012-07-17,7000.0
BIC,2012-07-18,7000.0
BIC,2012-07-19,7100.0
BIC,2012-07-20,7200.0
BIC,2012-07-23,7000.0
BIC,2012-07-24,6800.0
BIC,2012-07-25,6700.0
BIC,2012-07-26,6700.0
BIC,2012-07-27,6700.0
BIC,2012-07-30,6700.0
BIC,2012-07-31,6600.0
BIC,2012-08-01,6500.0
BIC,2012-08-02,6700.0
BIC,2012-08-03,6900.0
BIC,2012-08-06,7000.0
BIC,2012-08-07,6900.0
BIC,2012-08-08,6800.0
BIC,2012-08-09,6900.0
BIC,2012-08-10,7200.0
BIC,2012-08-13,7100.0
BIC,2012-08-14,7200.0
BIC,2012-08-15,7300.0
BIC,2012-08-16,7200.0
BIC,2012-08-17,7200.0
BIC,2012-08-20,7200.0
BIC,2012-08-21,6900.0
BIC,2012-08-22,6600.0
BIC,2012-08-23,6400.0
BIC,2012-08-24,6400.0
BIC,2012-08-27,6200.0
BIC,2012-08-28,6200.0
BIC,2012-08-29,6400.0
BIC,2012-08-30,6400.0
BIC,2012-08-31,6200.0
BIC,2012-09-04,6100.0
BIC,2012-09-05,6000.0
BIC,2012-09-06,5900.0
BIC,2012-09-07,6000.0
BIC,2012-09-10,5700.0
BIC,2012-09-11,5500.0
BIC,2012-09-12,5600.0
BIC,2012-09-13,5800.0
BIC,2012-09-14,6100.0
BIC,2012-09-17,6100.0
BIC,2012-09-18,5800.0
BIC,2012-09-19,5900.0
BIC,2012-09-20,5800.0
BIC,2012-09-21,5900.0
BIC,2012-09-24,5900.0
BIC,2012-09-25,5700.0
BIC,2012-09-26,5700.0
BIC,2012-09-27,5800.0
BIC,2012-09-28,5700.0
BIC,2012-10-01,5500.0
BIC,2012-10-02,5600.0
BIC,2012-10-03,5700.0
BIC,2012-10-04,5700.0
BIC,2012-10-05,5700.0
BIC,2012-10-08,5800.0
BIC,2012-10-09,5800.0
BIC,2012-10-10,6000.0
BIC,2012-10-11,6000.0
BIC,2012-10-12,5700.0
BIC,2012-10-15,5800.0
BIC,2012-10-16,6000.0
BIC,2012-10-17,6300.0
BIC,2012-10-18,6500.0
BIC,2012-10-19,6400.0
BIC,2012-10-22,6200.0
BIC,2012-10-23,6200.0
BIC,2012-10-24,6000.0
BIC,2012-10-25,6100.0
BIC,2012-10-26,6100.0
BIC,2012-10-29,6100.0
BIC,2012-10-30,5900.0
BIC,2012-10-31,5900.0
BIC,2012-11-01,6000.0
BIC,2012-11-02,5700.0
BIC,2012-11-05,5700.0
BIC,2012-11-06,5800.0
BIC,2012-11-07,5900.0
BIC,2012-11-08,5900.0
BIC,2012-11-09,6000.0
BIC,2012-11-12,6100.0
BIC,2012-11-13,6000.0
BIC,2012-11-14,5900.0
BIC,2012-11-15,5700.0
BIC,2012-11-16,5800.0
BIC,2012-11-19,5700.0
BIC,2012-11-20,5900.0
BIC,2012-11-21,5700.0
BIC,2012-11-22,5800.0
BIC,2012-11-23,5800.0
BIC,2012-11-26,5700.0
BIC,2012-11-27,5900.0
BIC,2012-11-28,5800.0
BIC,2012-11-29,5800.0
BIC,2012-11-30,5800.0
BIC,2012-12-03,5800.0
BIC,2012-12-04,5900.0
BIC,2012-12-05,6000.0
BIC,2012-12-06,5900.0
BIC,2012-12-07,5900.0
BIC,2012-12-10,6200.0
BIC,2012-12-11,6200.0
BIC,2012-12-12,6300.0
BIC,2012-12-13,6300.0
BIC,2012-12-14,6200.0
BIC,2012-12-17,6300.0
BIC,2012-12-18,6100.0
BIC,2012-12-19,6300.0
BIC,2012-12-20,6200.0
BIC,2012-12-21,6200.0
BIC,2012-12-24,6200.0
BIC,2012-12-25,6200.0
BIC,2012-12-26,6300.0
BIC,2012-12-27,6500.0
BIC,2012-12-28,6800.0
BIC,2013-01-02,6800.0
BIC,2013-01-03,6500.0
BIC,2013-01-04,6700.0
BIC,2013-01-07,6600.0
BIC,2013-01-08,6800.0
BIC,2013-01-09,6500.0
BIC,2013-01-10,6600.0
BIC,2013-01-11,6500.0
BIC,2013-01-14,6500.0
BIC,2013-01-15,6900.0
BIC,2013-01-16,7300.0
BIC,2013-01-17,7300.0
BIC,2013-01-18,7000.0
BIC,2013-01-21,6800.0
BIC,2013-01-22,6700.0
BIC,2013-01-23,6700.0
BIC,2013-01-24,6800.0
BIC,2013-01-25,6900.0
BIC,2013-01-28,6900.0
BIC,2013-01-29,6800.0
BIC,2013-01-30,6900.0
BIC,2013-01-31,6900.0
BIC,2013-02-01,6900.0
BIC,2013-02-04,6800.0
BIC,2013-02-05,6700.0
BIC,2013-02-06,7000.0
BIC,2013-02-07,7300.0
BIC,2013-02-08,7300.0
BIC,2013-02-18,7400.0
BIC,2013-02-19,7400.0
BIC,2013-02-20,7400.0
BIC,2013-02-21,7300.0
BIC,2013-02-22,7300.0
BIC,2013-02-25,7300.0
BIC,2013-02-26,7300.0
BIC,2013-02-27,7300.0
BIC,2013-02-28,7700.0
BIC,2013-03-01,7900.0
BIC,2013-03-04,7900.0
BIC,2013-03-05,7800.0
BIC,2013-03-06,7900.0
BIC,2013-03-07,7600.0
BIC,2013-03-08,8100.0
BIC,2013-03-11,8500.0
BIC,2013-03-12,8700.0
BIC,2013-03-13,8500.0
BIC,2013-03-14,8200.0
BIC,2013-03-15,8000.0
BIC,2013-03-18,8100.0
BIC,2013-03-19,7900.0
BIC,2013-03-20,8100.0
BIC,2013-03-21,8100.0
BIC,2013-03-22,8000.0
BIC,2013-03-25,8100.0
BIC,2013-03-26,8400.0
BIC,2013-03-27,8300.0
BIC,2013-03-28,8200.0
BIC,2013-03-29,8200.0
BIC,2013-04-01,8200.0
BIC,2013-04-02,8300.0
BIC,2013-04-03,8300.0
BIC,2013-04-04,8500.0
BIC,2013-04-05,9100.0
BIC,2013-04-08,9700.0
BIC,2013-04-09,10300.0
BIC,2013-04-10,10200.0
BIC,2013-04-11,9800.0
BIC,2013-04-12,9700.0
BIC,2013-04-15,9100.0
BIC,2013-04-16,9400.0
BIC,2013-04-17,9900.0
BIC,2013-04-18,10200.0
BIC,2013-04-22,10100.0
BIC,2013-04-23,10100.0
BIC,2013-04-24,10000.0
BIC,2013-04-25,9600.0
BIC,2013-04-26,9900.0
BIC,2013-05-02,9700.0
BIC,2013-05-03,9100.0
BIC,2013-05-06,9700.0
BIC,2013-05-07,9300.0
BIC,2013-05-08,9300.0
BIC,2013-05-09,9300.0
BIC,2013-05-10,9300.0
BIC,2013-05-13,9200.0
BIC,2013-05-14,8800.0
BIC,2013-05-15,8800.0
BIC,2013-05-16,9000.0
BIC,2013-05-17,9300.0
BIC,2013-05-20,9400.0
BIC,2013-05-21,9600.0
BIC,2013-05-22,9200.0
BIC,2013-05-23,9200.0
BIC,2013-05-24,9200.0
BIC,2013-05-27,9400.0
BIC,2013-05-28,9500.0
BIC,2013-05-29,9200.0
BIC,2013-05-30,9300.0
BIC,2013-05-31,9200.0
BIC,2013-06-03,9300.0
BIC,2013-06-04,9300.0
BIC,2013-06-05,9400.0
BIC,2013-06-06,10000.0
BIC,2013-06-07,10500.0
BIC,2013-06-10,10800.0
BIC,2013-06-11,11000.0
BIC,2013-06-12,11700.0
BIC,2013-06-13,12000.0
BIC,2013-06-14,11900.0
BIC,2013-06-17,11100.0
BIC,2013-06-18,10400.0
BIC,2013-06-19,11000.0
BIC,2013-06-20,10600.0
BIC,2013-06-21,9900.0
BIC,2013-06-24,10300.0
BIC,2013-06-25,9600.0
BIC,2013-06-26,9800.0
BIC,2013-06-27,9700.0
BIC,2013-06-28,9900.0
BIC,2013-07-01,9900.0
BIC,2013-07-02,10000.0
BIC,2013-07-03,10000.0
BIC,2013-07-04,10000.0
BIC,2013-07-05,9900.0
BIC,2013-07-08,9800.0
BIC,2013-07-09,9700.0
BIC,2013-07-10,9700.0
BIC,2013-07-11,9700.0
BIC,2013-07-12,9800.0
BIC,2013-07-15,9900.0
BIC,2013-07-16,10000.0
BIC,2013-07-17,9800.0
BIC,2013-07-18,9700.0
BIC,2013-07-19,9700.0
BIC,2013-07-22,9700.0
BIC,2013-07-23,9400.0
BIC,2013-07-24,9300.0
BIC,2013-07-25,8900.0
BIC,2013-07-26,9300.0
BIC,2013-07-29,8900.0
BIC,2013-07-30,9200.0
BIC,2013-07-31,9300.0
BIC,2013-08-01,9400.0
BIC,2013-08-02,9400.0
BIC,2013-08-05,9000.0
BIC,2013-08-06,9000.0
BIC,2013-08-07,9000.0
BIC,2013-08-08,8800.0
BIC,2013-08-09,9200.0
BIC,2013-08-12,9200.0
BIC,2013-08-13,9100.0
BIC,2013-08-14,8800.0
BIC,2013-08-15,9000.0
BIC,2013-08-16,9100.0
BIC,2013-08-19,9100.0
BIC,2013-08-20,9000.0
BIC,2013-08-21,8700.0
BIC,2013-08-22,8700.0
BIC,2013-08-23,8800.0
BIC,2013-08-26,8900.0
BIC,2013-08-27,8900.0
BIC,2013-08-28,8600.0
BIC,2013-08-29,8600.0
BIC,2013-08-30,8800.0
BIC,2013-09-03,8800.0
BIC,2013-09-04,9000.0
BIC,2013-09-05,9100.0
BIC,2013-09-06,9100.0
BIC,2013-09-09,9100.0
BIC,2013-09-10,9200.0
BIC,2013-09-11,9100.0
BIC,2013-09-12,9200.0
BIC,2013-09-13,8800.0
BIC,2013-09-16,9000.0
BIC,2013-09-17,8900.0
BIC,2013-09-18,9000.0
BIC,2013-09-19,8900.0
BIC,2013-09-20,9000.0
BIC,2013-09-23,9000.0
BIC,2013-09-24,9000.0
BIC,2013-09-25,8900.0
BIC,2013-09-26,8900.0
BIC,2013-09-27,8900.0
BIC,2013-09-30,9000.0
BIC,2013-10-01,9000.0
BIC,2013-10-02,9100.0
BIC,2013-10-03,8700.0
BIC,2013-10-04,8900.0
BIC,2013-10-07,9100.0
BIC,2013-10-08,9200.0
BIC,2013-10-09,9100.0
BIC,2013-10-10,9100.0
BIC,2013-10-11,9200.0
BIC,2013-10-14,9100.0
BIC,2013-10-15,9200.0
BIC,2013-10-16,9100.0
BIC,2013-10-17,9600.0
BIC,2013-10-18,9400.0
BIC,2013-10-21,9600.0
BIC,2013-10-22,9400.0
BIC,2013-10-23,9600.0
BIC,2013-10-24,10100.0
BIC,2013-10-25,10000.0
BIC,2013-10-28,9900.0
BIC,2013-10-29,9900.0
BIC,2013-10-30,10300.0
BIC,2013-10-31,10100.0
BIC,2013-11-01,10100.0
BIC,2013-11-04,10100.0
BIC,2013-11-05,10000.0
BIC,2013-11-06,10200.0
BIC,2013-11-07,10100.0
BIC,2013-11-08,10000.0
BIC,2013-11-11,10000.0
BIC,2013-11-12,10300.0
BIC,2013-11-13,10200.0
BIC,2013-11-14,10200.0
BIC,2013-11-15,10100.0
BIC,2013-11-18,10400.0
BIC,2013-11-19,10400.0
BIC,2013-11-20,10500.0
BIC,2013-11-21,10500.0
BIC,2013-11-22,11100.0
BIC,2013-11-25,11600.0
BIC,2013-11-26,11900.0
BIC,2013-11-27,11900.0
BIC,2013-11-28,11700.0
BIC,2013-11-29,11700.0
BIC,2013-12-02,11700.0
BIC,2013-12-03,11800.0
BIC,2013-12-04,12200.0
BIC,2013-12-05,12400.0
BIC,2013-12-06,12400.0
BIC,2013-12-09,12900.0
BIC,2013-12-10,12800.0
BIC,2013-12-11,12900.0
BIC,2013-12-12,12900.0
BIC,2013-12-13,12900.0
BIC,2013-12-16,12500.0
BIC,2013-12-17,13000.0
BIC,2013-12-18,13800.0
BIC,2013-12-19,14300.0
BIC,2013-12-20,14600.0
BIC,2013-12-23,13600.0
BIC,2013-12-24,13000.0
BIC,2013-12-25,13200.0
BIC,2013-12-26,13200.0
BIC,2013-12-27,13000.0
BIC,2013-12-30,12200.0
BIC,2013-12-31,12800.0
BIC,2014-01-02,12800.0
BIC,2014-01-03,12600.0
BIC,2014-01-06,12500.0
BIC,2014-01-07,12900.0
BIC,2014-01-08,12900.0
BIC,2014-01-09,12600.0
BIC,2014-01-10,12600.0
BIC,2014-01-13,12700.0
BIC,2014-01-14,12500.0
BIC,2014-01-15,12700.0
BIC,2014-01-16,12400.0
BIC,2014-01-17,12600.0
BIC,2014-01-20,12400.0
BIC,2014-01-21,12200.0
BIC,2014-01-22,12400.0
BIC,2014-01-23,12500.0
BIC,2014-01-24,12500.0
BIC,2014-01-27,12300.0
BIC,2014-02-06,12500.0
BIC,2014-02-07,12500.0
BIC,2014-02-10,12600.0
BIC,2014-02-11,12700.0
BIC,2014-02-12,13500.0
BIC,2014-02-13,13400.0
BIC,2014-02-14,13200.0
BIC,2014-02-17,13000.0
BIC,2014-02-18,13000.0
BIC,2014-02-19,13100.0
BIC,2014-02-20,13100.0
BIC,2014-02-21,13100.0
BIC,2014-02-24,13000.0
BIC,2014-02-25,13000.0
BIC,2014-02-26,13900.0
BIC,2014-02-27,13400.0
BIC,2014-02-28,13800.0
BIC,2014-03-03,12900.0
BIC,2014-03-04,13400.0
BIC,2014-03-05,13300.0
BIC,2014-03-06,13300.0
BIC,2014-03-07,13300.0
BIC,2014-03-10,13300.0
BIC,2014-03-11,13300.0
BIC,2014-03-12,13300.0
BIC,2014-03-13,13000.0
BIC,2014-03-14,13600.0
BIC,2014-03-17,13700.0
BIC,2014-03-18,13600.0
BIC,2014-03-19,13700.0
BIC,2014-03-20,13700.0
BIC,2014-03-21,13700.0
BIC,2014-03-24,13700.0
BIC,2014-03-25,14600.0
BIC,2014-03-26,15600.0
BIC,2014-03-27,15200.0
BIC,2014-03-28,15500.0
BIC,2014-03-31,14900.0
BIC,2014-04-01,13900.0
BIC,2014-04-02,13300.0
BIC,2014-04-03,13700.0
BIC,2014-04-04,13600.0
BIC,2014-04-07,13700.0
BIC,2014-04-08,13600.0
BIC,2014-04-10,13600.0
BIC,2014-04-11,14000.0
BIC,2014-04-14,13500.0
BIC,2014-04-15,13000.0
BIC,2014-04-16,12300.0
BIC,2014-04-17,12700.0
BIC,2014-04-18,12200.0
BIC,2014-04-21,11800.0
BIC,2014-04-22,11900.0
BIC,2014-04-23,11800.0
BIC,2014-04-24,11800.0
BIC,2014-04-25,11900.0
BIC,2014-04-28,11900.0
BIC,2014-04-29,11900.0
BIC,2014-05-05,11700.0
BIC,2014-05-06,10900.0
BIC,2014-05-07,11200.0
BIC,2014-05-08,10500.0
BIC,2014-05-09,10700.0
BIC,2014-05-12,10100.0
BIC,2014-05-13,10000.0
BIC,2014-05-14,10200.0
BIC,2014-05-15,10200.0
BIC,2014-05-16,10200.0
BIC,2014-05-19,10500.0
BIC,2014-05-20,10500.0
BIC,2014-05-21,11100.0
