BVH,2009-06-25,39700.0
BVH,2009-06-26,41700.0
BVH,2009-06-29,43400.0
BVH,2009-06-30,45600.0
BVH,2009-07-01,43400.0
BVH,2009-07-02,41300.0
BVH,2009-07-03,41300.0
BVH,2009-07-06,43000.0
BVH,2009-07-07,40800.0
BVH,2009-07-08,39900.0
BVH,2009-07-09,39900.0
BVH,2009-07-10,37900.0
BVH,2009-07-13,36000.0
BVH,2009-07-14,34300.0
BVH,2009-07-15,34000.0
BVH,2009-07-16,34500.0
BVH,2009-07-17,34100.0
BVH,2009-07-20,32500.0
BVH,2009-07-21,31800.0
BVH,2009-07-22,31600.0
BVH,2009-07-23,33200.0
BVH,2009-07-24,34800.0
BVH,2009-07-27,36400.0
BVH,2009-07-28,34800.0
BVH,2009-07-29,34400.0
BVH,2009-07-30,34000.0
BVH,2009-07-31,35600.0
BVH,2009-08-03,35600.0
BVH,2009-08-04,37000.0
BVH,2009-08-05,37700.0
BVH,2009-08-06,36100.0
BVH,2009-08-07,35300.0
BVH,2009-08-10,35800.0
BVH,2009-08-11,35300.0
BVH,2009-08-12,35400.0
BVH,2009-08-13,35900.0
BVH,2009-08-14,35400.0
BVH,2009-08-17,34800.0
BVH,2009-08-18,34600.0
BVH,2009-08-19,34600.0
BVH,2009-08-20,34000.0
BVH,2009-08-21,33400.0
BVH,2009-08-24,35000.0
BVH,2009-08-25,36700.0
BVH,2009-08-26,35500.0
BVH,2009-08-27,34400.0
BVH,2009-08-28,34900.0
BVH,2009-08-31,35200.0
BVH,2009-09-01,35000.0
BVH,2009-09-03,33600.0
BVH,2009-09-04,33500.0
BVH,2009-09-08,32600.0
BVH,2009-09-09,31800.0
BVH,2009-09-10,31500.0
BVH,2009-09-11,31500.0
BVH,2009-09-14,31800.0
BVH,2009-09-15,31600.0
BVH,2009-09-16,32100.0
BVH,2009-09-17,31700.0
BVH,2009-09-18,32200.0
BVH,2009-09-21,33000.0
BVH,2009-09-22,32200.0
BVH,2009-09-23,31900.0
BVH,2009-09-24,31500.0
BVH,2009-09-25,31600.0
BVH,2009-09-28,31000.0
BVH,2009-09-29,31600.0
BVH,2009-09-30,32800.0
BVH,2009-10-01,31300.0
BVH,2009-10-02,29700.0
BVH,2009-10-05,29000.0
BVH,2009-10-06,29100.0
BVH,2009-10-07,29900.0
BVH,2009-10-08,30100.0
BVH,2009-10-09,30300.0
BVH,2009-10-12,30600.0
BVH,2009-10-13,30100.0
BVH,2009-10-14,30500.0
BVH,2009-10-15,30600.0
BVH,2009-10-16,30100.0
BVH,2009-10-19,30000.0
BVH,2009-10-20,29900.0
BVH,2009-10-21,29700.0
BVH,2009-10-22,30100.0
BVH,2009-10-23,31600.0
BVH,2009-10-26,33100.0
BVH,2009-10-27,31500.0
BVH,2009-10-28,31900.0
BVH,2009-10-29,30400.0
BVH,2009-10-30,31400.0
BVH,2009-11-02,29800.0
BVH,2009-11-03,28800.0
BVH,2009-11-04,28800.0
BVH,2009-11-05,29100.0
BVH,2009-11-06,29200.0
BVH,2009-11-09,27800.0
BVH,2009-11-10,26800.0
BVH,2009-11-11,27100.0
BVH,2009-11-12,27300.0
BVH,2009-11-13,27000.0
BVH,2009-11-16,26600.0
BVH,2009-11-17,26300.0
BVH,2009-11-18,27500.0
BVH,2009-11-19,26800.0
BVH,2009-11-20,26900.0
BVH,2009-11-23,25600.0
BVH,2009-11-24,25400.0
BVH,2009-11-25,24200.0
BVH,2009-11-26,23000.0
BVH,2009-11-27,23000.0
BVH,2009-11-30,23200.0
BVH,2009-12-01,24300.0
BVH,2009-12-02,23700.0
BVH,2009-12-03,23600.0
BVH,2009-12-04,23400.0
BVH,2009-12-07,23100.0
BVH,2009-12-08,22400.0
BVH,2009-12-09,21300.0
BVH,2009-12-10,20600.0
BVH,2009-12-11,19600.0
BVH,2009-12-14,20500.0
BVH,2009-12-15,21500.0
BVH,2009-12-16,22400.0
BVH,2009-12-17,22400.0
BVH,2009-12-18,23600.0
BVH,2009-12-21,24700.0
BVH,2009-12-22,24900.0
BVH,2009-12-23,25500.0
BVH,2009-12-24,26700.0
BVH,2009-12-25,27000.0
BVH,2009-12-28,25800.0
BVH,2009-12-29,26300.0
BVH,2009-12-30,27600.0
BVH,2009-12-31,26300.0
BVH,2010-01-04,27300.0
BVH,2010-01-05,27500.0
BVH,2010-01-06,27400.0
BVH,2010-01-07,27000.0
BVH,2010-01-08,27100.0
BVH,2010-01-11,27100.0
BVH,2010-01-12,26600.0
BVH,2010-01-13,27900.0
BVH,2010-01-14,29200.0
BVH,2010-01-15,30100.0
BVH,2010-01-18,28600.0
BVH,2010-01-19,29800.0
BVH,2010-01-20,30100.0
BVH,2010-01-21,29500.0
BVH,2010-01-22,29700.0
BVH,2010-01-25,30000.0
BVH,2010-01-26,30500.0
BVH,2010-01-27,29700.0
BVH,2010-01-28,30300.0
BVH,2010-01-29,30500.0
BVH,2010-02-01,31000.0
BVH,2010-02-02,31300.0
BVH,2010-02-03,32700.0
BVH,2010-02-04,32800.0
BVH,2010-02-05,32800.0
BVH,2010-02-08,32800.0
BVH,2010-02-09,32700.0
BVH,2010-02-10,34000.0
BVH,2010-02-11,35600.0
BVH,2010-02-12,37300.0
BVH,2010-02-22,38900.0
BVH,2010-02-23,37000.0
BVH,2010-02-24,35200.0
BVH,2010-02-25,36900.0
BVH,2010-02-26,38700.0
BVH,2010-03-01,39100.0
BVH,2010-03-02,37200.0
BVH,2010-03-03,36900.0
BVH,2010-03-04,36900.0
BVH,2010-03-05,36900.0
BVH,2010-03-08,37400.0
BVH,2010-03-09,39100.0
BVH,2010-03-10,37800.0
BVH,2010-03-11,36100.0
BVH,2010-03-12,37700.0
BVH,2010-03-15,38300.0
BVH,2010-03-16,36600.0
BVH,2010-03-17,37000.0
BVH,2010-03-18,37000.0
BVH,2010-03-19,35700.0
BVH,2010-03-22,37000.0
BVH,2010-03-23,37000.0
BVH,2010-03-24,37300.0
BVH,2010-03-25,36600.0
BVH,2010-03-26,37800.0
BVH,2010-03-29,36700.0
BVH,2010-03-30,37000.0
BVH,2010-03-31,36600.0
BVH,2010-04-01,37000.0
BVH,2010-04-02,37000.0
BVH,2010-04-05,37100.0
BVH,2010-04-06,37300.0
BVH,2010-04-07,37200.0
BVH,2010-04-08,37200.0
BVH,2010-04-09,37200.0
BVH,2010-04-12,37800.0
BVH,2010-04-13,37700.0
BVH,2010-04-14,37500.0
BVH,2010-04-15,37700.0
BVH,2010-04-16,38600.0
BVH,2010-04-19,37800.0
BVH,2010-04-20,37400.0
BVH,2010-04-21,38100.0
BVH,2010-04-22,38700.0
BVH,2010-04-26,38900.0
BVH,2010-04-27,40400.0
BVH,2010-04-28,42400.0
BVH,2010-04-29,42100.0
BVH,2010-05-04,42100.0
BVH,2010-05-05,42000.0
BVH,2010-05-06,41700.0
BVH,2010-05-07,41700.0
BVH,2010-05-10,41700.0
BVH,2010-05-11,41900.0
BVH,2010-05-12,41600.0
BVH,2010-05-13,43400.0
BVH,2010-05-14,43900.0
BVH,2010-05-17,43900.0
BVH,2010-05-18,42600.0
BVH,2010-05-19,42600.0
BVH,2010-05-20,42600.0
BVH,2010-05-21,40500.0
BVH,2010-05-24,38500.0
BVH,2010-05-25,38900.0
BVH,2010-05-26,38700.0
BVH,2010-05-27,39800.0
BVH,2010-05-28,41700.0
BVH,2010-05-31,41100.0
BVH,2010-06-01,41100.0
BVH,2010-06-02,41100.0
BVH,2010-06-03,40400.0
BVH,2010-06-04,40400.0
BVH,2010-06-07,39600.0
BVH,2010-06-08,40700.0
BVH,2010-06-09,40400.0
BVH,2010-06-10,40400.0
BVH,2010-06-11,40500.0
BVH,2010-06-14,40500.0
BVH,2010-06-15,40300.0
BVH,2010-06-16,38400.0
BVH,2010-06-17,38700.0
BVH,2010-06-18,36700.0
BVH,2010-06-21,38500.0
BVH,2010-06-22,38600.0
BVH,2010-06-23,38600.0
BVH,2010-06-24,38300.0
BVH,2010-06-25,38600.0
BVH,2010-06-28,40000.0
BVH,2010-06-29,40400.0
BVH,2010-06-30,40400.0
BVH,2010-07-01,40000.0
BVH,2010-07-02,39600.0
BVH,2010-07-05,39000.0
BVH,2010-07-06,39200.0
BVH,2010-07-07,39100.0
BVH,2010-07-08,39000.0
BVH,2010-07-09,40300.0
BVH,2010-07-12,38800.0
BVH,2010-07-13,40400.0
BVH,2010-07-14,40500.0
BVH,2010-07-15,40300.0
BVH,2010-07-16,40900.0
BVH,2010-07-19,40700.0
BVH,2010-07-20,40900.0
BVH,2010-07-21,40900.0
BVH,2010-07-22,39600.0
BVH,2010-07-23,40700.0
BVH,2010-07-26,40700.0
BVH,2010-07-27,40900.0
BVH,2010-07-28,40900.0
BVH,2010-07-29,40900.0
BVH,2010-07-30,40900.0
BVH,2010-08-02,40900.0
BVH,2010-08-03,40800.0
BVH,2010-08-04,40700.0
BVH,2010-08-05,40700.0
BVH,2010-08-06,40600.0
BVH,2010-08-09,40400.0
BVH,2010-08-10,40000.0
BVH,2010-08-11,40300.0
BVH,2010-08-12,40000.0
BVH,2010-08-13,39600.0
BVH,2010-08-16,39600.0
BVH,2010-08-17,40400.0
BVH,2010-08-18,40300.0
BVH,2010-08-19,40400.0
BVH,2010-08-20,40200.0
BVH,2010-08-23,38900.0
BVH,2010-08-24,38700.0
BVH,2010-08-25,36700.0
BVH,2010-08-26,38500.0
BVH,2010-08-27,40300.0
BVH,2010-08-30,42300.0
BVH,2010-08-31,42600.0
BVH,2010-09-01,42600.0
BVH,2010-09-06,43100.0
BVH,2010-09-07,43100.0
BVH,2010-09-08,43900.0
BVH,2010-09-09,43900.0
BVH,2010-09-10,41700.0
BVH,2010-09-13,41700.0
BVH,2010-09-14,40900.0
BVH,2010-09-15,42500.0
BVH,2010-09-16,42900.0
BVH,2010-09-17,43000.0
BVH,2010-09-20,43600.0
BVH,2010-09-21,43900.0
BVH,2010-09-22,43900.0
BVH,2010-09-23,44400.0
BVH,2010-09-24,43900.0
BVH,2010-09-27,46100.0
BVH,2010-09-28,48200.0
BVH,2010-09-29,49600.0
BVH,2010-09-30,51900.0
BVH,2010-10-01,50500.0
BVH,2010-10-04,51400.0
BVH,2010-10-05,53800.0
BVH,2010-10-06,56100.0
BVH,2010-10-07,58900.0
BVH,2010-10-08,56100.0
BVH,2010-10-11,55600.0
BVH,2010-10-12,55600.0
BVH,2010-10-13,58000.0
BVH,2010-10-14,58900.0
BVH,2010-10-15,60300.0
BVH,2010-10-18,58900.0
BVH,2010-10-19,59400.0
BVH,2010-10-20,57000.0
BVH,2010-10-21,58900.0
BVH,2010-10-22,59900.0
BVH,2010-10-25,59400.0
BVH,2010-10-26,59900.0
BVH,2010-10-27,59900.0
BVH,2010-10-28,59900.0
BVH,2010-10-29,60300.0
BVH,2010-11-01,60300.0
BVH,2010-11-02,58500.0
BVH,2010-11-03,58000.0
BVH,2010-11-04,58900.0
BVH,2010-11-05,60300.0
BVH,2010-11-08,59400.0
BVH,2010-11-09,57000.0
BVH,2010-11-10,59900.0
BVH,2010-11-11,60300.0
BVH,2010-11-12,60800.0
BVH,2010-11-15,59400.0
BVH,2010-11-16,57500.0
BVH,2010-11-17,58900.0
BVH,2010-11-18,58900.0
BVH,2010-11-19,57500.0
BVH,2010-11-22,58900.0
BVH,2010-11-23,57500.0
BVH,2010-11-24,59900.0
BVH,2010-11-25,59900.0
BVH,2010-11-26,59400.0
BVH,2010-11-29,59900.0
BVH,2010-11-30,59400.0
BVH,2010-12-01,59400.0
BVH,2010-12-02,59900.0
BVH,2010-12-03,59900.0
BVH,2010-12-06,59900.0
BVH,2010-12-07,60300.0
BVH,2010-12-08,60300.0
BVH,2010-12-09,60800.0
BVH,2010-12-10,63600.0
BVH,2010-12-13,66400.0
BVH,2010-12-14,66900.0
BVH,2010-12-15,68300.0
BVH,2010-12-16,65000.0
BVH,2010-12-17,62200.0
BVH,2010-12-20,59400.0
BVH,2010-12-21,62200.0
BVH,2010-12-22,65000.0
BVH,2010-12-23,63100.0
BVH,2010-12-24,60300.0
BVH,2010-12-27,61300.0
BVH,2010-12-28,62200.0
BVH,2010-12-29,61700.0
BVH,2010-12-30,62700.0
BVH,2010-12-31,60300.0
BVH,2011-01-04,63100.0
BVH,2011-01-05,64100.0
BVH,2011-01-06,65900.0
BVH,2011-01-07,66900.0
BVH,2011-01-10,68700.0
BVH,2011-01-11,70600.0
BVH,2011-01-12,71100.0
BVH,2011-01-13,73400.0
BVH,2011-01-14,76700.0
BVH,2011-01-17,80400.0
BVH,2011-01-18,84200.0
BVH,2011-01-19,88400.0
BVH,2011-01-20,92600.0
BVH,2011-01-21,96300.0
BVH,2011-01-24,91700.0
BVH,2011-01-25,87400.0
BVH,2011-01-26,83200.0
BVH,2011-01-27,79500.0
BVH,2011-01-28,83200.0
BVH,2011-02-08,87000.0
BVH,2011-02-09,91200.0
BVH,2011-02-10,89300.0
BVH,2011-02-11,88400.0
BVH,2011-02-14,84600.0
BVH,2011-02-15,88800.0
BVH,2011-02-16,88400.0
BVH,2011-02-17,88400.0
BVH,2011-02-18,88800.0
BVH,2011-02-21,84600.0
BVH,2011-02-22,80400.0
BVH,2011-02-23,76700.0
BVH,2011-02-24,72900.0
BVH,2011-02-25,70100.0
BVH,2011-02-28,66900.0
BVH,2011-03-01,70100.0
BVH,2011-03-02,73400.0
BVH,2011-03-03,71100.0
BVH,2011-03-04,74300.0
BVH,2011-03-07,77600.0
BVH,2011-03-08,80400.0
BVH,2011-03-09,78600.0
BVH,2011-03-10,82300.0
BVH,2011-03-11,86000.0
BVH,2011-03-14,84600.0
BVH,2011-03-15,80400.0
BVH,2011-03-16,76700.0
BVH,2011-03-17,72900.0
BVH,2011-03-18,69700.0
BVH,2011-03-21,71100.0
BVH,2011-03-22,71100.0
BVH,2011-03-23,70600.0
BVH,2011-03-24,67800.0
BVH,2011-03-25,65900.0
BVH,2011-03-28,68300.0
BVH,2011-03-29,67800.0
BVH,2011-03-30,70100.0
BVH,2011-03-31,69700.0
BVH,2011-04-01,68300.0
BVH,2011-04-04,68300.0
BVH,2011-04-05,69700.0
BVH,2011-04-06,70100.0
BVH,2011-04-07,70100.0
BVH,2011-04-08,69200.0
BVH,2011-04-13,68300.0
BVH,2011-04-14,68700.0
BVH,2011-04-15,71100.0
BVH,2011-04-18,71500.0
BVH,2011-04-19,70100.0
BVH,2011-04-20,73400.0
BVH,2011-04-21,76700.0
BVH,2011-04-22,75800.0
BVH,2011-04-25,79000.0
BVH,2011-04-26,77600.0
BVH,2011-04-27,80400.0
BVH,2011-04-28,82800.0
BVH,2011-04-29,85600.0
BVH,2011-05-04,87000.0
BVH,2011-05-05,82800.0
BVH,2011-05-06,79000.0
BVH,2011-05-09,82800.0
BVH,2011-05-10,83700.0
BVH,2011-05-11,82800.0
BVH,2011-05-12,82300.0
BVH,2011-05-13,84600.0
BVH,2011-05-16,84200.0
BVH,2011-05-17,84200.0
BVH,2011-05-18,80000.0
BVH,2011-05-19,76200.0
BVH,2011-05-20,72500.0
BVH,2011-05-23,69200.0
BVH,2011-05-24,67300.0
BVH,2011-05-25,64100.0
BVH,2011-05-26,66900.0
BVH,2011-05-27,70100.0
BVH,2011-05-30,73400.0
BVH,2011-05-31,76700.0
BVH,2011-06-01,80200.0
BVH,2011-06-02,84000.0
BVH,2011-06-03,84000.0
BVH,2011-06-06,80700.0
BVH,2011-06-07,84500.0
BVH,2011-06-08,84900.0
BVH,2011-06-09,85400.0
BVH,2011-06-10,85400.0
BVH,2011-06-13,81100.0
BVH,2011-06-14,77800.0
BVH,2011-06-15,81100.0
BVH,2011-06-16,79700.0
BVH,2011-06-17,76400.0
BVH,2011-06-20,74000.0
BVH,2011-06-21,77400.0
BVH,2011-06-22,76400.0
BVH,2011-06-23,73600.0
BVH,2011-06-24,72600.0
BVH,2011-06-27,72100.0
BVH,2011-06-28,72100.0
BVH,2011-06-29,75000.0
BVH,2011-06-30,74500.0
BVH,2011-07-01,71700.0
BVH,2011-07-04,70700.0
BVH,2011-07-05,71200.0
BVH,2011-07-06,70700.0
BVH,2011-07-07,70200.0
BVH,2011-07-08,69800.0
BVH,2011-07-11,69300.0
BVH,2011-07-12,66900.0
BVH,2011-07-13,66900.0
BVH,2011-07-14,70200.0
BVH,2011-07-15,69300.0
BVH,2011-07-18,68800.0
BVH,2011-07-19,67400.0
BVH,2011-07-20,68800.0
BVH,2011-07-21,67400.0
BVH,2011-07-22,65500.0
BVH,2011-07-25,65500.0
BVH,2011-07-26,64100.0
BVH,2011-07-27,63100.0
BVH,2011-07-28,62600.0
BVH,2011-07-29,62600.0
BVH,2011-08-01,59800.0
BVH,2011-08-02,56900.0
BVH,2011-08-03,54100.0
BVH,2011-08-04,56500.0
BVH,2011-08-05,58800.0
BVH,2011-08-08,59300.0
BVH,2011-08-09,56500.0
BVH,2011-08-10,54600.0
BVH,2011-08-11,54100.0
BVH,2011-08-12,53100.0
BVH,2011-08-15,52200.0
BVH,2011-08-16,52700.0
BVH,2011-08-17,55000.0
BVH,2011-08-18,57400.0
BVH,2011-08-19,56500.0
BVH,2011-08-22,56900.0
BVH,2011-08-23,54600.0
BVH,2011-08-24,52700.0
BVH,2011-08-25,53600.0
BVH,2011-08-26,53600.0
BVH,2011-08-29,56000.0
BVH,2011-08-30,56500.0
BVH,2011-08-31,55000.0
BVH,2011-09-01,56000.0
BVH,2011-09-05,58400.0
BVH,2011-09-06,61200.0
BVH,2011-09-07,64100.0
BVH,2011-09-08,66900.0
BVH,2011-09-09,67900.0
BVH,2011-09-12,71200.0
BVH,2011-09-13,74500.0
BVH,2011-09-14,77800.0
BVH,2011-09-15,81600.0
BVH,2011-09-16,77800.0
BVH,2011-09-19,74000.0
BVH,2011-09-20,70700.0
BVH,2011-09-21,67400.0
BVH,2011-09-22,70700.0
BVH,2011-09-23,68300.0
BVH,2011-09-26,65000.0
BVH,2011-09-27,67900.0
BVH,2011-09-28,65500.0
BVH,2011-09-29,64100.0
BVH,2011-09-30,63600.0
BVH,2011-10-03,60700.0
BVH,2011-10-04,60700.0
BVH,2011-10-05,59300.0
BVH,2011-10-06,59800.0
BVH,2011-10-07,59300.0
BVH,2011-10-10,60300.0
BVH,2011-10-11,59800.0
BVH,2011-10-12,58400.0
BVH,2011-10-13,58800.0
BVH,2011-10-14,59300.0
BVH,2011-10-17,59300.0
BVH,2011-10-18,57400.0
BVH,2011-10-19,56900.0
BVH,2011-10-20,56900.0
BVH,2011-10-21,59800.0
BVH,2011-10-24,61200.0
BVH,2011-10-25,59300.0
BVH,2011-10-26,62200.0
BVH,2011-10-27,65000.0
BVH,2011-10-28,67900.0
BVH,2011-10-31,67900.0
BVH,2011-11-01,64500.0
BVH,2011-11-02,61700.0
BVH,2011-11-03,61200.0
BVH,2011-11-04,62200.0
BVH,2011-11-07,60700.0
BVH,2011-11-08,60300.0
BVH,2011-11-09,59800.0
BVH,2011-11-10,59800.0
BVH,2011-11-11,58800.0
BVH,2011-11-14,58400.0
BVH,2011-11-15,59300.0
BVH,2011-11-16,60300.0
BVH,2011-11-17,57400.0
BVH,2011-11-18,56500.0
BVH,2011-11-21,54100.0
BVH,2011-11-22,56500.0
BVH,2011-11-23,58800.0
BVH,2011-11-24,57400.0
BVH,2011-11-25,57900.0
BVH,2011-11-28,56900.0
BVH,2011-11-29,56000.0
BVH,2011-11-30,55500.0
BVH,2011-12-01,55500.0
BVH,2011-12-02,56900.0
BVH,2011-12-05,59800.0
BVH,2011-12-06,57900.0
BVH,2011-12-07,57400.0
BVH,2011-12-08,56000.0
BVH,2011-12-09,54600.0
BVH,2011-12-12,54600.0
BVH,2011-12-13,53600.0
BVH,2011-12-14,51700.0
BVH,2011-12-15,49400.0
BVH,2011-12-16,49400.0
BVH,2011-12-19,49800.0
BVH,2011-12-20,49800.0
BVH,2011-12-21,49800.0
BVH,2011-12-22,47400.0
BVH,2011-12-23,45500.0
BVH,2011-12-26,43300.0
BVH,2011-12-27,41200.0
BVH,2011-12-28,40300.0
BVH,2011-12-29,39400.0
BVH,2011-12-30,38900.0
BVH,2012-01-03,40700.0
BVH,2012-01-04,40600.0
BVH,2012-01-05,38700.0
BVH,2012-01-06,36800.0
BVH,2012-01-09,35000.0
BVH,2012-01-10,36700.0
BVH,2012-01-11,38500.0
BVH,2012-01-12,40400.0
BVH,2012-01-13,42400.0
BVH,2012-01-16,41800.0
BVH,2012-01-17,43800.0
BVH,2012-01-18,46000.0
BVH,2012-01-19,47900.0
BVH,2012-01-20,47500.0
BVH,2012-01-30,49800.0
BVH,2012-01-31,49400.0
BVH,2012-02-01,49800.0
BVH,2012-02-02,52200.0
BVH,2012-02-03,53100.0
BVH,2012-02-06,53100.0
BVH,2012-02-07,55500.0
BVH,2012-02-08,56900.0
BVH,2012-02-09,56000.0
BVH,2012-02-10,54600.0
BVH,2012-02-13,52200.0
BVH,2012-02-14,52200.0
BVH,2012-02-15,51300.0
BVH,2012-02-16,50300.0
BVH,2012-02-17,52700.0
BVH,2012-02-20,55000.0
BVH,2012-02-21,55000.0
BVH,2012-02-22,56900.0
BVH,2012-02-23,57400.0
BVH,2012-02-24,56900.0
BVH,2012-02-27,55500.0
BVH,2012-02-28,54100.0
BVH,2012-02-29,52200.0
BVH,2012-03-01,54600.0
BVH,2012-03-02,56900.0
BVH,2012-03-05,59800.0
BVH,2012-03-06,56900.0
BVH,2012-03-07,57900.0
BVH,2012-03-08,55500.0
BVH,2012-03-09,56000.0
BVH,2012-03-12,58400.0
BVH,2012-03-13,61200.0
BVH,2012-03-14,64100.0
BVH,2012-03-15,66900.0
BVH,2012-03-16,70200.0
BVH,2012-03-19,66900.0
BVH,2012-03-20,63600.0
BVH,2012-03-21,66000.0
BVH,2012-03-22,66000.0
BVH,2012-03-23,68800.0
BVH,2012-03-26,71200.0
BVH,2012-03-27,67900.0
BVH,2012-03-28,69300.0
BVH,2012-03-29,67900.0
BVH,2012-03-30,71200.0
BVH,2012-04-03,70200.0
BVH,2012-04-04,68300.0
BVH,2012-04-05,69800.0
BVH,2012-04-06,70200.0
BVH,2012-04-09,70200.0
BVH,2012-04-10,68300.0
BVH,2012-04-11,68800.0
BVH,2012-04-12,68800.0
BVH,2012-04-13,70200.0
BVH,2012-04-16,68800.0
BVH,2012-04-17,68300.0
BVH,2012-04-18,67400.0
BVH,2012-04-19,69300.0
BVH,2012-04-20,68300.0
BVH,2012-04-23,67400.0
BVH,2012-04-24,66000.0
BVH,2012-04-25,68300.0
BVH,2012-04-26,65500.0
BVH,2012-04-27,66000.0
BVH,2012-05-02,66000.0
BVH,2012-05-03,65000.0
BVH,2012-05-04,65000.0
BVH,2012-05-07,67900.0
BVH,2012-05-08,65500.0
BVH,2012-05-09,65000.0
BVH,2012-05-10,63600.0
BVH,2012-05-11,62600.0
BVH,2012-05-14,59800.0
BVH,2012-05-15,56900.0
BVH,2012-05-16,54100.0
BVH,2012-05-17,51700.0
BVH,2012-05-18,50800.0
BVH,2012-05-21,53100.0
BVH,2012-05-22,52200.0
BVH,2012-05-23,50300.0
BVH,2012-05-24,48400.0
BVH,2012-05-25,50800.0
BVH,2012-05-28,49500.0
BVH,2012-05-29,47600.0
BVH,2012-05-30,48300.0
BVH,2012-05-31,47900.0
BVH,2012-06-01,48500.0
BVH,2012-06-04,46600.0
BVH,2012-06-05,46700.0
BVH,2012-06-06,48000.0
BVH,2012-06-07,50000.0
BVH,2012-06-08,49000.0
BVH,2012-06-11,48200.0
BVH,2012-06-12,47400.0
BVH,2012-06-13,47100.0
BVH,2012-06-14,46900.0
BVH,2012-06-15,49000.0
BVH,2012-06-18,49000.0
BVH,2012-06-19,48100.0
BVH,2012-06-20,48300.0
BVH,2012-06-21,47800.0
BVH,2012-06-22,47100.0
BVH,2012-06-25,45600.0
BVH,2012-06-26,43400.0
BVH,2012-06-27,42200.0
BVH,2012-06-28,41100.0
BVH,2012-06-29,42600.0
BVH,2012-07-02,42000.0
BVH,2012-07-03,40700.0
BVH,2012-07-04,40600.0
BVH,2012-07-05,41500.0
BVH,2012-07-06,42300.0
BVH,2012-07-09,40600.0
BVH,2012-07-10,39800.0
BVH,2012-07-11,40000.0
BVH,2012-07-12,40200.0
BVH,2012-07-13,41900.0
BVH,2012-07-16,40900.0
BVH,2012-07-17,41700.0
BVH,2012-07-18,42300.0
BVH,2012-07-19,44400.0
BVH,2012-07-20,46500.0
BVH,2012-07-23,45400.0
BVH,2012-07-24,43200.0
BVH,2012-07-25,41300.0
BVH,2012-07-26,41000.0
BVH,2012-07-27,40000.0
BVH,2012-07-30,40000.0
BVH,2012-07-31,40100.0
BVH,2012-08-01,39400.0
BVH,2012-08-02,39600.0
BVH,2012-08-03,39600.0
BVH,2012-08-06,40600.0
BVH,2012-08-07,40100.0
BVH,2012-08-08,39900.0
BVH,2012-08-09,41000.0
BVH,2012-08-10,41100.0
BVH,2012-08-13,40500.0
BVH,2012-08-14,40700.0
BVH,2012-08-15,40400.0
BVH,2012-08-16,40300.0
BVH,2012-08-17,40300.0
BVH,2012-08-20,40700.0
BVH,2012-08-21,38700.0
BVH,2012-08-22,36900.0
BVH,2012-08-23,35000.0
BVH,2012-08-24,34100.0
BVH,2012-08-27,32400.0
BVH,2012-08-28,30900.0
BVH,2012-08-29,31400.0
BVH,2012-08-30,30900.0
BVH,2012-08-31,29600.0
BVH,2012-09-04,30000.0
BVH,2012-09-05,28600.0
BVH,2012-09-06,27300.0
BVH,2012-09-07,26700.0
BVH,2012-09-10,25400.0
BVH,2012-09-11,24300.0
BVH,2012-09-12,25400.0
BVH,2012-09-13,26700.0
BVH,2012-09-14,28000.0
BVH,2012-09-17,29300.0
BVH,2012-09-18,29100.0
BVH,2012-09-19,30600.0
BVH,2012-09-20,32000.0
BVH,2012-09-21,33600.0
BVH,2012-09-24,31900.0
BVH,2012-09-25,30400.0
BVH,2012-09-26,31600.0
BVH,2012-09-27,31700.0
BVH,2012-09-28,31500.0
BVH,2012-10-01,29900.0
BVH,2012-10-02,28600.0
BVH,2012-10-03,29400.0
BVH,2012-10-04,28600.0
BVH,2012-10-05,29000.0
BVH,2012-10-08,29900.0
BVH,2012-10-09,30400.0
BVH,2012-10-10,30700.0
BVH,2012-10-11,30700.0
BVH,2012-10-12,30200.0
BVH,2012-10-15,29300.0
BVH,2012-10-16,30500.0
BVH,2012-10-17,29700.0
BVH,2012-10-18,29800.0
BVH,2012-10-19,29500.0
BVH,2012-10-22,30200.0
BVH,2012-10-23,30300.0
BVH,2012-10-24,30100.0
BVH,2012-10-25,29400.0
BVH,2012-10-26,29800.0
BVH,2012-10-29,29600.0
BVH,2012-10-30,29100.0
BVH,2012-10-31,29100.0
BVH,2012-11-01,28900.0
BVH,2012-11-02,27600.0
BVH,2012-11-05,26200.0
BVH,2012-11-06,25600.0
BVH,2012-11-07,26900.0
BVH,2012-11-08,28200.0
BVH,2012-11-09,27800.0
BVH,2012-11-12,27700.0
BVH,2012-11-13,27700.0
BVH,2012-11-14,27600.0
BVH,2012-11-15,26900.0
BVH,2012-11-16,27200.0
BVH,2012-11-19,27000.0
BVH,2012-11-20,27000.0
BVH,2012-11-21,26900.0
BVH,2012-11-22,26900.0
BVH,2012-11-23,27000.0
BVH,2012-11-26,27000.0
BVH,2012-11-27,26900.0
BVH,2012-11-28,26600.0
BVH,2012-11-29,26700.0
BVH,2012-11-30,26500.0
BVH,2012-12-03,26600.0
BVH,2012-12-04,27400.0
BVH,2012-12-05,27500.0
BVH,2012-12-06,27200.0
BVH,2012-12-07,27000.0
BVH,2012-12-10,27400.0
BVH,2012-12-11,28300.0
BVH,2012-12-12,29700.0
BVH,2012-12-13,30900.0
BVH,2012-12-14,31200.0
BVH,2012-12-17,30000.0
BVH,2012-12-18,29900.0
BVH,2012-12-19,31400.0
BVH,2012-12-20,32900.0
BVH,2012-12-21,33400.0
BVH,2012-12-24,34500.0
BVH,2012-12-25,34300.0
BVH,2012-12-26,34700.0
BVH,2012-12-27,35700.0
BVH,2012-12-28,37300.0
BVH,2013-01-02,39100.0
BVH,2013-01-03,41100.0
BVH,2013-01-04,43100.0
BVH,2013-01-07,45200.0
BVH,2013-01-08,47500.0
BVH,2013-01-09,45100.0
BVH,2013-01-10,47400.0
BVH,2013-01-11,45600.0
BVH,2013-01-14,43400.0
BVH,2013-01-15,42800.0
BVH,2013-01-16,45100.0
BVH,2013-01-17,42700.0
BVH,2013-01-18,43400.0
BVH,2013-01-21,42200.0
BVH,2013-01-22,40800.0
BVH,2013-01-23,41300.0
BVH,2013-01-24,44100.0
BVH,2013-01-25,47100.0
BVH,2013-01-28,50000.0
BVH,2013-01-29,51000.0
BVH,2013-01-30,53400.0
BVH,2013-01-31,51000.0
BVH,2013-02-01,54400.0
BVH,2013-02-04,56300.0
BVH,2013-02-05,54400.0
BVH,2013-02-06,57800.0
BVH,2013-02-07,56300.0
BVH,2013-02-08,57800.0
BVH,2013-02-18,55800.0
BVH,2013-02-19,56300.0
BVH,2013-02-20,57800.0
BVH,2013-02-21,53900.0
BVH,2013-02-22,51900.0
BVH,2013-02-25,53400.0
BVH,2013-02-26,50000.0
BVH,2013-02-27,48500.0
BVH,2013-02-28,51900.0
BVH,2013-03-01,54900.0
BVH,2013-03-04,51500.0
BVH,2013-03-05,49000.0
BVH,2013-03-06,52400.0
BVH,2013-03-07,49500.0
BVH,2013-03-08,51000.0
BVH,2013-03-11,50000.0
BVH,2013-03-12,51000.0
BVH,2013-03-13,49500.0
BVH,2013-03-14,49500.0
BVH,2013-03-15,50500.0
BVH,2013-03-18,49000.0
BVH,2013-03-19,50500.0
BVH,2013-03-20,49500.0
BVH,2013-03-21,49500.0
BVH,2013-03-22,48500.0
BVH,2013-03-25,50000.0
BVH,2013-03-26,49500.0
BVH,2013-03-27,49000.0
BVH,2013-03-28,49000.0
BVH,2013-03-29,48200.0
BVH,2013-04-01,51500.0
BVH,2013-04-02,54400.0
BVH,2013-04-03,53400.0
BVH,2013-04-04,51500.0
BVH,2013-04-05,53400.0
BVH,2013-04-08,54400.0
BVH,2013-04-09,52900.0
BVH,2013-04-10,49500.0
BVH,2013-04-11,50500.0
BVH,2013-04-12,49500.0
BVH,2013-04-15,47400.0
BVH,2013-04-16,46100.0
BVH,2013-04-17,46300.0
BVH,2013-04-18,43700.0
BVH,2013-04-22,43700.0
BVH,2013-04-23,44700.0
BVH,2013-04-24,43900.0
BVH,2013-04-25,44700.0
BVH,2013-04-26,45500.0
BVH,2013-05-02,44700.0
BVH,2013-05-03,44800.0
BVH,2013-05-06,47800.0
BVH,2013-05-07,49000.0
BVH,2013-05-08,48100.0
BVH,2013-05-09,48500.0
BVH,2013-05-10,49000.0
BVH,2013-05-13,51500.0
BVH,2013-05-14,49500.0
BVH,2013-05-15,50000.0
BVH,2013-05-16,50000.0
BVH,2013-05-17,48500.0
BVH,2013-05-20,50000.0
BVH,2013-05-21,50500.0
BVH,2013-05-22,52400.0
BVH,2013-05-23,51000.0
BVH,2013-05-24,50500.0
BVH,2013-05-27,51000.0
BVH,2013-05-28,51500.0
BVH,2013-05-29,50000.0
BVH,2013-05-30,51000.0
BVH,2013-05-31,50000.0
BVH,2013-06-03,50000.0
BVH,2013-06-04,48500.0
BVH,2013-06-05,50000.0
BVH,2013-06-06,50500.0
BVH,2013-06-07,50500.0
BVH,2013-06-10,50500.0
BVH,2013-06-11,51000.0
BVH,2013-06-12,50000.0
BVH,2013-06-13,50500.0
BVH,2013-06-14,49000.0
BVH,2013-06-17,47400.0
BVH,2013-06-18,47700.0
BVH,2013-06-19,49500.0
BVH,2013-06-20,48000.0
BVH,2013-06-21,47600.0
BVH,2013-06-24,45900.0
BVH,2013-06-25,43000.0
BVH,2013-06-26,41500.0
BVH,2013-06-27,42700.0
BVH,2013-06-28,42100.0
BVH,2013-07-01,41700.0
BVH,2013-07-02,43500.0
BVH,2013-07-03,42500.0
BVH,2013-07-04,42500.0
BVH,2013-07-05,42400.0
BVH,2013-07-08,42600.0
BVH,2013-07-09,42300.0
BVH,2013-07-10,41700.0
BVH,2013-07-11,41500.0
BVH,2013-07-12,42600.0
BVH,2013-07-15,43400.0
BVH,2013-07-16,43200.0
BVH,2013-07-17,42900.0
BVH,2013-07-18,42600.0
BVH,2013-07-19,44000.0
BVH,2013-07-22,46300.0
BVH,2013-07-23,44600.0
BVH,2013-07-24,43200.0
BVH,2013-07-25,42000.0
BVH,2013-07-26,42500.0
BVH,2013-07-29,41300.0
BVH,2013-07-30,41900.0
BVH,2013-07-31,41700.0
BVH,2013-08-01,41300.0
BVH,2013-08-02,41700.0
BVH,2013-08-05,41800.0
BVH,2013-08-06,41800.0
BVH,2013-08-07,42100.0
BVH,2013-08-08,41600.0
BVH,2013-08-09,41800.0
BVH,2013-08-12,41800.0
BVH,2013-08-13,41200.0
BVH,2013-08-14,41800.0
BVH,2013-08-15,41900.0
BVH,2013-08-16,41900.0
BVH,2013-08-19,42600.0
BVH,2013-08-20,42100.0
BVH,2013-08-21,41800.0
BVH,2013-08-22,41100.0
BVH,2013-08-23,38700.0
BVH,2013-08-26,39000.0
BVH,2013-08-27,38000.0
BVH,2013-08-28,35600.0
BVH,2013-08-29,34000.0
BVH,2013-08-30,35900.0
BVH,2013-09-03,35600.0
BVH,2013-09-04,34600.0
BVH,2013-09-05,36600.0
BVH,2013-09-06,37000.0
BVH,2013-09-09,35800.0
BVH,2013-09-10,36300.0
BVH,2013-09-11,36400.0
BVH,2013-09-12,36200.0
BVH,2013-09-13,36100.0
BVH,2013-09-16,35100.0
BVH,2013-09-17,35500.0
BVH,2013-09-18,34900.0
BVH,2013-09-19,35800.0
BVH,2013-09-20,35500.0
BVH,2013-09-23,35800.0
BVH,2013-09-24,36600.0
BVH,2013-09-25,37100.0
BVH,2013-09-26,37000.0
BVH,2013-09-27,37000.0
BVH,2013-09-30,37400.0
BVH,2013-10-01,38400.0
BVH,2013-10-02,39500.0
BVH,2013-10-03,39000.0
BVH,2013-10-04,39100.0
BVH,2013-10-07,40200.0
BVH,2013-10-08,39800.0
BVH,2013-10-09,39200.0
BVH,2013-10-10,38500.0
BVH,2013-10-11,38600.0
BVH,2013-10-14,38000.0
BVH,2013-10-15,38300.0
BVH,2013-10-16,39000.0
BVH,2013-10-17,39100.0
BVH,2013-10-18,39300.0
BVH,2013-10-21,40000.0
BVH,2013-10-22,39600.0
BVH,2013-10-23,40600.0
BVH,2013-10-24,40600.0
BVH,2013-10-25,40200.0
BVH,2013-10-28,39600.0
BVH,2013-10-29,40300.0
BVH,2013-10-30,40300.0
BVH,2013-10-31,39800.0
BVH,2013-11-01,39400.0
BVH,2013-11-04,39500.0
BVH,2013-11-05,40100.0
BVH,2013-11-06,40300.0
BVH,2013-11-07,39800.0
BVH,2013-11-08,39600.0
BVH,2013-11-11,39900.0
BVH,2013-11-12,39400.0
BVH,2013-11-13,39000.0
BVH,2013-11-14,39000.0
BVH,2013-11-15,39300.0
BVH,2013-11-18,39600.0
BVH,2013-11-19,39600.0
BVH,2013-11-20,39500.0
BVH,2013-11-21,39400.0
BVH,2013-11-22,39600.0
BVH,2013-11-25,41000.0
BVH,2013-11-26,41400.0
BVH,2013-11-27,41600.0
BVH,2013-11-28,41400.0
BVH,2013-11-29,41300.0
BVH,2013-12-02,40700.0
BVH,2013-12-03,41300.0
BVH,2013-12-04,41000.0
BVH,2013-12-05,40500.0
BVH,2013-12-06,40500.0
BVH,2013-12-09,40500.0
BVH,2013-12-10,40100.0
BVH,2013-12-11,39000.0
BVH,2013-12-12,39500.0
BVH,2013-12-13,39200.0
BVH,2013-12-16,38800.0
BVH,2013-12-17,39000.0
BVH,2013-12-18,38900.0
BVH,2013-12-19,38800.0
BVH,2013-12-20,38700.0
BVH,2013-12-23,39100.0
BVH,2013-12-24,38600.0
BVH,2013-12-25,38400.0
BVH,2013-12-26,38500.0
BVH,2013-12-27,38300.0
BVH,2013-12-30,37500.0
BVH,2013-12-31,37800.0
BVH,2014-01-02,37800.0
BVH,2014-01-03,37900.0
BVH,2014-01-06,38300.0
BVH,2014-01-07,38400.0
BVH,2014-01-08,38400.0
BVH,2014-01-09,38800.0
BVH,2014-01-10,39100.0
BVH,2014-01-13,38700.0
BVH,2014-01-14,38800.0
BVH,2014-01-15,38800.0
BVH,2014-01-16,38700.0
BVH,2014-01-17,41400.0
BVH,2014-01-20,44200.0
BVH,2014-01-21,47200.0
BVH,2014-01-22,48000.0
BVH,2014-01-23,46000.0
BVH,2014-01-24,46000.0
BVH,2014-01-27,46500.0
BVH,2014-02-06,47900.0
BVH,2014-02-07,46300.0
BVH,2014-02-10,46300.0
BVH,2014-02-11,45900.0
BVH,2014-02-12,48200.0
BVH,2014-02-13,48100.0
BVH,2014-02-14,47800.0
BVH,2014-02-17,47500.0
BVH,2014-02-18,47800.0
BVH,2014-02-19,48100.0
BVH,2014-02-20,46100.0
BVH,2014-02-21,46000.0
BVH,2014-02-24,46300.0
BVH,2014-02-25,47200.0
BVH,2014-02-26,47400.0
BVH,2014-02-27,46600.0
BVH,2014-02-28,46900.0
BVH,2014-03-03,46500.0
BVH,2014-03-04,46000.0
BVH,2014-03-05,46100.0
BVH,2014-03-06,46300.0
BVH,2014-03-07,46500.0
BVH,2014-03-10,47500.0
BVH,2014-03-11,49800.0
BVH,2014-03-12,51000.0
BVH,2014-03-13,51000.0
BVH,2014-03-14,49700.0
BVH,2014-03-17,49100.0
BVH,2014-03-18,48800.0
BVH,2014-03-19,48800.0
BVH,2014-03-20,48100.0
BVH,2014-03-21,47500.0
BVH,2014-03-24,48400.0
BVH,2014-03-25,47200.0
BVH,2014-03-26,45400.0
BVH,2014-03-27,45500.0
BVH,2014-03-28,45900.0
BVH,2014-03-31,45100.0
BVH,2014-04-01,43200.0
BVH,2014-04-02,43200.0
BVH,2014-04-03,43600.0
BVH,2014-04-04,43100.0
BVH,2014-04-07,44500.0
BVH,2014-04-08,44600.0
BVH,2014-04-10,44400.0
BVH,2014-04-11,43800.0
BVH,2014-04-14,43300.0
BVH,2014-04-15,42300.0
BVH,2014-04-16,40400.0
BVH,2014-04-17,41100.0
BVH,2014-04-18,39600.0
BVH,2014-04-21,38600.0
BVH,2014-04-22,39000.0
BVH,2014-04-23,37900.0
BVH,2014-04-24,37300.0
BVH,2014-04-25,37900.0
BVH,2014-04-28,37100.0
BVH,2014-04-29,36700.0
BVH,2014-05-05,34700.0
BVH,2014-05-06,33700.0
BVH,2014-05-07,36000.0
BVH,2014-05-08,33500.0
BVH,2014-05-09,35000.0
BVH,2014-05-12,32600.0
BVH,2014-05-13,33300.0
BVH,2014-05-14,35600.0
BVH,2014-05-15,35500.0
BVH,2014-05-16,37200.0
BVH,2014-05-19,37700.0
BVH,2014-05-20,37700.0
BVH,2014-05-21,37700.0
