C47,2011-03-30,8700.0
C47,2011-03-31,8900.0
C47,2011-04-01,8900.0
C47,2011-04-04,8800.0
C47,2011-04-05,8400.0
C47,2011-04-06,8800.0
C47,2011-04-07,8500.0
C47,2011-04-08,8300.0
C47,2011-04-13,8000.0
C47,2011-04-14,7800.0
C47,2011-04-15,8000.0
C47,2011-04-18,7700.0
C47,2011-04-19,7400.0
C47,2011-04-20,7700.0
C47,2011-04-21,7800.0
C47,2011-04-22,7500.0
C47,2011-04-25,7600.0
C47,2011-04-26,7500.0
C47,2011-04-27,7200.0
C47,2011-04-28,7000.0
C47,2011-04-29,7000.0
C47,2011-05-04,7300.0
C47,2011-05-05,7300.0
C47,2011-05-06,7200.0
C47,2011-05-09,7200.0
C47,2011-05-10,7400.0
C47,2011-05-11,7300.0
C47,2011-05-12,7500.0
C47,2011-05-13,7300.0
C47,2011-05-16,7100.0
C47,2011-05-17,7000.0
C47,2011-05-18,7400.0
C47,2011-05-19,7500.0
C47,2011-05-20,7400.0
C47,2011-05-23,7200.0
C47,2011-05-24,6800.0
C47,2011-05-25,6600.0
C47,2011-05-26,6800.0
C47,2011-05-27,7100.0
C47,2011-05-30,6800.0
C47,2011-05-31,6800.0
C47,2011-06-01,7100.0
C47,2011-06-02,7100.0
C47,2011-06-03,7000.0
C47,2011-06-06,7000.0
C47,2011-06-07,7300.0
C47,2011-06-08,7000.0
C47,2011-06-09,7300.0
C47,2011-06-10,7400.0
C47,2011-06-13,7300.0
C47,2011-06-14,7300.0
C47,2011-06-15,7200.0
C47,2011-06-16,7200.0
C47,2011-06-17,7200.0
C47,2011-06-20,7100.0
C47,2011-06-21,7100.0
C47,2011-06-22,7100.0
C47,2011-06-23,6800.0
C47,2011-06-24,6900.0
C47,2011-06-27,7000.0
C47,2011-06-28,6900.0
C47,2011-06-29,7000.0
C47,2011-06-30,6700.0
C47,2011-07-01,7000.0
C47,2011-07-04,6700.0
C47,2011-07-05,6700.0
C47,2011-07-06,6700.0
C47,2011-07-07,6700.0
C47,2011-07-08,6900.0
C47,2011-07-11,6800.0
C47,2011-07-12,6600.0
C47,2011-07-13,6400.0
C47,2011-07-14,6400.0
C47,2011-07-15,6400.0
C47,2011-07-18,6400.0
C47,2011-07-19,6400.0
C47,2011-07-20,6400.0
C47,2011-07-21,6300.0
C47,2011-07-22,6200.0
C47,2011-07-25,6300.0
C47,2011-07-26,6300.0
C47,2011-07-27,6400.0
C47,2011-07-28,6400.0
C47,2011-07-29,6400.0
C47,2011-08-01,6200.0
C47,2011-08-02,5900.0
C47,2011-08-03,5700.0
C47,2011-08-04,5800.0
C47,2011-08-05,5700.0
C47,2011-08-08,5900.0
C47,2011-08-09,5900.0
C47,2011-08-10,6000.0
C47,2011-08-11,5700.0
C47,2011-08-12,5800.0
C47,2011-08-15,5900.0
C47,2011-08-16,5900.0
C47,2011-08-17,6200.0
C47,2011-08-18,5900.0
C47,2011-08-19,6200.0
C47,2011-08-22,6400.0
C47,2011-08-23,6600.0
C47,2011-08-24,6900.0
C47,2011-08-25,6900.0
C47,2011-08-26,6900.0
C47,2011-08-29,7100.0
C47,2011-08-30,7100.0
C47,2011-08-31,6900.0
C47,2011-09-01,7200.0
C47,2011-09-05,7100.0
C47,2011-09-06,7000.0
C47,2011-09-07,7000.0
C47,2011-09-08,7100.0
C47,2011-09-09,6900.0
C47,2011-09-12,7000.0
C47,2011-09-13,7000.0
C47,2011-09-14,6900.0
C47,2011-09-15,7000.0
C47,2011-09-16,6900.0
C47,2011-09-19,7000.0
C47,2011-09-20,6900.0
C47,2011-09-21,6900.0
C47,2011-09-22,7000.0
C47,2011-09-23,7000.0
C47,2011-09-26,7000.0
C47,2011-09-27,7000.0
C47,2011-09-28,7000.0
C47,2011-09-29,6900.0
C47,2011-09-30,7000.0
C47,2011-10-03,6700.0
C47,2011-10-04,6800.0
C47,2011-10-05,6900.0
C47,2011-10-06,6900.0
C47,2011-10-07,6900.0
C47,2011-10-10,6700.0
C47,2011-10-11,6800.0
C47,2011-10-12,6600.0
C47,2011-10-13,6600.0
C47,2011-10-14,6600.0
C47,2011-10-17,6900.0
C47,2011-10-18,6900.0
C47,2011-10-19,6600.0
C47,2011-10-20,6300.0
C47,2011-10-21,6600.0
C47,2011-10-24,6900.0
C47,2011-10-25,7100.0
C47,2011-10-26,7300.0
C47,2011-10-27,7000.0
C47,2011-10-28,6900.0
C47,2011-10-31,6800.0
C47,2011-11-01,6900.0
C47,2011-11-02,7000.0
C47,2011-11-03,6900.0
C47,2011-11-04,7000.0
C47,2011-11-07,7300.0
C47,2011-11-08,7000.0
C47,2011-11-09,6900.0
C47,2011-11-10,6600.0
C47,2011-11-11,6400.0
C47,2011-11-14,6600.0
C47,2011-11-15,6900.0
C47,2011-11-16,6900.0
C47,2011-11-17,6900.0
C47,2011-11-18,6900.0
C47,2011-11-21,6600.0
C47,2011-11-22,6600.0
C47,2011-11-23,6600.0
C47,2011-11-24,6900.0
C47,2011-11-25,6900.0
C47,2011-11-28,6900.0
C47,2011-11-29,6600.0
C47,2011-11-30,6600.0
C47,2011-12-01,6600.0
C47,2011-12-02,6600.0
C47,2011-12-05,6900.0
C47,2011-12-06,7000.0
C47,2011-12-07,6600.0
C47,2011-12-08,6400.0
C47,2011-12-09,6200.0
C47,2011-12-12,6400.0
C47,2011-12-13,6600.0
C47,2011-12-14,6400.0
C47,2011-12-15,6400.0
C47,2011-12-16,6600.0
C47,2011-12-19,6900.0
C47,2011-12-20,6700.0
C47,2011-12-21,6700.0
C47,2011-12-22,6700.0
C47,2011-12-23,6700.0
C47,2011-12-26,6700.0
C47,2011-12-27,6600.0
C47,2011-12-28,6600.0
C47,2011-12-29,6700.0
C47,2011-12-30,6600.0
C47,2012-01-03,6400.0
C47,2012-01-04,6700.0
C47,2012-01-05,6600.0
C47,2012-01-06,6900.0
C47,2012-01-09,6900.0
C47,2012-01-10,6900.0
C47,2012-01-11,6900.0
C47,2012-01-12,6600.0
C47,2012-01-13,6400.0
C47,2012-01-16,6600.0
C47,2012-01-17,6300.0
C47,2012-01-18,6300.0
C47,2012-01-19,6600.0
C47,2012-01-20,6300.0
C47,2012-01-30,6600.0
C47,2012-01-31,6600.0
C47,2012-02-01,6400.0
C47,2012-02-02,6700.0
C47,2012-02-03,7000.0
C47,2012-02-06,6800.0
C47,2012-02-07,7100.0
C47,2012-02-08,7400.0
C47,2012-02-09,7500.0
C47,2012-02-10,7200.0
C47,2012-02-13,7200.0
C47,2012-02-14,7200.0
C47,2012-02-15,7000.0
C47,2012-02-16,7000.0
C47,2012-02-17,7100.0
C47,2012-02-20,7200.0
C47,2012-02-21,7100.0
C47,2012-02-22,7000.0
C47,2012-02-23,7000.0
C47,2012-02-24,7100.0
C47,2012-02-27,7100.0
C47,2012-02-28,7000.0
C47,2012-02-29,7000.0
C47,2012-03-01,7100.0
C47,2012-03-02,7100.0
C47,2012-03-05,7400.0
C47,2012-03-06,7100.0
C47,2012-03-07,7200.0
C47,2012-03-08,7100.0
C47,2012-03-09,7000.0
C47,2012-03-12,6900.0
C47,2012-03-13,7000.0
C47,2012-03-14,7000.0
C47,2012-03-15,7000.0
C47,2012-03-16,7000.0
C47,2012-03-19,7100.0
C47,2012-03-20,7100.0
C47,2012-03-21,7300.0
C47,2012-03-22,7300.0
C47,2012-03-23,7400.0
C47,2012-03-26,7300.0
C47,2012-03-27,7000.0
C47,2012-03-28,7300.0
C47,2012-03-29,7300.0
C47,2012-03-30,7600.0
C47,2012-04-03,7900.0
C47,2012-04-04,7800.0
C47,2012-04-05,8100.0
C47,2012-04-06,8000.0
C47,2012-04-09,8000.0
C47,2012-04-10,8100.0
C47,2012-04-11,8000.0
C47,2012-04-12,8100.0
C47,2012-04-13,8400.0
C47,2012-04-16,8400.0
C47,2012-04-17,8500.0
C47,2012-04-18,8400.0
C47,2012-04-19,8400.0
C47,2012-04-20,8400.0
C47,2012-04-23,8500.0
C47,2012-04-24,8500.0
C47,2012-04-25,8600.0
C47,2012-04-26,8700.0
C47,2012-04-27,8800.0
C47,2012-05-02,8800.0
C47,2012-05-03,9000.0
C47,2012-05-04,9200.0
C47,2012-05-07,9600.0
C47,2012-05-08,10100.0
C47,2012-05-09,10500.0
C47,2012-05-10,10500.0
C47,2012-05-11,10500.0
C47,2012-05-14,10100.0
C47,2012-05-15,9900.0
C47,2012-05-16,9700.0
C47,2012-05-17,9600.0
C47,2012-05-18,9600.0
C47,2012-05-21,9600.0
C47,2012-05-22,9300.0
C47,2012-05-23,9300.0
C47,2012-05-24,8900.0
C47,2012-05-25,9100.0
C47,2012-05-28,9100.0
C47,2012-05-29,9100.0
C47,2012-05-30,9000.0
C47,2012-05-31,8700.0
C47,2012-06-01,8700.0
C47,2012-06-04,8500.0
C47,2012-06-05,8700.0
C47,2012-06-06,8800.0
C47,2012-06-07,9000.0
C47,2012-06-08,9300.0
C47,2012-06-11,9100.0
C47,2012-06-12,9000.0
C47,2012-06-13,9000.0
C47,2012-06-14,9100.0
C47,2012-06-15,9200.0
C47,2012-06-18,9300.0
C47,2012-06-19,9200.0
C47,2012-06-20,9300.0
C47,2012-06-21,9300.0
C47,2012-06-22,9200.0
C47,2012-06-25,9100.0
C47,2012-06-26,9000.0
C47,2012-06-27,9000.0
C47,2012-06-28,9200.0
C47,2012-06-29,9600.0
C47,2012-07-02,9400.0
C47,2012-07-03,9200.0
C47,2012-07-04,9200.0
C47,2012-07-05,9100.0
C47,2012-07-06,9200.0
C47,2012-07-09,9000.0
C47,2012-07-10,9000.0
C47,2012-07-11,9300.0
C47,2012-07-12,9600.0
C47,2012-07-13,9600.0
C47,2012-07-16,9200.0
C47,2012-07-17,9200.0
C47,2012-07-18,9600.0
C47,2012-07-19,9800.0
C47,2012-07-20,10000.0
C47,2012-07-23,10400.0
C47,2012-07-24,10000.0
C47,2012-07-25,9900.0
C47,2012-07-26,9500.0
C47,2012-07-27,9500.0
C47,2012-07-30,9500.0
C47,2012-07-31,9300.0
C47,2012-08-01,9100.0
C47,2012-08-02,9600.0
C47,2012-08-03,9600.0
C47,2012-08-06,9700.0
C47,2012-08-07,9300.0
C47,2012-08-08,9000.0
C47,2012-08-09,9100.0
C47,2012-08-10,9100.0
C47,2012-08-13,9300.0
C47,2012-08-14,9400.0
C47,2012-08-15,9400.0
C47,2012-08-16,9600.0
C47,2012-08-17,9700.0
C47,2012-08-20,9700.0
C47,2012-08-21,10000.0
C47,2012-08-22,10000.0
C47,2012-08-23,9600.0
C47,2012-08-24,9600.0
C47,2012-08-27,9600.0
C47,2012-08-28,9600.0
C47,2012-08-29,10000.0
C47,2012-08-30,9600.0
C47,2012-08-31,9800.0
C47,2012-09-04,9500.0
C47,2012-09-05,9400.0
C47,2012-09-06,9400.0
C47,2012-09-07,9800.0
C47,2012-09-10,9700.0
C47,2012-09-11,9600.0
C47,2012-09-12,9700.0
C47,2012-09-13,9800.0
C47,2012-09-14,9700.0
C47,2012-09-17,9500.0
C47,2012-09-18,9500.0
C47,2012-09-19,9500.0
C47,2012-09-20,9500.0
C47,2012-09-21,9500.0
C47,2012-09-24,9400.0
C47,2012-09-25,9400.0
C47,2012-09-26,9400.0
C47,2012-09-27,9400.0
C47,2012-09-28,9400.0
C47,2012-10-01,9400.0
C47,2012-10-02,9400.0
C47,2012-10-03,9400.0
C47,2012-10-04,9400.0
C47,2012-10-05,9400.0
C47,2012-10-08,9400.0
C47,2012-10-09,9400.0
C47,2012-10-10,9600.0
C47,2012-10-11,9600.0
C47,2012-10-12,9500.0
C47,2012-10-15,9300.0
C47,2012-10-16,9300.0
C47,2012-10-17,9300.0
C47,2012-10-18,9500.0
C47,2012-10-19,9400.0
C47,2012-10-22,9300.0
C47,2012-10-23,9400.0
C47,2012-10-24,9300.0
C47,2012-10-25,9100.0
C47,2012-10-26,9100.0
C47,2012-10-29,9300.0
C47,2012-10-30,9300.0
C47,2012-10-31,9100.0
C47,2012-11-01,9600.0
C47,2012-11-02,9700.0
C47,2012-11-05,10200.0
C47,2012-11-06,10400.0
C47,2012-11-07,9900.0
C47,2012-11-08,9900.0
C47,2012-11-09,9900.0
C47,2012-11-12,10100.0
C47,2012-11-13,9800.0
C47,2012-11-14,10100.0
C47,2012-11-15,10500.0
C47,2012-11-16,10000.0
C47,2012-11-19,10200.0
C47,2012-11-20,10300.0
C47,2012-11-21,10400.0
C47,2012-11-22,10500.0
C47,2012-11-23,10500.0
C47,2012-11-26,10700.0
C47,2012-11-27,10700.0
C47,2012-11-28,10800.0
C47,2012-11-29,10800.0
C47,2012-11-30,10500.0
C47,2012-12-03,10500.0
C47,2012-12-04,10600.0
C47,2012-12-05,10700.0
C47,2012-12-06,10700.0
C47,2012-12-07,10700.0
C47,2012-12-10,10700.0
C47,2012-12-11,10900.0
C47,2012-12-12,10900.0
C47,2012-12-13,11000.0
C47,2012-12-14,11100.0
C47,2012-12-17,11100.0
C47,2012-12-18,11300.0
C47,2012-12-19,11300.0
C47,2012-12-20,10800.0
C47,2012-12-21,10800.0
C47,2012-12-24,10900.0
C47,2012-12-25,10900.0
C47,2012-12-26,11300.0
C47,2012-12-27,10900.0
C47,2012-12-28,11400.0
C47,2013-01-02,11800.0
C47,2013-01-03,11300.0
C47,2013-01-04,10900.0
C47,2013-01-07,10500.0
C47,2013-01-08,10400.0
C47,2013-01-09,10400.0
C47,2013-01-10,11000.0
C47,2013-01-11,10500.0
C47,2013-01-14,11000.0
C47,2013-01-15,11000.0
C47,2013-01-16,11700.0
C47,2013-01-17,12200.0
C47,2013-01-18,12200.0
C47,2013-01-21,12000.0
C47,2013-01-22,11700.0
C47,2013-01-23,11700.0
C47,2013-01-24,12000.0
C47,2013-01-25,12200.0
C47,2013-01-28,12600.0
C47,2013-01-29,12600.0
C47,2013-01-30,12600.0
C47,2013-01-31,12500.0
C47,2013-02-01,12500.0
C47,2013-02-04,12700.0
C47,2013-02-05,13000.0
C47,2013-02-06,12500.0
C47,2013-02-07,12700.0
C47,2013-02-08,13600.0
C47,2013-02-18,12800.0
C47,2013-02-19,12900.0
C47,2013-02-20,13600.0
C47,2013-02-21,14400.0
C47,2013-02-22,14600.0
C47,2013-02-25,14600.0
C47,2013-02-26,13600.0
C47,2013-02-27,13700.0
C47,2013-02-28,14200.0
C47,2013-03-01,14200.0
C47,2013-03-04,13900.0
C47,2013-03-05,13300.0
C47,2013-03-06,14000.0
C47,2013-03-07,14000.0
C47,2013-03-08,14300.0
C47,2013-03-11,14500.0
C47,2013-03-12,14500.0
C47,2013-03-13,13800.0
C47,2013-03-14,14300.0
C47,2013-03-15,14300.0
C47,2013-03-18,14300.0
C47,2013-03-19,13900.0
C47,2013-03-20,13900.0
C47,2013-03-21,14000.0
C47,2013-03-22,13800.0
C47,2013-03-25,14000.0
C47,2013-03-26,14400.0
C47,2013-03-27,14300.0
C47,2013-03-28,14300.0
C47,2013-03-29,14300.0
C47,2013-04-01,14300.0
C47,2013-04-02,14500.0
C47,2013-04-03,14800.0
C47,2013-04-04,14800.0
C47,2013-04-05,15000.0
C47,2013-04-08,15100.0
C47,2013-04-09,15300.0
C47,2013-04-10,15600.0
C47,2013-04-11,16600.0
C47,2013-04-12,16600.0
C47,2013-04-15,16600.0
C47,2013-04-16,16600.0
C47,2013-04-17,16500.0
C47,2013-04-18,16700.0
C47,2013-04-22,16400.0
C47,2013-04-23,16400.0
C47,2013-04-24,16100.0
C47,2013-04-25,16100.0
C47,2013-04-26,16300.0
C47,2013-05-02,16300.0
C47,2013-05-03,16000.0
C47,2013-05-06,16800.0
C47,2013-05-07,16800.0
C47,2013-05-08,16000.0
C47,2013-05-09,16000.0
C47,2013-05-10,16300.0
C47,2013-05-13,16000.0
C47,2013-05-14,16900.0
C47,2013-05-15,16900.0
C47,2013-05-16,16900.0
C47,2013-05-17,16900.0
C47,2013-05-20,18000.0
C47,2013-05-21,16800.0
C47,2013-05-22,16000.0
C47,2013-05-23,16000.0
C47,2013-05-24,16700.0
C47,2013-05-27,16500.0
C47,2013-05-28,16000.0
C47,2013-05-29,16000.0
C47,2013-05-30,16000.0
C47,2013-05-31,16000.0
C47,2013-06-03,16200.0
C47,2013-06-04,16200.0
C47,2013-06-05,16300.0
C47,2013-06-06,16300.0
C47,2013-06-07,16500.0
C47,2013-06-10,16300.0
C47,2013-06-11,16200.0
C47,2013-06-12,16200.0
C47,2013-06-13,16200.0
C47,2013-06-14,16200.0
C47,2013-06-17,16200.0
C47,2013-06-18,16200.0
C47,2013-06-19,16200.0
C47,2013-06-20,16200.0
C47,2013-06-21,16200.0
C47,2013-06-24,16400.0
C47,2013-06-25,16200.0
C47,2013-06-26,16500.0
C47,2013-06-27,16500.0
C47,2013-06-28,16500.0
C47,2013-07-01,17500.0
C47,2013-07-02,18700.0
C47,2013-07-03,17400.0
C47,2013-07-04,18600.0
C47,2013-07-05,19000.0
C47,2013-07-08,17700.0
C47,2013-07-09,17500.0
C47,2013-07-10,16700.0
C47,2013-07-11,17800.0
C47,2013-07-12,16600.0
C47,2013-07-15,16500.0
C47,2013-07-16,16500.0
C47,2013-07-17,16500.0
C47,2013-07-18,16500.0
C47,2013-07-19,16500.0
C47,2013-07-22,16500.0
C47,2013-07-23,16500.0
C47,2013-07-24,16500.0
C47,2013-07-25,17000.0
C47,2013-07-26,16500.0
C47,2013-07-29,16400.0
C47,2013-07-30,16400.0
C47,2013-07-31,16400.0
C47,2013-08-01,16500.0
C47,2013-08-02,16600.0
C47,2013-08-05,16600.0
C47,2013-08-06,16700.0
C47,2013-08-07,17000.0
C47,2013-08-08,17000.0
C47,2013-08-09,17000.0
C47,2013-08-12,17000.0
C47,2013-08-13,17100.0
C47,2013-08-14,17500.0
C47,2013-08-15,17600.0
C47,2013-08-16,17500.0
C47,2013-08-19,18600.0
C47,2013-08-20,17400.0
C47,2013-08-21,17500.0
C47,2013-08-22,17500.0
C47,2013-08-23,17500.0
C47,2013-08-26,17500.0
C47,2013-08-27,17500.0
C47,2013-08-28,18400.0
C47,2013-08-29,18900.0
C47,2013-08-30,17600.0
C47,2013-09-03,17600.0
C47,2013-09-04,17600.0
C47,2013-09-05,18600.0
C47,2013-09-06,17600.0
C47,2013-09-09,17500.0
C47,2013-09-10,17500.0
C47,2013-09-11,17500.0
C47,2013-09-12,17500.0
C47,2013-09-13,17500.0
C47,2013-09-16,17500.0
C47,2013-09-17,17400.0
C47,2013-09-18,17300.0
C47,2013-09-19,17300.0
C47,2013-09-20,17400.0
C47,2013-09-23,17500.0
C47,2013-09-24,17500.0
C47,2013-09-25,18600.0
C47,2013-09-26,18600.0
C47,2013-09-27,18600.0
C47,2013-09-30,17700.0
C47,2013-10-01,17600.0
C47,2013-10-02,17600.0
C47,2013-10-03,17600.0
C47,2013-10-04,18000.0
C47,2013-10-07,17900.0
C47,2013-10-08,17900.0
C47,2013-10-09,17900.0
C47,2013-10-10,17800.0
C47,2013-10-11,17800.0
C47,2013-10-14,17600.0
C47,2013-10-15,17700.0
C47,2013-10-16,17900.0
C47,2013-10-17,18200.0
C47,2013-10-18,18200.0
C47,2013-10-21,18200.0
C47,2013-10-22,17700.0
C47,2013-10-23,17700.0
C47,2013-10-24,17700.0
C47,2013-10-25,17700.0
C47,2013-10-28,17500.0
C47,2013-10-29,17700.0
C47,2013-10-30,17700.0
C47,2013-10-31,17500.0
C47,2013-11-01,17500.0
C47,2013-11-04,17500.0
C47,2013-11-05,18700.0
C47,2013-11-06,19000.0
C47,2013-11-07,19000.0
C47,2013-11-08,19000.0
C47,2013-11-11,19200.0
C47,2013-11-12,19200.0
C47,2013-11-13,17900.0
C47,2013-11-14,17400.0
C47,2013-11-15,17400.0
C47,2013-11-18,17400.0
C47,2013-11-19,17400.0
C47,2013-11-20,17500.0
C47,2013-11-21,17500.0
C47,2013-11-22,17500.0
C47,2013-11-25,17500.0
C47,2013-11-26,17200.0
C47,2013-11-27,17200.0
C47,2013-11-28,17500.0
C47,2013-11-29,17500.0
C47,2013-12-02,17500.0
C47,2013-12-03,17500.0
C47,2013-12-04,17500.0
C47,2013-12-05,17500.0
C47,2013-12-06,17500.0
C47,2013-12-09,17600.0
C47,2013-12-10,17600.0
C47,2013-12-11,17600.0
C47,2013-12-12,17600.0
C47,2013-12-13,17600.0
C47,2013-12-16,17600.0
C47,2013-12-17,17600.0
C47,2013-12-18,17600.0
C47,2013-12-19,17600.0
C47,2013-12-20,17600.0
C47,2013-12-23,17600.0
C47,2013-12-24,17600.0
C47,2013-12-25,17600.0
C47,2013-12-26,18000.0
C47,2013-12-27,18000.0
C47,2013-12-30,18000.0
C47,2013-12-31,17800.0
C47,2014-01-02,18000.0
C47,2014-01-03,18000.0
C47,2014-01-06,18000.0
C47,2014-01-07,18000.0
C47,2014-01-08,18400.0
C47,2014-01-09,18400.0
C47,2014-01-10,18400.0
C47,2014-01-13,19000.0
C47,2014-01-14,18700.0
C47,2014-01-15,18300.0
C47,2014-01-16,18500.0
C47,2014-01-17,18500.0
C47,2014-01-20,18500.0
C47,2014-01-21,18500.0
C47,2014-01-22,18500.0
C47,2014-01-23,18500.0
C47,2014-01-24,18900.0
C47,2014-01-27,18900.0
C47,2014-02-06,20000.0
C47,2014-02-07,20000.0
C47,2014-02-10,18600.0
C47,2014-02-11,19800.0
C47,2014-02-12,20000.0
C47,2014-02-13,20500.0
C47,2014-02-14,20500.0
C47,2014-02-17,20400.0
C47,2014-02-18,21500.0
C47,2014-02-19,20000.0
C47,2014-02-20,20000.0
C47,2014-02-21,20000.0
C47,2014-02-24,21000.0
C47,2014-02-25,22000.0
C47,2014-02-26,23500.0
C47,2014-02-27,21900.0
C47,2014-02-28,21000.0
C47,2014-03-03,21000.0
C47,2014-03-04,21000.0
C47,2014-03-05,20000.0
C47,2014-03-06,20500.0
C47,2014-03-07,20000.0
C47,2014-03-10,20000.0
C47,2014-03-11,20000.0
C47,2014-03-12,20000.0
C47,2014-03-13,20000.0
C47,2014-03-14,20100.0
C47,2014-03-17,20200.0
C47,2014-03-18,20200.0
C47,2014-03-19,20200.0
C47,2014-03-20,21500.0
C47,2014-03-21,21300.0
C47,2014-03-24,22000.0
C47,2014-03-25,22000.0
C47,2014-03-26,21700.0
C47,2014-03-27,21700.0
C47,2014-03-28,21700.0
C47,2014-03-31,20200.0
C47,2014-04-01,20900.0
C47,2014-04-02,20700.0
C47,2014-04-03,22000.0
C47,2014-04-04,21000.0
C47,2014-04-07,21000.0
C47,2014-04-08,21000.0
C47,2014-04-10,21000.0
C47,2014-04-11,20200.0
C47,2014-04-14,20300.0
C47,2014-04-15,20500.0
C47,2014-04-16,20700.0
C47,2014-04-17,21000.0
C47,2014-04-18,21000.0
C47,2014-04-21,21000.0
C47,2014-04-22,20500.0
C47,2014-04-23,20700.0
C47,2014-04-24,20800.0
C47,2014-04-25,20800.0
C47,2014-04-28,20800.0
C47,2014-04-29,21500.0
C47,2014-05-05,21500.0
C47,2014-05-06,21500.0
C47,2014-05-07,21000.0
C47,2014-05-08,19600.0
C47,2014-05-09,20400.0
C47,2014-05-12,20400.0
C47,2014-05-13,20900.0
C47,2014-05-14,19500.0
C47,2014-05-15,19800.0
C47,2014-05-16,20000.0
C47,2014-05-19,20900.0
C47,2014-05-20,20900.0
C47,2014-05-21,22100.0
