CMT,2010-03-11,43600.0
CMT,2010-03-12,41400.0
CMT,2010-03-15,43400.0
CMT,2010-03-16,45300.0
CMT,2010-03-17,47500.0
CMT,2010-03-18,49700.0
CMT,2010-03-19,51900.0
CMT,2010-03-22,49700.0
CMT,2010-03-23,51900.0
CMT,2010-03-24,52300.0
CMT,2010-03-25,49700.0
CMT,2010-03-26,50100.0
CMT,2010-03-29,47900.0
CMT,2010-03-30,48400.0
CMT,2010-03-31,49300.0
CMT,2010-04-01,51400.0
CMT,2010-04-02,53600.0
CMT,2010-04-05,56200.0
CMT,2010-04-06,53600.0
CMT,2010-04-07,56200.0
CMT,2010-04-08,57100.0
CMT,2010-04-09,55800.0
CMT,2010-04-12,53200.0
CMT,2010-04-13,51000.0
CMT,2010-04-14,51400.0
CMT,2010-04-15,51400.0
CMT,2010-04-16,49700.0
CMT,2010-04-19,48800.0
CMT,2010-04-20,48400.0
CMT,2010-04-21,50600.0
CMT,2010-04-22,50600.0
CMT,2010-04-26,48400.0
CMT,2010-04-27,48400.0
CMT,2010-04-28,46600.0
CMT,2010-04-29,48800.0
CMT,2010-05-04,48800.0
CMT,2010-05-05,47100.0
CMT,2010-05-06,47900.0
CMT,2010-05-07,47100.0
CMT,2010-05-10,44900.0
CMT,2010-05-11,44000.0
CMT,2010-05-12,41800.0
CMT,2010-05-13,41800.0
CMT,2010-05-14,39800.0
CMT,2010-05-17,37900.0
CMT,2010-05-18,36600.0
CMT,2010-05-19,35800.0
CMT,2010-05-20,37600.0
CMT,2010-05-21,35700.0
CMT,2010-05-24,34900.0
CMT,2010-05-25,36600.0
CMT,2010-05-26,38400.0
CMT,2010-05-27,38800.0
CMT,2010-05-28,40700.0
CMT,2010-05-31,40500.0
CMT,2010-06-01,39200.0
CMT,2010-06-02,39200.0
CMT,2010-06-03,38900.0
CMT,2010-06-04,38400.0
CMT,2010-06-07,36500.0
CMT,2010-06-08,38300.0
CMT,2010-06-09,39100.0
CMT,2010-06-10,39100.0
CMT,2010-06-11,39700.0
CMT,2010-06-14,41600.0
CMT,2010-06-15,42300.0
CMT,2010-06-16,42300.0
CMT,2010-06-17,41000.0
CMT,2010-06-18,41000.0
CMT,2010-06-21,41500.0
CMT,2010-06-22,40500.0
CMT,2010-06-23,39800.0
CMT,2010-06-24,39200.0
CMT,2010-06-25,38400.0
CMT,2010-06-28,38900.0
CMT,2010-06-29,39100.0
CMT,2010-06-30,38900.0
CMT,2010-07-01,38000.0
CMT,2010-07-02,39100.0
CMT,2010-07-05,39200.0
CMT,2010-07-06,37700.0
CMT,2010-07-07,37700.0
CMT,2010-07-08,36200.0
CMT,2010-07-09,37100.0
CMT,2010-07-12,37500.0
CMT,2010-07-13,37600.0
CMT,2010-07-14,37100.0
CMT,2010-07-15,36600.0
CMT,2010-07-16,36800.0
CMT,2010-07-19,36600.0
CMT,2010-07-20,36600.0
CMT,2010-07-21,35900.0
CMT,2010-07-22,35800.0
CMT,2010-07-23,35500.0
CMT,2010-07-26,35700.0
CMT,2010-07-27,35700.0
CMT,2010-07-28,34900.0
CMT,2010-07-29,33100.0
CMT,2010-07-30,33100.0
CMT,2010-08-02,32000.0
CMT,2010-08-03,31400.0
CMT,2010-08-04,30500.0
CMT,2010-08-05,29000.0
CMT,2010-08-06,30400.0
CMT,2010-08-09,31200.0
CMT,2010-08-10,30500.0
CMT,2010-08-11,30100.0
CMT,2010-08-12,28600.0
CMT,2010-08-13,28800.0
CMT,2010-08-16,29600.0
CMT,2010-08-17,29600.0
CMT,2010-08-18,29500.0
CMT,2010-08-19,29000.0
CMT,2010-08-20,29000.0
CMT,2010-08-23,28700.0
CMT,2010-08-24,28300.0
CMT,2010-08-25,26900.0
CMT,2010-08-26,25600.0
CMT,2010-08-27,25600.0
CMT,2010-08-30,26900.0
CMT,2010-08-31,26200.0
CMT,2010-09-01,27400.0
CMT,2010-09-06,28700.0
CMT,2010-09-07,28700.0
CMT,2010-09-08,27300.0
CMT,2010-09-09,27000.0
CMT,2010-09-10,26300.0
CMT,2010-09-13,26300.0
CMT,2010-09-14,25800.0
CMT,2010-09-15,25300.0
CMT,2010-09-16,26200.0
CMT,2010-09-17,26900.0
CMT,2010-09-20,26600.0
CMT,2010-09-21,26700.0
CMT,2010-09-22,26900.0
CMT,2010-09-23,26200.0
CMT,2010-09-24,25700.0
CMT,2010-09-27,25300.0
CMT,2010-09-28,25900.0
CMT,2010-09-29,25300.0
CMT,2010-09-30,24700.0
CMT,2010-10-01,23600.0
CMT,2010-10-04,22500.0
CMT,2010-10-05,23500.0
CMT,2010-10-06,24700.0
CMT,2010-10-07,25900.0
CMT,2010-10-08,26200.0
CMT,2010-10-11,26300.0
CMT,2010-10-12,25000.0
CMT,2010-10-13,24100.0
CMT,2010-10-14,24100.0
CMT,2010-10-15,23600.0
CMT,2010-10-18,24800.0
CMT,2010-10-19,24400.0
CMT,2010-10-20,23200.0
CMT,2010-10-21,22100.0
CMT,2010-10-22,21000.0
CMT,2010-10-25,21500.0
CMT,2010-10-26,21800.0
CMT,2010-10-27,20900.0
CMT,2010-10-28,21200.0
CMT,2010-10-29,20400.0
CMT,2010-11-01,20100.0
CMT,2010-11-02,20500.0
CMT,2010-11-03,19500.0
CMT,2010-11-04,19400.0
CMT,2010-11-05,20000.0
CMT,2010-11-08,19000.0
CMT,2010-11-09,19000.0
CMT,2010-11-10,18100.0
CMT,2010-11-11,17400.0
CMT,2010-11-12,16600.0
CMT,2010-11-15,15800.0
CMT,2010-11-16,15000.0
CMT,2010-11-17,14700.0
CMT,2010-11-18,15400.0
CMT,2010-11-19,16100.0
CMT,2010-11-22,16100.0
CMT,2010-11-23,16100.0
CMT,2010-11-24,15700.0
CMT,2010-11-25,16100.0
CMT,2010-11-26,16100.0
CMT,2010-11-29,16100.0
CMT,2010-11-30,16900.0
CMT,2010-12-01,16300.0
CMT,2010-12-02,16400.0
CMT,2010-12-03,17200.0
CMT,2010-12-06,18000.0
CMT,2010-12-07,18500.0
CMT,2010-12-08,17600.0
CMT,2010-12-09,17600.0
CMT,2010-12-10,18000.0
CMT,2010-12-13,18800.0
CMT,2010-12-14,18700.0
CMT,2010-12-15,18400.0
CMT,2010-12-16,17500.0
CMT,2010-12-17,18000.0
CMT,2010-12-20,18300.0
CMT,2010-12-21,18500.0
CMT,2010-12-22,17900.0
CMT,2010-12-23,17900.0
CMT,2010-12-24,17800.0
CMT,2010-12-27,17900.0
CMT,2010-12-28,18300.0
CMT,2010-12-29,17900.0
CMT,2010-12-30,17200.0
CMT,2010-12-31,17200.0
CMT,2011-01-04,17900.0
CMT,2011-01-05,17900.0
CMT,2011-01-06,17400.0
CMT,2011-01-07,18000.0
CMT,2011-01-10,17800.0
CMT,2011-01-11,17100.0
CMT,2011-01-12,17400.0
CMT,2011-01-13,17200.0
CMT,2011-01-14,17100.0
CMT,2011-01-17,17400.0
CMT,2011-01-18,18300.0
CMT,2011-01-19,19200.0
CMT,2011-01-20,19400.0
CMT,2011-01-21,20100.0
CMT,2011-01-24,19100.0
CMT,2011-01-25,19100.0
CMT,2011-01-26,19200.0
CMT,2011-01-27,19200.0
CMT,2011-01-28,19800.0
CMT,2011-02-08,19900.0
CMT,2011-02-09,19900.0
CMT,2011-02-10,19600.0
CMT,2011-02-11,19600.0
CMT,2011-02-14,19400.0
CMT,2011-02-15,20400.0
CMT,2011-02-16,21400.0
CMT,2011-02-17,21400.0
CMT,2011-02-18,21300.0
CMT,2011-02-21,20200.0
CMT,2011-02-22,19300.0
CMT,2011-02-23,18700.0
CMT,2011-02-24,17900.0
CMT,2011-02-25,18600.0
CMT,2011-02-28,18300.0
CMT,2011-03-01,17900.0
CMT,2011-03-02,17000.0
CMT,2011-03-03,17100.0
CMT,2011-03-04,17100.0
CMT,2011-03-07,16500.0
CMT,2011-03-08,16300.0
CMT,2011-03-09,15700.0
CMT,2011-03-10,16500.0
CMT,2011-03-11,17300.0
CMT,2011-03-14,17300.0
CMT,2011-03-15,17300.0
CMT,2011-03-16,18000.0
CMT,2011-03-17,18900.0
CMT,2011-03-18,19800.0
CMT,2011-03-21,20300.0
CMT,2011-03-22,19400.0
CMT,2011-03-23,18400.0
CMT,2011-03-24,17500.0
CMT,2011-03-25,16700.0
CMT,2011-03-28,17200.0
CMT,2011-03-29,16700.0
CMT,2011-03-30,16700.0
CMT,2011-03-31,16400.0
CMT,2011-04-01,16300.0
CMT,2011-04-04,16100.0
CMT,2011-04-05,15600.0
CMT,2011-04-06,16300.0
CMT,2011-04-07,16600.0
CMT,2011-04-08,16300.0
CMT,2011-04-13,15700.0
CMT,2011-04-14,15500.0
CMT,2011-04-15,14800.0
CMT,2011-04-18,14100.0
CMT,2011-04-19,13400.0
CMT,2011-04-20,13400.0
CMT,2011-04-21,12800.0
CMT,2011-04-22,12200.0
CMT,2011-04-25,12600.0
CMT,2011-04-26,11900.0
CMT,2011-04-27,11400.0
CMT,2011-04-28,11800.0
CMT,2011-04-29,12200.0
CMT,2011-05-04,11900.0
CMT,2011-05-05,11500.0
CMT,2011-05-06,11300.0
CMT,2011-05-09,10800.0
CMT,2011-05-10,10300.0
CMT,2011-05-11,9900.0
CMT,2011-05-12,9400.0
CMT,2011-05-13,9200.0
CMT,2011-05-16,8700.0
CMT,2011-05-17,8300.0
CMT,2011-05-18,8600.0
CMT,2011-05-19,8600.0
CMT,2011-05-20,8300.0
CMT,2011-05-23,8000.0
CMT,2011-05-24,7700.0
CMT,2011-05-25,7300.0
CMT,2011-05-26,7700.0
CMT,2011-05-27,7300.0
CMT,2011-05-30,7000.0
CMT,2011-05-31,7300.0
CMT,2011-06-01,7700.0
CMT,2011-06-02,8000.0
CMT,2011-06-03,7700.0
CMT,2011-06-06,7500.0
CMT,2011-06-07,7800.0
CMT,2011-06-08,7700.0
CMT,2011-06-09,7300.0
CMT,2011-06-10,7700.0
CMT,2011-06-13,7900.0
CMT,2011-06-14,7900.0
CMT,2011-06-15,7600.0
CMT,2011-06-16,7700.0
CMT,2011-06-17,7300.0
CMT,2011-06-20,7000.0
CMT,2011-06-21,7100.0
CMT,2011-06-22,6900.0
CMT,2011-06-23,7100.0
CMT,2011-06-24,7300.0
CMT,2011-06-27,7500.0
CMT,2011-06-28,7500.0
CMT,2011-06-29,7300.0
CMT,2011-06-30,7300.0
CMT,2011-07-01,7000.0
CMT,2011-07-04,6600.0
CMT,2011-07-05,6900.0
CMT,2011-07-06,7000.0
CMT,2011-07-07,6800.0
CMT,2011-07-08,6800.0
CMT,2011-07-11,6800.0
CMT,2011-07-12,6800.0
CMT,2011-07-13,6900.0
CMT,2011-07-14,6800.0
CMT,2011-07-15,6800.0
CMT,2011-07-18,6800.0
CMT,2011-07-19,6700.0
CMT,2011-07-20,6500.0
CMT,2011-07-21,6700.0
CMT,2011-07-22,6500.0
CMT,2011-07-25,6300.0
CMT,2011-07-26,6300.0
CMT,2011-07-27,6500.0
CMT,2011-07-28,6500.0
CMT,2011-07-29,6400.0
CMT,2011-08-01,6400.0
CMT,2011-08-02,6400.0
CMT,2011-08-03,6300.0
CMT,2011-08-04,6200.0
CMT,2011-08-05,6200.0
CMT,2011-08-08,6300.0
CMT,2011-08-09,6100.0
CMT,2011-08-10,6200.0
CMT,2011-08-11,5900.0
CMT,2011-08-12,6000.0
CMT,2011-08-15,5900.0
CMT,2011-08-16,5800.0
CMT,2011-08-17,5800.0
CMT,2011-08-18,5900.0
CMT,2011-08-19,5800.0
CMT,2011-08-22,5800.0
CMT,2011-08-23,5800.0
CMT,2011-08-24,5800.0
CMT,2011-08-25,5800.0
CMT,2011-08-26,5700.0
CMT,2011-08-29,5800.0
CMT,2011-08-30,5800.0
CMT,2011-08-31,5800.0
CMT,2011-09-01,6000.0
CMT,2011-09-05,5800.0
CMT,2011-09-06,5600.0
CMT,2011-09-07,5800.0
CMT,2011-09-08,5900.0
CMT,2011-09-09,5800.0
CMT,2011-09-12,6100.0
CMT,2011-09-13,6400.0
CMT,2011-09-14,6600.0
CMT,2011-09-15,6900.0
CMT,2011-09-16,6600.0
CMT,2011-09-19,6900.0
CMT,2011-09-20,7100.0
CMT,2011-09-21,6900.0
CMT,2011-09-22,6900.0
CMT,2011-09-23,7000.0
CMT,2011-09-26,6600.0
CMT,2011-09-27,6600.0
CMT,2011-09-28,6500.0
CMT,2011-09-29,6500.0
CMT,2011-09-30,6400.0
CMT,2011-10-03,6100.0
CMT,2011-10-04,6200.0
CMT,2011-10-05,6100.0
CMT,2011-10-06,6400.0
CMT,2011-10-07,6400.0
CMT,2011-10-10,6500.0
CMT,2011-10-11,6400.0
CMT,2011-10-12,6100.0
CMT,2011-10-13,5900.0
CMT,2011-10-14,6200.0
CMT,2011-10-17,6100.0
CMT,2011-10-18,6100.0
CMT,2011-10-19,5800.0
CMT,2011-10-20,6100.0
CMT,2011-10-21,6200.0
CMT,2011-10-24,6200.0
CMT,2011-10-25,6000.0
CMT,2011-10-26,5800.0
CMT,2011-10-27,6100.0
CMT,2011-10-28,5900.0
CMT,2011-10-31,5900.0
CMT,2011-11-01,6200.0
CMT,2011-11-02,6100.0
CMT,2011-11-03,6200.0
CMT,2011-11-04,6100.0
CMT,2011-11-07,6200.0
CMT,2011-11-08,6200.0
CMT,2011-11-09,5900.0
CMT,2011-11-10,5700.0
CMT,2011-11-11,5400.0
CMT,2011-11-14,5700.0
CMT,2011-11-15,5700.0
CMT,2011-11-16,5900.0
CMT,2011-11-17,5700.0
CMT,2011-11-18,5400.0
CMT,2011-11-21,5700.0
CMT,2011-11-22,5700.0
CMT,2011-11-23,5900.0
CMT,2011-11-24,6200.0
CMT,2011-11-25,6500.0
CMT,2011-11-28,6700.0
CMT,2011-11-29,7000.0
CMT,2011-11-30,7000.0
CMT,2011-12-01,6900.0
CMT,2011-12-02,6800.0
CMT,2011-12-05,6900.0
CMT,2011-12-06,7100.0
CMT,2011-12-07,7400.0
CMT,2011-12-08,7300.0
CMT,2011-12-09,7300.0
CMT,2011-12-12,7000.0
CMT,2011-12-13,7100.0
CMT,2011-12-14,7100.0
CMT,2011-12-15,6800.0
CMT,2011-12-16,7100.0
CMT,2011-12-19,7400.0
CMT,2011-12-20,7400.0
CMT,2011-12-21,7500.0
CMT,2011-12-22,7600.0
CMT,2011-12-23,7600.0
CMT,2011-12-26,7600.0
CMT,2011-12-27,7300.0
CMT,2011-12-28,7600.0
CMT,2011-12-29,7700.0
CMT,2011-12-30,7700.0
CMT,2012-01-03,7600.0
CMT,2012-01-04,7700.0
CMT,2012-01-05,7600.0
CMT,2012-01-06,7500.0
CMT,2012-01-09,7500.0
CMT,2012-01-10,7600.0
CMT,2012-01-11,7400.0
CMT,2012-01-12,7600.0
CMT,2012-01-13,7900.0
CMT,2012-01-16,7800.0
CMT,2012-01-17,7600.0
CMT,2012-01-18,7900.0
CMT,2012-01-19,8000.0
CMT,2012-01-20,8400.0
CMT,2012-01-30,8700.0
CMT,2012-01-31,8800.0
CMT,2012-02-01,8800.0
CMT,2012-02-02,8400.0
CMT,2012-02-03,8000.0
CMT,2012-02-06,7600.0
CMT,2012-02-07,7900.0
CMT,2012-02-08,8200.0
CMT,2012-02-09,8500.0
CMT,2012-02-10,8500.0
CMT,2012-02-13,8500.0
CMT,2012-02-14,8500.0
CMT,2012-02-15,8500.0
CMT,2012-02-16,8100.0
CMT,2012-02-17,8000.0
CMT,2012-02-20,8000.0
CMT,2012-02-21,8000.0
CMT,2012-02-22,7800.0
CMT,2012-02-23,8000.0
CMT,2012-02-24,8000.0
CMT,2012-02-27,7700.0
CMT,2012-02-28,7400.0
CMT,2012-02-29,7100.0
CMT,2012-03-01,6900.0
CMT,2012-03-02,6900.0
CMT,2012-03-05,7200.0
CMT,2012-03-06,7400.0
CMT,2012-03-07,7600.0
CMT,2012-03-08,7300.0
CMT,2012-03-09,7000.0
CMT,2012-03-12,6700.0
CMT,2012-03-13,6800.0
CMT,2012-03-14,6900.0
CMT,2012-03-15,6900.0
CMT,2012-03-16,7000.0
CMT,2012-03-19,7000.0
CMT,2012-03-20,7000.0
CMT,2012-03-21,7300.0
CMT,2012-03-22,7600.0
CMT,2012-03-23,7600.0
CMT,2012-03-26,7700.0
CMT,2012-03-27,7500.0
CMT,2012-03-28,7300.0
CMT,2012-03-29,7400.0
CMT,2012-03-30,7100.0
CMT,2012-04-03,7400.0
CMT,2012-04-04,7500.0
CMT,2012-04-05,7600.0
CMT,2012-04-06,7500.0
CMT,2012-04-09,7700.0
CMT,2012-04-10,7400.0
CMT,2012-04-11,7400.0
CMT,2012-04-12,7200.0
CMT,2012-04-13,7400.0
CMT,2012-04-16,7600.0
CMT,2012-04-17,7500.0
CMT,2012-04-18,7500.0
CMT,2012-04-19,7200.0
CMT,2012-04-20,7100.0
CMT,2012-04-23,7200.0
CMT,2012-04-24,7400.0
CMT,2012-04-25,7700.0
CMT,2012-04-26,7700.0
CMT,2012-04-27,8000.0
CMT,2012-05-02,7700.0
CMT,2012-05-03,7800.0
CMT,2012-05-04,7800.0
CMT,2012-05-07,8100.0
CMT,2012-05-08,8300.0
CMT,2012-05-09,8100.0
CMT,2012-05-10,8500.0
CMT,2012-05-11,8800.0
CMT,2012-05-14,8400.0
CMT,2012-05-15,8000.0
CMT,2012-05-16,7600.0
CMT,2012-05-17,7300.0
CMT,2012-05-18,7200.0
CMT,2012-05-21,7500.0
CMT,2012-05-22,7500.0
CMT,2012-05-23,7200.0
CMT,2012-05-24,7500.0
CMT,2012-05-25,7700.0
CMT,2012-05-28,7400.0
CMT,2012-05-29,7100.0
CMT,2012-05-30,7200.0
CMT,2012-05-31,6900.0
CMT,2012-06-01,6700.0
CMT,2012-06-04,6400.0
CMT,2012-06-05,6700.0
CMT,2012-06-06,6400.0
CMT,2012-06-07,6700.0
CMT,2012-06-08,6900.0
CMT,2012-06-11,6900.0
CMT,2012-06-12,6800.0
CMT,2012-06-13,7000.0
CMT,2012-06-14,6800.0
CMT,2012-06-15,6500.0
CMT,2012-06-18,6200.0
CMT,2012-06-19,6500.0
CMT,2012-06-20,6600.0
CMT,2012-06-21,6600.0
CMT,2012-06-22,6400.0
CMT,2012-06-25,6100.0
CMT,2012-06-26,6000.0
CMT,2012-06-27,6000.0
CMT,2012-06-28,5700.0
CMT,2012-06-29,5900.0
CMT,2012-07-02,5900.0
CMT,2012-07-03,5700.0
CMT,2012-07-04,5700.0
CMT,2012-07-05,5700.0
CMT,2012-07-06,5600.0
CMT,2012-07-09,5600.0
CMT,2012-07-10,5700.0
CMT,2012-07-11,5700.0
CMT,2012-07-12,5600.0
CMT,2012-07-13,5400.0
CMT,2012-07-16,5200.0
CMT,2012-07-17,5400.0
CMT,2012-07-18,5600.0
CMT,2012-07-19,5800.0
CMT,2012-07-20,6000.0
CMT,2012-07-23,6000.0
CMT,2012-07-24,5700.0
CMT,2012-07-25,5500.0
CMT,2012-07-26,5300.0
CMT,2012-07-27,5500.0
CMT,2012-07-30,5300.0
CMT,2012-07-31,5300.0
CMT,2012-08-01,5500.0
CMT,2012-08-02,5300.0
CMT,2012-08-03,5300.0
CMT,2012-08-06,5500.0
CMT,2012-08-07,5300.0
CMT,2012-08-08,5100.0
CMT,2012-08-09,5300.0
CMT,2012-08-10,5500.0
CMT,2012-08-13,5700.0
CMT,2012-08-14,5900.0
CMT,2012-08-15,5900.0
CMT,2012-08-16,5900.0
CMT,2012-08-17,5900.0
CMT,2012-08-20,5900.0
CMT,2012-08-21,5700.0
CMT,2012-08-22,5700.0
CMT,2012-08-23,5500.0
CMT,2012-08-24,5600.0
CMT,2012-08-27,5700.0
CMT,2012-08-28,5700.0
CMT,2012-08-29,5900.0
CMT,2012-08-30,5700.0
CMT,2012-08-31,5500.0
CMT,2012-09-04,5500.0
CMT,2012-09-05,5300.0
CMT,2012-09-06,5300.0
CMT,2012-09-07,5300.0
CMT,2012-09-10,5500.0
CMT,2012-09-11,5300.0
CMT,2012-09-12,5500.0
CMT,2012-09-13,5600.0
CMT,2012-09-14,5600.0
CMT,2012-09-17,5600.0
CMT,2012-09-18,5800.0
CMT,2012-09-19,5600.0
CMT,2012-09-20,5500.0
CMT,2012-09-21,5600.0
CMT,2012-09-24,5700.0
CMT,2012-09-25,5800.0
CMT,2012-09-26,5600.0
CMT,2012-09-27,5600.0
CMT,2012-09-28,5400.0
CMT,2012-10-01,5400.0
CMT,2012-10-02,5400.0
CMT,2012-10-03,5400.0
CMT,2012-10-04,5400.0
CMT,2012-10-05,5400.0
CMT,2012-10-08,5400.0
CMT,2012-10-09,5200.0
CMT,2012-10-10,5100.0
CMT,2012-10-11,5100.0
CMT,2012-10-12,5000.0
CMT,2012-10-15,5100.0
CMT,2012-10-16,5200.0
CMT,2012-10-17,5300.0
CMT,2012-10-18,5300.0
CMT,2012-10-19,5300.0
CMT,2012-10-22,5100.0
CMT,2012-10-23,5100.0
CMT,2012-10-24,5200.0
CMT,2012-10-25,5200.0
CMT,2012-10-26,5100.0
CMT,2012-10-29,5300.0
CMT,2012-10-30,5400.0
CMT,2012-10-31,5400.0
CMT,2012-11-01,5400.0
CMT,2012-11-02,5400.0
CMT,2012-11-05,5400.0
CMT,2012-11-06,5200.0
CMT,2012-11-07,5200.0
CMT,2012-11-08,5200.0
CMT,2012-11-09,5200.0
CMT,2012-11-12,5200.0
CMT,2012-11-13,5200.0
CMT,2012-11-14,5200.0
CMT,2012-11-15,5200.0
CMT,2012-11-16,5000.0
CMT,2012-11-19,5200.0
CMT,2012-11-20,5100.0
CMT,2012-11-21,5100.0
CMT,2012-11-22,5100.0
CMT,2012-11-23,5200.0
CMT,2012-11-26,5200.0
CMT,2012-11-27,5100.0
CMT,2012-11-28,5100.0
CMT,2012-11-29,5100.0
CMT,2012-11-30,5100.0
CMT,2012-12-03,5100.0
CMT,2012-12-04,5100.0
CMT,2012-12-05,4900.0
CMT,2012-12-06,5000.0
CMT,2012-12-07,5200.0
CMT,2012-12-10,5200.0
CMT,2012-12-11,5200.0
CMT,2012-12-12,5300.0
CMT,2012-12-13,5300.0
CMT,2012-12-14,5500.0
CMT,2012-12-17,5500.0
CMT,2012-12-18,5300.0
CMT,2012-12-19,5300.0
CMT,2012-12-20,5300.0
CMT,2012-12-21,5300.0
CMT,2012-12-24,5300.0
CMT,2012-12-25,5300.0
CMT,2012-12-26,5400.0
CMT,2012-12-27,5500.0
CMT,2012-12-28,5500.0
CMT,2013-01-02,5500.0
CMT,2013-01-03,5600.0
CMT,2013-01-04,5400.0
CMT,2013-01-07,5400.0
CMT,2013-01-08,5400.0
CMT,2013-01-09,5200.0
CMT,2013-01-10,5000.0
CMT,2013-01-11,5100.0
CMT,2013-01-14,5200.0
CMT,2013-01-15,5300.0
CMT,2013-01-16,5400.0
CMT,2013-01-17,5600.0
CMT,2013-01-18,5600.0
CMT,2013-01-21,5600.0
CMT,2013-01-22,5400.0
CMT,2013-01-23,5400.0
CMT,2013-01-24,5400.0
CMT,2013-01-25,5300.0
CMT,2013-01-28,5200.0
CMT,2013-01-29,5200.0
CMT,2013-01-30,5200.0
CMT,2013-01-31,5200.0
CMT,2013-02-01,5200.0
CMT,2013-02-04,5300.0
CMT,2013-02-05,5000.0
CMT,2013-02-06,5100.0
CMT,2013-02-07,5000.0
CMT,2013-02-08,5300.0
CMT,2013-02-18,5200.0
CMT,2013-02-19,5200.0
CMT,2013-02-20,5300.0
CMT,2013-02-21,5200.0
CMT,2013-02-22,5200.0
CMT,2013-02-25,5300.0
CMT,2013-02-26,5300.0
CMT,2013-02-27,5300.0
CMT,2013-02-28,5200.0
CMT,2013-03-01,5200.0
CMT,2013-03-04,5200.0
CMT,2013-03-05,5200.0
CMT,2013-03-06,5200.0
CMT,2013-03-07,5200.0
CMT,2013-03-08,5300.0
CMT,2013-03-11,5300.0
CMT,2013-03-12,5300.0
CMT,2013-03-13,5300.0
CMT,2013-03-14,5200.0
CMT,2013-03-15,5200.0
CMT,2013-03-18,5200.0
CMT,2013-03-19,5300.0
CMT,2013-03-20,5300.0
CMT,2013-03-21,5400.0
CMT,2013-03-22,5400.0
CMT,2013-03-25,5400.0
CMT,2013-03-26,5400.0
CMT,2013-03-27,5400.0
CMT,2013-03-28,5400.0
CMT,2013-03-29,5200.0
CMT,2013-04-01,5300.0
CMT,2013-04-02,5000.0
CMT,2013-04-03,5200.0
CMT,2013-04-04,5300.0
CMT,2013-04-05,5300.0
CMT,2013-04-08,5300.0
CMT,2013-04-09,5200.0
CMT,2013-04-10,5200.0
CMT,2013-04-11,5300.0
CMT,2013-04-12,5300.0
CMT,2013-04-15,5300.0
CMT,2013-04-16,5300.0
CMT,2013-04-17,5200.0
CMT,2013-04-18,5200.0
CMT,2013-04-22,5300.0
CMT,2013-04-23,5400.0
CMT,2013-04-24,5700.0
CMT,2013-04-25,5700.0
CMT,2013-04-26,5700.0
CMT,2013-05-02,5600.0
CMT,2013-05-03,5500.0
CMT,2013-05-06,5200.0
CMT,2013-05-07,5200.0
CMT,2013-05-08,5200.0
CMT,2013-05-09,5400.0
CMT,2013-05-10,5100.0
CMT,2013-05-13,5300.0
CMT,2013-05-14,5300.0
CMT,2013-05-15,5000.0
CMT,2013-05-16,5200.0
CMT,2013-05-17,5400.0
CMT,2013-05-20,5100.0
CMT,2013-05-21,5300.0
CMT,2013-05-22,5300.0
CMT,2013-05-23,5300.0
CMT,2013-05-24,5100.0
CMT,2013-05-27,5100.0
CMT,2013-05-28,5100.0
CMT,2013-05-29,5100.0
CMT,2013-05-30,5300.0
CMT,2013-05-31,5300.0
CMT,2013-06-03,5200.0
CMT,2013-06-04,5000.0
CMT,2013-06-05,5100.0
CMT,2013-06-06,5000.0
CMT,2013-06-07,5000.0
CMT,2013-06-10,5200.0
CMT,2013-06-11,5200.0
CMT,2013-06-12,5200.0
CMT,2013-06-13,5100.0
CMT,2013-06-14,5100.0
CMT,2013-06-17,5200.0
CMT,2013-06-18,5200.0
CMT,2013-06-19,5100.0
CMT,2013-06-20,5100.0
CMT,2013-06-21,5100.0
CMT,2013-06-24,5200.0
CMT,2013-06-25,5200.0
CMT,2013-06-26,5200.0
CMT,2013-06-27,5200.0
CMT,2013-06-28,5100.0
CMT,2013-07-01,5200.0
CMT,2013-07-02,5300.0
CMT,2013-07-03,5100.0
CMT,2013-07-04,5200.0
CMT,2013-07-05,4900.0
CMT,2013-07-08,5000.0
CMT,2013-07-09,5000.0
CMT,2013-07-10,5000.0
CMT,2013-07-11,5000.0
CMT,2013-07-12,5000.0
CMT,2013-07-15,5000.0
CMT,2013-07-16,4900.0
CMT,2013-07-17,5000.0
CMT,2013-07-18,5100.0
CMT,2013-07-19,5100.0
CMT,2013-07-22,5100.0
CMT,2013-07-23,5200.0
CMT,2013-07-24,5200.0
CMT,2013-07-25,5200.0
CMT,2013-07-26,4900.0
CMT,2013-07-29,5000.0
CMT,2013-07-30,5000.0
CMT,2013-07-31,5000.0
CMT,2013-08-01,5000.0
CMT,2013-08-02,5100.0
CMT,2013-08-05,5000.0
CMT,2013-08-06,5000.0
CMT,2013-08-07,5000.0
CMT,2013-08-08,5100.0
CMT,2013-08-09,5100.0
CMT,2013-08-12,5000.0
CMT,2013-08-13,5000.0
CMT,2013-08-14,4900.0
CMT,2013-08-15,4900.0
CMT,2013-08-16,4900.0
CMT,2013-08-19,4600.0
CMT,2013-08-20,4800.0
CMT,2013-08-21,4900.0
CMT,2013-08-22,5000.0
CMT,2013-08-23,5300.0
CMT,2013-08-26,5600.0
CMT,2013-08-27,5900.0
CMT,2013-08-28,5600.0
CMT,2013-08-29,5800.0
CMT,2013-08-30,5900.0
CMT,2013-09-03,5900.0
CMT,2013-09-04,5900.0
CMT,2013-09-05,5900.0
CMT,2013-09-06,5900.0
CMT,2013-09-09,6100.0
CMT,2013-09-10,5800.0
CMT,2013-09-11,5800.0
CMT,2013-09-12,5800.0
CMT,2013-09-13,5400.0
CMT,2013-09-16,5200.0
CMT,2013-09-17,5000.0
CMT,2013-09-18,5000.0
CMT,2013-09-19,5200.0
CMT,2013-09-20,4900.0
CMT,2013-09-23,4900.0
CMT,2013-09-24,4800.0
CMT,2013-09-25,4900.0
CMT,2013-09-26,5200.0
CMT,2013-09-27,5500.0
CMT,2013-09-30,5700.0
CMT,2013-10-01,5700.0
CMT,2013-10-02,5700.0
CMT,2013-10-03,5700.0
CMT,2013-10-04,5600.0
CMT,2013-10-07,5800.0
CMT,2013-10-08,5900.0
CMT,2013-10-09,5900.0
CMT,2013-10-10,5500.0
CMT,2013-10-11,5500.0
CMT,2013-10-14,5700.0
CMT,2013-10-15,5900.0
CMT,2013-10-16,5800.0
CMT,2013-10-17,5800.0
CMT,2013-10-18,6000.0
CMT,2013-10-21,6000.0
CMT,2013-10-22,5600.0
CMT,2013-10-23,5300.0
CMT,2013-10-24,5600.0
CMT,2013-10-25,5800.0
CMT,2013-10-28,5400.0
CMT,2013-10-29,5500.0
CMT,2013-10-30,5400.0
CMT,2013-10-31,5400.0
CMT,2013-11-01,5400.0
CMT,2013-11-04,5500.0
CMT,2013-11-05,5400.0
CMT,2013-11-06,5600.0
CMT,2013-11-07,5300.0
CMT,2013-11-08,5300.0
CMT,2013-11-11,5600.0
CMT,2013-11-12,5300.0
CMT,2013-11-13,5400.0
CMT,2013-11-14,5300.0
CMT,2013-11-15,5500.0
CMT,2013-11-18,5500.0
CMT,2013-11-19,5600.0
CMT,2013-11-20,5900.0
CMT,2013-11-21,6200.0
CMT,2013-11-22,6200.0
CMT,2013-11-25,6200.0
CMT,2013-11-26,6200.0
CMT,2013-11-27,6000.0
CMT,2013-11-28,6300.0
CMT,2013-11-29,6000.0
CMT,2013-12-02,6100.0
CMT,2013-12-03,5700.0
CMT,2013-12-04,6000.0
CMT,2013-12-05,6000.0
CMT,2013-12-06,6200.0
CMT,2013-12-09,6200.0
CMT,2013-12-10,6200.0
CMT,2013-12-11,5900.0
CMT,2013-12-12,5800.0
CMT,2013-12-13,5800.0
CMT,2013-12-16,5500.0
CMT,2013-12-17,5800.0
CMT,2013-12-18,6200.0
CMT,2013-12-19,6300.0
CMT,2013-12-20,6300.0
CMT,2013-12-23,6300.0
CMT,2013-12-24,6300.0
CMT,2013-12-25,6000.0
CMT,2013-12-26,6300.0
CMT,2013-12-27,6100.0
CMT,2013-12-30,6000.0
CMT,2013-12-31,6000.0
CMT,2014-01-02,6100.0
CMT,2014-01-03,5900.0
CMT,2014-01-06,6100.0
CMT,2014-01-07,6100.0
CMT,2014-01-08,6100.0
CMT,2014-01-09,6100.0
CMT,2014-01-10,6100.0
CMT,2014-01-13,6200.0
CMT,2014-01-14,6500.0
CMT,2014-01-15,6800.0
CMT,2014-01-16,6900.0
CMT,2014-01-17,6900.0
CMT,2014-01-20,6800.0
CMT,2014-01-21,7000.0
CMT,2014-01-22,6800.0
CMT,2014-01-23,7100.0
CMT,2014-01-24,7500.0
CMT,2014-01-27,7900.0
CMT,2014-02-06,8000.0
CMT,2014-02-07,8200.0
CMT,2014-02-10,8400.0
CMT,2014-02-11,8600.0
CMT,2014-02-12,8400.0
CMT,2014-02-13,8900.0
CMT,2014-02-14,9500.0
CMT,2014-02-17,10100.0
CMT,2014-02-18,10800.0
CMT,2014-02-19,11500.0
CMT,2014-02-20,12000.0
CMT,2014-02-21,12000.0
CMT,2014-02-24,12400.0
CMT,2014-02-25,12000.0
CMT,2014-02-26,12000.0
CMT,2014-02-27,11900.0
CMT,2014-02-28,11300.0
CMT,2014-03-03,11500.0
CMT,2014-03-04,11200.0
CMT,2014-03-05,10700.0
CMT,2014-03-06,10400.0
CMT,2014-03-07,10700.0
CMT,2014-03-10,11100.0
CMT,2014-03-11,10400.0
CMT,2014-03-12,10700.0
CMT,2014-03-13,10200.0
CMT,2014-03-14,10500.0
CMT,2014-03-17,10600.0
CMT,2014-03-18,10800.0
CMT,2014-03-19,10700.0
CMT,2014-03-20,10500.0
CMT,2014-03-21,10300.0
CMT,2014-03-24,10600.0
CMT,2014-03-25,10900.0
CMT,2014-03-26,10800.0
CMT,2014-03-27,10700.0
CMT,2014-03-28,10700.0
CMT,2014-03-31,10700.0
CMT,2014-04-01,10600.0
CMT,2014-04-02,10600.0
CMT,2014-04-03,10600.0
CMT,2014-04-04,10400.0
CMT,2014-04-07,10500.0
CMT,2014-04-08,10200.0
CMT,2014-04-10,10100.0
CMT,2014-04-11,10100.0
CMT,2014-04-14,10000.0
CMT,2014-04-15,10000.0
CMT,2014-04-16,9900.0
CMT,2014-04-17,10100.0
CMT,2014-04-18,10100.0
CMT,2014-04-21,10100.0
CMT,2014-04-22,10100.0
CMT,2014-04-23,10100.0
CMT,2014-04-24,9900.0
CMT,2014-04-25,9900.0
CMT,2014-04-28,9900.0
CMT,2014-04-29,9800.0
CMT,2014-05-05,9200.0
CMT,2014-05-06,8600.0
CMT,2014-05-07,9000.0
CMT,2014-05-08,8500.0
CMT,2014-05-09,8900.0
CMT,2014-05-12,9400.0
CMT,2014-05-13,9300.0
CMT,2014-05-14,9000.0
CMT,2014-05-15,9200.0
CMT,2014-05-16,9500.0
CMT,2014-05-19,9300.0
CMT,2014-05-20,9300.0
CMT,2014-05-21,9300.0
