DCT,2006-10-10,18000.0
DCT,2006-10-11,17100.0
DCT,2006-10-12,18000.0
DCT,2006-10-13,18800.0
DCT,2006-10-16,19700.0
DCT,2006-10-17,19200.0
DCT,2006-10-18,18600.0
DCT,2006-10-19,19200.0
DCT,2006-10-20,18900.0
DCT,2006-10-23,18500.0
DCT,2006-10-24,18300.0
DCT,2006-10-25,18000.0
DCT,2006-10-26,17800.0
DCT,2006-10-27,17500.0
DCT,2006-10-30,16700.0
DCT,2006-10-31,16600.0
DCT,2006-11-01,17400.0
DCT,2006-11-02,17400.0
DCT,2006-11-03,17000.0
DCT,2006-11-06,17100.0
DCT,2006-11-07,17000.0
DCT,2006-11-08,16900.0
DCT,2006-11-09,16800.0
DCT,2006-11-10,16600.0
DCT,2006-11-13,16200.0
DCT,2006-11-14,16200.0
DCT,2006-11-15,16400.0
DCT,2006-11-16,16500.0
DCT,2006-11-17,16500.0
DCT,2006-11-20,16100.0
DCT,2006-11-21,15800.0
DCT,2006-11-22,15500.0
DCT,2006-11-23,16100.0
DCT,2006-11-24,16900.0
DCT,2006-11-27,16100.0
DCT,2006-11-28,15800.0
DCT,2006-11-29,15600.0
DCT,2006-11-30,15600.0
DCT,2006-12-01,15400.0
DCT,2006-12-04,15300.0
DCT,2006-12-05,15600.0
DCT,2006-12-06,15500.0
DCT,2006-12-07,15300.0
DCT,2006-12-08,15300.0
DCT,2006-12-11,15300.0
DCT,2006-12-12,14800.0
DCT,2006-12-13,14500.0
DCT,2006-12-14,14100.0
DCT,2006-12-15,14800.0
DCT,2006-12-18,15500.0
DCT,2006-12-19,16300.0
DCT,2006-12-20,17100.0
DCT,2006-12-21,16300.0
DCT,2006-12-22,15500.0
DCT,2006-12-25,16300.0
DCT,2006-12-26,16300.0
DCT,2006-12-27,16300.0
DCT,2006-12-28,15600.0
DCT,2006-12-29,15700.0
DCT,2007-01-02,15500.0
DCT,2007-01-03,15400.0
DCT,2007-01-04,15700.0
DCT,2007-01-05,15400.0
DCT,2007-01-08,15400.0
DCT,2007-01-09,14900.0
DCT,2007-01-10,14900.0
DCT,2007-01-11,15100.0
DCT,2007-01-12,15700.0
DCT,2007-01-15,16000.0
DCT,2007-01-16,15700.0
DCT,2007-01-17,15700.0
DCT,2007-01-18,15400.0
DCT,2007-01-19,15100.0
DCT,2007-01-22,14800.0
DCT,2007-01-23,14900.0
DCT,2007-01-24,15600.0
DCT,2007-01-25,16300.0
DCT,2007-01-26,16600.0
DCT,2007-01-29,16000.0
DCT,2007-01-30,16300.0
DCT,2007-01-31,16000.0
DCT,2007-02-01,15700.0
DCT,2007-02-02,16400.0
DCT,2007-02-05,17300.0
DCT,2007-02-06,18100.0
DCT,2007-02-07,18900.0
DCT,2007-02-08,19900.0
DCT,2007-02-09,18900.0
DCT,2007-02-12,18200.0
DCT,2007-02-13,18600.0
DCT,2007-02-14,19500.0
DCT,2007-02-15,19800.0
DCT,2007-02-26,20700.0
DCT,2007-02-27,21700.0
DCT,2007-02-28,22200.0
DCT,2007-03-01,22500.0
DCT,2007-03-02,22700.0
DCT,2007-03-05,23800.0
DCT,2007-03-06,24900.0
DCT,2007-03-07,26100.0
DCT,2007-03-08,27400.0
DCT,2007-03-09,28800.0
DCT,2007-03-12,29900.0
DCT,2007-03-13,31400.0
DCT,2007-03-14,29900.0
DCT,2007-03-15,28500.0
DCT,2007-03-16,27100.0
DCT,2007-03-19,28400.0
DCT,2007-03-20,29400.0
DCT,2007-03-21,28400.0
DCT,2007-03-22,27000.0
DCT,2007-03-23,25700.0
DCT,2007-03-26,24400.0
DCT,2007-03-27,23200.0
DCT,2007-03-28,22100.0
DCT,2007-03-29,23200.0
DCT,2007-03-30,24300.0
DCT,2007-04-02,23500.0
DCT,2007-04-03,22400.0
DCT,2007-04-04,23500.0
DCT,2007-04-05,23500.0
DCT,2007-04-06,22800.0
DCT,2007-04-09,22400.0
DCT,2007-04-10,23000.0
DCT,2007-04-11,22400.0
DCT,2007-04-12,21300.0
DCT,2007-04-13,20200.0
DCT,2007-04-16,19200.0
DCT,2007-04-17,18300.0
DCT,2007-04-18,19200.0
DCT,2007-04-19,19400.0
DCT,2007-04-20,18700.0
DCT,2007-04-23,17900.0
DCT,2007-04-24,17900.0
DCT,2007-04-25,18800.0
DCT,2007-05-02,18200.0
DCT,2007-05-03,18200.0
DCT,2007-05-04,18200.0
DCT,2007-05-07,18800.0
DCT,2007-05-08,19700.0
DCT,2007-05-09,19100.0
DCT,2007-05-10,18800.0
DCT,2007-05-11,18800.0
DCT,2007-05-14,19400.0
DCT,2007-05-15,19400.0
DCT,2007-05-16,19400.0
DCT,2007-05-17,19400.0
DCT,2007-05-18,19200.0
DCT,2007-05-21,19100.0
DCT,2007-05-22,20100.0
DCT,2007-05-23,21100.0
DCT,2007-05-24,20300.0
DCT,2007-05-25,20600.0
DCT,2007-05-28,20000.0
DCT,2007-05-29,19400.0
DCT,2007-05-30,19100.0
DCT,2007-05-31,19600.0
DCT,2007-06-01,19600.0
DCT,2007-06-04,18800.0
DCT,2007-06-05,18800.0
DCT,2007-06-06,19800.0
DCT,2007-06-07,19800.0
DCT,2007-06-08,19700.0
DCT,2007-06-11,19400.0
DCT,2007-06-12,19400.0
DCT,2007-06-13,19400.0
DCT,2007-06-14,19400.0
DCT,2007-06-15,19200.0
DCT,2007-06-18,19500.0
DCT,2007-06-19,19700.0
DCT,2007-06-20,19800.0
DCT,2007-06-21,19800.0
DCT,2007-06-22,19400.0
DCT,2007-06-25,19500.0
DCT,2007-06-26,20000.0
DCT,2007-06-27,19500.0
DCT,2007-06-28,19200.0
DCT,2007-06-29,19200.0
DCT,2007-07-02,18300.0
DCT,2007-07-03,17700.0
DCT,2007-07-04,18500.0
DCT,2007-07-05,18100.0
DCT,2007-07-06,18100.0
DCT,2007-07-09,18200.0
DCT,2007-07-10,18500.0
DCT,2007-07-11,18700.0
DCT,2007-07-12,18200.0
DCT,2007-07-13,18200.0
DCT,2007-07-16,17900.0
DCT,2007-07-17,18500.0
DCT,2007-07-18,18100.0
DCT,2007-07-19,18200.0
DCT,2007-07-20,19100.0
DCT,2007-07-23,19400.0
DCT,2007-07-24,18900.0
DCT,2007-07-25,18500.0
DCT,2007-07-26,18100.0
DCT,2007-07-27,18200.0
DCT,2007-07-30,17700.0
DCT,2007-07-31,17400.0
DCT,2007-08-01,18100.0
DCT,2007-08-02,17800.0
DCT,2007-08-03,17500.0
DCT,2007-08-06,17300.0
DCT,2007-08-07,17400.0
DCT,2007-08-08,17400.0
DCT,2007-08-09,17500.0
DCT,2007-08-10,17400.0
DCT,2007-08-13,17100.0
DCT,2007-08-14,17100.0
DCT,2007-08-15,17100.0
DCT,2007-08-16,17200.0
DCT,2007-08-17,16900.0
DCT,2007-08-20,16800.0
DCT,2007-08-21,16800.0
DCT,2007-08-22,16500.0
DCT,2007-08-23,16400.0
DCT,2007-08-24,16500.0
DCT,2007-08-27,16700.0
DCT,2007-08-28,16700.0
DCT,2007-08-29,16500.0
DCT,2007-08-30,16700.0
DCT,2007-08-31,16600.0
DCT,2007-09-04,16800.0
DCT,2007-09-05,16800.0
DCT,2007-09-06,16800.0
DCT,2007-09-07,17000.0
DCT,2007-09-10,17100.0
DCT,2007-09-11,17900.0
DCT,2007-09-12,18200.0
DCT,2007-09-13,17700.0
DCT,2007-09-14,17700.0
DCT,2007-09-17,17700.0
DCT,2007-09-18,17600.0
DCT,2007-09-19,17700.0
DCT,2007-09-20,17900.0
DCT,2007-09-21,17800.0
DCT,2007-09-24,18200.0
DCT,2007-09-25,19100.0
DCT,2007-09-26,20100.0
DCT,2007-09-27,19700.0
DCT,2007-09-28,20100.0
DCT,2007-10-01,20600.0
DCT,2007-10-02,20000.0
DCT,2007-10-03,19700.0
DCT,2007-10-04,20000.0
DCT,2007-10-05,20000.0
DCT,2007-10-08,20200.0
DCT,2007-10-09,20000.0
DCT,2007-10-10,19400.0
DCT,2007-10-11,19500.0
DCT,2007-10-12,20400.0
DCT,2007-10-15,20400.0
DCT,2007-10-16,21000.0
DCT,2007-10-17,22000.0
DCT,2007-10-18,23000.0
DCT,2007-10-19,22000.0
DCT,2007-10-22,21400.0
DCT,2007-10-23,20900.0
DCT,2007-10-24,21600.0
DCT,2007-10-25,21100.0
DCT,2007-10-26,20900.0
DCT,2007-10-29,21100.0
DCT,2007-10-30,20900.0
DCT,2007-10-31,20500.0
DCT,2007-11-01,20500.0
DCT,2007-11-02,20200.0
DCT,2007-11-05,19700.0
DCT,2007-11-06,19400.0
DCT,2007-11-07,19700.0
DCT,2007-11-08,19900.0
DCT,2007-11-09,19500.0
DCT,2007-11-12,18700.0
DCT,2007-11-13,18400.0
DCT,2007-11-14,18900.0
DCT,2007-11-15,18400.0
DCT,2007-11-16,18400.0
DCT,2007-11-19,18400.0
DCT,2007-11-20,18600.0
DCT,2007-11-21,18400.0
DCT,2007-11-22,18600.0
DCT,2007-11-23,18700.0
DCT,2007-11-26,19600.0
DCT,2007-11-27,19400.0
DCT,2007-11-28,19300.0
DCT,2007-11-29,19100.0
DCT,2007-11-30,18900.0
DCT,2007-12-03,18600.0
DCT,2007-12-04,18700.0
DCT,2007-12-05,18700.0
DCT,2007-12-06,18700.0
DCT,2007-12-07,18700.0
DCT,2007-12-10,18600.0
DCT,2007-12-11,18300.0
DCT,2007-12-12,18700.0
DCT,2007-12-13,18400.0
DCT,2007-12-14,18300.0
DCT,2007-12-17,18000.0
DCT,2007-12-18,17800.0
DCT,2007-12-19,18700.0
DCT,2007-12-20,18300.0
DCT,2007-12-21,18500.0
DCT,2007-12-24,18300.0
DCT,2007-12-25,18000.0
DCT,2007-12-26,18000.0
DCT,2007-12-27,18100.0
DCT,2007-12-28,18100.0
DCT,2008-01-02,18000.0
DCT,2008-01-03,17800.0
DCT,2008-01-04,17700.0
DCT,2008-01-07,17400.0
DCT,2008-01-08,17400.0
DCT,2008-01-09,16800.0
DCT,2008-01-10,16100.0
DCT,2008-01-11,16100.0
DCT,2008-01-14,15500.0
DCT,2008-01-15,14700.0
DCT,2008-01-16,15500.0
DCT,2008-01-17,14800.0
DCT,2008-01-18,15200.0
DCT,2008-01-21,15100.0
DCT,2008-01-22,14800.0
DCT,2008-01-23,14500.0
DCT,2008-01-24,13900.0
DCT,2008-01-25,14600.0
DCT,2008-01-28,15100.0
DCT,2008-01-29,15400.0
DCT,2008-01-30,16100.0
DCT,2008-01-31,16400.0
DCT,2008-02-01,17200.0
DCT,2008-02-12,17600.0
DCT,2008-02-13,17000.0
DCT,2008-02-14,17500.0
DCT,2008-02-15,16800.0
DCT,2008-02-18,16100.0
DCT,2008-02-19,16300.0
DCT,2008-02-20,15700.0
DCT,2008-02-21,14900.0
DCT,2008-02-22,15100.0
DCT,2008-02-25,15800.0
DCT,2008-02-26,15000.0
DCT,2008-02-27,15000.0
DCT,2008-02-28,15000.0
DCT,2008-02-29,14300.0
DCT,2008-03-03,13600.0
DCT,2008-03-04,13000.0
DCT,2008-03-05,12400.0
DCT,2008-03-06,12900.0
DCT,2008-03-07,13500.0
DCT,2008-03-10,14200.0
DCT,2008-03-11,13500.0
DCT,2008-03-12,14000.0
DCT,2008-03-13,14000.0
DCT,2008-03-14,13700.0
DCT,2008-03-17,13100.0
DCT,2008-03-18,12400.0
DCT,2008-03-19,11900.0
DCT,2008-03-20,11500.0
DCT,2008-03-21,11300.0
DCT,2008-03-24,10800.0
DCT,2008-03-25,10300.0
DCT,2008-03-26,10800.0
DCT,2008-03-27,10800.0
DCT,2008-03-28,10900.0
DCT,2008-03-31,11000.0
DCT,2008-04-01,11000.0
DCT,2008-04-02,11100.0
DCT,2008-04-03,11200.0
DCT,2008-04-04,11200.0
DCT,2008-04-07,11500.0
DCT,2008-04-08,11700.0
DCT,2008-04-09,11500.0
DCT,2008-04-10,11200.0
DCT,2008-04-11,11000.0
DCT,2008-04-16,10800.0
DCT,2008-04-17,11000.0
DCT,2008-04-18,10800.0
DCT,2008-04-21,10700.0
DCT,2008-04-22,10800.0
DCT,2008-04-23,10700.0
DCT,2008-04-24,10800.0
DCT,2008-04-25,10800.0
DCT,2008-04-28,11000.0
DCT,2008-04-29,11000.0
DCT,2008-05-05,10800.0
DCT,2008-05-06,10600.0
DCT,2008-05-07,10400.0
DCT,2008-05-08,10300.0
DCT,2008-05-09,10100.0
DCT,2008-05-12,10000.0
DCT,2008-05-13,9800.0
DCT,2008-05-14,9700.0
DCT,2008-05-15,9600.0
DCT,2008-05-16,9400.0
DCT,2008-05-19,9300.0
DCT,2008-05-20,9100.0
DCT,2008-05-21,9000.0
DCT,2008-05-22,8900.0
DCT,2008-05-23,8700.0
DCT,2008-05-26,8600.0
DCT,2008-05-30,8500.0
DCT,2008-06-02,8300.0
DCT,2008-06-03,8200.0
DCT,2008-06-04,8000.0
DCT,2008-06-05,7900.0
DCT,2008-06-06,7800.0
DCT,2008-06-09,7600.0
DCT,2008-06-10,7500.0
DCT,2008-06-11,7300.0
DCT,2008-06-12,7500.0
DCT,2008-06-13,7600.0
DCT,2008-06-16,7800.0
DCT,2008-06-17,7900.0
DCT,2008-06-18,7800.0
DCT,2008-06-19,7500.0
DCT,2008-06-20,7300.0
DCT,2008-06-23,7500.0
DCT,2008-06-24,7500.0
DCT,2008-06-25,7500.0
DCT,2008-06-26,7300.0
DCT,2008-06-27,7300.0
DCT,2008-06-30,7300.0
DCT,2008-07-01,7500.0
DCT,2008-07-02,7500.0
DCT,2008-07-03,7800.0
DCT,2008-07-04,8000.0
DCT,2008-07-07,7800.0
DCT,2008-07-08,8000.0
DCT,2008-07-09,7900.0
DCT,2008-07-10,8100.0
DCT,2008-07-11,8300.0
DCT,2008-07-14,8500.0
DCT,2008-07-15,8700.0
DCT,2008-07-16,8700.0
DCT,2008-07-17,8500.0
DCT,2008-07-18,8300.0
DCT,2008-07-21,8100.0
DCT,2008-07-22,7900.0
DCT,2008-07-23,7700.0
DCT,2008-07-24,7500.0
DCT,2008-07-25,7500.0
DCT,2008-07-28,7500.0
DCT,2008-07-29,7300.0
DCT,2008-07-30,7100.0
DCT,2008-07-31,7100.0
DCT,2008-08-01,7300.0
DCT,2008-08-04,7500.0
DCT,2008-08-05,7700.0
DCT,2008-08-06,7500.0
DCT,2008-08-07,7500.0
DCT,2008-08-08,7400.0
DCT,2008-08-11,7600.0
DCT,2008-08-12,7700.0
DCT,2008-08-13,7600.0
DCT,2008-08-14,7800.0
DCT,2008-08-15,8000.0
DCT,2008-08-18,8400.0
DCT,2008-08-19,8000.0
DCT,2008-08-20,7600.0
DCT,2008-08-21,8000.0
DCT,2008-08-22,8300.0
DCT,2008-08-25,8700.0
DCT,2008-08-26,9100.0
DCT,2008-08-27,9500.0
DCT,2008-08-28,9100.0
DCT,2008-08-29,9500.0
DCT,2008-09-03,9900.0
DCT,2008-09-04,10400.0
DCT,2008-09-05,10900.0
DCT,2008-09-08,10500.0
DCT,2008-09-09,11000.0
DCT,2008-09-10,10500.0
DCT,2008-09-11,10000.0
DCT,2008-09-12,9500.0
DCT,2008-09-15,9100.0
DCT,2008-09-16,8700.0
DCT,2008-09-17,8200.0
DCT,2008-09-18,7900.0
DCT,2008-09-19,8200.0
DCT,2008-09-22,8600.0
DCT,2008-09-23,8500.0
DCT,2008-09-24,8500.0
DCT,2008-09-25,8900.0
DCT,2008-09-26,9100.0
DCT,2008-09-29,8700.0
DCT,2008-09-30,8300.0
DCT,2008-10-01,8400.0
DCT,2008-10-02,8700.0
DCT,2008-10-03,8400.0
DCT,2008-10-06,8000.0
DCT,2008-10-07,7600.0
DCT,2008-10-08,7700.0
DCT,2008-10-09,7700.0
DCT,2008-10-10,7300.0
DCT,2008-10-13,7500.0
DCT,2008-10-14,7900.0
DCT,2008-10-15,8000.0
DCT,2008-10-16,7600.0
DCT,2008-10-17,7600.0
DCT,2008-10-20,7500.0
DCT,2008-10-21,7500.0
DCT,2008-10-22,7500.0
DCT,2008-10-23,7200.0
DCT,2008-10-24,7200.0
DCT,2008-10-27,6800.0
DCT,2008-10-28,7000.0
DCT,2008-10-29,7300.0
DCT,2008-10-30,7300.0
DCT,2008-10-31,7100.0
DCT,2008-11-03,6900.0
DCT,2008-11-04,7100.0
DCT,2008-11-05,7300.0
DCT,2008-11-06,7000.0
DCT,2008-11-07,6800.0
DCT,2008-11-10,6800.0
DCT,2008-11-11,6600.0
DCT,2008-11-12,6400.0
DCT,2008-11-13,6600.0
DCT,2008-11-14,6700.0
DCT,2008-11-17,6500.0
DCT,2008-11-18,6600.0
DCT,2008-11-19,6600.0
DCT,2008-11-20,6400.0
DCT,2008-11-21,6300.0
DCT,2008-11-24,6300.0
DCT,2008-11-25,6300.0
DCT,2008-11-26,6100.0
DCT,2008-11-27,6100.0
DCT,2008-11-28,6400.0
DCT,2008-12-01,6400.0
DCT,2008-12-02,6100.0
DCT,2008-12-03,6100.0
DCT,2008-12-04,6200.0
DCT,2008-12-05,5900.0
DCT,2008-12-08,6100.0
DCT,2008-12-09,6100.0
DCT,2008-12-10,6100.0
DCT,2008-12-11,6000.0
DCT,2008-12-12,6300.0
DCT,2008-12-15,6600.0
DCT,2008-12-16,6300.0
DCT,2008-12-17,6100.0
DCT,2008-12-18,6300.0
DCT,2008-12-19,6400.0
DCT,2008-12-22,6300.0
DCT,2008-12-23,6200.0
DCT,2008-12-24,6100.0
DCT,2008-12-25,6100.0
DCT,2008-12-26,6100.0
DCT,2008-12-29,6100.0
DCT,2008-12-30,6300.0
DCT,2008-12-31,6200.0
DCT,2009-01-02,6200.0
DCT,2009-01-05,6200.0
DCT,2009-01-06,6400.0
DCT,2009-01-07,6400.0
DCT,2009-01-08,6200.0
DCT,2009-01-09,6400.0
DCT,2009-01-12,6400.0
DCT,2009-01-13,6300.0
DCT,2009-01-14,6100.0
DCT,2009-01-15,6100.0
DCT,2009-01-16,6100.0
DCT,2009-01-19,6100.0
DCT,2009-01-20,6100.0
DCT,2009-01-21,6100.0
DCT,2009-01-22,6200.0
DCT,2009-01-23,6100.0
DCT,2009-02-02,6200.0
DCT,2009-02-03,5900.0
DCT,2009-02-04,6100.0
DCT,2009-02-05,5900.0
DCT,2009-02-06,6000.0
DCT,2009-02-09,6100.0
DCT,2009-02-10,6100.0
DCT,2009-02-11,6100.0
DCT,2009-02-12,6000.0
DCT,2009-02-13,6000.0
DCT,2009-02-16,6100.0
DCT,2009-02-17,6000.0
DCT,2009-02-18,5700.0
DCT,2009-02-19,5800.0
DCT,2009-02-20,5700.0
DCT,2009-02-23,5500.0
DCT,2009-02-24,5600.0
DCT,2009-02-25,5800.0
DCT,2009-02-26,5600.0
DCT,2009-02-27,5700.0
DCT,2009-03-02,5700.0
DCT,2009-03-03,5500.0
DCT,2009-03-04,5700.0
DCT,2009-03-05,5700.0
DCT,2009-03-06,5700.0
DCT,2009-03-09,5700.0
DCT,2009-03-10,5800.0
DCT,2009-03-11,6100.0
DCT,2009-03-12,5900.0
DCT,2009-03-13,6100.0
DCT,2009-03-16,6100.0
DCT,2009-03-17,6100.0
DCT,2009-03-18,6400.0
DCT,2009-03-19,6100.0
DCT,2009-03-20,6000.0
DCT,2009-03-23,5700.0
DCT,2009-03-24,6000.0
DCT,2009-03-25,6000.0
DCT,2009-03-26,5900.0
DCT,2009-03-27,6000.0
DCT,2009-03-30,6000.0
DCT,2009-03-31,6000.0
DCT,2009-04-01,6200.0
DCT,2009-04-02,6500.0
DCT,2009-04-03,6800.0
DCT,2009-04-07,7100.0
DCT,2009-04-08,6700.0
DCT,2009-04-09,6500.0
DCT,2009-04-10,6800.0
DCT,2009-04-13,7100.0
DCT,2009-04-14,7400.0
DCT,2009-04-15,7200.0
DCT,2009-04-16,7500.0
DCT,2009-04-17,7500.0
DCT,2009-04-20,7200.0
DCT,2009-04-21,6900.0
DCT,2009-04-22,7000.0
DCT,2009-04-23,6700.0
DCT,2009-04-24,6400.0
DCT,2009-04-27,6700.0
DCT,2009-04-28,7000.0
DCT,2009-04-29,7300.0
DCT,2009-05-04,7600.0
DCT,2009-05-05,7700.0
DCT,2009-05-06,7300.0
DCT,2009-05-07,7500.0
DCT,2009-05-08,7400.0
DCT,2009-05-11,7300.0
DCT,2009-05-12,7600.0
DCT,2009-05-13,7900.0
DCT,2009-05-14,7900.0
DCT,2009-05-15,8300.0
DCT,2009-05-18,8700.0
DCT,2009-05-19,9000.0
DCT,2009-05-20,9400.0
DCT,2009-05-21,9900.0
DCT,2009-05-22,10000.0
DCT,2009-05-25,10400.0
DCT,2009-05-26,10300.0
DCT,2009-05-27,10000.0
DCT,2009-05-28,9500.0
DCT,2009-05-29,9600.0
DCT,2009-06-01,10000.0
DCT,2009-06-02,10500.0
DCT,2009-06-03,10300.0
DCT,2009-06-04,10700.0
DCT,2009-06-05,11300.0
DCT,2009-06-08,11800.0
DCT,2009-06-09,12300.0
DCT,2009-06-10,11700.0
DCT,2009-06-11,12300.0
DCT,2009-06-12,12400.0
DCT,2009-06-15,11800.0
DCT,2009-06-16,11300.0
DCT,2009-06-17,10700.0
DCT,2009-06-18,10700.0
DCT,2009-06-19,11000.0
DCT,2009-06-22,10500.0
DCT,2009-06-23,10000.0
DCT,2009-06-24,10500.0
DCT,2009-06-25,10500.0
DCT,2009-06-26,10500.0
DCT,2009-06-29,10200.0
DCT,2009-06-30,9800.0
DCT,2009-07-01,9400.0
DCT,2009-07-02,9700.0
DCT,2009-07-03,9700.0
DCT,2009-07-06,10100.0
DCT,2009-07-07,10100.0
DCT,2009-07-08,10100.0
DCT,2009-07-09,10200.0
DCT,2009-07-10,10000.0
DCT,2009-07-13,9700.0
DCT,2009-07-14,9600.0
DCT,2009-07-15,9900.0
DCT,2009-07-16,10000.0
DCT,2009-07-17,9800.0
DCT,2009-07-20,9400.0
DCT,2009-07-21,9500.0
DCT,2009-07-22,9600.0
DCT,2009-07-23,9700.0
DCT,2009-07-24,10200.0
DCT,2009-07-27,10200.0
DCT,2009-07-28,9800.0
DCT,2009-07-29,9700.0
DCT,2009-07-30,9600.0
DCT,2009-07-31,9800.0
DCT,2009-08-03,9800.0
DCT,2009-08-04,10000.0
DCT,2009-08-05,10100.0
DCT,2009-08-06,10100.0
DCT,2009-08-07,10300.0
DCT,2009-08-10,10700.0
DCT,2009-08-11,11300.0
DCT,2009-08-12,11000.0
DCT,2009-08-13,10800.0
DCT,2009-08-14,10600.0
DCT,2009-08-17,10600.0
DCT,2009-08-18,10700.0
DCT,2009-08-19,10700.0
DCT,2009-08-20,11000.0
DCT,2009-08-21,11100.0
DCT,2009-08-24,11000.0
DCT,2009-08-25,10900.0
DCT,2009-08-26,10900.0
DCT,2009-08-27,11000.0
DCT,2009-08-28,11300.0
DCT,2009-08-31,11800.0
DCT,2009-09-01,11800.0
DCT,2009-09-03,11700.0
DCT,2009-09-04,12000.0
DCT,2009-09-08,12200.0
DCT,2009-09-09,12700.0
DCT,2009-09-10,13300.0
DCT,2009-09-11,13600.0
DCT,2009-09-14,13000.0
DCT,2009-09-15,13000.0
DCT,2009-09-16,12800.0
DCT,2009-09-17,12600.0
DCT,2009-09-18,12600.0
DCT,2009-09-21,12700.0
DCT,2009-09-22,13000.0
DCT,2009-09-23,13000.0
DCT,2009-09-24,12900.0
DCT,2009-09-25,12800.0
DCT,2009-09-28,12600.0
DCT,2009-09-29,13000.0
DCT,2009-09-30,13600.0
DCT,2009-10-01,14200.0
DCT,2009-10-02,13600.0
DCT,2009-10-05,13400.0
DCT,2009-10-06,13200.0
DCT,2009-10-07,13400.0
DCT,2009-10-08,13400.0
DCT,2009-10-09,14000.0
DCT,2009-10-12,14600.0
DCT,2009-10-13,15200.0
DCT,2009-10-14,15500.0
DCT,2009-10-15,15200.0
DCT,2009-10-16,15900.0
DCT,2009-10-19,16600.0
DCT,2009-10-20,17400.0
DCT,2009-10-21,18200.0
DCT,2009-10-22,18100.0
DCT,2009-10-23,17200.0
DCT,2009-10-26,16400.0
DCT,2009-10-27,15600.0
DCT,2009-10-28,15400.0
DCT,2009-10-29,14600.0
DCT,2009-10-30,15400.0
DCT,2009-11-02,14600.0
DCT,2009-11-03,13900.0
DCT,2009-11-04,13800.0
DCT,2009-11-05,14400.0
DCT,2009-11-06,14400.0
DCT,2009-11-09,13700.0
DCT,2009-11-10,13200.0
DCT,2009-11-11,13800.0
DCT,2009-11-12,14200.0
DCT,2009-11-13,14200.0
DCT,2009-11-16,14200.0
DCT,2009-11-17,13900.0
DCT,2009-11-18,14000.0
DCT,2009-11-19,14400.0
DCT,2009-11-20,14200.0
DCT,2009-11-23,13600.0
DCT,2009-11-24,13300.0
DCT,2009-11-25,12600.0
DCT,2009-11-26,12100.0
DCT,2009-11-27,12400.0
DCT,2009-11-30,12800.0
DCT,2009-12-01,12800.0
DCT,2009-12-02,12200.0
DCT,2009-12-03,11800.0
DCT,2009-12-04,12100.0
DCT,2009-12-07,12200.0
DCT,2009-12-08,11900.0
DCT,2009-12-09,11400.0
DCT,2009-12-10,10800.0
DCT,2009-12-11,10300.0
DCT,2009-12-14,10800.0
DCT,2009-12-15,10600.0
DCT,2009-12-16,10200.0
DCT,2009-12-17,9700.0
DCT,2009-12-18,10200.0
DCT,2009-12-21,10600.0
DCT,2009-12-22,10600.0
DCT,2009-12-23,10800.0
DCT,2009-12-24,10900.0
DCT,2009-12-25,11400.0
DCT,2009-12-28,11300.0
DCT,2009-12-29,10900.0
DCT,2009-12-30,11400.0
DCT,2009-12-31,11900.0
DCT,2010-01-04,12500.0
DCT,2010-01-05,13000.0
DCT,2010-01-06,12800.0
DCT,2010-01-07,13000.0
DCT,2010-01-08,12600.0
DCT,2010-01-11,12600.0
DCT,2010-01-12,12200.0
DCT,2010-01-13,12000.0
DCT,2010-01-14,12500.0
DCT,2010-01-15,12100.0
DCT,2010-01-18,11500.0
DCT,2010-01-19,11500.0
DCT,2010-01-20,11200.0
DCT,2010-01-21,10600.0
DCT,2010-01-22,10800.0
DCT,2010-01-25,11100.0
DCT,2010-01-26,11600.0
DCT,2010-01-27,11400.0
DCT,2010-01-28,11000.0
DCT,2010-01-29,10800.0
DCT,2010-02-01,11000.0
DCT,2010-02-02,10900.0
DCT,2010-02-03,10900.0
DCT,2010-02-04,10900.0
DCT,2010-02-05,10700.0
DCT,2010-02-08,10800.0
DCT,2010-02-09,11000.0
DCT,2010-02-10,11100.0
DCT,2010-02-11,11100.0
DCT,2010-02-12,11200.0
DCT,2010-02-22,11400.0
DCT,2010-02-23,11000.0
DCT,2010-02-24,11000.0
DCT,2010-02-25,11000.0
DCT,2010-02-26,11100.0
DCT,2010-03-01,11100.0
DCT,2010-03-02,11200.0
DCT,2010-03-03,11800.0
DCT,2010-03-04,12000.0
DCT,2010-03-05,12100.0
DCT,2010-03-08,12200.0
DCT,2010-03-09,12600.0
DCT,2010-03-10,12300.0
DCT,2010-03-11,12600.0
DCT,2010-03-12,12800.0
DCT,2010-03-15,13400.0
DCT,2010-03-16,12700.0
DCT,2010-03-17,12700.0
DCT,2010-03-18,13000.0
DCT,2010-03-19,12700.0
DCT,2010-03-22,12700.0
DCT,2010-03-23,12700.0
DCT,2010-03-24,12800.0
DCT,2010-03-25,12600.0
DCT,2010-03-26,12400.0
DCT,2010-03-29,12000.0
DCT,2010-03-30,12100.0
DCT,2010-03-31,12500.0
DCT,2010-04-01,12500.0
DCT,2010-04-02,12300.0
DCT,2010-04-05,12900.0
DCT,2010-04-06,12600.0
DCT,2010-04-07,12600.0
DCT,2010-04-08,12500.0
DCT,2010-04-09,12500.0
DCT,2010-04-12,13000.0
DCT,2010-04-13,12600.0
DCT,2010-04-14,12900.0
DCT,2010-04-15,12700.0
DCT,2010-04-16,12600.0
DCT,2010-04-19,13100.0
DCT,2010-04-20,12800.0
DCT,2010-04-21,12800.0
DCT,2010-04-22,13100.0
DCT,2010-04-26,13200.0
DCT,2010-04-27,13000.0
DCT,2010-04-28,12900.0
DCT,2010-04-29,13000.0
DCT,2010-05-04,13600.0
DCT,2010-05-05,14200.0
DCT,2010-05-06,14900.0
DCT,2010-05-07,14700.0
DCT,2010-05-10,14000.0
DCT,2010-05-11,13500.0
DCT,2010-05-12,12800.0
DCT,2010-05-13,12800.0
DCT,2010-05-14,12900.0
DCT,2010-05-17,12600.0
DCT,2010-05-18,12500.0
DCT,2010-05-19,11900.0
DCT,2010-05-20,12000.0
DCT,2010-05-21,11500.0
DCT,2010-05-24,11600.0
DCT,2010-05-25,11400.0
DCT,2010-05-26,11700.0
DCT,2010-05-27,11900.0
DCT,2010-05-28,12500.0
DCT,2010-05-31,12100.0
DCT,2010-06-01,12100.0
DCT,2010-06-02,12100.0
DCT,2010-06-03,12100.0
DCT,2010-06-04,11900.0
DCT,2010-06-07,11600.0
DCT,2010-06-08,11600.0
DCT,2010-06-09,11800.0
DCT,2010-06-10,11700.0
DCT,2010-06-11,11800.0
DCT,2010-06-14,11900.0
DCT,2010-06-15,11700.0
DCT,2010-06-16,11800.0
DCT,2010-06-17,11900.0
DCT,2010-06-18,12000.0
DCT,2010-06-21,12600.0
DCT,2010-06-22,13100.0
DCT,2010-06-23,13200.0
DCT,2010-06-24,13000.0
DCT,2010-06-25,12500.0
DCT,2010-06-28,13100.0
DCT,2010-06-29,13700.0
DCT,2010-06-30,13100.0
DCT,2010-07-01,13000.0
DCT,2010-07-02,12900.0
DCT,2010-07-05,13200.0
DCT,2010-07-06,12800.0
DCT,2010-07-07,12700.0
DCT,2010-07-08,12500.0
DCT,2010-07-09,12400.0
DCT,2010-07-12,12500.0
DCT,2010-07-13,13000.0
DCT,2010-07-14,12700.0
DCT,2010-07-15,12600.0
DCT,2010-07-16,12700.0
DCT,2010-07-19,12500.0
DCT,2010-07-20,13100.0
DCT,2010-07-21,13000.0
DCT,2010-07-22,12600.0
DCT,2010-07-23,12700.0
DCT,2010-07-26,12500.0
DCT,2010-07-27,12400.0
DCT,2010-07-28,12200.0
DCT,2010-07-29,12100.0
DCT,2010-07-30,12300.0
DCT,2010-08-02,11900.0
DCT,2010-08-03,11900.0
DCT,2010-08-04,11800.0
DCT,2010-08-05,11800.0
DCT,2010-08-06,11700.0
DCT,2010-08-09,11200.0
DCT,2010-08-10,10800.0
DCT,2010-08-11,11200.0
DCT,2010-08-12,10700.0
DCT,2010-08-13,10800.0
DCT,2010-08-16,11300.0
DCT,2010-08-17,11300.0
DCT,2010-08-18,10900.0
DCT,2010-08-19,10800.0
DCT,2010-08-20,10700.0
DCT,2010-08-23,10600.0
DCT,2010-08-24,10100.0
DCT,2010-08-25,9700.0
DCT,2010-08-26,9700.0
DCT,2010-08-27,9700.0
DCT,2010-08-30,10100.0
DCT,2010-08-31,10100.0
DCT,2010-09-01,10000.0
DCT,2010-09-06,10500.0
DCT,2010-09-07,10400.0
DCT,2010-09-08,10100.0
DCT,2010-09-09,10600.0
DCT,2010-09-10,10700.0
DCT,2010-09-13,10800.0
DCT,2010-09-14,10700.0
DCT,2010-09-15,10500.0
DCT,2010-09-16,10400.0
DCT,2010-09-17,10800.0
DCT,2010-09-20,10900.0
DCT,2010-09-21,10800.0
DCT,2010-09-22,10700.0
DCT,2010-09-23,10500.0
DCT,2010-09-24,10500.0
DCT,2010-09-27,10400.0
DCT,2010-09-28,10500.0
DCT,2010-09-29,10300.0
DCT,2010-09-30,10200.0
DCT,2010-10-01,10200.0
DCT,2010-10-04,9800.0
DCT,2010-10-05,9900.0
DCT,2010-10-06,10000.0
DCT,2010-10-07,9900.0
DCT,2010-10-08,9900.0
DCT,2010-10-11,9900.0
DCT,2010-10-12,9700.0
DCT,2010-10-13,9900.0
DCT,2010-10-14,9700.0
DCT,2010-10-15,9700.0
DCT,2010-10-18,9800.0
DCT,2010-10-19,9700.0
DCT,2010-10-20,9400.0
DCT,2010-10-21,9300.0
DCT,2010-10-22,9300.0
DCT,2010-10-25,9400.0
DCT,2010-10-26,9500.0
DCT,2010-10-27,9200.0
DCT,2010-10-28,9100.0
DCT,2010-10-29,9000.0
DCT,2010-11-01,8900.0
DCT,2010-11-02,8900.0
DCT,2010-11-03,8700.0
DCT,2010-11-04,8800.0
DCT,2010-11-05,9100.0
DCT,2010-11-08,9000.0
DCT,2010-11-09,8900.0
DCT,2010-11-10,8600.0
DCT,2010-11-11,8600.0
DCT,2010-11-12,8200.0
DCT,2010-11-15,8000.0
DCT,2010-11-16,7800.0
DCT,2010-11-17,7900.0
DCT,2010-11-18,8000.0
DCT,2010-11-19,8200.0
DCT,2010-11-22,8100.0
DCT,2010-11-23,8100.0
DCT,2010-11-24,8400.0
DCT,2010-11-25,8800.0
DCT,2010-11-26,9000.0
DCT,2010-11-29,9400.0
DCT,2010-11-30,9700.0
DCT,2010-12-01,9500.0
DCT,2010-12-02,9600.0
DCT,2010-12-03,10000.0
DCT,2010-12-06,10500.0
DCT,2010-12-07,10500.0
DCT,2010-12-08,10000.0
DCT,2010-12-09,10000.0
DCT,2010-12-10,10400.0
DCT,2010-12-13,10600.0
DCT,2010-12-14,10200.0
DCT,2010-12-15,10100.0
DCT,2010-12-16,9600.0
DCT,2010-12-17,9900.0
DCT,2010-12-20,9800.0
DCT,2010-12-21,10000.0
DCT,2010-12-22,9900.0
DCT,2010-12-23,9500.0
DCT,2010-12-24,9400.0
DCT,2010-12-27,9300.0
DCT,2010-12-28,9600.0
DCT,2010-12-29,9500.0
DCT,2010-12-30,9500.0
DCT,2010-12-31,9600.0
DCT,2011-01-04,9600.0
DCT,2011-01-05,9600.0
DCT,2011-01-06,9600.0
DCT,2011-01-07,9500.0
DCT,2011-01-10,9200.0
DCT,2011-01-11,9000.0
DCT,2011-01-12,9100.0
DCT,2011-01-13,9200.0
DCT,2011-01-14,9200.0
DCT,2011-01-17,9200.0
DCT,2011-01-18,9000.0
DCT,2011-01-19,9000.0
DCT,2011-01-20,8900.0
DCT,2011-01-21,9000.0
DCT,2011-01-24,8900.0
DCT,2011-01-25,8800.0
DCT,2011-01-26,9000.0
DCT,2011-01-27,9100.0
DCT,2011-01-28,9000.0
DCT,2011-02-08,9100.0
DCT,2011-02-09,9000.0
DCT,2011-02-10,9000.0
DCT,2011-02-11,8900.0
DCT,2011-02-14,8900.0
DCT,2011-02-15,8800.0
DCT,2011-02-16,8500.0
DCT,2011-02-17,8500.0
DCT,2011-02-18,8400.0
DCT,2011-02-21,8000.0
DCT,2011-02-22,7600.0
DCT,2011-02-23,7800.0
DCT,2011-02-24,7700.0
DCT,2011-02-25,7900.0
DCT,2011-02-28,7800.0
DCT,2011-03-01,7700.0
DCT,2011-03-02,7500.0
DCT,2011-03-03,7400.0
DCT,2011-03-04,7500.0
DCT,2011-03-07,7600.0
DCT,2011-03-08,7500.0
DCT,2011-03-09,7400.0
DCT,2011-03-10,7700.0
DCT,2011-03-11,7900.0
DCT,2011-03-14,7600.0
DCT,2011-03-15,7600.0
DCT,2011-03-16,7700.0
DCT,2011-03-17,7500.0
DCT,2011-03-18,7700.0
DCT,2011-03-21,7700.0
DCT,2011-03-22,7500.0
DCT,2011-03-23,7500.0
DCT,2011-03-24,7500.0
DCT,2011-03-25,7500.0
DCT,2011-03-28,7500.0
DCT,2011-03-29,7500.0
DCT,2011-03-30,7400.0
DCT,2011-03-31,7300.0
DCT,2011-04-01,7300.0
DCT,2011-04-04,7200.0
DCT,2011-04-05,7200.0
DCT,2011-04-06,7300.0
DCT,2011-04-07,7300.0
DCT,2011-04-08,7300.0
DCT,2011-04-13,7300.0
DCT,2011-04-14,7200.0
DCT,2011-04-15,7100.0
DCT,2011-04-18,7100.0
DCT,2011-04-19,6900.0
DCT,2011-04-20,6900.0
DCT,2011-04-21,7000.0
DCT,2011-04-22,6900.0
DCT,2011-04-25,7100.0
DCT,2011-04-26,6900.0
DCT,2011-04-27,6900.0
DCT,2011-04-28,7000.0
DCT,2011-04-29,7300.0
DCT,2011-05-04,7600.0
DCT,2011-05-05,7500.0
DCT,2011-05-06,7500.0
DCT,2011-05-09,7700.0
DCT,2011-05-10,7600.0
DCT,2011-05-11,7300.0
DCT,2011-05-12,7300.0
DCT,2011-05-13,7300.0
DCT,2011-05-16,7400.0
DCT,2011-05-17,7400.0
DCT,2011-05-18,7100.0
DCT,2011-05-19,7100.0
DCT,2011-05-20,7100.0
DCT,2011-05-23,6900.0
DCT,2011-05-24,6700.0
DCT,2011-05-25,6400.0
DCT,2011-05-26,6500.0
DCT,2011-05-27,6700.0
DCT,2011-05-30,6400.0
DCT,2011-05-31,6400.0
DCT,2011-06-01,6600.0
DCT,2011-06-02,6900.0
DCT,2011-06-03,6700.0
DCT,2011-06-06,6700.0
DCT,2011-06-07,7000.0
DCT,2011-06-08,6800.0
DCT,2011-06-09,6800.0
DCT,2011-06-10,7100.0
DCT,2011-06-13,7400.0
DCT,2011-06-14,7500.0
DCT,2011-06-15,7200.0
DCT,2011-06-16,7200.0
DCT,2011-06-17,7200.0
DCT,2011-06-20,6900.0
DCT,2011-06-21,7200.0
DCT,2011-06-22,7200.0
DCT,2011-06-23,7000.0
DCT,2011-06-24,7100.0
DCT,2011-06-27,7000.0
DCT,2011-06-28,6900.0
DCT,2011-06-29,7000.0
DCT,2011-06-30,6900.0
DCT,2011-07-01,6900.0
DCT,2011-07-04,6900.0
DCT,2011-07-05,7000.0
DCT,2011-07-06,6900.0
DCT,2011-07-07,6900.0
DCT,2011-07-08,6900.0
DCT,2011-07-11,6900.0
DCT,2011-07-12,6800.0
DCT,2011-07-13,6900.0
DCT,2011-07-14,6800.0
DCT,2011-07-15,6800.0
DCT,2011-07-18,6700.0
DCT,2011-07-19,6700.0
DCT,2011-07-20,6700.0
DCT,2011-07-21,6700.0
DCT,2011-07-22,6700.0
DCT,2011-07-25,6700.0
DCT,2011-07-26,6700.0
DCT,2011-07-27,6700.0
DCT,2011-07-28,6700.0
DCT,2011-07-29,6700.0
DCT,2011-08-01,6600.0
DCT,2011-08-02,6600.0
DCT,2011-08-03,6400.0
DCT,2011-08-04,6500.0
DCT,2011-08-05,6500.0
DCT,2011-08-08,6400.0
DCT,2011-08-09,6200.0
DCT,2011-08-10,6200.0
DCT,2011-08-11,6100.0
DCT,2011-08-12,6200.0
DCT,2011-08-15,6200.0
DCT,2011-08-16,6300.0
DCT,2011-08-17,6500.0
DCT,2011-08-18,6500.0
DCT,2011-08-19,6500.0
DCT,2011-08-22,6700.0
DCT,2011-08-23,6600.0
DCT,2011-08-24,6500.0
DCT,2011-08-25,6600.0
DCT,2011-08-26,6600.0
DCT,2011-08-29,6700.0
DCT,2011-08-30,6700.0
DCT,2011-08-31,6700.0
DCT,2011-09-01,6700.0
DCT,2011-09-05,6800.0
DCT,2011-09-06,6700.0
DCT,2011-09-07,6800.0
DCT,2011-09-08,6900.0
DCT,2011-09-09,6900.0
DCT,2011-09-12,7000.0
DCT,2011-09-13,7200.0
DCT,2011-09-14,7000.0
DCT,2011-09-15,6800.0
DCT,2011-09-16,6800.0
DCT,2011-09-19,6800.0
DCT,2011-09-20,6700.0
DCT,2011-09-21,6700.0
DCT,2011-09-22,6700.0
DCT,2011-09-23,6700.0
DCT,2011-09-26,6700.0
DCT,2011-09-27,6700.0
DCT,2011-09-28,6600.0
DCT,2011-09-29,6600.0
DCT,2011-09-30,6700.0
DCT,2011-10-03,6600.0
DCT,2011-10-04,6500.0
DCT,2011-10-05,6400.0
DCT,2011-10-06,6700.0
DCT,2011-10-07,6600.0
DCT,2011-10-10,6500.0
DCT,2011-10-11,6400.0
DCT,2011-10-12,6400.0
DCT,2011-10-13,6300.0
DCT,2011-10-14,6200.0
DCT,2011-10-17,6200.0
DCT,2011-10-18,6100.0
DCT,2011-10-19,6100.0
DCT,2011-10-20,6000.0
DCT,2011-10-21,6100.0
DCT,2011-10-24,6100.0
DCT,2011-10-25,6100.0
DCT,2011-10-26,6000.0
DCT,2011-10-27,6000.0
DCT,2011-10-28,6200.0
DCT,2011-10-31,6200.0
DCT,2011-11-01,6100.0
DCT,2011-11-02,6100.0
DCT,2011-11-03,6100.0
DCT,2011-11-04,6100.0
DCT,2011-11-07,6100.0
DCT,2011-11-08,6000.0
DCT,2011-11-09,5900.0
DCT,2011-11-10,6100.0
DCT,2011-11-11,5800.0
DCT,2011-11-14,5600.0
DCT,2011-11-15,5500.0
DCT,2011-11-16,5600.0
DCT,2011-11-17,5700.0
DCT,2011-11-18,5700.0
DCT,2011-11-21,5500.0
DCT,2011-11-22,5400.0
DCT,2011-11-23,5400.0
DCT,2011-11-24,5200.0
DCT,2011-11-25,5100.0
DCT,2011-11-28,5300.0
DCT,2011-11-29,5100.0
DCT,2011-11-30,5100.0
DCT,2011-12-01,4900.0
DCT,2011-12-02,5000.0
DCT,2011-12-05,5100.0
DCT,2011-12-06,5200.0
DCT,2011-12-07,5100.0
DCT,2011-12-08,5000.0
DCT,2011-12-09,4900.0
DCT,2011-12-12,4700.0
DCT,2011-12-13,4500.0
DCT,2011-12-14,4300.0
DCT,2011-12-15,4100.0
DCT,2011-12-16,4300.0
DCT,2011-12-19,4300.0
DCT,2011-12-20,4300.0
DCT,2011-12-21,4200.0
DCT,2011-12-22,4200.0
DCT,2011-12-23,4200.0
DCT,2011-12-26,4000.0
DCT,2011-12-27,3900.0
DCT,2011-12-28,4000.0
DCT,2011-12-29,4100.0
DCT,2011-12-30,4100.0
DCT,2012-01-03,4200.0
DCT,2012-01-04,4200.0
DCT,2012-01-05,4100.0
DCT,2012-01-06,4000.0
DCT,2012-01-09,4100.0
DCT,2012-01-10,4200.0
DCT,2012-01-11,4200.0
DCT,2012-01-12,4200.0
DCT,2012-01-13,4400.0
DCT,2012-01-16,4400.0
DCT,2012-01-17,4400.0
DCT,2012-01-18,4500.0
DCT,2012-01-19,4600.0
DCT,2012-01-20,4600.0
DCT,2012-01-30,4600.0
DCT,2012-01-31,4600.0
DCT,2012-02-01,4400.0
DCT,2012-02-02,4400.0
DCT,2012-02-03,4500.0
DCT,2012-02-06,4500.0
DCT,2012-02-07,4300.0
DCT,2012-02-08,4400.0
DCT,2012-02-09,4300.0
DCT,2012-02-10,4200.0
DCT,2012-02-13,4200.0
DCT,2012-02-14,4200.0
DCT,2012-02-15,4200.0
DCT,2012-02-16,4200.0
DCT,2012-02-17,4300.0
DCT,2012-02-20,4500.0
DCT,2012-02-21,4400.0
DCT,2012-02-22,4600.0
DCT,2012-02-23,4800.0
DCT,2012-02-24,5000.0
DCT,2012-02-27,5200.0
DCT,2012-02-28,5000.0
DCT,2012-02-29,4900.0
DCT,2012-03-01,4900.0
DCT,2012-03-02,5100.0
DCT,2012-03-05,5300.0
DCT,2012-03-06,5200.0
DCT,2012-03-07,5300.0
DCT,2012-03-08,5100.0
DCT,2012-03-09,5100.0
DCT,2012-03-12,4900.0
DCT,2012-03-13,5000.0
DCT,2012-03-14,4800.0
DCT,2012-03-15,4900.0
DCT,2012-03-16,4900.0
DCT,2012-03-19,4700.0
DCT,2012-03-20,4800.0
DCT,2012-03-21,5000.0
DCT,2012-03-22,5200.0
DCT,2012-03-23,5400.0
DCT,2012-03-26,5600.0
DCT,2012-03-27,5400.0
DCT,2012-03-28,5400.0
DCT,2012-03-29,5200.0
DCT,2012-03-30,5100.0
DCT,2012-04-03,5200.0
DCT,2012-04-04,5100.0
DCT,2012-04-05,5200.0
DCT,2012-04-06,5200.0
DCT,2012-04-09,5300.0
DCT,2012-04-10,5300.0
DCT,2012-04-11,5500.0
DCT,2012-04-12,5700.0
DCT,2012-04-13,5700.0
DCT,2012-04-16,5900.0
DCT,2012-04-17,6100.0
DCT,2012-04-18,6400.0
DCT,2012-04-19,6500.0
DCT,2012-04-20,6200.0
DCT,2012-04-23,6100.0
DCT,2012-04-24,6400.0
DCT,2012-04-25,6700.0
DCT,2012-04-26,7000.0
DCT,2012-04-27,7200.0
DCT,2012-05-02,6900.0
DCT,2012-05-03,6600.0
DCT,2012-05-04,6900.0
DCT,2012-05-07,7200.0
DCT,2012-05-08,6900.0
DCT,2012-05-09,6700.0
DCT,2012-05-10,7000.0
DCT,2012-05-11,7000.0
DCT,2012-05-14,6700.0
DCT,2012-05-15,6400.0
DCT,2012-05-16,6100.0
DCT,2012-05-17,6000.0
DCT,2012-05-18,5700.0
DCT,2012-05-21,5900.0
DCT,2012-05-22,6100.0
DCT,2012-05-23,5800.0
DCT,2012-05-24,5600.0
DCT,2012-05-25,5800.0
DCT,2012-05-28,6000.0
DCT,2012-05-29,5800.0
DCT,2012-05-30,5800.0
DCT,2012-05-31,5600.0
DCT,2012-06-01,5700.0
DCT,2012-06-04,5500.0
DCT,2012-06-05,5400.0
DCT,2012-06-06,5400.0
DCT,2012-06-07,5600.0
DCT,2012-06-08,5700.0
DCT,2012-06-11,5500.0
DCT,2012-06-12,5400.0
DCT,2012-06-13,5300.0
DCT,2012-06-14,5300.0
DCT,2012-06-15,5500.0
DCT,2012-06-18,5500.0
DCT,2012-06-19,5300.0
DCT,2012-06-20,5300.0
DCT,2012-06-21,5300.0
DCT,2012-06-22,5100.0
DCT,2012-06-25,4900.0
DCT,2012-06-26,4700.0
DCT,2012-06-27,4700.0
DCT,2012-06-28,4700.0
DCT,2012-06-29,4800.0
DCT,2012-07-02,4600.0
DCT,2012-07-03,4600.0
DCT,2012-07-04,4700.0
DCT,2012-07-05,4900.0
DCT,2012-07-06,4900.0
DCT,2012-07-09,4700.0
DCT,2012-07-10,4700.0
DCT,2012-07-11,4700.0
DCT,2012-07-12,4800.0
DCT,2012-07-13,4900.0
DCT,2012-07-16,4900.0
DCT,2012-07-17,5000.0
DCT,2012-07-18,5100.0
DCT,2012-07-19,5100.0
DCT,2012-07-20,5300.0
DCT,2012-07-23,5100.0
DCT,2012-07-24,5000.0
DCT,2012-07-25,4800.0
DCT,2012-07-26,4900.0
DCT,2012-07-27,4900.0
DCT,2012-07-30,4900.0
DCT,2012-07-31,4700.0
DCT,2012-08-01,4500.0
DCT,2012-08-02,4600.0
DCT,2012-08-03,4800.0
DCT,2012-08-06,4800.0
DCT,2012-08-07,4700.0
DCT,2012-08-08,4600.0
DCT,2012-08-09,4800.0
DCT,2012-08-10,4700.0
DCT,2012-08-13,4700.0
DCT,2012-08-14,4600.0
DCT,2012-08-15,4600.0
DCT,2012-08-16,4700.0
DCT,2012-08-17,4800.0
DCT,2012-08-20,4600.0
DCT,2012-08-21,4400.0
DCT,2012-08-22,4200.0
DCT,2012-08-23,4000.0
DCT,2012-08-24,4000.0
DCT,2012-08-27,3800.0
DCT,2012-08-28,3700.0
DCT,2012-08-29,3700.0
DCT,2012-08-30,3800.0
DCT,2012-08-31,3800.0
DCT,2012-09-04,3700.0
DCT,2012-09-05,3600.0
DCT,2012-09-06,3700.0
DCT,2012-09-07,3600.0
DCT,2012-09-10,3500.0
DCT,2012-09-11,3500.0
DCT,2012-09-12,3500.0
DCT,2012-09-13,3500.0
DCT,2012-09-14,3600.0
DCT,2012-09-17,3700.0
DCT,2012-09-18,3600.0
DCT,2012-09-19,3500.0
DCT,2012-09-20,3400.0
DCT,2012-09-21,3300.0
DCT,2012-09-24,3300.0
DCT,2012-09-25,3300.0
DCT,2012-09-26,3300.0
DCT,2012-09-27,3300.0
DCT,2012-09-28,3200.0
DCT,2012-10-01,3100.0
DCT,2012-10-02,3000.0
DCT,2012-10-03,3100.0
DCT,2012-10-04,3000.0
DCT,2012-10-05,2900.0
DCT,2012-10-08,3000.0
DCT,2012-10-09,3100.0
DCT,2012-10-10,3100.0
DCT,2012-10-11,3200.0
DCT,2012-10-12,3200.0
DCT,2012-10-15,3100.0
DCT,2012-10-16,3200.0
DCT,2012-10-17,3100.0
DCT,2012-10-18,3200.0
DCT,2012-10-19,3100.0
DCT,2012-10-22,3000.0
DCT,2012-10-23,2900.0
DCT,2012-10-24,2800.0
DCT,2012-10-25,2700.0
DCT,2012-10-26,2600.0
DCT,2012-10-29,2600.0
DCT,2012-10-30,2600.0
DCT,2012-10-31,2700.0
DCT,2012-11-01,2700.0
DCT,2012-11-02,2600.0
DCT,2012-11-05,2500.0
DCT,2012-11-06,2400.0
DCT,2012-11-07,2500.0
DCT,2012-11-08,2400.0
DCT,2012-11-09,2400.0
DCT,2012-11-12,2400.0
DCT,2012-11-13,2400.0
DCT,2012-11-14,2400.0
DCT,2012-11-15,2400.0
DCT,2012-11-16,2300.0
DCT,2012-11-19,2300.0
DCT,2012-11-20,2400.0
DCT,2012-11-21,2400.0
DCT,2012-11-22,2400.0
DCT,2012-11-23,2500.0
DCT,2012-11-26,2400.0
DCT,2012-11-27,2300.0
DCT,2012-11-28,2200.0
DCT,2012-11-29,2200.0
DCT,2012-11-30,2300.0
DCT,2012-12-03,2300.0
DCT,2012-12-04,2300.0
DCT,2012-12-05,2400.0
DCT,2012-12-06,2400.0
DCT,2012-12-07,2400.0
DCT,2012-12-10,2500.0
DCT,2012-12-11,2500.0
DCT,2012-12-12,2500.0
DCT,2012-12-13,2600.0
DCT,2012-12-14,2600.0
DCT,2012-12-17,2500.0
DCT,2012-12-18,2400.0
DCT,2012-12-19,2500.0
DCT,2012-12-20,2600.0
DCT,2012-12-21,2500.0
DCT,2012-12-24,2500.0
DCT,2012-12-25,2600.0
DCT,2012-12-26,2700.0
DCT,2012-12-27,2800.0
DCT,2012-12-28,2900.0
DCT,2013-01-02,3000.0
DCT,2013-01-03,2900.0
DCT,2013-01-04,3000.0
DCT,2013-01-07,3000.0
DCT,2013-01-08,2900.0
DCT,2013-01-09,2900.0
DCT,2013-01-10,3000.0
DCT,2013-01-11,2900.0
DCT,2013-01-14,2800.0
DCT,2013-01-15,2900.0
DCT,2013-01-16,3100.0
DCT,2013-01-17,3300.0
DCT,2013-01-18,3400.0
DCT,2013-01-21,3200.0
DCT,2013-01-22,3000.0
DCT,2013-01-23,2800.0
DCT,2013-01-24,2900.0
DCT,2013-01-25,3000.0
DCT,2013-01-28,3000.0
DCT,2013-01-29,3000.0
DCT,2013-01-30,3100.0
DCT,2013-01-31,3000.0
DCT,2013-02-01,3000.0
DCT,2013-02-04,2900.0
DCT,2013-02-05,2900.0
DCT,2013-02-06,3100.0
DCT,2013-02-07,3200.0
DCT,2013-02-08,3300.0
DCT,2013-02-18,3200.0
DCT,2013-02-19,3200.0
DCT,2013-02-20,3200.0
DCT,2013-02-21,3000.0
DCT,2013-02-22,3000.0
DCT,2013-02-25,2900.0
DCT,2013-02-26,2700.0
DCT,2013-02-27,2800.0
DCT,2013-02-28,2900.0
DCT,2013-03-01,2900.0
DCT,2013-03-04,2700.0
DCT,2013-03-05,2600.0
DCT,2013-03-06,2700.0
DCT,2013-03-07,2700.0
DCT,2013-03-08,2700.0
DCT,2013-03-11,2800.0
DCT,2013-03-12,2800.0
DCT,2013-03-13,2800.0
DCT,2013-03-14,2900.0
DCT,2013-03-15,2900.0
DCT,2013-03-18,2900.0
DCT,2013-03-19,2900.0
DCT,2013-03-20,2900.0
DCT,2013-03-21,2700.0
DCT,2013-03-22,2800.0
DCT,2013-03-25,2800.0
DCT,2013-03-26,2700.0
DCT,2013-03-27,2700.0
DCT,2013-03-28,2600.0
DCT,2013-03-29,2600.0
DCT,2013-04-01,2700.0
DCT,2013-04-02,2800.0
DCT,2013-04-03,2700.0
DCT,2013-04-04,2600.0
DCT,2013-04-05,2700.0
DCT,2013-04-08,2800.0
DCT,2013-04-09,2700.0
DCT,2013-04-10,2600.0
DCT,2013-04-11,2500.0
DCT,2013-04-12,2500.0
DCT,2013-04-15,2400.0
DCT,2013-04-16,2500.0
DCT,2013-04-17,2600.0
DCT,2013-04-18,2500.0
DCT,2013-04-22,2400.0
DCT,2013-04-23,2400.0
DCT,2013-04-24,2400.0
DCT,2013-04-25,2400.0
DCT,2013-04-26,2400.0
DCT,2013-05-02,2300.0
DCT,2013-05-03,2400.0
DCT,2013-05-06,2400.0
DCT,2013-05-07,2400.0
DCT,2013-05-08,2400.0
DCT,2013-05-09,2400.0
DCT,2013-05-10,2400.0
DCT,2013-05-13,2400.0
DCT,2013-05-14,2300.0
DCT,2013-05-15,2300.0
DCT,2013-05-16,2300.0
DCT,2013-05-17,2400.0
DCT,2013-05-20,2300.0
DCT,2013-05-21,2300.0
DCT,2013-05-22,2300.0
DCT,2013-05-23,2200.0
DCT,2013-05-24,2300.0
DCT,2013-05-27,2300.0
DCT,2013-05-28,2300.0
DCT,2013-05-29,2300.0
DCT,2013-05-30,2300.0
DCT,2013-05-31,2400.0
DCT,2013-06-03,2400.0
DCT,2013-06-04,2300.0
DCT,2013-06-05,2300.0
DCT,2013-06-06,2300.0
DCT,2013-06-07,2400.0
DCT,2013-06-10,2500.0
DCT,2013-06-11,2500.0
DCT,2013-06-12,2400.0
DCT,2013-06-13,2300.0
DCT,2013-06-14,2300.0
DCT,2013-06-17,2200.0
DCT,2013-06-18,2200.0
DCT,2013-06-19,2300.0
DCT,2013-06-20,2300.0
DCT,2013-06-21,2300.0
DCT,2013-06-24,2200.0
DCT,2013-06-25,2200.0
DCT,2013-06-26,2100.0
DCT,2013-06-27,2200.0
DCT,2013-06-28,2200.0
DCT,2013-07-01,2100.0
DCT,2013-07-02,2200.0
DCT,2013-07-03,2200.0
DCT,2013-07-04,2200.0
DCT,2013-07-05,2100.0
DCT,2013-07-08,2100.0
DCT,2013-07-09,2100.0
DCT,2013-07-10,2100.0
DCT,2013-07-11,2200.0
DCT,2013-07-12,2200.0
DCT,2013-07-15,2200.0
DCT,2013-07-16,2100.0
DCT,2013-07-17,2100.0
DCT,2013-07-18,2100.0
DCT,2013-07-19,2100.0
DCT,2013-07-22,2200.0
DCT,2013-07-23,2200.0
DCT,2013-07-24,2100.0
DCT,2013-07-25,2000.0
DCT,2013-07-26,1900.0
DCT,2013-07-29,1900.0
DCT,2013-07-30,1900.0
DCT,2013-07-31,1900.0
DCT,2013-08-01,1800.0
DCT,2013-08-02,1700.0
DCT,2013-08-05,1800.0
DCT,2013-08-06,1700.0
DCT,2013-08-07,1800.0
DCT,2013-08-08,1800.0
DCT,2013-08-09,1700.0
DCT,2013-08-12,1700.0
DCT,2013-08-13,1700.0
DCT,2013-08-14,1800.0
DCT,2013-08-15,1900.0
DCT,2013-08-16,1800.0
DCT,2013-08-19,1900.0
DCT,2013-08-20,2000.0
DCT,2013-08-21,1900.0
DCT,2013-08-22,1900.0
DCT,2013-08-23,2000.0
DCT,2013-08-26,2000.0
DCT,2013-08-27,1900.0
DCT,2013-08-28,1900.0
DCT,2013-08-29,1800.0
DCT,2013-08-30,1900.0
DCT,2013-09-03,1800.0
DCT,2013-09-04,1800.0
DCT,2013-09-05,1800.0
DCT,2013-09-06,1800.0
DCT,2013-09-09,1900.0
DCT,2013-09-10,1800.0
DCT,2013-09-11,1900.0
DCT,2013-09-12,1800.0
DCT,2013-09-13,1900.0
DCT,2013-09-16,2000.0
DCT,2013-09-17,2000.0
DCT,2013-09-18,2000.0
DCT,2013-09-19,1900.0
DCT,2013-09-20,1800.0
DCT,2013-09-23,1900.0
DCT,2013-09-24,1800.0
DCT,2013-09-25,1900.0
DCT,2013-09-26,1900.0
DCT,2013-09-27,1900.0
DCT,2013-09-30,2000.0
DCT,2013-10-01,2000.0
DCT,2013-10-02,2000.0
DCT,2013-10-03,1900.0
DCT,2013-10-04,1900.0
DCT,2013-10-07,1900.0
DCT,2013-10-08,2000.0
DCT,2013-10-09,2000.0
DCT,2013-10-10,1900.0
DCT,2013-10-11,1900.0
DCT,2013-10-14,1900.0
DCT,2013-10-15,1900.0
DCT,2013-10-16,2000.0
DCT,2013-10-17,1900.0
DCT,2013-10-18,2000.0
DCT,2013-10-21,1900.0
DCT,2013-10-22,1900.0
DCT,2013-10-23,2000.0
DCT,2013-10-24,1900.0
DCT,2013-10-25,1900.0
DCT,2013-10-28,1800.0
DCT,2013-10-29,1900.0
DCT,2013-10-30,1900.0
DCT,2013-10-31,1900.0
DCT,2013-11-01,1900.0
DCT,2013-11-04,1900.0
DCT,2013-11-05,2000.0
DCT,2013-11-06,2000.0
DCT,2013-11-07,1900.0
DCT,2013-11-08,2000.0
DCT,2013-11-11,2100.0
DCT,2013-11-12,2000.0
DCT,2013-11-13,2000.0
DCT,2013-11-14,2100.0
DCT,2013-11-15,2200.0
DCT,2013-11-18,2300.0
DCT,2013-11-19,2400.0
DCT,2013-11-20,2500.0
DCT,2013-11-21,2600.0
DCT,2013-11-22,2700.0
DCT,2013-11-25,2800.0
DCT,2013-11-26,2900.0
DCT,2013-11-27,3100.0
DCT,2013-11-28,3300.0
DCT,2013-11-29,3500.0
DCT,2013-12-02,3300.0
DCT,2013-12-03,3500.0
DCT,2013-12-04,3400.0
DCT,2013-12-05,3200.0
DCT,2013-12-06,3000.0
DCT,2013-12-09,2800.0
DCT,2013-12-10,2700.0
DCT,2013-12-11,2600.0
DCT,2013-12-12,2500.0
DCT,2013-12-13,2600.0
DCT,2013-12-16,2700.0
DCT,2013-12-17,2800.0
DCT,2013-12-18,2900.0
DCT,2013-12-19,2900.0
DCT,2013-12-20,2800.0
DCT,2013-12-23,2800.0
DCT,2013-12-24,2800.0
DCT,2013-12-25,2700.0
DCT,2013-12-26,2800.0
DCT,2013-12-27,2700.0
DCT,2013-12-30,2600.0
DCT,2013-12-31,2700.0
DCT,2014-01-02,2700.0
DCT,2014-01-03,2700.0
DCT,2014-01-06,2800.0
DCT,2014-01-07,2700.0
DCT,2014-01-08,2700.0
DCT,2014-01-09,2800.0
DCT,2014-01-10,2900.0
DCT,2014-01-13,2800.0
DCT,2014-01-14,2700.0
DCT,2014-01-15,2800.0
DCT,2014-01-16,2800.0
DCT,2014-01-17,2700.0
DCT,2014-01-20,2600.0
DCT,2014-01-21,2700.0
DCT,2014-01-22,2600.0
DCT,2014-01-23,2600.0
DCT,2014-01-24,2700.0
DCT,2014-01-27,2800.0
DCT,2014-02-06,2800.0
DCT,2014-02-07,2800.0
DCT,2014-02-10,2900.0
DCT,2014-02-11,2800.0
DCT,2014-02-12,2900.0
DCT,2014-02-13,2800.0
DCT,2014-02-14,2800.0
DCT,2014-02-17,2800.0
DCT,2014-02-18,2800.0
DCT,2014-02-19,2700.0
DCT,2014-02-20,2600.0
DCT,2014-02-21,2500.0
DCT,2014-02-24,2400.0
DCT,2014-02-25,2400.0
DCT,2014-02-26,2500.0
DCT,2014-02-27,2600.0
DCT,2014-02-28,2700.0
DCT,2014-03-03,2600.0
DCT,2014-03-04,2700.0
DCT,2014-03-05,2600.0
DCT,2014-03-06,2600.0
DCT,2014-03-07,2600.0
DCT,2014-03-10,2700.0
DCT,2014-03-11,2600.0
DCT,2014-03-12,2600.0
DCT,2014-03-13,2700.0
DCT,2014-03-14,2800.0
DCT,2014-03-17,2900.0
DCT,2014-03-18,3100.0
DCT,2014-03-19,3300.0
DCT,2014-03-20,3500.0
DCT,2014-03-21,3700.0
DCT,2014-03-24,3900.0
DCT,2014-03-25,4100.0
DCT,2014-03-26,3900.0
DCT,2014-03-27,3700.0
DCT,2014-03-28,3500.0
DCT,2014-03-31,3700.0
DCT,2014-04-01,3500.0
DCT,2014-04-02,3300.0
DCT,2014-04-03,3500.0
DCT,2014-04-04,3500.0
DCT,2014-04-07,3300.0
DCT,2014-04-08,3100.0
DCT,2014-04-10,3100.0
DCT,2014-04-11,3100.0
DCT,2014-04-14,3100.0
DCT,2014-04-15,3000.0
DCT,2014-04-16,2900.0
DCT,2014-04-17,2900.0
DCT,2014-04-18,2700.0
DCT,2014-04-21,2600.0
DCT,2014-04-22,2700.0
DCT,2014-04-23,2800.0
DCT,2014-04-24,2800.0
DCT,2014-04-25,2700.0
DCT,2014-04-28,2600.0
DCT,2014-04-29,2700.0
DCT,2014-05-05,2600.0
DCT,2014-05-06,2600.0
DCT,2014-05-07,2700.0
DCT,2014-05-08,2600.0
DCT,2014-05-09,2600.0
DCT,2014-05-12,2500.0
DCT,2014-05-13,2400.0
DCT,2014-05-14,2300.0
DCT,2014-05-15,2300.0
DCT,2014-05-16,2400.0
DCT,2014-05-19,2500.0
DCT,2014-05-20,2600.0
DCT,2014-05-21,2700.0
