DIG,2009-08-19,27800.0
DIG,2009-08-20,29100.0
DIG,2009-08-21,30300.0
DIG,2009-08-24,31800.0
DIG,2009-08-25,33300.0
DIG,2009-08-26,34700.0
DIG,2009-08-27,36400.0
DIG,2009-08-28,38100.0
DIG,2009-08-31,40000.0
DIG,2009-09-01,41900.0
DIG,2009-09-03,42500.0
DIG,2009-09-04,40400.0
DIG,2009-09-08,41300.0
DIG,2009-09-09,40000.0
DIG,2009-09-10,40600.0
DIG,2009-09-11,42600.0
DIG,2009-09-14,44800.0
DIG,2009-09-15,46900.0
DIG,2009-09-16,49000.0
DIG,2009-09-17,49500.0
DIG,2009-09-18,51600.0
DIG,2009-09-21,54200.0
DIG,2009-09-22,56700.0
DIG,2009-09-23,59300.0
DIG,2009-09-24,61800.0
DIG,2009-09-25,62300.0
DIG,2009-09-28,59700.0
DIG,2009-09-29,58800.0
DIG,2009-09-30,56300.0
DIG,2009-10-01,53700.0
DIG,2009-10-02,51200.0
DIG,2009-10-05,53700.0
DIG,2009-10-06,53700.0
DIG,2009-10-07,53300.0
DIG,2009-10-08,52000.0
DIG,2009-10-09,54600.0
DIG,2009-10-12,57100.0
DIG,2009-10-13,56700.0
DIG,2009-10-14,56700.0
DIG,2009-10-15,59300.0
DIG,2009-10-16,57100.0
DIG,2009-10-19,55900.0
DIG,2009-10-20,57100.0
DIG,2009-10-21,55900.0
DIG,2009-10-22,54600.0
DIG,2009-10-23,52000.0
DIG,2009-10-26,52000.0
DIG,2009-10-27,54200.0
DIG,2009-10-28,53700.0
DIG,2009-10-29,51600.0
DIG,2009-10-30,52500.0
DIG,2009-11-02,49900.0
DIG,2009-11-03,47800.0
DIG,2009-11-04,46900.0
DIG,2009-11-05,49000.0
DIG,2009-11-06,50300.0
DIG,2009-11-09,48200.0
DIG,2009-11-10,46100.0
DIG,2009-11-11,48200.0
DIG,2009-11-12,49000.0
DIG,2009-11-13,49500.0
DIG,2009-11-16,48200.0
DIG,2009-11-17,50300.0
DIG,2009-11-18,52500.0
DIG,2009-11-19,50700.0
DIG,2009-11-20,50300.0
DIG,2009-11-23,48200.0
DIG,2009-11-24,46900.0
DIG,2009-11-25,44800.0
DIG,2009-11-26,42600.0
DIG,2009-11-27,44300.0
DIG,2009-11-30,43100.0
DIG,2009-12-01,43100.0
DIG,2009-12-02,42200.0
DIG,2009-12-03,42000.0
DIG,2009-12-04,43900.0
DIG,2009-12-07,44800.0
DIG,2009-12-08,44300.0
DIG,2009-12-09,42200.0
DIG,2009-12-10,41400.0
DIG,2009-12-11,39400.0
DIG,2009-12-14,41400.0
DIG,2009-12-15,41400.0
DIG,2009-12-16,39400.0
DIG,2009-12-17,37700.0
DIG,2009-12-18,39400.0
DIG,2009-12-21,41400.0
DIG,2009-12-22,43100.0
DIG,2009-12-23,44400.0
DIG,2009-12-24,44100.0
DIG,2009-12-25,45300.0
DIG,2009-12-28,44700.0
DIG,2009-12-29,46900.0
DIG,2009-12-30,47500.0
DIG,2009-12-31,46900.0
DIG,2010-01-04,49000.0
DIG,2010-01-05,51200.0
DIG,2010-01-06,51200.0
DIG,2010-01-07,50000.0
DIG,2010-01-08,48700.0
DIG,2010-01-11,47500.0
DIG,2010-01-12,45600.0
DIG,2010-01-13,47200.0
DIG,2010-01-14,47800.0
DIG,2010-01-15,47200.0
DIG,2010-01-18,45000.0
DIG,2010-01-19,45000.0
DIG,2010-01-20,43800.0
DIG,2010-01-21,42800.0
DIG,2010-01-22,42500.0
DIG,2010-01-25,42800.0
DIG,2010-01-26,44700.0
DIG,2010-01-27,44400.0
DIG,2010-01-28,43100.0
DIG,2010-01-29,42200.0
DIG,2010-02-01,42200.0
DIG,2010-02-02,42200.0
DIG,2010-02-03,43100.0
DIG,2010-02-04,44700.0
DIG,2010-02-05,43400.0
DIG,2010-02-08,42500.0
DIG,2010-02-09,42500.0
DIG,2010-02-10,43400.0
DIG,2010-02-11,43800.0
DIG,2010-02-12,44400.0
DIG,2010-02-22,43800.0
DIG,2010-02-23,42800.0
DIG,2010-02-24,42200.0
DIG,2010-02-25,42200.0
DIG,2010-02-26,42500.0
DIG,2010-03-01,42500.0
DIG,2010-03-02,42500.0
DIG,2010-03-03,43100.0
DIG,2010-03-04,44700.0
DIG,2010-03-05,44400.0
DIG,2010-03-08,45900.0
DIG,2010-03-09,47800.0
DIG,2010-03-10,47800.0
DIG,2010-03-11,47800.0
DIG,2010-03-12,48700.0
DIG,2010-03-15,48100.0
DIG,2010-03-16,45900.0
DIG,2010-03-17,45000.0
DIG,2010-03-18,46600.0
DIG,2010-03-19,45600.0
DIG,2010-03-22,45000.0
DIG,2010-03-23,44100.0
DIG,2010-03-24,44700.0
DIG,2010-03-25,43400.0
DIG,2010-03-26,44100.0
DIG,2010-03-29,43800.0
DIG,2010-03-30,43400.0
DIG,2010-03-31,42500.0
DIG,2010-04-01,44400.0
DIG,2010-04-02,44400.0
DIG,2010-04-05,45300.0
DIG,2010-04-06,45900.0
DIG,2010-04-07,45600.0
DIG,2010-04-08,45300.0
DIG,2010-04-09,45600.0
DIG,2010-04-12,45600.0
DIG,2010-04-13,45000.0
DIG,2010-04-14,45000.0
DIG,2010-04-15,45300.0
DIG,2010-04-16,44700.0
DIG,2010-04-19,44100.0
DIG,2010-04-20,43400.0
DIG,2010-04-21,43800.0
DIG,2010-04-22,45300.0
DIG,2010-04-26,45000.0
DIG,2010-04-27,44700.0
DIG,2010-04-28,44700.0
DIG,2010-04-29,44400.0
DIG,2010-05-04,44700.0
DIG,2010-05-05,44100.0
DIG,2010-05-06,44100.0
DIG,2010-05-07,43400.0
DIG,2010-05-10,42800.0
DIG,2010-05-11,43100.0
DIG,2010-05-12,42500.0
DIG,2010-05-13,42500.0
DIG,2010-05-14,42800.0
DIG,2010-05-17,42200.0
DIG,2010-05-18,41900.0
DIG,2010-05-19,41300.0
DIG,2010-05-20,41300.0
DIG,2010-05-21,39400.0
DIG,2010-05-24,39700.0
DIG,2010-05-25,40000.0
DIG,2010-05-26,40300.0
DIG,2010-05-27,40700.0
DIG,2010-05-28,42200.0
DIG,2010-05-31,41300.0
DIG,2010-06-01,41300.0
DIG,2010-06-02,41600.0
DIG,2010-06-03,41000.0
DIG,2010-06-04,41300.0
DIG,2010-06-07,41000.0
DIG,2010-06-08,40700.0
DIG,2010-06-09,40300.0
DIG,2010-06-10,40300.0
DIG,2010-06-11,40000.0
DIG,2010-06-14,40300.0
DIG,2010-06-15,40300.0
DIG,2010-06-16,40300.0
DIG,2010-06-17,40300.0
DIG,2010-06-18,40000.0
DIG,2010-06-21,40700.0
DIG,2010-06-22,40700.0
DIG,2010-06-23,40700.0
DIG,2010-06-24,40300.0
DIG,2010-06-25,40000.0
DIG,2010-06-28,40000.0
DIG,2010-06-29,39700.0
DIG,2010-06-30,40300.0
DIG,2010-07-01,40000.0
DIG,2010-07-02,39700.0
DIG,2010-07-05,39700.0
DIG,2010-07-06,39100.0
DIG,2010-07-07,38500.0
DIG,2010-07-08,37900.0
DIG,2010-07-09,37900.0
DIG,2010-07-12,38500.0
DIG,2010-07-13,38500.0
DIG,2010-07-14,38500.0
DIG,2010-07-15,38200.0
DIG,2010-07-16,37900.0
DIG,2010-07-19,37900.0
DIG,2010-07-20,37200.0
DIG,2010-07-21,36900.0
DIG,2010-07-22,36000.0
DIG,2010-07-23,36300.0
DIG,2010-07-26,36900.0
DIG,2010-07-27,36300.0
DIG,2010-07-28,35700.0
DIG,2010-07-29,35700.0
DIG,2010-07-30,35700.0
DIG,2010-08-02,35400.0
DIG,2010-08-03,35100.0
DIG,2010-08-04,34100.0
DIG,2010-08-05,33200.0
DIG,2010-08-06,32600.0
DIG,2010-08-09,31700.0
DIG,2010-08-10,30100.0
DIG,2010-08-11,30100.0
DIG,2010-08-12,28600.0
DIG,2010-08-13,29800.0
DIG,2010-08-16,29900.0
DIG,2010-08-17,29800.0
DIG,2010-08-18,28300.0
DIG,2010-08-19,27500.0
DIG,2010-08-20,26700.0
DIG,2010-08-23,25700.0
DIG,2010-08-24,25600.0
DIG,2010-08-25,24500.0
DIG,2010-08-26,24800.0
DIG,2010-08-27,25900.0
DIG,2010-08-30,27200.0
DIG,2010-08-31,28500.0
DIG,2010-09-01,29800.0
DIG,2010-09-06,30200.0
DIG,2010-09-07,29600.0
DIG,2010-09-08,28600.0
DIG,2010-09-09,28700.0
DIG,2010-09-10,27200.0
DIG,2010-09-13,27200.0
DIG,2010-09-14,27300.0
DIG,2010-09-15,27300.0
DIG,2010-09-16,27200.0
DIG,2010-09-17,27900.0
DIG,2010-09-20,27900.0
DIG,2010-09-21,27000.0
DIG,2010-09-22,27300.0
DIG,2010-09-23,27100.0
DIG,2010-09-24,27000.0
DIG,2010-09-27,26600.0
DIG,2010-09-28,26400.0
DIG,2010-09-29,26100.0
DIG,2010-09-30,26600.0
DIG,2010-10-01,26600.0
DIG,2010-10-04,26100.0
DIG,2010-10-05,26600.0
DIG,2010-10-06,27200.0
DIG,2010-10-07,26900.0
DIG,2010-10-08,26500.0
DIG,2010-10-11,26300.0
DIG,2010-10-12,26000.0
DIG,2010-10-13,26000.0
DIG,2010-10-14,26100.0
DIG,2010-10-15,26300.0
DIG,2010-10-18,26300.0
DIG,2010-10-19,25400.0
DIG,2010-10-20,24700.0
DIG,2010-10-21,25100.0
DIG,2010-10-22,25400.0
DIG,2010-10-25,25400.0
DIG,2010-10-26,26100.0
DIG,2010-10-27,25900.0
DIG,2010-10-28,25300.0
DIG,2010-10-29,25400.0
DIG,2010-11-01,25400.0
DIG,2010-11-02,25400.0
DIG,2010-11-03,25100.0
DIG,2010-11-04,25100.0
DIG,2010-11-05,25800.0
DIG,2010-11-08,25800.0
DIG,2010-11-09,24800.0
DIG,2010-11-10,24900.0
DIG,2010-11-11,24100.0
DIG,2010-11-12,23600.0
DIG,2010-11-15,22400.0
DIG,2010-11-16,21400.0
DIG,2010-11-17,20400.0
DIG,2010-11-18,20800.0
DIG,2010-11-19,20500.0
DIG,2010-11-22,19900.0
DIG,2010-11-23,20100.0
DIG,2010-11-24,19600.0
DIG,2010-11-25,20000.0
DIG,2010-11-26,20000.0
DIG,2010-11-29,20300.0
DIG,2010-11-30,21300.0
DIG,2010-12-01,22200.0
DIG,2010-12-02,23300.0
DIG,2010-12-03,24400.0
DIG,2010-12-06,24800.0
DIG,2010-12-07,24300.0
DIG,2010-12-08,23100.0
DIG,2010-12-09,23600.0
DIG,2010-12-10,24800.0
DIG,2010-12-13,25900.0
DIG,2010-12-14,27200.0
DIG,2010-12-15,27900.0
DIG,2010-12-16,26600.0
DIG,2010-12-17,27600.0
DIG,2010-12-20,26400.0
DIG,2010-12-21,25800.0
DIG,2010-12-22,25700.0
DIG,2010-12-23,25500.0
DIG,2010-12-24,25300.0
DIG,2010-12-27,24600.0
DIG,2010-12-28,25000.0
DIG,2010-12-29,25200.0
DIG,2010-12-30,25000.0
DIG,2010-12-31,26100.0
DIG,2011-01-04,26000.0
DIG,2011-01-05,25400.0
DIG,2011-01-06,25300.0
DIG,2011-01-07,25000.0
DIG,2011-01-10,24800.0
DIG,2011-01-11,24200.0
DIG,2011-01-12,24200.0
DIG,2011-01-13,24700.0
DIG,2011-01-14,25100.0
DIG,2011-01-17,25300.0
DIG,2011-01-18,24400.0
DIG,2011-01-19,24400.0
DIG,2011-01-20,24200.0
DIG,2011-01-21,24600.0
DIG,2011-01-24,23900.0
DIG,2011-01-25,23900.0
DIG,2011-01-26,24000.0
DIG,2011-01-27,24200.0
DIG,2011-01-28,24200.0
DIG,2011-02-08,24600.0
DIG,2011-02-09,24000.0
DIG,2011-02-10,24100.0
DIG,2011-02-11,24000.0
DIG,2011-02-14,23700.0
DIG,2011-02-15,23200.0
DIG,2011-02-16,22900.0
DIG,2011-02-17,22000.0
DIG,2011-02-18,21400.0
DIG,2011-02-21,20400.0
DIG,2011-02-22,19400.0
DIG,2011-02-23,19400.0
DIG,2011-02-24,18700.0
DIG,2011-02-25,19000.0
DIG,2011-02-28,18800.0
DIG,2011-03-01,18700.0
DIG,2011-03-02,17800.0
DIG,2011-03-03,17100.0
DIG,2011-03-04,17100.0
DIG,2011-03-07,17000.0
DIG,2011-03-08,17100.0
DIG,2011-03-09,16700.0
DIG,2011-03-10,17500.0
DIG,2011-03-11,18300.0
DIG,2011-03-14,18300.0
DIG,2011-03-15,18600.0
DIG,2011-03-16,18500.0
DIG,2011-03-17,18500.0
DIG,2011-03-18,19000.0
DIG,2011-03-21,18900.0
DIG,2011-03-22,18100.0
DIG,2011-03-23,18300.0
DIG,2011-03-24,18100.0
DIG,2011-03-25,18100.0
DIG,2011-03-28,17600.0
DIG,2011-03-29,17100.0
DIG,2011-03-30,17000.0
DIG,2011-03-31,17000.0
DIG,2011-04-01,16900.0
DIG,2011-04-04,16900.0
DIG,2011-04-05,17000.0
DIG,2011-04-06,17700.0
DIG,2011-04-07,17200.0
DIG,2011-04-08,17400.0
DIG,2011-04-13,17100.0
DIG,2011-04-14,17000.0
DIG,2011-04-15,16900.0
DIG,2011-04-18,16500.0
DIG,2011-04-19,16500.0
DIG,2011-04-20,16300.0
DIG,2011-04-21,15600.0
DIG,2011-04-22,14800.0
DIG,2011-04-25,15300.0
DIG,2011-04-26,14600.0
DIG,2011-04-27,14200.0
DIG,2011-04-28,13900.0
DIG,2011-04-29,14300.0
DIG,2011-05-04,14200.0
DIG,2011-05-05,14200.0
DIG,2011-05-06,14500.0
DIG,2011-05-09,14800.0
DIG,2011-05-10,14900.0
DIG,2011-05-11,14600.0
DIG,2011-05-12,14600.0
DIG,2011-05-13,14400.0
DIG,2011-05-16,14000.0
DIG,2011-05-17,13800.0
DIG,2011-05-18,14000.0
DIG,2011-05-19,13900.0
DIG,2011-05-20,13300.0
DIG,2011-05-23,12700.0
DIG,2011-05-24,12100.0
DIG,2011-05-25,11500.0
DIG,2011-05-26,12000.0
DIG,2011-05-27,11800.0
DIG,2011-05-30,11400.0
DIG,2011-05-31,10900.0
DIG,2011-06-01,11400.0
DIG,2011-06-02,12000.0
DIG,2011-06-03,11600.0
DIG,2011-06-06,11800.0
DIG,2011-06-07,12300.0
DIG,2011-06-08,12900.0
DIG,2011-06-09,13100.0
DIG,2011-06-10,13200.0
DIG,2011-06-13,13000.0
DIG,2011-06-14,12700.0
DIG,2011-06-15,12100.0
DIG,2011-06-16,12500.0
DIG,2011-06-17,12000.0
DIG,2011-06-20,11400.0
DIG,2011-06-21,12000.0
DIG,2011-06-22,12500.0
DIG,2011-06-23,12000.0
DIG,2011-06-24,11900.0
DIG,2011-06-27,11800.0
DIG,2011-06-28,11500.0
DIG,2011-06-29,11600.0
DIG,2011-06-30,11600.0
DIG,2011-07-01,11200.0
DIG,2011-07-04,11100.0
DIG,2011-07-05,11500.0
DIG,2011-07-06,11100.0
DIG,2011-07-07,11100.0
DIG,2011-07-08,10900.0
DIG,2011-07-11,11100.0
DIG,2011-07-12,11000.0
DIG,2011-07-13,11000.0
DIG,2011-07-14,10900.0
DIG,2011-07-15,10700.0
DIG,2011-07-18,10700.0
DIG,2011-07-19,10700.0
DIG,2011-07-20,11000.0
DIG,2011-07-21,10900.0
DIG,2011-07-22,10900.0
DIG,2011-07-25,10800.0
DIG,2011-07-26,10700.0
DIG,2011-07-27,10700.0
DIG,2011-07-28,10600.0
DIG,2011-07-29,10500.0
DIG,2011-08-01,10400.0
DIG,2011-08-02,10000.0
DIG,2011-08-03,9700.0
DIG,2011-08-04,10200.0
DIG,2011-08-05,9800.0
DIG,2011-08-08,10000.0
DIG,2011-08-09,9600.0
DIG,2011-08-10,9700.0
DIG,2011-08-11,9700.0
DIG,2011-08-12,9600.0
DIG,2011-08-15,9500.0
DIG,2011-08-16,9700.0
DIG,2011-08-17,10100.0
DIG,2011-08-18,10500.0
DIG,2011-08-19,10100.0
DIG,2011-08-22,10600.0
DIG,2011-08-23,10900.0
DIG,2011-08-24,10800.0
DIG,2011-08-25,11300.0
DIG,2011-08-26,11400.0
DIG,2011-08-29,12000.0
DIG,2011-08-30,12300.0
DIG,2011-08-31,12100.0
DIG,2011-09-01,12500.0
DIG,2011-09-05,12200.0
DIG,2011-09-06,12100.0
DIG,2011-09-07,12700.0
DIG,2011-09-08,13200.0
DIG,2011-09-09,13700.0
DIG,2011-09-12,14300.0
DIG,2011-09-13,15000.0
DIG,2011-09-14,15300.0
DIG,2011-09-15,14900.0
DIG,2011-09-16,14200.0
DIG,2011-09-19,14400.0
DIG,2011-09-20,14000.0
DIG,2011-09-21,14000.0
DIG,2011-09-22,14300.0
DIG,2011-09-23,13900.0
DIG,2011-09-26,13300.0
DIG,2011-09-27,13000.0
DIG,2011-09-28,12800.0
DIG,2011-09-29,12700.0
DIG,2011-09-30,12800.0
DIG,2011-10-03,12700.0
DIG,2011-10-04,12500.0
DIG,2011-10-05,12400.0
DIG,2011-10-06,13000.0
DIG,2011-10-07,13400.0
DIG,2011-10-10,13000.0
DIG,2011-10-11,13000.0
DIG,2011-10-12,13000.0
DIG,2011-10-13,13100.0
DIG,2011-10-14,13200.0
DIG,2011-10-17,13200.0
DIG,2011-10-18,12700.0
DIG,2011-10-19,12700.0
DIG,2011-10-20,12700.0
DIG,2011-10-21,13300.0
DIG,2011-10-24,13600.0
DIG,2011-10-25,13600.0
DIG,2011-10-26,13500.0
DIG,2011-10-27,13600.0
DIG,2011-10-28,14200.0
DIG,2011-10-31,14200.0
DIG,2011-11-01,13600.0
DIG,2011-11-02,13500.0
DIG,2011-11-03,13500.0
DIG,2011-11-04,13300.0
DIG,2011-11-07,13000.0
DIG,2011-11-08,13300.0
DIG,2011-11-09,12700.0
DIG,2011-11-10,12100.0
DIG,2011-11-11,11900.0
DIG,2011-11-14,11300.0
DIG,2011-11-15,10800.0
DIG,2011-11-16,11300.0
DIG,2011-11-17,10900.0
DIG,2011-11-18,10300.0
DIG,2011-11-21,10900.0
DIG,2011-11-22,10800.0
DIG,2011-11-23,11000.0
DIG,2011-11-24,10700.0
DIG,2011-11-25,10600.0
DIG,2011-11-28,10600.0
DIG,2011-11-29,10600.0
DIG,2011-11-30,10200.0
DIG,2011-12-01,10200.0
DIG,2011-12-02,10600.0
DIG,2011-12-05,11100.0
DIG,2011-12-06,11000.0
DIG,2011-12-07,10700.0
DIG,2011-12-08,10800.0
DIG,2011-12-09,10500.0
DIG,2011-12-12,10100.0
DIG,2011-12-13,9700.0
DIG,2011-12-14,9700.0
DIG,2011-12-15,9200.0
DIG,2011-12-16,9200.0
DIG,2011-12-19,9600.0
DIG,2011-12-20,9700.0
DIG,2011-12-21,9800.0
DIG,2011-12-22,9300.0
DIG,2011-12-23,8900.0
DIG,2011-12-26,8500.0
DIG,2011-12-27,8500.0
DIG,2011-12-28,8900.0
DIG,2011-12-29,8700.0
DIG,2011-12-30,8800.0
DIG,2012-01-03,8900.0
DIG,2012-01-04,8700.0
DIG,2012-01-05,8600.0
DIG,2012-01-06,8300.0
DIG,2012-01-09,8100.0
DIG,2012-01-10,8000.0
DIG,2012-01-11,8100.0
DIG,2012-01-12,8100.0
DIG,2012-01-13,8200.0
DIG,2012-01-16,8600.0
DIG,2012-01-17,8600.0
DIG,2012-01-18,9000.0
DIG,2012-01-19,9400.0
DIG,2012-01-20,9400.0
DIG,2012-01-30,9800.0
DIG,2012-01-31,10100.0
DIG,2012-02-01,10400.0
DIG,2012-02-02,10900.0
DIG,2012-02-03,10700.0
DIG,2012-02-06,10600.0
DIG,2012-02-07,10900.0
DIG,2012-02-08,11300.0
DIG,2012-02-09,11300.0
DIG,2012-02-10,10800.0
DIG,2012-02-13,10500.0
DIG,2012-02-14,10900.0
DIG,2012-02-15,10600.0
DIG,2012-02-16,10900.0
DIG,2012-02-17,11100.0
DIG,2012-02-20,11600.0
DIG,2012-02-21,12000.0
DIG,2012-02-22,12600.0
DIG,2012-02-23,13100.0
DIG,2012-02-24,13600.0
DIG,2012-02-27,14200.0
DIG,2012-02-28,13500.0
DIG,2012-02-29,13900.0
DIG,2012-03-01,14500.0
DIG,2012-03-02,15200.0
DIG,2012-03-05,15900.0
DIG,2012-03-06,15100.0
DIG,2012-03-07,15600.0
DIG,2012-03-08,14800.0
DIG,2012-03-09,14700.0
DIG,2012-03-12,14000.0
DIG,2012-03-13,14100.0
DIG,2012-03-14,14500.0
DIG,2012-03-15,15200.0
DIG,2012-03-16,14600.0
DIG,2012-03-19,14400.0
DIG,2012-03-20,14800.0
DIG,2012-03-21,15400.0
DIG,2012-03-22,15700.0
DIG,2012-03-23,15500.0
DIG,2012-03-26,15900.0
DIG,2012-03-27,15100.0
DIG,2012-03-28,15300.0
DIG,2012-03-29,14800.0
DIG,2012-03-30,14200.0
DIG,2012-04-03,14800.0
DIG,2012-04-04,14600.0
DIG,2012-04-05,14800.0
DIG,2012-04-06,15500.0
DIG,2012-04-09,15800.0
DIG,2012-04-10,15700.0
DIG,2012-04-11,16500.0
DIG,2012-04-12,17200.0
DIG,2012-04-13,17500.0
DIG,2012-04-16,18300.0
DIG,2012-04-17,19200.0
DIG,2012-04-18,18900.0
DIG,2012-04-19,18000.0
DIG,2012-04-20,17100.0
DIG,2012-04-23,17200.0
DIG,2012-04-24,18100.0
DIG,2012-04-25,18900.0
DIG,2012-04-26,19000.0
DIG,2012-04-27,19200.0
DIG,2012-05-02,18500.0
DIG,2012-05-03,18700.0
DIG,2012-05-04,18600.0
DIG,2012-05-07,18300.0
DIG,2012-05-08,18200.0
DIG,2012-05-09,18100.0
DIG,2012-05-10,18300.0
DIG,2012-05-11,17700.0
DIG,2012-05-14,16900.0
DIG,2012-05-15,16100.0
DIG,2012-05-16,15300.0
DIG,2012-05-17,14800.0
DIG,2012-05-18,14400.0
DIG,2012-05-21,15100.0
DIG,2012-05-22,14900.0
DIG,2012-05-23,14200.0
DIG,2012-05-24,13700.0
DIG,2012-05-25,14300.0
DIG,2012-05-28,14900.0
DIG,2012-05-29,14800.0
DIG,2012-05-30,14400.0
DIG,2012-05-31,14100.0
DIG,2012-06-01,13900.0
DIG,2012-06-04,13200.0
DIG,2012-06-05,13800.0
DIG,2012-06-06,14500.0
DIG,2012-06-07,15200.0
DIG,2012-06-08,15800.0
DIG,2012-06-11,16000.0
DIG,2012-06-12,15400.0
DIG,2012-06-13,14800.0
DIG,2012-06-14,14700.0
DIG,2012-06-15,15300.0
DIG,2012-06-18,16100.0
DIG,2012-06-19,15500.0
DIG,2012-06-20,15900.0
DIG,2012-06-21,15600.0
DIG,2012-06-22,14900.0
DIG,2012-06-25,14400.0
DIG,2012-06-26,14000.0
DIG,2012-06-27,14000.0
DIG,2012-06-28,13900.0
DIG,2012-06-29,13900.0
DIG,2012-07-02,13600.0
DIG,2012-07-03,13600.0
DIG,2012-07-04,13400.0
DIG,2012-07-05,14000.0
DIG,2012-07-06,14400.0
DIG,2012-07-09,13700.0
DIG,2012-07-10,13200.0
DIG,2012-07-11,13600.0
DIG,2012-07-12,14100.0
DIG,2012-07-13,14700.0
DIG,2012-07-16,14200.0
DIG,2012-07-17,14800.0
DIG,2012-07-18,15200.0
DIG,2012-07-19,15300.0
DIG,2012-07-20,14800.0
DIG,2012-07-23,14500.0
DIG,2012-07-24,14100.0
DIG,2012-07-25,13700.0
DIG,2012-07-26,14200.0
DIG,2012-07-27,13900.0
DIG,2012-07-30,14300.0
DIG,2012-07-31,14100.0
DIG,2012-08-01,13600.0
DIG,2012-08-02,13700.0
DIG,2012-08-03,14000.0
DIG,2012-08-06,14300.0
DIG,2012-08-07,14200.0
DIG,2012-08-08,14100.0
DIG,2012-08-09,14200.0
DIG,2012-08-10,13900.0
DIG,2012-08-13,13800.0
DIG,2012-08-14,13900.0
DIG,2012-08-15,13900.0
DIG,2012-08-16,13800.0
DIG,2012-08-17,13700.0
DIG,2012-08-20,13900.0
DIG,2012-08-21,13200.0
DIG,2012-08-22,12600.0
DIG,2012-08-23,12000.0
DIG,2012-08-24,12000.0
DIG,2012-08-27,11400.0
DIG,2012-08-28,11200.0
DIG,2012-08-29,11700.0
DIG,2012-08-30,11900.0
DIG,2012-08-31,11900.0
DIG,2012-09-04,11800.0
DIG,2012-09-05,11400.0
DIG,2012-09-06,11000.0
DIG,2012-09-07,11300.0
DIG,2012-09-10,10800.0
DIG,2012-09-11,10500.0
DIG,2012-09-12,10400.0
DIG,2012-09-13,10900.0
DIG,2012-09-14,11400.0
DIG,2012-09-17,11000.0
DIG,2012-09-18,10500.0
DIG,2012-09-19,10500.0
DIG,2012-09-20,10100.0
DIG,2012-09-21,10500.0
DIG,2012-09-24,10300.0
DIG,2012-09-25,10400.0
DIG,2012-09-26,10300.0
DIG,2012-09-27,10200.0
DIG,2012-09-28,10000.0
DIG,2012-10-01,9800.0
DIG,2012-10-02,9300.0
DIG,2012-10-03,9300.0
DIG,2012-10-04,9300.0
DIG,2012-10-05,9800.0
DIG,2012-10-08,10200.0
DIG,2012-10-09,10700.0
DIG,2012-10-10,11200.0
DIG,2012-10-11,10900.0
DIG,2012-10-12,11000.0
DIG,2012-10-15,10500.0
DIG,2012-10-16,11000.0
DIG,2012-10-17,11500.0
DIG,2012-10-18,11500.0
DIG,2012-10-19,11200.0
DIG,2012-10-22,10800.0
DIG,2012-10-23,10900.0
DIG,2012-10-24,10400.0
DIG,2012-10-25,10200.0
DIG,2012-10-26,10700.0
DIG,2012-10-29,10400.0
DIG,2012-10-30,10300.0
DIG,2012-10-31,10400.0
DIG,2012-11-01,10400.0
DIG,2012-11-02,9900.0
DIG,2012-11-05,10100.0
DIG,2012-11-06,10200.0
DIG,2012-11-07,10700.0
DIG,2012-11-08,10900.0
DIG,2012-11-09,11100.0
DIG,2012-11-12,11600.0
DIG,2012-11-13,11400.0
DIG,2012-11-14,11200.0
DIG,2012-11-15,10800.0
DIG,2012-11-16,10700.0
DIG,2012-11-19,10700.0
DIG,2012-11-20,10900.0
DIG,2012-11-21,10600.0
DIG,2012-11-22,10700.0
DIG,2012-11-23,10400.0
DIG,2012-11-26,10200.0
DIG,2012-11-27,10300.0
DIG,2012-11-28,10400.0
DIG,2012-11-29,10500.0
DIG,2012-11-30,10400.0
DIG,2012-12-03,10400.0
DIG,2012-12-04,10600.0
DIG,2012-12-05,10900.0
DIG,2012-12-06,10900.0
DIG,2012-12-07,10800.0
DIG,2012-12-10,11000.0
DIG,2012-12-11,11400.0
DIG,2012-12-12,11600.0
DIG,2012-12-13,12000.0
DIG,2012-12-14,11800.0
DIG,2012-12-17,11600.0
DIG,2012-12-18,11400.0
DIG,2012-12-19,12000.0
DIG,2012-12-20,12300.0
DIG,2012-12-21,12400.0
DIG,2012-12-24,12700.0
DIG,2012-12-25,12600.0
DIG,2012-12-26,12700.0
DIG,2012-12-27,12600.0
DIG,2012-12-28,12800.0
DIG,2013-01-02,12900.0
DIG,2013-01-03,12900.0
DIG,2013-01-04,13500.0
DIG,2013-01-07,13800.0
DIG,2013-01-08,13600.0
DIG,2013-01-09,13400.0
DIG,2013-01-10,14000.0
DIG,2013-01-11,13700.0
DIG,2013-01-14,13500.0
DIG,2013-01-15,14400.0
DIG,2013-01-16,15400.0
DIG,2013-01-17,14700.0
DIG,2013-01-18,14100.0
DIG,2013-01-21,14300.0
DIG,2013-01-22,13900.0
DIG,2013-01-23,14000.0
DIG,2013-01-24,14400.0
DIG,2013-01-25,14800.0
DIG,2013-01-28,14800.0
DIG,2013-01-29,15100.0
DIG,2013-01-30,15200.0
DIG,2013-01-31,14800.0
DIG,2013-02-01,14600.0
DIG,2013-02-04,14600.0
DIG,2013-02-05,14100.0
DIG,2013-02-06,14600.0
DIG,2013-02-07,14700.0
DIG,2013-02-08,15000.0
DIG,2013-02-18,14800.0
DIG,2013-02-19,15500.0
DIG,2013-02-20,15600.0
DIG,2013-02-21,14600.0
DIG,2013-02-22,14000.0
DIG,2013-02-25,14000.0
DIG,2013-02-26,13100.0
DIG,2013-02-27,13000.0
DIG,2013-02-28,13200.0
DIG,2013-03-01,13200.0
DIG,2013-03-04,12700.0
DIG,2013-03-05,12600.0
DIG,2013-03-06,12700.0
DIG,2013-03-07,12600.0
DIG,2013-03-08,12800.0
DIG,2013-03-11,13300.0
DIG,2013-03-12,13000.0
DIG,2013-03-13,12800.0
DIG,2013-03-14,13500.0
DIG,2013-03-15,14000.0
DIG,2013-03-18,13500.0
DIG,2013-03-19,13200.0
DIG,2013-03-20,13500.0
DIG,2013-03-21,13400.0
DIG,2013-03-22,13100.0
DIG,2013-03-25,13200.0
DIG,2013-03-26,12900.0
DIG,2013-03-27,12700.0
DIG,2013-03-28,12600.0
DIG,2013-03-29,12600.0
DIG,2013-04-01,12800.0
DIG,2013-04-02,12800.0
DIG,2013-04-03,12400.0
DIG,2013-04-04,12300.0
DIG,2013-04-05,12200.0
DIG,2013-04-08,11900.0
DIG,2013-04-09,12400.0
DIG,2013-04-10,12100.0
DIG,2013-04-11,12500.0
DIG,2013-04-12,12100.0
DIG,2013-04-15,11600.0
DIG,2013-04-16,11400.0
DIG,2013-04-17,11500.0
DIG,2013-04-18,11200.0
DIG,2013-04-22,11200.0
DIG,2013-04-23,11000.0
DIG,2013-04-24,10800.0
DIG,2013-04-25,11200.0
DIG,2013-04-26,11300.0
DIG,2013-05-02,11000.0
DIG,2013-05-03,11200.0
DIG,2013-05-06,11900.0
DIG,2013-05-07,11900.0
DIG,2013-05-08,11900.0
DIG,2013-05-09,12500.0
DIG,2013-05-10,12300.0
DIG,2013-05-13,12600.0
DIG,2013-05-14,12300.0
DIG,2013-05-15,12400.0
DIG,2013-05-16,12700.0
DIG,2013-05-17,12700.0
DIG,2013-05-20,12700.0
DIG,2013-05-21,12700.0
DIG,2013-05-22,12500.0
DIG,2013-05-23,12500.0
DIG,2013-05-24,12500.0
DIG,2013-05-27,12800.0
DIG,2013-05-28,13000.0
DIG,2013-05-29,13100.0
DIG,2013-05-30,13400.0
DIG,2013-05-31,13400.0
DIG,2013-06-03,13300.0
DIG,2013-06-04,12600.0
DIG,2013-06-05,12800.0
DIG,2013-06-06,12800.0
DIG,2013-06-07,12800.0
DIG,2013-06-10,12600.0
DIG,2013-06-11,12500.0
DIG,2013-06-12,12300.0
DIG,2013-06-13,12200.0
DIG,2013-06-14,12200.0
DIG,2013-06-17,12000.0
DIG,2013-06-18,11900.0
DIG,2013-06-19,12000.0
DIG,2013-06-20,11900.0
DIG,2013-06-21,11800.0
DIG,2013-06-24,11200.0
DIG,2013-06-25,10500.0
DIG,2013-06-26,10200.0
DIG,2013-06-27,10400.0
DIG,2013-06-28,10400.0
DIG,2013-07-01,10300.0
DIG,2013-07-02,10400.0
DIG,2013-07-03,10200.0
DIG,2013-07-04,10100.0
DIG,2013-07-05,10100.0
DIG,2013-07-08,9800.0
DIG,2013-07-09,9700.0
DIG,2013-07-10,9700.0
DIG,2013-07-11,9900.0
DIG,2013-07-12,10300.0
DIG,2013-07-15,10100.0
DIG,2013-07-16,9900.0
DIG,2013-07-17,10100.0
DIG,2013-07-18,10000.0
DIG,2013-07-19,9900.0
DIG,2013-07-22,9700.0
DIG,2013-07-23,9700.0
DIG,2013-07-24,9500.0
DIG,2013-07-25,9300.0
DIG,2013-07-26,9100.0
DIG,2013-07-29,8700.0
DIG,2013-07-30,8600.0
DIG,2013-07-31,9100.0
DIG,2013-08-01,9000.0
DIG,2013-08-02,9100.0
DIG,2013-08-05,8900.0
DIG,2013-08-06,8700.0
DIG,2013-08-07,8800.0
DIG,2013-08-08,8600.0
DIG,2013-08-09,8400.0
DIG,2013-08-12,8200.0
DIG,2013-08-13,8000.0
DIG,2013-08-14,8000.0
DIG,2013-08-15,8500.0
DIG,2013-08-16,9000.0
DIG,2013-08-19,9000.0
DIG,2013-08-20,8900.0
DIG,2013-08-21,8800.0
DIG,2013-08-22,8500.0
DIG,2013-08-23,8300.0
DIG,2013-08-26,8400.0
DIG,2013-08-27,8100.0
DIG,2013-08-28,8000.0
DIG,2013-08-29,7800.0
DIG,2013-08-30,8000.0
DIG,2013-09-03,7900.0
DIG,2013-09-04,7700.0
DIG,2013-09-05,7900.0
DIG,2013-09-06,8000.0
DIG,2013-09-09,8200.0
DIG,2013-09-10,8200.0
DIG,2013-09-11,8300.0
DIG,2013-09-12,8300.0
DIG,2013-09-13,8300.0
DIG,2013-09-16,8000.0
DIG,2013-09-17,8000.0
DIG,2013-09-18,7700.0
DIG,2013-09-19,7700.0
DIG,2013-09-20,7600.0
DIG,2013-09-23,7900.0
DIG,2013-09-24,8400.0
DIG,2013-09-25,8700.0
DIG,2013-09-26,8800.0
DIG,2013-09-27,8700.0
DIG,2013-09-30,9300.0
DIG,2013-10-01,9100.0
DIG,2013-10-02,9400.0
DIG,2013-10-03,9400.0
DIG,2013-10-04,9900.0
DIG,2013-10-07,9900.0
DIG,2013-10-08,10500.0
DIG,2013-10-09,10400.0
DIG,2013-10-10,9900.0
DIG,2013-10-11,9900.0
DIG,2013-10-14,9700.0
DIG,2013-10-15,10300.0
DIG,2013-10-16,10300.0
DIG,2013-10-17,10400.0
DIG,2013-10-18,11100.0
DIG,2013-10-21,11300.0
DIG,2013-10-22,11400.0
DIG,2013-10-23,11800.0
DIG,2013-10-24,11400.0
DIG,2013-10-25,11400.0
DIG,2013-10-28,10900.0
DIG,2013-10-29,11300.0
DIG,2013-10-30,11300.0
DIG,2013-10-31,11900.0
DIG,2013-11-01,11800.0
DIG,2013-11-04,12400.0
DIG,2013-11-05,12500.0
DIG,2013-11-06,12300.0
DIG,2013-11-07,12200.0
DIG,2013-11-08,12400.0
DIG,2013-11-11,12800.0
DIG,2013-11-12,12000.0
DIG,2013-11-13,11900.0
DIG,2013-11-14,12000.0
DIG,2013-11-15,12200.0
DIG,2013-11-18,12100.0
DIG,2013-11-19,12100.0
DIG,2013-11-20,12100.0
DIG,2013-11-21,11700.0
DIG,2013-11-22,11600.0
DIG,2013-11-25,11400.0
DIG,2013-11-26,11600.0
DIG,2013-11-27,12000.0
DIG,2013-11-28,12200.0
DIG,2013-11-29,12200.0
DIG,2013-12-02,12200.0
DIG,2013-12-03,12400.0
DIG,2013-12-04,12500.0
DIG,2013-12-05,12500.0
DIG,2013-12-06,12800.0
DIG,2013-12-09,12600.0
DIG,2013-12-10,12700.0
DIG,2013-12-11,12400.0
DIG,2013-12-12,12200.0
DIG,2013-12-13,12600.0
DIG,2013-12-16,12600.0
DIG,2013-12-17,12800.0
DIG,2013-12-18,12600.0
DIG,2013-12-19,12800.0
DIG,2013-12-20,13500.0
DIG,2013-12-23,13300.0
DIG,2013-12-24,13200.0
DIG,2013-12-25,13200.0
DIG,2013-12-26,13100.0
DIG,2013-12-27,12500.0
DIG,2013-12-30,12000.0
DIG,2013-12-31,12400.0
DIG,2014-01-02,12200.0
DIG,2014-01-03,12300.0
DIG,2014-01-06,12600.0
DIG,2014-01-07,12600.0
DIG,2014-01-08,12700.0
DIG,2014-01-09,12700.0
DIG,2014-01-10,12500.0
DIG,2014-01-13,12300.0
DIG,2014-01-14,12400.0
DIG,2014-01-15,12400.0
DIG,2014-01-16,12900.0
DIG,2014-01-17,12500.0
DIG,2014-01-20,12400.0
DIG,2014-01-21,12800.0
DIG,2014-01-22,12900.0
DIG,2014-01-23,13100.0
DIG,2014-01-24,12900.0
DIG,2014-01-27,13000.0
DIG,2014-02-06,13900.0
DIG,2014-02-07,14500.0
DIG,2014-02-10,15100.0
DIG,2014-02-11,14300.0
DIG,2014-02-12,14400.0
DIG,2014-02-13,15100.0
DIG,2014-02-14,15100.0
DIG,2014-02-17,15500.0
DIG,2014-02-18,16500.0
DIG,2014-02-19,17400.0
DIG,2014-02-20,17300.0
DIG,2014-02-21,17600.0
DIG,2014-02-24,18100.0
DIG,2014-02-25,18200.0
DIG,2014-02-26,17900.0
DIG,2014-02-27,16700.0
DIG,2014-02-28,16800.0
DIG,2014-03-03,15800.0
DIG,2014-03-04,16300.0
DIG,2014-03-05,16900.0
DIG,2014-03-06,17000.0
DIG,2014-03-07,17500.0
DIG,2014-03-10,17100.0
DIG,2014-03-11,16900.0
DIG,2014-03-12,16800.0
DIG,2014-03-13,16900.0
DIG,2014-03-14,17200.0
DIG,2014-03-17,17300.0
DIG,2014-03-18,17600.0
DIG,2014-03-19,17900.0
DIG,2014-03-20,17500.0
DIG,2014-03-21,18200.0
DIG,2014-03-24,19400.0
DIG,2014-03-25,19000.0
DIG,2014-03-26,18500.0
DIG,2014-03-27,18700.0
DIG,2014-03-28,19000.0
DIG,2014-03-31,18100.0
DIG,2014-04-01,16900.0
DIG,2014-04-02,16400.0
DIG,2014-04-03,17500.0
DIG,2014-04-04,17900.0
DIG,2014-04-07,18200.0
DIG,2014-04-08,18300.0
DIG,2014-04-10,18500.0
DIG,2014-04-11,18500.0
DIG,2014-04-14,18200.0
DIG,2014-04-15,17600.0
DIG,2014-04-16,17500.0
DIG,2014-04-17,17600.0
DIG,2014-04-18,16500.0
DIG,2014-04-21,16500.0
DIG,2014-04-22,17200.0
DIG,2014-04-23,16900.0
DIG,2014-04-24,16900.0
DIG,2014-04-25,17000.0
DIG,2014-04-28,16400.0
DIG,2014-04-29,16700.0
DIG,2014-05-05,15900.0
DIG,2014-05-06,15900.0
DIG,2014-05-07,15400.0
DIG,2014-05-08,14400.0
DIG,2014-05-09,14000.0
DIG,2014-05-12,13100.0
DIG,2014-05-13,12400.0
DIG,2014-05-14,13200.0
DIG,2014-05-15,13500.0
DIG,2014-05-16,14300.0
DIG,2014-05-19,14700.0
DIG,2014-05-20,14600.0
DIG,2014-05-21,15000.0
