EMC,2012-11-29,8300.0
EMC,2012-11-30,8000.0
EMC,2012-12-03,7600.0
EMC,2012-12-04,7300.0
EMC,2012-12-05,6900.0
EMC,2012-12-06,6600.0
EMC,2012-12-07,6300.0
EMC,2012-12-10,6100.0
EMC,2012-12-11,5800.0
EMC,2012-12-12,5600.0
EMC,2012-12-13,5300.0
EMC,2012-12-14,5600.0
EMC,2012-12-17,5300.0
EMC,2012-12-18,5500.0
EMC,2012-12-19,5500.0
EMC,2012-12-20,5200.0
EMC,2012-12-21,5200.0
EMC,2012-12-24,5000.0
EMC,2012-12-25,5100.0
EMC,2012-12-26,5100.0
EMC,2012-12-27,5200.0
EMC,2012-12-28,5100.0
EMC,2013-01-02,5300.0
EMC,2013-01-03,5300.0
EMC,2013-01-04,5300.0
EMC,2013-01-07,5200.0
EMC,2013-01-08,5000.0
EMC,2013-01-09,5100.0
EMC,2013-01-10,5100.0
EMC,2013-01-11,5100.0
EMC,2013-01-14,5200.0
EMC,2013-01-15,5300.0
EMC,2013-01-16,5400.0
EMC,2013-01-17,5100.0
EMC,2013-01-18,5000.0
EMC,2013-01-21,5000.0
EMC,2013-01-22,5000.0
EMC,2013-01-23,5100.0
EMC,2013-01-24,5300.0
EMC,2013-01-25,5400.0
EMC,2013-01-28,5600.0
EMC,2013-01-29,5500.0
EMC,2013-01-30,5300.0
EMC,2013-01-31,5300.0
EMC,2013-02-01,5400.0
EMC,2013-02-04,5300.0
EMC,2013-02-05,5400.0
EMC,2013-02-06,5400.0
EMC,2013-02-07,5600.0
EMC,2013-02-08,6000.0
EMC,2013-02-18,6300.0
EMC,2013-02-19,6100.0
EMC,2013-02-20,6200.0
EMC,2013-02-21,5900.0
EMC,2013-02-22,5900.0
EMC,2013-02-25,5800.0
EMC,2013-02-26,5800.0
EMC,2013-02-27,5800.0
EMC,2013-02-28,5800.0
EMC,2013-03-01,5900.0
EMC,2013-03-04,5900.0
EMC,2013-03-05,5900.0
EMC,2013-03-06,5900.0
EMC,2013-03-07,5900.0
EMC,2013-03-08,5900.0
EMC,2013-03-11,5900.0
EMC,2013-03-12,5900.0
EMC,2013-03-13,5900.0
EMC,2013-03-14,5900.0
EMC,2013-03-15,5900.0
EMC,2013-03-18,5900.0
EMC,2013-03-19,5900.0
EMC,2013-03-20,5900.0
EMC,2013-03-21,5800.0
EMC,2013-03-22,5900.0
EMC,2013-03-25,5900.0
EMC,2013-03-26,5800.0
EMC,2013-03-27,5800.0
EMC,2013-03-28,5800.0
EMC,2013-03-29,5600.0
EMC,2013-04-01,5700.0
EMC,2013-04-02,6000.0
EMC,2013-04-03,6000.0
EMC,2013-04-04,5600.0
EMC,2013-04-05,6000.0
EMC,2013-04-08,6000.0
EMC,2013-04-09,6000.0
EMC,2013-04-10,5700.0
EMC,2013-04-11,6100.0
EMC,2013-04-12,5900.0
EMC,2013-04-15,5900.0
EMC,2013-04-16,5900.0
EMC,2013-04-17,6000.0
EMC,2013-04-18,6000.0
EMC,2013-04-22,6100.0
EMC,2013-04-23,6200.0
EMC,2013-04-24,6200.0
EMC,2013-04-25,5900.0
EMC,2013-04-26,6000.0
EMC,2013-05-02,6000.0
EMC,2013-05-03,5900.0
EMC,2013-05-06,5800.0
EMC,2013-05-07,5800.0
EMC,2013-05-08,5900.0
EMC,2013-05-09,6100.0
EMC,2013-05-10,6200.0
EMC,2013-05-13,6300.0
EMC,2013-05-14,6300.0
EMC,2013-05-15,6300.0
EMC,2013-05-16,6400.0
EMC,2013-05-17,6600.0
EMC,2013-05-20,6600.0
EMC,2013-05-21,6700.0
EMC,2013-05-22,6300.0
EMC,2013-05-23,6700.0
EMC,2013-05-24,6700.0
EMC,2013-05-27,6300.0
EMC,2013-05-28,6300.0
EMC,2013-05-29,6300.0
EMC,2013-05-30,6300.0
EMC,2013-05-31,6100.0
EMC,2013-06-03,6400.0
EMC,2013-06-04,6900.0
EMC,2013-06-05,7300.0
EMC,2013-06-06,6900.0
EMC,2013-06-07,6900.0
EMC,2013-06-10,6900.0
EMC,2013-06-11,6800.0
EMC,2013-06-12,6600.0
EMC,2013-06-13,6600.0
EMC,2013-06-14,6500.0
EMC,2013-06-17,6300.0
EMC,2013-06-18,6400.0
EMC,2013-06-19,6600.0
EMC,2013-06-20,6600.0
EMC,2013-06-21,6400.0
EMC,2013-06-24,6500.0
EMC,2013-06-25,6100.0
EMC,2013-06-26,6400.0
EMC,2013-06-27,6700.0
EMC,2013-06-28,6400.0
EMC,2013-07-01,6400.0
EMC,2013-07-02,6400.0
EMC,2013-07-03,6500.0
EMC,2013-07-04,6300.0
EMC,2013-07-05,6400.0
EMC,2013-07-08,6400.0
EMC,2013-07-09,6300.0
EMC,2013-07-10,6400.0
EMC,2013-07-11,6400.0
EMC,2013-07-12,6400.0
EMC,2013-07-15,6500.0
EMC,2013-07-16,6500.0
EMC,2013-07-17,6500.0
EMC,2013-07-18,6500.0
EMC,2013-07-19,6500.0
EMC,2013-07-22,6100.0
EMC,2013-07-23,5700.0
EMC,2013-07-24,5500.0
EMC,2013-07-25,5300.0
EMC,2013-07-26,5400.0
EMC,2013-07-29,5400.0
EMC,2013-07-30,5400.0
EMC,2013-07-31,5400.0
EMC,2013-08-01,5300.0
EMC,2013-08-02,5300.0
EMC,2013-08-05,5300.0
EMC,2013-08-06,5300.0
EMC,2013-08-07,5600.0
EMC,2013-08-08,5400.0
EMC,2013-08-09,5400.0
EMC,2013-08-12,5400.0
EMC,2013-08-13,5300.0
EMC,2013-08-14,5600.0
EMC,2013-08-15,5800.0
EMC,2013-08-16,5800.0
EMC,2013-08-19,5800.0
EMC,2013-08-20,5500.0
EMC,2013-08-21,5300.0
EMC,2013-08-22,5300.0
EMC,2013-08-23,5300.0
EMC,2013-08-26,5300.0
EMC,2013-08-27,5300.0
EMC,2013-08-28,5300.0
EMC,2013-08-29,5300.0
EMC,2013-08-30,5300.0
EMC,2013-09-03,5000.0
EMC,2013-09-04,5000.0
EMC,2013-09-05,5000.0
EMC,2013-09-06,5000.0
EMC,2013-09-09,5200.0
EMC,2013-09-10,4900.0
EMC,2013-09-11,5000.0
EMC,2013-09-12,5100.0
EMC,2013-09-13,4800.0
EMC,2013-09-16,4800.0
EMC,2013-09-17,4900.0
EMC,2013-09-18,5100.0
EMC,2013-09-19,5100.0
EMC,2013-09-20,5100.0
EMC,2013-09-23,5000.0
EMC,2013-09-24,4900.0
EMC,2013-09-25,4600.0
EMC,2013-09-26,4900.0
EMC,2013-09-27,5100.0
EMC,2013-09-30,5200.0
EMC,2013-10-01,5000.0
EMC,2013-10-02,5000.0
EMC,2013-10-03,4900.0
EMC,2013-10-04,5200.0
EMC,2013-10-07,5200.0
EMC,2013-10-08,4900.0
EMC,2013-10-09,4900.0
EMC,2013-10-10,5000.0
EMC,2013-10-11,4900.0
EMC,2013-10-14,5100.0
EMC,2013-10-15,5200.0
EMC,2013-10-16,4900.0
EMC,2013-10-17,4800.0
EMC,2013-10-18,5000.0
EMC,2013-10-21,4700.0
EMC,2013-10-22,4700.0
EMC,2013-10-23,4400.0
EMC,2013-10-24,4600.0
EMC,2013-10-25,4500.0
EMC,2013-10-28,4300.0
EMC,2013-10-29,4200.0
EMC,2013-10-30,4200.0
EMC,2013-10-31,4200.0
EMC,2013-11-01,4000.0
EMC,2013-11-04,4100.0
EMC,2013-11-05,4200.0
EMC,2013-11-06,4300.0
EMC,2013-11-07,4300.0
EMC,2013-11-08,4300.0
EMC,2013-11-11,4400.0
EMC,2013-11-12,4400.0
EMC,2013-11-13,4200.0
EMC,2013-11-14,4300.0
EMC,2013-11-15,4200.0
EMC,2013-11-18,4300.0
EMC,2013-11-19,4400.0
EMC,2013-11-20,4700.0
EMC,2013-11-21,4900.0
EMC,2013-11-22,5000.0
EMC,2013-11-25,5300.0
EMC,2013-11-26,5600.0
EMC,2013-11-27,5600.0
EMC,2013-11-28,5300.0
EMC,2013-11-29,5600.0
EMC,2013-12-02,5400.0
EMC,2013-12-03,5500.0
EMC,2013-12-04,5200.0
EMC,2013-12-05,5400.0
EMC,2013-12-06,5100.0
EMC,2013-12-09,5300.0
EMC,2013-12-10,5200.0
EMC,2013-12-11,5400.0
EMC,2013-12-12,5400.0
EMC,2013-12-13,5400.0
EMC,2013-12-16,5100.0
EMC,2013-12-17,5400.0
EMC,2013-12-18,5400.0
EMC,2013-12-19,5400.0
EMC,2013-12-20,5100.0
EMC,2013-12-23,5100.0
EMC,2013-12-24,5300.0
EMC,2013-12-25,5300.0
EMC,2013-12-26,5400.0
EMC,2013-12-27,5100.0
EMC,2013-12-30,5100.0
EMC,2013-12-31,5100.0
EMC,2014-01-02,5400.0
EMC,2014-01-03,5100.0
EMC,2014-01-06,5400.0
EMC,2014-01-07,5100.0
EMC,2014-01-08,4800.0
EMC,2014-01-09,5100.0
EMC,2014-01-10,5300.0
EMC,2014-01-13,5400.0
EMC,2014-01-14,5100.0
EMC,2014-01-15,5400.0
EMC,2014-01-16,5100.0
EMC,2014-01-17,5100.0
EMC,2014-01-20,5000.0
EMC,2014-01-21,4800.0
EMC,2014-01-22,5100.0
EMC,2014-01-23,5200.0
EMC,2014-01-24,5100.0
EMC,2014-01-27,5100.0
EMC,2014-02-06,5400.0
EMC,2014-02-07,5100.0
EMC,2014-02-10,5000.0
EMC,2014-02-11,4900.0
EMC,2014-02-12,5100.0
EMC,2014-02-13,5300.0
EMC,2014-02-14,5300.0
EMC,2014-02-17,5300.0
EMC,2014-02-18,5300.0
EMC,2014-02-19,5300.0
EMC,2014-02-20,5500.0
EMC,2014-02-21,5500.0
EMC,2014-02-24,5300.0
EMC,2014-02-25,5400.0
EMC,2014-02-26,5200.0
EMC,2014-02-27,5300.0
EMC,2014-02-28,5200.0
EMC,2014-03-03,5000.0
EMC,2014-03-04,5000.0
EMC,2014-03-05,5200.0
EMC,2014-03-06,5200.0
EMC,2014-03-07,5300.0
EMC,2014-03-10,5400.0
EMC,2014-03-11,5400.0
EMC,2014-03-12,5500.0
EMC,2014-03-13,5500.0
EMC,2014-03-14,5600.0
EMC,2014-03-17,5600.0
EMC,2014-03-18,5600.0
EMC,2014-03-19,5800.0
EMC,2014-03-20,5800.0
EMC,2014-03-21,5800.0
EMC,2014-03-24,6000.0
EMC,2014-03-25,6000.0
EMC,2014-03-26,6000.0
EMC,2014-03-27,6300.0
EMC,2014-03-28,5900.0
EMC,2014-03-31,6000.0
EMC,2014-04-01,6000.0
EMC,2014-04-02,6000.0
EMC,2014-04-03,6100.0
EMC,2014-04-04,6100.0
EMC,2014-04-07,6100.0
EMC,2014-04-08,5900.0
EMC,2014-04-10,5800.0
EMC,2014-04-11,6000.0
EMC,2014-04-14,5900.0
EMC,2014-04-15,5900.0
EMC,2014-04-16,5700.0
EMC,2014-04-17,6000.0
EMC,2014-04-18,6000.0
EMC,2014-04-21,6000.0
EMC,2014-04-22,5600.0
EMC,2014-04-23,5300.0
EMC,2014-04-24,5500.0
EMC,2014-04-25,5700.0
EMC,2014-04-28,5400.0
EMC,2014-04-29,5200.0
EMC,2014-05-05,5000.0
EMC,2014-05-06,5300.0
EMC,2014-05-07,5000.0
EMC,2014-05-08,4700.0
EMC,2014-05-09,4400.0
EMC,2014-05-12,4100.0
EMC,2014-05-13,4000.0
EMC,2014-05-14,4200.0
EMC,2014-05-15,4400.0
EMC,2014-05-16,4600.0
EMC,2014-05-19,4300.0
EMC,2014-05-20,4300.0
EMC,2014-05-21,4600.0
