FDG,2011-04-20,21200.0
FDG,2011-04-21,20100.0
FDG,2011-04-22,19100.0
FDG,2011-04-25,18200.0
FDG,2011-04-26,17400.0
FDG,2011-04-27,16600.0
FDG,2011-04-28,16600.0
FDG,2011-04-29,16000.0
FDG,2011-05-04,16800.0
FDG,2011-05-05,17500.0
FDG,2011-05-06,18100.0
FDG,2011-05-09,18600.0
FDG,2011-05-10,18600.0
FDG,2011-05-11,17900.0
FDG,2011-05-12,17900.0
FDG,2011-05-13,17100.0
FDG,2011-05-16,16300.0
FDG,2011-05-17,16600.0
FDG,2011-05-18,17000.0
FDG,2011-05-19,17200.0
FDG,2011-05-20,16400.0
FDG,2011-05-23,15600.0
FDG,2011-05-24,16300.0
FDG,2011-05-25,15600.0
FDG,2011-05-26,16100.0
FDG,2011-05-27,15900.0
FDG,2011-05-30,15900.0
FDG,2011-05-31,15400.0
FDG,2011-06-01,15000.0
FDG,2011-06-02,15500.0
FDG,2011-06-03,15500.0
FDG,2011-06-06,16200.0
FDG,2011-06-07,16800.0
FDG,2011-06-08,16000.0
FDG,2011-06-09,15200.0
FDG,2011-06-10,15900.0
FDG,2011-06-13,15100.0
FDG,2011-06-14,15400.0
FDG,2011-06-15,15900.0
FDG,2011-06-16,15500.0
FDG,2011-06-17,15500.0
FDG,2011-06-20,15500.0
FDG,2011-06-21,15500.0
FDG,2011-06-22,15400.0
FDG,2011-06-23,15400.0
FDG,2011-06-24,15400.0
FDG,2011-06-27,15400.0
FDG,2011-06-28,15400.0
FDG,2011-06-29,15000.0
FDG,2011-06-30,15000.0
FDG,2011-07-01,14900.0
FDG,2011-07-04,14900.0
FDG,2011-07-05,15000.0
FDG,2011-07-06,15000.0
FDG,2011-07-07,15000.0
FDG,2011-07-08,15000.0
FDG,2011-07-11,14500.0
FDG,2011-07-12,15000.0
FDG,2011-07-13,15600.0
FDG,2011-07-14,14800.0
FDG,2011-07-15,14200.0
FDG,2011-07-18,14200.0
FDG,2011-07-19,13700.0
FDG,2011-07-20,13100.0
FDG,2011-07-21,13700.0
FDG,2011-07-22,13300.0
FDG,2011-07-25,12600.0
FDG,2011-07-26,13300.0
FDG,2011-07-27,12600.0
FDG,2011-07-28,12500.0
FDG,2011-07-29,13200.0
FDG,2011-08-01,12600.0
FDG,2011-08-02,12200.0
FDG,2011-08-03,12400.0
FDG,2011-08-04,13000.0
FDG,2011-08-05,12800.0
FDG,2011-08-08,13400.0
FDG,2011-08-09,13300.0
FDG,2011-08-10,13700.0
FDG,2011-08-11,13700.0
FDG,2011-08-12,13500.0
FDG,2011-08-15,13500.0
FDG,2011-08-16,13300.0
FDG,2011-08-17,12600.0
FDG,2011-08-18,13200.0
FDG,2011-08-19,13200.0
FDG,2011-08-22,13200.0
FDG,2011-08-23,12700.0
FDG,2011-08-24,12700.0
FDG,2011-08-25,12700.0
FDG,2011-08-26,12800.0
FDG,2011-08-29,13300.0
FDG,2011-08-30,13600.0
FDG,2011-08-31,13200.0
FDG,2011-09-01,13300.0
FDG,2011-09-05,13300.0
FDG,2011-09-06,13000.0
FDG,2011-09-07,12900.0
FDG,2011-09-08,13100.0
FDG,2011-09-09,13300.0
FDG,2011-09-12,13400.0
FDG,2011-09-13,13500.0
FDG,2011-09-14,13500.0
FDG,2011-09-15,13400.0
FDG,2011-09-16,13300.0
FDG,2011-09-19,13300.0
FDG,2011-09-20,13200.0
FDG,2011-09-21,13200.0
FDG,2011-09-22,13200.0
FDG,2011-09-23,13200.0
FDG,2011-09-26,13200.0
FDG,2011-09-27,13100.0
FDG,2011-09-28,13100.0
FDG,2011-09-29,13100.0
FDG,2011-09-30,13100.0
FDG,2011-10-03,13200.0
FDG,2011-10-04,13200.0
FDG,2011-10-05,13400.0
FDG,2011-10-06,14100.0
FDG,2011-10-07,13500.0
FDG,2011-10-10,13500.0
FDG,2011-10-11,13500.0
FDG,2011-10-12,13000.0
FDG,2011-10-13,13000.0
FDG,2011-10-14,13000.0
FDG,2011-10-17,13400.0
FDG,2011-10-18,13300.0
FDG,2011-10-19,13300.0
FDG,2011-10-20,13300.0
FDG,2011-10-21,13300.0
FDG,2011-10-24,12700.0
FDG,2011-10-25,13300.0
FDG,2011-10-26,12600.0
FDG,2011-10-27,12700.0
FDG,2011-10-28,12900.0
FDG,2011-10-31,12900.0
FDG,2011-11-01,12900.0
FDG,2011-11-02,12300.0
FDG,2011-11-03,11900.0
FDG,2011-11-04,11900.0
FDG,2011-11-07,12500.0
FDG,2011-11-08,13100.0
FDG,2011-11-09,13100.0
FDG,2011-11-10,13700.0
FDG,2011-11-11,13700.0
FDG,2011-11-14,13700.0
FDG,2011-11-15,13700.0
FDG,2011-11-16,13100.0
FDG,2011-11-17,13300.0
FDG,2011-11-18,12800.0
FDG,2011-11-21,12800.0
FDG,2011-11-22,12800.0
FDG,2011-11-23,12800.0
FDG,2011-11-24,13400.0
FDG,2011-11-25,12800.0
FDG,2011-11-28,12800.0
FDG,2011-11-29,13400.0
FDG,2011-11-30,12800.0
FDG,2011-12-01,12800.0
FDG,2011-12-02,12800.0
FDG,2011-12-05,13400.0
FDG,2011-12-06,13400.0
FDG,2011-12-07,13400.0
FDG,2011-12-08,13400.0
FDG,2011-12-09,12800.0
FDG,2011-12-12,12800.0
FDG,2011-12-13,12800.0
FDG,2011-12-14,12400.0
FDG,2011-12-15,11800.0
FDG,2011-12-16,11800.0
FDG,2011-12-19,11800.0
FDG,2011-12-20,11800.0
FDG,2011-12-21,11800.0
FDG,2011-12-22,11800.0
FDG,2011-12-23,11800.0
FDG,2011-12-26,11800.0
FDG,2011-12-27,12300.0
FDG,2011-12-28,12800.0
FDG,2011-12-29,12200.0
FDG,2011-12-30,11700.0
FDG,2012-01-03,11200.0
FDG,2012-01-04,11200.0
FDG,2012-01-05,11200.0
FDG,2012-01-06,11200.0
FDG,2012-01-09,11200.0
FDG,2012-01-10,11800.0
FDG,2012-01-11,11900.0
FDG,2012-01-12,11900.0
FDG,2012-01-13,12500.0
FDG,2012-01-16,12200.0
FDG,2012-01-17,11800.0
FDG,2012-01-18,11800.0
FDG,2012-01-19,11500.0
FDG,2012-01-20,11500.0
FDG,2012-01-30,11500.0
FDG,2012-01-31,12000.0
FDG,2012-02-01,12500.0
FDG,2012-02-02,12200.0
FDG,2012-02-03,12700.0
FDG,2012-02-06,12100.0
FDG,2012-02-07,12300.0
FDG,2012-02-08,12800.0
FDG,2012-02-09,13400.0
FDG,2012-02-10,14100.0
FDG,2012-02-13,14700.0
FDG,2012-02-14,14700.0
FDG,2012-02-15,14700.0
FDG,2012-02-16,15400.0
FDG,2012-02-17,14700.0
FDG,2012-02-20,14800.0
FDG,2012-02-21,14900.0
FDG,2012-02-22,14900.0
FDG,2012-02-23,15200.0
FDG,2012-02-24,15300.0
FDG,2012-02-27,15000.0
FDG,2012-02-28,15200.0
FDG,2012-02-29,14500.0
FDG,2012-03-01,15000.0
FDG,2012-03-02,14500.0
FDG,2012-03-05,14800.0
FDG,2012-03-06,14800.0
FDG,2012-03-07,14800.0
FDG,2012-03-08,14100.0
FDG,2012-03-09,13400.0
FDG,2012-03-12,13300.0
FDG,2012-03-13,13800.0
FDG,2012-03-14,14300.0
FDG,2012-03-15,13800.0
FDG,2012-03-16,13800.0
FDG,2012-03-19,13700.0
FDG,2012-03-20,13700.0
FDG,2012-03-21,13900.0
FDG,2012-03-22,13700.0
FDG,2012-03-23,13600.0
FDG,2012-03-26,14000.0
FDG,2012-03-27,13700.0
FDG,2012-03-28,13700.0
FDG,2012-03-29,13700.0
FDG,2012-03-30,13700.0
FDG,2012-04-03,13700.0
FDG,2012-04-04,13200.0
FDG,2012-04-05,12800.0
FDG,2012-04-06,13400.0
FDG,2012-04-09,14000.0
FDG,2012-04-10,13300.0
FDG,2012-04-11,13800.0
FDG,2012-04-12,14200.0
FDG,2012-04-13,14000.0
FDG,2012-04-16,13800.0
FDG,2012-04-17,13200.0
FDG,2012-04-18,12900.0
FDG,2012-04-19,13000.0
FDG,2012-04-20,13000.0
FDG,2012-04-23,12500.0
FDG,2012-04-24,12200.0
FDG,2012-04-25,12100.0
FDG,2012-04-26,12700.0
FDG,2012-04-27,12800.0
FDG,2012-05-02,13000.0
FDG,2012-05-03,13100.0
FDG,2012-05-04,13200.0
FDG,2012-05-07,13800.0
FDG,2012-05-08,14100.0
FDG,2012-05-09,14300.0
FDG,2012-05-10,14200.0
FDG,2012-05-11,13500.0
FDG,2012-05-14,13700.0
FDG,2012-05-15,13700.0
FDG,2012-05-16,13700.0
FDG,2012-05-17,14000.0
FDG,2012-05-18,13300.0
FDG,2012-05-21,13900.0
FDG,2012-05-22,13500.0
FDG,2012-05-23,12900.0
FDG,2012-05-24,12400.0
FDG,2012-05-25,11900.0
FDG,2012-05-28,12400.0
FDG,2012-05-29,13000.0
FDG,2012-05-30,13000.0
FDG,2012-05-31,13000.0
FDG,2012-06-01,13000.0
FDG,2012-06-04,13000.0
FDG,2012-06-05,12400.0
FDG,2012-06-06,11800.0
FDG,2012-06-07,11300.0
FDG,2012-06-08,11300.0
FDG,2012-06-11,11000.0
FDG,2012-06-12,10500.0
FDG,2012-06-13,10000.0
FDG,2012-06-14,10000.0
FDG,2012-06-15,10400.0
FDG,2012-06-18,10000.0
FDG,2012-06-19,9600.0
FDG,2012-06-20,9600.0
FDG,2012-06-21,9300.0
FDG,2012-06-22,9000.0
FDG,2012-06-25,9400.0
FDG,2012-06-26,9000.0
FDG,2012-06-27,8600.0
FDG,2012-06-28,8600.0
FDG,2012-06-29,9000.0
FDG,2012-07-02,9000.0
FDG,2012-07-03,9000.0
FDG,2012-07-04,9000.0
FDG,2012-07-05,9000.0
FDG,2012-07-06,9400.0
FDG,2012-07-09,9400.0
FDG,2012-07-10,9400.0
FDG,2012-07-11,9400.0
FDG,2012-07-12,9400.0
FDG,2012-07-13,9400.0
FDG,2012-07-16,9400.0
FDG,2012-07-17,9800.0
FDG,2012-07-18,9800.0
FDG,2012-07-19,10200.0
FDG,2012-07-20,10700.0
FDG,2012-07-23,10700.0
FDG,2012-07-24,10700.0
FDG,2012-07-25,10200.0
FDG,2012-07-26,10200.0
FDG,2012-07-27,10200.0
FDG,2012-07-30,10200.0
FDG,2012-07-31,10200.0
FDG,2012-08-01,10200.0
FDG,2012-08-02,10200.0
FDG,2012-08-03,10600.0
FDG,2012-08-06,10600.0
FDG,2012-08-07,10600.0
FDG,2012-08-08,10600.0
FDG,2012-08-09,10600.0
FDG,2012-08-10,11000.0
FDG,2012-08-13,11000.0
FDG,2012-08-14,11000.0
FDG,2012-08-15,11000.0
FDG,2012-08-16,11000.0
FDG,2012-08-17,11000.0
FDG,2012-08-20,11000.0
FDG,2012-08-21,11400.0
FDG,2012-08-22,11400.0
FDG,2012-08-23,11400.0
FDG,2012-08-24,11400.0
FDG,2012-08-27,11400.0
FDG,2012-08-28,11400.0
FDG,2012-08-29,11400.0
FDG,2012-08-30,11400.0
FDG,2012-08-31,11900.0
FDG,2012-09-04,11900.0
FDG,2012-09-05,12300.0
FDG,2012-09-06,12800.0
FDG,2012-09-07,12800.0
FDG,2012-09-10,12800.0
FDG,2012-09-11,12800.0
FDG,2012-09-12,12800.0
FDG,2012-09-13,13400.0
FDG,2012-09-14,13400.0
FDG,2012-09-17,13400.0
FDG,2012-09-18,13400.0
FDG,2012-09-19,13400.0
FDG,2012-09-20,13400.0
FDG,2012-09-21,12800.0
FDG,2012-09-24,12800.0
FDG,2012-09-25,12800.0
FDG,2012-09-26,12800.0
FDG,2012-09-27,12200.0
FDG,2012-09-28,12200.0
FDG,2012-10-01,12200.0
FDG,2012-10-02,12200.0
FDG,2012-10-03,12200.0
FDG,2012-10-04,12200.0
FDG,2012-10-05,12200.0
FDG,2012-10-08,12200.0
FDG,2012-10-09,12200.0
FDG,2012-10-10,12200.0
FDG,2012-10-11,12200.0
FDG,2012-10-12,12200.0
FDG,2012-10-15,12200.0
FDG,2012-10-16,12200.0
FDG,2012-10-17,11600.0
FDG,2012-10-18,11600.0
FDG,2012-10-19,11300.0
FDG,2012-10-22,11300.0
FDG,2012-10-23,11300.0
FDG,2012-10-24,11300.0
FDG,2012-10-25,11300.0
FDG,2012-10-26,11300.0
FDG,2012-10-29,11300.0
FDG,2012-10-30,11300.0
FDG,2012-10-31,11300.0
FDG,2012-11-01,11300.0
FDG,2012-11-02,11300.0
FDG,2012-11-05,11300.0
FDG,2012-11-06,11300.0
FDG,2012-11-07,11300.0
FDG,2012-11-08,11300.0
FDG,2012-11-09,11300.0
FDG,2012-11-12,11300.0
FDG,2012-11-13,11300.0
FDG,2012-11-14,11300.0
FDG,2012-11-15,11300.0
FDG,2012-11-16,11300.0
FDG,2012-11-19,11300.0
FDG,2012-11-20,11300.0
FDG,2012-11-21,11300.0
FDG,2012-11-22,11300.0
FDG,2012-11-23,11300.0
FDG,2012-11-26,11300.0
FDG,2012-11-27,11300.0
FDG,2012-11-28,11300.0
FDG,2012-11-29,11300.0
FDG,2012-11-30,11300.0
FDG,2012-12-03,11300.0
FDG,2012-12-04,11300.0
FDG,2012-12-05,11300.0
FDG,2012-12-06,11300.0
FDG,2012-12-07,11300.0
FDG,2012-12-10,11300.0
FDG,2012-12-11,11300.0
FDG,2012-12-12,11300.0
FDG,2012-12-13,11300.0
FDG,2012-12-14,11300.0
FDG,2012-12-17,10800.0
FDG,2012-12-18,10800.0
FDG,2012-12-19,10800.0
FDG,2012-12-20,10800.0
FDG,2012-12-21,10800.0
FDG,2012-12-24,10300.0
FDG,2012-12-25,10300.0
FDG,2012-12-26,9800.0
FDG,2012-12-27,9800.0
FDG,2012-12-28,9800.0
FDG,2013-01-02,9800.0
FDG,2013-01-03,10200.0
FDG,2013-01-04,10400.0
FDG,2013-01-07,10400.0
FDG,2013-01-08,10500.0
FDG,2013-01-09,10200.0
FDG,2013-01-10,10400.0
FDG,2013-01-11,10700.0
FDG,2013-01-14,10700.0
FDG,2013-01-15,11400.0
FDG,2013-01-16,12100.0
FDG,2013-01-17,11300.0
FDG,2013-01-18,10700.0
FDG,2013-01-21,11400.0
FDG,2013-01-22,11400.0
FDG,2013-01-23,11500.0
FDG,2013-01-24,10900.0
FDG,2013-01-25,10900.0
FDG,2013-01-28,11100.0
FDG,2013-01-29,11200.0
FDG,2013-01-30,11000.0
FDG,2013-01-31,11700.0
FDG,2013-02-01,12400.0
FDG,2013-02-04,11800.0
FDG,2013-02-05,11800.0
FDG,2013-02-06,12000.0
FDG,2013-02-07,11800.0
FDG,2013-02-08,11800.0
FDG,2013-02-18,12600.0
FDG,2013-02-19,11900.0
FDG,2013-02-20,11700.0
FDG,2013-02-21,12000.0
FDG,2013-02-22,12000.0
FDG,2013-02-25,12000.0
FDG,2013-02-26,11800.0
FDG,2013-02-27,12000.0
FDG,2013-02-28,11800.0
FDG,2013-03-01,11800.0
FDG,2013-03-04,11100.0
FDG,2013-03-05,11100.0
FDG,2013-03-06,11100.0
FDG,2013-03-07,11100.0
FDG,2013-03-08,11100.0
FDG,2013-03-11,11100.0
FDG,2013-03-12,11100.0
FDG,2013-03-13,11100.0
FDG,2013-03-14,11100.0
FDG,2013-03-15,11100.0
FDG,2013-03-18,11200.0
FDG,2013-03-19,11200.0
FDG,2013-03-20,11200.0
FDG,2013-03-21,11200.0
FDG,2013-03-22,11200.0
FDG,2013-03-25,11200.0
FDG,2013-03-26,11200.0
FDG,2013-03-27,11200.0
FDG,2013-03-28,11200.0
FDG,2013-03-29,11200.0
FDG,2013-04-01,11200.0
FDG,2013-04-02,11200.0
FDG,2013-04-03,11200.0
FDG,2013-04-04,11200.0
FDG,2013-04-05,11200.0
FDG,2013-04-08,11200.0
FDG,2013-04-09,11900.0
FDG,2013-04-10,11900.0
FDG,2013-04-11,11900.0
FDG,2013-04-12,11900.0
FDG,2013-04-15,11900.0
FDG,2013-04-16,11900.0
FDG,2013-04-17,11900.0
FDG,2013-04-18,11900.0
FDG,2013-04-22,11900.0
FDG,2013-04-23,11900.0
FDG,2013-04-24,11900.0
FDG,2013-04-25,11900.0
FDG,2013-04-26,11900.0
FDG,2013-05-02,11900.0
FDG,2013-05-03,12000.0
FDG,2013-05-06,12000.0
FDG,2013-05-07,12000.0
FDG,2013-05-08,12000.0
FDG,2013-05-09,11300.0
FDG,2013-05-10,11300.0
FDG,2013-05-13,10700.0
FDG,2013-05-14,10700.0
FDG,2013-05-15,10700.0
FDG,2013-05-16,10700.0
FDG,2013-05-17,10700.0
FDG,2013-05-20,10700.0
FDG,2013-05-21,10500.0
FDG,2013-05-22,10500.0
FDG,2013-05-23,10500.0
FDG,2013-05-24,10000.0
FDG,2013-05-27,10000.0
FDG,2013-05-28,10000.0
FDG,2013-05-29,10000.0
FDG,2013-05-30,9300.0
FDG,2013-05-31,8900.0
FDG,2013-06-03,8300.0
FDG,2013-06-04,7800.0
FDG,2013-06-05,7400.0
FDG,2013-06-06,7400.0
FDG,2013-06-07,7400.0
FDG,2013-06-10,7400.0
FDG,2013-06-11,7400.0
FDG,2013-06-12,7900.0
FDG,2013-06-13,7500.0
FDG,2013-06-14,7500.0
FDG,2013-06-17,7000.0
FDG,2013-06-18,6600.0
FDG,2013-06-19,7000.0
FDG,2013-06-20,6700.0
FDG,2013-06-21,7100.0
FDG,2013-06-24,7500.0
FDG,2013-06-25,8000.0
FDG,2013-06-26,7700.0
FDG,2013-06-27,8200.0
FDG,2013-06-28,7700.0
FDG,2013-07-01,7200.0
FDG,2013-07-02,6700.0
FDG,2013-07-03,6300.0
FDG,2013-07-04,6400.0
FDG,2013-07-05,6400.0
FDG,2013-07-08,6000.0
FDG,2013-07-09,6000.0
FDG,2013-07-10,6000.0
FDG,2013-07-11,6000.0
FDG,2013-07-12,6000.0
FDG,2013-07-15,6000.0
FDG,2013-07-16,5800.0
FDG,2013-07-17,5800.0
FDG,2013-07-18,5800.0
FDG,2013-07-19,5800.0
FDG,2013-07-22,6200.0
FDG,2013-07-23,6200.0
FDG,2013-07-24,6200.0
FDG,2013-07-25,6200.0
FDG,2013-07-26,5800.0
FDG,2013-07-29,5400.0
FDG,2013-07-30,5100.0
FDG,2013-07-31,5100.0
FDG,2013-08-01,4800.0
FDG,2013-08-02,4800.0
FDG,2013-08-05,4800.0
FDG,2013-08-06,4800.0
FDG,2013-08-07,5000.0
FDG,2013-08-08,5000.0
FDG,2013-08-09,5000.0
FDG,2013-08-12,5000.0
FDG,2013-08-13,5300.0
FDG,2013-08-14,5300.0
FDG,2013-08-15,5300.0
FDG,2013-08-16,5300.0
FDG,2013-08-19,5500.0
FDG,2013-08-20,5500.0
FDG,2013-08-21,5500.0
FDG,2013-08-22,5500.0
FDG,2013-08-23,5500.0
FDG,2013-08-26,5500.0
FDG,2013-08-27,5500.0
FDG,2013-08-28,5500.0
FDG,2013-08-29,5500.0
FDG,2013-08-30,5500.0
FDG,2013-09-03,5200.0
FDG,2013-09-04,5200.0
FDG,2013-09-05,5200.0
FDG,2013-09-06,4900.0
FDG,2013-09-09,4600.0
FDG,2013-09-10,4600.0
FDG,2013-09-11,4600.0
FDG,2013-09-12,4600.0
FDG,2013-09-13,4600.0
FDG,2013-09-16,4600.0
FDG,2013-09-17,4300.0
FDG,2013-09-18,4000.0
FDG,2013-09-19,3800.0
FDG,2013-09-20,3700.0
FDG,2013-09-23,3700.0
FDG,2013-09-24,3900.0
FDG,2013-09-25,3900.0
FDG,2013-09-26,3900.0
FDG,2013-09-27,3900.0
FDG,2013-09-30,3900.0
FDG,2013-10-01,3900.0
FDG,2013-10-02,3900.0
FDG,2013-10-03,3900.0
FDG,2013-10-04,3900.0
FDG,2013-10-07,3800.0
FDG,2013-10-08,3800.0
FDG,2013-10-09,3800.0
FDG,2013-10-10,3800.0
FDG,2013-10-11,3800.0
FDG,2013-10-14,3800.0
FDG,2013-10-15,4000.0
FDG,2013-10-16,4000.0
FDG,2013-10-17,4000.0
FDG,2013-10-18,4000.0
FDG,2013-10-21,4000.0
FDG,2013-10-22,4000.0
FDG,2013-10-23,4000.0
FDG,2013-10-24,3800.0
FDG,2013-10-25,3600.0
FDG,2013-10-28,3600.0
FDG,2013-10-29,3600.0
FDG,2013-10-30,3800.0
FDG,2013-10-31,3800.0
FDG,2013-11-01,3800.0
FDG,2013-11-04,3800.0
FDG,2013-11-05,4000.0
FDG,2013-11-06,4200.0
FDG,2013-11-07,4400.0
FDG,2013-11-08,4700.0
FDG,2013-11-11,5000.0
FDG,2013-11-12,5300.0
FDG,2013-11-13,5600.0
FDG,2013-11-14,5800.0
FDG,2013-11-15,6000.0
FDG,2013-11-18,6400.0
FDG,2013-11-19,6000.0
FDG,2013-11-20,6400.0
FDG,2013-11-21,6000.0
FDG,2013-11-22,6000.0
FDG,2013-11-25,5600.0
FDG,2013-11-26,5300.0
FDG,2013-11-27,5000.0
FDG,2013-11-28,4700.0
FDG,2013-11-29,4400.0
FDG,2013-12-02,4500.0
FDG,2013-12-03,4200.0
FDG,2013-12-04,4000.0
FDG,2013-12-05,3800.0
FDG,2013-12-06,4000.0
FDG,2013-12-09,3900.0
FDG,2013-12-10,3900.0
FDG,2013-12-11,4100.0
FDG,2013-12-12,3900.0
FDG,2013-12-13,4000.0
FDG,2013-12-16,4200.0
FDG,2013-12-17,4000.0
FDG,2013-12-18,3900.0
FDG,2013-12-19,4100.0
FDG,2013-12-20,4100.0
FDG,2013-12-23,3900.0
FDG,2013-12-24,4100.0
FDG,2013-12-25,4200.0
FDG,2013-12-26,4200.0
FDG,2013-12-27,4000.0
FDG,2013-12-30,3800.0
FDG,2013-12-31,4000.0
FDG,2014-01-02,4100.0
FDG,2014-01-03,4300.0
FDG,2014-01-06,4000.0
FDG,2014-01-07,4000.0
FDG,2014-01-08,4000.0
FDG,2014-01-09,4000.0
FDG,2014-01-10,3900.0
FDG,2014-01-13,4100.0
FDG,2014-01-14,3900.0
FDG,2014-01-15,4000.0
FDG,2014-01-16,3800.0
FDG,2014-01-17,3800.0
FDG,2014-01-20,3600.0
FDG,2014-01-21,3600.0
FDG,2014-01-22,3800.0
FDG,2014-01-23,3800.0
FDG,2014-01-24,3700.0
FDG,2014-01-27,3700.0
FDG,2014-02-06,3800.0
FDG,2014-02-07,3700.0
FDG,2014-02-10,3700.0
FDG,2014-02-11,3800.0
FDG,2014-02-12,3800.0
FDG,2014-02-13,3800.0
FDG,2014-02-14,3800.0
FDG,2014-02-17,3800.0
FDG,2014-02-18,3800.0
FDG,2014-02-19,3600.0
FDG,2014-02-20,3500.0
FDG,2014-02-21,3400.0
FDG,2014-02-24,3600.0
FDG,2014-02-25,3400.0
FDG,2014-02-26,3300.0
FDG,2014-02-27,3200.0
FDG,2014-02-28,3000.0
FDG,2014-03-03,3100.0
FDG,2014-03-04,2900.0
FDG,2014-03-05,3100.0
FDG,2014-03-06,3100.0
FDG,2014-03-07,3100.0
FDG,2014-03-10,3000.0
FDG,2014-03-11,2900.0
FDG,2014-03-12,3000.0
FDG,2014-03-13,3000.0
FDG,2014-03-14,2800.0
FDG,2014-03-17,2900.0
FDG,2014-03-18,3100.0
FDG,2014-03-19,3300.0
FDG,2014-03-20,3500.0
FDG,2014-03-21,3700.0
FDG,2014-03-24,3900.0
FDG,2014-03-25,4100.0
FDG,2014-03-26,4100.0
FDG,2014-03-27,3900.0
FDG,2014-03-28,3900.0
FDG,2014-03-31,3900.0
FDG,2014-04-01,3800.0
FDG,2014-04-02,3600.0
FDG,2014-04-03,3500.0
FDG,2014-04-04,3700.0
FDG,2014-04-07,3600.0
FDG,2014-04-08,3700.0
FDG,2014-04-10,3600.0
FDG,2014-04-11,3600.0
FDG,2014-04-14,3500.0
FDG,2014-04-15,3300.0
FDG,2014-04-16,3100.0
FDG,2014-04-17,2900.0
FDG,2014-04-18,2700.0
FDG,2014-04-21,2600.0
FDG,2014-04-22,2500.0
FDG,2014-04-23,2400.0
FDG,2014-04-24,2300.0
FDG,2014-04-25,2200.0
FDG,2014-04-28,2100.0
FDG,2014-04-29,2000.0
FDG,2014-05-05,1900.0
FDG,2014-05-06,1800.0
FDG,2014-05-07,1700.0
FDG,2014-05-08,1600.0
FDG,2014-05-09,1500.0
FDG,2014-05-12,1400.0
FDG,2014-05-13,1500.0
FDG,2014-05-14,1600.0
