FPT,2006-12-13,84100.0
FPT,2006-12-14,88300.0
FPT,2006-12-15,92700.0
FPT,2006-12-18,97300.0
FPT,2006-12-19,102100.0
FPT,2006-12-20,107200.0
FPT,2006-12-21,101900.0
FPT,2006-12-22,96900.0
FPT,2006-12-25,92100.0
FPT,2006-12-26,96500.0
FPT,2006-12-27,100900.0
FPT,2006-12-28,100900.0
FPT,2006-12-29,96700.0
FPT,2007-01-02,92500.0
FPT,2007-01-03,94600.0
FPT,2007-01-04,99200.0
FPT,2007-01-05,104000.0
FPT,2007-01-08,103000.0
FPT,2007-01-09,103000.0
FPT,2007-01-10,104000.0
FPT,2007-01-11,105100.0
FPT,2007-01-12,110300.0
FPT,2007-01-15,115800.0
FPT,2007-01-16,121500.0
FPT,2007-01-17,115600.0
FPT,2007-01-18,115800.0
FPT,2007-01-19,121500.0
FPT,2007-01-22,126100.0
FPT,2007-01-23,126500.0
FPT,2007-01-24,121900.0
FPT,2007-01-25,121900.0
FPT,2007-01-26,121900.0
FPT,2007-01-29,127200.0
FPT,2007-01-30,132400.0
FPT,2007-01-31,135600.0
FPT,2007-02-01,130300.0
FPT,2007-02-02,132400.0
FPT,2007-02-05,125900.0
FPT,2007-02-06,131400.0
FPT,2007-02-07,133500.0
FPT,2007-02-08,126900.0
FPT,2007-02-09,120600.0
FPT,2007-02-12,126500.0
FPT,2007-02-13,132400.0
FPT,2007-02-14,128200.0
FPT,2007-02-15,128200.0
FPT,2007-02-26,134500.0
FPT,2007-02-27,139800.0
FPT,2007-02-28,132800.0
FPT,2007-03-01,129300.0
FPT,2007-03-02,135600.0
FPT,2007-03-05,133500.0
FPT,2007-03-06,127100.0
FPT,2007-03-07,128300.0
FPT,2007-03-08,126200.0
FPT,2007-03-09,126200.0
FPT,2007-03-12,128300.0
FPT,2007-03-13,128300.0
FPT,2007-03-14,122000.0
FPT,2007-03-15,115900.0
FPT,2007-03-16,121600.0
FPT,2007-03-19,121600.0
FPT,2007-03-20,118200.0
FPT,2007-03-21,112500.0
FPT,2007-03-22,116800.0
FPT,2007-03-23,116800.0
FPT,2007-03-26,113600.0
FPT,2007-03-27,107900.0
FPT,2007-03-28,107900.0
FPT,2007-03-29,113200.0
FPT,2007-03-30,113800.0
FPT,2007-04-02,109400.0
FPT,2007-04-03,105200.0
FPT,2007-04-04,108100.0
FPT,2007-04-05,108300.0
FPT,2007-04-06,107300.0
FPT,2007-04-09,108300.0
FPT,2007-04-10,109600.0
FPT,2007-04-11,110400.0
FPT,2007-04-12,113600.0
FPT,2007-04-13,109400.0
FPT,2007-04-16,110400.0
FPT,2007-04-17,108300.0
FPT,2007-04-18,109400.0
FPT,2007-04-19,106200.0
FPT,2007-04-20,101000.0
FPT,2007-04-23,95900.0
FPT,2007-04-24,91300.0
FPT,2007-04-25,89400.0
FPT,2007-05-02,91100.0
FPT,2007-05-03,93000.0
FPT,2007-05-04,97600.0
FPT,2007-05-07,102400.0
FPT,2007-05-08,105200.0
FPT,2007-05-09,105200.0
FPT,2007-05-10,110400.0
FPT,2007-05-11,115900.0
FPT,2007-05-14,121600.0
FPT,2007-05-15,115700.0
FPT,2007-05-16,111900.0
FPT,2007-05-17,117200.0
FPT,2007-05-18,113800.0
FPT,2007-05-21,117400.0
FPT,2007-05-22,117400.0
FPT,2007-05-23,116800.0
FPT,2007-05-24,113600.0
FPT,2007-05-25,113000.0
FPT,2007-05-28,112700.0
FPT,2007-05-29,109500.0
FPT,2007-05-30,110400.0
FPT,2007-05-31,110100.0
FPT,2007-06-01,108900.0
FPT,2007-06-04,107300.0
FPT,2007-06-05,101900.0
FPT,2007-06-06,104100.0
FPT,2007-06-07,106700.0
FPT,2007-06-08,104100.0
FPT,2007-06-11,101000.0
FPT,2007-06-12,100700.0
FPT,2007-06-13,96600.0
FPT,2007-06-14,96200.0
FPT,2007-06-15,97800.0
FPT,2007-06-18,96600.0
FPT,2007-06-19,96600.0
FPT,2007-06-20,96600.0
FPT,2007-06-21,94700.0
FPT,2007-06-22,93100.0
FPT,2007-06-25,97500.0
FPT,2007-06-26,102200.0
FPT,2007-06-27,98100.0
FPT,2007-06-28,97200.0
FPT,2007-06-29,96900.0
FPT,2007-07-02,95300.0
FPT,2007-07-03,95600.0
FPT,2007-07-04,98500.0
FPT,2007-07-05,97800.0
FPT,2007-07-06,97200.0
FPT,2007-07-09,97200.0
FPT,2007-07-10,97200.0
FPT,2007-07-11,97200.0
FPT,2007-07-12,96600.0
FPT,2007-07-13,94300.0
FPT,2007-07-16,91500.0
FPT,2007-07-17,91500.0
FPT,2007-07-18,90900.0
FPT,2007-07-19,89900.0
FPT,2007-07-20,89300.0
FPT,2007-07-23,85800.0
FPT,2007-07-24,84400.0
FPT,2007-07-25,80600.0
FPT,2007-07-26,79100.0
FPT,2007-07-27,79100.0
FPT,2007-07-30,80000.0
FPT,2007-07-31,77500.0
FPT,2007-08-01,75900.0
FPT,2007-08-02,72100.0
FPT,2007-08-03,68600.0
FPT,2007-08-06,68900.0
FPT,2007-08-07,72100.0
FPT,2007-08-08,75600.0
FPT,2007-08-09,79100.0
FPT,2007-08-10,75900.0
FPT,2007-08-13,73100.0
FPT,2007-08-14,74300.0
FPT,2007-08-15,72700.0
FPT,2007-08-16,70500.0
FPT,2007-08-17,69600.0
FPT,2007-08-20,71200.0
FPT,2007-08-21,71800.0
FPT,2007-08-22,72400.0
FPT,2007-08-23,71200.0
FPT,2007-08-24,72700.0
FPT,2007-08-27,71500.0
FPT,2007-08-28,71500.0
FPT,2007-08-29,71500.0
FPT,2007-08-30,71200.0
FPT,2007-08-31,71200.0
FPT,2007-09-04,72400.0
FPT,2007-09-05,71200.0
FPT,2007-09-06,71200.0
FPT,2007-09-07,71200.0
FPT,2007-09-10,70500.0
FPT,2007-09-11,70500.0
FPT,2007-09-12,70500.0
FPT,2007-09-13,70500.0
FPT,2007-09-14,71200.0
FPT,2007-09-17,70800.0
FPT,2007-09-18,70200.0
FPT,2007-09-19,70500.0
FPT,2007-09-20,71200.0
FPT,2007-09-21,72100.0
FPT,2007-09-24,75600.0
FPT,2007-09-25,79100.0
FPT,2007-09-26,79100.0
FPT,2007-09-27,82200.0
FPT,2007-09-28,86300.0
FPT,2007-10-01,90400.0
FPT,2007-10-02,93600.0
FPT,2007-10-03,95200.0
FPT,2007-10-04,93300.0
FPT,2007-10-05,88900.0
FPT,2007-10-08,87300.0
FPT,2007-10-09,91400.0
FPT,2007-10-10,91400.0
FPT,2007-10-11,89500.0
FPT,2007-10-12,90100.0
FPT,2007-10-15,89200.0
FPT,2007-10-16,88500.0
FPT,2007-10-17,89800.0
FPT,2007-10-18,88500.0
FPT,2007-10-19,87600.0
FPT,2007-10-22,86600.0
FPT,2007-10-23,86300.0
FPT,2007-10-24,89200.0
FPT,2007-10-25,88200.0
FPT,2007-10-26,87600.0
FPT,2007-10-29,86300.0
FPT,2007-10-30,86000.0
FPT,2007-10-31,86600.0
FPT,2007-11-01,86000.0
FPT,2007-11-02,84100.0
FPT,2007-11-05,81900.0
FPT,2007-11-06,78700.0
FPT,2007-11-07,77700.0
FPT,2007-11-08,78700.0
FPT,2007-11-09,79900.0
FPT,2007-11-12,79900.0
FPT,2007-11-13,76400.0
FPT,2007-11-14,79900.0
FPT,2007-11-15,78400.0
FPT,2007-11-16,79300.0
FPT,2007-11-19,79300.0
FPT,2007-11-20,78400.0
FPT,2007-11-21,76400.0
FPT,2007-11-22,78400.0
FPT,2007-11-23,78700.0
FPT,2007-11-26,78700.0
FPT,2007-11-27,77400.0
FPT,2007-11-28,76800.0
FPT,2007-11-29,76100.0
FPT,2007-11-30,75800.0
FPT,2007-12-03,76100.0
FPT,2007-12-04,75200.0
FPT,2007-12-05,73900.0
FPT,2007-12-06,73300.0
FPT,2007-12-07,73900.0
FPT,2007-12-10,72600.0
FPT,2007-12-11,72000.0
FPT,2007-12-12,72300.0
FPT,2007-12-13,71300.0
FPT,2007-12-14,70700.0
FPT,2007-12-17,70400.0
FPT,2007-12-18,71300.0
FPT,2007-12-19,73300.0
FPT,2007-12-20,71700.0
FPT,2007-12-21,71700.0
FPT,2007-12-24,71000.0
FPT,2007-12-25,70700.0
FPT,2007-12-26,71000.0
FPT,2007-12-27,70700.0
FPT,2007-12-28,71000.0
FPT,2008-01-02,69800.0
FPT,2008-01-03,68500.0
FPT,2008-01-04,67500.0
FPT,2008-01-07,65600.0
FPT,2008-01-08,66300.0
FPT,2008-01-09,64300.0
FPT,2008-01-10,61200.0
FPT,2008-01-11,62700.0
FPT,2008-01-14,61500.0
FPT,2008-01-15,60200.0
FPT,2008-01-16,63100.0
FPT,2008-01-17,63400.0
FPT,2008-01-18,64300.0
FPT,2008-01-21,61200.0
FPT,2008-01-22,58300.0
FPT,2008-01-23,55400.0
FPT,2008-01-24,54100.0
FPT,2008-01-25,56700.0
FPT,2008-01-28,58000.0
FPT,2008-01-29,60800.0
FPT,2008-01-30,63700.0
FPT,2008-01-31,62700.0
FPT,2008-02-01,63100.0
FPT,2008-02-12,61500.0
FPT,2008-02-13,58600.0
FPT,2008-02-14,58900.0
FPT,2008-02-15,58600.0
FPT,2008-02-18,56100.0
FPT,2008-02-19,55700.0
FPT,2008-02-20,53200.0
FPT,2008-02-21,50600.0
FPT,2008-02-22,48400.0
FPT,2008-02-25,50600.0
FPT,2008-02-26,48400.0
FPT,2008-02-27,48100.0
FPT,2008-02-28,47100.0
FPT,2008-02-29,44900.0
FPT,2008-03-03,42700.0
FPT,2008-03-04,40800.0
FPT,2008-03-05,38900.0
FPT,2008-03-06,40800.0
FPT,2008-03-07,42700.0
FPT,2008-03-10,44600.0
FPT,2008-03-11,42700.0
FPT,2008-03-12,43600.0
FPT,2008-03-13,43600.0
FPT,2008-03-14,43600.0
FPT,2008-03-17,41700.0
FPT,2008-03-18,39800.0
FPT,2008-03-19,37900.0
FPT,2008-03-20,36300.0
FPT,2008-03-21,34700.0
FPT,2008-03-24,33100.0
FPT,2008-03-25,31500.0
FPT,2008-03-26,30100.0
FPT,2008-03-27,30300.0
FPT,2008-03-28,30400.0
FPT,2008-03-31,30600.0
FPT,2008-04-01,30700.0
FPT,2008-04-02,30900.0
FPT,2008-04-03,31100.0
FPT,2008-04-04,31200.0
FPT,2008-04-07,31700.0
FPT,2008-04-08,31400.0
FPT,2008-04-09,31100.0
FPT,2008-04-10,30600.0
FPT,2008-04-11,30100.0
FPT,2008-04-16,29600.0
FPT,2008-04-17,29900.0
FPT,2008-04-18,29500.0
FPT,2008-04-21,29000.0
FPT,2008-04-22,28500.0
FPT,2008-04-23,28000.0
FPT,2008-04-24,27500.0
FPT,2008-04-25,27000.0
FPT,2008-04-28,26600.0
FPT,2008-04-29,26100.0
FPT,2008-05-05,25600.0
FPT,2008-05-06,25100.0
FPT,2008-05-07,24600.0
FPT,2008-05-08,24100.0
FPT,2008-05-09,23700.0
FPT,2008-05-12,23300.0
FPT,2008-05-13,23000.0
FPT,2008-05-14,22700.0
FPT,2008-05-15,22400.0
FPT,2008-05-16,22100.0
FPT,2008-05-19,21700.0
FPT,2008-05-20,21400.0
FPT,2008-05-21,21100.0
FPT,2008-05-22,20800.0
FPT,2008-05-23,20400.0
FPT,2008-05-26,20100.0
FPT,2008-05-30,19800.0
FPT,2008-06-02,19500.0
FPT,2008-06-03,19200.0
FPT,2008-06-04,18800.0
FPT,2008-06-05,18500.0
FPT,2008-06-06,18200.0
FPT,2008-06-09,17900.0
FPT,2008-06-10,17500.0
FPT,2008-06-11,17200.0
FPT,2008-06-12,16900.0
FPT,2008-06-13,16600.0
FPT,2008-06-16,16900.0
FPT,2008-06-17,17200.0
FPT,2008-06-18,16900.0
FPT,2008-06-19,16400.0
FPT,2008-06-20,15900.0
FPT,2008-06-23,15500.0
FPT,2008-06-24,15900.0
FPT,2008-06-25,16300.0
FPT,2008-06-26,15900.0
FPT,2008-06-27,16100.0
FPT,2008-06-30,16100.0
FPT,2008-07-01,16600.0
FPT,2008-07-02,17100.0
FPT,2008-07-03,17500.0
FPT,2008-07-04,18000.0
FPT,2008-07-07,17500.0
FPT,2008-07-08,18000.0
FPT,2008-07-09,18500.0
FPT,2008-07-10,19000.0
FPT,2008-07-11,19500.0
FPT,2008-07-14,20000.0
FPT,2008-07-15,20400.0
FPT,2008-07-16,20900.0
FPT,2008-07-17,21400.0
FPT,2008-07-18,21900.0
FPT,2008-07-21,21300.0
FPT,2008-07-22,20800.0
FPT,2008-07-23,20300.0
FPT,2008-07-24,19800.0
FPT,2008-07-25,20000.0
FPT,2008-07-28,20500.0
FPT,2008-07-29,20900.0
FPT,2008-07-30,21400.0
FPT,2008-07-31,21900.0
FPT,2008-08-01,22600.0
FPT,2008-08-04,21900.0
FPT,2008-08-05,21300.0
FPT,2008-08-06,21800.0
FPT,2008-08-07,22300.0
FPT,2008-08-08,22900.0
FPT,2008-08-11,23600.0
FPT,2008-08-12,24200.0
FPT,2008-08-13,24900.0
FPT,2008-08-14,25500.0
FPT,2008-08-15,26200.0
FPT,2008-08-18,27500.0
FPT,2008-08-19,28800.0
FPT,2008-08-20,30100.0
FPT,2008-08-21,31600.0
FPT,2008-08-22,33100.0
FPT,2008-08-25,34700.0
FPT,2008-08-26,36300.0
FPT,2008-08-27,38000.0
FPT,2008-08-28,39600.0
FPT,2008-08-29,39600.0
FPT,2008-09-03,41600.0
FPT,2008-09-04,43500.0
FPT,2008-09-05,41600.0
FPT,2008-09-08,39600.0
FPT,2008-09-09,37600.0
FPT,2008-09-10,36000.0
FPT,2008-09-11,34400.0
FPT,2008-09-12,32700.0
FPT,2008-09-15,31300.0
FPT,2008-09-16,29800.0
FPT,2008-09-17,28300.0
FPT,2008-09-18,27000.0
FPT,2008-09-19,28300.0
FPT,2008-09-22,29600.0
FPT,2008-09-23,30800.0
FPT,2008-09-24,29600.0
FPT,2008-09-25,31100.0
FPT,2008-09-26,32600.0
FPT,2008-09-29,31400.0
FPT,2008-09-30,29900.0
FPT,2008-10-01,30400.0
FPT,2008-10-02,31100.0
FPT,2008-10-03,29900.0
FPT,2008-10-06,28500.0
FPT,2008-10-07,27200.0
FPT,2008-10-08,25900.0
FPT,2008-10-09,24700.0
FPT,2008-10-10,23600.0
FPT,2008-10-13,22400.0
FPT,2008-10-14,23400.0
FPT,2008-10-15,24500.0
FPT,2008-10-16,24900.0
FPT,2008-10-17,25500.0
FPT,2008-10-20,24400.0
FPT,2008-10-21,25500.0
FPT,2008-10-22,25000.0
FPT,2008-10-23,23900.0
FPT,2008-10-24,22700.0
FPT,2008-10-27,21800.0
FPT,2008-10-28,21300.0
FPT,2008-10-29,22300.0
FPT,2008-10-30,23200.0
FPT,2008-10-31,24400.0
FPT,2008-11-03,25500.0
FPT,2008-11-04,26700.0
FPT,2008-11-05,28000.0
FPT,2008-11-06,29100.0
FPT,2008-11-07,30500.0
FPT,2008-11-10,32000.0
FPT,2008-11-11,30500.0
FPT,2008-11-12,29000.0
FPT,2008-11-13,28700.0
FPT,2008-11-14,30000.0
FPT,2008-11-17,29000.0
FPT,2008-11-18,28200.0
FPT,2008-11-19,27500.0
FPT,2008-11-20,26200.0
FPT,2008-11-21,25200.0
FPT,2008-11-24,26200.0
FPT,2008-11-25,26700.0
FPT,2008-11-26,25500.0
FPT,2008-11-27,24200.0
FPT,2008-11-28,25200.0
FPT,2008-12-01,26200.0
FPT,2008-12-02,25000.0
FPT,2008-12-03,25200.0
FPT,2008-12-04,25200.0
FPT,2008-12-05,24400.0
FPT,2008-12-08,23200.0
FPT,2008-12-09,24300.0
FPT,2008-12-10,23600.0
FPT,2008-12-11,24100.0
FPT,2008-12-12,25200.0
FPT,2008-12-15,26500.0
FPT,2008-12-16,25200.0
FPT,2008-12-17,26200.0
FPT,2008-12-18,26200.0
FPT,2008-12-19,26200.0
FPT,2008-12-22,25700.0
FPT,2008-12-23,24800.0
FPT,2008-12-24,24500.0
FPT,2008-12-25,24500.0
FPT,2008-12-26,24300.0
FPT,2008-12-29,24300.0
FPT,2008-12-30,25200.0
FPT,2008-12-31,25000.0
FPT,2009-01-02,25000.0
FPT,2009-01-05,25000.0
FPT,2009-01-06,25700.0
FPT,2009-01-07,26500.0
FPT,2009-01-08,25700.0
FPT,2009-01-09,25200.0
FPT,2009-01-12,25200.0
FPT,2009-01-13,24900.0
FPT,2009-01-14,25500.0
FPT,2009-01-15,25000.0
FPT,2009-01-16,25200.0
FPT,2009-01-19,25200.0
FPT,2009-01-20,24900.0
FPT,2009-01-21,24800.0
FPT,2009-01-22,25200.0
FPT,2009-01-23,25200.0
FPT,2009-02-02,24200.0
FPT,2009-02-03,23300.0
FPT,2009-02-04,23700.0
FPT,2009-02-05,23200.0
FPT,2009-02-06,23700.0
FPT,2009-02-09,24600.0
FPT,2009-02-10,24000.0
FPT,2009-02-11,23500.0
FPT,2009-02-12,23500.0
FPT,2009-02-13,23300.0
FPT,2009-02-16,22600.0
FPT,2009-02-17,21500.0
FPT,2009-02-18,21000.0
FPT,2009-02-19,21000.0
FPT,2009-02-20,20800.0
FPT,2009-02-23,19800.0
FPT,2009-02-24,18800.0
FPT,2009-02-25,19700.0
FPT,2009-02-26,20500.0
FPT,2009-02-27,21400.0
FPT,2009-03-02,21800.0
FPT,2009-03-03,20700.0
FPT,2009-03-04,20900.0
FPT,2009-03-05,21500.0
FPT,2009-03-06,21600.0
FPT,2009-03-09,22000.0
FPT,2009-03-10,22200.0
FPT,2009-03-11,22500.0
FPT,2009-03-12,21700.0
FPT,2009-03-13,21700.0
FPT,2009-03-16,22000.0
FPT,2009-03-17,22800.0
FPT,2009-03-18,23900.0
FPT,2009-03-19,22700.0
FPT,2009-03-20,22700.0
FPT,2009-03-23,22000.0
FPT,2009-03-24,23100.0
FPT,2009-03-25,24200.0
FPT,2009-03-26,24900.0
FPT,2009-03-27,24000.0
FPT,2009-03-30,22800.0
FPT,2009-03-31,22400.0
FPT,2009-04-01,23500.0
FPT,2009-04-02,24700.0
FPT,2009-04-03,25700.0
FPT,2009-04-07,27000.0
FPT,2009-04-08,26000.0
FPT,2009-04-09,26000.0
FPT,2009-04-10,27200.0
FPT,2009-04-13,28500.0
FPT,2009-04-14,29700.0
FPT,2009-04-15,28700.0
FPT,2009-04-16,29000.0
FPT,2009-04-17,27700.0
FPT,2009-04-20,26500.0
FPT,2009-04-21,25700.0
FPT,2009-04-22,27000.0
FPT,2009-04-23,26700.0
FPT,2009-04-24,27000.0
FPT,2009-04-27,27500.0
FPT,2009-04-28,27500.0
FPT,2009-04-29,27700.0
FPT,2009-05-04,29000.0
FPT,2009-05-05,30200.0
FPT,2009-05-06,30200.0
FPT,2009-05-07,31700.0
FPT,2009-05-08,32000.0
FPT,2009-05-11,33000.0
FPT,2009-05-12,34000.0
FPT,2009-05-13,32500.0
FPT,2009-05-14,31700.0
FPT,2009-05-15,33200.0
FPT,2009-05-18,33200.0
FPT,2009-05-19,33500.0
FPT,2009-05-20,33500.0
FPT,2009-05-21,32700.0
FPT,2009-05-22,31700.0
FPT,2009-05-25,33200.0
FPT,2009-05-26,33500.0
FPT,2009-05-27,33500.0
FPT,2009-05-28,33000.0
FPT,2009-05-29,33000.0
FPT,2009-06-01,34200.0
FPT,2009-06-02,35000.0
FPT,2009-06-03,35000.0
FPT,2009-06-04,35800.0
FPT,2009-06-05,37500.0
FPT,2009-06-08,39300.0
FPT,2009-06-09,39000.0
FPT,2009-06-10,37300.0
FPT,2009-06-11,37300.0
FPT,2009-06-12,35800.0
FPT,2009-06-15,34500.0
FPT,2009-06-16,33200.0
FPT,2009-06-17,34700.0
FPT,2009-06-18,36300.0
FPT,2009-06-19,38000.0
FPT,2009-06-22,36300.0
FPT,2009-06-23,34700.0
FPT,2009-06-24,36300.0
FPT,2009-06-25,36500.0
FPT,2009-06-26,37300.0
FPT,2009-06-29,37000.0
FPT,2009-06-30,35500.0
FPT,2009-07-01,34000.0
FPT,2009-07-02,35200.0
FPT,2009-07-03,35800.0
FPT,2009-07-06,37300.0
FPT,2009-07-07,36800.0
FPT,2009-07-08,36500.0
FPT,2009-07-09,36000.0
FPT,2009-07-10,36000.0
FPT,2009-07-13,36000.0
FPT,2009-07-14,35500.0
FPT,2009-07-15,36300.0
FPT,2009-07-16,36500.0
FPT,2009-07-17,36500.0
FPT,2009-07-20,35800.0
FPT,2009-07-21,36500.0
FPT,2009-07-22,36500.0
FPT,2009-07-23,37000.0
FPT,2009-07-24,38800.0
FPT,2009-07-27,39000.0
FPT,2009-07-28,38000.0
FPT,2009-07-29,38000.0
FPT,2009-07-30,38000.0
FPT,2009-07-31,38800.0
FPT,2009-08-03,38800.0
FPT,2009-08-04,39300.0
FPT,2009-08-05,39300.0
FPT,2009-08-06,39600.0
FPT,2009-08-07,39600.0
FPT,2009-08-10,40300.0
FPT,2009-08-11,40300.0
FPT,2009-08-12,40600.0
FPT,2009-08-13,40800.0
FPT,2009-08-14,40600.0
FPT,2009-08-17,40300.0
FPT,2009-08-18,40100.0
FPT,2009-08-19,40600.0
FPT,2009-08-20,40800.0
FPT,2009-08-21,41800.0
FPT,2009-08-24,43900.0
FPT,2009-08-25,44100.0
FPT,2009-08-26,43600.0
FPT,2009-08-27,43600.0
FPT,2009-08-28,44100.0
FPT,2009-08-31,45100.0
FPT,2009-09-01,44400.0
FPT,2009-09-03,43400.0
FPT,2009-09-04,42600.0
FPT,2009-09-08,42100.0
FPT,2009-09-09,42600.0
FPT,2009-09-10,42900.0
FPT,2009-09-11,42600.0
FPT,2009-09-14,44600.0
FPT,2009-09-15,45600.0
FPT,2009-09-16,44100.0
FPT,2009-09-17,45600.0
FPT,2009-09-18,45600.0
FPT,2009-09-21,45600.0
FPT,2009-09-22,45100.0
FPT,2009-09-23,44600.0
FPT,2009-09-24,44100.0
FPT,2009-09-25,44100.0
FPT,2009-09-28,44100.0
FPT,2009-09-29,43900.0
FPT,2009-09-30,43900.0
FPT,2009-10-01,43100.0
FPT,2009-10-02,41800.0
FPT,2009-10-05,41800.0
FPT,2009-10-06,42100.0
FPT,2009-10-07,43900.0
FPT,2009-10-08,43900.0
FPT,2009-10-09,43900.0
FPT,2009-10-12,44400.0
FPT,2009-10-13,44400.0
FPT,2009-10-14,45100.0
FPT,2009-10-15,47200.0
FPT,2009-10-16,46400.0
FPT,2009-10-19,45100.0
FPT,2009-10-20,45900.0
FPT,2009-10-21,45100.0
FPT,2009-10-22,45900.0
FPT,2009-10-23,45400.0
FPT,2009-10-26,45100.0
FPT,2009-10-27,44600.0
FPT,2009-10-28,44400.0
FPT,2009-10-29,43100.0
FPT,2009-10-30,43600.0
FPT,2009-11-02,41600.0
FPT,2009-11-03,41100.0
FPT,2009-11-04,41600.0
FPT,2009-11-05,42900.0
FPT,2009-11-06,41600.0
FPT,2009-11-09,41300.0
FPT,2009-11-10,40600.0
FPT,2009-11-11,41600.0
FPT,2009-11-12,42600.0
FPT,2009-11-13,42600.0
FPT,2009-11-16,41600.0
FPT,2009-11-17,41800.0
FPT,2009-11-18,42100.0
FPT,2009-11-19,42600.0
FPT,2009-11-20,42600.0
FPT,2009-11-23,41600.0
FPT,2009-11-24,40600.0
FPT,2009-11-25,38500.0
FPT,2009-11-26,36800.0
FPT,2009-11-27,38500.0
FPT,2009-11-30,40300.0
FPT,2009-12-01,40300.0
FPT,2009-12-02,39600.0
FPT,2009-12-03,38500.0
FPT,2009-12-04,38500.0
FPT,2009-12-07,39300.0
FPT,2009-12-08,38800.0
FPT,2009-12-09,37300.0
FPT,2009-12-10,37000.0
FPT,2009-12-11,36500.0
FPT,2009-12-14,38300.0
FPT,2009-12-15,38600.0
FPT,2009-12-16,37300.0
FPT,2009-12-17,36300.0
FPT,2009-12-18,34700.0
FPT,2009-12-21,36300.0
FPT,2009-12-22,38100.0
FPT,2009-12-23,39900.0
FPT,2009-12-24,40900.0
FPT,2009-12-25,42000.0
FPT,2009-12-28,40900.0
FPT,2009-12-29,39900.0
FPT,2009-12-30,40400.0
FPT,2009-12-31,40900.0
FPT,2010-01-04,42700.0
FPT,2010-01-05,42700.0
FPT,2010-01-06,42000.0
FPT,2010-01-07,41700.0
FPT,2010-01-08,40400.0
FPT,2010-01-11,40100.0
FPT,2010-01-12,39400.0
FPT,2010-01-13,40700.0
FPT,2010-01-14,40900.0
FPT,2010-01-15,40100.0
FPT,2010-01-18,39400.0
FPT,2010-01-19,40100.0
FPT,2010-01-20,40900.0
FPT,2010-01-21,40400.0
FPT,2010-01-22,40400.0
FPT,2010-01-25,40700.0
FPT,2010-01-26,42000.0
FPT,2010-01-27,40400.0
FPT,2010-01-28,40400.0
FPT,2010-01-29,39900.0
FPT,2010-02-01,40400.0
FPT,2010-02-02,42000.0
FPT,2010-02-03,43800.0
FPT,2010-02-04,43800.0
FPT,2010-02-05,42000.0
FPT,2010-02-08,43000.0
FPT,2010-02-09,41200.0
FPT,2010-02-10,42500.0
FPT,2010-02-11,43200.0
FPT,2010-02-12,43500.0
FPT,2010-02-22,43200.0
FPT,2010-02-23,41700.0
FPT,2010-02-24,41700.0
FPT,2010-02-25,41700.0
FPT,2010-02-26,40400.0
FPT,2010-03-01,41400.0
FPT,2010-03-02,41400.0
FPT,2010-03-03,42000.0
FPT,2010-03-04,42700.0
FPT,2010-03-05,42500.0
FPT,2010-03-08,42700.0
FPT,2010-03-09,43500.0
FPT,2010-03-10,45600.0
FPT,2010-03-11,46100.0
FPT,2010-03-12,46100.0
FPT,2010-03-15,45600.0
FPT,2010-03-16,43500.0
FPT,2010-03-17,43800.0
FPT,2010-03-18,44800.0
FPT,2010-03-19,44500.0
FPT,2010-03-22,43500.0
FPT,2010-03-23,43000.0
FPT,2010-03-24,44000.0
FPT,2010-03-25,43200.0
FPT,2010-03-26,43000.0
FPT,2010-03-29,43800.0
FPT,2010-03-30,43200.0
FPT,2010-03-31,43200.0
FPT,2010-04-01,44000.0
FPT,2010-04-02,44500.0
FPT,2010-04-05,44500.0
FPT,2010-04-06,44500.0
FPT,2010-04-07,44800.0
FPT,2010-04-08,44500.0
FPT,2010-04-09,44500.0
FPT,2010-04-12,45100.0
FPT,2010-04-13,45100.0
FPT,2010-04-14,45300.0
FPT,2010-04-15,45300.0
FPT,2010-04-16,45100.0
FPT,2010-04-19,44500.0
FPT,2010-04-20,44500.0
FPT,2010-04-21,44500.0
FPT,2010-04-22,45600.0
FPT,2010-04-26,45800.0
FPT,2010-04-27,45800.0
FPT,2010-04-28,45800.0
FPT,2010-04-29,45600.0
FPT,2010-05-04,45800.0
FPT,2010-05-05,46100.0
FPT,2010-05-06,45300.0
FPT,2010-05-07,44800.0
FPT,2010-05-10,44300.0
FPT,2010-05-11,44200.0
FPT,2010-05-12,43200.0
FPT,2010-05-13,43900.0
FPT,2010-05-14,43900.0
FPT,2010-05-17,42100.0
FPT,2010-05-18,42100.0
FPT,2010-05-19,41100.0
FPT,2010-05-20,42500.0
FPT,2010-05-21,40700.0
FPT,2010-05-24,42500.0
FPT,2010-05-25,44500.0
FPT,2010-05-26,44500.0
FPT,2010-05-27,45200.0
FPT,2010-05-28,45600.0
FPT,2010-05-31,44900.0
FPT,2010-06-01,45600.0
FPT,2010-06-02,45600.0
FPT,2010-06-03,45900.0
FPT,2010-06-04,46300.0
FPT,2010-06-07,44500.0
FPT,2010-06-08,44900.0
FPT,2010-06-09,45600.0
FPT,2010-06-10,45900.0
FPT,2010-06-11,46300.0
FPT,2010-06-14,47300.0
FPT,2010-06-15,45900.0
FPT,2010-06-16,46600.0
FPT,2010-06-17,47300.0
FPT,2010-06-18,46600.0
FPT,2010-06-21,47600.0
FPT,2010-06-22,48300.0
FPT,2010-06-23,46600.0
FPT,2010-06-24,48000.0
FPT,2010-06-25,47300.0
FPT,2010-06-28,47000.0
FPT,2010-06-29,48000.0
FPT,2010-06-30,47600.0
FPT,2010-07-01,48300.0
FPT,2010-07-02,47000.0
FPT,2010-07-05,47300.0
FPT,2010-07-06,47000.0
FPT,2010-07-07,46600.0
FPT,2010-07-08,48000.0
FPT,2010-07-09,47600.0
FPT,2010-07-12,47300.0
FPT,2010-07-13,48000.0
FPT,2010-07-14,47300.0
FPT,2010-07-15,48000.0
FPT,2010-07-16,48000.0
FPT,2010-07-19,48300.0
FPT,2010-07-20,48300.0
FPT,2010-07-21,48000.0
FPT,2010-07-22,48300.0
FPT,2010-07-23,48700.0
FPT,2010-07-26,48000.0
FPT,2010-07-27,50100.0
FPT,2010-07-28,49000.0
FPT,2010-07-29,51400.0
FPT,2010-07-30,53200.0
FPT,2010-08-02,52800.0
FPT,2010-08-03,53900.0
FPT,2010-08-04,52100.0
FPT,2010-08-05,54600.0
FPT,2010-08-06,53200.0
FPT,2010-08-09,51800.0
FPT,2010-08-10,51100.0
FPT,2010-08-11,51800.0
FPT,2010-08-12,49700.0
FPT,2010-08-13,49700.0
FPT,2010-08-16,51500.0
FPT,2010-08-17,52500.0
FPT,2010-08-18,50800.0
FPT,2010-08-19,50400.0
FPT,2010-08-20,52500.0
FPT,2010-08-23,51100.0
FPT,2010-08-24,49000.0
FPT,2010-08-25,48700.0
FPT,2010-08-26,49000.0
FPT,2010-08-27,49000.0
FPT,2010-08-30,50400.0
FPT,2010-08-31,52500.0
FPT,2010-09-01,52200.0
FPT,2010-09-06,51800.0
FPT,2010-09-07,51100.0
FPT,2010-09-08,50800.0
FPT,2010-09-09,51500.0
FPT,2010-09-10,50800.0
FPT,2010-09-13,51100.0
FPT,2010-09-14,51100.0
FPT,2010-09-15,51100.0
FPT,2010-09-16,50400.0
FPT,2010-09-17,51500.0
FPT,2010-09-20,51100.0
FPT,2010-09-21,50400.0
FPT,2010-09-22,50100.0
FPT,2010-09-23,50100.0
FPT,2010-09-24,49400.0
FPT,2010-09-27,49000.0
FPT,2010-09-28,49700.0
FPT,2010-09-29,49400.0
FPT,2010-09-30,49700.0
FPT,2010-10-01,49700.0
FPT,2010-10-04,49700.0
FPT,2010-10-05,50400.0
FPT,2010-10-06,50800.0
FPT,2010-10-07,51500.0
FPT,2010-10-08,51100.0
FPT,2010-10-11,50400.0
FPT,2010-10-12,50100.0
FPT,2010-10-13,50800.0
FPT,2010-10-14,51100.0
FPT,2010-10-15,50100.0
FPT,2010-10-18,50100.0
FPT,2010-10-19,50100.0
FPT,2010-10-20,49400.0
FPT,2010-10-21,48700.0
FPT,2010-10-22,48700.0
FPT,2010-10-25,48700.0
FPT,2010-10-26,50100.0
FPT,2010-10-27,50800.0
FPT,2010-10-28,51500.0
FPT,2010-10-29,53600.0
FPT,2010-11-01,52200.0
FPT,2010-11-02,51100.0
FPT,2010-11-03,51100.0
FPT,2010-11-04,51500.0
FPT,2010-11-05,53200.0
FPT,2010-11-08,50800.0
FPT,2010-11-09,51100.0
FPT,2010-11-10,51800.0
FPT,2010-11-11,50800.0
FPT,2010-11-12,50400.0
FPT,2010-11-15,49000.0
FPT,2010-11-16,48700.0
FPT,2010-11-17,48000.0
FPT,2010-11-18,48300.0
FPT,2010-11-19,47600.0
FPT,2010-11-22,48300.0
FPT,2010-11-23,49000.0
FPT,2010-11-24,49700.0
FPT,2010-11-25,49000.0
FPT,2010-11-26,48000.0
FPT,2010-11-29,49400.0
FPT,2010-11-30,49000.0
FPT,2010-12-01,48000.0
FPT,2010-12-02,48300.0
FPT,2010-12-03,48300.0
FPT,2010-12-06,48000.0
FPT,2010-12-07,47300.0
FPT,2010-12-08,46900.0
FPT,2010-12-09,47600.0
FPT,2010-12-10,48000.0
FPT,2010-12-13,48700.0
FPT,2010-12-14,48300.0
FPT,2010-12-15,47300.0
FPT,2010-12-16,45900.0
FPT,2010-12-17,46200.0
FPT,2010-12-20,46200.0
FPT,2010-12-21,45500.0
FPT,2010-12-22,45200.0
FPT,2010-12-23,45500.0
FPT,2010-12-24,45200.0
FPT,2010-12-27,45200.0
FPT,2010-12-28,45500.0
FPT,2010-12-29,45200.0
FPT,2010-12-30,44500.0
FPT,2010-12-31,45200.0
FPT,2011-01-04,44500.0
FPT,2011-01-05,43800.0
FPT,2011-01-06,43800.0
FPT,2011-01-07,43400.0
FPT,2011-01-10,43800.0
FPT,2011-01-11,43800.0
FPT,2011-01-12,42700.0
FPT,2011-01-13,42400.0
FPT,2011-01-14,44500.0
FPT,2011-01-17,45500.0
FPT,2011-01-18,45500.0
FPT,2011-01-19,45200.0
FPT,2011-01-20,44500.0
FPT,2011-01-21,44800.0
FPT,2011-01-24,44100.0
FPT,2011-01-25,43800.0
FPT,2011-01-26,43400.0
FPT,2011-01-27,45500.0
FPT,2011-01-28,44100.0
FPT,2011-02-08,44500.0
FPT,2011-02-09,44100.0
FPT,2011-02-10,43800.0
FPT,2011-02-11,43400.0
FPT,2011-02-14,43100.0
FPT,2011-02-15,43100.0
FPT,2011-02-16,42700.0
FPT,2011-02-17,42700.0
FPT,2011-02-18,40600.0
FPT,2011-02-21,38900.0
FPT,2011-02-22,37800.0
FPT,2011-02-23,37500.0
FPT,2011-02-24,37100.0
FPT,2011-02-25,38900.0
FPT,2011-02-28,37800.0
FPT,2011-03-01,38200.0
FPT,2011-03-02,37800.0
FPT,2011-03-03,37800.0
FPT,2011-03-04,37800.0
FPT,2011-03-07,37800.0
FPT,2011-03-08,38500.0
FPT,2011-03-09,37800.0
FPT,2011-03-10,38200.0
FPT,2011-03-11,37800.0
FPT,2011-03-14,37100.0
FPT,2011-03-15,36800.0
FPT,2011-03-16,36800.0
FPT,2011-03-17,36400.0
FPT,2011-03-18,37100.0
FPT,2011-03-21,37100.0
FPT,2011-03-22,37100.0
FPT,2011-03-23,37500.0
FPT,2011-03-24,37100.0
FPT,2011-03-25,36800.0
FPT,2011-03-28,36400.0
FPT,2011-03-29,36100.0
FPT,2011-03-30,35700.0
FPT,2011-03-31,35700.0
FPT,2011-04-01,34900.0
FPT,2011-04-04,36400.0
FPT,2011-04-05,38200.0
FPT,2011-04-06,39900.0
FPT,2011-04-07,40300.0
FPT,2011-04-08,40300.0
FPT,2011-04-13,38500.0
FPT,2011-04-14,37100.0
FPT,2011-04-15,37100.0
FPT,2011-04-18,36100.0
FPT,2011-04-19,35700.0
FPT,2011-04-20,35400.0
FPT,2011-04-21,35400.0
FPT,2011-04-22,34900.0
FPT,2011-04-25,36400.0
FPT,2011-04-26,35700.0
FPT,2011-04-27,35700.0
FPT,2011-04-28,35400.0
FPT,2011-04-29,35700.0
FPT,2011-05-04,36100.0
FPT,2011-05-05,36400.0
FPT,2011-05-06,36800.0
FPT,2011-05-09,37500.0
FPT,2011-05-10,37500.0
FPT,2011-05-11,37100.0
FPT,2011-05-12,37100.0
FPT,2011-05-13,37100.0
FPT,2011-05-16,36400.0
FPT,2011-05-17,36400.0
FPT,2011-05-18,36100.0
FPT,2011-05-19,36400.0
FPT,2011-05-20,35700.0
FPT,2011-05-23,33900.0
FPT,2011-05-24,32200.0
FPT,2011-05-25,30700.0
FPT,2011-05-26,32200.0
FPT,2011-05-27,32200.0
FPT,2011-05-30,32000.0
FPT,2011-05-31,32000.0
FPT,2011-06-01,33600.0
FPT,2011-06-02,35200.0
FPT,2011-06-03,35700.0
FPT,2011-06-06,35300.0
FPT,2011-06-07,36800.0
FPT,2011-06-08,36100.0
FPT,2011-06-09,36100.0
FPT,2011-06-10,35700.0
FPT,2011-06-13,35700.0
FPT,2011-06-14,35300.0
FPT,2011-06-15,35300.0
FPT,2011-06-16,35700.0
FPT,2011-06-17,35300.0
FPT,2011-06-20,35000.0
FPT,2011-06-21,35300.0
FPT,2011-06-22,35700.0
FPT,2011-06-23,35100.0
FPT,2011-06-24,35000.0
FPT,2011-06-27,34400.0
FPT,2011-06-28,34600.0
FPT,2011-06-29,34000.0
FPT,2011-06-30,33900.0
FPT,2011-07-01,32900.0
FPT,2011-07-04,32500.0
FPT,2011-07-05,32400.0
FPT,2011-07-06,33000.0
FPT,2011-07-07,32900.0
FPT,2011-07-08,34300.0
FPT,2011-07-11,34400.0
FPT,2011-07-12,34800.0
FPT,2011-07-13,35300.0
FPT,2011-07-14,35300.0
FPT,2011-07-15,34800.0
FPT,2011-07-18,34900.0
FPT,2011-07-19,35200.0
FPT,2011-07-20,36800.0
FPT,2011-07-21,36100.0
FPT,2011-07-22,36100.0
FPT,2011-07-25,36400.0
FPT,2011-07-26,37100.0
FPT,2011-07-27,38900.0
FPT,2011-07-28,40300.0
FPT,2011-07-29,40600.0
FPT,2011-08-01,39200.0
FPT,2011-08-02,37800.0
FPT,2011-08-03,38500.0
FPT,2011-08-04,39200.0
FPT,2011-08-05,38900.0
FPT,2011-08-08,37800.0
FPT,2011-08-09,36400.0
FPT,2011-08-10,37100.0
FPT,2011-08-11,38200.0
FPT,2011-08-12,38200.0
FPT,2011-08-15,38200.0
FPT,2011-08-16,38200.0
FPT,2011-08-17,38500.0
FPT,2011-08-18,38900.0
FPT,2011-08-19,38200.0
FPT,2011-08-22,38500.0
FPT,2011-08-23,38500.0
FPT,2011-08-24,38500.0
FPT,2011-08-25,38500.0
FPT,2011-08-26,38900.0
FPT,2011-08-29,39200.0
FPT,2011-08-30,39600.0
FPT,2011-08-31,39200.0
FPT,2011-09-01,39600.0
FPT,2011-09-05,39600.0
FPT,2011-09-06,39600.0
FPT,2011-09-07,39200.0
FPT,2011-09-08,39600.0
FPT,2011-09-09,38900.0
FPT,2011-09-12,37800.0
FPT,2011-09-13,37100.0
FPT,2011-09-14,35700.0
FPT,2011-09-15,37500.0
FPT,2011-09-16,36400.0
FPT,2011-09-19,38200.0
FPT,2011-09-20,37500.0
FPT,2011-09-21,37800.0
FPT,2011-09-22,37800.0
FPT,2011-09-23,37100.0
FPT,2011-09-26,36400.0
FPT,2011-09-27,36800.0
FPT,2011-09-28,37100.0
FPT,2011-09-29,37100.0
FPT,2011-09-30,37100.0
FPT,2011-10-03,36800.0
FPT,2011-10-04,36800.0
FPT,2011-10-05,36400.0
FPT,2011-10-06,36000.0
FPT,2011-10-07,35700.0
FPT,2011-10-10,35300.0
FPT,2011-10-11,35400.0
FPT,2011-10-12,35300.0
FPT,2011-10-13,35600.0
FPT,2011-10-14,36000.0
FPT,2011-10-17,35500.0
FPT,2011-10-18,35300.0
FPT,2011-10-19,35200.0
FPT,2011-10-20,35100.0
FPT,2011-10-21,35800.0
FPT,2011-10-24,34800.0
FPT,2011-10-25,34400.0
FPT,2011-10-26,35000.0
FPT,2011-10-27,35000.0
FPT,2011-10-28,36000.0
FPT,2011-10-31,35700.0
FPT,2011-11-01,35400.0
FPT,2011-11-02,35800.0
FPT,2011-11-03,35500.0
FPT,2011-11-04,36000.0
FPT,2011-11-07,35900.0
FPT,2011-11-08,35300.0
FPT,2011-11-09,35200.0
FPT,2011-11-10,35200.0
FPT,2011-11-11,35000.0
FPT,2011-11-14,34600.0
FPT,2011-11-15,34200.0
FPT,2011-11-16,34600.0
FPT,2011-11-17,34700.0
FPT,2011-11-18,34700.0
FPT,2011-11-21,34700.0
FPT,2011-11-22,35000.0
FPT,2011-11-23,35400.0
FPT,2011-11-24,35400.0
FPT,2011-11-25,35300.0
FPT,2011-11-28,35200.0
FPT,2011-11-29,35200.0
FPT,2011-11-30,35400.0
FPT,2011-12-01,35500.0
FPT,2011-12-02,35500.0
FPT,2011-12-05,36000.0
FPT,2011-12-06,36000.0
FPT,2011-12-07,36000.0
FPT,2011-12-08,35900.0
FPT,2011-12-09,35700.0
FPT,2011-12-12,35700.0
FPT,2011-12-13,35600.0
FPT,2011-12-14,35300.0
FPT,2011-12-15,35000.0
FPT,2011-12-16,35300.0
FPT,2011-12-19,35700.0
FPT,2011-12-20,35700.0
FPT,2011-12-21,35700.0
FPT,2011-12-22,35700.0
FPT,2011-12-23,35300.0
FPT,2011-12-26,35300.0
FPT,2011-12-27,35000.0
FPT,2011-12-28,35100.0
FPT,2011-12-29,35700.0
FPT,2011-12-30,35800.0
FPT,2012-01-03,35500.0
FPT,2012-01-04,35500.0
FPT,2012-01-05,34700.0
FPT,2012-01-06,35000.0
FPT,2012-01-09,35200.0
FPT,2012-01-10,35700.0
FPT,2012-01-11,35700.0
FPT,2012-01-12,35400.0
FPT,2012-01-13,36000.0
FPT,2012-01-16,36800.0
FPT,2012-01-17,35700.0
FPT,2012-01-18,35700.0
FPT,2012-01-19,35800.0
FPT,2012-01-20,35800.0
FPT,2012-01-30,36000.0
FPT,2012-01-31,35800.0
FPT,2012-02-01,36400.0
FPT,2012-02-02,36800.0
FPT,2012-02-03,36400.0
FPT,2012-02-06,36400.0
FPT,2012-02-07,36400.0
FPT,2012-02-08,37100.0
FPT,2012-02-09,37500.0
FPT,2012-02-10,37100.0
FPT,2012-02-13,36800.0
FPT,2012-02-14,36800.0
FPT,2012-02-15,36800.0
FPT,2012-02-16,37100.0
FPT,2012-02-17,37500.0
FPT,2012-02-20,38900.0
FPT,2012-02-21,38900.0
FPT,2012-02-22,39300.0
FPT,2012-02-23,39300.0
FPT,2012-02-24,39300.0
FPT,2012-02-27,39600.0
FPT,2012-02-28,39300.0
FPT,2012-02-29,39600.0
FPT,2012-03-01,39600.0
FPT,2012-03-02,40000.0
FPT,2012-03-05,41800.0
FPT,2012-03-06,40400.0
FPT,2012-03-07,41500.0
FPT,2012-03-08,40700.0
FPT,2012-03-09,40700.0
FPT,2012-03-12,40700.0
FPT,2012-03-13,41100.0
FPT,2012-03-14,41100.0
FPT,2012-03-15,42500.0
FPT,2012-03-16,42500.0
FPT,2012-03-19,42500.0
FPT,2012-03-20,42200.0
FPT,2012-03-21,42200.0
FPT,2012-03-22,41500.0
FPT,2012-03-23,41800.0
FPT,2012-03-26,41800.0
FPT,2012-03-27,41500.0
FPT,2012-03-28,41800.0
FPT,2012-03-29,41800.0
FPT,2012-03-30,41800.0
FPT,2012-04-03,41800.0
FPT,2012-04-04,41800.0
FPT,2012-04-05,42900.0
FPT,2012-04-06,42900.0
FPT,2012-04-09,43300.0
FPT,2012-04-10,43300.0
FPT,2012-04-11,45100.0
FPT,2012-04-12,45400.0
FPT,2012-04-13,44000.0
FPT,2012-04-16,44700.0
FPT,2012-04-17,45100.0
FPT,2012-04-18,44700.0
FPT,2012-04-19,42900.0
FPT,2012-04-20,42500.0
FPT,2012-04-23,42200.0
FPT,2012-04-24,43300.0
FPT,2012-04-25,43600.0
FPT,2012-04-26,42900.0
FPT,2012-04-27,42900.0
FPT,2012-05-02,44700.0
FPT,2012-05-03,46900.0
FPT,2012-05-04,47600.0
FPT,2012-05-07,48300.0
FPT,2012-05-08,47900.0
FPT,2012-05-09,47600.0
FPT,2012-05-10,47200.0
FPT,2012-05-11,46500.0
FPT,2012-05-14,46100.0
FPT,2012-05-15,45300.0
FPT,2012-05-16,45100.0
FPT,2012-05-17,45600.0
FPT,2012-05-18,44400.0
FPT,2012-05-21,46200.0
FPT,2012-05-22,45600.0
FPT,2012-05-23,44700.0
FPT,2012-05-24,44500.0
FPT,2012-05-25,45400.0
FPT,2012-05-28,45400.0
FPT,2012-05-29,45300.0
FPT,2012-05-30,45400.0
FPT,2012-05-31,45200.0
FPT,2012-06-01,45100.0
FPT,2012-06-04,44900.0
FPT,2012-06-05,44900.0
FPT,2012-06-06,45100.0
FPT,2012-06-07,45100.0
FPT,2012-06-08,44900.0
FPT,2012-06-11,44900.0
FPT,2012-06-12,44900.0
FPT,2012-06-13,44900.0
FPT,2012-06-14,44700.0
FPT,2012-06-15,44800.0
FPT,2012-06-18,44900.0
FPT,2012-06-19,44900.0
FPT,2012-06-20,45100.0
FPT,2012-06-21,45000.0
FPT,2012-06-22,44900.0
FPT,2012-06-25,44900.0
FPT,2012-06-26,44500.0
FPT,2012-06-27,44500.0
FPT,2012-06-28,43100.0
FPT,2012-06-29,43100.0
FPT,2012-07-02,43100.0
FPT,2012-07-03,43000.0
FPT,2012-07-04,43200.0
FPT,2012-07-05,43500.0
FPT,2012-07-06,43500.0
FPT,2012-07-09,43100.0
FPT,2012-07-10,43000.0
FPT,2012-07-11,43100.0
FPT,2012-07-12,43100.0
FPT,2012-07-13,43800.0
FPT,2012-07-16,43300.0
FPT,2012-07-17,43300.0
FPT,2012-07-18,43100.0
FPT,2012-07-19,43200.0
FPT,2012-07-20,43100.0
FPT,2012-07-23,43100.0
FPT,2012-07-24,45000.0
FPT,2012-07-25,43500.0
FPT,2012-07-26,43800.0
FPT,2012-07-27,43900.0
FPT,2012-07-30,44600.0
FPT,2012-07-31,43600.0
FPT,2012-08-01,43200.0
FPT,2012-08-02,43200.0
FPT,2012-08-03,43300.0
FPT,2012-08-06,43200.0
FPT,2012-08-07,43200.0
FPT,2012-08-08,43100.0
FPT,2012-08-09,42900.0
FPT,2012-08-10,41900.0
FPT,2012-08-13,42600.0
FPT,2012-08-14,42400.0
FPT,2012-08-15,42200.0
FPT,2012-08-16,41900.0
FPT,2012-08-17,41700.0
FPT,2012-08-20,42200.0
FPT,2012-08-21,40300.0
FPT,2012-08-22,40300.0
FPT,2012-08-23,38300.0
FPT,2012-08-24,38500.0
FPT,2012-08-27,36700.0
FPT,2012-08-28,35700.0
FPT,2012-08-29,35800.0
FPT,2012-08-30,35800.0
FPT,2012-08-31,37600.0
FPT,2012-09-04,39200.0
FPT,2012-09-05,38000.0
FPT,2012-09-06,36900.0
FPT,2012-09-07,36900.0
FPT,2012-09-10,36000.0
FPT,2012-09-11,36100.0
FPT,2012-09-12,36300.0
FPT,2012-09-13,36300.0
FPT,2012-09-14,36300.0
FPT,2012-09-17,36200.0
FPT,2012-09-18,35400.0
FPT,2012-09-19,34400.0
FPT,2012-09-20,34400.0
FPT,2012-09-21,34500.0
FPT,2012-09-24,34300.0
FPT,2012-09-25,34300.0
FPT,2012-09-26,34700.0
FPT,2012-09-27,35600.0
FPT,2012-09-28,35500.0
FPT,2012-10-01,34600.0
FPT,2012-10-02,34600.0
FPT,2012-10-03,34600.0
FPT,2012-10-04,34500.0
FPT,2012-10-05,34500.0
FPT,2012-10-08,34600.0
FPT,2012-10-09,34900.0
FPT,2012-10-10,35200.0
FPT,2012-10-11,35100.0
FPT,2012-10-12,34800.0
FPT,2012-10-15,34600.0
FPT,2012-10-16,34800.0
FPT,2012-10-17,34800.0
FPT,2012-10-18,34400.0
FPT,2012-10-19,34300.0
FPT,2012-10-22,34200.0
FPT,2012-10-23,34200.0
FPT,2012-10-24,34200.0
FPT,2012-10-25,34200.0
FPT,2012-10-26,34100.0
FPT,2012-10-29,34000.0
FPT,2012-10-30,33700.0
FPT,2012-10-31,33600.0
FPT,2012-11-01,33600.0
FPT,2012-11-02,32000.0
FPT,2012-11-05,31800.0
FPT,2012-11-06,31400.0
FPT,2012-11-07,31900.0
FPT,2012-11-08,31900.0
FPT,2012-11-09,31900.0
FPT,2012-11-12,32800.0
FPT,2012-11-13,32700.0
FPT,2012-11-14,32800.0
FPT,2012-11-15,32500.0
FPT,2012-11-16,32400.0
FPT,2012-11-19,31900.0
FPT,2012-11-20,31900.0
FPT,2012-11-21,31800.0
FPT,2012-11-22,31800.0
FPT,2012-11-23,31800.0
FPT,2012-11-26,31600.0
FPT,2012-11-27,31300.0
FPT,2012-11-28,30900.0
FPT,2012-11-29,30600.0
FPT,2012-11-30,30700.0
FPT,2012-12-03,30500.0
FPT,2012-12-04,30800.0
FPT,2012-12-05,31600.0
FPT,2012-12-06,31400.0
FPT,2012-12-07,31200.0
FPT,2012-12-10,31600.0
FPT,2012-12-11,31400.0
FPT,2012-12-12,31900.0
FPT,2012-12-13,32100.0
FPT,2012-12-14,31900.0
FPT,2012-12-17,31800.0
FPT,2012-12-18,31300.0
FPT,2012-12-19,32200.0
FPT,2012-12-20,31700.0
FPT,2012-12-21,31500.0
FPT,2012-12-24,32100.0
FPT,2012-12-25,32100.0
FPT,2012-12-26,33200.0
FPT,2012-12-27,34300.0
FPT,2012-12-28,34000.0
FPT,2013-01-02,35200.0
FPT,2013-01-03,34700.0
FPT,2013-01-04,35200.0
FPT,2013-01-07,35000.0
FPT,2013-01-08,36800.0
FPT,2013-01-09,37700.0
FPT,2013-01-10,38200.0
FPT,2013-01-11,37600.0
FPT,2013-01-14,36500.0
FPT,2013-01-15,36900.0
FPT,2013-01-16,37300.0
FPT,2013-01-17,36800.0
FPT,2013-01-18,36700.0
FPT,2013-01-21,36500.0
FPT,2013-01-22,35900.0
FPT,2013-01-23,35900.0
FPT,2013-01-24,36800.0
FPT,2013-01-25,38000.0
FPT,2013-01-28,38500.0
FPT,2013-01-29,38200.0
FPT,2013-01-30,39500.0
FPT,2013-01-31,38800.0
FPT,2013-02-01,38200.0
FPT,2013-02-04,38100.0
FPT,2013-02-05,37900.0
FPT,2013-02-06,38100.0
FPT,2013-02-07,38300.0
FPT,2013-02-08,38500.0
FPT,2013-02-18,38700.0
FPT,2013-02-19,38400.0
FPT,2013-02-20,38200.0
FPT,2013-02-21,37300.0
FPT,2013-02-22,37200.0
FPT,2013-02-25,37100.0
FPT,2013-02-26,35700.0
FPT,2013-02-27,35400.0
FPT,2013-02-28,35800.0
FPT,2013-03-01,35800.0
FPT,2013-03-04,35000.0
FPT,2013-03-05,34500.0
FPT,2013-03-06,35000.0
FPT,2013-03-07,34800.0
FPT,2013-03-08,35600.0
FPT,2013-03-11,36200.0
FPT,2013-03-12,36200.0
FPT,2013-03-13,35900.0
FPT,2013-03-14,36100.0
FPT,2013-03-15,36000.0
FPT,2013-03-18,35700.0
FPT,2013-03-19,35800.0
FPT,2013-03-20,36000.0
FPT,2013-03-21,36900.0
FPT,2013-03-22,36800.0
FPT,2013-03-25,37200.0
FPT,2013-03-26,37000.0
FPT,2013-03-27,36600.0
FPT,2013-03-28,36600.0
FPT,2013-03-29,36600.0
FPT,2013-04-01,37100.0
FPT,2013-04-02,37400.0
FPT,2013-04-03,37100.0
FPT,2013-04-04,36800.0
FPT,2013-04-05,37100.0
FPT,2013-04-08,38400.0
FPT,2013-04-09,39600.0
FPT,2013-04-10,38500.0
FPT,2013-04-11,37900.0
FPT,2013-04-12,37700.0
FPT,2013-04-15,36600.0
FPT,2013-04-16,36300.0
FPT,2013-04-17,36800.0
FPT,2013-04-18,35800.0
FPT,2013-04-22,35700.0
FPT,2013-04-23,36100.0
FPT,2013-04-24,35900.0
FPT,2013-04-25,36000.0
FPT,2013-04-26,36000.0
FPT,2013-05-02,35800.0
FPT,2013-05-03,35900.0
FPT,2013-05-06,37000.0
FPT,2013-05-07,36300.0
FPT,2013-05-08,36600.0
FPT,2013-05-09,36600.0
FPT,2013-05-10,36700.0
FPT,2013-05-13,36800.0
FPT,2013-05-14,37100.0
FPT,2013-05-15,37500.0
FPT,2013-05-16,37500.0
FPT,2013-05-17,37200.0
FPT,2013-05-20,38000.0
FPT,2013-05-21,40600.0
FPT,2013-05-22,40300.0
FPT,2013-05-23,40300.0
FPT,2013-05-24,40600.0
FPT,2013-05-27,41400.0
FPT,2013-05-28,41700.0
FPT,2013-05-29,42600.0
FPT,2013-05-30,42500.0
FPT,2013-05-31,43000.0
FPT,2013-06-03,42800.0
FPT,2013-06-04,43200.0
FPT,2013-06-05,43700.0
FPT,2013-06-06,44200.0
FPT,2013-06-07,44000.0
FPT,2013-06-10,44100.0
FPT,2013-06-11,43700.0
FPT,2013-06-12,43500.0
FPT,2013-06-13,43200.0
FPT,2013-06-14,42700.0
FPT,2013-06-17,41800.0
FPT,2013-06-18,41500.0
FPT,2013-06-19,41600.0
FPT,2013-06-20,41400.0
FPT,2013-06-21,41300.0
FPT,2013-06-24,41100.0
FPT,2013-06-25,40000.0
FPT,2013-06-26,40100.0
FPT,2013-06-27,40200.0
FPT,2013-06-28,40400.0
FPT,2013-07-01,40600.0
FPT,2013-07-02,41000.0
FPT,2013-07-03,41200.0
FPT,2013-07-04,42000.0
FPT,2013-07-05,42200.0
FPT,2013-07-08,41600.0
FPT,2013-07-09,41200.0
FPT,2013-07-10,41100.0
FPT,2013-07-11,41000.0
FPT,2013-07-12,41600.0
FPT,2013-07-15,41700.0
FPT,2013-07-16,42200.0
FPT,2013-07-17,42300.0
FPT,2013-07-18,41900.0
FPT,2013-07-19,42500.0
FPT,2013-07-22,42500.0
FPT,2013-07-23,42200.0
FPT,2013-07-24,41600.0
FPT,2013-07-25,42000.0
FPT,2013-07-26,41500.0
FPT,2013-07-29,40800.0
FPT,2013-07-30,41600.0
FPT,2013-07-31,41600.0
FPT,2013-08-01,41500.0
FPT,2013-08-02,41800.0
FPT,2013-08-05,43000.0
FPT,2013-08-06,43700.0
FPT,2013-08-07,44800.0
FPT,2013-08-08,43700.0
FPT,2013-08-09,44100.0
FPT,2013-08-12,43900.0
FPT,2013-08-13,44000.0
FPT,2013-08-14,44200.0
FPT,2013-08-15,45800.0
FPT,2013-08-16,46000.0
FPT,2013-08-19,47100.0
FPT,2013-08-20,46800.0
FPT,2013-08-21,46400.0
FPT,2013-08-22,45400.0
FPT,2013-08-23,44700.0
FPT,2013-08-26,44600.0
FPT,2013-08-27,44400.0
FPT,2013-08-28,42800.0
FPT,2013-08-29,42600.0
FPT,2013-08-30,43100.0
FPT,2013-09-03,42800.0
FPT,2013-09-04,42900.0
FPT,2013-09-05,43700.0
FPT,2013-09-06,44300.0
FPT,2013-09-09,43200.0
FPT,2013-09-10,43500.0
FPT,2013-09-11,43300.0
FPT,2013-09-12,43000.0
FPT,2013-09-13,42800.0
FPT,2013-09-16,42700.0
FPT,2013-09-17,42900.0
FPT,2013-09-18,43300.0
FPT,2013-09-19,43400.0
FPT,2013-09-20,43500.0
FPT,2013-09-23,44400.0
FPT,2013-09-24,45200.0
FPT,2013-09-25,44800.0
FPT,2013-09-26,45200.0
FPT,2013-09-27,45000.0
FPT,2013-09-30,45100.0
FPT,2013-10-01,44800.0
FPT,2013-10-02,45100.0
FPT,2013-10-03,44800.0
FPT,2013-10-04,45600.0
FPT,2013-10-07,46100.0
FPT,2013-10-08,45900.0
FPT,2013-10-09,45700.0
FPT,2013-10-10,45100.0
FPT,2013-10-11,45000.0
FPT,2013-10-14,44900.0
FPT,2013-10-15,45500.0
FPT,2013-10-16,45700.0
FPT,2013-10-17,45900.0
FPT,2013-10-18,46200.0
FPT,2013-10-21,46200.0
FPT,2013-10-22,46000.0
FPT,2013-10-23,46200.0
FPT,2013-10-24,46000.0
FPT,2013-10-25,45600.0
FPT,2013-10-28,45400.0
FPT,2013-10-29,45600.0
FPT,2013-10-30,46000.0
FPT,2013-10-31,45800.0
FPT,2013-11-01,46000.0
FPT,2013-11-04,46000.0
FPT,2013-11-05,45900.0
FPT,2013-11-06,46100.0
FPT,2013-11-07,45800.0
FPT,2013-11-08,46000.0
FPT,2013-11-11,46100.0
FPT,2013-11-12,46300.0
FPT,2013-11-13,46200.0
FPT,2013-11-14,46300.0
FPT,2013-11-15,47600.0
FPT,2013-11-18,48100.0
FPT,2013-11-19,48300.0
FPT,2013-11-20,48100.0
FPT,2013-11-21,48000.0
FPT,2013-11-22,48500.0
FPT,2013-11-25,48600.0
FPT,2013-11-26,48600.0
FPT,2013-11-27,48600.0
FPT,2013-11-28,48400.0
FPT,2013-11-29,48100.0
FPT,2013-12-02,48300.0
FPT,2013-12-03,48800.0
FPT,2013-12-04,48800.0
FPT,2013-12-05,48100.0
FPT,2013-12-06,48000.0
FPT,2013-12-09,47500.0
FPT,2013-12-10,47200.0
FPT,2013-12-11,46800.0
FPT,2013-12-12,46800.0
FPT,2013-12-13,47200.0
FPT,2013-12-16,47200.0
FPT,2013-12-17,47200.0
FPT,2013-12-18,47300.0
FPT,2013-12-19,47300.0
FPT,2013-12-20,47000.0
FPT,2013-12-23,47200.0
FPT,2013-12-24,46900.0
FPT,2013-12-25,46800.0
FPT,2013-12-26,47100.0
FPT,2013-12-27,47100.0
FPT,2013-12-30,46700.0
FPT,2013-12-31,47100.0
FPT,2014-01-02,47400.0
FPT,2014-01-03,47300.0
FPT,2014-01-06,48000.0
FPT,2014-01-07,47500.0
FPT,2014-01-08,47800.0
FPT,2014-01-09,48400.0
FPT,2014-01-10,48700.0
FPT,2014-01-13,49100.0
FPT,2014-01-14,49200.0
FPT,2014-01-15,50000.0
FPT,2014-01-16,50500.0
FPT,2014-01-17,51500.0
FPT,2014-01-20,52000.0
FPT,2014-01-21,53000.0
FPT,2014-01-22,53000.0
FPT,2014-01-23,54500.0
FPT,2014-01-24,56000.0
FPT,2014-01-27,55500.0
FPT,2014-02-06,54500.0
FPT,2014-02-07,53500.0
FPT,2014-02-10,55500.0
FPT,2014-02-11,55000.0
FPT,2014-02-12,57000.0
FPT,2014-02-13,57000.0
FPT,2014-02-14,56500.0
FPT,2014-02-17,56000.0
FPT,2014-02-18,57000.0
FPT,2014-02-19,59000.0
FPT,2014-02-20,57000.0
FPT,2014-02-21,58000.0
FPT,2014-02-24,59500.0
FPT,2014-02-25,61500.0
FPT,2014-02-26,64500.0
FPT,2014-02-27,63000.0
FPT,2014-02-28,64000.0
FPT,2014-03-03,61500.0
FPT,2014-03-04,61000.0
FPT,2014-03-05,62000.0
FPT,2014-03-06,62500.0
FPT,2014-03-07,63000.0
FPT,2014-03-10,63500.0
FPT,2014-03-11,67000.0
FPT,2014-03-12,67500.0
FPT,2014-03-13,68000.0
FPT,2014-03-14,67500.0
FPT,2014-03-17,67500.0
FPT,2014-03-18,71000.0
FPT,2014-03-19,72000.0
FPT,2014-03-20,71000.0
FPT,2014-03-21,71500.0
FPT,2014-03-24,71000.0
FPT,2014-03-25,69500.0
FPT,2014-03-26,68000.0
FPT,2014-03-27,68000.0
FPT,2014-03-28,70500.0
FPT,2014-03-31,70000.0
FPT,2014-04-01,69000.0
FPT,2014-04-02,68000.0
FPT,2014-04-03,68500.0
FPT,2014-04-04,68000.0
FPT,2014-04-07,69500.0
FPT,2014-04-08,70500.0
FPT,2014-04-10,70000.0
FPT,2014-04-11,70500.0
FPT,2014-04-14,71500.0
FPT,2014-04-15,70500.0
FPT,2014-04-16,69000.0
FPT,2014-04-17,70000.0
FPT,2014-04-18,67500.0
FPT,2014-04-21,65000.0
FPT,2014-04-22,67000.0
FPT,2014-04-23,65500.0
FPT,2014-04-24,65500.0
FPT,2014-04-25,67500.0
FPT,2014-04-28,68500.0
FPT,2014-04-29,68500.0
FPT,2014-05-05,66000.0
FPT,2014-05-06,51000.0
FPT,2014-05-07,51000.0
FPT,2014-05-08,47500.0
FPT,2014-05-09,46300.0
FPT,2014-05-12,43100.0
FPT,2014-05-13,40800.0
FPT,2014-05-14,43200.0
FPT,2014-05-15,41500.0
FPT,2014-05-16,44000.0
FPT,2014-05-19,44000.0
FPT,2014-05-20,44400.0
FPT,2014-05-21,46200.0
