HHS,2012-02-15,9800.0
HHS,2012-02-16,9500.0
HHS,2012-02-17,9400.0
HHS,2012-02-20,9200.0
HHS,2012-02-21,8900.0
HHS,2012-02-22,8900.0
HHS,2012-02-23,8900.0
HHS,2012-02-24,8800.0
HHS,2012-02-27,9100.0
HHS,2012-02-28,9500.0
HHS,2012-02-29,9400.0
HHS,2012-03-01,9800.0
HHS,2012-03-02,10200.0
HHS,2012-03-05,10600.0
HHS,2012-03-06,10100.0
HHS,2012-03-07,9600.0
HHS,2012-03-08,9100.0
HHS,2012-03-09,9400.0
HHS,2012-03-12,9800.0
HHS,2012-03-13,10100.0
HHS,2012-03-14,9600.0
HHS,2012-03-15,9800.0
HHS,2012-03-16,10000.0
HHS,2012-03-19,9700.0
HHS,2012-03-20,9200.0
HHS,2012-03-21,9600.0
HHS,2012-03-22,9800.0
HHS,2012-03-23,9700.0
HHS,2012-03-26,9300.0
HHS,2012-03-27,9700.0
HHS,2012-03-28,9900.0
HHS,2012-03-29,9800.0
HHS,2012-03-30,9500.0
HHS,2012-04-03,9500.0
HHS,2012-04-04,9600.0
HHS,2012-04-05,9700.0
HHS,2012-04-06,9800.0
HHS,2012-04-09,9900.0
HHS,2012-04-10,9900.0
HHS,2012-04-11,9900.0
HHS,2012-04-12,9900.0
HHS,2012-04-13,9900.0
HHS,2012-04-16,10200.0
HHS,2012-04-17,10200.0
HHS,2012-04-18,10300.0
HHS,2012-04-19,9800.0
HHS,2012-04-20,9400.0
HHS,2012-04-23,9400.0
HHS,2012-04-24,9100.0
HHS,2012-04-25,9200.0
HHS,2012-04-26,9000.0
HHS,2012-04-27,8800.0
HHS,2012-05-02,9000.0
HHS,2012-05-03,9000.0
HHS,2012-05-04,9500.0
HHS,2012-05-07,9900.0
HHS,2012-05-08,10400.0
HHS,2012-05-09,10900.0
HHS,2012-05-10,10900.0
HHS,2012-05-11,11400.0
HHS,2012-05-14,10800.0
HHS,2012-05-15,10400.0
HHS,2012-05-16,10600.0
HHS,2012-05-17,11100.0
HHS,2012-05-18,11400.0
HHS,2012-05-21,11400.0
HHS,2012-05-22,11400.0
HHS,2012-05-23,11200.0
HHS,2012-05-24,11400.0
HHS,2012-05-25,12000.0
HHS,2012-05-28,12600.0
HHS,2012-05-29,13100.0
HHS,2012-05-30,13700.0
HHS,2012-05-31,14300.0
HHS,2012-06-01,14900.0
HHS,2012-06-04,15200.0
HHS,2012-06-05,15200.0
HHS,2012-06-06,15100.0
HHS,2012-06-07,15700.0
HHS,2012-06-08,15000.0
HHS,2012-06-11,14800.0
HHS,2012-06-12,14200.0
HHS,2012-06-13,13500.0
HHS,2012-06-14,14000.0
HHS,2012-06-15,14100.0
HHS,2012-06-18,14200.0
HHS,2012-06-19,14000.0
HHS,2012-06-20,14700.0
HHS,2012-06-21,14600.0
HHS,2012-06-22,13900.0
HHS,2012-06-25,13800.0
HHS,2012-06-26,13700.0
HHS,2012-06-27,13800.0
HHS,2012-06-28,14000.0
HHS,2012-06-29,14000.0
HHS,2012-07-02,13800.0
HHS,2012-07-03,14200.0
HHS,2012-07-04,14200.0
HHS,2012-07-05,14200.0
HHS,2012-07-06,14500.0
HHS,2012-07-09,14200.0
HHS,2012-07-10,14200.0
HHS,2012-07-11,14200.0
HHS,2012-07-12,13900.0
HHS,2012-07-13,13800.0
HHS,2012-07-16,13800.0
HHS,2012-07-17,13900.0
HHS,2012-07-18,14000.0
HHS,2012-07-19,14000.0
HHS,2012-07-20,13800.0
HHS,2012-07-23,14100.0
HHS,2012-07-24,14100.0
HHS,2012-07-25,13800.0
HHS,2012-07-26,13500.0
HHS,2012-07-27,13600.0
HHS,2012-07-30,14100.0
HHS,2012-07-31,14600.0
HHS,2012-08-01,15200.0
HHS,2012-08-02,16000.0
HHS,2012-08-03,16300.0
HHS,2012-08-06,15500.0
HHS,2012-08-07,16300.0
HHS,2012-08-08,17100.0
HHS,2012-08-09,17900.0
HHS,2012-08-10,18800.0
HHS,2012-08-13,19600.0
HHS,2012-08-14,20500.0
HHS,2012-08-15,21300.0
HHS,2012-08-16,21900.0
HHS,2012-08-17,21900.0
HHS,2012-08-20,21900.0
HHS,2012-08-21,21400.0
HHS,2012-08-22,21400.0
HHS,2012-08-23,21400.0
HHS,2012-08-24,21400.0
HHS,2012-08-27,21600.0
HHS,2012-08-28,20500.0
HHS,2012-08-29,20900.0
HHS,2012-08-30,21200.0
HHS,2012-08-31,21200.0
HHS,2012-09-04,21200.0
HHS,2012-09-05,21100.0
HHS,2012-09-06,20700.0
HHS,2012-09-07,21000.0
HHS,2012-09-10,20700.0
HHS,2012-09-11,20700.0
HHS,2012-09-12,20300.0
HHS,2012-09-13,20100.0
HHS,2012-09-14,20100.0
HHS,2012-09-17,19100.0
HHS,2012-09-18,20000.0
HHS,2012-09-19,19100.0
HHS,2012-09-20,18900.0
HHS,2012-09-21,18000.0
HHS,2012-09-24,18600.0
HHS,2012-09-25,18800.0
HHS,2012-09-26,18500.0
HHS,2012-09-27,19000.0
HHS,2012-09-28,18800.0
HHS,2012-10-01,18800.0
HHS,2012-10-02,18800.0
HHS,2012-10-03,18800.0
HHS,2012-10-04,18800.0
HHS,2012-10-05,18800.0
HHS,2012-10-08,18800.0
HHS,2012-10-09,18800.0
HHS,2012-10-10,18700.0
HHS,2012-10-11,18500.0
HHS,2012-10-12,19300.0
HHS,2012-10-15,19200.0
HHS,2012-10-16,18800.0
HHS,2012-10-17,18800.0
HHS,2012-10-18,19200.0
HHS,2012-10-19,19500.0
HHS,2012-10-22,20300.0
HHS,2012-10-23,20700.0
HHS,2012-10-24,20700.0
HHS,2012-10-25,20000.0
HHS,2012-10-26,19700.0
HHS,2012-10-29,19400.0
HHS,2012-10-30,19700.0
HHS,2012-10-31,19700.0
HHS,2012-11-01,19700.0
HHS,2012-11-02,18800.0
HHS,2012-11-05,19400.0
HHS,2012-11-06,20000.0
HHS,2012-11-07,20500.0
HHS,2012-11-08,21100.0
HHS,2012-11-09,21100.0
HHS,2012-11-12,21000.0
HHS,2012-11-13,20900.0
HHS,2012-11-14,20700.0
HHS,2012-11-15,20300.0
HHS,2012-11-16,19300.0
HHS,2012-11-19,19700.0
HHS,2012-11-20,20200.0
HHS,2012-11-21,20200.0
HHS,2012-11-22,20200.0
HHS,2012-11-23,20200.0
HHS,2012-11-26,20200.0
HHS,2012-11-27,20700.0
HHS,2012-11-28,19700.0
HHS,2012-11-29,19800.0
HHS,2012-11-30,20700.0
HHS,2012-12-03,19700.0
HHS,2012-12-04,19700.0
HHS,2012-12-05,19700.0
HHS,2012-12-06,19700.0
HHS,2012-12-07,20600.0
HHS,2012-12-10,20500.0
HHS,2012-12-11,21500.0
HHS,2012-12-12,21500.0
HHS,2012-12-13,21500.0
HHS,2012-12-14,20400.0
HHS,2012-12-17,21400.0
HHS,2012-12-18,21900.0
HHS,2012-12-19,21900.0
HHS,2012-12-20,21900.0
HHS,2012-12-21,21900.0
HHS,2012-12-24,21900.0
HHS,2012-12-25,21900.0
HHS,2012-12-26,20900.0
HHS,2012-12-27,20800.0
HHS,2012-12-28,21300.0
HHS,2013-01-02,21200.0
HHS,2013-01-03,21200.0
HHS,2013-01-04,21200.0
HHS,2013-01-07,22000.0
HHS,2013-01-08,21700.0
HHS,2013-01-09,20700.0
HHS,2013-01-10,20100.0
HHS,2013-01-11,20400.0
HHS,2013-01-14,21400.0
HHS,2013-01-15,21800.0
HHS,2013-01-16,21900.0
HHS,2013-01-17,20300.0
HHS,2013-01-18,21200.0
HHS,2013-01-21,21900.0
HHS,2013-01-22,20800.0
HHS,2013-01-23,20800.0
HHS,2013-01-24,20800.0
HHS,2013-01-25,20700.0
HHS,2013-01-28,20600.0
HHS,2013-01-29,20500.0
HHS,2013-01-30,20000.0
HHS,2013-01-31,19600.0
HHS,2013-02-01,19300.0
HHS,2013-02-04,20000.0
HHS,2013-02-05,19700.0
HHS,2013-02-06,19400.0
HHS,2013-02-07,20100.0
HHS,2013-02-08,20300.0
HHS,2013-02-18,20700.0
HHS,2013-02-19,20100.0
HHS,2013-02-20,18800.0
HHS,2013-02-21,17600.0
HHS,2013-02-22,18700.0
HHS,2013-02-25,18200.0
HHS,2013-02-26,18200.0
HHS,2013-02-27,19200.0
HHS,2013-02-28,20500.0
HHS,2013-03-01,19100.0
HHS,2013-03-04,19500.0
HHS,2013-03-05,19200.0
HHS,2013-03-06,17800.0
HHS,2013-03-07,18800.0
HHS,2013-03-08,19200.0
HHS,2013-03-11,19000.0
HHS,2013-03-12,17600.0
HHS,2013-03-13,18500.0
HHS,2013-03-14,18700.0
HHS,2013-03-15,18500.0
HHS,2013-03-18,17300.0
HHS,2013-03-19,17000.0
HHS,2013-03-20,17300.0
HHS,2013-03-21,17500.0
HHS,2013-03-22,17500.0
HHS,2013-03-25,17100.0
HHS,2013-03-26,17700.0
HHS,2013-03-27,17600.0
HHS,2013-03-28,17600.0
HHS,2013-03-29,17600.0
HHS,2013-04-01,17600.0
HHS,2013-04-02,17500.0
HHS,2013-04-03,17300.0
HHS,2013-04-04,17600.0
HHS,2013-04-05,17600.0
HHS,2013-04-08,17500.0
HHS,2013-04-09,17500.0
HHS,2013-04-10,18700.0
HHS,2013-04-11,19000.0
HHS,2013-04-12,19800.0
HHS,2013-04-15,18500.0
HHS,2013-04-16,18000.0
HHS,2013-04-17,17900.0
HHS,2013-04-18,19100.0
HHS,2013-04-22,19500.0
HHS,2013-04-23,19900.0
HHS,2013-04-24,19500.0
HHS,2013-04-25,19500.0
HHS,2013-04-26,18200.0
HHS,2013-05-02,18900.0
HHS,2013-05-03,19000.0
HHS,2013-05-06,19400.0
HHS,2013-05-07,19300.0
HHS,2013-05-08,18100.0
HHS,2013-05-09,18200.0
HHS,2013-05-10,18200.0
HHS,2013-05-13,18200.0
HHS,2013-05-14,18500.0
HHS,2013-05-15,19100.0
HHS,2013-05-16,19000.0
HHS,2013-05-17,20100.0
HHS,2013-05-20,19000.0
HHS,2013-05-21,20300.0
HHS,2013-05-22,21300.0
HHS,2013-05-23,20800.0
HHS,2013-05-24,20800.0
HHS,2013-05-27,20900.0
HHS,2013-05-28,20900.0
HHS,2013-05-29,20900.0
HHS,2013-05-30,20500.0
HHS,2013-05-31,20000.0
HHS,2013-06-03,20900.0
HHS,2013-06-04,20400.0
HHS,2013-06-05,20100.0
HHS,2013-06-06,20000.0
HHS,2013-06-07,20000.0
HHS,2013-06-10,20700.0
HHS,2013-06-11,20300.0
HHS,2013-06-12,20300.0
HHS,2013-06-13,20000.0
HHS,2013-06-14,19000.0
HHS,2013-06-17,19800.0
HHS,2013-06-18,19800.0
HHS,2013-06-19,19800.0
HHS,2013-06-20,19800.0
HHS,2013-06-21,19800.0
HHS,2013-06-24,19800.0
HHS,2013-06-25,19200.0
HHS,2013-06-26,19200.0
HHS,2013-06-27,17900.0
HHS,2013-06-28,18000.0
HHS,2013-07-01,18000.0
HHS,2013-07-02,16800.0
HHS,2013-07-03,17500.0
HHS,2013-07-04,17400.0
HHS,2013-07-05,17500.0
HHS,2013-07-08,17900.0
HHS,2013-07-09,17900.0
HHS,2013-07-10,16700.0
HHS,2013-07-11,16800.0
HHS,2013-07-12,17000.0
HHS,2013-07-15,16700.0
HHS,2013-07-16,16700.0
HHS,2013-07-17,16600.0
HHS,2013-07-18,16600.0
HHS,2013-07-19,16600.0
HHS,2013-07-22,16200.0
HHS,2013-07-23,16200.0
HHS,2013-07-24,15500.0
HHS,2013-07-25,15500.0
HHS,2013-07-26,15300.0
HHS,2013-07-29,14400.0
HHS,2013-07-30,14500.0
HHS,2013-07-31,14900.0
HHS,2013-08-01,14900.0
HHS,2013-08-02,14900.0
HHS,2013-08-05,15000.0
HHS,2013-08-06,15100.0
HHS,2013-08-07,15900.0
HHS,2013-08-08,16400.0
HHS,2013-08-09,17300.0
HHS,2013-08-12,17700.0
HHS,2013-08-13,18900.0
HHS,2013-08-14,19000.0
HHS,2013-08-15,19100.0
HHS,2013-08-16,20400.0
HHS,2013-08-19,21800.0
HHS,2013-08-20,23300.0
HHS,2013-08-21,23500.0
HHS,2013-08-22,23600.0
HHS,2013-08-23,25000.0
HHS,2013-08-26,25000.0
HHS,2013-08-27,24800.0
HHS,2013-08-28,24500.0
HHS,2013-08-29,24500.0
HHS,2013-08-30,24800.0
HHS,2013-09-03,26500.0
HHS,2013-09-04,28000.0
HHS,2013-09-05,29900.0
HHS,2013-09-06,31600.0
HHS,2013-09-09,32800.0
HHS,2013-09-10,30600.0
HHS,2013-09-11,28500.0
HHS,2013-09-12,27800.0
HHS,2013-09-13,28200.0
HHS,2013-09-16,29300.0
HHS,2013-09-17,30900.0
HHS,2013-09-18,29400.0
HHS,2013-09-19,28700.0
HHS,2013-09-20,27700.0
HHS,2013-09-23,27900.0
HHS,2013-09-24,28000.0
HHS,2013-09-25,28400.0
HHS,2013-09-26,28200.0
HHS,2013-09-27,28600.0
HHS,2013-09-30,28700.0
HHS,2013-10-01,28400.0
HHS,2013-10-02,28900.0
HHS,2013-10-03,29200.0
HHS,2013-10-04,29300.0
HHS,2013-10-07,29400.0
HHS,2013-10-08,29400.0
HHS,2013-10-09,29200.0
HHS,2013-10-10,29200.0
HHS,2013-10-11,29500.0
HHS,2013-10-14,29400.0
HHS,2013-10-15,29500.0
HHS,2013-10-16,29600.0
HHS,2013-10-17,29400.0
HHS,2013-10-18,29400.0
HHS,2013-10-21,29400.0
HHS,2013-10-22,29400.0
HHS,2013-10-23,29200.0
HHS,2013-10-24,29400.0
HHS,2013-10-25,29400.0
HHS,2013-10-28,29300.0
HHS,2013-10-29,29400.0
HHS,2013-10-30,29200.0
HHS,2013-10-31,28800.0
HHS,2013-11-01,28900.0
HHS,2013-11-04,28400.0
HHS,2013-11-05,28200.0
HHS,2013-11-06,28300.0
HHS,2013-11-07,28300.0
HHS,2013-11-08,28200.0
HHS,2013-11-11,29800.0
HHS,2013-11-12,29800.0
HHS,2013-11-13,29300.0
HHS,2013-11-14,29300.0
HHS,2013-11-15,29500.0
HHS,2013-11-18,29500.0
HHS,2013-11-19,29700.0
HHS,2013-11-20,29600.0
HHS,2013-11-21,29600.0
HHS,2013-11-22,29800.0
HHS,2013-11-25,29900.0
HHS,2013-11-26,29900.0
HHS,2013-11-27,29900.0
HHS,2013-11-28,29800.0
HHS,2013-11-29,29800.0
HHS,2013-12-02,29800.0
HHS,2013-12-03,30500.0
HHS,2013-12-04,30600.0
HHS,2013-12-05,30100.0
HHS,2013-12-06,28100.0
HHS,2013-12-09,28400.0
HHS,2013-12-10,28800.0
HHS,2013-12-11,29200.0
HHS,2013-12-12,29200.0
HHS,2013-12-13,29300.0
HHS,2013-12-16,29100.0
HHS,2013-12-17,29100.0
HHS,2013-12-18,29000.0
HHS,2013-12-19,29200.0
HHS,2013-12-20,29400.0
HHS,2013-12-23,29600.0
HHS,2013-12-24,29600.0
HHS,2013-12-25,29600.0
HHS,2013-12-26,29700.0
HHS,2013-12-27,29800.0
HHS,2013-12-30,29700.0
HHS,2013-12-31,29800.0
HHS,2014-01-02,29800.0
HHS,2014-01-03,29800.0
HHS,2014-01-06,29800.0
HHS,2014-01-07,29700.0
HHS,2014-01-08,29600.0
HHS,2014-01-09,29300.0
HHS,2014-01-10,29400.0
HHS,2014-01-13,29500.0
HHS,2014-01-14,29600.0
HHS,2014-01-15,29700.0
HHS,2014-01-16,29800.0
HHS,2014-01-17,30000.0
HHS,2014-01-20,30200.0
HHS,2014-01-21,30300.0
HHS,2014-01-22,30300.0
HHS,2014-01-23,29900.0
HHS,2014-01-24,30100.0
HHS,2014-01-27,30100.0
HHS,2014-02-06,30200.0
HHS,2014-02-07,30300.0
HHS,2014-02-10,30100.0
HHS,2014-02-11,30500.0
HHS,2014-02-12,31800.0
HHS,2014-02-13,31800.0
HHS,2014-02-14,31700.0
HHS,2014-02-17,31300.0
HHS,2014-02-18,31000.0
HHS,2014-02-19,31100.0
HHS,2014-02-20,30900.0
HHS,2014-02-21,30900.0
HHS,2014-02-24,31000.0
HHS,2014-02-25,31000.0
HHS,2014-02-26,30900.0
HHS,2014-02-27,30600.0
HHS,2014-02-28,30600.0
HHS,2014-03-03,30500.0
HHS,2014-03-04,30200.0
HHS,2014-03-05,30400.0
HHS,2014-03-06,30900.0
HHS,2014-03-07,30800.0
HHS,2014-03-10,30800.0
HHS,2014-03-11,30700.0
HHS,2014-03-12,30800.0
HHS,2014-03-13,30700.0
HHS,2014-03-14,30900.0
HHS,2014-03-17,31100.0
HHS,2014-03-18,31500.0
HHS,2014-03-19,31700.0
HHS,2014-03-20,31600.0
HHS,2014-03-21,32000.0
HHS,2014-03-24,32500.0
HHS,2014-03-25,32500.0
HHS,2014-03-26,32500.0
HHS,2014-03-27,32600.0
HHS,2014-03-28,32400.0
HHS,2014-03-31,32300.0
HHS,2014-04-01,32200.0
HHS,2014-04-02,32000.0
HHS,2014-04-03,32000.0
HHS,2014-04-04,32000.0
HHS,2014-04-07,32200.0
HHS,2014-04-08,31800.0
HHS,2014-04-10,31800.0
HHS,2014-04-11,31600.0
HHS,2014-04-14,31700.0
HHS,2014-04-15,31600.0
HHS,2014-04-16,31400.0
HHS,2014-04-17,31400.0
HHS,2014-04-18,31300.0
HHS,2014-04-21,31200.0
HHS,2014-04-22,32400.0
HHS,2014-04-23,32400.0
HHS,2014-04-24,31200.0
HHS,2014-04-25,31900.0
HHS,2014-04-28,32500.0
HHS,2014-04-29,32400.0
HHS,2014-05-05,32200.0
HHS,2014-05-06,32000.0
HHS,2014-05-07,31600.0
HHS,2014-05-08,31900.0
HHS,2014-05-09,31900.0
HHS,2014-05-12,32000.0
HHS,2014-05-13,32000.0
HHS,2014-05-14,32000.0
HHS,2014-05-15,31900.0
HHS,2014-05-16,31800.0
HHS,2014-05-19,31600.0
HHS,2014-05-20,31800.0
HHS,2014-05-21,33900.0
