HPG,2007-11-15,36400.0
HPG,2007-11-16,34700.0
HPG,2007-11-19,33000.0
HPG,2007-11-20,31600.0
HPG,2007-11-21,32700.0
HPG,2007-11-22,32700.0
HPG,2007-11-23,31600.0
HPG,2007-11-26,31300.0
HPG,2007-11-27,30100.0
HPG,2007-11-28,30700.0
HPG,2007-11-29,30700.0
HPG,2007-11-30,30400.0
HPG,2007-12-03,30400.0
HPG,2007-12-04,30100.0
HPG,2007-12-05,29800.0
HPG,2007-12-06,30100.0
HPG,2007-12-07,29300.0
HPG,2007-12-10,28000.0
HPG,2007-12-11,26700.0
HPG,2007-12-12,27000.0
HPG,2007-12-13,26000.0
HPG,2007-12-14,26100.0
HPG,2007-12-17,26100.0
HPG,2007-12-18,26800.0
HPG,2007-12-19,28100.0
HPG,2007-12-20,27300.0
HPG,2007-12-21,27300.0
HPG,2007-12-24,27600.0
HPG,2007-12-25,27300.0
HPG,2007-12-26,27300.0
HPG,2007-12-27,27300.0
HPG,2007-12-28,27600.0
HPG,2008-01-02,27700.0
HPG,2008-01-03,27900.0
HPG,2008-01-04,28100.0
HPG,2008-01-07,28600.0
HPG,2008-01-08,29900.0
HPG,2008-01-09,31300.0
HPG,2008-01-10,31000.0
HPG,2008-01-11,30800.0
HPG,2008-01-14,30800.0
HPG,2008-01-15,29300.0
HPG,2008-01-16,30500.0
HPG,2008-01-17,29000.0
HPG,2008-01-18,29600.0
HPG,2008-01-21,29000.0
HPG,2008-01-22,28100.0
HPG,2008-01-23,26800.0
HPG,2008-01-24,27000.0
HPG,2008-01-25,27000.0
HPG,2008-01-28,27100.0
HPG,2008-01-29,27700.0
HPG,2008-01-30,29000.0
HPG,2008-01-31,28400.0
HPG,2008-02-01,29300.0
HPG,2008-02-12,29000.0
HPG,2008-02-13,28100.0
HPG,2008-02-14,28300.0
HPG,2008-02-15,28100.0
HPG,2008-02-18,27000.0
HPG,2008-02-19,26800.0
HPG,2008-02-20,25500.0
HPG,2008-02-21,24400.0
HPG,2008-02-22,23500.0
HPG,2008-02-25,24700.0
HPG,2008-02-26,23800.0
HPG,2008-02-27,24100.0
HPG,2008-02-28,23900.0
HPG,2008-02-29,23400.0
HPG,2008-03-03,22200.0
HPG,2008-03-04,21200.0
HPG,2008-03-05,20500.0
HPG,2008-03-06,21500.0
HPG,2008-03-07,22500.0
HPG,2008-03-10,23500.0
HPG,2008-03-11,23400.0
HPG,2008-03-12,23800.0
HPG,2008-03-13,23900.0
HPG,2008-03-14,23500.0
HPG,2008-03-17,22300.0
HPG,2008-03-18,21300.0
HPG,2008-03-19,21300.0
HPG,2008-03-20,21000.0
HPG,2008-03-21,20000.0
HPG,2008-03-24,19200.0
HPG,2008-03-25,18300.0
HPG,2008-03-26,18900.0
HPG,2008-03-27,19000.0
HPG,2008-03-28,19200.0
HPG,2008-03-31,19300.0
HPG,2008-04-01,19400.0
HPG,2008-04-02,19600.0
HPG,2008-04-03,19700.0
HPG,2008-04-04,19900.0
HPG,2008-04-07,20200.0
HPG,2008-04-08,20500.0
HPG,2008-04-09,20200.0
HPG,2008-04-10,19900.0
HPG,2008-04-11,19600.0
HPG,2008-04-16,19300.0
HPG,2008-04-17,19400.0
HPG,2008-04-18,19200.0
HPG,2008-04-21,18900.0
HPG,2008-04-22,18600.0
HPG,2008-04-23,18300.0
HPG,2008-04-24,18000.0
HPG,2008-04-25,17700.0
HPG,2008-04-28,18000.0
HPG,2008-04-29,18300.0
HPG,2008-05-05,18600.0
HPG,2008-05-06,18900.0
HPG,2008-05-07,18900.0
HPG,2008-05-08,18600.0
HPG,2008-05-09,18300.0
HPG,2008-05-12,18000.0
HPG,2008-05-13,17700.0
HPG,2008-05-14,17400.0
HPG,2008-05-15,17100.0
HPG,2008-05-16,16800.0
HPG,2008-05-19,16500.0
HPG,2008-05-20,16300.0
HPG,2008-05-21,16000.0
HPG,2008-05-22,15700.0
HPG,2008-05-23,15400.0
HPG,2008-05-26,15100.0
HPG,2008-05-30,14800.0
HPG,2008-06-02,14500.0
HPG,2008-06-03,14200.0
HPG,2008-06-04,14000.0
HPG,2008-06-05,13700.0
HPG,2008-06-06,13400.0
HPG,2008-06-09,13200.0
HPG,2008-06-10,12900.0
HPG,2008-06-11,12700.0
HPG,2008-06-12,12900.0
HPG,2008-06-13,13100.0
HPG,2008-06-16,13400.0
HPG,2008-06-17,13700.0
HPG,2008-06-18,13400.0
HPG,2008-06-19,13000.0
HPG,2008-06-20,12700.0
HPG,2008-06-23,13000.0
HPG,2008-06-24,13400.0
HPG,2008-06-25,13800.0
HPG,2008-06-26,14200.0
HPG,2008-06-27,14500.0
HPG,2008-06-30,14900.0
HPG,2008-07-01,15400.0
HPG,2008-07-02,15800.0
HPG,2008-07-03,16300.0
HPG,2008-07-04,16700.0
HPG,2008-07-07,17100.0
HPG,2008-07-08,17600.0
HPG,2008-07-09,18000.0
HPG,2008-07-10,18400.0
HPG,2008-07-11,19000.0
HPG,2008-07-14,19500.0
HPG,2008-07-15,20100.0
HPG,2008-07-16,20500.0
HPG,2008-07-17,21100.0
HPG,2008-07-18,21700.0
HPG,2008-07-21,21100.0
HPG,2008-07-22,20500.0
HPG,2008-07-23,19900.0
HPG,2008-07-24,19500.0
HPG,2008-07-25,20100.0
HPG,2008-07-28,20500.0
HPG,2008-07-29,21100.0
HPG,2008-07-30,21700.0
HPG,2008-07-31,22300.0
HPG,2008-08-01,23000.0
HPG,2008-08-04,22500.0
HPG,2008-08-05,22100.0
HPG,2008-08-06,22800.0
HPG,2008-08-07,23200.0
HPG,2008-08-08,23800.0
HPG,2008-08-11,24400.0
HPG,2008-08-12,25000.0
HPG,2008-08-13,25600.0
HPG,2008-08-14,26200.0
HPG,2008-08-15,26800.0
HPG,2008-08-18,28000.0
HPG,2008-08-19,29300.0
HPG,2008-08-20,30300.0
HPG,2008-08-21,31500.0
HPG,2008-08-22,30100.0
HPG,2008-08-25,31300.0
HPG,2008-08-26,30300.0
HPG,2008-08-27,28800.0
HPG,2008-08-28,27400.0
HPG,2008-08-29,26200.0
HPG,2008-09-03,27400.0
HPG,2008-09-04,26800.0
HPG,2008-09-05,25600.0
HPG,2008-09-08,25200.0
HPG,2008-09-09,25600.0
HPG,2008-09-10,24800.0
HPG,2008-09-11,24600.0
HPG,2008-09-12,23500.0
HPG,2008-09-15,24600.0
HPG,2008-09-16,23500.0
HPG,2008-09-17,22700.0
HPG,2008-09-18,21700.0
HPG,2008-09-19,22700.0
HPG,2008-09-22,23700.0
HPG,2008-09-23,24200.0
HPG,2008-09-24,23300.0
HPG,2008-09-25,24400.0
HPG,2008-09-26,25200.0
HPG,2008-09-29,24200.0
HPG,2008-09-30,23100.0
HPG,2008-10-01,22300.0
HPG,2008-10-02,22300.0
HPG,2008-10-03,21700.0
HPG,2008-10-06,20600.0
HPG,2008-10-07,19600.0
HPG,2008-10-08,18700.0
HPG,2008-10-09,17800.0
HPG,2008-10-10,16900.0
HPG,2008-10-13,16100.0
HPG,2008-10-14,16900.0
HPG,2008-10-15,17700.0
HPG,2008-10-16,17100.0
HPG,2008-10-17,17200.0
HPG,2008-10-20,16600.0
HPG,2008-10-21,17100.0
HPG,2008-10-22,16500.0
HPG,2008-10-23,15700.0
HPG,2008-10-24,14900.0
HPG,2008-10-27,14200.0
HPG,2008-10-28,13500.0
HPG,2008-10-29,13500.0
HPG,2008-10-30,12800.0
HPG,2008-10-31,13400.0
HPG,2008-11-03,13300.0
HPG,2008-11-04,14000.0
HPG,2008-11-05,14700.0
HPG,2008-11-06,15200.0
HPG,2008-11-07,14500.0
HPG,2008-11-10,14500.0
HPG,2008-11-11,13800.0
HPG,2008-11-12,13200.0
HPG,2008-11-13,13400.0
HPG,2008-11-14,13700.0
HPG,2008-11-17,13500.0
HPG,2008-11-18,13100.0
HPG,2008-11-19,13100.0
HPG,2008-11-20,12400.0
HPG,2008-11-21,12300.0
HPG,2008-11-24,12500.0
HPG,2008-11-25,12800.0
HPG,2008-11-26,12500.0
HPG,2008-11-27,12000.0
HPG,2008-11-28,12600.0
HPG,2008-12-01,12600.0
HPG,2008-12-02,12300.0
HPG,2008-12-03,12300.0
HPG,2008-12-04,12400.0
HPG,2008-12-05,12100.0
HPG,2008-12-08,11500.0
HPG,2008-12-09,11900.0
HPG,2008-12-10,11600.0
HPG,2008-12-11,11800.0
HPG,2008-12-12,12400.0
HPG,2008-12-15,13000.0
HPG,2008-12-16,12300.0
HPG,2008-12-17,12800.0
HPG,2008-12-18,12900.0
HPG,2008-12-19,12900.0
HPG,2008-12-22,13300.0
HPG,2008-12-23,13000.0
HPG,2008-12-24,13000.0
HPG,2008-12-25,13100.0
HPG,2008-12-26,13200.0
HPG,2008-12-29,13200.0
HPG,2008-12-30,13700.0
HPG,2008-12-31,13500.0
HPG,2009-01-02,13200.0
HPG,2009-01-05,13100.0
HPG,2009-01-06,13300.0
HPG,2009-01-07,13800.0
HPG,2009-01-08,13500.0
HPG,2009-01-09,13600.0
HPG,2009-01-12,13600.0
HPG,2009-01-13,13400.0
HPG,2009-01-14,13400.0
HPG,2009-01-15,13300.0
HPG,2009-01-16,13300.0
HPG,2009-01-19,13100.0
HPG,2009-01-20,13100.0
HPG,2009-01-21,12900.0
HPG,2009-01-22,13000.0
HPG,2009-01-23,13200.0
HPG,2009-02-02,12800.0
HPG,2009-02-03,12600.0
HPG,2009-02-04,12100.0
HPG,2009-02-05,11700.0
HPG,2009-02-06,11900.0
HPG,2009-02-09,12400.0
HPG,2009-02-10,12800.0
HPG,2009-02-11,12700.0
HPG,2009-02-12,12700.0
HPG,2009-02-13,12600.0
HPG,2009-02-16,12300.0
HPG,2009-02-17,11800.0
HPG,2009-02-18,11400.0
HPG,2009-02-19,11600.0
HPG,2009-02-20,11400.0
HPG,2009-02-23,10900.0
HPG,2009-02-24,10400.0
HPG,2009-02-25,10900.0
HPG,2009-02-26,10700.0
HPG,2009-02-27,10900.0
HPG,2009-03-02,10900.0
HPG,2009-03-03,10600.0
HPG,2009-03-04,10600.0
HPG,2009-03-05,10900.0
HPG,2009-03-06,10900.0
HPG,2009-03-09,10900.0
HPG,2009-03-10,11200.0
HPG,2009-03-11,11700.0
HPG,2009-03-12,11300.0
HPG,2009-03-13,11200.0
HPG,2009-03-16,11600.0
HPG,2009-03-17,12100.0
HPG,2009-03-18,12500.0
HPG,2009-03-19,11900.0
HPG,2009-03-20,11700.0
HPG,2009-03-23,11700.0
HPG,2009-03-24,12300.0
HPG,2009-03-25,12900.0
HPG,2009-03-26,13500.0
HPG,2009-03-27,13700.0
HPG,2009-03-30,13300.0
HPG,2009-03-31,13100.0
HPG,2009-04-01,13800.0
HPG,2009-04-02,14400.0
HPG,2009-04-03,15100.0
HPG,2009-04-07,15800.0
HPG,2009-04-08,15200.0
HPG,2009-04-09,15200.0
HPG,2009-04-10,15900.0
HPG,2009-04-13,16700.0
HPG,2009-04-14,17500.0
HPG,2009-04-15,16800.0
HPG,2009-04-16,17600.0
HPG,2009-04-17,17100.0
HPG,2009-04-20,16300.0
HPG,2009-04-21,17100.0
HPG,2009-04-22,17900.0
HPG,2009-04-23,17800.0
HPG,2009-04-24,17600.0
HPG,2009-04-27,17300.0
HPG,2009-04-28,17500.0
HPG,2009-04-29,17700.0
HPG,2009-05-04,18500.0
HPG,2009-05-05,19500.0
HPG,2009-05-06,20200.0
HPG,2009-05-07,21200.0
HPG,2009-05-08,21400.0
HPG,2009-05-11,21800.0
HPG,2009-05-12,22600.0
HPG,2009-05-13,21500.0
HPG,2009-05-14,21500.0
HPG,2009-05-15,22400.0
HPG,2009-05-18,21700.0
HPG,2009-05-19,21900.0
HPG,2009-05-20,23000.0
HPG,2009-05-21,22400.0
HPG,2009-05-22,21700.0
HPG,2009-05-25,22600.0
HPG,2009-05-26,21900.0
HPG,2009-05-27,21700.0
HPG,2009-05-28,21000.0
HPG,2009-05-29,21300.0
HPG,2009-06-01,22100.0
HPG,2009-06-02,23000.0
HPG,2009-06-03,23000.0
HPG,2009-06-04,23900.0
HPG,2009-06-05,25000.0
HPG,2009-06-08,26100.0
HPG,2009-06-09,27200.0
HPG,2009-06-10,25900.0
HPG,2009-06-11,27000.0
HPG,2009-06-12,26100.0
HPG,2009-06-15,25000.0
HPG,2009-06-16,23900.0
HPG,2009-06-17,25000.0
HPG,2009-06-18,25200.0
HPG,2009-06-19,25200.0
HPG,2009-06-22,24100.0
HPG,2009-06-23,23000.0
HPG,2009-06-24,24100.0
HPG,2009-06-25,24300.0
HPG,2009-06-26,24800.0
HPG,2009-06-29,24800.0
HPG,2009-06-30,23700.0
HPG,2009-07-01,23000.0
HPG,2009-07-02,23900.0
HPG,2009-07-03,24100.0
HPG,2009-07-06,25200.0
HPG,2009-07-07,24800.0
HPG,2009-07-08,24800.0
HPG,2009-07-09,25000.0
HPG,2009-07-10,24300.0
HPG,2009-07-13,23700.0
HPG,2009-07-14,23500.0
HPG,2009-07-15,23900.0
HPG,2009-07-16,24100.0
HPG,2009-07-17,24100.0
HPG,2009-07-20,23500.0
HPG,2009-07-21,23700.0
HPG,2009-07-22,24100.0
HPG,2009-07-23,25000.0
HPG,2009-07-24,26100.0
HPG,2009-07-27,27000.0
HPG,2009-07-28,25900.0
HPG,2009-07-29,25400.0
HPG,2009-07-30,25000.0
HPG,2009-07-31,26100.0
HPG,2009-08-03,25900.0
HPG,2009-08-04,26300.0
HPG,2009-08-05,26700.0
HPG,2009-08-06,26700.0
HPG,2009-08-07,27200.0
HPG,2009-08-10,28300.0
HPG,2009-08-11,29600.0
HPG,2009-08-12,30000.0
HPG,2009-08-13,30500.0
HPG,2009-08-14,30000.0
HPG,2009-08-17,29600.0
HPG,2009-08-18,29600.0
HPG,2009-08-19,30500.0
HPG,2009-08-20,30500.0
HPG,2009-08-21,30500.0
HPG,2009-08-24,30900.0
HPG,2009-08-25,30500.0
HPG,2009-08-26,30500.0
HPG,2009-08-27,30300.0
HPG,2009-08-28,30700.0
HPG,2009-08-31,30500.0
HPG,2009-09-01,30500.0
HPG,2009-09-03,30300.0
HPG,2009-09-04,29600.0
HPG,2009-09-08,30700.0
HPG,2009-09-09,32000.0
HPG,2009-09-10,31600.0
HPG,2009-09-11,31100.0
HPG,2009-09-14,30900.0
HPG,2009-09-15,30700.0
HPG,2009-09-16,30300.0
HPG,2009-09-17,30300.0
HPG,2009-09-18,30300.0
HPG,2009-09-21,31600.0
HPG,2009-09-22,31600.0
HPG,2009-09-23,32400.0
HPG,2009-09-24,32000.0
HPG,2009-09-25,31800.0
HPG,2009-09-28,31600.0
HPG,2009-09-29,31800.0
HPG,2009-09-30,31300.0
HPG,2009-10-01,30700.0
HPG,2009-10-02,29800.0
HPG,2009-10-05,29600.0
HPG,2009-10-06,29600.0
HPG,2009-10-07,30900.0
HPG,2009-10-08,30900.0
HPG,2009-10-09,31300.0
HPG,2009-10-12,32700.0
HPG,2009-10-13,31800.0
HPG,2009-10-14,32900.0
HPG,2009-10-15,33600.0
HPG,2009-10-16,32700.0
HPG,2009-10-19,32700.0
HPG,2009-10-20,33400.0
HPG,2009-10-21,34000.0
HPG,2009-10-22,35600.0
HPG,2009-10-23,36200.0
HPG,2009-10-26,36000.0
HPG,2009-10-27,35400.0
HPG,2009-10-28,34900.0
HPG,2009-10-29,34200.0
HPG,2009-10-30,34200.0
HPG,2009-11-02,32700.0
HPG,2009-11-03,31300.0
HPG,2009-11-04,30700.0
HPG,2009-11-05,30900.0
HPG,2009-11-06,30200.0
HPG,2009-11-09,28900.0
HPG,2009-11-10,27800.0
HPG,2009-11-11,29100.0
HPG,2009-11-12,30200.0
HPG,2009-11-13,30900.0
HPG,2009-11-16,30000.0
HPG,2009-11-17,29800.0
HPG,2009-11-18,31100.0
HPG,2009-11-19,32000.0
HPG,2009-11-20,31100.0
HPG,2009-11-23,29800.0
HPG,2009-11-24,29300.0
HPG,2009-11-25,28000.0
HPG,2009-11-26,26700.0
HPG,2009-11-27,26500.0
HPG,2009-11-30,27600.0
HPG,2009-12-01,28500.0
HPG,2009-12-02,27800.0
HPG,2009-12-03,27600.0
HPG,2009-12-04,27300.0
HPG,2009-12-07,27300.0
HPG,2009-12-08,26700.0
HPG,2009-12-09,25300.0
HPG,2009-12-10,24700.0
HPG,2009-12-11,23600.0
HPG,2009-12-14,24700.0
HPG,2009-12-15,24700.0
HPG,2009-12-16,23600.0
HPG,2009-12-17,22900.0
HPG,2009-12-18,22900.0
HPG,2009-12-21,24000.0
HPG,2009-12-22,25100.0
HPG,2009-12-23,24900.0
HPG,2009-12-24,25300.0
HPG,2009-12-25,26500.0
HPG,2009-12-28,25600.0
HPG,2009-12-29,24900.0
HPG,2009-12-30,25800.0
HPG,2009-12-31,26000.0
HPG,2010-01-04,27100.0
HPG,2010-01-05,28500.0
HPG,2010-01-06,29300.0
HPG,2010-01-07,30200.0
HPG,2010-01-08,28900.0
HPG,2010-01-11,28500.0
HPG,2010-01-12,27300.0
HPG,2010-01-13,28000.0
HPG,2010-01-14,27600.0
HPG,2010-01-15,27100.0
HPG,2010-01-18,26200.0
HPG,2010-01-19,26900.0
HPG,2010-01-20,26700.0
HPG,2010-01-21,26000.0
HPG,2010-01-22,26000.0
HPG,2010-01-25,26500.0
HPG,2010-01-26,27600.0
HPG,2010-01-27,26700.0
HPG,2010-01-28,26200.0
HPG,2010-01-29,26700.0
HPG,2010-02-01,27800.0
HPG,2010-02-02,28500.0
HPG,2010-02-03,28700.0
HPG,2010-02-04,28700.0
HPG,2010-02-05,28000.0
HPG,2010-02-08,28000.0
HPG,2010-02-09,28000.0
HPG,2010-02-10,28500.0
HPG,2010-02-11,28500.0
HPG,2010-02-12,28700.0
HPG,2010-02-22,28500.0
HPG,2010-02-23,27600.0
HPG,2010-02-24,27600.0
HPG,2010-02-25,27300.0
HPG,2010-02-26,26900.0
HPG,2010-03-01,27300.0
HPG,2010-03-02,28000.0
HPG,2010-03-03,28500.0
HPG,2010-03-04,28500.0
HPG,2010-03-05,28700.0
HPG,2010-03-08,29300.0
HPG,2010-03-09,29300.0
HPG,2010-03-10,29800.0
HPG,2010-03-11,30700.0
HPG,2010-03-12,30700.0
HPG,2010-03-15,30500.0
HPG,2010-03-16,29600.0
HPG,2010-03-17,28900.0
HPG,2010-03-18,29600.0
HPG,2010-03-19,29300.0
HPG,2010-03-22,28900.0
HPG,2010-03-23,28700.0
HPG,2010-03-24,28900.0
HPG,2010-03-25,28200.0
HPG,2010-03-26,28500.0
HPG,2010-03-29,28500.0
HPG,2010-03-30,28200.0
HPG,2010-03-31,27800.0
HPG,2010-04-01,28500.0
HPG,2010-04-02,28900.0
HPG,2010-04-05,29800.0
HPG,2010-04-06,29800.0
HPG,2010-04-07,30000.0
HPG,2010-04-08,30000.0
HPG,2010-04-09,30000.0
HPG,2010-04-12,30000.0
HPG,2010-04-13,29800.0
HPG,2010-04-14,29800.0
HPG,2010-04-15,30200.0
HPG,2010-04-16,30000.0
HPG,2010-04-19,30000.0
HPG,2010-04-20,30000.0
HPG,2010-04-21,30000.0
HPG,2010-04-22,30500.0
HPG,2010-04-26,30700.0
HPG,2010-04-27,32200.0
HPG,2010-04-28,32300.0
HPG,2010-04-29,31800.0
HPG,2010-05-04,31800.0
HPG,2010-05-05,31000.0
HPG,2010-05-06,31000.0
HPG,2010-05-07,30300.0
HPG,2010-05-10,29900.0
HPG,2010-05-11,29900.0
HPG,2010-05-12,29300.0
HPG,2010-05-13,29300.0
HPG,2010-05-14,29300.0
HPG,2010-05-17,28300.0
HPG,2010-05-18,28100.0
HPG,2010-05-19,27100.0
HPG,2010-05-20,28300.0
HPG,2010-05-21,27000.0
HPG,2010-05-24,27000.0
HPG,2010-05-25,26300.0
HPG,2010-05-26,27200.0
HPG,2010-05-27,27200.0
HPG,2010-05-28,28000.0
HPG,2010-05-31,27900.0
HPG,2010-06-01,28000.0
HPG,2010-06-02,28000.0
HPG,2010-06-03,28000.0
HPG,2010-06-04,28000.0
HPG,2010-06-07,27900.0
HPG,2010-06-08,27500.0
HPG,2010-06-09,27400.0
HPG,2010-06-10,27700.0
HPG,2010-06-11,27700.0
HPG,2010-06-14,27700.0
HPG,2010-06-15,27900.0
HPG,2010-06-16,27700.0
HPG,2010-06-17,27600.0
HPG,2010-06-18,27600.0
HPG,2010-06-21,27500.0
HPG,2010-06-22,27600.0
HPG,2010-06-23,27700.0
HPG,2010-06-24,27600.0
HPG,2010-06-25,27500.0
HPG,2010-06-28,27300.0
HPG,2010-06-29,27500.0
HPG,2010-06-30,27700.0
HPG,2010-07-01,27200.0
HPG,2010-07-02,27000.0
HPG,2010-07-05,27300.0
HPG,2010-07-06,26700.0
HPG,2010-07-07,26100.0
HPG,2010-07-08,25900.0
HPG,2010-07-09,25900.0
HPG,2010-07-12,25900.0
HPG,2010-07-13,26700.0
HPG,2010-07-14,26100.0
HPG,2010-07-15,26000.0
HPG,2010-07-16,26000.0
HPG,2010-07-19,26000.0
HPG,2010-07-20,25900.0
HPG,2010-07-21,25700.0
HPG,2010-07-22,25500.0
HPG,2010-07-23,25300.0
HPG,2010-07-26,25300.0
HPG,2010-07-27,24900.0
HPG,2010-07-28,24500.0
HPG,2010-07-29,23600.0
HPG,2010-07-30,23900.0
HPG,2010-08-02,23900.0
HPG,2010-08-03,24300.0
HPG,2010-08-04,24500.0
HPG,2010-08-05,24200.0
HPG,2010-08-06,24700.0
HPG,2010-08-09,24100.0
HPG,2010-08-10,23400.0
HPG,2010-08-11,23200.0
HPG,2010-08-12,22100.0
HPG,2010-08-13,22700.0
HPG,2010-08-16,23800.0
HPG,2010-08-17,23500.0
HPG,2010-08-18,23300.0
HPG,2010-08-19,23300.0
HPG,2010-08-20,24000.0
HPG,2010-08-23,24100.0
HPG,2010-08-24,23400.0
HPG,2010-08-25,22700.0
HPG,2010-08-26,23300.0
HPG,2010-08-27,23300.0
HPG,2010-08-30,24500.0
HPG,2010-08-31,25700.0
HPG,2010-09-01,26700.0
HPG,2010-09-06,26700.0
HPG,2010-09-07,25700.0
HPG,2010-09-08,25900.0
HPG,2010-09-09,26000.0
HPG,2010-09-10,25100.0
HPG,2010-09-13,25100.0
HPG,2010-09-14,25100.0
HPG,2010-09-15,25300.0
HPG,2010-09-16,25400.0
HPG,2010-09-17,26700.0
HPG,2010-09-20,26600.0
HPG,2010-09-21,25400.0
HPG,2010-09-22,25700.0
HPG,2010-09-23,25700.0
HPG,2010-09-24,25700.0
HPG,2010-09-27,25600.0
HPG,2010-09-28,25700.0
HPG,2010-09-29,25700.0
HPG,2010-09-30,25700.0
HPG,2010-10-01,25700.0
HPG,2010-10-04,25900.0
HPG,2010-10-05,26300.0
HPG,2010-10-06,26500.0
HPG,2010-10-07,26500.0
HPG,2010-10-08,26400.0
HPG,2010-10-11,26600.0
HPG,2010-10-12,26000.0
HPG,2010-10-13,26000.0
HPG,2010-10-14,25900.0
HPG,2010-10-15,26000.0
HPG,2010-10-18,26000.0
HPG,2010-10-19,25900.0
HPG,2010-10-20,25500.0
HPG,2010-10-21,25700.0
HPG,2010-10-22,26000.0
HPG,2010-10-25,26200.0
HPG,2010-10-26,26300.0
HPG,2010-10-27,26100.0
HPG,2010-10-28,26100.0
HPG,2010-10-29,26100.0
HPG,2010-11-01,26100.0
HPG,2010-11-02,26100.0
HPG,2010-11-03,26300.0
HPG,2010-11-04,26100.0
HPG,2010-11-05,26500.0
HPG,2010-11-08,26300.0
HPG,2010-11-09,25900.0
HPG,2010-11-10,25900.0
HPG,2010-11-11,25300.0
HPG,2010-11-12,25300.0
HPG,2010-11-15,25200.0
HPG,2010-11-16,24900.0
HPG,2010-11-17,24300.0
HPG,2010-11-18,24700.0
HPG,2010-11-19,24700.0
HPG,2010-11-22,24900.0
HPG,2010-11-23,25500.0
HPG,2010-11-24,25700.0
HPG,2010-11-25,25700.0
HPG,2010-11-26,25600.0
HPG,2010-11-29,26700.0
HPG,2010-11-30,26600.0
HPG,2010-12-01,27000.0
HPG,2010-12-02,27100.0
HPG,2010-12-03,27000.0
HPG,2010-12-06,26700.0
HPG,2010-12-07,25800.0
HPG,2010-12-08,25000.0
HPG,2010-12-09,25800.0
HPG,2010-12-10,26800.0
HPG,2010-12-13,27800.0
HPG,2010-12-14,27700.0
HPG,2010-12-15,27500.0
HPG,2010-12-16,27400.0
HPG,2010-12-17,27500.0
HPG,2010-12-20,27400.0
HPG,2010-12-21,27500.0
HPG,2010-12-22,27500.0
HPG,2010-12-23,27400.0
HPG,2010-12-24,27300.0
HPG,2010-12-27,27300.0
HPG,2010-12-28,27200.0
HPG,2010-12-29,27200.0
HPG,2010-12-30,27200.0
HPG,2010-12-31,27200.0
HPG,2011-01-04,27000.0
HPG,2011-01-05,26400.0
HPG,2011-01-06,26100.0
HPG,2011-01-07,26500.0
HPG,2011-01-10,26300.0
HPG,2011-01-11,26100.0
HPG,2011-01-12,25900.0
HPG,2011-01-13,26100.0
HPG,2011-01-14,26100.0
HPG,2011-01-17,26200.0
HPG,2011-01-18,26300.0
HPG,2011-01-19,27000.0
HPG,2011-01-20,27000.0
HPG,2011-01-21,27000.0
HPG,2011-01-24,26700.0
HPG,2011-01-25,26300.0
HPG,2011-01-26,26500.0
HPG,2011-01-27,27200.0
HPG,2011-01-28,27200.0
HPG,2011-02-08,27500.0
HPG,2011-02-09,27400.0
HPG,2011-02-10,27300.0
HPG,2011-02-11,27200.0
HPG,2011-02-14,26700.0
HPG,2011-02-15,26200.0
HPG,2011-02-16,25900.0
HPG,2011-02-17,25600.0
HPG,2011-02-18,25500.0
HPG,2011-02-21,24200.0
HPG,2011-02-22,23200.0
HPG,2011-02-23,23100.0
HPG,2011-02-24,22500.0
HPG,2011-02-25,23200.0
HPG,2011-02-28,22300.0
HPG,2011-03-01,21900.0
HPG,2011-03-02,20900.0
HPG,2011-03-03,20900.0
HPG,2011-03-04,20900.0
HPG,2011-03-07,20900.0
HPG,2011-03-08,20900.0
HPG,2011-03-09,21800.0
HPG,2011-03-10,22900.0
HPG,2011-03-11,24000.0
HPG,2011-03-14,22800.0
HPG,2011-03-15,23500.0
HPG,2011-03-16,23000.0
HPG,2011-03-17,23500.0
HPG,2011-03-18,24600.0
HPG,2011-03-21,24200.0
HPG,2011-03-22,24600.0
HPG,2011-03-23,24900.0
HPG,2011-03-24,25100.0
HPG,2011-03-25,25300.0
HPG,2011-03-28,25400.0
HPG,2011-03-29,25300.0
HPG,2011-03-30,24700.0
HPG,2011-03-31,24600.0
HPG,2011-04-01,24500.0
HPG,2011-04-04,24600.0
HPG,2011-04-05,24500.0
HPG,2011-04-06,25200.0
HPG,2011-04-07,24700.0
HPG,2011-04-08,24700.0
HPG,2011-04-13,24600.0
HPG,2011-04-14,24600.0
HPG,2011-04-15,24700.0
HPG,2011-04-18,24600.0
HPG,2011-04-19,24200.0
HPG,2011-04-20,24200.0
HPG,2011-04-21,23900.0
HPG,2011-04-22,23400.0
HPG,2011-04-25,24400.0
HPG,2011-04-26,24200.0
HPG,2011-04-27,24400.0
HPG,2011-04-28,24200.0
HPG,2011-04-29,24000.0
HPG,2011-05-04,24700.0
HPG,2011-05-05,24800.0
HPG,2011-05-06,24700.0
HPG,2011-05-09,24600.0
HPG,2011-05-10,24700.0
HPG,2011-05-11,24700.0
HPG,2011-05-12,24400.0
HPG,2011-05-13,24600.0
HPG,2011-05-16,24500.0
HPG,2011-05-17,24100.0
HPG,2011-05-18,23900.0
HPG,2011-05-19,23900.0
HPG,2011-05-20,22700.0
HPG,2011-05-23,21800.0
HPG,2011-05-24,21000.0
HPG,2011-05-25,20100.0
HPG,2011-05-26,21100.0
HPG,2011-05-27,22100.0
HPG,2011-05-30,21400.0
HPG,2011-05-31,22500.0
HPG,2011-06-01,23600.0
HPG,2011-06-02,24200.0
HPG,2011-06-03,24200.0
HPG,2011-06-06,23500.0
HPG,2011-06-07,24500.0
HPG,2011-06-08,23900.0
HPG,2011-06-09,23900.0
HPG,2011-06-10,23900.0
HPG,2011-06-13,23700.0
HPG,2011-06-14,23500.0
HPG,2011-06-15,23000.0
HPG,2011-06-16,23300.0
HPG,2011-06-17,22300.0
HPG,2011-06-20,22100.0
HPG,2011-06-21,22800.0
HPG,2011-06-22,23200.0
HPG,2011-06-23,22500.0
HPG,2011-06-24,22300.0
HPG,2011-06-27,21900.0
HPG,2011-06-28,22100.0
HPG,2011-06-29,21800.0
HPG,2011-06-30,21500.0
HPG,2011-07-01,21100.0
HPG,2011-07-04,22000.0
HPG,2011-07-05,22000.0
HPG,2011-07-06,21800.0
HPG,2011-07-07,21200.0
HPG,2011-07-08,20900.0
HPG,2011-07-11,20900.0
HPG,2011-07-12,20300.0
HPG,2011-07-13,20600.0
HPG,2011-07-14,20500.0
HPG,2011-07-15,20200.0
HPG,2011-07-18,20300.0
HPG,2011-07-19,20200.0
HPG,2011-07-20,21200.0
HPG,2011-07-21,20300.0
HPG,2011-07-22,20300.0
HPG,2011-07-25,20400.0
HPG,2011-07-26,20500.0
HPG,2011-07-27,20800.0
HPG,2011-07-28,20900.0
HPG,2011-07-29,21300.0
HPG,2011-08-01,20900.0
HPG,2011-08-02,20700.0
HPG,2011-08-03,20400.0
HPG,2011-08-04,20600.0
HPG,2011-08-05,20700.0
HPG,2011-08-08,20100.0
HPG,2011-08-09,19200.0
HPG,2011-08-10,19100.0
HPG,2011-08-11,18900.0
HPG,2011-08-12,18700.0
HPG,2011-08-15,18900.0
HPG,2011-08-16,19000.0
HPG,2011-08-17,19600.0
HPG,2011-08-18,20400.0
HPG,2011-08-19,19600.0
HPG,2011-08-22,20400.0
HPG,2011-08-23,20200.0
HPG,2011-08-24,19700.0
HPG,2011-08-25,19700.0
HPG,2011-08-26,19600.0
HPG,2011-08-29,20400.0
HPG,2011-08-30,20400.0
HPG,2011-08-31,20400.0
HPG,2011-09-01,20500.0
HPG,2011-09-05,20800.0
HPG,2011-09-06,20600.0
HPG,2011-09-07,20900.0
HPG,2011-09-08,21400.0
HPG,2011-09-09,21600.0
HPG,2011-09-12,21100.0
HPG,2011-09-13,21200.0
HPG,2011-09-14,20400.0
HPG,2011-09-15,20100.0
HPG,2011-09-16,19600.0
HPG,2011-09-19,20400.0
HPG,2011-09-20,20000.0
HPG,2011-09-21,19700.0
HPG,2011-09-22,20200.0
HPG,2011-09-23,19800.0
HPG,2011-09-26,19500.0
HPG,2011-09-27,19300.0
HPG,2011-09-28,19500.0
HPG,2011-09-29,19300.0
HPG,2011-09-30,19400.0
HPG,2011-10-03,19200.0
HPG,2011-10-04,19300.0
HPG,2011-10-05,19300.0
HPG,2011-10-06,19300.0
HPG,2011-10-07,19200.0
HPG,2011-10-10,19200.0
HPG,2011-10-11,19200.0
HPG,2011-10-12,19000.0
HPG,2011-10-13,18900.0
HPG,2011-10-14,19000.0
HPG,2011-10-17,18800.0
HPG,2011-10-18,18700.0
HPG,2011-10-19,18600.0
HPG,2011-10-20,18500.0
HPG,2011-10-21,18600.0
HPG,2011-10-24,18500.0
HPG,2011-10-25,18400.0
HPG,2011-10-26,18700.0
HPG,2011-10-27,18600.0
HPG,2011-10-28,19200.0
HPG,2011-10-31,18700.0
HPG,2011-11-01,18400.0
HPG,2011-11-02,17600.0
HPG,2011-11-03,17400.0
HPG,2011-11-04,17200.0
HPG,2011-11-07,16400.0
HPG,2011-11-08,15900.0
HPG,2011-11-09,15700.0
HPG,2011-11-10,14900.0
HPG,2011-11-11,14500.0
HPG,2011-11-14,14000.0
HPG,2011-11-15,13300.0
HPG,2011-11-16,13800.0
HPG,2011-11-17,13600.0
HPG,2011-11-18,13300.0
HPG,2011-11-21,13100.0
HPG,2011-11-22,13300.0
HPG,2011-11-23,13800.0
HPG,2011-11-24,14300.0
HPG,2011-11-25,14000.0
HPG,2011-11-28,14000.0
HPG,2011-11-29,13800.0
HPG,2011-11-30,13300.0
HPG,2011-12-01,13300.0
HPG,2011-12-02,13500.0
HPG,2011-12-05,14100.0
HPG,2011-12-06,14500.0
HPG,2011-12-07,14500.0
HPG,2011-12-08,13900.0
HPG,2011-12-09,13500.0
HPG,2011-12-12,13400.0
HPG,2011-12-13,13300.0
HPG,2011-12-14,13400.0
HPG,2011-12-15,13600.0
HPG,2011-12-16,14000.0
HPG,2011-12-19,13700.0
HPG,2011-12-20,13600.0
HPG,2011-12-21,13300.0
HPG,2011-12-22,12700.0
HPG,2011-12-23,12600.0
HPG,2011-12-26,12000.0
HPG,2011-12-27,11400.0
HPG,2011-12-28,11900.0
HPG,2011-12-29,11900.0
HPG,2011-12-30,12300.0
HPG,2012-01-03,11900.0
HPG,2012-01-04,11700.0
HPG,2012-01-05,11300.0
HPG,2012-01-06,11000.0
HPG,2012-01-09,10900.0
HPG,2012-01-10,11000.0
HPG,2012-01-11,11000.0
HPG,2012-01-12,11400.0
HPG,2012-01-13,11700.0
HPG,2012-01-16,11800.0
HPG,2012-01-17,11800.0
HPG,2012-01-18,11900.0
HPG,2012-01-19,12300.0
HPG,2012-01-20,12400.0
HPG,2012-01-30,13000.0
HPG,2012-01-31,13000.0
HPG,2012-02-01,13700.0
HPG,2012-02-02,14300.0
HPG,2012-02-03,14400.0
HPG,2012-02-06,14900.0
HPG,2012-02-07,14800.0
HPG,2012-02-08,15500.0
HPG,2012-02-09,16000.0
HPG,2012-02-10,15200.0
HPG,2012-02-13,14500.0
HPG,2012-02-14,14800.0
HPG,2012-02-15,14600.0
HPG,2012-02-16,14500.0
HPG,2012-02-17,14700.0
HPG,2012-02-20,15400.0
HPG,2012-02-21,15100.0
HPG,2012-02-22,15700.0
HPG,2012-02-23,16500.0
HPG,2012-02-24,17300.0
HPG,2012-02-27,18100.0
HPG,2012-02-28,17300.0
HPG,2012-02-29,17800.0
HPG,2012-03-01,17800.0
HPG,2012-03-02,18300.0
HPG,2012-03-05,19100.0
HPG,2012-03-06,18500.0
HPG,2012-03-07,18800.0
HPG,2012-03-08,17800.0
HPG,2012-03-09,17800.0
HPG,2012-03-12,17000.0
HPG,2012-03-13,17100.0
HPG,2012-03-14,17100.0
HPG,2012-03-15,17900.0
HPG,2012-03-16,17100.0
HPG,2012-03-19,17300.0
HPG,2012-03-20,17600.0
HPG,2012-03-21,18000.0
HPG,2012-03-22,17800.0
HPG,2012-03-23,17800.0
HPG,2012-03-26,17800.0
HPG,2012-03-27,17700.0
HPG,2012-03-28,17600.0
HPG,2012-03-29,17600.0
HPG,2012-03-30,17800.0
HPG,2012-04-03,18000.0
HPG,2012-04-04,17800.0
HPG,2012-04-05,18100.0
HPG,2012-04-06,17900.0
HPG,2012-04-09,17900.0
HPG,2012-04-10,18200.0
HPG,2012-04-11,19100.0
HPG,2012-04-12,20000.0
HPG,2012-04-13,19900.0
HPG,2012-04-16,20800.0
HPG,2012-04-17,20500.0
HPG,2012-04-18,19800.0
HPG,2012-04-19,19300.0
HPG,2012-04-20,19300.0
HPG,2012-04-23,19200.0
HPG,2012-04-24,19600.0
HPG,2012-04-25,20300.0
HPG,2012-04-26,19800.0
HPG,2012-04-27,20100.0
HPG,2012-05-02,19500.0
HPG,2012-05-03,19400.0
HPG,2012-05-04,20000.0
HPG,2012-05-07,20200.0
HPG,2012-05-08,20800.0
HPG,2012-05-09,20800.0
HPG,2012-05-10,20800.0
HPG,2012-05-11,20900.0
HPG,2012-05-14,19900.0
HPG,2012-05-15,19200.0
HPG,2012-05-16,19000.0
HPG,2012-05-17,18800.0
HPG,2012-05-18,18500.0
HPG,2012-05-21,19100.0
HPG,2012-05-22,19100.0
HPG,2012-05-23,19000.0
HPG,2012-05-24,18600.0
HPG,2012-05-25,19300.0
HPG,2012-05-28,19100.0
HPG,2012-05-29,18800.0
HPG,2012-05-30,18600.0
HPG,2012-05-31,18500.0
HPG,2012-06-01,18500.0
HPG,2012-06-04,17800.0
HPG,2012-06-05,17800.0
HPG,2012-06-06,18200.0
HPG,2012-06-07,18600.0
HPG,2012-06-08,18500.0
HPG,2012-06-11,18500.0
HPG,2012-06-12,18500.0
HPG,2012-06-13,18300.0
HPG,2012-06-14,18200.0
HPG,2012-06-15,19100.0
HPG,2012-06-18,19300.0
HPG,2012-06-19,18800.0
HPG,2012-06-20,18800.0
HPG,2012-06-21,18800.0
HPG,2012-06-22,18800.0
HPG,2012-06-25,18800.0
HPG,2012-06-26,18500.0
HPG,2012-06-27,18800.0
HPG,2012-06-28,18500.0
HPG,2012-06-29,18500.0
HPG,2012-07-02,18500.0
HPG,2012-07-03,18100.0
HPG,2012-07-04,18100.0
HPG,2012-07-05,18100.0
HPG,2012-07-06,17900.0
HPG,2012-07-09,17800.0
HPG,2012-07-10,17400.0
HPG,2012-07-11,17400.0
HPG,2012-07-12,17700.0
HPG,2012-07-13,18000.0
HPG,2012-07-16,17800.0
HPG,2012-07-17,17800.0
HPG,2012-07-18,17800.0
HPG,2012-07-19,18100.0
HPG,2012-07-20,17800.0
HPG,2012-07-23,17900.0
HPG,2012-07-24,17800.0
HPG,2012-07-25,17800.0
HPG,2012-07-26,17800.0
HPG,2012-07-27,17800.0
HPG,2012-07-30,17800.0
HPG,2012-07-31,17800.0
HPG,2012-08-01,17600.0
HPG,2012-08-02,17500.0
HPG,2012-08-03,17700.0
HPG,2012-08-06,17700.0
HPG,2012-08-07,17700.0
HPG,2012-08-08,17700.0
HPG,2012-08-09,17900.0
HPG,2012-08-10,17600.0
HPG,2012-08-13,17600.0
HPG,2012-08-14,17700.0
HPG,2012-08-15,17600.0
HPG,2012-08-16,17500.0
HPG,2012-08-17,17600.0
HPG,2012-08-20,17700.0
HPG,2012-08-21,16800.0
HPG,2012-08-22,16100.0
HPG,2012-08-23,15400.0
HPG,2012-08-24,15700.0
HPG,2012-08-27,15000.0
HPG,2012-08-28,15400.0
HPG,2012-08-29,16100.0
HPG,2012-08-30,16700.0
HPG,2012-08-31,16700.0
HPG,2012-09-04,17000.0
HPG,2012-09-05,16800.0
HPG,2012-09-06,16600.0
HPG,2012-09-07,16500.0
HPG,2012-09-10,15700.0
HPG,2012-09-11,15100.0
HPG,2012-09-12,15100.0
HPG,2012-09-13,15700.0
HPG,2012-09-14,16500.0
HPG,2012-09-17,17300.0
HPG,2012-09-18,16400.0
HPG,2012-09-19,16800.0
HPG,2012-09-20,16100.0
HPG,2012-09-21,16800.0
HPG,2012-09-24,16100.0
HPG,2012-09-25,15500.0
HPG,2012-09-26,15400.0
HPG,2012-09-27,15200.0
HPG,2012-09-28,14900.0
HPG,2012-10-01,15600.0
HPG,2012-10-02,15400.0
HPG,2012-10-03,16100.0
HPG,2012-10-04,16400.0
HPG,2012-10-05,16700.0
HPG,2012-10-08,16800.0
HPG,2012-10-09,16500.0
HPG,2012-10-10,16500.0
HPG,2012-10-11,16700.0
HPG,2012-10-12,16700.0
HPG,2012-10-15,16300.0
HPG,2012-10-16,16900.0
HPG,2012-10-17,17700.0
HPG,2012-10-18,18100.0
HPG,2012-10-19,17800.0
HPG,2012-10-22,17800.0
HPG,2012-10-23,18100.0
HPG,2012-10-24,18000.0
HPG,2012-10-25,18400.0
HPG,2012-10-26,18800.0
HPG,2012-10-29,18300.0
HPG,2012-10-30,18200.0
HPG,2012-10-31,18000.0
HPG,2012-11-01,17600.0
HPG,2012-11-02,16800.0
HPG,2012-11-05,16600.0
HPG,2012-11-06,16600.0
HPG,2012-11-07,17400.0
HPG,2012-11-08,18000.0
HPG,2012-11-09,17800.0
HPG,2012-11-12,17600.0
HPG,2012-11-13,17200.0
HPG,2012-11-14,17900.0
HPG,2012-11-15,18200.0
HPG,2012-11-16,18000.0
HPG,2012-11-19,18000.0
HPG,2012-11-20,18000.0
HPG,2012-11-21,17400.0
HPG,2012-11-22,18100.0
HPG,2012-11-23,17500.0
HPG,2012-11-26,17400.0
HPG,2012-11-27,17700.0
HPG,2012-11-28,17700.0
HPG,2012-11-29,18000.0
HPG,2012-11-30,17600.0
HPG,2012-12-03,18200.0
HPG,2012-12-04,18400.0
HPG,2012-12-05,18400.0
HPG,2012-12-06,18600.0
HPG,2012-12-07,18400.0
HPG,2012-12-10,18600.0
HPG,2012-12-11,19100.0
HPG,2012-12-12,19200.0
HPG,2012-12-13,18900.0
HPG,2012-12-14,18600.0
HPG,2012-12-17,19300.0
HPG,2012-12-18,19000.0
HPG,2012-12-19,19500.0
HPG,2012-12-20,19400.0
HPG,2012-12-21,20000.0
HPG,2012-12-24,19800.0
HPG,2012-12-25,20300.0
HPG,2012-12-26,19900.0
HPG,2012-12-27,20200.0
HPG,2012-12-28,20300.0
HPG,2013-01-02,20400.0
HPG,2013-01-03,20600.0
HPG,2013-01-04,21300.0
HPG,2013-01-07,22400.0
HPG,2013-01-08,23300.0
HPG,2013-01-09,23100.0
HPG,2013-01-10,23200.0
HPG,2013-01-11,23000.0
HPG,2013-01-14,22700.0
HPG,2013-01-15,22600.0
HPG,2013-01-16,22800.0
HPG,2013-01-17,22200.0
HPG,2013-01-18,22200.0
HPG,2013-01-21,21500.0
HPG,2013-01-22,21100.0
HPG,2013-01-23,21000.0
HPG,2013-01-24,22500.0
HPG,2013-01-25,22900.0
HPG,2013-01-28,23000.0
HPG,2013-01-29,23600.0
HPG,2013-01-30,24500.0
HPG,2013-01-31,24100.0
HPG,2013-02-01,23900.0
HPG,2013-02-04,23500.0
HPG,2013-02-05,23900.0
HPG,2013-02-06,25000.0
HPG,2013-02-07,25300.0
HPG,2013-02-08,25300.0
HPG,2013-02-18,25500.0
HPG,2013-02-19,25400.0
HPG,2013-02-20,25500.0
HPG,2013-02-21,23700.0
HPG,2013-02-22,24000.0
HPG,2013-02-25,24600.0
HPG,2013-02-26,23100.0
HPG,2013-02-27,22900.0
HPG,2013-02-28,23400.0
HPG,2013-03-01,23200.0
HPG,2013-03-04,21700.0
HPG,2013-03-05,21100.0
HPG,2013-03-06,22100.0
HPG,2013-03-07,22800.0
HPG,2013-03-08,23000.0
HPG,2013-03-11,23900.0
HPG,2013-03-12,24600.0
HPG,2013-03-13,23800.0
HPG,2013-03-14,24300.0
HPG,2013-03-15,24400.0
HPG,2013-03-18,24100.0
HPG,2013-03-19,24200.0
HPG,2013-03-20,24400.0
HPG,2013-03-21,24600.0
HPG,2013-03-22,24100.0
HPG,2013-03-25,24700.0
HPG,2013-03-26,24900.0
HPG,2013-03-27,24700.0
HPG,2013-03-28,24900.0
HPG,2013-03-29,25200.0
HPG,2013-04-01,26900.0
HPG,2013-04-02,27600.0
HPG,2013-04-03,27200.0
HPG,2013-04-04,27100.0
HPG,2013-04-05,27800.0
HPG,2013-04-08,27700.0
HPG,2013-04-09,27700.0
HPG,2013-04-10,26100.0
HPG,2013-04-11,26400.0
HPG,2013-04-12,26300.0
HPG,2013-04-15,25800.0
HPG,2013-04-16,25900.0
HPG,2013-04-17,25900.0
HPG,2013-04-18,25300.0
HPG,2013-04-22,25200.0
HPG,2013-04-23,25700.0
HPG,2013-04-24,25800.0
HPG,2013-04-25,26300.0
HPG,2013-04-26,26600.0
HPG,2013-05-02,27200.0
HPG,2013-05-03,27600.0
HPG,2013-05-06,28000.0
HPG,2013-05-07,27600.0
HPG,2013-05-08,28100.0
HPG,2013-05-09,29000.0
HPG,2013-05-10,29600.0
HPG,2013-05-13,29200.0
HPG,2013-05-14,28300.0
HPG,2013-05-15,29400.0
HPG,2013-05-16,29500.0
HPG,2013-05-17,29000.0
HPG,2013-05-20,30300.0
HPG,2013-05-21,30400.0
HPG,2013-05-22,30400.0
HPG,2013-05-23,30000.0
HPG,2013-05-24,30400.0
HPG,2013-05-27,31300.0
HPG,2013-05-28,31600.0
HPG,2013-05-29,31700.0
HPG,2013-05-30,31700.0
HPG,2013-05-31,31700.0
HPG,2013-06-03,31200.0
HPG,2013-06-04,30500.0
HPG,2013-06-05,30800.0
HPG,2013-06-06,31000.0
HPG,2013-06-07,30900.0
HPG,2013-06-10,30800.0
HPG,2013-06-11,30400.0
HPG,2013-06-12,29500.0
HPG,2013-06-13,30100.0
HPG,2013-06-14,29800.0
HPG,2013-06-17,28900.0
HPG,2013-06-18,28900.0
HPG,2013-06-19,28700.0
HPG,2013-06-20,28400.0
HPG,2013-06-21,27300.0
HPG,2013-06-24,27400.0
HPG,2013-06-25,26200.0
HPG,2013-06-26,26200.0
HPG,2013-06-27,27600.0
HPG,2013-06-28,27300.0
HPG,2013-07-01,26800.0
HPG,2013-07-02,27500.0
HPG,2013-07-03,27300.0
HPG,2013-07-04,26800.0
HPG,2013-07-05,27100.0
HPG,2013-07-08,26700.0
HPG,2013-07-09,26800.0
HPG,2013-07-10,26700.0
HPG,2013-07-11,26500.0
HPG,2013-07-12,27900.0
HPG,2013-07-15,28700.0
HPG,2013-07-16,28500.0
HPG,2013-07-17,28500.0
HPG,2013-07-18,29200.0
HPG,2013-07-19,29600.0
HPG,2013-07-22,29700.0
HPG,2013-07-23,30400.0
HPG,2013-07-24,29800.0
HPG,2013-07-25,29300.0
HPG,2013-07-26,29200.0
HPG,2013-07-29,28700.0
HPG,2013-07-30,29500.0
HPG,2013-07-31,29300.0
HPG,2013-08-01,29300.0
HPG,2013-08-02,29500.0
HPG,2013-08-05,29600.0
HPG,2013-08-06,29600.0
HPG,2013-08-07,30500.0
HPG,2013-08-08,30400.0
HPG,2013-08-09,30300.0
HPG,2013-08-12,30300.0
HPG,2013-08-13,30400.0
HPG,2013-08-14,30600.0
HPG,2013-08-15,31100.0
HPG,2013-08-16,31500.0
HPG,2013-08-19,31500.0
HPG,2013-08-20,31600.0
HPG,2013-08-21,31900.0
HPG,2013-08-22,31200.0
HPG,2013-08-23,30900.0
HPG,2013-08-26,31000.0
HPG,2013-08-27,31000.0
HPG,2013-08-28,29800.0
HPG,2013-08-29,29400.0
HPG,2013-08-30,30200.0
HPG,2013-09-03,30600.0
HPG,2013-09-04,29800.0
HPG,2013-09-05,30400.0
HPG,2013-09-06,31400.0
HPG,2013-09-09,30900.0
HPG,2013-09-10,31700.0
HPG,2013-09-11,32700.0
HPG,2013-09-12,33100.0
HPG,2013-09-13,32700.0
HPG,2013-09-16,33000.0
HPG,2013-09-17,33000.0
HPG,2013-09-18,32700.0
HPG,2013-09-19,32800.0
HPG,2013-09-20,33000.0
HPG,2013-09-23,35000.0
HPG,2013-09-24,34500.0
HPG,2013-09-25,34100.0
HPG,2013-09-26,34800.0
HPG,2013-09-27,35000.0
HPG,2013-09-30,35100.0
HPG,2013-10-01,34600.0
HPG,2013-10-02,34800.0
HPG,2013-10-03,34500.0
HPG,2013-10-04,35200.0
HPG,2013-10-07,36300.0
HPG,2013-10-08,36400.0
HPG,2013-10-09,36100.0
HPG,2013-10-10,35600.0
HPG,2013-10-11,35900.0
HPG,2013-10-14,36000.0
HPG,2013-10-15,36200.0
HPG,2013-10-16,36100.0
HPG,2013-10-17,36100.0
HPG,2013-10-18,36100.0
HPG,2013-10-21,36000.0
HPG,2013-10-22,36100.0
HPG,2013-10-23,36700.0
HPG,2013-10-24,36700.0
HPG,2013-10-25,36700.0
HPG,2013-10-28,36500.0
HPG,2013-10-29,36500.0
HPG,2013-10-30,36600.0
HPG,2013-10-31,37200.0
HPG,2013-11-01,37200.0
HPG,2013-11-04,37400.0
HPG,2013-11-05,37400.0
HPG,2013-11-06,37800.0
HPG,2013-11-07,38000.0
HPG,2013-11-08,38000.0
HPG,2013-11-11,38500.0
HPG,2013-11-12,38300.0
HPG,2013-11-13,37800.0
HPG,2013-11-14,39900.0
HPG,2013-11-15,39500.0
HPG,2013-11-18,39700.0
HPG,2013-11-19,39400.0
HPG,2013-11-20,40000.0
HPG,2013-11-21,39500.0
HPG,2013-11-22,39500.0
HPG,2013-11-25,39700.0
HPG,2013-11-26,40500.0
HPG,2013-11-27,40200.0
HPG,2013-11-28,40300.0
HPG,2013-11-29,40300.0
HPG,2013-12-02,40300.0
HPG,2013-12-03,40400.0
HPG,2013-12-04,40200.0
HPG,2013-12-05,39900.0
HPG,2013-12-06,39800.0
HPG,2013-12-09,39200.0
HPG,2013-12-10,39200.0
HPG,2013-12-11,38900.0
HPG,2013-12-12,38700.0
HPG,2013-12-13,38100.0
HPG,2013-12-16,38300.0
HPG,2013-12-17,38900.0
HPG,2013-12-18,38900.0
HPG,2013-12-19,39400.0
HPG,2013-12-20,38900.0
HPG,2013-12-23,39800.0
HPG,2013-12-24,39800.0
HPG,2013-12-25,39800.0
HPG,2013-12-26,40500.0
HPG,2013-12-27,41000.0
HPG,2013-12-30,41000.0
HPG,2013-12-31,41100.0
HPG,2014-01-02,41100.0
HPG,2014-01-03,41600.0
HPG,2014-01-06,42300.0
HPG,2014-01-07,42200.0
HPG,2014-01-08,42500.0
HPG,2014-01-09,43200.0
HPG,2014-01-10,43100.0
HPG,2014-01-13,43300.0
HPG,2014-01-14,45000.0
HPG,2014-01-15,46000.0
HPG,2014-01-16,47500.0
HPG,2014-01-17,50500.0
HPG,2014-01-20,52000.0
HPG,2014-01-21,54000.0
HPG,2014-01-22,50500.0
HPG,2014-01-23,47200.0
HPG,2014-01-24,46400.0
HPG,2014-01-27,45600.0
HPG,2014-02-06,48400.0
HPG,2014-02-07,47700.0
HPG,2014-02-10,47800.0
HPG,2014-02-11,47600.0
HPG,2014-02-12,48900.0
HPG,2014-02-13,49200.0
HPG,2014-02-14,48600.0
HPG,2014-02-17,48000.0
HPG,2014-02-18,48500.0
HPG,2014-02-19,48300.0
HPG,2014-02-20,46900.0
HPG,2014-02-21,47500.0
HPG,2014-02-24,48600.0
HPG,2014-02-25,52000.0
HPG,2014-02-26,51000.0
HPG,2014-02-27,49500.0
HPG,2014-02-28,48400.0
HPG,2014-03-03,48500.0
HPG,2014-03-04,47800.0
HPG,2014-03-05,48400.0
HPG,2014-03-06,49000.0
HPG,2014-03-07,48600.0
HPG,2014-03-10,48800.0
HPG,2014-03-11,49900.0
HPG,2014-03-12,51500.0
HPG,2014-03-13,51000.0
HPG,2014-03-14,50000.0
HPG,2014-03-17,49000.0
HPG,2014-03-18,49900.0
HPG,2014-03-19,52500.0
HPG,2014-03-20,52000.0
HPG,2014-03-21,52000.0
HPG,2014-03-24,53000.0
HPG,2014-03-25,51500.0
HPG,2014-03-26,51500.0
HPG,2014-03-27,52500.0
HPG,2014-03-28,53000.0
HPG,2014-03-31,53000.0
HPG,2014-04-01,52000.0
HPG,2014-04-02,52000.0
HPG,2014-04-03,52500.0
HPG,2014-04-04,55500.0
HPG,2014-04-07,57000.0
HPG,2014-04-08,56500.0
HPG,2014-04-10,57000.0
HPG,2014-04-11,56000.0
HPG,2014-04-14,57000.0
HPG,2014-04-15,54500.0
HPG,2014-04-16,54000.0
HPG,2014-04-17,54000.0
HPG,2014-04-18,52000.0
HPG,2014-04-21,43900.0
HPG,2014-04-22,46900.0
HPG,2014-04-23,46900.0
HPG,2014-04-24,47500.0
HPG,2014-04-25,49600.0
HPG,2014-04-28,49300.0
HPG,2014-04-29,49700.0
HPG,2014-05-05,48300.0
HPG,2014-05-06,47900.0
HPG,2014-05-07,47300.0
HPG,2014-05-08,44000.0
HPG,2014-05-09,46200.0
HPG,2014-05-12,44000.0
HPG,2014-05-13,44300.0
HPG,2014-05-14,47000.0
HPG,2014-05-15,46800.0
HPG,2014-05-16,47000.0
HPG,2014-05-19,49100.0
HPG,2014-05-20,48700.0
HPG,2014-05-21,48500.0
