HQC,2010-10-20,17300.0
HQC,2010-10-21,17300.0
HQC,2010-10-22,18200.0
HQC,2010-10-25,19000.0
HQC,2010-10-26,19000.0
HQC,2010-10-27,18100.0
HQC,2010-10-28,17200.0
HQC,2010-10-29,16300.0
HQC,2010-11-01,16800.0
HQC,2010-11-02,16600.0
HQC,2010-11-03,16600.0
HQC,2010-11-04,16600.0
HQC,2010-11-05,16400.0
HQC,2010-11-08,16400.0
HQC,2010-11-09,17000.0
HQC,2010-11-10,16700.0
HQC,2010-11-11,16100.0
HQC,2010-11-12,16200.0
HQC,2010-11-15,16000.0
HQC,2010-11-16,16100.0
HQC,2010-11-17,16200.0
HQC,2010-11-18,16600.0
HQC,2010-11-19,16600.0
HQC,2010-11-22,15900.0
HQC,2010-11-23,16600.0
HQC,2010-11-24,16700.0
HQC,2010-11-25,17100.0
HQC,2010-11-26,16900.0
HQC,2010-11-29,17100.0
HQC,2010-11-30,17200.0
HQC,2010-12-01,17300.0
HQC,2010-12-02,16700.0
HQC,2010-12-03,15900.0
HQC,2010-12-06,16700.0
HQC,2010-12-07,16000.0
HQC,2010-12-08,16500.0
HQC,2010-12-09,16400.0
HQC,2010-12-10,16800.0
HQC,2010-12-13,17300.0
HQC,2010-12-14,17600.0
HQC,2010-12-15,18300.0
HQC,2010-12-16,17600.0
HQC,2010-12-17,18400.0
HQC,2010-12-20,19300.0
HQC,2010-12-21,19300.0
HQC,2010-12-22,18600.0
HQC,2010-12-23,19300.0
HQC,2010-12-24,20300.0
HQC,2010-12-27,21300.0
HQC,2010-12-28,21200.0
HQC,2010-12-29,20600.0
HQC,2010-12-30,21600.0
HQC,2010-12-31,21600.0
HQC,2011-01-04,21600.0
HQC,2011-01-05,20700.0
HQC,2011-01-06,20700.0
HQC,2011-01-07,21200.0
HQC,2011-01-10,20700.0
HQC,2011-01-11,20400.0
HQC,2011-01-12,21200.0
HQC,2011-01-13,21400.0
HQC,2011-01-14,22400.0
HQC,2011-01-17,23500.0
HQC,2011-01-18,24700.0
HQC,2011-01-19,24600.0
HQC,2011-01-20,25800.0
HQC,2011-01-21,25800.0
HQC,2011-01-24,24700.0
HQC,2011-01-25,24500.0
HQC,2011-01-26,25700.0
HQC,2011-01-27,26800.0
HQC,2011-01-28,27200.0
HQC,2011-02-08,26900.0
HQC,2011-02-09,25800.0
HQC,2011-02-10,25700.0
HQC,2011-02-11,26800.0
HQC,2011-02-14,26100.0
HQC,2011-02-15,25300.0
HQC,2011-02-16,25400.0
HQC,2011-02-17,25200.0
HQC,2011-02-18,24000.0
HQC,2011-02-21,22800.0
HQC,2011-02-22,22200.0
HQC,2011-02-23,22200.0
HQC,2011-02-24,21200.0
HQC,2011-02-25,22300.0
HQC,2011-02-28,22100.0
HQC,2011-03-01,22100.0
HQC,2011-03-02,21000.0
HQC,2011-03-03,20700.0
HQC,2011-03-04,20700.0
HQC,2011-03-07,20700.0
HQC,2011-03-08,20700.0
HQC,2011-03-09,20400.0
HQC,2011-03-10,21400.0
HQC,2011-03-11,22300.0
HQC,2011-03-14,21200.0
HQC,2011-03-15,20900.0
HQC,2011-03-16,21200.0
HQC,2011-03-17,21500.0
HQC,2011-03-18,22100.0
HQC,2011-03-21,22100.0
HQC,2011-03-22,21300.0
HQC,2011-03-23,21300.0
HQC,2011-03-24,21000.0
HQC,2011-03-25,20900.0
HQC,2011-03-28,20900.0
HQC,2011-03-29,20800.0
HQC,2011-03-30,20700.0
HQC,2011-03-31,20700.0
HQC,2011-04-01,21000.0
HQC,2011-04-04,20600.0
HQC,2011-04-05,20600.0
HQC,2011-04-06,21600.0
HQC,2011-04-07,21600.0
HQC,2011-04-08,21600.0
HQC,2011-04-13,21500.0
HQC,2011-04-14,21400.0
HQC,2011-04-15,21000.0
HQC,2011-04-18,20700.0
HQC,2011-04-19,20600.0
HQC,2011-04-20,20600.0
HQC,2011-04-21,20600.0
HQC,2011-04-22,20400.0
HQC,2011-04-25,21400.0
HQC,2011-04-26,21000.0
HQC,2011-04-27,21100.0
HQC,2011-04-28,21300.0
HQC,2011-04-29,22000.0
HQC,2011-05-04,21600.0
HQC,2011-05-05,21500.0
HQC,2011-05-06,21500.0
HQC,2011-05-09,21600.0
HQC,2011-05-10,21500.0
HQC,2011-05-11,21400.0
HQC,2011-05-12,21200.0
HQC,2011-05-13,21200.0
HQC,2011-05-16,21000.0
HQC,2011-05-17,20900.0
HQC,2011-05-18,20500.0
HQC,2011-05-19,19600.0
HQC,2011-05-20,19600.0
HQC,2011-05-23,18600.0
HQC,2011-05-24,17700.0
HQC,2011-05-25,16900.0
HQC,2011-05-26,16000.0
HQC,2011-05-27,15300.0
HQC,2011-05-30,14500.0
HQC,2011-05-31,14300.0
HQC,2011-06-01,14900.0
HQC,2011-06-02,15700.0
HQC,2011-06-03,14900.0
HQC,2011-06-06,14100.0
HQC,2011-06-07,14300.0
HQC,2011-06-08,13800.0
HQC,2011-06-09,14300.0
HQC,2011-06-10,14500.0
HQC,2011-06-13,15200.0
HQC,2011-06-14,14800.0
HQC,2011-06-15,14700.0
HQC,2011-06-16,14800.0
HQC,2011-06-17,14300.0
HQC,2011-06-20,13900.0
HQC,2011-06-21,14500.0
HQC,2011-06-22,14800.0
HQC,2011-06-23,14800.0
HQC,2011-06-24,14800.0
HQC,2011-06-27,14500.0
HQC,2011-06-28,13800.0
HQC,2011-06-29,13100.0
HQC,2011-06-30,12500.0
HQC,2011-07-01,11900.0
HQC,2011-07-04,11400.0
HQC,2011-07-05,10800.0
HQC,2011-07-06,10300.0
HQC,2011-07-07,9800.0
HQC,2011-07-08,9300.0
HQC,2011-07-11,8900.0
HQC,2011-07-12,8500.0
HQC,2011-07-13,8100.0
HQC,2011-07-14,7700.0
HQC,2011-07-15,7900.0
HQC,2011-07-18,7800.0
HQC,2011-07-19,7600.0
HQC,2011-07-20,7500.0
HQC,2011-07-21,7300.0
HQC,2011-07-22,7000.0
HQC,2011-07-25,6700.0
HQC,2011-07-26,6400.0
HQC,2011-07-27,6700.0
HQC,2011-07-28,7000.0
HQC,2011-07-29,6900.0
HQC,2011-08-01,6900.0
HQC,2011-08-02,6500.0
HQC,2011-08-03,6500.0
HQC,2011-08-04,6800.0
HQC,2011-08-05,6600.0
HQC,2011-08-08,6400.0
HQC,2011-08-09,6300.0
HQC,2011-08-10,6300.0
HQC,2011-08-11,6100.0
HQC,2011-08-12,6300.0
HQC,2011-08-15,6300.0
HQC,2011-08-16,6200.0
HQC,2011-08-17,6400.0
HQC,2011-08-18,6400.0
HQC,2011-08-19,6200.0
HQC,2011-08-22,6500.0
HQC,2011-08-23,6400.0
HQC,2011-08-24,6700.0
HQC,2011-08-25,7000.0
HQC,2011-08-26,7400.0
HQC,2011-08-29,7700.0
HQC,2011-08-30,7500.0
HQC,2011-08-31,7500.0
HQC,2011-09-01,7500.0
HQC,2011-09-05,7300.0
HQC,2011-09-06,7000.0
HQC,2011-09-07,7300.0
HQC,2011-09-08,7700.0
HQC,2011-09-09,8000.0
HQC,2011-09-12,8400.0
HQC,2011-09-13,8800.0
HQC,2011-09-14,8400.0
HQC,2011-09-15,8300.0
HQC,2011-09-16,7900.0
HQC,2011-09-19,8200.0
HQC,2011-09-20,7800.0
HQC,2011-09-21,7500.0
HQC,2011-09-22,7800.0
HQC,2011-09-23,7500.0
HQC,2011-09-26,7500.0
HQC,2011-09-27,7500.0
HQC,2011-09-28,7800.0
HQC,2011-09-29,8100.0
HQC,2011-09-30,7700.0
HQC,2011-10-03,7700.0
HQC,2011-10-04,7500.0
HQC,2011-10-05,7500.0
HQC,2011-10-06,7700.0
HQC,2011-10-07,7400.0
HQC,2011-10-10,7000.0
HQC,2011-10-11,6700.0
HQC,2011-10-12,6400.0
HQC,2011-10-13,6200.0
HQC,2011-10-14,6400.0
HQC,2011-10-17,6200.0
HQC,2011-10-18,5900.0
HQC,2011-10-19,5800.0
HQC,2011-10-20,5600.0
HQC,2011-10-21,5900.0
HQC,2011-10-24,5700.0
HQC,2011-10-25,5700.0
HQC,2011-10-26,5500.0
HQC,2011-10-27,5500.0
HQC,2011-10-28,5700.0
HQC,2011-10-31,5900.0
HQC,2011-11-01,5600.0
HQC,2011-11-02,5400.0
HQC,2011-11-03,5500.0
HQC,2011-11-04,5400.0
HQC,2011-11-07,5300.0
HQC,2011-11-08,5100.0
HQC,2011-11-09,4900.0
HQC,2011-11-10,4700.0
HQC,2011-11-11,4500.0
HQC,2011-11-14,4200.0
HQC,2011-11-15,4100.0
HQC,2011-11-16,4200.0
HQC,2011-11-17,4000.0
HQC,2011-11-18,3900.0
HQC,2011-11-21,3700.0
HQC,2011-11-22,3500.0
HQC,2011-11-23,3500.0
HQC,2011-11-24,3600.0
HQC,2011-11-25,3600.0
HQC,2011-11-28,3800.0
HQC,2011-11-29,3900.0
HQC,2011-11-30,3700.0
HQC,2011-12-01,3600.0
HQC,2011-12-02,3700.0
HQC,2011-12-05,3900.0
HQC,2011-12-06,3700.0
HQC,2011-12-07,3600.0
HQC,2011-12-08,3700.0
HQC,2011-12-09,3700.0
HQC,2011-12-12,3500.0
HQC,2011-12-13,3500.0
HQC,2011-12-14,3600.0
HQC,2011-12-15,3600.0
HQC,2011-12-16,3700.0
HQC,2011-12-19,3500.0
HQC,2011-12-20,3400.0
HQC,2011-12-21,3200.0
HQC,2011-12-22,3100.0
HQC,2011-12-23,3000.0
HQC,2011-12-26,2900.0
HQC,2011-12-27,2700.0
HQC,2011-12-28,2600.0
HQC,2011-12-29,2500.0
HQC,2011-12-30,2600.0
HQC,2012-01-03,2700.0
HQC,2012-01-04,2700.0
HQC,2012-01-05,2600.0
HQC,2012-01-06,2500.0
HQC,2012-01-09,2500.0
HQC,2012-01-10,2500.0
HQC,2012-01-11,2500.0
HQC,2012-01-12,2400.0
HQC,2012-01-13,2400.0
HQC,2012-01-16,2300.0
HQC,2012-01-17,2400.0
HQC,2012-01-18,2300.0
HQC,2012-01-19,2400.0
HQC,2012-01-20,2500.0
HQC,2012-01-30,2600.0
HQC,2012-01-31,2600.0
HQC,2012-02-01,2700.0
HQC,2012-02-02,2800.0
HQC,2012-02-03,2800.0
HQC,2012-02-06,2700.0
HQC,2012-02-07,2800.0
HQC,2012-02-08,2900.0
HQC,2012-02-09,2900.0
HQC,2012-02-10,2700.0
HQC,2012-02-13,2600.0
HQC,2012-02-14,2700.0
HQC,2012-02-15,2700.0
HQC,2012-02-16,2600.0
HQC,2012-02-17,2700.0
HQC,2012-02-20,2800.0
HQC,2012-02-21,2900.0
HQC,2012-02-22,3000.0
HQC,2012-02-23,3100.0
HQC,2012-02-24,3100.0
HQC,2012-02-27,3200.0
HQC,2012-02-28,3100.0
HQC,2012-02-29,3200.0
HQC,2012-03-01,3200.0
HQC,2012-03-02,3300.0
HQC,2012-03-05,3400.0
HQC,2012-03-06,3200.0
HQC,2012-03-07,3400.0
HQC,2012-03-08,3500.0
HQC,2012-03-09,3700.0
HQC,2012-03-12,3600.0
HQC,2012-03-13,3700.0
HQC,2012-03-14,3900.0
HQC,2012-03-15,4100.0
HQC,2012-03-16,4200.0
HQC,2012-03-19,4100.0
HQC,2012-03-20,4100.0
HQC,2012-03-21,4200.0
HQC,2012-03-22,4400.0
HQC,2012-03-23,4500.0
HQC,2012-03-26,4700.0
HQC,2012-03-27,4700.0
HQC,2012-03-28,4600.0
HQC,2012-03-29,4400.0
HQC,2012-03-30,4300.0
HQC,2012-04-03,4400.0
HQC,2012-04-04,4200.0
HQC,2012-04-05,4000.0
HQC,2012-04-06,4200.0
HQC,2012-04-09,4400.0
HQC,2012-04-10,4200.0
HQC,2012-04-11,4400.0
HQC,2012-04-12,4500.0
HQC,2012-04-13,4700.0
HQC,2012-04-16,4900.0
HQC,2012-04-17,5000.0
HQC,2012-04-18,5300.0
HQC,2012-04-19,5000.0
HQC,2012-04-20,4800.0
HQC,2012-04-23,4900.0
HQC,2012-04-24,4900.0
HQC,2012-04-25,5100.0
HQC,2012-04-26,5100.0
HQC,2012-04-27,5000.0
HQC,2012-05-02,5300.0
HQC,2012-05-03,5400.0
HQC,2012-05-04,5600.0
HQC,2012-05-07,5900.0
HQC,2012-05-08,5800.0
HQC,2012-05-09,6000.0
HQC,2012-05-10,6300.0
HQC,2012-05-11,6000.0
HQC,2012-05-14,5800.0
HQC,2012-05-15,5500.0
HQC,2012-05-16,5300.0
HQC,2012-05-17,5000.0
HQC,2012-05-18,4800.0
HQC,2012-05-21,4900.0
HQC,2012-05-22,4900.0
HQC,2012-05-23,4700.0
HQC,2012-05-24,4500.0
HQC,2012-05-25,4700.0
HQC,2012-05-28,4700.0
HQC,2012-05-29,4600.0
HQC,2012-05-30,4500.0
HQC,2012-05-31,4400.0
HQC,2012-06-01,4300.0
HQC,2012-06-04,4100.0
HQC,2012-06-05,4300.0
HQC,2012-06-06,4400.0
HQC,2012-06-07,4600.0
HQC,2012-06-08,4800.0
HQC,2012-06-11,4900.0
HQC,2012-06-12,4700.0
HQC,2012-06-13,4600.0
HQC,2012-06-14,4500.0
HQC,2012-06-15,4700.0
HQC,2012-06-18,4800.0
HQC,2012-06-19,4600.0
HQC,2012-06-20,4700.0
HQC,2012-06-21,4500.0
HQC,2012-06-22,4400.0
HQC,2012-06-25,4200.0
HQC,2012-06-26,4200.0
HQC,2012-06-27,4100.0
HQC,2012-06-28,4200.0
HQC,2012-06-29,4200.0
HQC,2012-07-02,4200.0
HQC,2012-07-03,4100.0
HQC,2012-07-04,4000.0
HQC,2012-07-05,4200.0
HQC,2012-07-06,4300.0
HQC,2012-07-09,4100.0
HQC,2012-07-10,4200.0
HQC,2012-07-11,4100.0
HQC,2012-07-12,4100.0
HQC,2012-07-13,4300.0
HQC,2012-07-16,4200.0
HQC,2012-07-17,4400.0
HQC,2012-07-18,4300.0
HQC,2012-07-19,4400.0
HQC,2012-07-20,4600.0
HQC,2012-07-23,4500.0
HQC,2012-07-24,4400.0
HQC,2012-07-25,4200.0
HQC,2012-07-26,4400.0
HQC,2012-07-27,4200.0
HQC,2012-07-30,4200.0
HQC,2012-07-31,4200.0
HQC,2012-08-01,4000.0
HQC,2012-08-02,4000.0
HQC,2012-08-03,4000.0
HQC,2012-08-06,4200.0
HQC,2012-08-07,4200.0
HQC,2012-08-08,4300.0
HQC,2012-08-09,4300.0
HQC,2012-08-10,4200.0
HQC,2012-08-13,4200.0
HQC,2012-08-14,4200.0
HQC,2012-08-15,4200.0
HQC,2012-08-16,4300.0
HQC,2012-08-17,4300.0
HQC,2012-08-20,4200.0
HQC,2012-08-21,4000.0
HQC,2012-08-22,3900.0
HQC,2012-08-23,3700.0
HQC,2012-08-24,3500.0
HQC,2012-08-27,3400.0
HQC,2012-08-28,3400.0
HQC,2012-08-29,3500.0
HQC,2012-08-30,3500.0
HQC,2012-08-31,3500.0
HQC,2012-09-04,3400.0
HQC,2012-09-05,3400.0
HQC,2012-09-06,3400.0
HQC,2012-09-07,3300.0
HQC,2012-09-10,3200.0
HQC,2012-09-11,3100.0
HQC,2012-09-12,3100.0
HQC,2012-09-13,3200.0
HQC,2012-09-14,3300.0
HQC,2012-09-17,3400.0
HQC,2012-09-18,3300.0
HQC,2012-09-19,3400.0
HQC,2012-09-20,3300.0
HQC,2012-09-21,3400.0
HQC,2012-09-24,3300.0
HQC,2012-09-25,3300.0
HQC,2012-09-26,3400.0
HQC,2012-09-27,3300.0
HQC,2012-09-28,3200.0
HQC,2012-10-01,3100.0
HQC,2012-10-02,3000.0
HQC,2012-10-03,3000.0
HQC,2012-10-04,2900.0
HQC,2012-10-05,2900.0
HQC,2012-10-08,2900.0
HQC,2012-10-09,3000.0
HQC,2012-10-10,3100.0
HQC,2012-10-11,3200.0
HQC,2012-10-12,3300.0
HQC,2012-10-15,3200.0
HQC,2012-10-16,3300.0
HQC,2012-10-17,3400.0
HQC,2012-10-18,3400.0
HQC,2012-10-19,3400.0
HQC,2012-10-22,3300.0
HQC,2012-10-23,3400.0
HQC,2012-10-24,3400.0
HQC,2012-10-25,3400.0
HQC,2012-10-26,3500.0
HQC,2012-10-29,3500.0
HQC,2012-10-30,3600.0
HQC,2012-10-31,3600.0
HQC,2012-11-01,3700.0
HQC,2012-11-02,3500.0
HQC,2012-11-05,3400.0
HQC,2012-11-06,3500.0
HQC,2012-11-07,3600.0
HQC,2012-11-08,3600.0
HQC,2012-11-09,3800.0
HQC,2012-11-12,3700.0
HQC,2012-11-13,3500.0
HQC,2012-11-14,3500.0
HQC,2012-11-15,3400.0
HQC,2012-11-16,3400.0
HQC,2012-11-19,3300.0
HQC,2012-11-20,3400.0
HQC,2012-11-21,3400.0
HQC,2012-11-22,3400.0
HQC,2012-11-23,3400.0
HQC,2012-11-26,3300.0
HQC,2012-11-27,3400.0
HQC,2012-11-28,3400.0
HQC,2012-11-29,3400.0
HQC,2012-11-30,3400.0
HQC,2012-12-03,3400.0
HQC,2012-12-04,3400.0
HQC,2012-12-05,3500.0
HQC,2012-12-06,3600.0
HQC,2012-12-07,3600.0
HQC,2012-12-10,3700.0
HQC,2012-12-11,3600.0
HQC,2012-12-12,3700.0
HQC,2012-12-13,3500.0
HQC,2012-12-14,3500.0
HQC,2012-12-17,3600.0
HQC,2012-12-18,3500.0
HQC,2012-12-19,3700.0
HQC,2012-12-20,3700.0
HQC,2012-12-21,3600.0
HQC,2012-12-24,3500.0
HQC,2012-12-25,3500.0
HQC,2012-12-26,3600.0
HQC,2012-12-27,3800.0
HQC,2012-12-28,3900.0
HQC,2013-01-02,4100.0
HQC,2013-01-03,4000.0
HQC,2013-01-04,3900.0
HQC,2013-01-07,3900.0
HQC,2013-01-08,4000.0
HQC,2013-01-09,3900.0
HQC,2013-01-10,3900.0
HQC,2013-01-11,3900.0
HQC,2013-01-14,3900.0
HQC,2013-01-15,4100.0
HQC,2013-01-16,4400.0
HQC,2013-01-17,4400.0
HQC,2013-01-18,4500.0
HQC,2013-01-21,4700.0
HQC,2013-01-22,4400.0
HQC,2013-01-23,4200.0
HQC,2013-01-24,4400.0
HQC,2013-01-25,4700.0
HQC,2013-01-28,4400.0
HQC,2013-01-29,4600.0
HQC,2013-01-30,4600.0
HQC,2013-01-31,4500.0
HQC,2013-02-01,4600.0
HQC,2013-02-04,4500.0
HQC,2013-02-05,4400.0
HQC,2013-02-06,4600.0
HQC,2013-02-07,4800.0
HQC,2013-02-08,5000.0
HQC,2013-02-18,5400.0
HQC,2013-02-19,5100.0
HQC,2013-02-20,5400.0
HQC,2013-02-21,5100.0
HQC,2013-02-22,5200.0
HQC,2013-02-25,5200.0
HQC,2013-02-26,4900.0
HQC,2013-02-27,4900.0
HQC,2013-02-28,5100.0
HQC,2013-03-01,4900.0
HQC,2013-03-04,4600.0
HQC,2013-03-05,4400.0
HQC,2013-03-06,4500.0
HQC,2013-03-07,4400.0
HQC,2013-03-08,4400.0
HQC,2013-03-11,4700.0
HQC,2013-03-12,4700.0
HQC,2013-03-13,4500.0
HQC,2013-03-14,4700.0
HQC,2013-03-15,4600.0
HQC,2013-03-18,4700.0
HQC,2013-03-19,4700.0
HQC,2013-03-20,4800.0
HQC,2013-03-21,4700.0
HQC,2013-03-22,4500.0
HQC,2013-03-25,4500.0
HQC,2013-03-26,4400.0
HQC,2013-03-27,4400.0
HQC,2013-03-28,4300.0
HQC,2013-03-29,4300.0
HQC,2013-04-01,4500.0
HQC,2013-04-02,4700.0
HQC,2013-04-03,4700.0
HQC,2013-04-04,4400.0
HQC,2013-04-05,4400.0
HQC,2013-04-08,4400.0
HQC,2013-04-09,4400.0
HQC,2013-04-10,4400.0
HQC,2013-04-11,4400.0
HQC,2013-04-12,4400.0
HQC,2013-04-15,4200.0
HQC,2013-04-16,4100.0
HQC,2013-04-17,4200.0
HQC,2013-04-18,4100.0
HQC,2013-04-22,3900.0
HQC,2013-04-23,4000.0
HQC,2013-04-24,4000.0
HQC,2013-04-25,4300.0
HQC,2013-04-26,4100.0
HQC,2013-05-02,4000.0
HQC,2013-05-03,4300.0
HQC,2013-05-06,4500.0
HQC,2013-05-07,4800.0
HQC,2013-05-08,4600.0
HQC,2013-05-09,4800.0
HQC,2013-05-10,4800.0
HQC,2013-05-13,4900.0
HQC,2013-05-14,4800.0
HQC,2013-05-15,4900.0
HQC,2013-05-16,5100.0
HQC,2013-05-17,5000.0
HQC,2013-05-20,5100.0
HQC,2013-05-21,5100.0
HQC,2013-05-22,5100.0
HQC,2013-05-23,5200.0
HQC,2013-05-24,5500.0
HQC,2013-05-27,5800.0
HQC,2013-05-28,5900.0
HQC,2013-05-29,5800.0
HQC,2013-05-30,5900.0
HQC,2013-05-31,5700.0
HQC,2013-06-03,6000.0
HQC,2013-06-04,5900.0
HQC,2013-06-05,6000.0
HQC,2013-06-06,6300.0
HQC,2013-06-07,6700.0
HQC,2013-06-10,7000.0
HQC,2013-06-11,7000.0
HQC,2013-06-12,7100.0
HQC,2013-06-13,7100.0
HQC,2013-06-14,7500.0
HQC,2013-06-17,7500.0
HQC,2013-06-18,7300.0
HQC,2013-06-19,7400.0
HQC,2013-06-20,7000.0
HQC,2013-06-21,7200.0
HQC,2013-06-24,7000.0
HQC,2013-06-25,6600.0
HQC,2013-06-26,6800.0
HQC,2013-06-27,6800.0
HQC,2013-06-28,6600.0
HQC,2013-07-01,6400.0
HQC,2013-07-02,6700.0
HQC,2013-07-03,6600.0
HQC,2013-07-04,6800.0
HQC,2013-07-05,6800.0
HQC,2013-07-08,6500.0
HQC,2013-07-09,6500.0
HQC,2013-07-10,6500.0
HQC,2013-07-11,6500.0
HQC,2013-07-12,6800.0
HQC,2013-07-15,6700.0
HQC,2013-07-16,6700.0
HQC,2013-07-17,6800.0
HQC,2013-07-18,6700.0
HQC,2013-07-19,6700.0
HQC,2013-07-22,6500.0
HQC,2013-07-23,6200.0
HQC,2013-07-24,5900.0
HQC,2013-07-25,5900.0
HQC,2013-07-26,5900.0
HQC,2013-07-29,5600.0
HQC,2013-07-30,5500.0
HQC,2013-07-31,5500.0
HQC,2013-08-01,5600.0
HQC,2013-08-02,5900.0
HQC,2013-08-05,6000.0
HQC,2013-08-06,6100.0
HQC,2013-08-07,6000.0
HQC,2013-08-08,5900.0
HQC,2013-08-09,6000.0
HQC,2013-08-12,5900.0
HQC,2013-08-13,5700.0
HQC,2013-08-14,5900.0
HQC,2013-08-15,6200.0
HQC,2013-08-16,6300.0
HQC,2013-08-19,6200.0
HQC,2013-08-20,6200.0
HQC,2013-08-21,6100.0
HQC,2013-08-22,6100.0
HQC,2013-08-23,6000.0
HQC,2013-08-26,6100.0
HQC,2013-08-27,6000.0
HQC,2013-08-28,5700.0
HQC,2013-08-29,5700.0
HQC,2013-08-30,5900.0
HQC,2013-09-03,5700.0
HQC,2013-09-04,5500.0
HQC,2013-09-05,5500.0
HQC,2013-09-06,5500.0
HQC,2013-09-09,5300.0
HQC,2013-09-10,5500.0
HQC,2013-09-11,5600.0
HQC,2013-09-12,5700.0
HQC,2013-09-13,5500.0
HQC,2013-09-16,5500.0
HQC,2013-09-17,5500.0
HQC,2013-09-18,5400.0
HQC,2013-09-19,5400.0
HQC,2013-09-20,5300.0
HQC,2013-09-23,5600.0
HQC,2013-09-24,5700.0
HQC,2013-09-25,5800.0
HQC,2013-09-26,5800.0
HQC,2013-09-27,5900.0
HQC,2013-09-30,6000.0
HQC,2013-10-01,5900.0
HQC,2013-10-02,6100.0
HQC,2013-10-03,6100.0
HQC,2013-10-04,6100.0
HQC,2013-10-07,6300.0
HQC,2013-10-08,6100.0
HQC,2013-10-09,6200.0
HQC,2013-10-10,5900.0
HQC,2013-10-11,6000.0
HQC,2013-10-14,5900.0
HQC,2013-10-15,6000.0
HQC,2013-10-16,6000.0
HQC,2013-10-17,6000.0
HQC,2013-10-18,6100.0
HQC,2013-10-21,6500.0
HQC,2013-10-22,6400.0
HQC,2013-10-23,6400.0
HQC,2013-10-24,6200.0
HQC,2013-10-25,6300.0
HQC,2013-10-28,6200.0
HQC,2013-10-29,6200.0
HQC,2013-10-30,6200.0
HQC,2013-10-31,6200.0
HQC,2013-11-01,6100.0
HQC,2013-11-04,6300.0
HQC,2013-11-05,6500.0
HQC,2013-11-06,6400.0
HQC,2013-11-07,6500.0
HQC,2013-11-08,6700.0
HQC,2013-11-11,7100.0
HQC,2013-11-12,6800.0
HQC,2013-11-13,6900.0
HQC,2013-11-14,7100.0
HQC,2013-11-15,7100.0
HQC,2013-11-18,7200.0
HQC,2013-11-19,7200.0
HQC,2013-11-20,7400.0
HQC,2013-11-21,6900.0
HQC,2013-11-22,6900.0
HQC,2013-11-25,6700.0
HQC,2013-11-26,7000.0
HQC,2013-11-27,7100.0
HQC,2013-11-28,7000.0
HQC,2013-11-29,6900.0
HQC,2013-12-02,7000.0
HQC,2013-12-03,7000.0
HQC,2013-12-04,7200.0
HQC,2013-12-05,7100.0
HQC,2013-12-06,7100.0
HQC,2013-12-09,6900.0
HQC,2013-12-10,7000.0
HQC,2013-12-11,6700.0
HQC,2013-12-12,6800.0
HQC,2013-12-13,6800.0
HQC,2013-12-16,6800.0
HQC,2013-12-17,6900.0
HQC,2013-12-18,6900.0
HQC,2013-12-19,7300.0
HQC,2013-12-20,7800.0
HQC,2013-12-23,7800.0
HQC,2013-12-24,8000.0
HQC,2013-12-25,8400.0
HQC,2013-12-26,8200.0
HQC,2013-12-27,7700.0
HQC,2013-12-30,7400.0
HQC,2013-12-31,7700.0
HQC,2014-01-02,7800.0
HQC,2014-01-03,7700.0
HQC,2014-01-06,8000.0
HQC,2014-01-07,7800.0
HQC,2014-01-08,7900.0
HQC,2014-01-09,7900.0
HQC,2014-01-10,8000.0
HQC,2014-01-13,8000.0
HQC,2014-01-14,8000.0
HQC,2014-01-15,7900.0
HQC,2014-01-16,7700.0
HQC,2014-01-17,7700.0
HQC,2014-01-20,7200.0
HQC,2014-01-21,7400.0
HQC,2014-01-22,7200.0
HQC,2014-01-23,7400.0
HQC,2014-01-24,7400.0
HQC,2014-01-27,7500.0
HQC,2014-02-06,7700.0
HQC,2014-02-07,7700.0
HQC,2014-02-10,7900.0
HQC,2014-02-11,7900.0
HQC,2014-02-12,8000.0
HQC,2014-02-13,8000.0
HQC,2014-02-14,8100.0
HQC,2014-02-17,8100.0
HQC,2014-02-18,8600.0
HQC,2014-02-19,8600.0
HQC,2014-02-20,8000.0
HQC,2014-02-21,8000.0
HQC,2014-02-24,8200.0
HQC,2014-02-25,8300.0
HQC,2014-02-26,8300.0
HQC,2014-02-27,8300.0
HQC,2014-02-28,8400.0
HQC,2014-03-03,8200.0
HQC,2014-03-04,8200.0
HQC,2014-03-05,8200.0
HQC,2014-03-06,8500.0
HQC,2014-03-07,8700.0
HQC,2014-03-10,9100.0
HQC,2014-03-11,9000.0
HQC,2014-03-12,8700.0
HQC,2014-03-13,8900.0
HQC,2014-03-14,8800.0
HQC,2014-03-17,9000.0
HQC,2014-03-18,9000.0
HQC,2014-03-19,9100.0
HQC,2014-03-20,9100.0
HQC,2014-03-21,9400.0
HQC,2014-03-24,10000.0
HQC,2014-03-25,9800.0
HQC,2014-03-26,9700.0
HQC,2014-03-27,9700.0
HQC,2014-03-28,9800.0
HQC,2014-03-31,9600.0
HQC,2014-04-01,9000.0
HQC,2014-04-02,8600.0
HQC,2014-04-03,9100.0
HQC,2014-04-04,8900.0
HQC,2014-04-07,9000.0
HQC,2014-04-08,9100.0
HQC,2014-04-10,9000.0
HQC,2014-04-11,8900.0
HQC,2014-04-14,8700.0
HQC,2014-04-15,8100.0
HQC,2014-04-16,7800.0
HQC,2014-04-17,7900.0
HQC,2014-04-18,7400.0
HQC,2014-04-21,7000.0
HQC,2014-04-22,7400.0
HQC,2014-04-23,7100.0
HQC,2014-04-24,7200.0
HQC,2014-04-25,7300.0
HQC,2014-04-28,7000.0
HQC,2014-04-29,7000.0
HQC,2014-05-05,6600.0
HQC,2014-05-06,6500.0
HQC,2014-05-07,6500.0
HQC,2014-05-08,6100.0
HQC,2014-05-09,5800.0
HQC,2014-05-12,5400.0
HQC,2014-05-13,5100.0
HQC,2014-05-14,5400.0
HQC,2014-05-15,5600.0
HQC,2014-05-16,5900.0
HQC,2014-05-19,6300.0
HQC,2014-05-20,6700.0
HQC,2014-05-21,7100.0
