HT1,2007-11-13,45400.0
HT1,2007-11-14,45800.0
HT1,2007-11-15,45400.0
HT1,2007-11-16,43600.0
HT1,2007-11-19,41700.0
HT1,2007-11-20,39800.0
HT1,2007-11-21,37900.0
HT1,2007-11-22,37900.0
HT1,2007-11-23,37900.0
HT1,2007-11-26,37900.0
HT1,2007-11-27,39800.0
HT1,2007-11-28,39000.0
HT1,2007-11-29,39000.0
HT1,2007-11-30,39000.0
HT1,2007-12-03,38700.0
HT1,2007-12-04,38700.0
HT1,2007-12-05,38700.0
HT1,2007-12-06,37900.0
HT1,2007-12-07,37200.0
HT1,2007-12-10,36000.0
HT1,2007-12-11,34200.0
HT1,2007-12-12,34900.0
HT1,2007-12-13,34600.0
HT1,2007-12-14,33800.0
HT1,2007-12-17,33800.0
HT1,2007-12-18,33000.0
HT1,2007-12-19,34700.0
HT1,2007-12-20,34500.0
HT1,2007-12-21,35100.0
HT1,2007-12-24,35300.0
HT1,2007-12-25,34900.0
HT1,2007-12-26,34900.0
HT1,2007-12-27,34800.0
HT1,2007-12-28,34800.0
HT1,2008-01-02,34500.0
HT1,2008-01-03,33300.0
HT1,2008-01-04,33000.0
HT1,2008-01-07,31500.0
HT1,2008-01-08,31100.0
HT1,2008-01-09,30000.0
HT1,2008-01-10,28500.0
HT1,2008-01-11,29700.0
HT1,2008-01-14,28200.0
HT1,2008-01-15,26900.0
HT1,2008-01-16,28200.0
HT1,2008-01-17,27000.0
HT1,2008-01-18,28000.0
HT1,2008-01-21,27800.0
HT1,2008-01-22,27000.0
HT1,2008-01-23,25700.0
HT1,2008-01-24,25700.0
HT1,2008-01-25,25900.0
HT1,2008-01-28,25900.0
HT1,2008-01-29,27200.0
HT1,2008-01-30,28500.0
HT1,2008-01-31,29100.0
HT1,2008-02-01,30500.0
HT1,2008-02-12,30400.0
HT1,2008-02-13,29000.0
HT1,2008-02-14,29800.0
HT1,2008-02-15,28900.0
HT1,2008-02-18,27600.0
HT1,2008-02-19,27900.0
HT1,2008-02-20,26700.0
HT1,2008-02-21,25400.0
HT1,2008-02-22,24400.0
HT1,2008-02-25,25600.0
HT1,2008-02-26,25200.0
HT1,2008-02-27,25600.0
HT1,2008-02-28,25400.0
HT1,2008-02-29,24500.0
HT1,2008-03-03,23300.0
HT1,2008-03-04,22200.0
HT1,2008-03-05,21100.0
HT1,2008-03-06,22200.0
HT1,2008-03-07,23200.0
HT1,2008-03-10,24300.0
HT1,2008-03-11,23400.0
HT1,2008-03-12,24000.0
HT1,2008-03-13,24600.0
HT1,2008-03-14,24200.0
HT1,2008-03-17,23000.0
HT1,2008-03-18,21900.0
HT1,2008-03-19,21200.0
HT1,2008-03-20,21000.0
HT1,2008-03-21,20000.0
HT1,2008-03-24,19000.0
HT1,2008-03-25,18100.0
HT1,2008-03-26,18400.0
HT1,2008-03-27,18500.0
HT1,2008-03-28,18700.0
HT1,2008-03-31,18800.0
HT1,2008-04-01,19000.0
HT1,2008-04-02,19100.0
HT1,2008-04-03,19300.0
HT1,2008-04-04,19400.0
HT1,2008-04-07,19800.0
HT1,2008-04-08,20200.0
HT1,2008-04-09,20600.0
HT1,2008-04-10,20200.0
HT1,2008-04-11,19800.0
HT1,2008-04-16,19400.0
HT1,2008-04-17,19500.0
HT1,2008-04-18,19100.0
HT1,2008-04-21,18800.0
HT1,2008-04-22,18400.0
HT1,2008-04-23,18100.0
HT1,2008-04-24,17800.0
HT1,2008-04-25,17500.0
HT1,2008-04-28,17300.0
HT1,2008-04-29,17600.0
HT1,2008-05-05,18000.0
HT1,2008-05-06,17600.0
HT1,2008-05-07,17300.0
HT1,2008-05-08,17000.0
HT1,2008-05-09,16700.0
HT1,2008-05-12,16400.0
HT1,2008-05-13,16100.0
HT1,2008-05-14,15800.0
HT1,2008-05-15,15500.0
HT1,2008-05-16,15200.0
HT1,2008-05-19,14900.0
HT1,2008-05-20,14700.0
HT1,2008-05-21,14500.0
HT1,2008-05-22,14200.0
HT1,2008-05-23,14000.0
HT1,2008-05-26,13800.0
HT1,2008-05-30,13500.0
HT1,2008-06-02,13300.0
HT1,2008-06-03,13100.0
HT1,2008-06-04,12800.0
HT1,2008-06-05,12600.0
HT1,2008-06-06,12400.0
HT1,2008-06-09,12200.0
HT1,2008-06-10,11900.0
HT1,2008-06-11,12000.0
HT1,2008-06-12,12000.0
HT1,2008-06-13,12200.0
HT1,2008-06-16,12500.0
HT1,2008-06-17,12700.0
HT1,2008-06-18,12500.0
HT1,2008-06-19,12200.0
HT1,2008-06-20,11800.0
HT1,2008-06-23,11600.0
HT1,2008-06-24,11900.0
HT1,2008-06-25,12200.0
HT1,2008-06-26,11900.0
HT1,2008-06-27,11600.0
HT1,2008-06-30,11300.0
HT1,2008-07-01,11600.0
HT1,2008-07-02,11900.0
HT1,2008-07-03,12200.0
HT1,2008-07-04,12500.0
HT1,2008-07-07,12200.0
HT1,2008-07-08,11900.0
HT1,2008-07-09,11600.0
HT1,2008-07-10,11900.0
HT1,2008-07-11,12200.0
HT1,2008-07-14,12500.0
HT1,2008-07-15,12800.0
HT1,2008-07-16,12800.0
HT1,2008-07-17,12500.0
HT1,2008-07-18,12200.0
HT1,2008-07-21,11900.0
HT1,2008-07-22,11600.0
HT1,2008-07-23,11300.0
HT1,2008-07-24,11000.0
HT1,2008-07-25,10700.0
HT1,2008-07-28,10400.0
HT1,2008-07-29,10100.0
HT1,2008-07-30,9800.0
HT1,2008-07-31,9600.0
HT1,2008-08-01,9400.0
HT1,2008-08-04,9100.0
HT1,2008-08-05,8900.0
HT1,2008-08-06,9100.0
HT1,2008-08-07,9400.0
HT1,2008-08-08,9600.0
HT1,2008-08-11,9800.0
HT1,2008-08-12,9600.0
HT1,2008-08-13,9700.0
HT1,2008-08-14,9900.0
HT1,2008-08-15,10100.0
HT1,2008-08-18,10600.0
HT1,2008-08-19,10100.0
HT1,2008-08-20,9800.0
HT1,2008-08-21,10200.0
HT1,2008-08-22,10700.0
HT1,2008-08-25,11100.0
HT1,2008-08-26,11700.0
HT1,2008-08-27,12200.0
HT1,2008-08-28,12800.0
HT1,2008-08-29,13400.0
HT1,2008-09-03,14000.0
HT1,2008-09-04,14700.0
HT1,2008-09-05,15400.0
HT1,2008-09-08,16100.0
HT1,2008-09-09,16900.0
HT1,2008-09-10,16100.0
HT1,2008-09-11,15300.0
HT1,2008-09-12,14600.0
HT1,2008-09-15,13900.0
HT1,2008-09-16,13200.0
HT1,2008-09-17,12600.0
HT1,2008-09-18,12000.0
HT1,2008-09-19,12500.0
HT1,2008-09-22,13200.0
HT1,2008-09-23,12500.0
HT1,2008-09-24,11900.0
HT1,2008-09-25,11800.0
HT1,2008-09-26,12300.0
HT1,2008-09-29,12800.0
HT1,2008-09-30,12200.0
HT1,2008-10-01,12300.0
HT1,2008-10-02,12800.0
HT1,2008-10-03,12600.0
HT1,2008-10-06,12000.0
HT1,2008-10-07,11500.0
HT1,2008-10-08,11400.0
HT1,2008-10-09,10800.0
HT1,2008-10-10,10600.0
HT1,2008-10-13,11100.0
HT1,2008-10-14,11600.0
HT1,2008-10-15,12200.0
HT1,2008-10-16,12000.0
HT1,2008-10-17,12200.0
HT1,2008-10-20,12000.0
HT1,2008-10-21,12400.0
HT1,2008-10-22,11800.0
HT1,2008-10-23,11200.0
HT1,2008-10-24,10800.0
HT1,2008-10-27,10300.0
HT1,2008-10-28,10800.0
HT1,2008-10-29,11200.0
HT1,2008-10-30,11800.0
HT1,2008-10-31,12100.0
HT1,2008-11-03,11600.0
HT1,2008-11-04,12000.0
HT1,2008-11-05,12400.0
HT1,2008-11-06,11800.0
HT1,2008-11-07,11200.0
HT1,2008-11-10,11000.0
HT1,2008-11-11,10500.0
HT1,2008-11-12,10800.0
HT1,2008-11-13,10800.0
HT1,2008-11-14,11100.0
HT1,2008-11-17,10800.0
HT1,2008-11-18,10800.0
HT1,2008-11-19,10800.0
HT1,2008-11-20,10300.0
HT1,2008-11-21,10300.0
HT1,2008-11-24,10100.0
HT1,2008-11-25,10100.0
HT1,2008-11-26,10300.0
HT1,2008-11-27,10000.0
HT1,2008-11-28,10400.0
HT1,2008-12-01,10500.0
HT1,2008-12-02,10300.0
HT1,2008-12-03,10100.0
HT1,2008-12-04,9600.0
HT1,2008-12-05,9400.0
HT1,2008-12-08,8900.0
HT1,2008-12-09,9000.0
HT1,2008-12-10,9400.0
HT1,2008-12-11,9800.0
HT1,2008-12-12,10300.0
HT1,2008-12-15,10800.0
HT1,2008-12-16,10300.0
HT1,2008-12-17,10400.0
HT1,2008-12-18,10100.0
HT1,2008-12-19,10500.0
HT1,2008-12-22,11000.0
HT1,2008-12-23,10800.0
HT1,2008-12-24,11400.0
HT1,2008-12-25,11600.0
HT1,2008-12-26,12200.0
HT1,2008-12-29,12700.0
HT1,2008-12-30,13300.0
HT1,2008-12-31,13900.0
HT1,2009-01-02,13200.0
HT1,2009-01-05,12600.0
HT1,2009-01-06,12000.0
HT1,2009-01-07,12500.0
HT1,2009-01-08,13200.0
HT1,2009-01-09,13200.0
HT1,2009-01-12,13800.0
HT1,2009-01-13,13800.0
HT1,2009-01-14,13900.0
HT1,2009-01-15,14300.0
HT1,2009-01-16,13800.0
HT1,2009-01-19,13200.0
HT1,2009-01-20,12500.0
HT1,2009-01-21,12500.0
HT1,2009-01-22,12200.0
HT1,2009-01-23,12800.0
HT1,2009-02-02,12200.0
HT1,2009-02-03,11800.0
HT1,2009-02-04,11800.0
HT1,2009-02-05,11600.0
HT1,2009-02-06,12000.0
HT1,2009-02-09,12200.0
HT1,2009-02-10,12100.0
HT1,2009-02-11,11700.0
HT1,2009-02-12,11800.0
HT1,2009-02-13,11900.0
HT1,2009-02-16,11900.0
HT1,2009-02-17,12000.0
HT1,2009-02-18,11500.0
HT1,2009-02-19,11500.0
HT1,2009-02-20,11600.0
HT1,2009-02-23,11100.0
HT1,2009-02-24,10500.0
HT1,2009-02-25,11000.0
HT1,2009-02-26,11000.0
HT1,2009-02-27,11400.0
HT1,2009-03-02,11400.0
HT1,2009-03-03,11200.0
HT1,2009-03-04,11300.0
HT1,2009-03-05,11200.0
HT1,2009-03-06,11200.0
HT1,2009-03-09,11100.0
HT1,2009-03-10,11400.0
HT1,2009-03-11,11600.0
HT1,2009-03-12,11100.0
HT1,2009-03-13,11300.0
HT1,2009-03-16,11400.0
HT1,2009-03-17,11600.0
HT1,2009-03-18,12000.0
HT1,2009-03-19,11500.0
HT1,2009-03-20,12100.0
HT1,2009-03-23,12200.0
HT1,2009-03-24,12700.0
HT1,2009-03-25,12700.0
HT1,2009-03-26,13300.0
HT1,2009-03-27,13200.0
HT1,2009-03-30,13200.0
HT1,2009-03-31,13200.0
HT1,2009-04-01,13200.0
HT1,2009-04-02,13600.0
HT1,2009-04-03,13900.0
HT1,2009-04-07,13900.0
HT1,2009-04-08,13200.0
HT1,2009-04-09,12800.0
HT1,2009-04-10,12800.0
HT1,2009-04-13,13500.0
HT1,2009-04-14,13100.0
HT1,2009-04-15,12800.0
HT1,2009-04-16,13500.0
HT1,2009-04-17,13900.0
HT1,2009-04-20,13200.0
HT1,2009-04-21,13200.0
HT1,2009-04-22,13800.0
HT1,2009-04-23,13300.0
HT1,2009-04-24,12900.0
HT1,2009-04-27,13200.0
HT1,2009-04-28,13200.0
HT1,2009-04-29,13100.0
HT1,2009-05-04,13700.0
HT1,2009-05-05,14300.0
HT1,2009-05-06,13600.0
HT1,2009-05-07,14000.0
HT1,2009-05-08,13700.0
HT1,2009-05-11,14200.0
HT1,2009-05-12,14100.0
HT1,2009-05-13,13900.0
HT1,2009-05-14,13600.0
HT1,2009-05-15,13900.0
HT1,2009-05-18,13900.0
HT1,2009-05-19,14300.0
HT1,2009-05-20,15000.0
HT1,2009-05-21,15600.0
HT1,2009-05-22,15000.0
HT1,2009-05-25,15600.0
HT1,2009-05-26,15100.0
HT1,2009-05-27,15000.0
HT1,2009-05-28,14400.0
HT1,2009-05-29,13700.0
HT1,2009-06-01,14300.0
HT1,2009-06-02,14900.0
HT1,2009-06-03,15000.0
HT1,2009-06-04,15000.0
HT1,2009-06-05,15700.0
HT1,2009-06-08,16500.0
HT1,2009-06-09,15700.0
HT1,2009-06-10,15000.0
HT1,2009-06-11,15600.0
HT1,2009-06-12,15100.0
HT1,2009-06-15,14500.0
HT1,2009-06-16,13800.0
HT1,2009-06-17,14500.0
HT1,2009-06-18,14700.0
HT1,2009-06-19,14400.0
HT1,2009-06-22,13800.0
HT1,2009-06-23,13100.0
HT1,2009-06-24,13700.0
HT1,2009-06-25,13600.0
HT1,2009-06-26,13600.0
HT1,2009-06-29,13500.0
HT1,2009-06-30,13300.0
HT1,2009-07-01,12800.0
HT1,2009-07-02,13100.0
HT1,2009-07-03,12900.0
HT1,2009-07-06,13500.0
HT1,2009-07-07,13400.0
HT1,2009-07-08,13400.0
HT1,2009-07-09,13300.0
HT1,2009-07-10,12800.0
HT1,2009-07-13,12700.0
HT1,2009-07-14,12100.0
HT1,2009-07-15,12600.0
HT1,2009-07-16,12700.0
HT1,2009-07-17,12600.0
HT1,2009-07-20,12300.0
HT1,2009-07-21,12300.0
HT1,2009-07-22,12400.0
HT1,2009-07-23,12700.0
HT1,2009-07-24,13300.0
HT1,2009-07-27,13100.0
HT1,2009-07-28,12900.0
HT1,2009-07-29,12900.0
HT1,2009-07-30,13000.0
HT1,2009-07-31,13000.0
HT1,2009-08-03,13000.0
HT1,2009-08-04,13100.0
HT1,2009-08-05,12900.0
HT1,2009-08-06,12900.0
HT1,2009-08-07,12900.0
HT1,2009-08-10,13500.0
HT1,2009-08-11,14000.0
HT1,2009-08-12,13700.0
HT1,2009-08-13,13500.0
HT1,2009-08-14,13500.0
HT1,2009-08-17,13100.0
HT1,2009-08-18,13200.0
HT1,2009-08-19,13400.0
HT1,2009-08-20,13500.0
HT1,2009-08-21,13500.0
HT1,2009-08-24,13400.0
HT1,2009-08-25,13300.0
HT1,2009-08-26,13300.0
HT1,2009-08-27,13400.0
HT1,2009-08-28,13400.0
HT1,2009-08-31,13600.0
HT1,2009-09-01,13500.0
HT1,2009-09-03,13400.0
HT1,2009-09-04,13100.0
HT1,2009-09-08,13100.0
HT1,2009-09-09,13000.0
HT1,2009-09-10,12900.0
HT1,2009-09-11,13100.0
HT1,2009-09-14,13700.0
HT1,2009-09-15,14400.0
HT1,2009-09-16,15000.0
HT1,2009-09-17,15700.0
HT1,2009-09-18,15300.0
HT1,2009-09-21,15100.0
HT1,2009-09-22,14900.0
HT1,2009-09-23,14600.0
HT1,2009-09-24,14300.0
HT1,2009-09-25,14400.0
HT1,2009-09-28,14300.0
HT1,2009-09-29,14600.0
HT1,2009-09-30,14700.0
HT1,2009-10-01,14900.0
HT1,2009-10-02,14500.0
HT1,2009-10-05,14600.0
HT1,2009-10-06,14400.0
HT1,2009-10-07,14500.0
HT1,2009-10-08,14900.0
HT1,2009-10-09,15600.0
HT1,2009-10-12,16000.0
HT1,2009-10-13,15300.0
HT1,2009-10-14,15400.0
HT1,2009-10-15,15900.0
HT1,2009-10-16,16000.0
HT1,2009-10-19,15900.0
HT1,2009-10-20,15900.0
HT1,2009-10-21,15700.0
HT1,2009-10-22,15600.0
HT1,2009-10-23,15500.0
HT1,2009-10-26,15200.0
HT1,2009-10-27,15100.0
HT1,2009-10-28,15100.0
HT1,2009-10-29,15000.0
HT1,2009-10-30,15000.0
HT1,2009-11-02,14300.0
HT1,2009-11-03,13600.0
HT1,2009-11-04,14100.0
HT1,2009-11-05,14800.0
HT1,2009-11-06,15100.0
HT1,2009-11-09,14400.0
HT1,2009-11-10,14300.0
HT1,2009-11-11,14300.0
HT1,2009-11-12,15000.0
HT1,2009-11-13,15100.0
HT1,2009-11-16,15000.0
HT1,2009-11-17,14400.0
HT1,2009-11-18,15000.0
HT1,2009-11-19,15000.0
HT1,2009-11-20,14800.0
HT1,2009-11-23,14500.0
HT1,2009-11-24,14300.0
HT1,2009-11-25,13600.0
HT1,2009-11-26,12900.0
HT1,2009-11-27,13500.0
HT1,2009-11-30,13700.0
HT1,2009-12-01,14300.0
HT1,2009-12-02,13600.0
HT1,2009-12-03,13300.0
HT1,2009-12-04,13700.0
HT1,2009-12-07,13600.0
HT1,2009-12-08,13200.0
HT1,2009-12-09,12600.0
HT1,2009-12-10,12400.0
HT1,2009-12-11,12500.0
HT1,2009-12-14,13100.0
HT1,2009-12-15,12600.0
HT1,2009-12-16,12500.0
HT1,2009-12-17,12500.0
HT1,2009-12-18,13100.0
HT1,2009-12-21,13500.0
HT1,2009-12-22,12900.0
HT1,2009-12-23,12400.0
HT1,2009-12-24,12800.0
HT1,2009-12-25,12900.0
HT1,2009-12-28,13000.0
HT1,2009-12-29,12900.0
HT1,2009-12-30,13000.0
HT1,2009-12-31,12900.0
HT1,2010-01-04,13500.0
HT1,2010-01-05,13000.0
HT1,2010-01-06,13000.0
HT1,2010-01-07,13600.0
HT1,2010-01-08,13600.0
HT1,2010-01-11,13000.0
HT1,2010-01-12,13000.0
HT1,2010-01-13,12900.0
HT1,2010-01-14,13400.0
HT1,2010-01-15,13000.0
HT1,2010-01-18,12700.0
HT1,2010-01-19,13300.0
HT1,2010-01-20,12700.0
HT1,2010-01-21,12300.0
HT1,2010-01-22,12500.0
HT1,2010-01-25,12600.0
HT1,2010-01-26,12400.0
HT1,2010-01-27,12400.0
HT1,2010-01-28,12600.0
HT1,2010-01-29,12600.0
HT1,2010-02-01,12600.0
HT1,2010-02-02,12400.0
HT1,2010-02-03,12400.0
HT1,2010-02-04,12600.0
HT1,2010-02-05,12600.0
HT1,2010-02-08,12600.0
HT1,2010-02-09,12600.0
HT1,2010-02-10,12800.0
HT1,2010-02-11,12800.0
HT1,2010-02-12,12900.0
HT1,2010-02-22,12300.0
HT1,2010-02-23,12200.0
HT1,2010-02-24,12600.0
HT1,2010-02-25,12700.0
HT1,2010-02-26,12400.0
HT1,2010-03-01,12600.0
HT1,2010-03-02,12600.0
HT1,2010-03-03,12700.0
HT1,2010-03-04,12600.0
HT1,2010-03-05,12700.0
HT1,2010-03-08,12400.0
HT1,2010-03-09,12600.0
HT1,2010-03-10,12600.0
HT1,2010-03-11,12600.0
HT1,2010-03-12,12600.0
HT1,2010-03-15,12600.0
HT1,2010-03-16,12600.0
HT1,2010-03-17,12600.0
HT1,2010-03-18,12600.0
HT1,2010-03-19,12400.0
HT1,2010-03-22,12200.0
HT1,2010-03-23,12300.0
HT1,2010-03-24,12600.0
HT1,2010-03-25,12400.0
HT1,2010-03-26,12600.0
HT1,2010-03-29,12400.0
HT1,2010-03-30,12300.0
HT1,2010-03-31,12100.0
HT1,2010-04-01,12600.0
HT1,2010-04-02,12600.0
HT1,2010-04-05,12600.0
HT1,2010-04-06,12600.0
HT1,2010-04-07,12700.0
HT1,2010-04-08,13300.0
HT1,2010-04-09,13300.0
HT1,2010-04-12,13200.0
HT1,2010-04-13,13200.0
HT1,2010-04-14,13000.0
HT1,2010-04-15,13400.0
HT1,2010-04-16,13300.0
HT1,2010-04-19,13100.0
HT1,2010-04-20,13200.0
HT1,2010-04-21,13300.0
HT1,2010-04-22,13400.0
HT1,2010-04-26,13500.0
HT1,2010-04-27,13400.0
HT1,2010-04-28,13400.0
HT1,2010-04-29,13300.0
HT1,2010-05-04,13300.0
HT1,2010-05-05,13200.0
HT1,2010-05-06,13500.0
HT1,2010-05-07,13300.0
HT1,2010-05-10,13400.0
HT1,2010-05-11,13400.0
HT1,2010-05-12,13100.0
HT1,2010-05-13,13400.0
HT1,2010-05-14,13100.0
HT1,2010-05-17,13300.0
HT1,2010-05-18,13300.0
HT1,2010-05-19,12700.0
HT1,2010-05-20,12800.0
HT1,2010-05-21,12500.0
HT1,2010-05-24,13000.0
HT1,2010-05-25,13100.0
HT1,2010-05-26,13100.0
HT1,2010-05-27,13200.0
HT1,2010-05-28,13100.0
HT1,2010-05-31,13000.0
HT1,2010-06-01,12900.0
HT1,2010-06-02,12800.0
HT1,2010-06-03,12700.0
HT1,2010-06-04,12500.0
HT1,2010-06-07,12100.0
HT1,2010-06-08,12000.0
HT1,2010-06-09,11900.0
HT1,2010-06-10,12100.0
HT1,2010-06-11,12600.0
HT1,2010-06-14,12300.0
HT1,2010-06-15,12400.0
HT1,2010-06-16,12200.0
HT1,2010-06-17,12100.0
HT1,2010-06-18,12100.0
HT1,2010-06-21,12100.0
HT1,2010-06-22,11700.0
HT1,2010-06-23,12200.0
HT1,2010-06-24,12500.0
HT1,2010-06-25,12500.0
HT1,2010-06-28,12300.0
HT1,2010-06-29,12800.0
HT1,2010-06-30,13000.0
HT1,2010-07-01,12400.0
HT1,2010-07-02,12300.0
HT1,2010-07-05,12400.0
HT1,2010-07-06,12500.0
HT1,2010-07-07,12200.0
HT1,2010-07-08,12300.0
HT1,2010-07-09,12200.0
HT1,2010-07-12,12200.0
HT1,2010-07-13,12200.0
HT1,2010-07-14,12200.0
HT1,2010-07-15,12200.0
HT1,2010-07-16,12200.0
HT1,2010-07-19,12100.0
HT1,2010-07-20,12400.0
HT1,2010-07-21,12100.0
HT1,2010-07-22,12000.0
HT1,2010-07-23,11800.0
HT1,2010-07-26,11800.0
HT1,2010-07-27,11700.0
HT1,2010-07-28,11200.0
HT1,2010-07-29,11300.0
HT1,2010-07-30,11500.0
HT1,2010-08-02,11300.0
HT1,2010-08-03,11300.0
HT1,2010-08-04,11000.0
HT1,2010-08-05,10700.0
HT1,2010-08-06,10600.0
HT1,2010-08-09,10300.0
HT1,2010-08-10,10200.0
HT1,2010-08-11,9900.0
HT1,2010-08-12,9900.0
HT1,2010-08-13,10300.0
HT1,2010-08-16,10800.0
HT1,2010-08-17,11300.0
HT1,2010-08-18,11300.0
HT1,2010-08-19,10900.0
HT1,2010-08-20,10700.0
HT1,2010-08-23,10500.0
HT1,2010-08-24,10100.0
HT1,2010-08-25,9900.0
HT1,2010-08-26,10100.0
HT1,2010-08-27,10200.0
HT1,2010-08-30,10700.0
HT1,2010-08-31,11000.0
HT1,2010-09-01,10800.0
HT1,2010-09-06,10700.0
HT1,2010-09-07,10800.0
HT1,2010-09-08,10700.0
HT1,2010-09-09,10700.0
HT1,2010-09-10,10400.0
HT1,2010-09-13,10200.0
HT1,2010-09-14,10200.0
HT1,2010-09-15,10200.0
HT1,2010-09-16,10200.0
HT1,2010-09-17,10500.0
HT1,2010-09-20,10400.0
HT1,2010-09-21,10300.0
HT1,2010-09-22,10200.0
HT1,2010-09-23,10200.0
HT1,2010-09-24,10200.0
HT1,2010-09-27,10200.0
HT1,2010-09-28,10300.0
HT1,2010-09-29,10100.0
HT1,2010-09-30,10100.0
HT1,2010-10-01,10100.0
HT1,2010-10-04,9700.0
HT1,2010-10-05,9800.0
HT1,2010-10-06,9600.0
HT1,2010-10-07,9800.0
HT1,2010-10-08,9700.0
HT1,2010-10-11,9500.0
HT1,2010-10-12,9500.0
HT1,2010-10-13,9500.0
HT1,2010-10-14,9500.0
HT1,2010-10-15,9300.0
HT1,2010-10-18,9300.0
HT1,2010-10-19,9200.0
HT1,2010-10-20,9000.0
HT1,2010-10-21,9200.0
HT1,2010-10-22,9000.0
HT1,2010-10-25,9200.0
HT1,2010-10-26,9200.0
HT1,2010-10-27,9200.0
HT1,2010-10-28,9300.0
HT1,2010-10-29,9200.0
HT1,2010-11-01,9000.0
HT1,2010-11-02,9000.0
HT1,2010-11-03,9000.0
HT1,2010-11-04,9000.0
HT1,2010-11-05,8900.0
HT1,2010-11-08,9000.0
HT1,2010-11-09,9000.0
HT1,2010-11-10,8700.0
HT1,2010-11-11,8700.0
HT1,2010-11-12,8400.0
HT1,2010-11-15,8000.0
HT1,2010-11-16,7600.0
HT1,2010-11-17,7500.0
HT1,2010-11-18,7700.0
HT1,2010-11-19,7500.0
HT1,2010-11-22,7500.0
HT1,2010-11-23,7500.0
HT1,2010-11-24,7700.0
HT1,2010-11-25,7800.0
HT1,2010-11-26,7800.0
HT1,2010-11-29,8200.0
HT1,2010-11-30,8500.0
HT1,2010-12-01,8900.0
HT1,2010-12-02,9000.0
HT1,2010-12-03,9100.0
HT1,2010-12-06,9200.0
HT1,2010-12-07,9000.0
HT1,2010-12-08,8500.0
HT1,2010-12-09,8900.0
HT1,2010-12-10,9200.0
HT1,2010-12-13,9200.0
HT1,2010-12-14,9000.0
HT1,2010-12-15,9000.0
HT1,2010-12-16,9000.0
HT1,2010-12-17,8900.0
HT1,2010-12-20,9100.0
HT1,2010-12-21,9200.0
HT1,2010-12-22,9100.0
HT1,2010-12-23,9200.0
HT1,2010-12-24,9100.0
HT1,2010-12-27,9200.0
HT1,2010-12-28,9600.0
HT1,2010-12-29,9800.0
HT1,2010-12-30,9600.0
HT1,2010-12-31,10100.0
HT1,2011-01-04,9600.0
HT1,2011-01-05,9200.0
HT1,2011-01-06,9200.0
HT1,2011-01-07,9000.0
HT1,2011-01-10,8800.0
HT1,2011-01-11,8600.0
HT1,2011-01-12,8500.0
HT1,2011-01-13,8600.0
HT1,2011-01-14,8600.0
HT1,2011-01-17,8600.0
HT1,2011-01-18,8600.0
HT1,2011-01-19,8500.0
HT1,2011-01-20,8400.0
HT1,2011-01-21,8400.0
HT1,2011-01-24,8400.0
HT1,2011-01-25,8400.0
HT1,2011-01-26,8400.0
HT1,2011-01-27,8500.0
HT1,2011-01-28,8700.0
HT1,2011-02-08,8600.0
HT1,2011-02-09,8300.0
HT1,2011-02-10,8500.0
HT1,2011-02-11,8400.0
HT1,2011-02-14,8000.0
HT1,2011-02-15,8300.0
HT1,2011-02-16,8000.0
HT1,2011-02-17,7900.0
HT1,2011-02-18,8000.0
HT1,2011-02-21,7600.0
HT1,2011-02-22,7500.0
HT1,2011-02-23,7600.0
HT1,2011-02-24,7500.0
HT1,2011-02-25,7500.0
HT1,2011-02-28,7100.0
HT1,2011-03-01,7200.0
HT1,2011-03-02,7000.0
HT1,2011-03-03,7000.0
HT1,2011-03-04,7200.0
HT1,2011-03-07,7100.0
HT1,2011-03-08,7100.0
HT1,2011-03-09,6800.0
HT1,2011-03-10,6900.0
HT1,2011-03-11,7000.0
HT1,2011-03-14,6700.0
HT1,2011-03-15,6900.0
HT1,2011-03-16,6800.0
HT1,2011-03-17,6900.0
HT1,2011-03-18,6900.0
HT1,2011-03-21,7000.0
HT1,2011-03-22,7200.0
HT1,2011-03-23,7500.0
HT1,2011-03-24,7600.0
HT1,2011-03-25,7900.0
HT1,2011-03-28,8100.0
HT1,2011-03-29,8300.0
HT1,2011-03-30,8500.0
HT1,2011-03-31,8600.0
HT1,2011-04-01,8300.0
HT1,2011-04-04,7900.0
HT1,2011-04-05,7500.0
HT1,2011-04-06,7400.0
HT1,2011-04-07,7200.0
HT1,2011-04-08,6800.0
HT1,2011-04-13,6800.0
HT1,2011-04-14,7000.0
HT1,2011-04-15,6800.0
HT1,2011-04-18,6900.0
HT1,2011-04-19,6800.0
HT1,2011-04-20,6800.0
HT1,2011-04-21,6600.0
HT1,2011-04-22,6400.0
HT1,2011-04-25,6600.0
HT1,2011-04-26,6500.0
HT1,2011-04-27,6400.0
HT1,2011-04-28,6200.0
HT1,2011-04-29,6200.0
HT1,2011-05-04,6000.0
HT1,2011-05-05,6000.0
HT1,2011-05-06,6000.0
HT1,2011-05-09,6100.0
HT1,2011-05-10,6200.0
HT1,2011-05-11,6100.0
HT1,2011-05-12,5800.0
HT1,2011-05-13,6000.0
HT1,2011-05-16,6000.0
HT1,2011-05-17,5900.0
HT1,2011-05-18,5800.0
HT1,2011-05-19,5700.0
HT1,2011-05-20,5700.0
HT1,2011-05-23,5400.0
HT1,2011-05-24,5100.0
HT1,2011-05-25,4900.0
HT1,2011-05-26,5100.0
HT1,2011-05-27,5300.0
HT1,2011-05-30,5100.0
HT1,2011-05-31,5000.0
HT1,2011-06-01,5200.0
HT1,2011-06-02,5400.0
HT1,2011-06-03,5400.0
HT1,2011-06-06,5500.0
HT1,2011-06-07,5400.0
HT1,2011-06-08,5400.0
HT1,2011-06-09,5400.0
HT1,2011-06-10,5500.0
HT1,2011-06-13,5400.0
HT1,2011-06-14,5600.0
HT1,2011-06-15,5400.0
HT1,2011-06-16,5400.0
HT1,2011-06-17,5400.0
HT1,2011-06-20,5400.0
HT1,2011-06-21,5300.0
HT1,2011-06-22,5200.0
HT1,2011-06-23,5400.0
HT1,2011-06-24,5400.0
HT1,2011-06-27,5300.0
HT1,2011-06-28,5300.0
HT1,2011-06-29,5300.0
HT1,2011-06-30,5200.0
HT1,2011-07-01,5100.0
HT1,2011-07-04,5100.0
HT1,2011-07-05,5100.0
HT1,2011-07-06,5000.0
HT1,2011-07-07,4800.0
HT1,2011-07-08,5000.0
HT1,2011-07-11,4900.0
HT1,2011-07-12,4800.0
HT1,2011-07-13,4700.0
HT1,2011-07-14,4500.0
HT1,2011-07-15,4300.0
HT1,2011-07-18,4200.0
HT1,2011-07-19,4100.0
HT1,2011-07-20,4000.0
HT1,2011-07-21,4000.0
HT1,2011-07-22,4100.0
HT1,2011-07-25,4000.0
HT1,2011-07-26,4000.0
HT1,2011-07-27,4000.0
HT1,2011-07-28,4000.0
HT1,2011-07-29,4000.0
HT1,2011-08-01,4000.0
HT1,2011-08-02,4100.0
HT1,2011-08-03,4100.0
HT1,2011-08-04,4000.0
HT1,2011-08-05,4000.0
HT1,2011-08-08,4000.0
HT1,2011-08-09,3800.0
HT1,2011-08-10,3900.0
HT1,2011-08-11,3800.0
HT1,2011-08-12,3900.0
HT1,2011-08-15,4000.0
HT1,2011-08-16,4000.0
HT1,2011-08-17,4000.0
HT1,2011-08-18,4000.0
HT1,2011-08-19,4000.0
HT1,2011-08-22,4000.0
HT1,2011-08-23,4000.0
HT1,2011-08-24,4000.0
HT1,2011-08-25,4000.0
HT1,2011-08-26,4000.0
HT1,2011-08-29,4000.0
HT1,2011-08-30,4200.0
HT1,2011-08-31,4400.0
HT1,2011-09-01,4600.0
HT1,2011-09-05,4600.0
HT1,2011-09-06,4500.0
HT1,2011-09-07,4500.0
HT1,2011-09-08,4500.0
HT1,2011-09-09,4600.0
HT1,2011-09-12,4600.0
HT1,2011-09-13,4600.0
HT1,2011-09-14,4400.0
HT1,2011-09-15,4200.0
HT1,2011-09-16,4300.0
HT1,2011-09-19,4300.0
HT1,2011-09-20,4500.0
HT1,2011-09-21,4400.0
HT1,2011-09-22,4400.0
HT1,2011-09-23,4300.0
HT1,2011-09-26,4400.0
HT1,2011-09-27,4500.0
HT1,2011-09-28,4400.0
HT1,2011-09-29,4400.0
HT1,2011-09-30,4300.0
HT1,2011-10-03,4200.0
HT1,2011-10-04,4200.0
HT1,2011-10-05,4300.0
HT1,2011-10-06,4300.0
HT1,2011-10-07,4300.0
HT1,2011-10-10,4200.0
HT1,2011-10-11,4100.0
HT1,2011-10-12,4000.0
HT1,2011-10-13,4100.0
HT1,2011-10-14,4100.0
HT1,2011-10-17,4100.0
HT1,2011-10-18,4100.0
HT1,2011-10-19,4100.0
HT1,2011-10-20,4100.0
HT1,2011-10-21,4100.0
HT1,2011-10-24,4000.0
HT1,2011-10-25,4000.0
HT1,2011-10-26,4100.0
HT1,2011-10-27,4000.0
HT1,2011-10-28,4100.0
HT1,2011-10-31,4100.0
HT1,2011-11-01,4000.0
HT1,2011-11-02,3900.0
HT1,2011-11-03,3800.0
HT1,2011-11-04,3800.0
HT1,2011-11-07,3800.0
HT1,2011-11-08,3700.0
HT1,2011-11-09,3700.0
HT1,2011-11-10,3600.0
HT1,2011-11-11,3500.0
HT1,2011-11-14,3400.0
HT1,2011-11-15,3300.0
HT1,2011-11-16,3300.0
HT1,2011-11-17,3200.0
HT1,2011-11-18,3100.0
HT1,2011-11-21,3100.0
HT1,2011-11-22,3000.0
HT1,2011-11-23,3100.0
HT1,2011-11-24,3100.0
HT1,2011-11-25,3000.0
HT1,2011-11-28,3100.0
HT1,2011-11-29,3100.0
HT1,2011-11-30,3100.0
HT1,2011-12-01,3100.0
HT1,2011-12-02,3100.0
HT1,2011-12-05,3100.0
HT1,2011-12-06,3100.0
HT1,2011-12-07,3100.0
HT1,2011-12-08,3100.0
HT1,2011-12-09,3100.0
HT1,2011-12-12,3100.0
HT1,2011-12-13,3100.0
HT1,2011-12-14,3000.0
HT1,2011-12-15,3000.0
HT1,2011-12-16,3000.0
HT1,2011-12-19,3000.0
HT1,2011-12-20,2900.0
HT1,2011-12-21,3000.0
HT1,2011-12-22,2900.0
HT1,2011-12-23,2900.0
HT1,2011-12-26,3000.0
HT1,2011-12-27,2900.0
HT1,2011-12-28,3000.0
HT1,2011-12-29,2900.0
HT1,2011-12-30,2900.0
HT1,2012-01-03,2900.0
HT1,2012-01-04,3000.0
HT1,2012-01-05,2900.0
HT1,2012-01-06,2900.0
HT1,2012-01-09,2900.0
HT1,2012-01-10,2800.0
HT1,2012-01-11,2900.0
HT1,2012-01-12,2800.0
HT1,2012-01-13,2900.0
HT1,2012-01-16,2900.0
HT1,2012-01-17,2900.0
HT1,2012-01-18,3000.0
HT1,2012-01-19,3000.0
HT1,2012-01-20,3000.0
HT1,2012-01-30,3100.0
HT1,2012-01-31,3200.0
HT1,2012-02-01,3200.0
HT1,2012-02-02,3200.0
HT1,2012-02-03,3100.0
HT1,2012-02-06,3000.0
HT1,2012-02-07,2900.0
HT1,2012-02-08,3000.0
HT1,2012-02-09,3100.0
HT1,2012-02-10,3000.0
HT1,2012-02-13,2900.0
HT1,2012-02-14,3000.0
HT1,2012-02-15,2900.0
HT1,2012-02-16,2900.0
HT1,2012-02-17,2900.0
HT1,2012-02-20,3000.0
HT1,2012-02-21,3000.0
HT1,2012-02-22,3100.0
HT1,2012-02-23,3200.0
HT1,2012-02-24,3300.0
HT1,2012-02-27,3400.0
HT1,2012-02-28,3500.0
HT1,2012-02-29,3600.0
HT1,2012-03-01,3700.0
HT1,2012-03-02,3800.0
HT1,2012-03-05,3900.0
HT1,2012-03-06,4000.0
HT1,2012-03-07,4200.0
HT1,2012-03-08,4400.0
HT1,2012-03-09,4600.0
HT1,2012-03-12,4400.0
HT1,2012-03-13,4200.0
HT1,2012-03-14,4000.0
HT1,2012-03-15,4200.0
HT1,2012-03-16,4400.0
HT1,2012-03-19,4200.0
HT1,2012-03-20,4300.0
HT1,2012-03-21,4500.0
HT1,2012-03-22,4700.0
HT1,2012-03-23,4900.0
HT1,2012-03-26,5100.0
HT1,2012-03-27,5200.0
HT1,2012-03-28,5000.0
HT1,2012-03-29,4800.0
HT1,2012-03-30,4600.0
HT1,2012-04-03,4800.0
HT1,2012-04-04,4800.0
HT1,2012-04-05,4700.0
HT1,2012-04-06,4600.0
HT1,2012-04-09,4800.0
HT1,2012-04-10,4900.0
HT1,2012-04-11,5000.0
HT1,2012-04-12,5100.0
HT1,2012-04-13,5000.0
HT1,2012-04-16,5000.0
HT1,2012-04-17,5200.0
HT1,2012-04-18,5100.0
HT1,2012-04-19,4900.0
HT1,2012-04-20,5100.0
HT1,2012-04-23,5200.0
HT1,2012-04-24,5300.0
HT1,2012-04-25,5500.0
HT1,2012-04-26,5400.0
HT1,2012-04-27,5600.0
HT1,2012-05-02,5800.0
HT1,2012-05-03,6000.0
HT1,2012-05-04,6300.0
HT1,2012-05-07,6600.0
HT1,2012-05-08,6900.0
HT1,2012-05-09,7200.0
HT1,2012-05-10,7500.0
HT1,2012-05-11,7400.0
HT1,2012-05-14,7100.0
HT1,2012-05-15,6800.0
HT1,2012-05-16,6500.0
HT1,2012-05-17,6200.0
HT1,2012-05-18,6200.0
HT1,2012-05-21,6500.0
HT1,2012-05-22,6800.0
HT1,2012-05-23,6500.0
HT1,2012-05-24,6200.0
HT1,2012-05-25,6500.0
HT1,2012-05-28,6600.0
HT1,2012-05-29,6700.0
HT1,2012-05-30,6600.0
HT1,2012-05-31,6300.0
HT1,2012-06-01,6300.0
HT1,2012-06-04,6000.0
HT1,2012-06-05,6300.0
HT1,2012-06-06,6300.0
HT1,2012-06-07,6600.0
HT1,2012-06-08,6500.0
HT1,2012-06-11,6500.0
HT1,2012-06-12,6300.0
HT1,2012-06-13,6200.0
HT1,2012-06-14,5900.0
HT1,2012-06-15,6100.0
HT1,2012-06-18,6200.0
HT1,2012-06-19,6200.0
HT1,2012-06-20,6100.0
HT1,2012-06-21,5900.0
HT1,2012-06-22,5900.0
HT1,2012-06-25,5700.0
HT1,2012-06-26,5500.0
HT1,2012-06-27,5300.0
HT1,2012-06-28,5100.0
HT1,2012-06-29,5300.0
HT1,2012-07-02,5100.0
HT1,2012-07-03,4900.0
HT1,2012-07-04,4900.0
HT1,2012-07-05,4700.0
HT1,2012-07-06,4500.0
HT1,2012-07-09,4300.0
HT1,2012-07-10,4300.0
HT1,2012-07-11,4500.0
HT1,2012-07-12,4700.0
HT1,2012-07-13,4900.0
HT1,2012-07-16,4900.0
HT1,2012-07-17,5000.0
HT1,2012-07-18,4900.0
HT1,2012-07-19,5100.0
HT1,2012-07-20,5000.0
HT1,2012-07-23,4900.0
HT1,2012-07-24,4700.0
HT1,2012-07-25,4700.0
HT1,2012-07-26,4800.0
HT1,2012-07-27,4800.0
HT1,2012-07-30,4800.0
HT1,2012-07-31,4700.0
HT1,2012-08-01,4700.0
HT1,2012-08-02,4600.0
HT1,2012-08-03,4600.0
HT1,2012-08-06,4600.0
HT1,2012-08-07,4800.0
HT1,2012-08-08,5000.0
HT1,2012-08-09,5000.0
HT1,2012-08-10,5000.0
HT1,2012-08-13,5100.0
HT1,2012-08-14,5100.0
HT1,2012-08-15,5200.0
HT1,2012-08-16,5100.0
HT1,2012-08-17,5100.0
HT1,2012-08-20,5200.0
HT1,2012-08-21,5000.0
HT1,2012-08-22,4800.0
HT1,2012-08-23,4600.0
HT1,2012-08-24,4800.0
HT1,2012-08-27,4600.0
HT1,2012-08-28,4700.0
HT1,2012-08-29,4700.0
HT1,2012-08-30,4900.0
HT1,2012-08-31,4700.0
HT1,2012-09-04,4900.0
HT1,2012-09-05,4800.0
HT1,2012-09-06,4900.0
HT1,2012-09-07,4800.0
HT1,2012-09-10,4600.0
HT1,2012-09-11,4700.0
HT1,2012-09-12,4800.0
HT1,2012-09-13,4700.0
HT1,2012-09-14,4800.0
HT1,2012-09-17,4600.0
HT1,2012-09-18,4600.0
HT1,2012-09-19,4400.0
HT1,2012-09-20,4200.0
HT1,2012-09-21,4300.0
HT1,2012-09-24,4300.0
HT1,2012-09-25,4300.0
HT1,2012-09-26,4400.0
HT1,2012-09-27,4400.0
HT1,2012-09-28,4400.0
HT1,2012-10-01,4200.0
HT1,2012-10-02,4200.0
HT1,2012-10-03,4200.0
HT1,2012-10-04,4200.0
HT1,2012-10-05,4000.0
HT1,2012-10-08,4100.0
HT1,2012-10-09,4000.0
HT1,2012-10-10,4200.0
HT1,2012-10-11,4400.0
HT1,2012-10-12,4200.0
HT1,2012-10-15,4100.0
HT1,2012-10-16,4300.0
HT1,2012-10-17,4300.0
HT1,2012-10-18,4200.0
HT1,2012-10-19,4000.0
HT1,2012-10-22,3900.0
HT1,2012-10-23,3900.0
HT1,2012-10-24,3900.0
HT1,2012-10-25,3800.0
HT1,2012-10-26,3700.0
HT1,2012-10-29,3700.0
HT1,2012-10-30,3700.0
HT1,2012-10-31,3700.0
HT1,2012-11-01,3800.0
HT1,2012-11-02,3700.0
HT1,2012-11-05,3600.0
HT1,2012-11-06,3700.0
HT1,2012-11-07,3700.0
HT1,2012-11-08,3800.0
HT1,2012-11-09,3800.0
HT1,2012-11-12,3900.0
HT1,2012-11-13,4000.0
HT1,2012-11-14,3900.0
HT1,2012-11-15,3800.0
HT1,2012-11-16,3900.0
HT1,2012-11-19,3900.0
HT1,2012-11-20,3800.0
HT1,2012-11-21,3800.0
HT1,2012-11-22,3900.0
HT1,2012-11-23,3900.0
HT1,2012-11-26,3900.0
HT1,2012-11-27,3900.0
HT1,2012-11-28,4000.0
HT1,2012-11-29,3800.0
HT1,2012-11-30,3900.0
HT1,2012-12-03,3800.0
HT1,2012-12-04,3900.0
HT1,2012-12-05,4000.0
HT1,2012-12-06,4000.0
HT1,2012-12-07,4000.0
HT1,2012-12-10,3900.0
HT1,2012-12-11,3900.0
HT1,2012-12-12,3900.0
HT1,2012-12-13,4000.0
HT1,2012-12-14,4100.0
HT1,2012-12-17,4000.0
HT1,2012-12-18,4000.0
HT1,2012-12-19,4100.0
HT1,2012-12-20,4000.0
HT1,2012-12-21,3900.0
HT1,2012-12-24,4000.0
HT1,2012-12-25,4000.0
HT1,2012-12-26,4100.0
HT1,2012-12-27,4200.0
HT1,2012-12-28,4100.0
HT1,2013-01-02,4200.0
HT1,2013-01-03,4200.0
HT1,2013-01-04,4400.0
HT1,2013-01-07,4400.0
HT1,2013-01-08,4400.0
HT1,2013-01-09,4200.0
HT1,2013-01-10,4400.0
HT1,2013-01-11,4200.0
HT1,2013-01-14,4300.0
HT1,2013-01-15,4600.0
HT1,2013-01-16,4700.0
HT1,2013-01-17,4800.0
HT1,2013-01-18,4600.0
HT1,2013-01-21,4500.0
HT1,2013-01-22,4200.0
HT1,2013-01-23,4200.0
HT1,2013-01-24,4400.0
HT1,2013-01-25,4700.0
HT1,2013-01-28,5000.0
HT1,2013-01-29,5100.0
HT1,2013-01-30,4800.0
HT1,2013-01-31,4700.0
HT1,2013-02-01,4800.0
HT1,2013-02-04,4600.0
HT1,2013-02-05,4900.0
HT1,2013-02-06,5000.0
HT1,2013-02-07,5000.0
HT1,2013-02-08,5300.0
HT1,2013-02-18,5600.0
HT1,2013-02-19,5800.0
HT1,2013-02-20,5800.0
HT1,2013-02-21,5500.0
HT1,2013-02-22,5200.0
HT1,2013-02-25,5300.0
HT1,2013-02-26,5000.0
HT1,2013-02-27,5000.0
HT1,2013-02-28,5000.0
HT1,2013-03-01,4900.0
HT1,2013-03-04,4800.0
HT1,2013-03-05,4900.0
HT1,2013-03-06,5100.0
HT1,2013-03-07,4900.0
HT1,2013-03-08,5000.0
HT1,2013-03-11,5100.0
HT1,2013-03-12,5100.0
HT1,2013-03-13,5000.0
HT1,2013-03-14,5000.0
HT1,2013-03-15,5000.0
HT1,2013-03-18,4900.0
HT1,2013-03-19,5100.0
HT1,2013-03-20,5000.0
HT1,2013-03-21,5000.0
HT1,2013-03-22,4900.0
HT1,2013-03-25,4900.0
HT1,2013-03-26,4800.0
HT1,2013-03-27,4800.0
HT1,2013-03-28,4900.0
HT1,2013-03-29,5000.0
HT1,2013-04-01,5300.0
HT1,2013-04-02,5200.0
HT1,2013-04-03,5200.0
HT1,2013-04-04,5100.0
HT1,2013-04-05,5100.0
HT1,2013-04-08,5100.0
HT1,2013-04-09,5100.0
HT1,2013-04-10,5100.0
HT1,2013-04-11,5000.0
HT1,2013-04-12,5000.0
HT1,2013-04-15,5000.0
HT1,2013-04-16,5000.0
HT1,2013-04-17,4900.0
HT1,2013-04-18,4800.0
HT1,2013-04-22,4800.0
HT1,2013-04-23,5100.0
HT1,2013-04-24,5100.0
HT1,2013-04-25,4900.0
HT1,2013-04-26,4800.0
HT1,2013-05-02,5000.0
HT1,2013-05-03,4800.0
HT1,2013-05-06,5000.0
HT1,2013-05-07,5000.0
HT1,2013-05-08,5000.0
HT1,2013-05-09,5000.0
HT1,2013-05-10,5000.0
HT1,2013-05-13,4900.0
HT1,2013-05-14,5000.0
HT1,2013-05-15,5100.0
HT1,2013-05-16,5000.0
HT1,2013-05-17,5100.0
HT1,2013-05-20,5000.0
HT1,2013-05-21,4900.0
HT1,2013-05-22,5000.0
HT1,2013-05-23,5300.0
HT1,2013-05-24,5200.0
HT1,2013-05-27,5100.0
HT1,2013-05-28,5200.0
HT1,2013-05-29,5300.0
HT1,2013-05-30,5400.0
HT1,2013-05-31,5600.0
HT1,2013-06-03,5700.0
HT1,2013-06-04,5400.0
HT1,2013-06-05,5600.0
HT1,2013-06-06,5600.0
HT1,2013-06-07,5600.0
HT1,2013-06-10,5500.0
HT1,2013-06-11,5400.0
HT1,2013-06-12,5500.0
HT1,2013-06-13,5400.0
HT1,2013-06-14,5400.0
HT1,2013-06-17,5200.0
HT1,2013-06-18,5300.0
HT1,2013-06-19,5400.0
HT1,2013-06-20,5100.0
HT1,2013-06-21,5300.0
HT1,2013-06-24,5300.0
HT1,2013-06-25,5100.0
HT1,2013-06-26,4900.0
HT1,2013-06-27,5200.0
HT1,2013-06-28,5000.0
HT1,2013-07-01,4800.0
HT1,2013-07-02,5000.0
HT1,2013-07-03,5100.0
HT1,2013-07-04,5200.0
HT1,2013-07-05,5200.0
HT1,2013-07-08,5100.0
HT1,2013-07-09,5100.0
HT1,2013-07-10,5100.0
HT1,2013-07-11,4900.0
HT1,2013-07-12,5000.0
HT1,2013-07-15,5100.0
HT1,2013-07-16,5400.0
HT1,2013-07-17,5700.0
HT1,2013-07-18,5500.0
HT1,2013-07-19,5500.0
HT1,2013-07-22,5500.0
HT1,2013-07-23,5400.0
HT1,2013-07-24,5300.0
HT1,2013-07-25,5100.0
HT1,2013-07-26,5300.0
HT1,2013-07-29,5300.0
HT1,2013-07-30,5000.0
HT1,2013-07-31,5000.0
HT1,2013-08-01,5000.0
HT1,2013-08-02,4900.0
HT1,2013-08-05,4900.0
HT1,2013-08-06,5100.0
HT1,2013-08-07,5400.0
HT1,2013-08-08,5100.0
HT1,2013-08-09,5000.0
HT1,2013-08-12,5100.0
HT1,2013-08-13,5000.0
HT1,2013-08-14,5000.0
HT1,2013-08-15,5100.0
HT1,2013-08-16,5000.0
HT1,2013-08-19,5100.0
HT1,2013-08-20,5000.0
HT1,2013-08-21,4900.0
HT1,2013-08-22,5100.0
HT1,2013-08-23,5100.0
HT1,2013-08-26,5000.0
HT1,2013-08-27,5000.0
HT1,2013-08-28,5000.0
HT1,2013-08-29,4800.0
HT1,2013-08-30,4800.0
HT1,2013-09-03,4900.0
HT1,2013-09-04,4900.0
HT1,2013-09-05,4900.0
HT1,2013-09-06,5000.0
HT1,2013-09-09,4900.0
HT1,2013-09-10,5100.0
HT1,2013-09-11,5000.0
HT1,2013-09-12,5000.0
HT1,2013-09-13,5100.0
HT1,2013-09-16,4900.0
HT1,2013-09-17,4800.0
HT1,2013-09-18,4800.0
HT1,2013-09-19,4900.0
HT1,2013-09-20,4800.0
HT1,2013-09-23,4900.0
HT1,2013-09-24,4900.0
HT1,2013-09-25,5000.0
HT1,2013-09-26,4900.0
HT1,2013-09-27,5000.0
HT1,2013-09-30,5000.0
HT1,2013-10-01,4800.0
HT1,2013-10-02,4700.0
HT1,2013-10-03,4700.0
HT1,2013-10-04,4700.0
HT1,2013-10-07,5000.0
HT1,2013-10-08,5000.0
HT1,2013-10-09,5000.0
HT1,2013-10-10,5100.0
HT1,2013-10-11,4900.0
HT1,2013-10-14,4900.0
HT1,2013-10-15,4900.0
HT1,2013-10-16,5000.0
HT1,2013-10-17,5000.0
HT1,2013-10-18,4900.0
HT1,2013-10-21,5000.0
HT1,2013-10-22,5000.0
HT1,2013-10-23,4900.0
HT1,2013-10-24,5000.0
HT1,2013-10-25,5000.0
HT1,2013-10-28,5000.0
HT1,2013-10-29,5000.0
HT1,2013-10-30,5000.0
HT1,2013-10-31,5000.0
HT1,2013-11-01,4900.0
HT1,2013-11-04,4900.0
HT1,2013-11-05,5000.0
HT1,2013-11-06,5000.0
HT1,2013-11-07,4900.0
HT1,2013-11-08,5000.0
HT1,2013-11-11,4900.0
HT1,2013-11-12,4900.0
HT1,2013-11-13,4800.0
HT1,2013-11-14,4800.0
HT1,2013-11-15,4900.0
HT1,2013-11-18,5100.0
HT1,2013-11-19,5100.0
HT1,2013-11-20,5000.0
HT1,2013-11-21,4900.0
HT1,2013-11-22,5200.0
HT1,2013-11-25,5500.0
HT1,2013-11-26,5600.0
HT1,2013-11-27,5500.0
HT1,2013-11-28,5500.0
HT1,2013-11-29,5300.0
HT1,2013-12-02,5300.0
HT1,2013-12-03,5300.0
HT1,2013-12-04,5300.0
HT1,2013-12-05,5200.0
HT1,2013-12-06,5200.0
HT1,2013-12-09,5400.0
HT1,2013-12-10,5300.0
HT1,2013-12-11,5100.0
HT1,2013-12-12,5300.0
HT1,2013-12-13,5200.0
HT1,2013-12-16,5200.0
HT1,2013-12-17,5300.0
HT1,2013-12-18,5300.0
HT1,2013-12-19,5300.0
HT1,2013-12-20,5200.0
HT1,2013-12-23,5200.0
HT1,2013-12-24,5300.0
HT1,2013-12-25,5200.0
HT1,2013-12-26,5200.0
HT1,2013-12-27,5200.0
HT1,2013-12-30,5100.0
HT1,2013-12-31,5000.0
HT1,2014-01-02,5300.0
HT1,2014-01-03,5600.0
HT1,2014-01-06,5900.0
HT1,2014-01-07,5700.0
HT1,2014-01-08,5800.0
HT1,2014-01-09,5700.0
HT1,2014-01-10,5600.0
HT1,2014-01-13,5500.0
HT1,2014-01-14,5700.0
HT1,2014-01-15,5800.0
HT1,2014-01-16,5700.0
HT1,2014-01-17,5700.0
HT1,2014-01-20,5700.0
HT1,2014-01-21,5800.0
HT1,2014-01-22,6200.0
HT1,2014-01-23,6600.0
HT1,2014-01-24,6700.0
HT1,2014-01-27,6600.0
HT1,2014-02-06,6500.0
HT1,2014-02-07,6800.0
HT1,2014-02-10,6900.0
HT1,2014-02-11,6800.0
HT1,2014-02-12,6800.0
HT1,2014-02-13,6800.0
HT1,2014-02-14,7200.0
HT1,2014-02-17,7700.0
HT1,2014-02-18,8200.0
HT1,2014-02-19,8700.0
HT1,2014-02-20,8800.0
HT1,2014-02-21,8600.0
HT1,2014-02-24,9200.0
HT1,2014-02-25,9800.0
HT1,2014-02-26,10300.0
HT1,2014-02-27,9600.0
HT1,2014-02-28,10000.0
HT1,2014-03-03,9400.0
HT1,2014-03-04,9200.0
HT1,2014-03-05,9800.0
HT1,2014-03-06,9900.0
HT1,2014-03-07,9900.0
HT1,2014-03-10,10000.0
HT1,2014-03-11,10000.0
HT1,2014-03-12,9900.0
HT1,2014-03-13,10000.0
HT1,2014-03-14,9900.0
HT1,2014-03-17,10200.0
HT1,2014-03-18,10900.0
HT1,2014-03-19,11600.0
HT1,2014-03-20,11500.0
HT1,2014-03-21,11300.0
HT1,2014-03-24,11800.0
HT1,2014-03-25,12500.0
HT1,2014-03-26,12100.0
HT1,2014-03-27,12000.0
HT1,2014-03-28,11800.0
HT1,2014-03-31,11900.0
HT1,2014-04-01,11300.0
HT1,2014-04-02,10900.0
HT1,2014-04-03,11600.0
HT1,2014-04-04,12100.0
HT1,2014-04-07,12000.0
HT1,2014-04-08,11900.0
HT1,2014-04-10,11400.0
HT1,2014-04-11,11300.0
HT1,2014-04-14,11200.0
HT1,2014-04-15,10600.0
HT1,2014-04-16,10000.0
HT1,2014-04-17,10200.0
HT1,2014-04-18,9500.0
HT1,2014-04-21,9200.0
HT1,2014-04-22,9800.0
HT1,2014-04-23,9700.0
HT1,2014-04-24,9700.0
HT1,2014-04-25,9700.0
HT1,2014-04-28,9600.0
HT1,2014-04-29,10000.0
HT1,2014-05-05,9600.0
HT1,2014-05-06,9500.0
HT1,2014-05-07,10000.0
HT1,2014-05-08,9300.0
HT1,2014-05-09,9900.0
HT1,2014-05-12,9400.0
HT1,2014-05-13,9600.0
HT1,2014-05-14,9900.0
HT1,2014-05-15,9800.0
HT1,2014-05-16,9800.0
HT1,2014-05-19,9900.0
HT1,2014-05-20,9800.0
HT1,2014-05-21,10400.0
