ITA,2006-11-15,8300.0
ITA,2006-11-16,8600.0
ITA,2006-11-17,9000.0
ITA,2006-11-20,9400.0
ITA,2006-11-21,9900.0
ITA,2006-11-22,10300.0
ITA,2006-11-23,10800.0
ITA,2006-11-24,11300.0
ITA,2006-11-27,11800.0
ITA,2006-11-28,12400.0
ITA,2006-11-29,12500.0
ITA,2006-11-30,12400.0
ITA,2006-12-01,12400.0
ITA,2006-12-04,12400.0
ITA,2006-12-05,12400.0
ITA,2006-12-06,12700.0
ITA,2006-12-07,13300.0
ITA,2006-12-08,13900.0
ITA,2006-12-11,14500.0
ITA,2006-12-12,14800.0
ITA,2006-12-13,14800.0
ITA,2006-12-14,15000.0
ITA,2006-12-15,15100.0
ITA,2006-12-18,14500.0
ITA,2006-12-19,14400.0
ITA,2006-12-20,14100.0
ITA,2006-12-21,13400.0
ITA,2006-12-22,12800.0
ITA,2006-12-25,13400.0
ITA,2006-12-26,13800.0
ITA,2006-12-27,13800.0
ITA,2006-12-28,13500.0
ITA,2006-12-29,13500.0
ITA,2007-01-02,13800.0
ITA,2007-01-03,13400.0
ITA,2007-01-04,13900.0
ITA,2007-01-05,14600.0
ITA,2007-01-08,14500.0
ITA,2007-01-09,14700.0
ITA,2007-01-10,15100.0
ITA,2007-01-11,15700.0
ITA,2007-01-12,16500.0
ITA,2007-01-15,17300.0
ITA,2007-01-16,18000.0
ITA,2007-01-17,18800.0
ITA,2007-01-18,19700.0
ITA,2007-01-19,20600.0
ITA,2007-01-22,21400.0
ITA,2007-01-23,21400.0
ITA,2007-01-24,20300.0
ITA,2007-01-25,19400.0
ITA,2007-01-26,20300.0
ITA,2007-01-29,20600.0
ITA,2007-01-30,21500.0
ITA,2007-01-31,21400.0
ITA,2007-02-01,22200.0
ITA,2007-02-02,21500.0
ITA,2007-02-05,22600.0
ITA,2007-02-06,23700.0
ITA,2007-02-07,22600.0
ITA,2007-02-08,21500.0
ITA,2007-02-09,20500.0
ITA,2007-02-12,21400.0
ITA,2007-02-13,21400.0
ITA,2007-02-14,22500.0
ITA,2007-02-15,22500.0
ITA,2007-02-26,23500.0
ITA,2007-02-27,24600.0
ITA,2007-02-28,25800.0
ITA,2007-03-01,25800.0
ITA,2007-03-02,27000.0
ITA,2007-03-05,28200.0
ITA,2007-03-06,27100.0
ITA,2007-03-07,27500.0
ITA,2007-03-08,27000.0
ITA,2007-03-09,27100.0
ITA,2007-03-12,27100.0
ITA,2007-03-13,27100.0
ITA,2007-03-14,27000.0
ITA,2007-03-15,25900.0
ITA,2007-03-16,27100.0
ITA,2007-03-19,27500.0
ITA,2007-03-20,26400.0
ITA,2007-03-21,26400.0
ITA,2007-03-22,26400.0
ITA,2007-03-23,25900.0
ITA,2007-03-26,26400.0
ITA,2007-03-27,25100.0
ITA,2007-03-28,24800.0
ITA,2007-03-29,25900.0
ITA,2007-03-30,26200.0
ITA,2007-04-02,26200.0
ITA,2007-04-03,25900.0
ITA,2007-04-04,25900.0
ITA,2007-04-05,26000.0
ITA,2007-04-06,26000.0
ITA,2007-04-09,25900.0
ITA,2007-04-10,25900.0
ITA,2007-04-11,25700.0
ITA,2007-04-12,25700.0
ITA,2007-04-13,25500.0
ITA,2007-04-16,25500.0
ITA,2007-04-17,25300.0
ITA,2007-04-18,25700.0
ITA,2007-04-19,25500.0
ITA,2007-04-20,25700.0
ITA,2007-04-23,24400.0
ITA,2007-04-24,24400.0
ITA,2007-04-25,24200.0
ITA,2007-05-02,24200.0
ITA,2007-05-03,24200.0
ITA,2007-05-04,24200.0
ITA,2007-05-07,24400.0
ITA,2007-05-08,25100.0
ITA,2007-05-09,25100.0
ITA,2007-05-10,24800.0
ITA,2007-05-11,24800.0
ITA,2007-05-14,24900.0
ITA,2007-05-15,25100.0
ITA,2007-05-16,24900.0
ITA,2007-05-17,25100.0
ITA,2007-05-18,25100.0
ITA,2007-05-21,25300.0
ITA,2007-05-22,26400.0
ITA,2007-05-23,27700.0
ITA,2007-05-24,26600.0
ITA,2007-05-25,27300.0
ITA,2007-05-28,27500.0
ITA,2007-05-29,27300.0
ITA,2007-05-30,26400.0
ITA,2007-05-31,27100.0
ITA,2007-06-01,26600.0
ITA,2007-06-04,25900.0
ITA,2007-06-05,26000.0
ITA,2007-06-06,26000.0
ITA,2007-06-07,25900.0
ITA,2007-06-08,25700.0
ITA,2007-06-11,25700.0
ITA,2007-06-12,25900.0
ITA,2007-06-13,25900.0
ITA,2007-06-14,26000.0
ITA,2007-06-15,26200.0
ITA,2007-06-18,25900.0
ITA,2007-06-19,25900.0
ITA,2007-06-20,25900.0
ITA,2007-06-21,26200.0
ITA,2007-06-22,26400.0
ITA,2007-06-25,26400.0
ITA,2007-06-26,26000.0
ITA,2007-06-27,25400.0
ITA,2007-06-28,25200.0
ITA,2007-06-29,25400.0
ITA,2007-07-02,24700.0
ITA,2007-07-03,25400.0
ITA,2007-07-04,25800.0
ITA,2007-07-05,26200.0
ITA,2007-07-06,27100.0
ITA,2007-07-09,26900.0
ITA,2007-07-10,27100.0
ITA,2007-07-11,27700.0
ITA,2007-07-12,27300.0
ITA,2007-07-13,27100.0
ITA,2007-07-16,26600.0
ITA,2007-07-17,26900.0
ITA,2007-07-18,26900.0
ITA,2007-07-19,26400.0
ITA,2007-07-20,26400.0
ITA,2007-07-23,27100.0
ITA,2007-07-24,27100.0
ITA,2007-07-25,27100.0
ITA,2007-07-26,27100.0
ITA,2007-07-27,26900.0
ITA,2007-07-30,26900.0
ITA,2007-07-31,26900.0
ITA,2007-08-01,26900.0
ITA,2007-08-02,26900.0
ITA,2007-08-03,26900.0
ITA,2007-08-06,26600.0
ITA,2007-08-07,27500.0
ITA,2007-08-08,27900.0
ITA,2007-08-09,29200.0
ITA,2007-08-10,30400.0
ITA,2007-08-13,29000.0
ITA,2007-08-14,29600.0
ITA,2007-08-15,29400.0
ITA,2007-08-16,29200.0
ITA,2007-08-17,29200.0
ITA,2007-08-20,30200.0
ITA,2007-08-21,29400.0
ITA,2007-08-22,29600.0
ITA,2007-08-23,28500.0
ITA,2007-08-24,28800.0
ITA,2007-08-27,29600.0
ITA,2007-08-28,28500.0
ITA,2007-08-29,28300.0
ITA,2007-08-30,29000.0
ITA,2007-08-31,29400.0
ITA,2007-09-04,29400.0
ITA,2007-09-05,29000.0
ITA,2007-09-06,29000.0
ITA,2007-09-07,29000.0
ITA,2007-09-10,28800.0
ITA,2007-09-11,28300.0
ITA,2007-09-12,28800.0
ITA,2007-09-13,28300.0
ITA,2007-09-14,28500.0
ITA,2007-09-17,28100.0
ITA,2007-09-18,28300.0
ITA,2007-09-19,28300.0
ITA,2007-09-20,29000.0
ITA,2007-09-21,28800.0
ITA,2007-09-24,28500.0
ITA,2007-09-25,28800.0
ITA,2007-09-26,29000.0
ITA,2007-09-27,28800.0
ITA,2007-09-28,29000.0
ITA,2007-10-01,30200.0
ITA,2007-10-02,30400.0
ITA,2007-10-03,30200.0
ITA,2007-10-04,29800.0
ITA,2007-10-05,29200.0
ITA,2007-10-08,29000.0
ITA,2007-10-09,29200.0
ITA,2007-10-10,29200.0
ITA,2007-10-11,29200.0
ITA,2007-10-12,29200.0
ITA,2007-10-15,29200.0
ITA,2007-10-16,29000.0
ITA,2007-10-17,28800.0
ITA,2007-10-18,28800.0
ITA,2007-10-19,28300.0
ITA,2007-10-22,28500.0
ITA,2007-10-23,28500.0
ITA,2007-10-24,28800.0
ITA,2007-10-25,29200.0
ITA,2007-10-26,29000.0
ITA,2007-10-29,28500.0
ITA,2007-10-30,28500.0
ITA,2007-10-31,29000.0
ITA,2007-11-01,29000.0
ITA,2007-11-02,28500.0
ITA,2007-11-05,29000.0
ITA,2007-11-06,28800.0
ITA,2007-11-07,28800.0
ITA,2007-11-08,28500.0
ITA,2007-11-09,28500.0
ITA,2007-11-12,28100.0
ITA,2007-11-13,28100.0
ITA,2007-11-14,28500.0
ITA,2007-11-15,28500.0
ITA,2007-11-16,28500.0
ITA,2007-11-19,28500.0
ITA,2007-11-20,28300.0
ITA,2007-11-21,27500.0
ITA,2007-11-22,27900.0
ITA,2007-11-23,27300.0
ITA,2007-11-26,28500.0
ITA,2007-11-27,28300.0
ITA,2007-11-28,28100.0
ITA,2007-11-29,28100.0
ITA,2007-11-30,27500.0
ITA,2007-12-03,27500.0
ITA,2007-12-04,27500.0
ITA,2007-12-05,27500.0
ITA,2007-12-06,27500.0
ITA,2007-12-07,27500.0
ITA,2007-12-10,27300.0
ITA,2007-12-11,26600.0
ITA,2007-12-12,27100.0
ITA,2007-12-13,26900.0
ITA,2007-12-14,26400.0
ITA,2007-12-17,26600.0
ITA,2007-12-18,26900.0
ITA,2007-12-19,26900.0
ITA,2007-12-20,26400.0
ITA,2007-12-21,26900.0
ITA,2007-12-24,26200.0
ITA,2007-12-25,26000.0
ITA,2007-12-26,26400.0
ITA,2007-12-27,26400.0
ITA,2007-12-28,26600.0
ITA,2008-01-02,25800.0
ITA,2008-01-03,26000.0
ITA,2008-01-04,26200.0
ITA,2008-01-07,26200.0
ITA,2008-01-08,26900.0
ITA,2008-01-09,26400.0
ITA,2008-01-10,26400.0
ITA,2008-01-11,27100.0
ITA,2008-01-14,27100.0
ITA,2008-01-15,27100.0
ITA,2008-01-16,28300.0
ITA,2008-01-17,28300.0
ITA,2008-01-18,27900.0
ITA,2008-01-21,28300.0
ITA,2008-01-22,27100.0
ITA,2008-01-23,25800.0
ITA,2008-01-24,25800.0
ITA,2008-01-25,27100.0
ITA,2008-01-28,27900.0
ITA,2008-01-29,27900.0
ITA,2008-01-30,29200.0
ITA,2008-01-31,29200.0
ITA,2008-02-01,30200.0
ITA,2008-02-12,30200.0
ITA,2008-02-13,29200.0
ITA,2008-02-14,29200.0
ITA,2008-02-15,29200.0
ITA,2008-02-18,28000.0
ITA,2008-02-19,28000.0
ITA,2008-02-20,26700.0
ITA,2008-02-21,25500.0
ITA,2008-02-22,24300.0
ITA,2008-02-25,24800.0
ITA,2008-02-26,23600.0
ITA,2008-02-27,22900.0
ITA,2008-02-28,21900.0
ITA,2008-02-29,23000.0
ITA,2008-03-03,21900.0
ITA,2008-03-04,23000.0
ITA,2008-03-05,21900.0
ITA,2008-03-06,23000.0
ITA,2008-03-07,24100.0
ITA,2008-03-10,25000.0
ITA,2008-03-11,23800.0
ITA,2008-03-12,23100.0
ITA,2008-03-13,23300.0
ITA,2008-03-14,22900.0
ITA,2008-03-17,21800.0
ITA,2008-03-18,20800.0
ITA,2008-03-19,19800.0
ITA,2008-03-20,19800.0
ITA,2008-03-21,19200.0
ITA,2008-03-24,18400.0
ITA,2008-03-25,17500.0
ITA,2008-03-26,17000.0
ITA,2008-03-27,17100.0
ITA,2008-03-28,17300.0
ITA,2008-03-31,17400.0
ITA,2008-04-01,17500.0
ITA,2008-04-02,17600.0
ITA,2008-04-03,17800.0
ITA,2008-04-04,17900.0
ITA,2008-04-07,18100.0
ITA,2008-04-08,18400.0
ITA,2008-04-09,18200.0
ITA,2008-04-10,17900.0
ITA,2008-04-11,17600.0
ITA,2008-04-16,17400.0
ITA,2008-04-17,17100.0
ITA,2008-04-18,16900.0
ITA,2008-04-21,17000.0
ITA,2008-04-22,16800.0
ITA,2008-04-23,16500.0
ITA,2008-04-24,16800.0
ITA,2008-04-25,17000.0
ITA,2008-04-28,17300.0
ITA,2008-04-29,17500.0
ITA,2008-05-05,17800.0
ITA,2008-05-06,18000.0
ITA,2008-05-07,18200.0
ITA,2008-05-08,18200.0
ITA,2008-05-09,18600.0
ITA,2008-05-12,18200.0
ITA,2008-05-13,17900.0
ITA,2008-05-14,17600.0
ITA,2008-05-15,17400.0
ITA,2008-05-16,17600.0
ITA,2008-05-19,17900.0
ITA,2008-05-20,18100.0
ITA,2008-05-21,17900.0
ITA,2008-05-22,17800.0
ITA,2008-05-23,17800.0
ITA,2008-05-26,17500.0
ITA,2008-05-30,17800.0
ITA,2008-06-02,17500.0
ITA,2008-06-03,17300.0
ITA,2008-06-04,17000.0
ITA,2008-06-05,16800.0
ITA,2008-06-06,16500.0
ITA,2008-06-09,16300.0
ITA,2008-06-10,16000.0
ITA,2008-06-11,16300.0
ITA,2008-06-12,16500.0
ITA,2008-06-13,16800.0
ITA,2008-06-16,17000.0
ITA,2008-06-17,17300.0
ITA,2008-06-18,17500.0
ITA,2008-06-19,18000.0
ITA,2008-06-20,18500.0
ITA,2008-06-23,19000.0
ITA,2008-06-24,19500.0
ITA,2008-06-25,19900.0
ITA,2008-06-26,20400.0
ITA,2008-06-27,21000.0
ITA,2008-06-30,21600.0
ITA,2008-07-01,22200.0
ITA,2008-07-02,22700.0
ITA,2008-07-03,23300.0
ITA,2008-07-04,24000.0
ITA,2008-07-07,24600.0
ITA,2008-07-08,23800.0
ITA,2008-07-09,23200.0
ITA,2008-07-10,22600.0
ITA,2008-07-11,23200.0
ITA,2008-07-14,23800.0
ITA,2008-07-15,24300.0
ITA,2008-07-16,25000.0
ITA,2008-07-17,24300.0
ITA,2008-07-18,23600.0
ITA,2008-07-21,23000.0
ITA,2008-07-22,22400.0
ITA,2008-07-23,21800.0
ITA,2008-07-24,21200.0
ITA,2008-07-25,20500.0
ITA,2008-07-28,19900.0
ITA,2008-07-29,20400.0
ITA,2008-07-30,21000.0
ITA,2008-07-31,21600.0
ITA,2008-08-01,21000.0
ITA,2008-08-04,20400.0
ITA,2008-08-05,19800.0
ITA,2008-08-06,19300.0
ITA,2008-08-07,18800.0
ITA,2008-08-08,18400.0
ITA,2008-08-11,18800.0
ITA,2008-08-12,18400.0
ITA,2008-08-13,18000.0
ITA,2008-08-14,18500.0
ITA,2008-08-15,19000.0
ITA,2008-08-18,19500.0
ITA,2008-08-19,18500.0
ITA,2008-08-20,17600.0
ITA,2008-08-21,18500.0
ITA,2008-08-22,17900.0
ITA,2008-08-25,18700.0
ITA,2008-08-26,19600.0
ITA,2008-08-27,19000.0
ITA,2008-08-28,18100.0
ITA,2008-08-29,17300.0
ITA,2008-09-03,18100.0
ITA,2008-09-04,17400.0
ITA,2008-09-05,17500.0
ITA,2008-09-08,17000.0
ITA,2008-09-09,16500.0
ITA,2008-09-10,16300.0
ITA,2008-09-11,15600.0
ITA,2008-09-12,14800.0
ITA,2008-09-15,14700.0
ITA,2008-09-16,14000.0
ITA,2008-09-17,13400.0
ITA,2008-09-18,12800.0
ITA,2008-09-19,13400.0
ITA,2008-09-22,14000.0
ITA,2008-09-23,13600.0
ITA,2008-09-24,13000.0
ITA,2008-09-25,13600.0
ITA,2008-09-26,14200.0
ITA,2008-09-29,13900.0
ITA,2008-09-30,13300.0
ITA,2008-10-01,13100.0
ITA,2008-10-02,13400.0
ITA,2008-10-03,12900.0
ITA,2008-10-06,12200.0
ITA,2008-10-07,11600.0
ITA,2008-10-08,11100.0
ITA,2008-10-09,10500.0
ITA,2008-10-10,10000.0
ITA,2008-10-13,9600.0
ITA,2008-10-14,10000.0
ITA,2008-10-15,9600.0
ITA,2008-10-16,9100.0
ITA,2008-10-17,8600.0
ITA,2008-10-20,8200.0
ITA,2008-10-21,8600.0
ITA,2008-10-22,9000.0
ITA,2008-10-23,9500.0
ITA,2008-10-24,9000.0
ITA,2008-10-27,8600.0
ITA,2008-10-28,8200.0
ITA,2008-10-29,8100.0
ITA,2008-10-30,8100.0
ITA,2008-10-31,8500.0
ITA,2008-11-03,8900.0
ITA,2008-11-04,9300.0
ITA,2008-11-05,9800.0
ITA,2008-11-06,10100.0
ITA,2008-11-07,9600.0
ITA,2008-11-10,9200.0
ITA,2008-11-11,8800.0
ITA,2008-11-12,8400.0
ITA,2008-11-13,8400.0
ITA,2008-11-14,8800.0
ITA,2008-11-17,8400.0
ITA,2008-11-18,8200.0
ITA,2008-11-19,8400.0
ITA,2008-11-20,8000.0
ITA,2008-11-21,7900.0
ITA,2008-11-24,8100.0
ITA,2008-11-25,8500.0
ITA,2008-11-26,8500.0
ITA,2008-11-27,8100.0
ITA,2008-11-28,8500.0
ITA,2008-12-01,8500.0
ITA,2008-12-02,8100.0
ITA,2008-12-03,8000.0
ITA,2008-12-04,8000.0
ITA,2008-12-05,7600.0
ITA,2008-12-08,7300.0
ITA,2008-12-09,7300.0
ITA,2008-12-10,6900.0
ITA,2008-12-11,7000.0
ITA,2008-12-12,7300.0
ITA,2008-12-15,7700.0
ITA,2008-12-16,7300.0
ITA,2008-12-17,7700.0
ITA,2008-12-18,7700.0
ITA,2008-12-19,7600.0
ITA,2008-12-22,7600.0
ITA,2008-12-23,7400.0
ITA,2008-12-24,7400.0
ITA,2008-12-25,7300.0
ITA,2008-12-26,7100.0
ITA,2008-12-29,7300.0
ITA,2008-12-30,7600.0
ITA,2008-12-31,7500.0
ITA,2009-01-02,7400.0
ITA,2009-01-05,7400.0
ITA,2009-01-06,7600.0
ITA,2009-01-07,7600.0
ITA,2009-01-08,7400.0
ITA,2009-01-09,7400.0
ITA,2009-01-12,7400.0
ITA,2009-01-13,7400.0
ITA,2009-01-14,7400.0
ITA,2009-01-15,7200.0
ITA,2009-01-16,7200.0
ITA,2009-01-19,7100.0
ITA,2009-01-20,6900.0
ITA,2009-01-21,6900.0
ITA,2009-01-22,6900.0
ITA,2009-01-23,7100.0
ITA,2009-02-02,6800.0
ITA,2009-02-03,6500.0
ITA,2009-02-04,6600.0
ITA,2009-02-05,6400.0
ITA,2009-02-06,6300.0
ITA,2009-02-09,6400.0
ITA,2009-02-10,6200.0
ITA,2009-02-11,5900.0
ITA,2009-02-12,5800.0
ITA,2009-02-13,5800.0
ITA,2009-02-16,5700.0
ITA,2009-02-17,5400.0
ITA,2009-02-18,5200.0
ITA,2009-02-19,4900.0
ITA,2009-02-20,4700.0
ITA,2009-02-23,4500.0
ITA,2009-02-24,4300.0
ITA,2009-02-25,4400.0
ITA,2009-02-26,4300.0
ITA,2009-02-27,4100.0
ITA,2009-03-02,4300.0
ITA,2009-03-03,4500.0
ITA,2009-03-04,4400.0
ITA,2009-03-05,4400.0
ITA,2009-03-06,4300.0
ITA,2009-03-09,4400.0
ITA,2009-03-10,4600.0
ITA,2009-03-11,4800.0
ITA,2009-03-12,5000.0
ITA,2009-03-13,5200.0
ITA,2009-03-16,5500.0
ITA,2009-03-17,5700.0
ITA,2009-03-18,6000.0
ITA,2009-03-19,5700.0
ITA,2009-03-20,5600.0
ITA,2009-03-23,5400.0
ITA,2009-03-24,5700.0
ITA,2009-03-25,6000.0
ITA,2009-03-26,6200.0
ITA,2009-03-27,6500.0
ITA,2009-03-30,6900.0
ITA,2009-03-31,7200.0
ITA,2009-04-01,7500.0
ITA,2009-04-02,7900.0
ITA,2009-04-03,8200.0
ITA,2009-04-07,8600.0
ITA,2009-04-08,9100.0
ITA,2009-04-09,9100.0
ITA,2009-04-10,9500.0
ITA,2009-04-13,10000.0
ITA,2009-04-14,10500.0
ITA,2009-04-15,10500.0
ITA,2009-04-16,10800.0
ITA,2009-04-17,10300.0
ITA,2009-04-20,9800.0
ITA,2009-04-21,9300.0
ITA,2009-04-22,8900.0
ITA,2009-04-23,8500.0
ITA,2009-04-24,8100.0
ITA,2009-04-27,8500.0
ITA,2009-04-28,8900.0
ITA,2009-04-29,9300.0
ITA,2009-05-04,9800.0
ITA,2009-05-05,10200.0
ITA,2009-05-06,10600.0
ITA,2009-05-07,11100.0
ITA,2009-05-08,11200.0
ITA,2009-05-11,11700.0
ITA,2009-05-12,12300.0
ITA,2009-05-13,12900.0
ITA,2009-05-14,13100.0
ITA,2009-05-15,13400.0
ITA,2009-05-18,12900.0
ITA,2009-05-19,13600.0
ITA,2009-05-20,14300.0
ITA,2009-05-21,15000.0
ITA,2009-05-22,15700.0
ITA,2009-05-25,16400.0
ITA,2009-05-26,17200.0
ITA,2009-05-27,18100.0
ITA,2009-05-28,17200.0
ITA,2009-05-29,16400.0
ITA,2009-06-01,16900.0
ITA,2009-06-02,16900.0
ITA,2009-06-03,16500.0
ITA,2009-06-04,16600.0
ITA,2009-06-05,17400.0
ITA,2009-06-08,18200.0
ITA,2009-06-09,17400.0
ITA,2009-06-10,16500.0
ITA,2009-06-11,17300.0
ITA,2009-06-12,17400.0
ITA,2009-06-15,16600.0
ITA,2009-06-16,15800.0
ITA,2009-06-17,15000.0
ITA,2009-06-18,15700.0
ITA,2009-06-19,16100.0
ITA,2009-06-22,15300.0
ITA,2009-06-23,14500.0
ITA,2009-06-24,15200.0
ITA,2009-06-25,14500.0
ITA,2009-06-26,15100.0
ITA,2009-06-29,15100.0
ITA,2009-06-30,14300.0
ITA,2009-07-01,13600.0
ITA,2009-07-02,14300.0
ITA,2009-07-03,14000.0
ITA,2009-07-06,14600.0
ITA,2009-07-07,14400.0
ITA,2009-07-08,14100.0
ITA,2009-07-09,13800.0
ITA,2009-07-10,13200.0
ITA,2009-07-13,12600.0
ITA,2009-07-14,12000.0
ITA,2009-07-15,12500.0
ITA,2009-07-16,13100.0
ITA,2009-07-17,13800.0
ITA,2009-07-20,13100.0
ITA,2009-07-21,12500.0
ITA,2009-07-22,12800.0
ITA,2009-07-23,13400.0
ITA,2009-07-24,14000.0
ITA,2009-07-27,14700.0
ITA,2009-07-28,15400.0
ITA,2009-07-29,15300.0
ITA,2009-07-30,14600.0
ITA,2009-07-31,15300.0
ITA,2009-08-03,15100.0
ITA,2009-08-04,15000.0
ITA,2009-08-05,14700.0
ITA,2009-08-06,15000.0
ITA,2009-08-07,14800.0
ITA,2009-08-10,15100.0
ITA,2009-08-11,14900.0
ITA,2009-08-12,15600.0
ITA,2009-08-13,16400.0
ITA,2009-08-14,15900.0
ITA,2009-08-17,15400.0
ITA,2009-08-18,15600.0
ITA,2009-08-19,16400.0
ITA,2009-08-20,16600.0
ITA,2009-08-21,16100.0
ITA,2009-08-24,16100.0
ITA,2009-08-25,15900.0
ITA,2009-08-26,15900.0
ITA,2009-08-27,16000.0
ITA,2009-08-28,16800.0
ITA,2009-08-31,17500.0
ITA,2009-09-01,17000.0
ITA,2009-09-03,16400.0
ITA,2009-09-04,15900.0
ITA,2009-09-08,16100.0
ITA,2009-09-09,15900.0
ITA,2009-09-10,15900.0
ITA,2009-09-11,16100.0
ITA,2009-09-14,16900.0
ITA,2009-09-15,16400.0
ITA,2009-09-16,16100.0
ITA,2009-09-17,16000.0
ITA,2009-09-18,16200.0
ITA,2009-09-21,16200.0
ITA,2009-09-22,16600.0
ITA,2009-09-23,16400.0
ITA,2009-09-24,16100.0
ITA,2009-09-25,16400.0
ITA,2009-09-28,16100.0
ITA,2009-09-29,16200.0
ITA,2009-09-30,16800.0
ITA,2009-10-01,17100.0
ITA,2009-10-02,16400.0
ITA,2009-10-05,16100.0
ITA,2009-10-06,15900.0
ITA,2009-10-07,16000.0
ITA,2009-10-08,15900.0
ITA,2009-10-09,16400.0
ITA,2009-10-12,17200.0
ITA,2009-10-13,18100.0
ITA,2009-10-14,19000.0
ITA,2009-10-15,19900.0
ITA,2009-10-16,20800.0
ITA,2009-10-19,19800.0
ITA,2009-10-20,20800.0
ITA,2009-10-21,21800.0
ITA,2009-10-22,21800.0
ITA,2009-10-23,20700.0
ITA,2009-10-26,19700.0
ITA,2009-10-27,18900.0
ITA,2009-10-28,19200.0
ITA,2009-10-29,18300.0
ITA,2009-10-30,18500.0
ITA,2009-11-02,17500.0
ITA,2009-11-03,16700.0
ITA,2009-11-04,15900.0
ITA,2009-11-05,16700.0
ITA,2009-11-06,17400.0
ITA,2009-11-09,16600.0
ITA,2009-11-10,16600.0
ITA,2009-11-11,17400.0
ITA,2009-11-12,18200.0
ITA,2009-11-13,18700.0
ITA,2009-11-16,18300.0
ITA,2009-11-17,18000.0
ITA,2009-11-18,18700.0
ITA,2009-11-19,18500.0
ITA,2009-11-20,18000.0
ITA,2009-11-23,17200.0
ITA,2009-11-24,17000.0
ITA,2009-11-25,16100.0
ITA,2009-11-26,15400.0
ITA,2009-11-27,15400.0
ITA,2009-11-30,15600.0
ITA,2009-12-01,15800.0
ITA,2009-12-02,15400.0
ITA,2009-12-03,15500.0
ITA,2009-12-04,15500.0
ITA,2009-12-07,15600.0
ITA,2009-12-08,15300.0
ITA,2009-12-09,14600.0
ITA,2009-12-10,13800.0
ITA,2009-12-11,13200.0
ITA,2009-12-14,13000.0
ITA,2009-12-15,12500.0
ITA,2009-12-16,12000.0
ITA,2009-12-17,11400.0
ITA,2009-12-18,11900.0
ITA,2009-12-21,12500.0
ITA,2009-12-22,12700.0
ITA,2009-12-23,12800.0
ITA,2009-12-24,13400.0
ITA,2009-12-25,14100.0
ITA,2009-12-28,14800.0
ITA,2009-12-29,14300.0
ITA,2009-12-30,14800.0
ITA,2009-12-31,14700.0
ITA,2010-01-04,15400.0
ITA,2010-01-05,16100.0
ITA,2010-01-06,16600.0
ITA,2010-01-07,16700.0
ITA,2010-01-08,15900.0
ITA,2010-01-11,15500.0
ITA,2010-01-12,14800.0
ITA,2010-01-13,15500.0
ITA,2010-01-14,15500.0
ITA,2010-01-15,15000.0
ITA,2010-01-18,14300.0
ITA,2010-01-19,14500.0
ITA,2010-01-20,14200.0
ITA,2010-01-21,13500.0
ITA,2010-01-22,13400.0
ITA,2010-01-25,13700.0
ITA,2010-01-26,14300.0
ITA,2010-01-27,13800.0
ITA,2010-01-28,13500.0
ITA,2010-01-29,13800.0
ITA,2010-02-01,13900.0
ITA,2010-02-02,13800.0
ITA,2010-02-03,13800.0
ITA,2010-02-04,14300.0
ITA,2010-02-05,13800.0
ITA,2010-02-08,13500.0
ITA,2010-02-09,13300.0
ITA,2010-02-10,13500.0
ITA,2010-02-11,13600.0
ITA,2010-02-12,13900.0
ITA,2010-02-22,14100.0
ITA,2010-02-23,13600.0
ITA,2010-02-24,13500.0
ITA,2010-02-25,13500.0
ITA,2010-02-26,13400.0
ITA,2010-03-01,13600.0
ITA,2010-03-02,13700.0
ITA,2010-03-03,14300.0
ITA,2010-03-04,14600.0
ITA,2010-03-05,14700.0
ITA,2010-03-08,15100.0
ITA,2010-03-09,15100.0
ITA,2010-03-10,14900.0
ITA,2010-03-11,15300.0
ITA,2010-03-12,16100.0
ITA,2010-03-15,16500.0
ITA,2010-03-16,15700.0
ITA,2010-03-17,15300.0
ITA,2010-03-18,15900.0
ITA,2010-03-19,15900.0
ITA,2010-03-22,15600.0
ITA,2010-03-23,15300.0
ITA,2010-03-24,15700.0
ITA,2010-03-25,15300.0
ITA,2010-03-26,15200.0
ITA,2010-03-29,15500.0
ITA,2010-03-30,15100.0
ITA,2010-03-31,15100.0
ITA,2010-04-01,15500.0
ITA,2010-04-02,15500.0
ITA,2010-04-05,15500.0
ITA,2010-04-06,15500.0
ITA,2010-04-07,15500.0
ITA,2010-04-08,15500.0
ITA,2010-04-09,16000.0
ITA,2010-04-12,15900.0
ITA,2010-04-13,15600.0
ITA,2010-04-14,15600.0
ITA,2010-04-15,15600.0
ITA,2010-04-16,15500.0
ITA,2010-04-19,15400.0
ITA,2010-04-20,15200.0
ITA,2010-04-21,15300.0
ITA,2010-04-22,16000.0
ITA,2010-04-26,15900.0
ITA,2010-04-27,15900.0
ITA,2010-04-28,15800.0
ITA,2010-04-29,15700.0
ITA,2010-05-04,16000.0
ITA,2010-05-05,15700.0
ITA,2010-05-06,15600.0
ITA,2010-05-07,15400.0
ITA,2010-05-10,15100.0
ITA,2010-05-11,15100.0
ITA,2010-05-12,14500.0
ITA,2010-05-13,14500.0
ITA,2010-05-14,14600.0
ITA,2010-05-17,14200.0
ITA,2010-05-18,14100.0
ITA,2010-05-19,13400.0
ITA,2010-05-20,13900.0
ITA,2010-05-21,13300.0
ITA,2010-05-24,13900.0
ITA,2010-05-25,14300.0
ITA,2010-05-26,14400.0
ITA,2010-05-27,14600.0
ITA,2010-05-28,15200.0
ITA,2010-05-31,14900.0
ITA,2010-06-01,15600.0
ITA,2010-06-02,15700.0
ITA,2010-06-03,15600.0
ITA,2010-06-04,15400.0
ITA,2010-06-07,14800.0
ITA,2010-06-08,15000.0
ITA,2010-06-09,16400.0
ITA,2010-06-10,16600.0
ITA,2010-06-11,16400.0
ITA,2010-06-14,16100.0
ITA,2010-06-15,15900.0
ITA,2010-06-16,16000.0
ITA,2010-06-17,15900.0
ITA,2010-06-18,16300.0
ITA,2010-06-21,16100.0
ITA,2010-06-22,15900.0
ITA,2010-06-23,16000.0
ITA,2010-06-24,15800.0
ITA,2010-06-25,15500.0
ITA,2010-06-28,15100.0
ITA,2010-06-29,15800.0
ITA,2010-06-30,15500.0
ITA,2010-07-01,15400.0
ITA,2010-07-02,15200.0
ITA,2010-07-05,15400.0
ITA,2010-07-06,15200.0
ITA,2010-07-07,15100.0
ITA,2010-07-08,15000.0
ITA,2010-07-09,15200.0
ITA,2010-07-12,15200.0
ITA,2010-07-13,15900.0
ITA,2010-07-14,15700.0
ITA,2010-07-15,15400.0
ITA,2010-07-16,15400.0
ITA,2010-07-19,15300.0
ITA,2010-07-20,15200.0
ITA,2010-07-21,15000.0
ITA,2010-07-22,15000.0
ITA,2010-07-23,15000.0
ITA,2010-07-26,14800.0
ITA,2010-07-27,15000.0
ITA,2010-07-28,14900.0
ITA,2010-07-29,15100.0
ITA,2010-07-30,15300.0
ITA,2010-08-02,15100.0
ITA,2010-08-03,15200.0
ITA,2010-08-04,14900.0
ITA,2010-08-05,15000.0
ITA,2010-08-06,14800.0
ITA,2010-08-09,14200.0
ITA,2010-08-10,14000.0
ITA,2010-08-11,14200.0
ITA,2010-08-12,13500.0
ITA,2010-08-13,13500.0
ITA,2010-08-16,14100.0
ITA,2010-08-17,14000.0
ITA,2010-08-18,13500.0
ITA,2010-08-19,13300.0
ITA,2010-08-20,13800.0
ITA,2010-08-23,13200.0
ITA,2010-08-24,12600.0
ITA,2010-08-25,12000.0
ITA,2010-08-26,12000.0
ITA,2010-08-27,12000.0
ITA,2010-08-30,12600.0
ITA,2010-08-31,13200.0
ITA,2010-09-01,13600.0
ITA,2010-09-06,14300.0
ITA,2010-09-07,14000.0
ITA,2010-09-08,13700.0
ITA,2010-09-09,13700.0
ITA,2010-09-10,13100.0
ITA,2010-09-13,12600.0
ITA,2010-09-14,13200.0
ITA,2010-09-15,13100.0
ITA,2010-09-16,13200.0
ITA,2010-09-17,13500.0
ITA,2010-09-20,13100.0
ITA,2010-09-21,12900.0
ITA,2010-09-22,13100.0
ITA,2010-09-23,12700.0
ITA,2010-09-24,12400.0
ITA,2010-09-27,12200.0
ITA,2010-09-28,12400.0
ITA,2010-09-29,12200.0
ITA,2010-09-30,12100.0
ITA,2010-10-01,11900.0
ITA,2010-10-04,11500.0
ITA,2010-10-05,11600.0
ITA,2010-10-06,12200.0
ITA,2010-10-07,12200.0
ITA,2010-10-08,12000.0
ITA,2010-10-11,11700.0
ITA,2010-10-12,11600.0
ITA,2010-10-13,11900.0
ITA,2010-10-14,11700.0
ITA,2010-10-15,11700.0
ITA,2010-10-18,11500.0
ITA,2010-10-19,11300.0
ITA,2010-10-20,10800.0
ITA,2010-10-21,10800.0
ITA,2010-10-22,10900.0
ITA,2010-10-25,10900.0
ITA,2010-10-26,11400.0
ITA,2010-10-27,11300.0
ITA,2010-10-28,11100.0
ITA,2010-10-29,11000.0
ITA,2010-11-01,11000.0
ITA,2010-11-02,10800.0
ITA,2010-11-03,10600.0
ITA,2010-11-04,10800.0
ITA,2010-11-05,11000.0
ITA,2010-11-08,10800.0
ITA,2010-11-09,10800.0
ITA,2010-11-10,10700.0
ITA,2010-11-11,10600.0
ITA,2010-11-12,10100.0
ITA,2010-11-15,9600.0
ITA,2010-11-16,9200.0
ITA,2010-11-17,9100.0
ITA,2010-11-18,9400.0
ITA,2010-11-19,9300.0
ITA,2010-11-22,8900.0
ITA,2010-11-23,9200.0
ITA,2010-11-24,9300.0
ITA,2010-11-25,9600.0
ITA,2010-11-26,9400.0
ITA,2010-11-29,9900.0
ITA,2010-11-30,10200.0
ITA,2010-12-01,10200.0
ITA,2010-12-02,10700.0
ITA,2010-12-03,11200.0
ITA,2010-12-06,11200.0
ITA,2010-12-07,10600.0
ITA,2010-12-08,10100.0
ITA,2010-12-09,10400.0
ITA,2010-12-10,10900.0
ITA,2010-12-13,11400.0
ITA,2010-12-14,10900.0
ITA,2010-12-15,11400.0
ITA,2010-12-16,11400.0
ITA,2010-12-17,12000.0
ITA,2010-12-20,12500.0
ITA,2010-12-21,12000.0
ITA,2010-12-22,11500.0
ITA,2010-12-23,11300.0
ITA,2010-12-24,11300.0
ITA,2010-12-27,11200.0
ITA,2010-12-28,11700.0
ITA,2010-12-29,11500.0
ITA,2010-12-30,11500.0
ITA,2010-12-31,11600.0
ITA,2011-01-04,11600.0
ITA,2011-01-05,11300.0
ITA,2011-01-06,11300.0
ITA,2011-01-07,11300.0
ITA,2011-01-10,10800.0
ITA,2011-01-11,10500.0
ITA,2011-01-12,10700.0
ITA,2011-01-13,11000.0
ITA,2011-01-14,11500.0
ITA,2011-01-17,11500.0
ITA,2011-01-18,11400.0
ITA,2011-01-19,11600.0
ITA,2011-01-20,11300.0
ITA,2011-01-21,11400.0
ITA,2011-01-24,11300.0
ITA,2011-01-25,11100.0
ITA,2011-01-26,11300.0
ITA,2011-01-27,11500.0
ITA,2011-01-28,11500.0
ITA,2011-02-08,11700.0
ITA,2011-02-09,11500.0
ITA,2011-02-10,12000.0
ITA,2011-02-11,11800.0
ITA,2011-02-14,11600.0
ITA,2011-02-15,11600.0
ITA,2011-02-16,11400.0
ITA,2011-02-17,11200.0
ITA,2011-02-18,11000.0
ITA,2011-02-21,10500.0
ITA,2011-02-22,10000.0
ITA,2011-02-23,10300.0
ITA,2011-02-24,10400.0
ITA,2011-02-25,10600.0
ITA,2011-02-28,10200.0
ITA,2011-03-01,10200.0
ITA,2011-03-02,9700.0
ITA,2011-03-03,9400.0
ITA,2011-03-04,9500.0
ITA,2011-03-07,9600.0
ITA,2011-03-08,9600.0
ITA,2011-03-09,9400.0
ITA,2011-03-10,9900.0
ITA,2011-03-11,10300.0
ITA,2011-03-14,9900.0
ITA,2011-03-15,9900.0
ITA,2011-03-16,10000.0
ITA,2011-03-17,9900.0
ITA,2011-03-18,10200.0
ITA,2011-03-21,10100.0
ITA,2011-03-22,10000.0
ITA,2011-03-23,10100.0
ITA,2011-03-24,9900.0
ITA,2011-03-25,9900.0
ITA,2011-03-28,9900.0
ITA,2011-03-29,9800.0
ITA,2011-03-30,9700.0
ITA,2011-03-31,9600.0
ITA,2011-04-01,9600.0
ITA,2011-04-04,9500.0
ITA,2011-04-05,9400.0
ITA,2011-04-06,9800.0
ITA,2011-04-07,9600.0
ITA,2011-04-08,9600.0
ITA,2011-04-13,9500.0
ITA,2011-04-14,9600.0
ITA,2011-04-15,9500.0
ITA,2011-04-18,9100.0
ITA,2011-04-19,9100.0
ITA,2011-04-20,9000.0
ITA,2011-04-21,8900.0
ITA,2011-04-22,8600.0
ITA,2011-04-25,9000.0
ITA,2011-04-26,8700.0
ITA,2011-04-27,8700.0
ITA,2011-04-28,8700.0
ITA,2011-04-29,8800.0
ITA,2011-05-04,8900.0
ITA,2011-05-05,8900.0
ITA,2011-05-06,8900.0
ITA,2011-05-09,9100.0
ITA,2011-05-10,8900.0
ITA,2011-05-11,8800.0
ITA,2011-05-12,8800.0
ITA,2011-05-13,8700.0
ITA,2011-05-16,8600.0
ITA,2011-05-17,8400.0
ITA,2011-05-18,8100.0
ITA,2011-05-19,7800.0
ITA,2011-05-20,7500.0
ITA,2011-05-23,7100.0
ITA,2011-05-24,6800.0
ITA,2011-05-25,6500.0
ITA,2011-05-26,6800.0
ITA,2011-05-27,7100.0
ITA,2011-05-30,6700.0
ITA,2011-05-31,6900.0
ITA,2011-06-01,7200.0
ITA,2011-06-02,7600.0
ITA,2011-06-03,7400.0
ITA,2011-06-06,7400.0
ITA,2011-06-07,7800.0
ITA,2011-06-08,7700.0
ITA,2011-06-09,7800.0
ITA,2011-06-10,8100.0
ITA,2011-06-13,8500.0
ITA,2011-06-14,8300.0
ITA,2011-06-15,8000.0
ITA,2011-06-16,8100.0
ITA,2011-06-17,7800.0
ITA,2011-06-20,7400.0
ITA,2011-06-21,7800.0
ITA,2011-06-22,7800.0
ITA,2011-06-23,7700.0
ITA,2011-06-24,7600.0
ITA,2011-06-27,7600.0
ITA,2011-06-28,7400.0
ITA,2011-06-29,7600.0
ITA,2011-06-30,7400.0
ITA,2011-07-01,7300.0
ITA,2011-07-04,7100.0
ITA,2011-07-05,7500.0
ITA,2011-07-06,7300.0
ITA,2011-07-07,7300.0
ITA,2011-07-08,7300.0
ITA,2011-07-11,7100.0
ITA,2011-07-12,7100.0
ITA,2011-07-13,7200.0
ITA,2011-07-14,7100.0
ITA,2011-07-15,7100.0
ITA,2011-07-18,6900.0
ITA,2011-07-19,6900.0
ITA,2011-07-20,7200.0
ITA,2011-07-21,7100.0
ITA,2011-07-22,7100.0
ITA,2011-07-25,6900.0
ITA,2011-07-26,6900.0
ITA,2011-07-27,6900.0
ITA,2011-07-28,7000.0
ITA,2011-07-29,6900.0
ITA,2011-08-01,6700.0
ITA,2011-08-02,6400.0
ITA,2011-08-03,6200.0
ITA,2011-08-04,6500.0
ITA,2011-08-05,6400.0
ITA,2011-08-08,6100.0
ITA,2011-08-09,5800.0
ITA,2011-08-10,5700.0
ITA,2011-08-11,5700.0
ITA,2011-08-12,5700.0
ITA,2011-08-15,5700.0
ITA,2011-08-16,5900.0
ITA,2011-08-17,6200.0
ITA,2011-08-18,6300.0
ITA,2011-08-19,6100.0
ITA,2011-08-22,6400.0
ITA,2011-08-23,6500.0
ITA,2011-08-24,6300.0
ITA,2011-08-25,6400.0
ITA,2011-08-26,6400.0
ITA,2011-08-29,6600.0
ITA,2011-08-30,6900.0
ITA,2011-08-31,7200.0
ITA,2011-09-01,7600.0
ITA,2011-09-05,7500.0
ITA,2011-09-06,7300.0
ITA,2011-09-07,7600.0
ITA,2011-09-08,7900.0
ITA,2011-09-09,7800.0
ITA,2011-09-12,7800.0
ITA,2011-09-13,8200.0
ITA,2011-09-14,7800.0
ITA,2011-09-15,7700.0
ITA,2011-09-16,7500.0
ITA,2011-09-19,7700.0
ITA,2011-09-20,7500.0
ITA,2011-09-21,7400.0
ITA,2011-09-22,7700.0
ITA,2011-09-23,7600.0
ITA,2011-09-26,7400.0
ITA,2011-09-27,7300.0
ITA,2011-09-28,7300.0
ITA,2011-09-29,7100.0
ITA,2011-09-30,6900.0
ITA,2011-10-03,6600.0
ITA,2011-10-04,6500.0
ITA,2011-10-05,6600.0
ITA,2011-10-06,6900.0
ITA,2011-10-07,6700.0
ITA,2011-10-10,6600.0
ITA,2011-10-11,6600.0
ITA,2011-10-12,6400.0
ITA,2011-10-13,6500.0
ITA,2011-10-14,6600.0
ITA,2011-10-17,6400.0
ITA,2011-10-18,6200.0
ITA,2011-10-19,6300.0
ITA,2011-10-20,6200.0
ITA,2011-10-21,6500.0
ITA,2011-10-24,6500.0
ITA,2011-10-25,6400.0
ITA,2011-10-26,6500.0
ITA,2011-10-27,6400.0
ITA,2011-10-28,6700.0
ITA,2011-10-31,6800.0
ITA,2011-11-01,6600.0
ITA,2011-11-02,6400.0
ITA,2011-11-03,6400.0
ITA,2011-11-04,6300.0
ITA,2011-11-07,6100.0
ITA,2011-11-08,6100.0
ITA,2011-11-09,5900.0
ITA,2011-11-10,5800.0
ITA,2011-11-11,5700.0
ITA,2011-11-14,5500.0
ITA,2011-11-15,5300.0
ITA,2011-11-16,5500.0
ITA,2011-11-17,5500.0
ITA,2011-11-18,5200.0
ITA,2011-11-21,5000.0
ITA,2011-11-22,5000.0
ITA,2011-11-23,5100.0
ITA,2011-11-24,5100.0
ITA,2011-11-25,5100.0
ITA,2011-11-28,5200.0
ITA,2011-11-29,5100.0
ITA,2011-11-30,5000.0
ITA,2011-12-01,5100.0
ITA,2011-12-02,5100.0
ITA,2011-12-05,5300.0
ITA,2011-12-06,5500.0
ITA,2011-12-07,5500.0
ITA,2011-12-08,5500.0
ITA,2011-12-09,5300.0
ITA,2011-12-12,5100.0
ITA,2011-12-13,5100.0
ITA,2011-12-14,5100.0
ITA,2011-12-15,5000.0
ITA,2011-12-16,5200.0
ITA,2011-12-19,5200.0
ITA,2011-12-20,5100.0
ITA,2011-12-21,5200.0
ITA,2011-12-22,5000.0
ITA,2011-12-23,4800.0
ITA,2011-12-26,4500.0
ITA,2011-12-27,4300.0
ITA,2011-12-28,4500.0
ITA,2011-12-29,4400.0
ITA,2011-12-30,4500.0
ITA,2012-01-03,4800.0
ITA,2012-01-04,4800.0
ITA,2012-01-05,4500.0
ITA,2012-01-06,4600.0
ITA,2012-01-09,4500.0
ITA,2012-01-10,4800.0
ITA,2012-01-11,4600.0
ITA,2012-01-12,4600.0
ITA,2012-01-13,4600.0
ITA,2012-01-16,4800.0
ITA,2012-01-17,4600.0
ITA,2012-01-18,4700.0
ITA,2012-01-19,4900.0
ITA,2012-01-20,4800.0
ITA,2012-01-30,4900.0
ITA,2012-01-31,5000.0
ITA,2012-02-01,5200.0
ITA,2012-02-02,5400.0
ITA,2012-02-03,5400.0
ITA,2012-02-06,5600.0
ITA,2012-02-07,5700.0
ITA,2012-02-08,5900.0
ITA,2012-02-09,5900.0
ITA,2012-02-10,5700.0
ITA,2012-02-13,5400.0
ITA,2012-02-14,5600.0
ITA,2012-02-15,5600.0
ITA,2012-02-16,5700.0
ITA,2012-02-17,5900.0
ITA,2012-02-20,6200.0
ITA,2012-02-21,6300.0
ITA,2012-02-22,6600.0
ITA,2012-02-23,6900.0
ITA,2012-02-24,7000.0
ITA,2012-02-27,7100.0
ITA,2012-02-28,6800.0
ITA,2012-02-29,6900.0
ITA,2012-03-01,6800.0
ITA,2012-03-02,7100.0
ITA,2012-03-05,7400.0
ITA,2012-03-06,7800.0
ITA,2012-03-07,8100.0
ITA,2012-03-08,7800.0
ITA,2012-03-09,7900.0
ITA,2012-03-12,7600.0
ITA,2012-03-13,7600.0
ITA,2012-03-14,7300.0
ITA,2012-03-15,7600.0
ITA,2012-03-16,7300.0
ITA,2012-03-19,7400.0
ITA,2012-03-20,7600.0
ITA,2012-03-21,7800.0
ITA,2012-03-22,7800.0
ITA,2012-03-23,8000.0
ITA,2012-03-26,8000.0
ITA,2012-03-27,8000.0
ITA,2012-03-28,8000.0
ITA,2012-03-29,7600.0
ITA,2012-03-30,7700.0
ITA,2012-04-03,7900.0
ITA,2012-04-04,7600.0
ITA,2012-04-05,7700.0
ITA,2012-04-06,7800.0
ITA,2012-04-09,7800.0
ITA,2012-04-10,8200.0
ITA,2012-04-11,8600.0
ITA,2012-04-12,8900.0
ITA,2012-04-13,8900.0
ITA,2012-04-16,9200.0
ITA,2012-04-17,9000.0
ITA,2012-04-18,8800.0
ITA,2012-04-19,8500.0
ITA,2012-04-20,8500.0
ITA,2012-04-23,8500.0
ITA,2012-04-24,8600.0
ITA,2012-04-25,8700.0
ITA,2012-04-26,8500.0
ITA,2012-04-27,8600.0
ITA,2012-05-02,8300.0
ITA,2012-05-03,8200.0
ITA,2012-05-04,8300.0
ITA,2012-05-07,8400.0
ITA,2012-05-08,8500.0
ITA,2012-05-09,8400.0
ITA,2012-05-10,8600.0
ITA,2012-05-11,8300.0
ITA,2012-05-14,7900.0
ITA,2012-05-15,7600.0
ITA,2012-05-16,7300.0
ITA,2012-05-17,6900.0
ITA,2012-05-18,6600.0
ITA,2012-05-21,6900.0
ITA,2012-05-22,7200.0
ITA,2012-05-23,6900.0
ITA,2012-05-24,6700.0
ITA,2012-05-25,7000.0
ITA,2012-05-28,7200.0
ITA,2012-05-29,7000.0
ITA,2012-05-30,6900.0
ITA,2012-05-31,6700.0
ITA,2012-06-01,6700.0
ITA,2012-06-04,6500.0
ITA,2012-06-05,6600.0
ITA,2012-06-06,6700.0
ITA,2012-06-07,7000.0
ITA,2012-06-08,7000.0
ITA,2012-06-11,7000.0
ITA,2012-06-12,6700.0
ITA,2012-06-13,6600.0
ITA,2012-06-14,6600.0
ITA,2012-06-15,6800.0
ITA,2012-06-18,6900.0
ITA,2012-06-19,6700.0
ITA,2012-06-20,6700.0
ITA,2012-06-21,6600.0
ITA,2012-06-22,6600.0
ITA,2012-06-25,6400.0
ITA,2012-06-26,6200.0
ITA,2012-06-27,6100.0
ITA,2012-06-28,6200.0
ITA,2012-06-29,6300.0
ITA,2012-07-02,6100.0
ITA,2012-07-03,6000.0
ITA,2012-07-04,5800.0
ITA,2012-07-05,6000.0
ITA,2012-07-06,6100.0
ITA,2012-07-09,5900.0
ITA,2012-07-10,5800.0
ITA,2012-07-11,6000.0
ITA,2012-07-12,6200.0
ITA,2012-07-13,6400.0
ITA,2012-07-16,6100.0
ITA,2012-07-17,6300.0
ITA,2012-07-18,6200.0
ITA,2012-07-19,6500.0
ITA,2012-07-20,6700.0
ITA,2012-07-23,6600.0
ITA,2012-07-24,6400.0
ITA,2012-07-25,6200.0
ITA,2012-07-26,6300.0
ITA,2012-07-27,6100.0
ITA,2012-07-30,6100.0
ITA,2012-07-31,6100.0
ITA,2012-08-01,6100.0
ITA,2012-08-02,6100.0
ITA,2012-08-03,6100.0
ITA,2012-08-06,6400.0
ITA,2012-08-07,6200.0
ITA,2012-08-08,6300.0
ITA,2012-08-09,6400.0
ITA,2012-08-10,6400.0
ITA,2012-08-13,6200.0
ITA,2012-08-14,6300.0
ITA,2012-08-15,6200.0
ITA,2012-08-16,6100.0
ITA,2012-08-17,6200.0
ITA,2012-08-20,6100.0
ITA,2012-08-21,5800.0
ITA,2012-08-22,5600.0
ITA,2012-08-23,5300.0
ITA,2012-08-24,5500.0
ITA,2012-08-27,5200.0
ITA,2012-08-28,5200.0
ITA,2012-08-29,5400.0
ITA,2012-08-30,5400.0
ITA,2012-08-31,5200.0
ITA,2012-09-04,5400.0
ITA,2012-09-05,5300.0
ITA,2012-09-06,5200.0
ITA,2012-09-07,5200.0
ITA,2012-09-10,5000.0
ITA,2012-09-11,4800.0
ITA,2012-09-12,4600.0
ITA,2012-09-13,4600.0
ITA,2012-09-14,4700.0
ITA,2012-09-17,4700.0
ITA,2012-09-18,4600.0
ITA,2012-09-19,4400.0
ITA,2012-09-20,4200.0
ITA,2012-09-21,4400.0
ITA,2012-09-24,4200.0
ITA,2012-09-25,4000.0
ITA,2012-09-26,4200.0
ITA,2012-09-27,4100.0
ITA,2012-09-28,4100.0
ITA,2012-10-01,3900.0
ITA,2012-10-02,3700.0
ITA,2012-10-03,3600.0
ITA,2012-10-04,3600.0
ITA,2012-10-05,3600.0
ITA,2012-10-08,3700.0
ITA,2012-10-09,3600.0
ITA,2012-10-10,3800.0
ITA,2012-10-11,4000.0
ITA,2012-10-12,4200.0
ITA,2012-10-15,4000.0
ITA,2012-10-16,4200.0
ITA,2012-10-17,4300.0
ITA,2012-10-18,4500.0
ITA,2012-10-19,4300.0
ITA,2012-10-22,4100.0
ITA,2012-10-23,3900.0
ITA,2012-10-24,3900.0
ITA,2012-10-25,3700.0
ITA,2012-10-26,3700.0
ITA,2012-10-29,3900.0
ITA,2012-10-30,3800.0
ITA,2012-10-31,3800.0
ITA,2012-11-01,3700.0
ITA,2012-11-02,3600.0
ITA,2012-11-05,3500.0
ITA,2012-11-06,3500.0
ITA,2012-11-07,3600.0
ITA,2012-11-08,3600.0
ITA,2012-11-09,3600.0
ITA,2012-11-12,3700.0
ITA,2012-11-13,3600.0
ITA,2012-11-14,3600.0
ITA,2012-11-15,3600.0
ITA,2012-11-16,3600.0
ITA,2012-11-19,3600.0
ITA,2012-11-20,3600.0
ITA,2012-11-21,3600.0
ITA,2012-11-22,3600.0
ITA,2012-11-23,3600.0
ITA,2012-11-26,3600.0
ITA,2012-11-27,3600.0
ITA,2012-11-28,3500.0
ITA,2012-11-29,3600.0
ITA,2012-11-30,3500.0
ITA,2012-12-03,3600.0
ITA,2012-12-04,3600.0
ITA,2012-12-05,3600.0
ITA,2012-12-06,3600.0
ITA,2012-12-07,3600.0
ITA,2012-12-10,3700.0
ITA,2012-12-11,3700.0
ITA,2012-12-12,3800.0
ITA,2012-12-13,3700.0
ITA,2012-12-14,3600.0
ITA,2012-12-17,3800.0
ITA,2012-12-18,3800.0
ITA,2012-12-19,4000.0
ITA,2012-12-20,4100.0
ITA,2012-12-21,4100.0
ITA,2012-12-24,4100.0
ITA,2012-12-25,4000.0
ITA,2012-12-26,4200.0
ITA,2012-12-27,4200.0
ITA,2012-12-28,4300.0
ITA,2013-01-02,4500.0
ITA,2013-01-03,4600.0
ITA,2013-01-04,4700.0
ITA,2013-01-07,4900.0
ITA,2013-01-08,5100.0
ITA,2013-01-09,4900.0
ITA,2013-01-10,5100.0
ITA,2013-01-11,5300.0
ITA,2013-01-14,5500.0
ITA,2013-01-15,5800.0
ITA,2013-01-16,6200.0
ITA,2013-01-17,6300.0
ITA,2013-01-18,5900.0
ITA,2013-01-21,6300.0
ITA,2013-01-22,6000.0
ITA,2013-01-23,5800.0
ITA,2013-01-24,6100.0
ITA,2013-01-25,6500.0
ITA,2013-01-28,6800.0
ITA,2013-01-29,7300.0
ITA,2013-01-30,7700.0
ITA,2013-01-31,7700.0
ITA,2013-02-01,7900.0
ITA,2013-02-04,8500.0
ITA,2013-02-05,8200.0
ITA,2013-02-06,8300.0
ITA,2013-02-07,8200.0
ITA,2013-02-08,8300.0
ITA,2013-02-18,8000.0
ITA,2013-02-19,8500.0
ITA,2013-02-20,8600.0
ITA,2013-02-21,8100.0
ITA,2013-02-22,7600.0
ITA,2013-02-25,7600.0
ITA,2013-02-26,7200.0
ITA,2013-02-27,6700.0
ITA,2013-02-28,7200.0
ITA,2013-03-01,7200.0
ITA,2013-03-04,6700.0
ITA,2013-03-05,6300.0
ITA,2013-03-06,6600.0
ITA,2013-03-07,6400.0
ITA,2013-03-08,6500.0
ITA,2013-03-11,6800.0
ITA,2013-03-12,7100.0
ITA,2013-03-13,6800.0
ITA,2013-03-14,7000.0
ITA,2013-03-15,7100.0
ITA,2013-03-18,6700.0
ITA,2013-03-19,6700.0
ITA,2013-03-20,6900.0
ITA,2013-03-21,6700.0
ITA,2013-03-22,6600.0
ITA,2013-03-25,6600.0
ITA,2013-03-26,6600.0
ITA,2013-03-27,6400.0
ITA,2013-03-28,6100.0
ITA,2013-03-29,6000.0
ITA,2013-04-01,6400.0
ITA,2013-04-02,6600.0
ITA,2013-04-03,6700.0
ITA,2013-04-04,6400.0
ITA,2013-04-05,6500.0
ITA,2013-04-08,6300.0
ITA,2013-04-09,6500.0
ITA,2013-04-10,6200.0
ITA,2013-04-11,6200.0
ITA,2013-04-12,5900.0
ITA,2013-04-15,5600.0
ITA,2013-04-16,5600.0
ITA,2013-04-17,5600.0
ITA,2013-04-18,5400.0
ITA,2013-04-22,5100.0
ITA,2013-04-23,5400.0
ITA,2013-04-24,5700.0
ITA,2013-04-25,5800.0
ITA,2013-04-26,5600.0
ITA,2013-05-02,5600.0
ITA,2013-05-03,5800.0
ITA,2013-05-06,6200.0
ITA,2013-05-07,6300.0
ITA,2013-05-08,6000.0
ITA,2013-05-09,6400.0
ITA,2013-05-10,6300.0
ITA,2013-05-13,6400.0
ITA,2013-05-14,6100.0
ITA,2013-05-15,6100.0
ITA,2013-05-16,6200.0
ITA,2013-05-17,6100.0
ITA,2013-05-20,6200.0
ITA,2013-05-21,6300.0
ITA,2013-05-22,6200.0
ITA,2013-05-23,6100.0
ITA,2013-05-24,6200.0
ITA,2013-05-27,6600.0
ITA,2013-05-28,7000.0
ITA,2013-05-29,6900.0
ITA,2013-05-30,7300.0
ITA,2013-05-31,7000.0
ITA,2013-06-03,7000.0
ITA,2013-06-04,6700.0
ITA,2013-06-05,6800.0
ITA,2013-06-06,7100.0
ITA,2013-06-07,7000.0
ITA,2013-06-10,7100.0
ITA,2013-06-11,7000.0
ITA,2013-06-12,7100.0
ITA,2013-06-13,7200.0
ITA,2013-06-14,7400.0
ITA,2013-06-17,7000.0
ITA,2013-06-18,7000.0
ITA,2013-06-19,7000.0
ITA,2013-06-20,6900.0
ITA,2013-06-21,6700.0
ITA,2013-06-24,6400.0
ITA,2013-06-25,6000.0
ITA,2013-06-26,6100.0
ITA,2013-06-27,6400.0
ITA,2013-06-28,6200.0
ITA,2013-07-01,6100.0
ITA,2013-07-02,6200.0
ITA,2013-07-03,6200.0
ITA,2013-07-04,6100.0
ITA,2013-07-05,6100.0
ITA,2013-07-08,6000.0
ITA,2013-07-09,6000.0
ITA,2013-07-10,6000.0
ITA,2013-07-11,6000.0
ITA,2013-07-12,6300.0
ITA,2013-07-15,6300.0
ITA,2013-07-16,6200.0
ITA,2013-07-17,6300.0
ITA,2013-07-18,6200.0
ITA,2013-07-19,6200.0
ITA,2013-07-22,6100.0
ITA,2013-07-23,6200.0
ITA,2013-07-24,6200.0
ITA,2013-07-25,6100.0
ITA,2013-07-26,6000.0
ITA,2013-07-29,5700.0
ITA,2013-07-30,5800.0
ITA,2013-07-31,5700.0
ITA,2013-08-01,5800.0
ITA,2013-08-02,6000.0
ITA,2013-08-05,5800.0
ITA,2013-08-06,5900.0
ITA,2013-08-07,5900.0
ITA,2013-08-08,5700.0
ITA,2013-08-09,5600.0
ITA,2013-08-12,5700.0
ITA,2013-08-13,5400.0
ITA,2013-08-14,5700.0
ITA,2013-08-15,6000.0
ITA,2013-08-16,6200.0
ITA,2013-08-19,6200.0
ITA,2013-08-20,6200.0
ITA,2013-08-21,6000.0
ITA,2013-08-22,5800.0
ITA,2013-08-23,5800.0
ITA,2013-08-26,5900.0
ITA,2013-08-27,5700.0
ITA,2013-08-28,5500.0
ITA,2013-08-29,5400.0
ITA,2013-08-30,5700.0
ITA,2013-09-03,5500.0
ITA,2013-09-04,5300.0
ITA,2013-09-05,5500.0
ITA,2013-09-06,5500.0
ITA,2013-09-09,5300.0
ITA,2013-09-10,5400.0
ITA,2013-09-11,5500.0
ITA,2013-09-12,5500.0
ITA,2013-09-13,5500.0
ITA,2013-09-16,5500.0
ITA,2013-09-17,5500.0
ITA,2013-09-18,5300.0
ITA,2013-09-19,5300.0
ITA,2013-09-20,5500.0
ITA,2013-09-23,5600.0
ITA,2013-09-24,5600.0
ITA,2013-09-25,5900.0
ITA,2013-09-26,5900.0
ITA,2013-09-27,5800.0
ITA,2013-09-30,6100.0
ITA,2013-10-01,5900.0
ITA,2013-10-02,6200.0
ITA,2013-10-03,6200.0
ITA,2013-10-04,6100.0
ITA,2013-10-07,6100.0
ITA,2013-10-08,6000.0
ITA,2013-10-09,5900.0
ITA,2013-10-10,5700.0
ITA,2013-10-11,5800.0
ITA,2013-10-14,5700.0
ITA,2013-10-15,5800.0
ITA,2013-10-16,5900.0
ITA,2013-10-17,5900.0
ITA,2013-10-18,6300.0
ITA,2013-10-21,6400.0
ITA,2013-10-22,6400.0
ITA,2013-10-23,6500.0
ITA,2013-10-24,6200.0
ITA,2013-10-25,6300.0
ITA,2013-10-28,6100.0
ITA,2013-10-29,6100.0
ITA,2013-10-30,6100.0
ITA,2013-10-31,6100.0
ITA,2013-11-01,6200.0
ITA,2013-11-04,6200.0
ITA,2013-11-05,6300.0
ITA,2013-11-06,6300.0
ITA,2013-11-07,6400.0
ITA,2013-11-08,6400.0
ITA,2013-11-11,6600.0
ITA,2013-11-12,6400.0
ITA,2013-11-13,6300.0
ITA,2013-11-14,6300.0
ITA,2013-11-15,6300.0
ITA,2013-11-18,6500.0
ITA,2013-11-19,6400.0
ITA,2013-11-20,6700.0
ITA,2013-11-21,6600.0
ITA,2013-11-22,6700.0
ITA,2013-11-25,6500.0
ITA,2013-11-26,6700.0
ITA,2013-11-27,6700.0
ITA,2013-11-28,6700.0
ITA,2013-11-29,6600.0
ITA,2013-12-02,6600.0
ITA,2013-12-03,6700.0
ITA,2013-12-04,6700.0
ITA,2013-12-05,6800.0
ITA,2013-12-06,6700.0
ITA,2013-12-09,6600.0
ITA,2013-12-10,6600.0
ITA,2013-12-11,6400.0
ITA,2013-12-12,6400.0
ITA,2013-12-13,6400.0
ITA,2013-12-16,6500.0
ITA,2013-12-17,6500.0
ITA,2013-12-18,6400.0
ITA,2013-12-19,6600.0
ITA,2013-12-20,6600.0
ITA,2013-12-23,6700.0
ITA,2013-12-24,6600.0
ITA,2013-12-25,6600.0
ITA,2013-12-26,6700.0
ITA,2013-12-27,6600.0
ITA,2013-12-30,6400.0
ITA,2013-12-31,6600.0
ITA,2014-01-02,6500.0
ITA,2014-01-03,6500.0
ITA,2014-01-06,6600.0
ITA,2014-01-07,6500.0
ITA,2014-01-08,6400.0
ITA,2014-01-09,6500.0
ITA,2014-01-10,6500.0
ITA,2014-01-13,6400.0
ITA,2014-01-14,6500.0
ITA,2014-01-15,6900.0
ITA,2014-01-16,6800.0
ITA,2014-01-17,6700.0
ITA,2014-01-20,6600.0
ITA,2014-01-21,7000.0
ITA,2014-01-22,7300.0
ITA,2014-01-23,7300.0
ITA,2014-01-24,7200.0
ITA,2014-01-27,7300.0
ITA,2014-02-06,7600.0
ITA,2014-02-07,7400.0
ITA,2014-02-10,7500.0
ITA,2014-02-11,7300.0
ITA,2014-02-12,7400.0
ITA,2014-02-13,7600.0
ITA,2014-02-14,7600.0
ITA,2014-02-17,7700.0
ITA,2014-02-18,7800.0
ITA,2014-02-19,7900.0
ITA,2014-02-20,7500.0
ITA,2014-02-21,7500.0
ITA,2014-02-24,7800.0
ITA,2014-02-25,7700.0
ITA,2014-02-26,7700.0
ITA,2014-02-27,8000.0
ITA,2014-02-28,8300.0
ITA,2014-03-03,7900.0
ITA,2014-03-04,7800.0
ITA,2014-03-05,7900.0
ITA,2014-03-06,7900.0
ITA,2014-03-07,8200.0
ITA,2014-03-10,8700.0
ITA,2014-03-11,8900.0
ITA,2014-03-12,8600.0
ITA,2014-03-13,9000.0
ITA,2014-03-14,8900.0
ITA,2014-03-17,9000.0
ITA,2014-03-18,8900.0
ITA,2014-03-19,9500.0
ITA,2014-03-20,9700.0
ITA,2014-03-21,9600.0
ITA,2014-03-24,10000.0
ITA,2014-03-25,10000.0
ITA,2014-03-26,10000.0
ITA,2014-03-27,10600.0
ITA,2014-03-28,10600.0
ITA,2014-03-31,10100.0
ITA,2014-04-01,9500.0
ITA,2014-04-02,9700.0
ITA,2014-04-03,10300.0
ITA,2014-04-04,10100.0
ITA,2014-04-07,10200.0
ITA,2014-04-08,10200.0
ITA,2014-04-10,10100.0
ITA,2014-04-11,10100.0
ITA,2014-04-14,9800.0
ITA,2014-04-15,9400.0
ITA,2014-04-16,9000.0
ITA,2014-04-17,9300.0
ITA,2014-04-18,8700.0
ITA,2014-04-21,8300.0
ITA,2014-04-22,8800.0
ITA,2014-04-23,8500.0
ITA,2014-04-24,8500.0
ITA,2014-04-25,8700.0
ITA,2014-04-28,8500.0
ITA,2014-04-29,8400.0
ITA,2014-05-05,8100.0
ITA,2014-05-06,8000.0
ITA,2014-05-07,8000.0
ITA,2014-05-08,7500.0
ITA,2014-05-09,7600.0
ITA,2014-05-12,7100.0
ITA,2014-05-13,6700.0
ITA,2014-05-14,7100.0
ITA,2014-05-15,7100.0
ITA,2014-05-16,7500.0
ITA,2014-05-19,8000.0
ITA,2014-05-20,8100.0
ITA,2014-05-21,8300.0
