MAFPF1,2007-12-28,10200.0
MAFPF1,2008-01-02,10000.0
MAFPF1,2008-01-03,10000.0
MAFPF1,2008-01-04,9900.0
MAFPF1,2008-01-07,9500.0
MAFPF1,2008-01-08,9500.0
MAFPF1,2008-01-09,9400.0
MAFPF1,2008-01-10,9200.0
MAFPF1,2008-01-11,9200.0
MAFPF1,2008-01-14,9000.0
MAFPF1,2008-01-15,8700.0
MAFPF1,2008-01-16,9100.0
MAFPF1,2008-01-17,9000.0
MAFPF1,2008-01-18,9100.0
MAFPF1,2008-01-21,9000.0
MAFPF1,2008-01-22,8800.0
MAFPF1,2008-01-23,8500.0
MAFPF1,2008-01-24,8500.0
MAFPF1,2008-01-25,8600.0
MAFPF1,2008-01-28,8600.0
MAFPF1,2008-01-29,8800.0
MAFPF1,2008-01-30,9200.0
MAFPF1,2008-01-31,9400.0
MAFPF1,2008-02-01,9800.0
MAFPF1,2008-02-12,9500.0
MAFPF1,2008-02-13,9100.0
MAFPF1,2008-02-14,9300.0
MAFPF1,2008-02-15,9200.0
MAFPF1,2008-02-18,8800.0
MAFPF1,2008-02-19,8800.0
MAFPF1,2008-02-20,8800.0
MAFPF1,2008-02-21,8400.0
MAFPF1,2008-02-22,8400.0
MAFPF1,2008-02-25,8800.0
MAFPF1,2008-02-26,8400.0
MAFPF1,2008-02-27,8400.0
MAFPF1,2008-02-28,8600.0
MAFPF1,2008-02-29,8400.0
MAFPF1,2008-03-03,8000.0
MAFPF1,2008-03-04,7600.0
MAFPF1,2008-03-05,7300.0
MAFPF1,2008-03-06,7600.0
MAFPF1,2008-03-07,7900.0
MAFPF1,2008-03-10,8200.0
MAFPF1,2008-03-11,7900.0
MAFPF1,2008-03-12,8000.0
MAFPF1,2008-03-13,7900.0
MAFPF1,2008-03-14,7800.0
MAFPF1,2008-03-17,7700.0
MAFPF1,2008-03-18,7400.0
MAFPF1,2008-03-19,7300.0
MAFPF1,2008-03-20,7400.0
MAFPF1,2008-03-21,7300.0
MAFPF1,2008-03-24,7000.0
MAFPF1,2008-03-25,6700.0
MAFPF1,2008-03-26,7000.0
MAFPF1,2008-03-27,7100.0
MAFPF1,2008-03-28,7200.0
MAFPF1,2008-03-31,7300.0
MAFPF1,2008-04-01,7400.0
MAFPF1,2008-04-02,7500.0
MAFPF1,2008-04-03,7600.0
MAFPF1,2008-04-04,7700.0
MAFPF1,2008-04-07,7800.0
MAFPF1,2008-04-08,7700.0
MAFPF1,2008-04-09,7600.0
MAFPF1,2008-04-10,7500.0
MAFPF1,2008-04-11,7400.0
MAFPF1,2008-04-16,7300.0
MAFPF1,2008-04-17,7300.0
MAFPF1,2008-04-18,7200.0
MAFPF1,2008-04-21,7100.0
MAFPF1,2008-04-22,7000.0
MAFPF1,2008-04-23,6900.0
MAFPF1,2008-04-24,6800.0
MAFPF1,2008-04-25,6800.0
MAFPF1,2008-04-28,6900.0
MAFPF1,2008-04-29,6800.0
MAFPF1,2008-05-05,6700.0
MAFPF1,2008-05-06,6600.0
MAFPF1,2008-05-07,6500.0
MAFPF1,2008-05-08,6400.0
MAFPF1,2008-05-09,6300.0
MAFPF1,2008-05-12,6200.0
MAFPF1,2008-05-13,6100.0
MAFPF1,2008-05-14,6000.0
MAFPF1,2008-05-15,5900.0
MAFPF1,2008-05-16,5800.0
MAFPF1,2008-05-19,5700.0
MAFPF1,2008-05-20,5600.0
MAFPF1,2008-05-21,5500.0
MAFPF1,2008-05-22,5400.0
MAFPF1,2008-05-23,5300.0
MAFPF1,2008-05-26,5200.0
MAFPF1,2008-05-30,5100.0
MAFPF1,2008-06-02,5000.0
MAFPF1,2008-06-03,4900.0
MAFPF1,2008-06-04,4800.0
MAFPF1,2008-06-05,4900.0
MAFPF1,2008-06-06,4800.0
MAFPF1,2008-06-09,4700.0
MAFPF1,2008-06-10,4800.0
MAFPF1,2008-06-11,4900.0
MAFPF1,2008-06-12,5000.0
MAFPF1,2008-06-13,5100.0
MAFPF1,2008-06-16,5200.0
MAFPF1,2008-06-17,5300.0
MAFPF1,2008-06-18,5200.0
MAFPF1,2008-06-19,5100.0
MAFPF1,2008-06-20,5000.0
MAFPF1,2008-06-23,5100.0
MAFPF1,2008-06-24,5000.0
MAFPF1,2008-06-25,5100.0
MAFPF1,2008-06-26,5100.0
MAFPF1,2008-06-27,5200.0
MAFPF1,2008-06-30,5100.0
MAFPF1,2008-07-01,5200.0
MAFPF1,2008-07-02,5300.0
MAFPF1,2008-07-03,5400.0
MAFPF1,2008-07-04,5500.0
MAFPF1,2008-07-07,5400.0
MAFPF1,2008-07-08,5400.0
MAFPF1,2008-07-09,5400.0
MAFPF1,2008-07-10,5500.0
MAFPF1,2008-07-11,5600.0
MAFPF1,2008-07-14,5700.0
MAFPF1,2008-07-15,5800.0
MAFPF1,2008-07-16,5900.0
MAFPF1,2008-07-17,6000.0
MAFPF1,2008-07-18,5900.0
MAFPF1,2008-07-21,5800.0
MAFPF1,2008-07-22,5700.0
MAFPF1,2008-07-23,5600.0
MAFPF1,2008-07-24,5500.0
MAFPF1,2008-07-25,5400.0
MAFPF1,2008-07-28,5300.0
MAFPF1,2008-07-29,5200.0
MAFPF1,2008-07-30,5100.0
MAFPF1,2008-07-31,5000.0
MAFPF1,2008-08-01,4900.0
MAFPF1,2008-08-04,4800.0
MAFPF1,2008-08-05,4700.0
MAFPF1,2008-08-06,4800.0
MAFPF1,2008-08-07,4800.0
MAFPF1,2008-08-08,4900.0
MAFPF1,2008-08-11,5000.0
MAFPF1,2008-08-12,5000.0
MAFPF1,2008-08-13,5000.0
MAFPF1,2008-08-14,5100.0
MAFPF1,2008-08-15,5200.0
MAFPF1,2008-08-18,5400.0
MAFPF1,2008-08-19,5200.0
MAFPF1,2008-08-20,5000.0
MAFPF1,2008-08-21,5000.0
MAFPF1,2008-08-22,5100.0
MAFPF1,2008-08-25,5300.0
MAFPF1,2008-08-26,5500.0
MAFPF1,2008-08-27,5600.0
MAFPF1,2008-08-28,5400.0
MAFPF1,2008-08-29,5200.0
MAFPF1,2008-09-03,5400.0
MAFPF1,2008-09-04,5500.0
MAFPF1,2008-09-05,5300.0
MAFPF1,2008-09-08,5400.0
MAFPF1,2008-09-09,5400.0
MAFPF1,2008-09-10,5200.0
MAFPF1,2008-09-11,5300.0
MAFPF1,2008-09-12,5100.0
MAFPF1,2008-09-15,5200.0
MAFPF1,2008-09-16,5000.0
MAFPF1,2008-09-17,4800.0
MAFPF1,2008-09-18,4600.0
MAFPF1,2008-09-19,4800.0
MAFPF1,2008-09-22,5000.0
MAFPF1,2008-09-23,5000.0
MAFPF1,2008-09-24,4800.0
MAFPF1,2008-09-25,4900.0
MAFPF1,2008-09-26,5000.0
MAFPF1,2008-09-29,4800.0
MAFPF1,2008-09-30,4600.0
MAFPF1,2008-10-01,4800.0
MAFPF1,2008-10-02,4900.0
MAFPF1,2008-10-03,4700.0
MAFPF1,2008-10-06,4500.0
MAFPF1,2008-10-07,4700.0
MAFPF1,2008-10-08,4700.0
MAFPF1,2008-10-09,4600.0
MAFPF1,2008-10-10,4600.0
MAFPF1,2008-10-13,4700.0
MAFPF1,2008-10-14,4900.0
MAFPF1,2008-10-15,5000.0
MAFPF1,2008-10-16,4800.0
MAFPF1,2008-10-17,4800.0
MAFPF1,2008-10-20,4600.0
MAFPF1,2008-10-21,4700.0
MAFPF1,2008-10-22,4700.0
MAFPF1,2008-10-23,4500.0
MAFPF1,2008-10-24,4300.0
MAFPF1,2008-10-27,4100.0
MAFPF1,2008-10-28,4100.0
MAFPF1,2008-10-29,4300.0
MAFPF1,2008-10-30,4500.0
MAFPF1,2008-10-31,4600.0
MAFPF1,2008-11-03,4400.0
MAFPF1,2008-11-04,4400.0
MAFPF1,2008-11-05,4400.0
MAFPF1,2008-11-06,4300.0
MAFPF1,2008-11-07,4300.0
MAFPF1,2008-11-10,4400.0
MAFPF1,2008-11-11,4300.0
MAFPF1,2008-11-12,4300.0
MAFPF1,2008-11-13,4300.0
MAFPF1,2008-11-14,4100.0
MAFPF1,2008-11-17,4200.0
MAFPF1,2008-11-18,4200.0
MAFPF1,2008-11-19,4200.0
MAFPF1,2008-11-20,4000.0
MAFPF1,2008-11-21,4000.0
MAFPF1,2008-11-24,4100.0
MAFPF1,2008-11-25,3900.0
MAFPF1,2008-11-26,3900.0
MAFPF1,2008-11-27,3900.0
MAFPF1,2008-11-28,4000.0
MAFPF1,2008-12-01,4000.0
MAFPF1,2008-12-02,3900.0
MAFPF1,2008-12-03,3900.0
MAFPF1,2008-12-04,3800.0
MAFPF1,2008-12-05,3900.0
MAFPF1,2008-12-08,3800.0
MAFPF1,2008-12-09,3800.0
MAFPF1,2008-12-10,3800.0
MAFPF1,2008-12-11,3800.0
MAFPF1,2008-12-12,3900.0
MAFPF1,2008-12-15,3800.0
MAFPF1,2008-12-16,3700.0
MAFPF1,2008-12-17,3700.0
MAFPF1,2008-12-18,3600.0
MAFPF1,2008-12-19,3600.0
MAFPF1,2008-12-22,3500.0
MAFPF1,2008-12-23,3600.0
MAFPF1,2008-12-24,3600.0
MAFPF1,2008-12-25,3700.0
MAFPF1,2008-12-26,3700.0
MAFPF1,2008-12-29,3700.0
MAFPF1,2008-12-30,3700.0
MAFPF1,2008-12-31,3600.0
MAFPF1,2009-01-02,3600.0
MAFPF1,2009-01-05,3600.0
MAFPF1,2009-01-06,3600.0
MAFPF1,2009-01-07,3600.0
MAFPF1,2009-01-08,3600.0
MAFPF1,2009-01-09,3600.0
MAFPF1,2009-01-12,3600.0
MAFPF1,2009-01-13,3500.0
MAFPF1,2009-01-14,3500.0
MAFPF1,2009-01-15,3400.0
MAFPF1,2009-01-16,3300.0
MAFPF1,2009-01-19,3200.0
MAFPF1,2009-01-20,3300.0
MAFPF1,2009-01-21,3400.0
MAFPF1,2009-01-22,3500.0
MAFPF1,2009-01-23,3400.0
MAFPF1,2009-02-02,3400.0
MAFPF1,2009-02-03,3300.0
MAFPF1,2009-02-04,3400.0
MAFPF1,2009-02-05,3300.0
MAFPF1,2009-02-06,3400.0
MAFPF1,2009-02-09,3500.0
MAFPF1,2009-02-10,3400.0
MAFPF1,2009-02-11,3300.0
MAFPF1,2009-02-12,3300.0
MAFPF1,2009-02-13,3300.0
MAFPF1,2009-02-16,3200.0
MAFPF1,2009-02-17,3100.0
MAFPF1,2009-02-18,3000.0
MAFPF1,2009-02-19,2900.0
MAFPF1,2009-02-20,2800.0
MAFPF1,2009-02-23,2800.0
MAFPF1,2009-02-24,2800.0
MAFPF1,2009-02-25,2900.0
MAFPF1,2009-02-26,2900.0
MAFPF1,2009-02-27,2900.0
MAFPF1,2009-03-02,2800.0
MAFPF1,2009-03-03,2800.0
MAFPF1,2009-03-04,2800.0
MAFPF1,2009-03-05,2900.0
MAFPF1,2009-03-06,2800.0
MAFPF1,2009-03-09,2900.0
MAFPF1,2009-03-10,2900.0
MAFPF1,2009-03-11,3000.0
MAFPF1,2009-03-12,2900.0
MAFPF1,2009-03-13,2900.0
MAFPF1,2009-03-16,2900.0
MAFPF1,2009-03-17,3000.0
MAFPF1,2009-03-18,3100.0
MAFPF1,2009-03-19,3000.0
MAFPF1,2009-03-20,2900.0
MAFPF1,2009-03-23,2900.0
MAFPF1,2009-03-24,3000.0
MAFPF1,2009-03-25,3000.0
MAFPF1,2009-03-26,3000.0
MAFPF1,2009-03-27,3000.0
MAFPF1,2009-03-30,3000.0
MAFPF1,2009-03-31,3000.0
MAFPF1,2009-04-01,3100.0
MAFPF1,2009-04-02,3000.0
MAFPF1,2009-04-03,3100.0
MAFPF1,2009-04-07,3200.0
MAFPF1,2009-04-08,3200.0
MAFPF1,2009-04-09,3300.0
MAFPF1,2009-04-10,3400.0
MAFPF1,2009-04-13,3500.0
MAFPF1,2009-04-14,3600.0
MAFPF1,2009-04-15,3700.0
MAFPF1,2009-04-16,3800.0
MAFPF1,2009-04-17,3900.0
MAFPF1,2009-04-20,3800.0
MAFPF1,2009-04-21,3700.0
MAFPF1,2009-04-22,3600.0
MAFPF1,2009-04-23,3600.0
MAFPF1,2009-04-24,3500.0
MAFPF1,2009-04-27,3600.0
MAFPF1,2009-04-28,3700.0
MAFPF1,2009-04-29,3600.0
MAFPF1,2009-05-04,3700.0
MAFPF1,2009-05-05,3800.0
MAFPF1,2009-05-06,3800.0
MAFPF1,2009-05-07,3800.0
MAFPF1,2009-05-08,3700.0
MAFPF1,2009-05-11,3700.0
MAFPF1,2009-05-12,3700.0
MAFPF1,2009-05-13,3800.0
MAFPF1,2009-05-14,3700.0
MAFPF1,2009-05-15,3700.0
MAFPF1,2009-05-18,3700.0
MAFPF1,2009-05-19,3800.0
MAFPF1,2009-05-20,3900.0
MAFPF1,2009-05-21,4000.0
MAFPF1,2009-05-22,3800.0
MAFPF1,2009-05-25,3900.0
MAFPF1,2009-05-26,3900.0
MAFPF1,2009-05-27,3800.0
MAFPF1,2009-05-28,3700.0
MAFPF1,2009-05-29,3700.0
MAFPF1,2009-06-01,3800.0
MAFPF1,2009-06-02,3800.0
MAFPF1,2009-06-03,3900.0
MAFPF1,2009-06-04,4000.0
MAFPF1,2009-06-05,4200.0
MAFPF1,2009-06-08,4400.0
MAFPF1,2009-06-09,4600.0
MAFPF1,2009-06-10,4800.0
MAFPF1,2009-06-11,5000.0
MAFPF1,2009-06-12,5200.0
MAFPF1,2009-06-15,5400.0
MAFPF1,2009-06-16,5600.0
MAFPF1,2009-06-17,5700.0
MAFPF1,2009-06-18,5900.0
MAFPF1,2009-06-19,6000.0
MAFPF1,2009-06-22,5700.0
MAFPF1,2009-06-23,5500.0
MAFPF1,2009-06-24,5600.0
MAFPF1,2009-06-25,5400.0
MAFPF1,2009-06-26,5200.0
MAFPF1,2009-06-29,5000.0
MAFPF1,2009-06-30,4800.0
MAFPF1,2009-07-01,4600.0
MAFPF1,2009-07-02,4400.0
MAFPF1,2009-07-03,4400.0
MAFPF1,2009-07-06,4600.0
MAFPF1,2009-07-07,4800.0
MAFPF1,2009-07-08,4600.0
MAFPF1,2009-07-09,4600.0
MAFPF1,2009-07-10,4500.0
MAFPF1,2009-07-13,4300.0
MAFPF1,2009-07-14,4300.0
MAFPF1,2009-07-15,4200.0
MAFPF1,2009-07-16,4400.0
MAFPF1,2009-07-17,4400.0
MAFPF1,2009-07-20,4200.0
MAFPF1,2009-07-21,4400.0
MAFPF1,2009-07-22,4400.0
MAFPF1,2009-07-23,4500.0
MAFPF1,2009-07-24,4700.0
MAFPF1,2009-07-27,4700.0
MAFPF1,2009-07-28,4500.0
MAFPF1,2009-07-29,4500.0
MAFPF1,2009-07-30,4600.0
MAFPF1,2009-07-31,4600.0
MAFPF1,2009-08-03,4500.0
MAFPF1,2009-08-04,4500.0
MAFPF1,2009-08-05,4500.0
MAFPF1,2009-08-06,4500.0
MAFPF1,2009-08-07,4500.0
MAFPF1,2009-08-10,4700.0
MAFPF1,2009-08-11,4600.0
MAFPF1,2009-08-12,4800.0
MAFPF1,2009-08-13,5000.0
MAFPF1,2009-08-14,4800.0
MAFPF1,2009-08-17,4700.0
MAFPF1,2009-08-18,4700.0
MAFPF1,2009-08-19,4700.0
MAFPF1,2009-08-20,4700.0
MAFPF1,2009-08-21,4800.0
MAFPF1,2009-08-24,4900.0
MAFPF1,2009-08-25,4900.0
MAFPF1,2009-08-26,4800.0
MAFPF1,2009-08-27,4800.0
MAFPF1,2009-08-28,4900.0
MAFPF1,2009-08-31,5000.0
MAFPF1,2009-09-01,4900.0
MAFPF1,2009-09-03,4800.0
MAFPF1,2009-09-04,4800.0
MAFPF1,2009-09-08,4800.0
MAFPF1,2009-09-09,4900.0
MAFPF1,2009-09-10,4800.0
MAFPF1,2009-09-11,4800.0
MAFPF1,2009-09-14,4700.0
MAFPF1,2009-09-15,4600.0
MAFPF1,2009-09-16,4700.0
MAFPF1,2009-09-17,4700.0
MAFPF1,2009-09-18,4700.0
MAFPF1,2009-09-21,4800.0
MAFPF1,2009-09-22,4700.0
MAFPF1,2009-09-23,4900.0
MAFPF1,2009-09-24,4800.0
MAFPF1,2009-09-25,4800.0
MAFPF1,2009-09-28,4700.0
MAFPF1,2009-09-29,4800.0
MAFPF1,2009-09-30,4800.0
MAFPF1,2009-10-01,4800.0
MAFPF1,2009-10-02,4600.0
MAFPF1,2009-10-05,4700.0
MAFPF1,2009-10-06,4700.0
MAFPF1,2009-10-07,4800.0
MAFPF1,2009-10-08,4700.0
MAFPF1,2009-10-09,4800.0
MAFPF1,2009-10-12,5000.0
MAFPF1,2009-10-13,4900.0
MAFPF1,2009-10-14,5000.0
MAFPF1,2009-10-15,5200.0
MAFPF1,2009-10-16,5400.0
MAFPF1,2009-10-19,5600.0
MAFPF1,2009-10-20,5800.0
MAFPF1,2009-10-21,6000.0
MAFPF1,2009-10-22,6300.0
MAFPF1,2009-10-23,6600.0
MAFPF1,2009-10-26,6300.0
MAFPF1,2009-10-27,6000.0
MAFPF1,2009-10-28,6300.0
MAFPF1,2009-10-29,6000.0
MAFPF1,2009-10-30,6200.0
MAFPF1,2009-11-02,5900.0
MAFPF1,2009-11-03,5700.0
MAFPF1,2009-11-04,5900.0
MAFPF1,2009-11-05,6100.0
MAFPF1,2009-11-06,6300.0
MAFPF1,2009-11-09,6000.0
MAFPF1,2009-11-10,5700.0
MAFPF1,2009-11-11,5800.0
MAFPF1,2009-11-12,6000.0
MAFPF1,2009-11-13,6000.0
MAFPF1,2009-11-16,6000.0
MAFPF1,2009-11-17,5900.0
MAFPF1,2009-11-18,6100.0
MAFPF1,2009-11-19,6100.0
MAFPF1,2009-11-20,6200.0
MAFPF1,2009-11-23,6200.0
MAFPF1,2009-11-24,6100.0
MAFPF1,2009-11-25,6000.0
MAFPF1,2009-11-26,5700.0
MAFPF1,2009-11-27,5700.0
MAFPF1,2009-11-30,5900.0
MAFPF1,2009-12-01,6100.0
MAFPF1,2009-12-02,5800.0
MAFPF1,2009-12-03,5900.0
MAFPF1,2009-12-04,5900.0
MAFPF1,2009-12-07,6000.0
MAFPF1,2009-12-08,5700.0
MAFPF1,2009-12-09,5700.0
MAFPF1,2009-12-10,5500.0
MAFPF1,2009-12-11,5700.0
MAFPF1,2009-12-14,5700.0
MAFPF1,2009-12-15,5700.0
MAFPF1,2009-12-16,5700.0
MAFPF1,2009-12-17,5500.0
MAFPF1,2009-12-18,5600.0
MAFPF1,2009-12-21,5700.0
MAFPF1,2009-12-22,5700.0
MAFPF1,2009-12-23,5800.0
MAFPF1,2009-12-24,5800.0
MAFPF1,2009-12-25,5900.0
MAFPF1,2009-12-28,5900.0
MAFPF1,2009-12-29,5900.0
MAFPF1,2009-12-30,5900.0
MAFPF1,2009-12-31,5900.0
MAFPF1,2010-01-04,6100.0
MAFPF1,2010-01-05,6200.0
MAFPF1,2010-01-06,6100.0
MAFPF1,2010-01-07,6100.0
MAFPF1,2010-01-08,5800.0
MAFPF1,2010-01-11,6000.0
MAFPF1,2010-01-12,6000.0
MAFPF1,2010-01-13,6000.0
MAFPF1,2010-01-14,5900.0
MAFPF1,2010-01-15,5700.0
MAFPF1,2010-01-18,5800.0
MAFPF1,2010-01-19,5700.0
MAFPF1,2010-01-20,5800.0
MAFPF1,2010-01-21,5800.0
MAFPF1,2010-01-22,5800.0
MAFPF1,2010-01-25,5800.0
MAFPF1,2010-01-26,5800.0
MAFPF1,2010-01-27,5800.0
MAFPF1,2010-01-28,5800.0
MAFPF1,2010-01-29,5800.0
MAFPF1,2010-02-01,5900.0
MAFPF1,2010-02-02,5800.0
MAFPF1,2010-02-03,5700.0
MAFPF1,2010-02-04,5800.0
MAFPF1,2010-02-05,5800.0
MAFPF1,2010-02-08,5800.0
MAFPF1,2010-02-09,5800.0
MAFPF1,2010-02-10,5800.0
MAFPF1,2010-02-11,5800.0
MAFPF1,2010-02-12,5800.0
MAFPF1,2010-02-22,5800.0
MAFPF1,2010-02-23,5800.0
MAFPF1,2010-02-24,5800.0
MAFPF1,2010-02-25,5800.0
MAFPF1,2010-02-26,5800.0
MAFPF1,2010-03-01,5700.0
MAFPF1,2010-03-02,5700.0
MAFPF1,2010-03-03,5800.0
MAFPF1,2010-03-04,5800.0
MAFPF1,2010-03-05,5800.0
MAFPF1,2010-03-08,5900.0
MAFPF1,2010-03-09,5900.0
MAFPF1,2010-03-10,5800.0
MAFPF1,2010-03-11,5800.0
MAFPF1,2010-03-12,5800.0
MAFPF1,2010-03-15,5900.0
MAFPF1,2010-03-16,5800.0
MAFPF1,2010-03-17,5800.0
MAFPF1,2010-03-18,5700.0
MAFPF1,2010-03-19,5800.0
MAFPF1,2010-03-22,5700.0
MAFPF1,2010-03-23,5700.0
MAFPF1,2010-03-24,5800.0
MAFPF1,2010-03-25,5700.0
MAFPF1,2010-03-26,5800.0
MAFPF1,2010-03-29,5800.0
MAFPF1,2010-03-30,5700.0
MAFPF1,2010-03-31,5600.0
MAFPF1,2010-04-01,5600.0
MAFPF1,2010-04-02,5700.0
MAFPF1,2010-04-05,5700.0
MAFPF1,2010-04-06,5700.0
MAFPF1,2010-04-07,5700.0
MAFPF1,2010-04-08,5700.0
MAFPF1,2010-04-09,5600.0
MAFPF1,2010-04-12,5700.0
MAFPF1,2010-04-13,5700.0
MAFPF1,2010-04-14,5700.0
MAFPF1,2010-04-15,5700.0
MAFPF1,2010-04-16,5600.0
MAFPF1,2010-04-19,5600.0
MAFPF1,2010-04-20,5600.0
MAFPF1,2010-04-21,5600.0
MAFPF1,2010-04-22,5600.0
MAFPF1,2010-04-26,5600.0
MAFPF1,2010-04-27,5600.0
MAFPF1,2010-04-28,5600.0
MAFPF1,2010-04-29,5600.0
MAFPF1,2010-05-04,5700.0
MAFPF1,2010-05-05,5700.0
MAFPF1,2010-05-06,5600.0
MAFPF1,2010-05-07,5600.0
MAFPF1,2010-05-10,5600.0
MAFPF1,2010-05-11,5600.0
MAFPF1,2010-05-12,5500.0
MAFPF1,2010-05-13,5600.0
MAFPF1,2010-05-14,5400.0
MAFPF1,2010-05-17,5500.0
MAFPF1,2010-05-18,5300.0
MAFPF1,2010-05-19,5300.0
MAFPF1,2010-05-20,5400.0
MAFPF1,2010-05-21,5400.0
MAFPF1,2010-05-24,5400.0
MAFPF1,2010-05-25,5300.0
MAFPF1,2010-05-26,5300.0
MAFPF1,2010-05-27,5400.0
MAFPF1,2010-05-28,5500.0
MAFPF1,2010-05-31,5300.0
MAFPF1,2010-06-01,5500.0
MAFPF1,2010-06-02,5400.0
MAFPF1,2010-06-03,5400.0
MAFPF1,2010-06-04,5300.0
MAFPF1,2010-06-07,5300.0
MAFPF1,2010-06-08,5300.0
MAFPF1,2010-06-09,5400.0
MAFPF1,2010-06-10,5400.0
MAFPF1,2010-06-11,5400.0
MAFPF1,2010-06-14,5200.0
MAFPF1,2010-06-15,5300.0
MAFPF1,2010-06-16,5200.0
MAFPF1,2010-06-17,5300.0
MAFPF1,2010-06-18,5300.0
MAFPF1,2010-06-21,5300.0
MAFPF1,2010-06-22,5300.0
MAFPF1,2010-06-23,5300.0
MAFPF1,2010-06-24,5200.0
MAFPF1,2010-06-25,5200.0
MAFPF1,2010-06-28,5300.0
MAFPF1,2010-06-29,5100.0
MAFPF1,2010-06-30,5200.0
MAFPF1,2010-07-01,5000.0
MAFPF1,2010-07-02,5100.0
MAFPF1,2010-07-05,5100.0
MAFPF1,2010-07-06,5100.0
MAFPF1,2010-07-07,5100.0
MAFPF1,2010-07-08,5000.0
MAFPF1,2010-07-09,5000.0
MAFPF1,2010-07-12,5100.0
MAFPF1,2010-07-13,5300.0
MAFPF1,2010-07-14,5100.0
MAFPF1,2010-07-15,5100.0
MAFPF1,2010-07-16,5100.0
MAFPF1,2010-07-19,5100.0
MAFPF1,2010-07-20,5000.0
MAFPF1,2010-07-21,5100.0
MAFPF1,2010-07-22,5100.0
MAFPF1,2010-07-23,5100.0
MAFPF1,2010-07-26,5000.0
MAFPF1,2010-07-27,5000.0
MAFPF1,2010-07-28,5000.0
MAFPF1,2010-07-29,4900.0
MAFPF1,2010-07-30,5100.0
MAFPF1,2010-08-02,5000.0
MAFPF1,2010-08-03,5100.0
MAFPF1,2010-08-04,4900.0
MAFPF1,2010-08-05,5000.0
MAFPF1,2010-08-06,4900.0
MAFPF1,2010-08-09,4800.0
MAFPF1,2010-08-10,4600.0
MAFPF1,2010-08-11,4800.0
MAFPF1,2010-08-12,4800.0
MAFPF1,2010-08-13,4900.0
MAFPF1,2010-08-16,5000.0
MAFPF1,2010-08-17,4800.0
MAFPF1,2010-08-18,4800.0
MAFPF1,2010-08-19,4800.0
MAFPF1,2010-08-20,4800.0
MAFPF1,2010-08-23,4800.0
MAFPF1,2010-08-24,4600.0
MAFPF1,2010-08-25,4600.0
MAFPF1,2010-08-26,4600.0
MAFPF1,2010-08-27,4400.0
MAFPF1,2010-08-30,4500.0
MAFPF1,2010-08-31,4600.0
MAFPF1,2010-09-01,4600.0
MAFPF1,2010-09-06,4600.0
MAFPF1,2010-09-07,4600.0
MAFPF1,2010-09-08,4600.0
MAFPF1,2010-09-09,4500.0
MAFPF1,2010-09-10,4500.0
MAFPF1,2010-09-13,4500.0
MAFPF1,2010-09-14,4400.0
MAFPF1,2010-09-15,4500.0
MAFPF1,2010-09-16,4600.0
MAFPF1,2010-09-17,4600.0
MAFPF1,2010-09-20,4600.0
MAFPF1,2010-09-21,4600.0
MAFPF1,2010-09-22,4600.0
MAFPF1,2010-09-23,4600.0
MAFPF1,2010-09-24,4500.0
MAFPF1,2010-09-27,4500.0
MAFPF1,2010-09-28,4500.0
MAFPF1,2010-09-29,4500.0
MAFPF1,2010-09-30,4400.0
MAFPF1,2010-10-01,4500.0
MAFPF1,2010-10-04,4500.0
MAFPF1,2010-10-05,4500.0
MAFPF1,2010-10-06,4600.0
MAFPF1,2010-10-07,4600.0
MAFPF1,2010-10-08,4500.0
MAFPF1,2010-10-11,4500.0
MAFPF1,2010-10-12,4400.0
MAFPF1,2010-10-13,4500.0
MAFPF1,2010-10-14,4500.0
MAFPF1,2010-10-15,4300.0
MAFPF1,2010-10-18,4200.0
MAFPF1,2010-10-19,4300.0
MAFPF1,2010-10-20,4400.0
MAFPF1,2010-10-21,4300.0
MAFPF1,2010-10-22,4200.0
MAFPF1,2010-10-25,4000.0
MAFPF1,2010-10-26,4200.0
MAFPF1,2010-10-27,4200.0
MAFPF1,2010-10-28,4200.0
MAFPF1,2010-10-29,4200.0
MAFPF1,2010-11-01,4000.0
MAFPF1,2010-11-02,4000.0
MAFPF1,2010-11-03,4000.0
MAFPF1,2010-11-04,4000.0
MAFPF1,2010-11-05,4000.0
MAFPF1,2010-11-08,4000.0
MAFPF1,2010-11-09,4000.0
MAFPF1,2010-11-10,4000.0
MAFPF1,2010-11-11,4000.0
MAFPF1,2010-11-12,3900.0
MAFPF1,2010-11-15,3800.0
MAFPF1,2010-11-16,3900.0
MAFPF1,2010-11-17,3800.0
MAFPF1,2010-11-18,3800.0
MAFPF1,2010-11-19,3800.0
MAFPF1,2010-11-22,3900.0
MAFPF1,2010-11-23,4000.0
MAFPF1,2010-11-24,4000.0
MAFPF1,2010-11-25,4100.0
MAFPF1,2010-11-26,4100.0
MAFPF1,2010-11-29,4000.0
MAFPF1,2010-11-30,4000.0
MAFPF1,2010-12-01,3900.0
MAFPF1,2010-12-02,4000.0
MAFPF1,2010-12-03,4200.0
MAFPF1,2010-12-06,4400.0
MAFPF1,2010-12-07,4400.0
MAFPF1,2010-12-08,4400.0
MAFPF1,2010-12-09,4400.0
MAFPF1,2010-12-10,4500.0
MAFPF1,2010-12-13,4700.0
MAFPF1,2010-12-14,4600.0
MAFPF1,2010-12-15,4600.0
MAFPF1,2010-12-16,4600.0
MAFPF1,2010-12-17,4400.0
MAFPF1,2010-12-20,4500.0
MAFPF1,2010-12-21,4500.0
MAFPF1,2010-12-22,4600.0
MAFPF1,2010-12-23,4400.0
MAFPF1,2010-12-24,4400.0
MAFPF1,2010-12-27,4500.0
MAFPF1,2010-12-28,4600.0
MAFPF1,2010-12-29,4600.0
MAFPF1,2010-12-30,4500.0
MAFPF1,2010-12-31,4600.0
MAFPF1,2011-01-04,4600.0
MAFPF1,2011-01-05,4500.0
MAFPF1,2011-01-06,4500.0
MAFPF1,2011-01-07,4600.0
MAFPF1,2011-01-10,4400.0
MAFPF1,2011-01-11,4500.0
MAFPF1,2011-01-12,4500.0
MAFPF1,2011-01-13,4500.0
MAFPF1,2011-01-14,4600.0
MAFPF1,2011-01-17,4500.0
MAFPF1,2011-01-18,4600.0
MAFPF1,2011-01-19,4500.0
MAFPF1,2011-01-20,4600.0
MAFPF1,2011-01-21,4500.0
MAFPF1,2011-01-24,4500.0
MAFPF1,2011-01-25,4600.0
MAFPF1,2011-01-26,4600.0
MAFPF1,2011-01-27,4500.0
MAFPF1,2011-01-28,4600.0
MAFPF1,2011-02-08,4600.0
MAFPF1,2011-02-09,4600.0
MAFPF1,2011-02-10,4600.0
MAFPF1,2011-02-11,4600.0
MAFPF1,2011-02-14,4600.0
MAFPF1,2011-02-15,4500.0
MAFPF1,2011-02-16,4500.0
MAFPF1,2011-02-17,4500.0
MAFPF1,2011-02-18,4600.0
MAFPF1,2011-02-21,4500.0
MAFPF1,2011-02-22,4500.0
MAFPF1,2011-02-23,4500.0
MAFPF1,2011-02-24,4400.0
MAFPF1,2011-02-25,4300.0
MAFPF1,2011-02-28,4400.0
MAFPF1,2011-03-01,4200.0
MAFPF1,2011-03-02,4200.0
MAFPF1,2011-03-03,4400.0
MAFPF1,2011-03-04,4400.0
MAFPF1,2011-03-07,4400.0
MAFPF1,2011-03-08,4400.0
MAFPF1,2011-03-09,4300.0
MAFPF1,2011-03-10,4400.0
MAFPF1,2011-03-11,4400.0
MAFPF1,2011-03-14,4200.0
MAFPF1,2011-03-15,4400.0
MAFPF1,2011-03-16,4400.0
MAFPF1,2011-03-17,4400.0
MAFPF1,2011-03-18,4400.0
MAFPF1,2011-03-21,4300.0
MAFPF1,2011-03-22,4500.0
MAFPF1,2011-03-23,4400.0
MAFPF1,2011-03-24,4400.0
MAFPF1,2011-03-25,4300.0
MAFPF1,2011-03-28,4200.0
MAFPF1,2011-03-29,4400.0
MAFPF1,2011-03-30,4300.0
MAFPF1,2011-03-31,4300.0
MAFPF1,2011-04-01,4300.0
MAFPF1,2011-04-04,4300.0
MAFPF1,2011-04-05,4300.0
MAFPF1,2011-04-06,4300.0
MAFPF1,2011-04-07,4200.0
MAFPF1,2011-04-08,4200.0
MAFPF1,2011-04-13,4200.0
MAFPF1,2011-04-14,4100.0
MAFPF1,2011-04-15,4100.0
MAFPF1,2011-04-18,4100.0
MAFPF1,2011-04-19,3900.0
MAFPF1,2011-04-20,4000.0
MAFPF1,2011-04-21,4000.0
MAFPF1,2011-04-22,4200.0
MAFPF1,2011-04-25,4300.0
MAFPF1,2011-04-26,4300.0
MAFPF1,2011-04-27,4300.0
MAFPF1,2011-04-28,4200.0
MAFPF1,2011-04-29,4400.0
MAFPF1,2011-05-04,4200.0
MAFPF1,2011-05-05,4400.0
MAFPF1,2011-05-06,4300.0
MAFPF1,2011-05-09,4300.0
MAFPF1,2011-05-10,4100.0
MAFPF1,2011-05-11,4100.0
MAFPF1,2011-05-12,4100.0
MAFPF1,2011-05-13,4100.0
MAFPF1,2011-05-16,4100.0
MAFPF1,2011-05-17,4000.0
MAFPF1,2011-05-18,4000.0
MAFPF1,2011-05-19,4000.0
MAFPF1,2011-05-20,3800.0
MAFPF1,2011-05-23,3800.0
MAFPF1,2011-05-24,3800.0
MAFPF1,2011-05-25,3900.0
MAFPF1,2011-05-26,3900.0
MAFPF1,2011-05-27,4000.0
MAFPF1,2011-05-30,4000.0
MAFPF1,2011-05-31,3900.0
MAFPF1,2011-06-01,3800.0
MAFPF1,2011-06-02,3900.0
MAFPF1,2011-06-03,4000.0
MAFPF1,2011-06-06,4000.0
MAFPF1,2011-06-07,4200.0
MAFPF1,2011-06-08,4200.0
MAFPF1,2011-06-09,4000.0
MAFPF1,2011-06-10,4000.0
MAFPF1,2011-06-13,4000.0
MAFPF1,2011-06-14,4000.0
MAFPF1,2011-06-15,3900.0
MAFPF1,2011-06-16,3900.0
MAFPF1,2011-06-17,3900.0
MAFPF1,2011-06-20,3900.0
MAFPF1,2011-06-21,4000.0
MAFPF1,2011-06-22,4000.0
MAFPF1,2011-06-23,4000.0
MAFPF1,2011-06-24,3900.0
MAFPF1,2011-06-27,3900.0
MAFPF1,2011-06-28,4000.0
MAFPF1,2011-06-29,3900.0
MAFPF1,2011-06-30,3800.0
MAFPF1,2011-07-01,3900.0
MAFPF1,2011-07-04,3800.0
MAFPF1,2011-07-05,3800.0
MAFPF1,2011-07-06,3900.0
MAFPF1,2011-07-07,3800.0
MAFPF1,2011-07-08,3800.0
MAFPF1,2011-07-11,3800.0
MAFPF1,2011-07-12,3900.0
MAFPF1,2011-07-13,3900.0
MAFPF1,2011-07-14,3800.0
MAFPF1,2011-07-15,3700.0
MAFPF1,2011-07-18,3800.0
MAFPF1,2011-07-19,3700.0
MAFPF1,2011-07-20,3600.0
MAFPF1,2011-07-21,3600.0
MAFPF1,2011-07-22,3600.0
MAFPF1,2011-07-25,3600.0
MAFPF1,2011-07-26,3700.0
MAFPF1,2011-07-27,3600.0
MAFPF1,2011-07-28,3600.0
MAFPF1,2011-07-29,3600.0
MAFPF1,2011-08-01,3600.0
MAFPF1,2011-08-02,3500.0
MAFPF1,2011-08-03,3400.0
MAFPF1,2011-08-04,3300.0
MAFPF1,2011-08-05,3200.0
MAFPF1,2011-08-08,3100.0
MAFPF1,2011-08-09,3000.0
MAFPF1,2011-08-10,2900.0
MAFPF1,2011-08-11,3000.0
MAFPF1,2011-08-12,3100.0
MAFPF1,2011-08-15,3200.0
MAFPF1,2011-08-16,3200.0
MAFPF1,2011-08-17,3200.0
MAFPF1,2011-08-18,3200.0
MAFPF1,2011-08-19,3100.0
MAFPF1,2011-08-22,3200.0
MAFPF1,2011-08-23,3200.0
MAFPF1,2011-08-24,3200.0
MAFPF1,2011-08-25,3100.0
MAFPF1,2011-08-26,3100.0
MAFPF1,2011-08-29,3200.0
MAFPF1,2011-08-30,3300.0
MAFPF1,2011-08-31,3400.0
MAFPF1,2011-09-01,3500.0
MAFPF1,2011-09-05,3600.0
MAFPF1,2011-09-06,3500.0
MAFPF1,2011-09-07,3500.0
MAFPF1,2011-09-08,3600.0
MAFPF1,2011-09-09,3600.0
MAFPF1,2011-09-12,3600.0
MAFPF1,2011-09-13,3700.0
MAFPF1,2011-09-14,3700.0
MAFPF1,2011-09-15,3600.0
MAFPF1,2011-09-16,3600.0
MAFPF1,2011-09-19,3600.0
MAFPF1,2011-09-20,3700.0
MAFPF1,2011-09-21,3600.0
MAFPF1,2011-09-22,3600.0
MAFPF1,2011-09-23,3500.0
MAFPF1,2011-09-26,3600.0
MAFPF1,2011-09-27,3500.0
MAFPF1,2011-09-28,3400.0
MAFPF1,2011-09-29,3400.0
MAFPF1,2011-09-30,3400.0
MAFPF1,2011-10-03,3400.0
MAFPF1,2011-10-04,3500.0
MAFPF1,2011-10-05,3400.0
MAFPF1,2011-10-06,3400.0
MAFPF1,2011-10-07,3300.0
MAFPF1,2011-10-10,3200.0
MAFPF1,2011-10-11,3200.0
MAFPF1,2011-10-12,3300.0
MAFPF1,2011-10-13,3300.0
MAFPF1,2011-10-14,3300.0
MAFPF1,2011-10-17,3200.0
MAFPF1,2011-10-18,3200.0
MAFPF1,2011-10-19,3300.0
MAFPF1,2011-10-20,3200.0
MAFPF1,2011-10-21,3200.0
MAFPF1,2011-10-24,3300.0
MAFPF1,2011-10-25,3300.0
MAFPF1,2011-10-26,3300.0
MAFPF1,2011-10-27,3300.0
MAFPF1,2011-10-28,3300.0
MAFPF1,2011-10-31,3300.0
MAFPF1,2011-11-01,3200.0
MAFPF1,2011-11-02,3200.0
MAFPF1,2011-11-03,3100.0
MAFPF1,2011-11-04,3200.0
MAFPF1,2011-11-07,3200.0
MAFPF1,2011-11-08,3300.0
MAFPF1,2011-11-09,3300.0
MAFPF1,2011-11-10,3300.0
MAFPF1,2011-11-11,3300.0
MAFPF1,2011-11-14,3300.0
MAFPF1,2011-11-15,3300.0
MAFPF1,2011-11-16,3300.0
MAFPF1,2011-11-17,3300.0
MAFPF1,2011-11-18,3200.0
MAFPF1,2011-11-21,3100.0
MAFPF1,2011-11-22,3200.0
MAFPF1,2011-11-23,3200.0
MAFPF1,2011-11-24,3100.0
MAFPF1,2011-11-25,3200.0
MAFPF1,2011-11-28,3100.0
MAFPF1,2011-11-29,3100.0
MAFPF1,2011-11-30,3100.0
MAFPF1,2011-12-01,3200.0
MAFPF1,2011-12-02,3200.0
MAFPF1,2011-12-05,3100.0
MAFPF1,2011-12-06,3100.0
MAFPF1,2011-12-07,3000.0
MAFPF1,2011-12-08,2900.0
MAFPF1,2011-12-09,2800.0
MAFPF1,2011-12-12,2900.0
MAFPF1,2011-12-13,3000.0
MAFPF1,2011-12-14,2900.0
MAFPF1,2011-12-15,2900.0
MAFPF1,2011-12-16,2800.0
MAFPF1,2011-12-19,2900.0
MAFPF1,2011-12-20,2800.0
MAFPF1,2011-12-21,2800.0
MAFPF1,2011-12-22,2800.0
MAFPF1,2011-12-23,2700.0
MAFPF1,2011-12-26,2700.0
MAFPF1,2011-12-27,2800.0
MAFPF1,2011-12-28,2900.0
MAFPF1,2011-12-29,3000.0
MAFPF1,2011-12-30,3000.0
MAFPF1,2012-01-03,3000.0
MAFPF1,2012-01-04,3000.0
MAFPF1,2012-01-05,3000.0
MAFPF1,2012-01-06,2900.0
MAFPF1,2012-01-09,3000.0
MAFPF1,2012-01-10,2900.0
MAFPF1,2012-01-11,2900.0
MAFPF1,2012-01-12,2900.0
MAFPF1,2012-01-13,2900.0
MAFPF1,2012-01-16,2900.0
MAFPF1,2012-01-17,2800.0
MAFPF1,2012-01-18,2900.0
MAFPF1,2012-01-19,3000.0
MAFPF1,2012-01-20,3000.0
MAFPF1,2012-01-30,3000.0
MAFPF1,2012-01-31,3100.0
MAFPF1,2012-02-01,3100.0
MAFPF1,2012-02-02,3000.0
MAFPF1,2012-02-03,3100.0
MAFPF1,2012-02-06,3100.0
MAFPF1,2012-02-07,3200.0
MAFPF1,2012-02-08,3200.0
MAFPF1,2012-02-09,3100.0
MAFPF1,2012-02-10,3100.0
MAFPF1,2012-02-13,3200.0
MAFPF1,2012-02-14,3300.0
MAFPF1,2012-02-15,3200.0
MAFPF1,2012-02-16,3100.0
MAFPF1,2012-02-17,3100.0
MAFPF1,2012-02-20,3200.0
MAFPF1,2012-02-21,3200.0
MAFPF1,2012-02-22,3200.0
MAFPF1,2012-02-23,3200.0
MAFPF1,2012-02-24,3300.0
MAFPF1,2012-02-27,3400.0
MAFPF1,2012-02-28,3400.0
MAFPF1,2012-02-29,3500.0
MAFPF1,2012-03-01,3500.0
MAFPF1,2012-03-02,3600.0
MAFPF1,2012-03-05,3700.0
MAFPF1,2012-03-06,3800.0
MAFPF1,2012-03-07,3800.0
MAFPF1,2012-03-08,3700.0
MAFPF1,2012-03-09,3600.0
MAFPF1,2012-03-12,3500.0
MAFPF1,2012-03-13,3600.0
MAFPF1,2012-03-14,3600.0
MAFPF1,2012-03-15,3700.0
MAFPF1,2012-03-16,3800.0
MAFPF1,2012-03-19,3800.0
MAFPF1,2012-03-20,3900.0
MAFPF1,2012-03-21,4000.0
MAFPF1,2012-03-22,4200.0
MAFPF1,2012-03-23,4300.0
MAFPF1,2012-03-26,4300.0
MAFPF1,2012-03-27,4300.0
MAFPF1,2012-03-28,4200.0
MAFPF1,2012-03-29,4100.0
MAFPF1,2012-03-30,4000.0
MAFPF1,2012-04-03,4100.0
MAFPF1,2012-04-04,3900.0
MAFPF1,2012-04-05,4000.0
MAFPF1,2012-04-06,3900.0
MAFPF1,2012-04-09,4000.0
MAFPF1,2012-04-10,4000.0
MAFPF1,2012-04-11,4100.0
MAFPF1,2012-04-12,4300.0
MAFPF1,2012-04-13,4200.0
MAFPF1,2012-04-16,4300.0
MAFPF1,2012-04-17,4500.0
MAFPF1,2012-04-18,4400.0
MAFPF1,2012-04-19,4400.0
MAFPF1,2012-04-20,4400.0
MAFPF1,2012-04-23,4500.0
MAFPF1,2012-04-24,4500.0
MAFPF1,2012-04-25,4500.0
MAFPF1,2012-04-26,4500.0
MAFPF1,2012-04-27,4500.0
MAFPF1,2012-05-02,4400.0
MAFPF1,2012-05-03,4200.0
MAFPF1,2012-05-04,4400.0
MAFPF1,2012-05-07,4500.0
MAFPF1,2012-05-08,4500.0
MAFPF1,2012-05-09,4500.0
MAFPF1,2012-05-10,4500.0
MAFPF1,2012-05-11,4300.0
MAFPF1,2012-05-14,4100.0
MAFPF1,2012-05-15,4300.0
MAFPF1,2012-05-16,4300.0
MAFPF1,2012-05-17,4300.0
MAFPF1,2012-05-18,4100.0
MAFPF1,2012-05-21,4200.0
MAFPF1,2012-05-22,4200.0
MAFPF1,2012-05-23,4000.0
MAFPF1,2012-05-24,4000.0
MAFPF1,2012-05-25,4200.0
MAFPF1,2012-05-28,4000.0
MAFPF1,2012-05-29,4000.0
MAFPF1,2012-05-30,4100.0
MAFPF1,2012-05-31,4000.0
MAFPF1,2012-06-01,3900.0
MAFPF1,2012-06-04,3900.0
MAFPF1,2012-06-05,3800.0
MAFPF1,2012-06-06,3900.0
MAFPF1,2012-06-07,3800.0
MAFPF1,2012-06-08,3900.0
MAFPF1,2012-06-11,4000.0
MAFPF1,2012-06-12,3800.0
MAFPF1,2012-06-13,3900.0
MAFPF1,2012-06-14,3900.0
MAFPF1,2012-06-15,3900.0
MAFPF1,2012-06-18,3900.0
MAFPF1,2012-06-19,3900.0
MAFPF1,2012-06-20,3900.0
MAFPF1,2012-06-21,3800.0
MAFPF1,2012-06-22,3900.0
MAFPF1,2012-06-25,3900.0
MAFPF1,2012-06-26,3800.0
MAFPF1,2012-06-27,3700.0
MAFPF1,2012-06-28,3600.0
MAFPF1,2012-06-29,3700.0
MAFPF1,2012-07-02,3800.0
MAFPF1,2012-07-03,3900.0
MAFPF1,2012-07-04,3800.0
MAFPF1,2012-07-05,3800.0
MAFPF1,2012-07-06,3700.0
MAFPF1,2012-07-09,3800.0
MAFPF1,2012-07-10,3700.0
MAFPF1,2012-07-11,3700.0
MAFPF1,2012-07-12,3800.0
MAFPF1,2012-07-13,3800.0
MAFPF1,2012-07-16,3800.0
MAFPF1,2012-07-17,3700.0
MAFPF1,2012-07-18,3800.0
MAFPF1,2012-07-19,3800.0
MAFPF1,2012-07-20,3700.0
MAFPF1,2012-07-23,3800.0
MAFPF1,2012-07-24,3700.0
MAFPF1,2012-07-25,3600.0
MAFPF1,2012-07-26,3700.0
MAFPF1,2012-07-27,3700.0
MAFPF1,2012-07-30,3700.0
MAFPF1,2012-07-31,3700.0
MAFPF1,2012-08-01,3700.0
MAFPF1,2012-08-02,3600.0
MAFPF1,2012-08-03,3600.0
MAFPF1,2012-08-06,3700.0
MAFPF1,2012-08-07,3700.0
MAFPF1,2012-08-08,3800.0
MAFPF1,2012-08-09,3800.0
MAFPF1,2012-08-10,3700.0
MAFPF1,2012-08-13,3700.0
MAFPF1,2012-08-14,3600.0
MAFPF1,2012-08-15,3700.0
MAFPF1,2012-08-16,3700.0
MAFPF1,2012-08-17,3700.0
MAFPF1,2012-08-20,3700.0
MAFPF1,2012-08-21,3700.0
MAFPF1,2012-08-22,3700.0
MAFPF1,2012-08-23,3700.0
MAFPF1,2012-08-24,3700.0
MAFPF1,2012-08-27,3600.0
MAFPF1,2012-08-28,3700.0
MAFPF1,2012-08-29,3700.0
MAFPF1,2012-08-30,3700.0
MAFPF1,2012-08-31,3700.0
MAFPF1,2012-09-04,3700.0
MAFPF1,2012-09-05,3600.0
MAFPF1,2012-09-06,3600.0
MAFPF1,2012-09-07,3500.0
MAFPF1,2012-09-10,3600.0
MAFPF1,2012-09-11,3500.0
MAFPF1,2012-09-12,3500.0
MAFPF1,2012-09-13,3500.0
MAFPF1,2012-09-14,3600.0
MAFPF1,2012-09-17,3600.0
MAFPF1,2012-09-18,3600.0
MAFPF1,2012-09-19,3500.0
MAFPF1,2012-09-20,3400.0
MAFPF1,2012-09-21,3300.0
MAFPF1,2012-09-24,3200.0
MAFPF1,2012-09-25,3200.0
MAFPF1,2012-09-26,3200.0
MAFPF1,2012-09-27,3300.0
MAFPF1,2012-09-28,3400.0
MAFPF1,2012-10-01,3300.0
MAFPF1,2012-10-02,3200.0
MAFPF1,2012-10-03,3200.0
MAFPF1,2012-10-04,3200.0
MAFPF1,2012-10-05,3300.0
MAFPF1,2012-10-08,3400.0
MAFPF1,2012-10-09,3500.0
MAFPF1,2012-10-10,3600.0
MAFPF1,2012-10-11,3500.0
MAFPF1,2012-10-12,3400.0
MAFPF1,2012-10-15,3300.0
MAFPF1,2012-10-16,3400.0
MAFPF1,2012-10-17,3300.0
MAFPF1,2012-10-18,3400.0
MAFPF1,2012-10-19,3500.0
MAFPF1,2012-10-22,3400.0
MAFPF1,2012-10-23,3400.0
MAFPF1,2012-10-24,3300.0
MAFPF1,2012-10-25,3200.0
MAFPF1,2012-10-26,3200.0
MAFPF1,2012-10-29,3300.0
MAFPF1,2012-10-30,3300.0
MAFPF1,2012-10-31,3200.0
MAFPF1,2012-11-01,3300.0
MAFPF1,2012-11-02,3300.0
MAFPF1,2012-11-05,3400.0
MAFPF1,2012-11-06,3400.0
MAFPF1,2012-11-07,3400.0
MAFPF1,2012-11-08,3300.0
MAFPF1,2012-11-09,3300.0
MAFPF1,2012-11-12,3400.0
MAFPF1,2012-11-13,3500.0
MAFPF1,2012-11-14,3600.0
MAFPF1,2012-11-15,3500.0
MAFPF1,2012-11-16,3500.0
MAFPF1,2012-11-19,3600.0
MAFPF1,2012-11-20,3500.0
MAFPF1,2012-11-21,3500.0
MAFPF1,2012-11-22,3600.0
MAFPF1,2012-11-23,3500.0
MAFPF1,2012-11-26,3500.0
MAFPF1,2012-11-27,3500.0
MAFPF1,2012-11-28,3600.0
MAFPF1,2012-11-29,3700.0
MAFPF1,2012-11-30,3700.0
MAFPF1,2012-12-03,3600.0
MAFPF1,2012-12-04,3500.0
MAFPF1,2012-12-05,3500.0
MAFPF1,2012-12-06,3500.0
MAFPF1,2012-12-07,3600.0
MAFPF1,2012-12-10,3700.0
MAFPF1,2012-12-11,3800.0
MAFPF1,2012-12-12,3900.0
MAFPF1,2012-12-13,4000.0
MAFPF1,2012-12-14,3900.0
MAFPF1,2012-12-17,4000.0
MAFPF1,2012-12-18,4000.0
MAFPF1,2012-12-19,4100.0
MAFPF1,2012-12-20,3900.0
MAFPF1,2012-12-21,3800.0
MAFPF1,2012-12-24,3800.0
MAFPF1,2012-12-25,3900.0
MAFPF1,2012-12-26,4000.0
MAFPF1,2012-12-27,4200.0
MAFPF1,2012-12-28,4400.0
MAFPF1,2013-01-02,4600.0
MAFPF1,2013-01-03,4700.0
MAFPF1,2013-01-04,4700.0
MAFPF1,2013-01-07,4800.0
MAFPF1,2013-01-08,5000.0
MAFPF1,2013-01-09,5000.0
MAFPF1,2013-01-10,5000.0
MAFPF1,2013-01-11,5000.0
MAFPF1,2013-01-14,4800.0
MAFPF1,2013-01-15,5000.0
MAFPF1,2013-01-16,5200.0
MAFPF1,2013-01-17,4900.0
MAFPF1,2013-01-18,5100.0
MAFPF1,2013-01-21,5100.0
MAFPF1,2013-01-22,5100.0
MAFPF1,2013-01-23,5100.0
MAFPF1,2013-01-24,5100.0
MAFPF1,2013-01-25,5200.0
MAFPF1,2013-01-28,5500.0
MAFPF1,2013-01-29,5700.0
MAFPF1,2013-01-30,5800.0
MAFPF1,2013-01-31,5700.0
MAFPF1,2013-02-01,5800.0
MAFPF1,2013-02-04,5800.0
MAFPF1,2013-02-05,5800.0
MAFPF1,2013-02-06,5900.0
MAFPF1,2013-02-07,5900.0
MAFPF1,2013-02-08,5900.0
MAFPF1,2013-02-18,5900.0
MAFPF1,2013-02-19,6000.0
MAFPF1,2013-02-20,6000.0
MAFPF1,2013-02-21,5900.0
MAFPF1,2013-02-22,5900.0
MAFPF1,2013-02-25,6000.0
MAFPF1,2013-02-26,5900.0
MAFPF1,2013-02-27,5700.0
MAFPF1,2013-02-28,5900.0
MAFPF1,2013-03-01,6000.0
MAFPF1,2013-03-04,5800.0
MAFPF1,2013-03-05,5700.0
MAFPF1,2013-03-06,5800.0
MAFPF1,2013-03-07,5800.0
MAFPF1,2013-03-08,5700.0
MAFPF1,2013-03-11,5900.0
MAFPF1,2013-03-12,5900.0
MAFPF1,2013-03-13,6200.0
MAFPF1,2013-03-14,6200.0
MAFPF1,2013-03-15,6500.0
MAFPF1,2013-03-18,6500.0
MAFPF1,2013-03-19,6500.0
MAFPF1,2013-03-20,6600.0
MAFPF1,2013-03-21,6600.0
MAFPF1,2013-03-22,6800.0
MAFPF1,2013-03-25,6500.0
MAFPF1,2013-03-26,6700.0
MAFPF1,2013-03-27,6700.0
MAFPF1,2013-03-28,6700.0
MAFPF1,2013-03-29,6700.0
MAFPF1,2013-04-01,6800.0
MAFPF1,2013-04-02,6700.0
MAFPF1,2013-04-03,6600.0
MAFPF1,2013-04-04,6500.0
MAFPF1,2013-04-05,6500.0
MAFPF1,2013-04-08,6500.0
MAFPF1,2013-04-09,6600.0
MAFPF1,2013-04-10,6500.0
MAFPF1,2013-04-11,6500.0
MAFPF1,2013-04-12,6500.0
MAFPF1,2013-04-15,6500.0
MAFPF1,2013-04-16,6500.0
MAFPF1,2013-04-17,6500.0
MAFPF1,2013-04-18,6500.0
MAFPF1,2013-04-22,6500.0
MAFPF1,2013-04-23,6200.0
MAFPF1,2013-04-24,6200.0
MAFPF1,2013-04-25,6400.0
MAFPF1,2013-04-26,6300.0
MAFPF1,2013-05-02,6400.0
MAFPF1,2013-05-03,6400.0
MAFPF1,2013-05-06,6400.0
MAFPF1,2013-05-07,6400.0
MAFPF1,2013-05-08,6300.0
MAFPF1,2013-05-09,6700.0
MAFPF1,2013-05-10,6400.0
MAFPF1,2013-05-13,6500.0
MAFPF1,2013-05-14,6500.0
MAFPF1,2013-05-15,6400.0
MAFPF1,2013-05-16,6500.0
MAFPF1,2013-05-17,6500.0
MAFPF1,2013-05-20,6500.0
MAFPF1,2013-05-21,6600.0
MAFPF1,2013-05-22,6600.0
MAFPF1,2013-05-23,6600.0
MAFPF1,2013-05-24,6700.0
MAFPF1,2013-05-27,6700.0
MAFPF1,2013-05-28,6800.0
MAFPF1,2013-05-29,6900.0
MAFPF1,2013-05-30,6900.0
MAFPF1,2013-05-31,6900.0
MAFPF1,2013-06-03,6900.0
MAFPF1,2013-06-04,7000.0
MAFPF1,2013-06-05,7200.0
MAFPF1,2013-06-06,7200.0
MAFPF1,2013-06-07,7200.0
MAFPF1,2013-06-10,7300.0
MAFPF1,2013-06-11,7300.0
MAFPF1,2013-06-12,7300.0
MAFPF1,2013-06-13,7200.0
MAFPF1,2013-06-14,7200.0
MAFPF1,2013-06-17,7100.0
MAFPF1,2013-06-18,7100.0
MAFPF1,2013-06-19,7300.0
MAFPF1,2013-06-20,7200.0
MAFPF1,2013-06-21,7100.0
MAFPF1,2013-06-24,7100.0
MAFPF1,2013-06-25,6900.0
MAFPF1,2013-06-26,7200.0
MAFPF1,2013-06-27,7000.0
MAFPF1,2013-06-28,7000.0
MAFPF1,2013-07-01,6900.0
MAFPF1,2013-07-02,7000.0
MAFPF1,2013-07-03,7100.0
MAFPF1,2013-07-04,7000.0
MAFPF1,2013-07-05,7000.0
MAFPF1,2013-07-08,7000.0
MAFPF1,2013-07-09,7000.0
MAFPF1,2013-07-10,6900.0
MAFPF1,2013-07-11,7000.0
MAFPF1,2013-07-12,7000.0
MAFPF1,2013-07-15,7100.0
MAFPF1,2013-07-16,7000.0
MAFPF1,2013-07-17,7100.0
MAFPF1,2013-07-18,7000.0
MAFPF1,2013-07-19,7200.0
MAFPF1,2013-07-22,7000.0
MAFPF1,2013-07-23,7100.0
MAFPF1,2013-07-24,7100.0
MAFPF1,2013-07-25,7100.0
MAFPF1,2013-07-26,7100.0
MAFPF1,2013-07-29,7000.0
MAFPF1,2013-07-30,7000.0
MAFPF1,2013-07-31,7100.0
MAFPF1,2013-08-01,7000.0
MAFPF1,2013-08-02,7000.0
MAFPF1,2013-08-05,7100.0
MAFPF1,2013-08-06,7100.0
MAFPF1,2013-08-07,7100.0
MAFPF1,2013-08-08,7100.0
MAFPF1,2013-08-09,7100.0
MAFPF1,2013-08-12,7100.0
MAFPF1,2013-08-13,7100.0
MAFPF1,2013-08-14,7100.0
MAFPF1,2013-08-15,7100.0
MAFPF1,2013-08-16,7100.0
MAFPF1,2013-08-19,7200.0
MAFPF1,2013-08-20,7100.0
MAFPF1,2013-08-21,7100.0
MAFPF1,2013-08-22,7100.0
MAFPF1,2013-08-23,7000.0
MAFPF1,2013-08-26,7000.0
MAFPF1,2013-08-27,7100.0
MAFPF1,2013-08-28,7000.0
MAFPF1,2013-08-29,7000.0
MAFPF1,2013-08-30,7000.0
MAFPF1,2013-09-03,7100.0
MAFPF1,2013-09-04,7000.0
MAFPF1,2013-09-05,7000.0
MAFPF1,2013-09-06,7000.0
MAFPF1,2013-09-09,7000.0
MAFPF1,2013-09-10,7100.0
MAFPF1,2013-09-11,7100.0
MAFPF1,2013-09-12,7100.0
MAFPF1,2013-09-13,7100.0
MAFPF1,2013-09-16,7000.0
MAFPF1,2013-09-17,7000.0
MAFPF1,2013-09-18,7000.0
MAFPF1,2013-09-19,7000.0
MAFPF1,2013-09-20,7000.0
MAFPF1,2013-09-23,7000.0
MAFPF1,2013-09-24,7100.0
MAFPF1,2013-09-25,7100.0
MAFPF1,2013-09-26,7100.0
MAFPF1,2013-09-27,7100.0
MAFPF1,2013-09-30,7100.0
MAFPF1,2013-10-01,7100.0
MAFPF1,2013-10-02,7200.0
MAFPF1,2013-10-03,7200.0
MAFPF1,2013-10-04,7200.0
MAFPF1,2013-10-07,7300.0
MAFPF1,2013-10-08,7200.0
MAFPF1,2013-10-09,7200.0
MAFPF1,2013-10-10,7200.0
MAFPF1,2013-10-11,7600.0
MAFPF1,2013-10-14,7600.0
MAFPF1,2013-10-15,7200.0
MAFPF1,2013-10-16,7200.0
MAFPF1,2013-10-17,7200.0
MAFPF1,2013-10-18,7200.0
MAFPF1,2013-10-21,7400.0
MAFPF1,2013-10-22,7400.0
MAFPF1,2013-10-23,7500.0
MAFPF1,2013-10-24,7400.0
MAFPF1,2013-10-25,7500.0
MAFPF1,2013-10-28,7500.0
MAFPF1,2013-10-29,7500.0
MAFPF1,2013-10-30,7500.0
MAFPF1,2013-10-31,7500.0
MAFPF1,2013-11-01,7600.0
MAFPF1,2013-11-04,7600.0
MAFPF1,2013-11-05,7600.0
MAFPF1,2013-11-06,7700.0
MAFPF1,2013-11-07,7800.0
MAFPF1,2013-11-08,7900.0
MAFPF1,2013-11-11,8000.0
MAFPF1,2013-11-12,8000.0
MAFPF1,2013-11-13,8100.0
MAFPF1,2013-11-14,8100.0
MAFPF1,2013-11-15,8100.0
MAFPF1,2013-11-18,8100.0
MAFPF1,2013-11-19,8100.0
MAFPF1,2013-11-20,8200.0
MAFPF1,2013-11-21,8200.0
MAFPF1,2013-11-22,8200.0
MAFPF1,2013-11-25,8100.0
MAFPF1,2013-11-26,8100.0
MAFPF1,2013-11-27,8100.0
MAFPF1,2013-11-28,8100.0
MAFPF1,2013-11-29,8100.0
MAFPF1,2013-12-02,8100.0
MAFPF1,2013-12-03,8100.0
MAFPF1,2013-12-04,8100.0
MAFPF1,2013-12-05,8200.0
MAFPF1,2013-12-06,8100.0
MAFPF1,2013-12-09,8200.0
MAFPF1,2013-12-10,8100.0
MAFPF1,2013-12-11,8100.0
MAFPF1,2013-12-12,8000.0
MAFPF1,2013-12-13,8000.0
MAFPF1,2013-12-16,8000.0
MAFPF1,2013-12-17,8000.0
MAFPF1,2013-12-18,8100.0
MAFPF1,2013-12-19,8100.0
MAFPF1,2013-12-20,8100.0
MAFPF1,2013-12-23,8100.0
MAFPF1,2013-12-24,8100.0
MAFPF1,2013-12-25,8100.0
MAFPF1,2013-12-26,8200.0
MAFPF1,2013-12-27,8100.0
MAFPF1,2013-12-30,8100.0
MAFPF1,2013-12-31,8100.0
MAFPF1,2014-01-02,8200.0
MAFPF1,2014-01-03,8200.0
MAFPF1,2014-01-06,8200.0
MAFPF1,2014-01-07,8300.0
MAFPF1,2014-01-08,8300.0
MAFPF1,2014-01-09,8200.0
MAFPF1,2014-01-10,8300.0
MAFPF1,2014-01-13,8300.0
MAFPF1,2014-01-14,8400.0
MAFPF1,2014-01-15,8400.0
MAFPF1,2014-01-16,8400.0
MAFPF1,2014-01-17,8400.0
MAFPF1,2014-01-20,8500.0
MAFPF1,2014-01-21,8500.0
MAFPF1,2014-01-22,9000.0
MAFPF1,2014-01-23,8500.0
MAFPF1,2014-01-24,8900.0
MAFPF1,2014-01-27,8900.0
MAFPF1,2014-02-06,8700.0
MAFPF1,2014-02-07,8700.0
MAFPF1,2014-02-10,9100.0
MAFPF1,2014-02-11,9200.0
MAFPF1,2014-02-12,9000.0
MAFPF1,2014-02-13,9300.0
MAFPF1,2014-02-14,9000.0
MAFPF1,2014-02-17,9200.0
MAFPF1,2014-02-18,9200.0
MAFPF1,2014-02-19,9300.0
MAFPF1,2014-02-20,9300.0
MAFPF1,2014-02-21,9300.0
MAFPF1,2014-02-24,9300.0
MAFPF1,2014-02-25,9300.0
MAFPF1,2014-02-26,9300.0
MAFPF1,2014-02-27,9400.0
MAFPF1,2014-02-28,9400.0
MAFPF1,2014-03-03,9400.0
MAFPF1,2014-03-04,9400.0
MAFPF1,2014-03-05,9400.0
MAFPF1,2014-03-06,9500.0
MAFPF1,2014-03-07,9400.0
MAFPF1,2014-03-10,9500.0
MAFPF1,2014-03-11,9500.0
MAFPF1,2014-03-12,9600.0
MAFPF1,2014-03-13,9600.0
MAFPF1,2014-03-14,9600.0
MAFPF1,2014-03-17,9700.0
MAFPF1,2014-03-18,9700.0
MAFPF1,2014-03-19,9800.0
MAFPF1,2014-03-20,9800.0
MAFPF1,2014-03-21,9800.0
MAFPF1,2014-03-24,10000.0
MAFPF1,2014-03-25,10100.0
MAFPF1,2014-03-26,10100.0
MAFPF1,2014-03-27,10000.0
MAFPF1,2014-03-28,10000.0
MAFPF1,2014-03-31,10000.0
MAFPF1,2014-04-01,10000.0
MAFPF1,2014-04-02,9900.0
MAFPF1,2014-04-03,9900.0
MAFPF1,2014-04-04,10000.0
MAFPF1,2014-04-07,10000.0
MAFPF1,2014-04-08,10100.0
MAFPF1,2014-04-10,10100.0
MAFPF1,2014-04-11,10100.0
MAFPF1,2014-04-14,10100.0
MAFPF1,2014-04-15,10100.0
MAFPF1,2014-04-16,10000.0
MAFPF1,2014-04-17,10000.0
MAFPF1,2014-04-18,10000.0
MAFPF1,2014-04-21,9900.0
MAFPF1,2014-04-22,9900.0
MAFPF1,2014-04-23,10100.0
MAFPF1,2014-04-24,10100.0
MAFPF1,2014-04-25,10200.0
MAFPF1,2014-04-28,10200.0
MAFPF1,2014-04-29,10200.0
MAFPF1,2014-05-05,9900.0
MAFPF1,2014-05-06,9900.0
MAFPF1,2014-05-07,10000.0
MAFPF1,2014-05-08,9800.0
MAFPF1,2014-05-09,9500.0
MAFPF1,2014-05-12,9400.0
MAFPF1,2014-05-13,9300.0
MAFPF1,2014-05-14,9100.0
MAFPF1,2014-05-15,9200.0
MAFPF1,2014-05-16,9300.0
MAFPF1,2014-05-19,9300.0
MAFPF1,2014-05-20,9300.0
MAFPF1,2014-05-21,9300.0
