NTL,2007-12-21,24100.0
NTL,2007-12-24,25300.0
NTL,2007-12-25,26500.0
NTL,2007-12-26,26400.0
NTL,2007-12-27,26400.0
NTL,2007-12-28,26300.0
NTL,2008-01-02,25700.0
NTL,2008-01-03,24800.0
NTL,2008-01-04,24800.0
NTL,2008-01-07,24100.0
NTL,2008-01-08,24300.0
NTL,2008-01-09,23800.0
NTL,2008-01-10,23100.0
NTL,2008-01-11,23200.0
NTL,2008-01-14,22600.0
NTL,2008-01-15,21800.0
NTL,2008-01-16,22900.0
NTL,2008-01-17,23000.0
NTL,2008-01-18,24100.0
NTL,2008-01-21,24400.0
NTL,2008-01-22,23800.0
NTL,2008-01-23,23100.0
NTL,2008-01-24,23400.0
NTL,2008-01-25,24400.0
NTL,2008-01-28,25500.0
NTL,2008-01-29,26700.0
NTL,2008-01-30,28000.0
NTL,2008-01-31,27500.0
NTL,2008-02-01,26800.0
NTL,2008-02-12,25600.0
NTL,2008-02-13,24900.0
NTL,2008-02-14,25100.0
NTL,2008-02-15,25100.0
NTL,2008-02-18,24600.0
NTL,2008-02-19,24400.0
NTL,2008-02-20,23200.0
NTL,2008-02-21,22100.0
NTL,2008-02-22,21000.0
NTL,2008-02-25,21800.0
NTL,2008-02-26,20700.0
NTL,2008-02-27,19700.0
NTL,2008-02-28,19600.0
NTL,2008-02-29,18700.0
NTL,2008-03-03,17800.0
NTL,2008-03-04,17000.0
NTL,2008-03-05,16200.0
NTL,2008-03-06,17000.0
NTL,2008-03-07,17800.0
NTL,2008-03-10,17500.0
NTL,2008-03-11,16700.0
NTL,2008-03-12,15900.0
NTL,2008-03-13,15200.0
NTL,2008-03-14,14600.0
NTL,2008-03-17,13800.0
NTL,2008-03-18,13200.0
NTL,2008-03-19,12600.0
NTL,2008-03-20,12000.0
NTL,2008-03-21,11400.0
NTL,2008-03-24,10900.0
NTL,2008-03-25,10400.0
NTL,2008-03-26,9900.0
NTL,2008-03-27,10000.0
NTL,2008-03-28,10100.0
NTL,2008-03-31,10200.0
NTL,2008-04-01,10300.0
NTL,2008-04-02,10400.0
NTL,2008-04-03,10400.0
NTL,2008-04-04,10500.0
NTL,2008-04-07,10700.0
NTL,2008-04-08,10500.0
NTL,2008-04-09,10400.0
NTL,2008-04-10,10200.0
NTL,2008-04-11,10000.0
NTL,2008-04-16,9800.0
NTL,2008-04-17,9600.0
NTL,2008-04-18,9500.0
NTL,2008-04-21,9300.0
NTL,2008-04-22,9100.0
NTL,2008-04-23,8900.0
NTL,2008-04-24,8800.0
NTL,2008-04-25,8600.0
NTL,2008-04-28,8500.0
NTL,2008-04-29,8400.0
NTL,2008-05-05,8200.0
NTL,2008-05-06,8100.0
NTL,2008-05-07,7900.0
NTL,2008-05-08,7800.0
NTL,2008-05-09,7700.0
NTL,2008-05-12,7500.0
NTL,2008-05-13,7400.0
NTL,2008-05-14,7300.0
NTL,2008-05-15,7100.0
NTL,2008-05-16,7000.0
NTL,2008-05-19,6900.0
NTL,2008-05-20,6800.0
NTL,2008-05-21,6600.0
NTL,2008-05-22,6500.0
NTL,2008-05-23,6400.0
NTL,2008-05-26,6300.0
NTL,2008-05-30,6100.0
NTL,2008-06-02,6000.0
NTL,2008-06-03,5900.0
NTL,2008-06-04,5800.0
NTL,2008-06-05,5700.0
NTL,2008-06-06,5600.0
NTL,2008-06-09,5500.0
NTL,2008-06-10,5400.0
NTL,2008-06-11,5300.0
NTL,2008-06-12,5200.0
NTL,2008-06-13,5100.0
NTL,2008-06-16,5200.0
NTL,2008-06-17,5300.0
NTL,2008-06-18,5200.0
NTL,2008-06-19,5000.0
NTL,2008-06-20,4900.0
NTL,2008-06-23,4800.0
NTL,2008-06-24,4600.0
NTL,2008-06-25,4800.0
NTL,2008-06-26,4600.0
NTL,2008-06-27,4500.0
NTL,2008-06-30,4600.0
NTL,2008-07-01,4800.0
NTL,2008-07-02,4900.0
NTL,2008-07-03,5000.0
NTL,2008-07-04,5200.0
NTL,2008-07-07,5000.0
NTL,2008-07-08,5100.0
NTL,2008-07-09,5300.0
NTL,2008-07-10,5400.0
NTL,2008-07-11,5600.0
NTL,2008-07-14,5700.0
NTL,2008-07-15,5900.0
NTL,2008-07-16,6100.0
NTL,2008-07-17,6200.0
NTL,2008-07-18,6400.0
NTL,2008-07-21,6200.0
NTL,2008-07-22,6100.0
NTL,2008-07-23,5900.0
NTL,2008-07-24,5700.0
NTL,2008-07-25,5600.0
NTL,2008-07-28,5800.0
NTL,2008-07-29,5900.0
NTL,2008-07-30,6100.0
NTL,2008-07-31,6300.0
NTL,2008-08-01,6400.0
NTL,2008-08-04,6600.0
NTL,2008-08-05,6400.0
NTL,2008-08-06,6600.0
NTL,2008-08-07,6800.0
NTL,2008-08-08,7000.0
NTL,2008-08-11,7200.0
NTL,2008-08-12,7400.0
NTL,2008-08-13,7600.0
NTL,2008-08-14,7800.0
NTL,2008-08-15,8100.0
NTL,2008-08-18,8400.0
NTL,2008-08-19,8900.0
NTL,2008-08-20,9300.0
NTL,2008-08-21,9700.0
NTL,2008-08-22,10200.0
NTL,2008-08-25,10600.0
NTL,2008-08-26,11100.0
NTL,2008-08-27,11600.0
NTL,2008-08-28,12100.0
NTL,2008-08-29,12700.0
NTL,2008-09-03,13300.0
NTL,2008-09-04,13900.0
NTL,2008-09-05,14600.0
NTL,2008-09-08,13800.0
NTL,2008-09-09,13200.0
NTL,2008-09-10,12600.0
NTL,2008-09-11,12000.0
NTL,2008-09-12,11400.0
NTL,2008-09-15,10900.0
NTL,2008-09-16,10400.0
NTL,2008-09-17,9900.0
NTL,2008-09-18,9500.0
NTL,2008-09-19,9900.0
NTL,2008-09-22,10400.0
NTL,2008-09-23,10700.0
NTL,2008-09-24,10400.0
NTL,2008-09-25,10500.0
NTL,2008-09-26,10400.0
NTL,2008-09-29,10200.0
NTL,2008-09-30,9700.0
NTL,2008-10-01,9300.0
NTL,2008-10-02,9100.0
NTL,2008-10-03,8700.0
NTL,2008-10-06,8300.0
NTL,2008-10-07,7900.0
NTL,2008-10-08,7500.0
NTL,2008-10-09,7100.0
NTL,2008-10-10,6800.0
NTL,2008-10-13,6400.0
NTL,2008-10-14,6800.0
NTL,2008-10-15,7100.0
NTL,2008-10-16,7400.0
NTL,2008-10-17,7800.0
NTL,2008-10-20,7400.0
NTL,2008-10-21,7700.0
NTL,2008-10-22,8000.0
NTL,2008-10-23,7600.0
NTL,2008-10-24,7300.0
NTL,2008-10-27,6900.0
NTL,2008-10-28,6600.0
NTL,2008-10-29,6900.0
NTL,2008-10-30,6600.0
NTL,2008-10-31,6400.0
NTL,2008-11-03,6500.0
NTL,2008-11-04,6800.0
NTL,2008-11-05,7200.0
NTL,2008-11-06,7500.0
NTL,2008-11-07,7100.0
NTL,2008-11-10,7500.0
NTL,2008-11-11,7100.0
NTL,2008-11-12,7000.0
NTL,2008-11-13,7000.0
NTL,2008-11-14,7000.0
NTL,2008-11-17,7100.0
NTL,2008-11-18,6800.0
NTL,2008-11-19,6800.0
NTL,2008-11-20,6500.0
NTL,2008-11-21,6600.0
NTL,2008-11-24,6300.0
NTL,2008-11-25,6500.0
NTL,2008-11-26,6400.0
NTL,2008-11-27,6100.0
NTL,2008-11-28,6400.0
NTL,2008-12-01,6500.0
NTL,2008-12-02,6200.0
NTL,2008-12-03,6000.0
NTL,2008-12-04,6300.0
NTL,2008-12-05,5900.0
NTL,2008-12-08,5700.0
NTL,2008-12-09,5400.0
NTL,2008-12-10,5100.0
NTL,2008-12-11,5400.0
NTL,2008-12-12,5700.0
NTL,2008-12-15,5900.0
NTL,2008-12-16,5800.0
NTL,2008-12-17,5800.0
NTL,2008-12-18,5800.0
NTL,2008-12-19,6100.0
NTL,2008-12-22,6400.0
NTL,2008-12-23,6100.0
NTL,2008-12-24,6100.0
NTL,2008-12-25,5900.0
NTL,2008-12-26,6000.0
NTL,2008-12-29,5900.0
NTL,2008-12-30,6000.0
NTL,2008-12-31,6000.0
NTL,2009-01-02,6000.0
NTL,2009-01-05,6300.0
NTL,2009-01-06,6600.0
NTL,2009-01-07,6700.0
NTL,2009-01-08,6600.0
NTL,2009-01-09,6600.0
NTL,2009-01-12,6600.0
NTL,2009-01-13,6400.0
NTL,2009-01-14,6400.0
NTL,2009-01-15,6200.0
NTL,2009-01-16,6300.0
NTL,2009-01-19,6300.0
NTL,2009-01-20,6200.0
NTL,2009-01-21,6100.0
NTL,2009-01-22,6200.0
NTL,2009-01-23,6100.0
NTL,2009-02-02,6000.0
NTL,2009-02-03,5700.0
NTL,2009-02-04,5400.0
NTL,2009-02-05,5200.0
NTL,2009-02-06,5400.0
NTL,2009-02-09,5700.0
NTL,2009-02-10,5800.0
NTL,2009-02-11,5700.0
NTL,2009-02-12,5600.0
NTL,2009-02-13,5500.0
NTL,2009-02-16,5400.0
NTL,2009-02-17,5200.0
NTL,2009-02-18,5200.0
NTL,2009-02-19,5300.0
NTL,2009-02-20,5100.0
NTL,2009-02-23,4900.0
NTL,2009-02-24,4700.0
NTL,2009-02-25,4900.0
NTL,2009-02-26,5100.0
NTL,2009-02-27,5200.0
NTL,2009-03-02,5200.0
NTL,2009-03-03,5000.0
NTL,2009-03-04,5000.0
NTL,2009-03-05,5200.0
NTL,2009-03-06,5200.0
NTL,2009-03-09,5200.0
NTL,2009-03-10,5200.0
NTL,2009-03-11,5300.0
NTL,2009-03-12,5200.0
NTL,2009-03-13,5300.0
NTL,2009-03-16,5300.0
NTL,2009-03-17,5500.0
NTL,2009-03-18,5800.0
NTL,2009-03-19,5500.0
NTL,2009-03-20,5500.0
NTL,2009-03-23,5300.0
NTL,2009-03-24,5600.0
NTL,2009-03-25,5800.0
NTL,2009-03-26,6100.0
NTL,2009-03-27,6300.0
NTL,2009-03-30,6300.0
NTL,2009-03-31,6000.0
NTL,2009-04-01,6100.0
NTL,2009-04-02,6400.0
NTL,2009-04-03,6600.0
NTL,2009-04-07,6900.0
NTL,2009-04-08,7000.0
NTL,2009-04-09,7100.0
NTL,2009-04-10,7400.0
NTL,2009-04-13,7800.0
NTL,2009-04-14,7700.0
NTL,2009-04-15,7300.0
NTL,2009-04-16,7000.0
NTL,2009-04-17,6700.0
NTL,2009-04-20,6400.0
NTL,2009-04-21,6100.0
NTL,2009-04-22,6300.0
NTL,2009-04-23,6100.0
NTL,2009-04-24,5900.0
NTL,2009-04-27,5900.0
NTL,2009-04-28,6200.0
NTL,2009-04-29,6300.0
NTL,2009-05-04,6700.0
NTL,2009-05-05,7000.0
NTL,2009-05-06,6700.0
NTL,2009-05-07,7000.0
NTL,2009-05-08,7000.0
NTL,2009-05-11,7100.0
NTL,2009-05-12,7400.0
NTL,2009-05-13,7400.0
NTL,2009-05-14,7400.0
NTL,2009-05-15,7700.0
NTL,2009-05-18,8100.0
NTL,2009-05-19,8500.0
NTL,2009-05-20,8900.0
NTL,2009-05-21,9400.0
NTL,2009-05-22,9000.0
NTL,2009-05-25,9400.0
NTL,2009-05-26,9800.0
NTL,2009-05-27,9600.0
NTL,2009-05-28,9100.0
NTL,2009-05-29,8700.0
NTL,2009-06-01,9100.0
NTL,2009-06-02,9500.0
NTL,2009-06-03,10000.0
NTL,2009-06-04,10500.0
NTL,2009-06-05,10900.0
NTL,2009-06-08,11400.0
NTL,2009-06-09,12000.0
NTL,2009-06-10,12500.0
NTL,2009-06-11,13100.0
NTL,2009-06-12,13700.0
NTL,2009-06-15,14300.0
NTL,2009-06-16,15000.0
NTL,2009-06-17,15700.0
NTL,2009-06-18,16400.0
NTL,2009-06-19,17200.0
NTL,2009-06-22,16300.0
NTL,2009-06-23,15600.0
NTL,2009-06-24,16200.0
NTL,2009-06-25,15400.0
NTL,2009-06-26,14600.0
NTL,2009-06-29,15200.0
NTL,2009-06-30,14400.0
NTL,2009-07-01,13800.0
NTL,2009-07-02,13300.0
NTL,2009-07-03,14000.0
NTL,2009-07-06,14600.0
NTL,2009-07-07,15300.0
NTL,2009-07-08,15300.0
NTL,2009-07-09,15000.0
NTL,2009-07-10,14300.0
NTL,2009-07-13,13900.0
NTL,2009-07-14,13600.0
NTL,2009-07-15,13900.0
NTL,2009-07-16,14100.0
NTL,2009-07-17,13700.0
NTL,2009-07-20,13000.0
NTL,2009-07-21,13000.0
NTL,2009-07-22,13200.0
NTL,2009-07-23,13800.0
NTL,2009-07-24,14400.0
NTL,2009-07-27,15100.0
NTL,2009-07-28,15600.0
NTL,2009-07-29,15200.0
NTL,2009-07-30,14800.0
NTL,2009-07-31,15400.0
NTL,2009-08-03,15300.0
NTL,2009-08-04,15400.0
NTL,2009-08-05,15700.0
NTL,2009-08-06,16200.0
NTL,2009-08-07,16200.0
NTL,2009-08-10,17000.0
NTL,2009-08-11,17800.0
NTL,2009-08-12,18600.0
NTL,2009-08-13,17800.0
NTL,2009-08-14,18600.0
NTL,2009-08-17,17800.0
NTL,2009-08-18,18000.0
NTL,2009-08-19,18500.0
NTL,2009-08-20,18300.0
NTL,2009-08-21,18100.0
NTL,2009-08-24,18000.0
NTL,2009-08-25,18100.0
NTL,2009-08-26,18000.0
NTL,2009-08-27,17900.0
NTL,2009-08-28,18100.0
NTL,2009-08-31,18200.0
NTL,2009-09-01,18000.0
NTL,2009-09-03,18800.0
NTL,2009-09-04,18800.0
NTL,2009-09-08,19200.0
NTL,2009-09-09,19000.0
NTL,2009-09-10,19800.0
NTL,2009-09-11,20700.0
NTL,2009-09-14,21700.0
NTL,2009-09-15,22600.0
NTL,2009-09-16,21700.0
NTL,2009-09-17,21700.0
NTL,2009-09-18,22600.0
NTL,2009-09-21,23600.0
NTL,2009-09-22,24700.0
NTL,2009-09-23,24300.0
NTL,2009-09-24,24500.0
NTL,2009-09-25,25700.0
NTL,2009-09-28,25100.0
NTL,2009-09-29,24900.0
NTL,2009-09-30,24300.0
NTL,2009-10-01,23600.0
NTL,2009-10-02,22800.0
NTL,2009-10-05,23900.0
NTL,2009-10-06,25100.0
NTL,2009-10-07,26200.0
NTL,2009-10-08,27200.0
NTL,2009-10-09,27000.0
NTL,2009-10-12,28300.0
NTL,2009-10-13,28500.0
NTL,2009-10-14,29100.0
NTL,2009-10-15,28500.0
NTL,2009-10-16,27200.0
NTL,2009-10-19,26600.0
NTL,2009-10-20,27700.0
NTL,2009-10-21,27400.0
NTL,2009-10-22,26800.0
NTL,2009-10-23,25700.0
NTL,2009-10-26,26000.0
NTL,2009-10-27,27000.0
NTL,2009-10-28,27600.0
NTL,2009-10-29,27000.0
NTL,2009-10-30,27000.0
NTL,2009-11-02,25700.0
NTL,2009-11-03,24500.0
NTL,2009-11-04,24500.0
NTL,2009-11-05,25700.0
NTL,2009-11-06,26400.0
NTL,2009-11-09,25800.0
NTL,2009-11-10,26800.0
NTL,2009-11-11,27900.0
NTL,2009-11-12,28900.0
NTL,2009-11-13,28700.0
NTL,2009-11-16,30000.0
NTL,2009-11-17,31400.0
NTL,2009-11-18,32500.0
NTL,2009-11-19,31900.0
NTL,2009-11-20,31400.0
NTL,2009-11-23,29800.0
NTL,2009-11-24,30000.0
NTL,2009-11-25,28700.0
NTL,2009-11-26,27400.0
NTL,2009-11-27,28100.0
NTL,2009-11-30,27900.0
NTL,2009-12-01,28700.0
NTL,2009-12-02,27300.0
NTL,2009-12-03,26900.0
NTL,2009-12-04,27700.0
NTL,2009-12-07,27700.0
NTL,2009-12-08,26900.0
NTL,2009-12-09,25800.0
NTL,2009-12-10,25600.0
NTL,2009-12-11,24600.0
NTL,2009-12-14,25800.0
NTL,2009-12-15,25400.0
NTL,2009-12-16,24200.0
NTL,2009-12-17,23100.0
NTL,2009-12-18,22700.0
NTL,2009-12-21,23700.0
NTL,2009-12-22,23800.0
NTL,2009-12-23,23500.0
NTL,2009-12-24,24000.0
NTL,2009-12-25,25200.0
NTL,2009-12-28,26400.0
NTL,2009-12-29,26000.0
NTL,2009-12-30,26900.0
NTL,2009-12-31,27500.0
NTL,2010-01-04,28900.0
NTL,2010-01-05,28700.0
NTL,2010-01-06,30100.0
NTL,2010-01-07,29700.0
NTL,2010-01-08,28300.0
NTL,2010-01-11,27100.0
NTL,2010-01-12,26000.0
NTL,2010-01-13,26800.0
NTL,2010-01-14,26600.0
NTL,2010-01-15,26600.0
NTL,2010-01-18,25400.0
NTL,2010-01-19,25600.0
NTL,2010-01-20,25200.0
NTL,2010-01-21,24400.0
NTL,2010-01-22,24400.0
NTL,2010-01-25,25200.0
NTL,2010-01-26,26400.0
NTL,2010-01-27,26400.0
NTL,2010-01-28,26000.0
NTL,2010-01-29,26000.0
NTL,2010-02-01,26000.0
NTL,2010-02-02,26000.0
NTL,2010-02-03,26600.0
NTL,2010-02-04,27100.0
NTL,2010-02-05,26600.0
NTL,2010-02-08,26600.0
NTL,2010-02-09,26200.0
NTL,2010-02-10,26600.0
NTL,2010-02-11,26600.0
NTL,2010-02-12,26800.0
NTL,2010-02-22,27300.0
NTL,2010-02-23,26600.0
NTL,2010-02-24,26600.0
NTL,2010-02-25,26600.0
NTL,2010-02-26,26800.0
NTL,2010-03-01,26800.0
NTL,2010-03-02,26800.0
NTL,2010-03-03,27100.0
NTL,2010-03-04,27300.0
NTL,2010-03-05,27700.0
NTL,2010-03-08,28300.0
NTL,2010-03-09,28500.0
NTL,2010-03-10,28500.0
NTL,2010-03-11,28700.0
NTL,2010-03-12,29500.0
NTL,2010-03-15,30800.0
NTL,2010-03-16,30200.0
NTL,2010-03-17,30400.0
NTL,2010-03-18,31000.0
NTL,2010-03-19,30800.0
NTL,2010-03-22,30400.0
NTL,2010-03-23,29900.0
NTL,2010-03-24,30200.0
NTL,2010-03-25,29300.0
NTL,2010-03-26,29700.0
NTL,2010-03-29,29700.0
NTL,2010-03-30,29100.0
NTL,2010-03-31,28500.0
NTL,2010-04-01,29100.0
NTL,2010-04-02,29100.0
NTL,2010-04-05,29500.0
NTL,2010-04-06,29300.0
NTL,2010-04-07,30200.0
NTL,2010-04-08,30400.0
NTL,2010-04-09,30600.0
NTL,2010-04-12,31400.0
NTL,2010-04-13,31800.0
NTL,2010-04-14,32000.0
NTL,2010-04-15,32800.0
NTL,2010-04-16,33200.0
NTL,2010-04-19,32400.0
NTL,2010-04-20,32000.0
NTL,2010-04-21,32600.0
NTL,2010-04-22,32400.0
NTL,2010-04-26,32600.0
NTL,2010-04-27,33200.0
NTL,2010-04-28,34300.0
NTL,2010-04-29,34100.0
NTL,2010-05-04,34300.0
NTL,2010-05-05,32800.0
NTL,2010-05-06,32200.0
NTL,2010-05-07,31400.0
NTL,2010-05-10,33000.0
NTL,2010-05-11,33000.0
NTL,2010-05-12,31800.0
NTL,2010-05-13,32400.0
NTL,2010-05-14,33200.0
NTL,2010-05-17,32400.0
NTL,2010-05-18,32400.0
NTL,2010-05-19,30800.0
NTL,2010-05-20,30800.0
NTL,2010-05-21,29500.0
NTL,2010-05-24,30100.0
NTL,2010-05-25,30100.0
NTL,2010-05-26,30400.0
NTL,2010-05-27,30200.0
NTL,2010-05-28,30600.0
NTL,2010-05-31,30100.0
NTL,2010-06-01,30100.0
NTL,2010-06-02,30400.0
NTL,2010-06-03,30600.0
NTL,2010-06-04,30200.0
NTL,2010-06-07,29700.0
NTL,2010-06-08,29900.0
NTL,2010-06-09,29900.0
NTL,2010-06-10,29900.0
NTL,2010-06-11,30600.0
NTL,2010-06-14,31400.0
NTL,2010-06-15,31200.0
NTL,2010-06-16,31200.0
NTL,2010-06-17,31200.0
NTL,2010-06-18,31400.0
NTL,2010-06-21,32400.0
NTL,2010-06-22,31800.0
NTL,2010-06-23,31600.0
NTL,2010-06-24,31600.0
NTL,2010-06-25,31200.0
NTL,2010-06-28,31200.0
NTL,2010-06-29,31000.0
NTL,2010-06-30,31000.0
NTL,2010-07-01,30800.0
NTL,2010-07-02,30600.0
NTL,2010-07-05,30600.0
NTL,2010-07-06,30200.0
NTL,2010-07-07,29900.0
NTL,2010-07-08,30200.0
NTL,2010-07-09,30200.0
NTL,2010-07-12,31600.0
NTL,2010-07-13,31600.0
NTL,2010-07-14,31200.0
NTL,2010-07-15,31000.0
NTL,2010-07-16,30800.0
NTL,2010-07-19,30600.0
NTL,2010-07-20,30400.0
NTL,2010-07-21,30400.0
NTL,2010-07-22,30200.0
NTL,2010-07-23,30200.0
NTL,2010-07-26,29900.0
NTL,2010-07-27,30100.0
NTL,2010-07-28,29900.0
NTL,2010-07-29,30100.0
NTL,2010-07-30,30100.0
NTL,2010-08-02,29900.0
NTL,2010-08-03,30100.0
NTL,2010-08-04,30100.0
NTL,2010-08-05,30100.0
NTL,2010-08-06,29700.0
NTL,2010-08-09,29100.0
NTL,2010-08-10,28300.0
NTL,2010-08-11,28300.0
NTL,2010-08-12,26900.0
NTL,2010-08-13,27100.0
NTL,2010-08-16,27500.0
NTL,2010-08-17,27100.0
NTL,2010-08-18,26200.0
NTL,2010-08-19,26000.0
NTL,2010-08-20,26000.0
NTL,2010-08-23,25000.0
NTL,2010-08-24,23800.0
NTL,2010-08-25,22700.0
NTL,2010-08-26,22900.0
NTL,2010-08-27,22700.0
NTL,2010-08-30,23700.0
NTL,2010-08-31,24800.0
NTL,2010-09-01,25800.0
NTL,2010-09-06,26900.0
NTL,2010-09-07,26900.0
NTL,2010-09-08,26800.0
NTL,2010-09-09,27300.0
NTL,2010-09-10,26000.0
NTL,2010-09-13,25400.0
NTL,2010-09-14,25800.0
NTL,2010-09-15,26000.0
NTL,2010-09-16,25600.0
NTL,2010-09-17,26600.0
NTL,2010-09-20,26800.0
NTL,2010-09-21,26000.0
NTL,2010-09-22,26200.0
NTL,2010-09-23,25800.0
NTL,2010-09-24,25400.0
NTL,2010-09-27,25800.0
NTL,2010-09-28,26000.0
NTL,2010-09-29,25400.0
NTL,2010-09-30,25600.0
NTL,2010-10-01,25400.0
NTL,2010-10-04,24800.0
NTL,2010-10-05,25200.0
NTL,2010-10-06,25800.0
NTL,2010-10-07,25600.0
NTL,2010-10-08,25200.0
NTL,2010-10-11,25200.0
NTL,2010-10-12,24800.0
NTL,2010-10-13,24600.0
NTL,2010-10-14,24600.0
NTL,2010-10-15,24600.0
NTL,2010-10-18,24600.0
NTL,2010-10-19,23800.0
NTL,2010-10-20,23100.0
NTL,2010-10-21,23100.0
NTL,2010-10-22,23500.0
NTL,2010-10-25,24600.0
NTL,2010-10-26,25400.0
NTL,2010-10-27,24600.0
NTL,2010-10-28,25000.0
NTL,2010-10-29,25600.0
NTL,2010-11-01,25000.0
NTL,2010-11-02,25000.0
NTL,2010-11-03,24400.0
NTL,2010-11-04,24800.0
NTL,2010-11-05,25400.0
NTL,2010-11-08,25400.0
NTL,2010-11-09,24800.0
NTL,2010-11-10,24800.0
NTL,2010-11-11,24400.0
NTL,2010-11-12,23700.0
NTL,2010-11-15,23500.0
NTL,2010-11-16,23500.0
NTL,2010-11-17,22900.0
NTL,2010-11-18,23800.0
NTL,2010-11-19,23800.0
NTL,2010-11-22,23800.0
NTL,2010-11-23,24200.0
NTL,2010-11-24,24400.0
NTL,2010-11-25,24400.0
NTL,2010-11-26,24000.0
NTL,2010-11-29,25000.0
NTL,2010-11-30,25200.0
NTL,2010-12-01,25600.0
NTL,2010-12-02,26400.0
NTL,2010-12-03,26800.0
NTL,2010-12-06,26800.0
NTL,2010-12-07,26400.0
NTL,2010-12-08,25600.0
NTL,2010-12-09,26600.0
NTL,2010-12-10,27500.0
NTL,2010-12-13,28700.0
NTL,2010-12-14,27900.0
NTL,2010-12-15,27900.0
NTL,2010-12-16,26800.0
NTL,2010-12-17,27100.0
NTL,2010-12-20,26800.0
NTL,2010-12-21,27800.0
NTL,2010-12-22,27000.0
NTL,2010-12-23,26100.0
NTL,2010-12-24,26100.0
NTL,2010-12-27,26100.0
NTL,2010-12-28,25900.0
NTL,2010-12-29,25900.0
NTL,2010-12-30,25500.0
NTL,2010-12-31,25900.0
NTL,2011-01-04,26100.0
NTL,2011-01-05,25900.0
NTL,2011-01-06,25900.0
NTL,2011-01-07,25900.0
NTL,2011-01-10,25900.0
NTL,2011-01-11,24900.0
NTL,2011-01-12,24900.0
NTL,2011-01-13,25300.0
NTL,2011-01-14,26100.0
NTL,2011-01-17,25900.0
NTL,2011-01-18,25900.0
NTL,2011-01-19,25900.0
NTL,2011-01-20,25700.0
NTL,2011-01-21,26400.0
NTL,2011-01-24,26400.0
NTL,2011-01-25,26100.0
NTL,2011-01-26,26600.0
NTL,2011-01-27,26800.0
NTL,2011-01-28,27000.0
NTL,2011-02-08,28200.0
NTL,2011-02-09,28000.0
NTL,2011-02-10,27400.0
NTL,2011-02-11,27600.0
NTL,2011-02-14,27200.0
NTL,2011-02-15,28000.0
NTL,2011-02-16,27400.0
NTL,2011-02-17,27200.0
NTL,2011-02-18,26600.0
NTL,2011-02-21,25300.0
NTL,2011-02-22,24100.0
NTL,2011-02-23,24300.0
NTL,2011-02-24,23100.0
NTL,2011-02-25,23700.0
NTL,2011-02-28,23100.0
NTL,2011-03-01,23300.0
NTL,2011-03-02,22300.0
NTL,2011-03-03,22300.0
NTL,2011-03-04,22300.0
NTL,2011-03-07,22300.0
NTL,2011-03-08,22300.0
NTL,2011-03-09,22500.0
NTL,2011-03-10,23500.0
NTL,2011-03-11,24500.0
NTL,2011-03-14,23300.0
NTL,2011-03-15,24300.0
NTL,2011-03-16,24700.0
NTL,2011-03-17,24500.0
NTL,2011-03-18,24500.0
NTL,2011-03-21,24300.0
NTL,2011-03-22,23100.0
NTL,2011-03-23,23900.0
NTL,2011-03-24,23500.0
NTL,2011-03-25,23700.0
NTL,2011-03-28,23900.0
NTL,2011-03-29,23700.0
NTL,2011-03-30,23300.0
NTL,2011-03-31,23100.0
NTL,2011-04-01,23300.0
NTL,2011-04-04,23300.0
NTL,2011-04-05,22900.0
NTL,2011-04-06,23500.0
NTL,2011-04-07,23300.0
NTL,2011-04-08,23300.0
NTL,2011-04-13,23100.0
NTL,2011-04-14,22500.0
NTL,2011-04-15,22500.0
NTL,2011-04-18,22100.0
NTL,2011-04-19,21300.0
NTL,2011-04-20,21500.0
NTL,2011-04-21,20900.0
NTL,2011-04-22,19900.0
NTL,2011-04-25,20700.0
NTL,2011-04-26,20300.0
NTL,2011-04-27,19900.0
NTL,2011-04-28,19500.0
NTL,2011-04-29,20100.0
NTL,2011-05-04,20100.0
NTL,2011-05-05,20200.0
NTL,2011-05-06,20500.0
NTL,2011-05-09,20700.0
NTL,2011-05-10,21500.0
NTL,2011-05-11,21300.0
NTL,2011-05-12,21100.0
NTL,2011-05-13,20500.0
NTL,2011-05-16,19900.0
NTL,2011-05-17,19100.0
NTL,2011-05-18,18100.0
NTL,2011-05-19,19000.0
NTL,2011-05-20,19100.0
NTL,2011-05-23,18200.0
NTL,2011-05-24,17400.0
NTL,2011-05-25,16500.0
NTL,2011-05-26,17300.0
NTL,2011-05-27,18000.0
NTL,2011-05-30,18700.0
NTL,2011-05-31,17800.0
NTL,2011-06-01,18700.0
NTL,2011-06-02,19600.0
NTL,2011-06-03,19900.0
NTL,2011-06-06,19900.0
NTL,2011-06-07,20800.0
NTL,2011-06-08,21100.0
NTL,2011-06-09,21000.0
NTL,2011-06-10,21200.0
NTL,2011-06-13,21100.0
NTL,2011-06-14,20300.0
NTL,2011-06-15,19300.0
NTL,2011-06-16,19900.0
NTL,2011-06-17,19800.0
NTL,2011-06-20,19300.0
NTL,2011-06-21,19900.0
NTL,2011-06-22,20100.0
NTL,2011-06-23,19900.0
NTL,2011-06-24,19500.0
NTL,2011-06-27,19400.0
NTL,2011-06-28,19300.0
NTL,2011-06-29,18600.0
NTL,2011-06-30,18200.0
NTL,2011-07-01,17600.0
NTL,2011-07-04,17400.0
NTL,2011-07-05,17600.0
NTL,2011-07-06,17600.0
NTL,2011-07-07,17600.0
NTL,2011-07-08,17400.0
NTL,2011-07-11,17400.0
NTL,2011-07-12,16900.0
NTL,2011-07-13,16900.0
NTL,2011-07-14,16900.0
NTL,2011-07-15,16900.0
NTL,2011-07-18,16500.0
NTL,2011-07-19,16500.0
NTL,2011-07-20,17300.0
NTL,2011-07-21,16700.0
NTL,2011-07-22,16200.0
NTL,2011-07-25,16100.0
NTL,2011-07-26,16000.0
NTL,2011-07-27,15900.0
NTL,2011-07-28,15600.0
NTL,2011-07-29,15000.0
NTL,2011-08-01,14300.0
NTL,2011-08-02,13600.0
NTL,2011-08-03,13600.0
NTL,2011-08-04,14300.0
NTL,2011-08-05,14700.0
NTL,2011-08-08,14300.0
NTL,2011-08-09,13700.0
NTL,2011-08-10,14000.0
NTL,2011-08-11,14000.0
NTL,2011-08-12,14200.0
NTL,2011-08-15,14200.0
NTL,2011-08-16,14400.0
NTL,2011-08-17,15000.0
NTL,2011-08-18,15700.0
NTL,2011-08-19,16100.0
NTL,2011-08-22,16800.0
NTL,2011-08-23,17400.0
NTL,2011-08-24,16600.0
NTL,2011-08-25,16800.0
NTL,2011-08-26,16900.0
NTL,2011-08-29,17800.0
NTL,2011-08-30,18600.0
NTL,2011-08-31,18800.0
NTL,2011-09-01,18800.0
NTL,2011-09-05,18000.0
NTL,2011-09-06,17100.0
NTL,2011-09-07,17900.0
NTL,2011-09-08,18000.0
NTL,2011-09-09,18200.0
NTL,2011-09-12,18000.0
NTL,2011-09-13,18900.0
NTL,2011-09-14,19800.0
NTL,2011-09-15,20300.0
NTL,2011-09-16,19300.0
NTL,2011-09-19,19400.0
NTL,2011-09-20,18600.0
NTL,2011-09-21,17900.0
NTL,2011-09-22,18400.0
NTL,2011-09-23,17900.0
NTL,2011-09-26,17700.0
NTL,2011-09-27,17500.0
NTL,2011-09-28,17600.0
NTL,2011-09-29,16900.0
NTL,2011-09-30,16800.0
NTL,2011-10-03,16100.0
NTL,2011-10-04,15500.0
NTL,2011-10-05,15800.0
NTL,2011-10-06,16200.0
NTL,2011-10-07,16200.0
NTL,2011-10-10,16100.0
NTL,2011-10-11,16200.0
NTL,2011-10-12,15800.0
NTL,2011-10-13,15800.0
NTL,2011-10-14,15600.0
NTL,2011-10-17,15600.0
NTL,2011-10-18,15400.0
NTL,2011-10-19,15400.0
NTL,2011-10-20,15400.0
NTL,2011-10-21,15800.0
NTL,2011-10-24,15600.0
NTL,2011-10-25,15000.0
NTL,2011-10-26,15100.0
NTL,2011-10-27,15800.0
NTL,2011-10-28,16500.0
NTL,2011-10-31,16100.0
NTL,2011-11-01,16500.0
NTL,2011-11-02,16200.0
NTL,2011-11-03,16200.0
NTL,2011-11-04,16100.0
NTL,2011-11-07,15500.0
NTL,2011-11-08,15400.0
NTL,2011-11-09,15600.0
NTL,2011-11-10,15200.0
NTL,2011-11-11,14700.0
NTL,2011-11-14,14000.0
NTL,2011-11-15,13400.0
NTL,2011-11-16,13900.0
NTL,2011-11-17,13400.0
NTL,2011-11-18,13100.0
NTL,2011-11-21,13000.0
NTL,2011-11-22,13000.0
NTL,2011-11-23,13100.0
NTL,2011-11-24,13200.0
NTL,2011-11-25,13500.0
NTL,2011-11-28,13900.0
NTL,2011-11-29,13600.0
NTL,2011-11-30,13100.0
NTL,2011-12-01,13500.0
NTL,2011-12-02,13900.0
NTL,2011-12-05,14600.0
NTL,2011-12-06,14600.0
NTL,2011-12-07,14800.0
NTL,2011-12-08,15200.0
NTL,2011-12-09,14400.0
NTL,2011-12-12,13800.0
NTL,2011-12-13,13600.0
NTL,2011-12-14,12900.0
NTL,2011-12-15,12600.0
NTL,2011-12-16,13200.0
NTL,2011-12-19,12900.0
NTL,2011-12-20,12500.0
NTL,2011-12-21,12700.0
NTL,2011-12-22,12200.0
NTL,2011-12-23,12000.0
NTL,2011-12-26,11400.0
NTL,2011-12-27,10900.0
NTL,2011-12-28,11400.0
NTL,2011-12-29,11400.0
NTL,2011-12-30,11900.0
NTL,2012-01-03,11800.0
NTL,2012-01-04,11800.0
NTL,2012-01-05,11200.0
NTL,2012-01-06,10700.0
NTL,2012-01-09,10400.0
NTL,2012-01-10,10900.0
NTL,2012-01-11,10700.0
NTL,2012-01-12,10800.0
NTL,2012-01-13,11200.0
NTL,2012-01-16,11800.0
NTL,2012-01-17,11600.0
NTL,2012-01-18,11400.0
NTL,2012-01-19,12000.0
NTL,2012-01-20,12300.0
NTL,2012-01-30,12100.0
NTL,2012-01-31,11900.0
NTL,2012-02-01,12400.0
NTL,2012-02-02,13000.0
NTL,2012-02-03,12700.0
NTL,2012-02-06,12500.0
NTL,2012-02-07,12700.0
NTL,2012-02-08,13100.0
NTL,2012-02-09,12800.0
NTL,2012-02-10,12400.0
NTL,2012-02-13,12400.0
NTL,2012-02-14,12700.0
NTL,2012-02-15,12300.0
NTL,2012-02-16,12400.0
NTL,2012-02-17,12600.0
NTL,2012-02-20,13200.0
NTL,2012-02-21,13100.0
NTL,2012-02-22,13800.0
NTL,2012-02-23,14400.0
NTL,2012-02-24,14500.0
NTL,2012-02-27,15200.0
NTL,2012-02-28,14400.0
NTL,2012-02-29,14100.0
NTL,2012-03-01,14000.0
NTL,2012-03-02,14700.0
NTL,2012-03-05,15300.0
NTL,2012-03-06,16100.0
NTL,2012-03-07,16800.0
NTL,2012-03-08,17200.0
NTL,2012-03-09,17900.0
NTL,2012-03-12,17000.0
NTL,2012-03-13,16400.0
NTL,2012-03-14,15600.0
NTL,2012-03-15,16400.0
NTL,2012-03-16,15600.0
NTL,2012-03-19,15700.0
NTL,2012-03-20,16200.0
NTL,2012-03-21,16500.0
NTL,2012-03-22,16800.0
NTL,2012-03-23,17600.0
NTL,2012-03-26,17300.0
NTL,2012-03-27,16500.0
NTL,2012-03-28,16100.0
NTL,2012-03-29,15300.0
NTL,2012-03-30,16100.0
NTL,2012-04-03,16800.0
NTL,2012-04-04,16100.0
NTL,2012-04-05,16400.0
NTL,2012-04-06,17100.0
NTL,2012-04-09,18000.0
NTL,2012-04-10,17800.0
NTL,2012-04-11,18600.0
NTL,2012-04-12,19500.0
NTL,2012-04-13,20400.0
NTL,2012-04-16,21300.0
NTL,2012-04-17,22400.0
NTL,2012-04-18,23400.0
NTL,2012-04-19,22300.0
NTL,2012-04-20,21300.0
NTL,2012-04-23,22400.0
NTL,2012-04-24,23400.0
NTL,2012-04-25,24500.0
NTL,2012-04-26,24100.0
NTL,2012-04-27,24600.0
NTL,2012-05-02,23400.0
NTL,2012-05-03,23500.0
NTL,2012-05-04,24200.0
NTL,2012-05-07,24100.0
NTL,2012-05-08,23700.0
NTL,2012-05-09,24800.0
NTL,2012-05-10,26000.0
NTL,2012-05-11,25100.0
NTL,2012-05-14,23900.0
NTL,2012-05-15,22700.0
NTL,2012-05-16,22100.0
NTL,2012-05-17,21200.0
NTL,2012-05-18,20400.0
NTL,2012-05-21,21300.0
NTL,2012-05-22,21900.0
NTL,2012-05-23,20900.0
NTL,2012-05-24,20100.0
NTL,2012-05-25,21100.0
NTL,2012-05-28,22000.0
NTL,2012-05-29,21800.0
NTL,2012-05-30,22200.0
NTL,2012-05-31,21500.0
NTL,2012-06-01,21500.0
NTL,2012-06-04,20600.0
NTL,2012-06-05,21200.0
NTL,2012-06-06,22100.0
NTL,2012-06-07,22800.0
NTL,2012-06-08,22100.0
NTL,2012-06-11,22100.0
NTL,2012-06-12,21600.0
NTL,2012-06-13,21400.0
NTL,2012-06-14,21300.0
NTL,2012-06-15,22400.0
NTL,2012-06-18,22600.0
NTL,2012-06-19,21700.0
NTL,2012-06-20,22000.0
NTL,2012-06-21,21600.0
NTL,2012-06-22,21200.0
NTL,2012-06-25,20200.0
NTL,2012-06-26,19400.0
NTL,2012-06-27,18700.0
NTL,2012-06-28,18600.0
NTL,2012-06-29,19500.0
NTL,2012-07-02,18700.0
NTL,2012-07-03,17800.0
NTL,2012-07-04,17900.0
NTL,2012-07-05,18500.0
NTL,2012-07-06,19100.0
NTL,2012-07-09,18200.0
NTL,2012-07-10,18200.0
NTL,2012-07-11,18500.0
NTL,2012-07-12,18700.0
NTL,2012-07-13,19700.0
NTL,2012-07-16,19600.0
NTL,2012-07-17,20300.0
NTL,2012-07-18,20400.0
NTL,2012-07-19,21200.0
NTL,2012-07-20,21000.0
NTL,2012-07-23,20100.0
NTL,2012-07-24,19500.0
NTL,2012-07-25,19100.0
NTL,2012-07-26,19200.0
NTL,2012-07-27,18700.0
NTL,2012-07-30,18300.0
NTL,2012-07-31,18500.0
NTL,2012-08-01,18300.0
NTL,2012-08-02,18300.0
NTL,2012-08-03,18200.0
NTL,2012-08-06,18800.0
NTL,2012-08-07,18700.0
NTL,2012-08-08,18900.0
NTL,2012-08-09,19100.0
NTL,2012-08-10,18700.0
NTL,2012-08-13,18400.0
NTL,2012-08-14,18700.0
NTL,2012-08-15,18700.0
NTL,2012-08-16,18400.0
NTL,2012-08-17,18700.0
NTL,2012-08-20,19700.0
NTL,2012-08-21,18700.0
NTL,2012-08-22,17800.0
NTL,2012-08-23,16900.0
NTL,2012-08-24,16900.0
NTL,2012-08-27,16100.0
NTL,2012-08-28,15300.0
NTL,2012-08-29,16100.0
NTL,2012-08-30,16100.0
NTL,2012-08-31,15900.0
NTL,2012-09-04,15900.0
NTL,2012-09-05,15300.0
NTL,2012-09-06,15000.0
NTL,2012-09-07,14900.0
NTL,2012-09-10,14200.0
NTL,2012-09-11,13600.0
NTL,2012-09-12,13600.0
NTL,2012-09-13,14200.0
NTL,2012-09-14,14900.0
NTL,2012-09-17,14300.0
NTL,2012-09-18,13700.0
NTL,2012-09-19,13700.0
NTL,2012-09-20,13100.0
NTL,2012-09-21,13400.0
NTL,2012-09-24,12900.0
NTL,2012-09-25,12900.0
NTL,2012-09-26,13200.0
NTL,2012-09-27,12900.0
NTL,2012-09-28,12900.0
NTL,2012-10-01,12400.0
NTL,2012-10-02,12300.0
NTL,2012-10-03,12400.0
NTL,2012-10-04,12400.0
NTL,2012-10-05,12900.0
NTL,2012-10-08,13500.0
NTL,2012-10-09,13900.0
NTL,2012-10-10,14000.0
NTL,2012-10-11,14000.0
NTL,2012-10-12,13800.0
NTL,2012-10-15,13400.0
NTL,2012-10-16,14000.0
NTL,2012-10-17,14300.0
NTL,2012-10-18,14200.0
NTL,2012-10-19,13600.0
NTL,2012-10-22,13300.0
NTL,2012-10-23,13500.0
NTL,2012-10-24,13300.0
NTL,2012-10-25,13100.0
NTL,2012-10-26,13300.0
NTL,2012-10-29,13200.0
NTL,2012-10-30,13400.0
NTL,2012-10-31,13300.0
NTL,2012-11-01,13100.0
NTL,2012-11-02,12400.0
NTL,2012-11-05,12400.0
NTL,2012-11-06,12400.0
NTL,2012-11-07,12700.0
NTL,2012-11-08,13000.0
NTL,2012-11-09,12900.0
NTL,2012-11-12,13500.0
NTL,2012-11-13,13900.0
NTL,2012-11-14,13600.0
NTL,2012-11-15,13500.0
NTL,2012-11-16,13400.0
NTL,2012-11-19,13300.0
NTL,2012-11-20,13600.0
NTL,2012-11-21,13400.0
NTL,2012-11-22,13400.0
NTL,2012-11-23,13400.0
NTL,2012-11-26,13000.0
NTL,2012-11-27,12700.0
NTL,2012-11-28,12800.0
NTL,2012-11-29,12900.0
NTL,2012-11-30,12800.0
NTL,2012-12-03,13100.0
NTL,2012-12-04,13100.0
NTL,2012-12-05,13100.0
NTL,2012-12-06,13100.0
NTL,2012-12-07,12900.0
NTL,2012-12-10,13200.0
NTL,2012-12-11,13600.0
NTL,2012-12-12,13800.0
NTL,2012-12-13,13700.0
NTL,2012-12-14,13900.0
NTL,2012-12-17,13900.0
NTL,2012-12-18,13700.0
NTL,2012-12-19,14300.0
NTL,2012-12-20,14700.0
NTL,2012-12-21,14400.0
NTL,2012-12-24,14500.0
NTL,2012-12-25,14400.0
NTL,2012-12-26,14700.0
NTL,2012-12-27,14700.0
NTL,2012-12-28,15200.0
NTL,2013-01-02,15700.0
NTL,2013-01-03,15100.0
NTL,2013-01-04,15200.0
NTL,2013-01-07,15400.0
NTL,2013-01-08,15500.0
NTL,2013-01-09,15200.0
NTL,2013-01-10,15500.0
NTL,2013-01-11,15500.0
NTL,2013-01-14,15300.0
NTL,2013-01-15,15600.0
NTL,2013-01-16,16700.0
NTL,2013-01-17,15800.0
NTL,2013-01-18,15700.0
NTL,2013-01-21,15300.0
NTL,2013-01-22,14700.0
NTL,2013-01-23,14700.0
NTL,2013-01-24,15000.0
NTL,2013-01-25,15800.0
NTL,2013-01-28,15800.0
NTL,2013-01-29,15600.0
NTL,2013-01-30,15700.0
NTL,2013-01-31,15400.0
NTL,2013-02-01,15300.0
NTL,2013-02-04,15500.0
NTL,2013-02-05,15300.0
NTL,2013-02-06,15700.0
NTL,2013-02-07,16800.0
NTL,2013-02-08,17100.0
NTL,2013-02-18,17300.0
NTL,2013-02-19,16800.0
NTL,2013-02-20,17000.0
NTL,2013-02-21,15900.0
NTL,2013-02-22,15200.0
NTL,2013-02-25,15400.0
NTL,2013-02-26,14500.0
NTL,2013-02-27,14900.0
NTL,2013-02-28,15000.0
NTL,2013-03-01,14900.0
NTL,2013-03-04,14100.0
NTL,2013-03-05,14000.0
NTL,2013-03-06,14100.0
NTL,2013-03-07,14000.0
NTL,2013-03-08,14200.0
NTL,2013-03-11,14700.0
NTL,2013-03-12,14500.0
NTL,2013-03-13,14700.0
NTL,2013-03-14,15000.0
NTL,2013-03-15,15400.0
NTL,2013-03-18,15000.0
NTL,2013-03-19,14700.0
NTL,2013-03-20,15000.0
NTL,2013-03-21,14700.0
NTL,2013-03-22,14400.0
NTL,2013-03-25,14500.0
NTL,2013-03-26,14500.0
NTL,2013-03-27,14500.0
NTL,2013-03-28,14300.0
NTL,2013-03-29,14200.0
NTL,2013-04-01,14300.0
NTL,2013-04-02,14500.0
NTL,2013-04-03,14200.0
NTL,2013-04-04,14200.0
NTL,2013-04-05,14200.0
NTL,2013-04-08,14000.0
NTL,2013-04-09,14100.0
NTL,2013-04-10,13600.0
NTL,2013-04-11,13600.0
NTL,2013-04-12,13000.0
NTL,2013-04-15,12400.0
NTL,2013-04-16,12400.0
NTL,2013-04-17,12500.0
NTL,2013-04-18,12200.0
NTL,2013-04-22,11600.0
NTL,2013-04-23,11600.0
NTL,2013-04-24,11600.0
NTL,2013-04-25,12100.0
NTL,2013-04-26,11800.0
NTL,2013-05-02,11900.0
NTL,2013-05-03,11900.0
NTL,2013-05-06,12600.0
NTL,2013-05-07,12400.0
NTL,2013-05-08,12400.0
NTL,2013-05-09,13100.0
NTL,2013-05-10,13000.0
NTL,2013-05-13,13100.0
NTL,2013-05-14,12500.0
NTL,2013-05-15,12900.0
NTL,2013-05-16,12900.0
NTL,2013-05-17,12800.0
NTL,2013-05-20,13100.0
NTL,2013-05-21,13100.0
NTL,2013-05-22,13300.0
NTL,2013-05-23,13200.0
NTL,2013-05-24,13300.0
NTL,2013-05-27,14100.0
NTL,2013-05-28,14100.0
NTL,2013-05-29,13900.0
NTL,2013-05-30,14000.0
NTL,2013-05-31,14400.0
NTL,2013-06-03,13900.0
NTL,2013-06-04,13800.0
NTL,2013-06-05,13900.0
NTL,2013-06-06,13900.0
NTL,2013-06-07,13900.0
NTL,2013-06-10,13400.0
NTL,2013-06-11,13600.0
NTL,2013-06-12,13600.0
NTL,2013-06-13,13200.0
NTL,2013-06-14,13300.0
NTL,2013-06-17,13100.0
NTL,2013-06-18,13100.0
NTL,2013-06-19,13200.0
NTL,2013-06-20,13100.0
NTL,2013-06-21,12400.0
NTL,2013-06-24,13000.0
NTL,2013-06-25,12600.0
NTL,2013-06-26,12400.0
NTL,2013-06-27,12600.0
NTL,2013-06-28,12400.0
NTL,2013-07-01,12400.0
NTL,2013-07-02,12600.0
NTL,2013-07-03,12400.0
NTL,2013-07-04,12200.0
NTL,2013-07-05,12100.0
NTL,2013-07-08,11900.0
NTL,2013-07-09,11800.0
NTL,2013-07-10,11800.0
NTL,2013-07-11,11900.0
NTL,2013-07-12,12400.0
NTL,2013-07-15,12200.0
NTL,2013-07-16,12200.0
NTL,2013-07-17,12300.0
NTL,2013-07-18,12100.0
NTL,2013-07-19,12000.0
NTL,2013-07-22,12200.0
NTL,2013-07-23,12100.0
NTL,2013-07-24,11900.0
NTL,2013-07-25,11600.0
NTL,2013-07-26,11500.0
NTL,2013-07-29,11000.0
NTL,2013-07-30,11100.0
NTL,2013-07-31,11000.0
NTL,2013-08-01,11000.0
NTL,2013-08-02,11300.0
NTL,2013-08-05,11300.0
NTL,2013-08-06,11400.0
NTL,2013-08-07,11500.0
NTL,2013-08-08,11400.0
NTL,2013-08-09,11400.0
NTL,2013-08-12,11200.0
NTL,2013-08-13,10900.0
NTL,2013-08-14,11100.0
NTL,2013-08-15,11300.0
NTL,2013-08-16,11500.0
NTL,2013-08-19,11500.0
NTL,2013-08-20,11700.0
NTL,2013-08-21,11400.0
NTL,2013-08-22,11200.0
NTL,2013-08-23,11100.0
NTL,2013-08-26,11100.0
NTL,2013-08-27,11000.0
NTL,2013-08-28,10700.0
NTL,2013-08-29,10600.0
NTL,2013-08-30,10600.0
NTL,2013-09-03,10600.0
NTL,2013-09-04,10300.0
NTL,2013-09-05,10700.0
NTL,2013-09-06,10600.0
NTL,2013-09-09,10400.0
NTL,2013-09-10,10500.0
NTL,2013-09-11,10600.0
NTL,2013-09-12,10600.0
NTL,2013-09-13,10600.0
NTL,2013-09-16,10500.0
NTL,2013-09-17,10400.0
NTL,2013-09-18,10400.0
NTL,2013-09-19,10400.0
NTL,2013-09-20,10300.0
NTL,2013-09-23,10700.0
NTL,2013-09-24,10600.0
NTL,2013-09-25,11200.0
NTL,2013-09-26,11800.0
NTL,2013-09-27,11600.0
NTL,2013-09-30,12100.0
NTL,2013-10-01,11800.0
NTL,2013-10-02,11900.0
NTL,2013-10-03,12100.0
NTL,2013-10-04,12400.0
NTL,2013-10-07,12400.0
NTL,2013-10-08,12300.0
NTL,2013-10-09,12200.0
NTL,2013-10-10,11700.0
NTL,2013-10-11,11700.0
NTL,2013-10-14,11900.0
NTL,2013-10-15,12100.0
NTL,2013-10-16,12300.0
NTL,2013-10-17,12300.0
NTL,2013-10-18,12800.0
NTL,2013-10-21,12600.0
NTL,2013-10-22,12400.0
NTL,2013-10-23,12400.0
NTL,2013-10-24,12300.0
NTL,2013-10-25,12500.0
NTL,2013-10-28,12600.0
NTL,2013-10-29,12800.0
NTL,2013-10-30,12700.0
NTL,2013-10-31,12700.0
NTL,2013-11-01,12800.0
NTL,2013-11-04,13200.0
NTL,2013-11-05,13300.0
NTL,2013-11-06,13300.0
NTL,2013-11-07,13600.0
NTL,2013-11-08,13800.0
NTL,2013-11-11,14200.0
NTL,2013-11-12,13800.0
NTL,2013-11-13,13700.0
NTL,2013-11-14,13900.0
NTL,2013-11-15,13900.0
NTL,2013-11-18,14000.0
NTL,2013-11-19,13900.0
NTL,2013-11-20,14000.0
NTL,2013-11-21,13700.0
NTL,2013-11-22,13600.0
NTL,2013-11-25,13400.0
NTL,2013-11-26,13400.0
NTL,2013-11-27,13400.0
NTL,2013-11-28,13500.0
NTL,2013-11-29,13900.0
NTL,2013-12-02,13900.0
NTL,2013-12-03,13900.0
NTL,2013-12-04,14700.0
NTL,2013-12-05,14600.0
NTL,2013-12-06,14800.0
NTL,2013-12-09,14600.0
NTL,2013-12-10,14500.0
NTL,2013-12-11,14100.0
NTL,2013-12-12,14400.0
NTL,2013-12-13,14600.0
NTL,2013-12-16,14700.0
NTL,2013-12-17,14600.0
NTL,2013-12-18,14300.0
NTL,2013-12-19,14500.0
NTL,2013-12-20,14500.0
NTL,2013-12-23,14900.0
NTL,2013-12-24,14800.0
NTL,2013-12-25,14600.0
NTL,2013-12-26,14500.0
NTL,2013-12-27,14400.0
NTL,2013-12-30,13800.0
NTL,2013-12-31,14200.0
NTL,2014-01-02,14000.0
NTL,2014-01-03,13900.0
NTL,2014-01-06,14100.0
NTL,2014-01-07,14100.0
NTL,2014-01-08,14200.0
NTL,2014-01-09,14300.0
NTL,2014-01-10,14400.0
NTL,2014-01-13,14300.0
NTL,2014-01-14,14300.0
NTL,2014-01-15,14400.0
NTL,2014-01-16,14400.0
NTL,2014-01-17,14200.0
NTL,2014-01-20,14200.0
NTL,2014-01-21,14600.0
NTL,2014-01-22,14500.0
NTL,2014-01-23,14700.0
NTL,2014-01-24,15000.0
NTL,2014-01-27,15300.0
NTL,2014-02-06,15800.0
NTL,2014-02-07,15500.0
NTL,2014-02-10,16500.0
NTL,2014-02-11,16000.0
NTL,2014-02-12,16500.0
NTL,2014-02-13,16500.0
NTL,2014-02-14,17300.0
NTL,2014-02-17,17700.0
NTL,2014-02-18,17900.0
NTL,2014-02-19,18200.0
NTL,2014-02-20,17100.0
NTL,2014-02-21,17200.0
NTL,2014-02-24,17900.0
NTL,2014-02-25,18300.0
NTL,2014-02-26,18400.0
NTL,2014-02-27,17800.0
NTL,2014-02-28,17700.0
NTL,2014-03-03,16900.0
NTL,2014-03-04,16900.0
NTL,2014-03-05,17100.0
NTL,2014-03-06,17400.0
NTL,2014-03-07,17800.0
NTL,2014-03-10,17700.0
NTL,2014-03-11,17700.0
NTL,2014-03-12,17400.0
NTL,2014-03-13,17500.0
NTL,2014-03-14,17300.0
NTL,2014-03-17,17500.0
NTL,2014-03-18,17500.0
NTL,2014-03-19,18700.0
NTL,2014-03-20,18800.0
NTL,2014-03-21,18700.0
NTL,2014-03-24,19100.0
NTL,2014-03-25,18400.0
NTL,2014-03-26,18500.0
NTL,2014-03-27,19300.0
NTL,2014-03-28,19400.0
NTL,2014-03-31,18700.0
NTL,2014-04-01,17800.0
NTL,2014-04-02,17700.0
NTL,2014-04-03,18000.0
NTL,2014-04-04,17900.0
NTL,2014-04-07,17900.0
NTL,2014-04-08,18100.0
NTL,2014-04-10,18200.0
NTL,2014-04-11,18100.0
NTL,2014-04-14,17700.0
NTL,2014-04-15,16900.0
NTL,2014-04-16,16300.0
NTL,2014-04-17,16400.0
NTL,2014-04-18,15400.0
NTL,2014-04-21,15100.0
NTL,2014-04-22,16100.0
NTL,2014-04-23,15700.0
NTL,2014-04-24,15700.0
NTL,2014-04-25,15700.0
NTL,2014-04-28,15400.0
NTL,2014-04-29,15600.0
NTL,2014-05-05,15000.0
NTL,2014-05-06,14500.0
NTL,2014-05-07,14500.0
NTL,2014-05-08,13500.0
NTL,2014-05-09,13800.0
NTL,2014-05-12,12900.0
NTL,2014-05-13,12800.0
NTL,2014-05-14,13600.0
NTL,2014-05-15,13000.0
NTL,2014-05-16,13700.0
NTL,2014-05-19,13700.0
NTL,2014-05-20,14200.0
NTL,2014-05-21,14700.0
