PET,2007-09-12,20000.0
PET,2007-09-13,19200.0
PET,2007-09-14,19300.0
PET,2007-09-17,20200.0
PET,2007-09-18,21000.0
PET,2007-09-19,22100.0
PET,2007-09-20,23100.0
PET,2007-09-21,23800.0
PET,2007-09-24,24800.0
PET,2007-09-25,26100.0
PET,2007-09-26,27300.0
PET,2007-09-27,28500.0
PET,2007-09-28,29800.0
PET,2007-10-01,31200.0
PET,2007-10-02,32800.0
PET,2007-10-03,34300.0
PET,2007-10-04,35900.0
PET,2007-10-05,34200.0
PET,2007-10-08,32600.0
PET,2007-10-09,31100.0
PET,2007-10-10,32600.0
PET,2007-10-11,34200.0
PET,2007-10-12,33800.0
PET,2007-10-15,33500.0
PET,2007-10-16,32600.0
PET,2007-10-17,33100.0
PET,2007-10-18,33100.0
PET,2007-10-19,33000.0
PET,2007-10-22,32800.0
PET,2007-10-23,32800.0
PET,2007-10-24,34200.0
PET,2007-10-25,33100.0
PET,2007-10-26,33100.0
PET,2007-10-29,34600.0
PET,2007-10-30,36100.0
PET,2007-10-31,37900.0
PET,2007-11-01,39700.0
PET,2007-11-02,40000.0
PET,2007-11-05,38200.0
PET,2007-11-06,36400.0
PET,2007-11-07,37600.0
PET,2007-11-08,36700.0
PET,2007-11-09,36700.0
PET,2007-11-12,36400.0
PET,2007-11-13,34900.0
PET,2007-11-14,36400.0
PET,2007-11-15,36700.0
PET,2007-11-16,35800.0
PET,2007-11-19,35200.0
PET,2007-11-20,34900.0
PET,2007-11-21,34600.0
PET,2007-11-22,34900.0
PET,2007-11-23,34600.0
PET,2007-11-26,34000.0
PET,2007-11-27,34000.0
PET,2007-11-28,34300.0
PET,2007-11-29,34000.0
PET,2007-11-30,33400.0
PET,2007-12-03,33400.0
PET,2007-12-04,33400.0
PET,2007-12-05,33100.0
PET,2007-12-06,32800.0
PET,2007-12-07,32200.0
PET,2007-12-10,31000.0
PET,2007-12-11,30100.0
PET,2007-12-12,30400.0
PET,2007-12-13,29800.0
PET,2007-12-14,29700.0
PET,2007-12-17,29200.0
PET,2007-12-18,30400.0
PET,2007-12-19,31900.0
PET,2007-12-20,32200.0
PET,2007-12-21,33100.0
PET,2007-12-24,33400.0
PET,2007-12-25,33700.0
PET,2007-12-26,33700.0
PET,2007-12-27,33100.0
PET,2007-12-28,32800.0
PET,2008-01-02,32500.0
PET,2008-01-03,31300.0
PET,2008-01-04,31000.0
PET,2008-01-07,29800.0
PET,2008-01-08,30400.0
PET,2008-01-09,29800.0
PET,2008-01-10,28600.0
PET,2008-01-11,29200.0
PET,2008-01-14,27800.0
PET,2008-01-15,26400.0
PET,2008-01-16,27800.0
PET,2008-01-17,28100.0
PET,2008-01-18,28900.0
PET,2008-01-21,28600.0
PET,2008-01-22,27500.0
PET,2008-01-23,26100.0
PET,2008-01-24,24900.0
PET,2008-01-25,24500.0
PET,2008-01-28,23300.0
PET,2008-01-29,24400.0
PET,2008-01-30,25600.0
PET,2008-01-31,26900.0
PET,2008-02-01,28200.0
PET,2008-02-12,28600.0
PET,2008-02-13,27200.0
PET,2008-02-14,27300.0
PET,2008-02-15,26600.0
PET,2008-02-18,25200.0
PET,2008-02-19,25400.0
PET,2008-02-20,24100.0
PET,2008-02-21,22900.0
PET,2008-02-22,21800.0
PET,2008-02-25,22900.0
PET,2008-02-26,21800.0
PET,2008-02-27,22100.0
PET,2008-02-28,21800.0
PET,2008-02-29,21200.0
PET,2008-03-03,20200.0
PET,2008-03-04,19300.0
PET,2008-03-05,18300.0
PET,2008-03-06,19200.0
PET,2008-03-07,20200.0
PET,2008-03-10,20300.0
PET,2008-03-11,19300.0
PET,2008-03-12,19500.0
PET,2008-03-13,19500.0
PET,2008-03-14,19100.0
PET,2008-03-17,18100.0
PET,2008-03-18,17200.0
PET,2008-03-19,16400.0
PET,2008-03-20,15600.0
PET,2008-03-21,14900.0
PET,2008-03-24,14100.0
PET,2008-03-25,13500.0
PET,2008-03-26,12800.0
PET,2008-03-27,13000.0
PET,2008-03-28,13100.0
PET,2008-03-31,13200.0
PET,2008-04-01,13300.0
PET,2008-04-02,13400.0
PET,2008-04-03,13500.0
PET,2008-04-04,13700.0
PET,2008-04-07,13900.0
PET,2008-04-08,13800.0
PET,2008-04-09,13500.0
PET,2008-04-10,13300.0
PET,2008-04-11,13100.0
PET,2008-04-16,12800.0
PET,2008-04-17,13100.0
PET,2008-04-18,12800.0
PET,2008-04-21,12600.0
PET,2008-04-22,12400.0
PET,2008-04-23,12100.0
PET,2008-04-24,11900.0
PET,2008-04-25,11700.0
PET,2008-04-28,11900.0
PET,2008-04-29,11700.0
PET,2008-05-05,11500.0
PET,2008-05-06,11300.0
PET,2008-05-07,11200.0
PET,2008-05-08,11000.0
PET,2008-05-09,10800.0
PET,2008-05-12,10600.0
PET,2008-05-13,10400.0
PET,2008-05-14,10200.0
PET,2008-05-15,10100.0
PET,2008-05-16,9900.0
PET,2008-05-19,9700.0
PET,2008-05-20,9500.0
PET,2008-05-21,9300.0
PET,2008-05-22,9100.0
PET,2008-05-23,9000.0
PET,2008-05-26,8900.0
PET,2008-05-30,8800.0
PET,2008-06-02,8600.0
PET,2008-06-03,8500.0
PET,2008-06-04,8400.0
PET,2008-06-05,8300.0
PET,2008-06-06,8100.0
PET,2008-06-09,8000.0
PET,2008-06-10,7900.0
PET,2008-06-11,8000.0
PET,2008-06-12,8100.0
PET,2008-06-13,8300.0
PET,2008-06-16,8400.0
PET,2008-06-17,8500.0
PET,2008-06-18,8600.0
PET,2008-06-19,8400.0
PET,2008-06-20,8100.0
PET,2008-06-23,8300.0
PET,2008-06-24,8600.0
PET,2008-06-25,8800.0
PET,2008-06-26,9100.0
PET,2008-06-27,9300.0
PET,2008-06-30,9600.0
PET,2008-07-01,9800.0
PET,2008-07-02,10100.0
PET,2008-07-03,10300.0
PET,2008-07-04,10600.0
PET,2008-07-07,10900.0
PET,2008-07-08,11200.0
PET,2008-07-09,11500.0
PET,2008-07-10,11800.0
PET,2008-07-11,12100.0
PET,2008-07-14,12500.0
PET,2008-07-15,12800.0
PET,2008-07-16,13200.0
PET,2008-07-17,13600.0
PET,2008-07-18,13900.0
PET,2008-07-21,13600.0
PET,2008-07-22,13200.0
PET,2008-07-23,12800.0
PET,2008-07-24,12900.0
PET,2008-07-25,13300.0
PET,2008-07-28,13700.0
PET,2008-07-29,14100.0
PET,2008-07-30,14400.0
PET,2008-07-31,14900.0
PET,2008-08-01,15300.0
PET,2008-08-04,14900.0
PET,2008-08-05,14400.0
PET,2008-08-06,14100.0
PET,2008-08-07,14400.0
PET,2008-08-08,14800.0
PET,2008-08-11,15200.0
PET,2008-08-12,15000.0
PET,2008-08-13,15400.0
PET,2008-08-14,15800.0
PET,2008-08-15,16300.0
PET,2008-08-18,17100.0
PET,2008-08-19,17600.0
PET,2008-08-20,16700.0
PET,2008-08-21,17500.0
PET,2008-08-22,18200.0
PET,2008-08-25,19100.0
PET,2008-08-26,20000.0
PET,2008-08-27,21000.0
PET,2008-08-28,19900.0
PET,2008-08-29,18900.0
PET,2008-09-03,19900.0
PET,2008-09-04,19400.0
PET,2008-09-05,18500.0
PET,2008-09-08,19400.0
PET,2008-09-09,19400.0
PET,2008-09-10,18500.0
PET,2008-09-11,17600.0
PET,2008-09-12,16700.0
PET,2008-09-15,16000.0
PET,2008-09-16,15200.0
PET,2008-09-17,14500.0
PET,2008-09-18,13800.0
PET,2008-09-19,14500.0
PET,2008-09-22,15200.0
PET,2008-09-23,14500.0
PET,2008-09-24,15100.0
PET,2008-09-25,15800.0
PET,2008-09-26,16500.0
PET,2008-09-29,15700.0
PET,2008-09-30,15000.0
PET,2008-10-01,14300.0
PET,2008-10-02,15000.0
PET,2008-10-03,15200.0
PET,2008-10-06,14400.0
PET,2008-10-07,13800.0
PET,2008-10-08,13100.0
PET,2008-10-09,12500.0
PET,2008-10-10,11800.0
PET,2008-10-13,11300.0
PET,2008-10-14,11900.0
PET,2008-10-15,12500.0
PET,2008-10-16,12000.0
PET,2008-10-17,12300.0
PET,2008-10-20,11700.0
PET,2008-10-21,12200.0
PET,2008-10-22,12000.0
PET,2008-10-23,11500.0
PET,2008-10-24,10900.0
PET,2008-10-27,10400.0
PET,2008-10-28,9900.0
PET,2008-10-29,10400.0
PET,2008-10-30,10800.0
PET,2008-10-31,11300.0
PET,2008-11-03,11300.0
PET,2008-11-04,11800.0
PET,2008-11-05,12400.0
PET,2008-11-06,13000.0
PET,2008-11-07,12400.0
PET,2008-11-10,11800.0
PET,2008-11-11,11300.0
PET,2008-11-12,10700.0
PET,2008-11-13,10700.0
PET,2008-11-14,10900.0
PET,2008-11-17,10600.0
PET,2008-11-18,10200.0
PET,2008-11-19,10300.0
PET,2008-11-20,9900.0
PET,2008-11-21,9400.0
PET,2008-11-24,9100.0
PET,2008-11-25,9200.0
PET,2008-11-26,8800.0
PET,2008-11-27,8400.0
PET,2008-11-28,8800.0
PET,2008-12-01,8600.0
PET,2008-12-02,8200.0
PET,2008-12-03,8500.0
PET,2008-12-04,8900.0
PET,2008-12-05,8600.0
PET,2008-12-08,8200.0
PET,2008-12-09,8600.0
PET,2008-12-10,8300.0
PET,2008-12-11,8400.0
PET,2008-12-12,8800.0
PET,2008-12-15,9200.0
PET,2008-12-16,8800.0
PET,2008-12-17,8800.0
PET,2008-12-18,8600.0
PET,2008-12-19,9100.0
PET,2008-12-22,9500.0
PET,2008-12-23,9100.0
PET,2008-12-24,8900.0
PET,2008-12-25,8800.0
PET,2008-12-26,8900.0
PET,2008-12-29,8800.0
PET,2008-12-30,9000.0
PET,2008-12-31,8800.0
PET,2009-01-02,8800.0
PET,2009-01-05,8800.0
PET,2009-01-06,8900.0
PET,2009-01-07,9100.0
PET,2009-01-08,8900.0
PET,2009-01-09,8800.0
PET,2009-01-12,8700.0
PET,2009-01-13,8600.0
PET,2009-01-14,8600.0
PET,2009-01-15,8500.0
PET,2009-01-16,8600.0
PET,2009-01-19,8500.0
PET,2009-01-20,8400.0
PET,2009-01-21,8300.0
PET,2009-01-22,8400.0
PET,2009-01-23,8500.0
PET,2009-02-02,8300.0
PET,2009-02-03,8000.0
PET,2009-02-04,8000.0
PET,2009-02-05,7600.0
PET,2009-02-06,7700.0
PET,2009-02-09,8100.0
PET,2009-02-10,7800.0
PET,2009-02-11,7600.0
PET,2009-02-12,7400.0
PET,2009-02-13,7600.0
PET,2009-02-16,7400.0
PET,2009-02-17,7000.0
PET,2009-02-18,6700.0
PET,2009-02-19,6700.0
PET,2009-02-20,6700.0
PET,2009-02-23,6400.0
PET,2009-02-24,6200.0
PET,2009-02-25,6500.0
PET,2009-02-26,6600.0
PET,2009-02-27,6800.0
PET,2009-03-02,6800.0
PET,2009-03-03,6600.0
PET,2009-03-04,6700.0
PET,2009-03-05,6800.0
PET,2009-03-06,6500.0
PET,2009-03-09,6700.0
PET,2009-03-10,7000.0
PET,2009-03-11,7300.0
PET,2009-03-12,7400.0
PET,2009-03-13,7300.0
PET,2009-03-16,7500.0
PET,2009-03-17,7800.0
PET,2009-03-18,8200.0
PET,2009-03-19,7800.0
PET,2009-03-20,8200.0
PET,2009-03-23,8600.0
PET,2009-03-24,8900.0
PET,2009-03-25,9400.0
PET,2009-03-26,9200.0
PET,2009-03-27,8900.0
PET,2009-03-30,8700.0
PET,2009-03-31,8900.0
PET,2009-04-01,9300.0
PET,2009-04-02,9600.0
PET,2009-04-03,10000.0
PET,2009-04-07,10500.0
PET,2009-04-08,10200.0
PET,2009-04-09,10200.0
PET,2009-04-10,10700.0
PET,2009-04-13,11200.0
PET,2009-04-14,11700.0
PET,2009-04-15,11300.0
PET,2009-04-16,11400.0
PET,2009-04-17,10900.0
PET,2009-04-20,10400.0
PET,2009-04-21,9900.0
PET,2009-04-22,10200.0
PET,2009-04-23,9900.0
PET,2009-04-24,9400.0
PET,2009-04-27,9800.0
PET,2009-04-28,10200.0
PET,2009-04-29,10400.0
PET,2009-05-04,10900.0
PET,2009-05-05,11400.0
PET,2009-05-06,10900.0
PET,2009-05-07,11400.0
PET,2009-05-08,11100.0
PET,2009-05-11,11300.0
PET,2009-05-12,11900.0
PET,2009-05-13,12100.0
PET,2009-05-14,11700.0
PET,2009-05-15,12300.0
PET,2009-05-18,12900.0
PET,2009-05-19,13500.0
PET,2009-05-20,14100.0
PET,2009-05-21,14800.0
PET,2009-05-22,14100.0
PET,2009-05-25,14700.0
PET,2009-05-26,14400.0
PET,2009-05-27,14300.0
PET,2009-05-28,13600.0
PET,2009-05-29,13200.0
PET,2009-06-01,13900.0
PET,2009-06-02,14500.0
PET,2009-06-03,15300.0
PET,2009-06-04,16000.0
PET,2009-06-05,16800.0
PET,2009-06-08,17500.0
PET,2009-06-09,17500.0
PET,2009-06-10,16700.0
PET,2009-06-11,17000.0
PET,2009-06-12,16200.0
PET,2009-06-15,15400.0
PET,2009-06-16,14700.0
PET,2009-06-17,14000.0
PET,2009-06-18,14100.0
PET,2009-06-19,14500.0
PET,2009-06-22,13800.0
PET,2009-06-23,13200.0
PET,2009-06-24,13800.0
PET,2009-06-25,13400.0
PET,2009-06-26,13400.0
PET,2009-06-29,13000.0
PET,2009-06-30,12400.0
PET,2009-07-01,11800.0
PET,2009-07-02,11800.0
PET,2009-07-03,11700.0
PET,2009-07-06,12300.0
PET,2009-07-07,12900.0
PET,2009-07-08,13500.0
PET,2009-07-09,13500.0
PET,2009-07-10,13000.0
PET,2009-07-13,12400.0
PET,2009-07-14,11900.0
PET,2009-07-15,12400.0
PET,2009-07-16,12800.0
PET,2009-07-17,12500.0
PET,2009-07-20,12100.0
PET,2009-07-21,12200.0
PET,2009-07-22,12300.0
PET,2009-07-23,12800.0
PET,2009-07-24,13400.0
PET,2009-07-27,14100.0
PET,2009-07-28,14300.0
PET,2009-07-29,14300.0
PET,2009-07-30,14300.0
PET,2009-07-31,14900.0
PET,2009-08-03,15100.0
PET,2009-08-04,15600.0
PET,2009-08-05,15300.0
PET,2009-08-06,15200.0
PET,2009-08-07,15300.0
PET,2009-08-10,15800.0
PET,2009-08-11,15800.0
PET,2009-08-12,16600.0
PET,2009-08-13,17400.0
PET,2009-08-14,16800.0
PET,2009-08-17,17100.0
PET,2009-08-18,17900.0
PET,2009-08-19,18800.0
PET,2009-08-20,19700.0
PET,2009-08-21,19600.0
PET,2009-08-24,18800.0
PET,2009-08-25,18600.0
PET,2009-08-26,19600.0
PET,2009-08-27,20100.0
PET,2009-08-28,20100.0
PET,2009-08-31,20200.0
PET,2009-09-01,19400.0
PET,2009-09-03,18800.0
PET,2009-09-04,18300.0
PET,2009-09-08,18600.0
PET,2009-09-09,18600.0
PET,2009-09-10,18400.0
PET,2009-09-11,18300.0
PET,2009-09-14,18200.0
PET,2009-09-15,17900.0
PET,2009-09-16,18300.0
PET,2009-09-17,18200.0
PET,2009-09-18,18100.0
PET,2009-09-21,18000.0
PET,2009-09-22,18100.0
PET,2009-09-23,18900.0
PET,2009-09-24,19800.0
PET,2009-09-25,20300.0
PET,2009-09-28,21300.0
PET,2009-09-29,22300.0
PET,2009-09-30,21200.0
PET,2009-10-01,20100.0
PET,2009-10-02,19200.0
PET,2009-10-05,18900.0
PET,2009-10-06,19200.0
PET,2009-10-07,20100.0
PET,2009-10-08,20100.0
PET,2009-10-09,19800.0
PET,2009-10-12,20700.0
PET,2009-10-13,19800.0
PET,2009-10-14,20200.0
PET,2009-10-15,21200.0
PET,2009-10-16,21200.0
PET,2009-10-19,20700.0
PET,2009-10-20,21300.0
PET,2009-10-21,21600.0
PET,2009-10-22,21300.0
PET,2009-10-23,20800.0
PET,2009-10-26,20500.0
PET,2009-10-27,19500.0
PET,2009-10-28,20200.0
PET,2009-10-29,19200.0
PET,2009-10-30,19300.0
PET,2009-11-02,18400.0
PET,2009-11-03,17500.0
PET,2009-11-04,16900.0
PET,2009-11-05,17800.0
PET,2009-11-06,17500.0
PET,2009-11-09,16600.0
PET,2009-11-10,16200.0
PET,2009-11-11,16700.0
PET,2009-11-12,17300.0
PET,2009-11-13,17400.0
PET,2009-11-16,17300.0
PET,2009-11-17,17300.0
PET,2009-11-18,17300.0
PET,2009-11-19,17700.0
PET,2009-11-20,18300.0
PET,2009-11-23,17300.0
PET,2009-11-24,17000.0
PET,2009-11-25,16200.0
PET,2009-11-26,15400.0
PET,2009-11-27,15300.0
PET,2009-11-30,16000.0
PET,2009-12-01,16300.0
PET,2009-12-02,15500.0
PET,2009-12-03,15300.0
PET,2009-12-04,15200.0
PET,2009-12-07,15200.0
PET,2009-12-08,14900.0
PET,2009-12-09,14200.0
PET,2009-12-10,13600.0
PET,2009-12-11,12900.0
PET,2009-12-14,13200.0
PET,2009-12-15,12900.0
PET,2009-12-16,12300.0
PET,2009-12-17,11900.0
PET,2009-12-18,12500.0
PET,2009-12-21,13000.0
PET,2009-12-22,13600.0
PET,2009-12-23,13700.0
PET,2009-12-24,14300.0
PET,2009-12-25,15100.0
PET,2009-12-28,15000.0
PET,2009-12-29,14900.0
PET,2009-12-30,15100.0
PET,2009-12-31,15000.0
PET,2010-01-04,15700.0
PET,2010-01-05,16200.0
PET,2010-01-06,15900.0
PET,2010-01-07,15900.0
PET,2010-01-08,15100.0
PET,2010-01-11,15800.0
PET,2010-01-12,15300.0
PET,2010-01-13,15800.0
PET,2010-01-14,15600.0
PET,2010-01-15,15000.0
PET,2010-01-18,14300.0
PET,2010-01-19,14300.0
PET,2010-01-20,13700.0
PET,2010-01-21,13000.0
PET,2010-01-22,13200.0
PET,2010-01-25,13500.0
PET,2010-01-26,14100.0
PET,2010-01-27,13700.0
PET,2010-01-28,13400.0
PET,2010-01-29,13500.0
PET,2010-02-01,13600.0
PET,2010-02-02,13600.0
PET,2010-02-03,13900.0
PET,2010-02-04,14500.0
PET,2010-02-05,15100.0
PET,2010-02-08,15100.0
PET,2010-02-09,14400.0
PET,2010-02-10,14600.0
PET,2010-02-11,14800.0
PET,2010-02-12,15000.0
PET,2010-02-22,15300.0
PET,2010-02-23,14900.0
PET,2010-02-24,14900.0
PET,2010-02-25,14700.0
PET,2010-02-26,14900.0
PET,2010-03-01,15000.0
PET,2010-03-02,15200.0
PET,2010-03-03,15900.0
PET,2010-03-04,16700.0
PET,2010-03-05,16600.0
PET,2010-03-08,17400.0
PET,2010-03-09,18300.0
PET,2010-03-10,18300.0
PET,2010-03-11,17700.0
PET,2010-03-12,17600.0
PET,2010-03-15,17800.0
PET,2010-03-16,16900.0
PET,2010-03-17,17300.0
PET,2010-03-18,18000.0
PET,2010-03-19,17600.0
PET,2010-03-22,17300.0
PET,2010-03-23,17000.0
PET,2010-03-24,17400.0
PET,2010-03-25,16800.0
PET,2010-03-26,16600.0
PET,2010-03-29,16900.0
PET,2010-03-30,16500.0
PET,2010-03-31,16400.0
PET,2010-04-01,16600.0
PET,2010-04-02,17400.0
PET,2010-04-05,17600.0
PET,2010-04-06,17400.0
PET,2010-04-07,17300.0
PET,2010-04-08,17900.0
PET,2010-04-09,17900.0
PET,2010-04-12,17600.0
PET,2010-04-13,17300.0
PET,2010-04-14,17600.0
PET,2010-04-15,18400.0
PET,2010-04-16,19400.0
PET,2010-04-19,18600.0
PET,2010-04-20,18300.0
PET,2010-04-21,18300.0
PET,2010-04-22,17700.0
PET,2010-04-26,17600.0
PET,2010-04-27,17500.0
PET,2010-04-28,17400.0
PET,2010-04-29,17900.0
PET,2010-05-04,17800.0
PET,2010-05-05,17600.0
PET,2010-05-06,18100.0
PET,2010-05-07,17800.0
PET,2010-05-10,17100.0
PET,2010-05-11,17500.0
PET,2010-05-12,17800.0
PET,2010-05-13,17500.0
PET,2010-05-14,17600.0
PET,2010-05-17,17100.0
PET,2010-05-18,16700.0
PET,2010-05-19,15900.0
PET,2010-05-20,16600.0
PET,2010-05-21,15700.0
PET,2010-05-24,15700.0
PET,2010-05-25,15600.0
PET,2010-05-26,16100.0
PET,2010-05-27,16100.0
PET,2010-05-28,16600.0
PET,2010-05-31,16100.0
PET,2010-06-01,16100.0
PET,2010-06-02,16300.0
PET,2010-06-03,16300.0
PET,2010-06-04,16000.0
PET,2010-06-07,15300.0
PET,2010-06-08,15500.0
PET,2010-06-09,15400.0
PET,2010-06-10,15300.0
PET,2010-06-11,15500.0
PET,2010-06-14,16300.0
PET,2010-06-15,16100.0
PET,2010-06-16,16400.0
PET,2010-06-17,16100.0
PET,2010-06-18,16100.0
PET,2010-06-21,16900.0
PET,2010-06-22,16900.0
PET,2010-06-23,17400.0
PET,2010-06-24,18100.0
PET,2010-06-25,17200.0
PET,2010-06-28,17400.0
PET,2010-06-29,17500.0
PET,2010-06-30,17400.0
PET,2010-07-01,16800.0
PET,2010-07-02,16700.0
PET,2010-07-05,16600.0
PET,2010-07-06,16100.0
PET,2010-07-07,16100.0
PET,2010-07-08,16100.0
PET,2010-07-09,16300.0
PET,2010-07-12,16600.0
PET,2010-07-13,17400.0
PET,2010-07-14,17000.0
PET,2010-07-15,16900.0
PET,2010-07-16,16800.0
PET,2010-07-19,17000.0
PET,2010-07-20,16800.0
PET,2010-07-21,16500.0
PET,2010-07-22,16300.0
PET,2010-07-23,16100.0
PET,2010-07-26,16400.0
PET,2010-07-27,16200.0
PET,2010-07-28,15700.0
PET,2010-07-29,15700.0
PET,2010-07-30,15800.0
PET,2010-08-02,15700.0
PET,2010-08-03,15700.0
PET,2010-08-04,15300.0
PET,2010-08-05,15200.0
PET,2010-08-06,15000.0
PET,2010-08-09,14400.0
PET,2010-08-10,13900.0
PET,2010-08-11,14000.0
PET,2010-08-12,13400.0
PET,2010-08-13,13600.0
PET,2010-08-16,14300.0
PET,2010-08-17,14200.0
PET,2010-08-18,13600.0
PET,2010-08-19,13600.0
PET,2010-08-20,13600.0
PET,2010-08-23,13100.0
PET,2010-08-24,12500.0
PET,2010-08-25,11900.0
PET,2010-08-26,12100.0
PET,2010-08-27,11900.0
PET,2010-08-30,12500.0
PET,2010-08-31,13100.0
PET,2010-09-01,13100.0
PET,2010-09-06,13700.0
PET,2010-09-07,13500.0
PET,2010-09-08,13100.0
PET,2010-09-09,13400.0
PET,2010-09-10,12800.0
PET,2010-09-13,12400.0
PET,2010-09-14,12700.0
PET,2010-09-15,12700.0
PET,2010-09-16,12500.0
PET,2010-09-17,13100.0
PET,2010-09-20,13600.0
PET,2010-09-21,13400.0
PET,2010-09-22,13300.0
PET,2010-09-23,12900.0
PET,2010-09-24,12900.0
PET,2010-09-27,12700.0
PET,2010-09-28,12800.0
PET,2010-09-29,12600.0
PET,2010-09-30,12500.0
PET,2010-10-01,12500.0
PET,2010-10-04,12100.0
PET,2010-10-05,12700.0
PET,2010-10-06,12800.0
PET,2010-10-07,12400.0
PET,2010-10-08,12300.0
PET,2010-10-11,12200.0
PET,2010-10-12,11900.0
PET,2010-10-13,11900.0
PET,2010-10-14,11900.0
PET,2010-10-15,12100.0
PET,2010-10-18,12000.0
PET,2010-10-19,11900.0
PET,2010-10-20,11400.0
PET,2010-10-21,11400.0
PET,2010-10-22,11400.0
PET,2010-10-25,11500.0
PET,2010-10-26,11900.0
PET,2010-10-27,11600.0
PET,2010-10-28,11600.0
PET,2010-10-29,11900.0
PET,2010-11-01,11700.0
PET,2010-11-02,11600.0
PET,2010-11-03,11400.0
PET,2010-11-04,11400.0
PET,2010-11-05,11900.0
PET,2010-11-08,11600.0
PET,2010-11-09,11300.0
PET,2010-11-10,11300.0
PET,2010-11-11,11100.0
PET,2010-11-12,10700.0
PET,2010-11-15,10200.0
PET,2010-11-16,9900.0
PET,2010-11-17,10000.0
PET,2010-11-18,10500.0
PET,2010-11-19,10300.0
PET,2010-11-22,10300.0
PET,2010-11-23,10400.0
PET,2010-11-24,10400.0
PET,2010-11-25,10600.0
PET,2010-11-26,10600.0
PET,2010-11-29,11000.0
PET,2010-11-30,11600.0
PET,2010-12-01,11200.0
PET,2010-12-02,11600.0
PET,2010-12-03,12100.0
PET,2010-12-06,12400.0
PET,2010-12-07,12400.0
PET,2010-12-08,12000.0
PET,2010-12-09,12100.0
PET,2010-12-10,12600.0
PET,2010-12-13,13100.0
PET,2010-12-14,12500.0
PET,2010-12-15,11900.0
PET,2010-12-16,11900.0
PET,2010-12-17,12300.0
PET,2010-12-20,12300.0
PET,2010-12-21,12200.0
PET,2010-12-22,12100.0
PET,2010-12-23,12100.0
PET,2010-12-24,12100.0
PET,2010-12-27,12000.0
PET,2010-12-28,12000.0
PET,2010-12-29,12000.0
PET,2010-12-30,11900.0
PET,2010-12-31,11700.0
PET,2011-01-04,11800.0
PET,2011-01-05,11700.0
PET,2011-01-06,11600.0
PET,2011-01-07,11600.0
PET,2011-01-10,11300.0
PET,2011-01-11,10900.0
PET,2011-01-12,11000.0
PET,2011-01-13,11200.0
PET,2011-01-14,11500.0
PET,2011-01-17,11400.0
PET,2011-01-18,11300.0
PET,2011-01-19,11400.0
PET,2011-01-20,11500.0
PET,2011-01-21,11500.0
PET,2011-01-24,11200.0
PET,2011-01-25,11100.0
PET,2011-01-26,11200.0
PET,2011-01-27,11300.0
PET,2011-01-28,11400.0
PET,2011-02-08,11700.0
PET,2011-02-09,11500.0
PET,2011-02-10,11600.0
PET,2011-02-11,11400.0
PET,2011-02-14,11400.0
PET,2011-02-15,11300.0
PET,2011-02-16,11400.0
PET,2011-02-17,11200.0
PET,2011-02-18,11000.0
PET,2011-02-21,10400.0
PET,2011-02-22,10000.0
PET,2011-02-23,10200.0
PET,2011-02-24,9900.0
PET,2011-02-25,10100.0
PET,2011-02-28,9900.0
PET,2011-03-01,9700.0
PET,2011-03-02,9300.0
PET,2011-03-03,9100.0
PET,2011-03-04,9200.0
PET,2011-03-07,9300.0
PET,2011-03-08,9300.0
PET,2011-03-09,9200.0
PET,2011-03-10,9600.0
PET,2011-03-11,10100.0
PET,2011-03-14,9700.0
PET,2011-03-15,9700.0
PET,2011-03-16,9900.0
PET,2011-03-17,9900.0
PET,2011-03-18,10000.0
PET,2011-03-21,10000.0
PET,2011-03-22,9900.0
PET,2011-03-23,9900.0
PET,2011-03-24,9900.0
PET,2011-03-25,9900.0
PET,2011-03-28,9900.0
PET,2011-03-29,9900.0
PET,2011-03-30,9800.0
PET,2011-03-31,9700.0
PET,2011-04-01,9600.0
PET,2011-04-04,9500.0
PET,2011-04-05,9400.0
PET,2011-04-06,9500.0
PET,2011-04-07,9300.0
PET,2011-04-08,9400.0
PET,2011-04-13,9400.0
PET,2011-04-14,9300.0
PET,2011-04-15,9300.0
PET,2011-04-18,9100.0
PET,2011-04-19,9100.0
PET,2011-04-20,9000.0
PET,2011-04-21,8800.0
PET,2011-04-22,8700.0
PET,2011-04-25,9100.0
PET,2011-04-26,8900.0
PET,2011-04-27,8800.0
PET,2011-04-28,9200.0
PET,2011-04-29,9300.0
PET,2011-05-04,9300.0
PET,2011-05-05,9200.0
PET,2011-05-06,9200.0
PET,2011-05-09,9500.0
PET,2011-05-10,9500.0
PET,2011-05-11,9400.0
PET,2011-05-12,9300.0
PET,2011-05-13,9400.0
PET,2011-05-16,9400.0
PET,2011-05-17,9300.0
PET,2011-05-18,9000.0
PET,2011-05-19,9000.0
PET,2011-05-20,8800.0
PET,2011-05-23,8500.0
PET,2011-05-24,8100.0
PET,2011-05-25,7700.0
PET,2011-05-26,8100.0
PET,2011-05-27,8500.0
PET,2011-05-30,8100.0
PET,2011-05-31,8000.0
PET,2011-06-01,8300.0
PET,2011-06-02,8600.0
PET,2011-06-03,8400.0
PET,2011-06-06,8600.0
PET,2011-06-07,9000.0
PET,2011-06-08,8800.0
PET,2011-06-09,8900.0
PET,2011-06-10,9300.0
PET,2011-06-13,9300.0
PET,2011-06-14,9400.0
PET,2011-06-15,9200.0
PET,2011-06-16,9300.0
PET,2011-06-17,9000.0
PET,2011-06-20,9000.0
PET,2011-06-21,9300.0
PET,2011-06-22,9600.0
PET,2011-06-23,10000.0
PET,2011-06-24,10300.0
PET,2011-06-27,10300.0
PET,2011-06-28,10400.0
PET,2011-06-29,10600.0
PET,2011-06-30,10800.0
PET,2011-07-01,10300.0
PET,2011-07-04,9800.0
PET,2011-07-05,10000.0
PET,2011-07-06,9800.0
PET,2011-07-07,9800.0
PET,2011-07-08,9600.0
PET,2011-07-11,9600.0
PET,2011-07-12,9600.0
PET,2011-07-13,9300.0
PET,2011-07-14,9300.0
PET,2011-07-15,9300.0
PET,2011-07-18,9300.0
PET,2011-07-19,9000.0
PET,2011-07-20,9300.0
PET,2011-07-21,9200.0
PET,2011-07-22,9100.0
PET,2011-07-25,9000.0
PET,2011-07-26,9100.0
PET,2011-07-27,9000.0
PET,2011-07-28,9400.0
PET,2011-07-29,9600.0
PET,2011-08-01,9300.0
PET,2011-08-02,9100.0
PET,2011-08-03,9100.0
PET,2011-08-04,9500.0
PET,2011-08-05,9300.0
PET,2011-08-08,9200.0
PET,2011-08-09,8800.0
PET,2011-08-10,8900.0
PET,2011-08-11,9000.0
PET,2011-08-12,9000.0
PET,2011-08-15,8900.0
PET,2011-08-16,9000.0
PET,2011-08-17,9300.0
PET,2011-08-18,9700.0
PET,2011-08-19,9600.0
PET,2011-08-22,10000.0
PET,2011-08-23,9700.0
PET,2011-08-24,9600.0
PET,2011-08-25,9900.0
PET,2011-08-26,9700.0
PET,2011-08-29,10100.0
PET,2011-08-30,10100.0
PET,2011-08-31,10000.0
PET,2011-09-01,10300.0
PET,2011-09-05,10300.0
PET,2011-09-06,9900.0
PET,2011-09-07,10200.0
PET,2011-09-08,10300.0
PET,2011-09-09,10300.0
PET,2011-09-12,10400.0
PET,2011-09-13,10800.0
PET,2011-09-14,10500.0
PET,2011-09-15,10300.0
PET,2011-09-16,10000.0
PET,2011-09-19,10300.0
PET,2011-09-20,10000.0
PET,2011-09-21,10000.0
PET,2011-09-22,10200.0
PET,2011-09-23,10000.0
PET,2011-09-26,10000.0
PET,2011-09-27,9900.0
PET,2011-09-28,10000.0
PET,2011-09-29,9800.0
PET,2011-09-30,9700.0
PET,2011-10-03,9300.0
PET,2011-10-04,9300.0
PET,2011-10-05,9300.0
PET,2011-10-06,9500.0
PET,2011-10-07,9500.0
PET,2011-10-10,9300.0
PET,2011-10-11,9300.0
PET,2011-10-12,9200.0
PET,2011-10-13,9300.0
PET,2011-10-14,9200.0
PET,2011-10-17,9100.0
PET,2011-10-18,9000.0
PET,2011-10-19,9000.0
PET,2011-10-20,9000.0
PET,2011-10-21,9400.0
PET,2011-10-24,9300.0
PET,2011-10-25,9300.0
PET,2011-10-26,9300.0
PET,2011-10-27,9300.0
PET,2011-10-28,9700.0
PET,2011-10-31,9600.0
PET,2011-11-01,9500.0
PET,2011-11-02,9300.0
PET,2011-11-03,9300.0
PET,2011-11-04,9700.0
PET,2011-11-07,9500.0
PET,2011-11-08,9600.0
PET,2011-11-09,9600.0
PET,2011-11-10,9400.0
PET,2011-11-11,9300.0
PET,2011-11-14,9100.0
PET,2011-11-15,9100.0
PET,2011-11-16,9300.0
PET,2011-11-17,9200.0
PET,2011-11-18,9100.0
PET,2011-11-21,9000.0
PET,2011-11-22,9000.0
PET,2011-11-23,9000.0
PET,2011-11-24,9000.0
PET,2011-11-25,9000.0
PET,2011-11-28,9100.0
PET,2011-11-29,9100.0
PET,2011-11-30,9200.0
PET,2011-12-01,9100.0
PET,2011-12-02,9100.0
PET,2011-12-05,9500.0
PET,2011-12-06,9600.0
PET,2011-12-07,9700.0
PET,2011-12-08,9700.0
PET,2011-12-09,9500.0
PET,2011-12-12,9100.0
PET,2011-12-13,9000.0
PET,2011-12-14,8700.0
PET,2011-12-15,8600.0
PET,2011-12-16,9000.0
PET,2011-12-19,8800.0
PET,2011-12-20,8600.0
PET,2011-12-21,8600.0
PET,2011-12-22,8300.0
PET,2011-12-23,8000.0
PET,2011-12-26,8000.0
PET,2011-12-27,8300.0
PET,2011-12-28,8700.0
PET,2011-12-29,9000.0
PET,2011-12-30,9300.0
PET,2012-01-03,9000.0
PET,2012-01-04,8900.0
PET,2012-01-05,8700.0
PET,2012-01-06,8600.0
PET,2012-01-09,8600.0
PET,2012-01-10,9000.0
PET,2012-01-11,8800.0
PET,2012-01-12,8800.0
PET,2012-01-13,8800.0
PET,2012-01-16,8900.0
PET,2012-01-17,8800.0
PET,2012-01-18,8800.0
PET,2012-01-19,9100.0
PET,2012-01-20,9100.0
PET,2012-01-30,9200.0
PET,2012-01-31,9300.0
PET,2012-02-01,9300.0
PET,2012-02-02,9600.0
PET,2012-02-03,9200.0
PET,2012-02-06,9200.0
PET,2012-02-07,9200.0
PET,2012-02-08,9600.0
PET,2012-02-09,9500.0
PET,2012-02-10,9300.0
PET,2012-02-13,9100.0
PET,2012-02-14,9300.0
PET,2012-02-15,9200.0
PET,2012-02-16,9100.0
PET,2012-02-17,9400.0
PET,2012-02-20,9700.0
PET,2012-02-21,9500.0
PET,2012-02-22,9700.0
PET,2012-02-23,10200.0
PET,2012-02-24,10600.0
PET,2012-02-27,10900.0
PET,2012-02-28,10300.0
PET,2012-02-29,10400.0
PET,2012-03-01,10300.0
PET,2012-03-02,10400.0
PET,2012-03-05,10900.0
PET,2012-03-06,10500.0
PET,2012-03-07,10600.0
PET,2012-03-08,10100.0
PET,2012-03-09,10300.0
PET,2012-03-12,9900.0
PET,2012-03-13,10100.0
PET,2012-03-14,10100.0
PET,2012-03-15,10600.0
PET,2012-03-16,10300.0
PET,2012-03-19,10400.0
PET,2012-03-20,10600.0
PET,2012-03-21,10600.0
PET,2012-03-22,10600.0
PET,2012-03-23,10800.0
PET,2012-03-26,11400.0
PET,2012-03-27,10900.0
PET,2012-03-28,11000.0
PET,2012-03-29,10700.0
PET,2012-03-30,10700.0
PET,2012-04-03,11000.0
PET,2012-04-04,11100.0
PET,2012-04-05,11200.0
PET,2012-04-06,11200.0
PET,2012-04-09,11500.0
PET,2012-04-10,11600.0
PET,2012-04-11,11800.0
PET,2012-04-12,11600.0
PET,2012-04-13,11500.0
PET,2012-04-16,12000.0
PET,2012-04-17,12300.0
PET,2012-04-18,11900.0
PET,2012-04-19,11500.0
PET,2012-04-20,11600.0
PET,2012-04-23,11700.0
PET,2012-04-24,11700.0
PET,2012-04-25,12000.0
PET,2012-04-26,12000.0
PET,2012-04-27,12500.0
PET,2012-05-02,12600.0
PET,2012-05-03,12500.0
PET,2012-05-04,12700.0
PET,2012-05-07,13300.0
PET,2012-05-08,13200.0
PET,2012-05-09,13300.0
PET,2012-05-10,13000.0
PET,2012-05-11,12600.0
PET,2012-05-14,12000.0
PET,2012-05-15,11500.0
PET,2012-05-16,11600.0
PET,2012-05-17,11200.0
PET,2012-05-18,10700.0
PET,2012-05-21,11200.0
PET,2012-05-22,11200.0
PET,2012-05-23,10700.0
PET,2012-05-24,10400.0
PET,2012-05-25,11000.0
PET,2012-05-28,11100.0
PET,2012-05-29,11000.0
PET,2012-05-30,11000.0
PET,2012-05-31,10800.0
PET,2012-06-01,10800.0
PET,2012-06-04,10400.0
PET,2012-06-05,10700.0
PET,2012-06-06,11000.0
PET,2012-06-07,11200.0
PET,2012-06-08,11000.0
PET,2012-06-11,11100.0
PET,2012-06-12,11000.0
PET,2012-06-13,10900.0
PET,2012-06-14,10700.0
PET,2012-06-15,10600.0
PET,2012-06-18,11000.0
PET,2012-06-19,10800.0
PET,2012-06-20,10900.0
PET,2012-06-21,10800.0
PET,2012-06-22,10800.0
PET,2012-06-25,10500.0
PET,2012-06-26,10400.0
PET,2012-06-27,10300.0
PET,2012-06-28,10300.0
PET,2012-06-29,10400.0
PET,2012-07-02,10300.0
PET,2012-07-03,9800.0
PET,2012-07-04,9900.0
PET,2012-07-05,10100.0
PET,2012-07-06,10300.0
PET,2012-07-09,9900.0
PET,2012-07-10,9900.0
PET,2012-07-11,10100.0
PET,2012-07-12,10200.0
PET,2012-07-13,10500.0
PET,2012-07-16,10400.0
PET,2012-07-17,10600.0
PET,2012-07-18,10500.0
PET,2012-07-19,11000.0
PET,2012-07-20,11000.0
PET,2012-07-23,10600.0
PET,2012-07-24,10400.0
PET,2012-07-25,10400.0
PET,2012-07-26,10600.0
PET,2012-07-27,10400.0
PET,2012-07-30,10300.0
PET,2012-07-31,10300.0
PET,2012-08-01,10300.0
PET,2012-08-02,10300.0
PET,2012-08-03,10300.0
PET,2012-08-06,10500.0
PET,2012-08-07,10400.0
PET,2012-08-08,10700.0
PET,2012-08-09,10600.0
PET,2012-08-10,10400.0
PET,2012-08-13,10300.0
PET,2012-08-14,10400.0
PET,2012-08-15,10300.0
PET,2012-08-16,10300.0
PET,2012-08-17,10300.0
PET,2012-08-20,10500.0
PET,2012-08-21,10000.0
PET,2012-08-22,10000.0
PET,2012-08-23,9600.0
PET,2012-08-24,9900.0
PET,2012-08-27,9500.0
PET,2012-08-28,9700.0
PET,2012-08-29,10000.0
PET,2012-08-30,9800.0
PET,2012-08-31,9800.0
PET,2012-09-04,9800.0
PET,2012-09-05,9700.0
PET,2012-09-06,9700.0
PET,2012-09-07,9800.0
PET,2012-09-10,9600.0
PET,2012-09-11,9600.0
PET,2012-09-12,9600.0
PET,2012-09-13,9700.0
PET,2012-09-14,9800.0
PET,2012-09-17,9700.0
PET,2012-09-18,9400.0
PET,2012-09-19,9500.0
PET,2012-09-20,9400.0
PET,2012-09-21,9500.0
PET,2012-09-24,9300.0
PET,2012-09-25,9300.0
PET,2012-09-26,9400.0
PET,2012-09-27,9300.0
PET,2012-09-28,9200.0
PET,2012-10-01,9100.0
PET,2012-10-02,9400.0
PET,2012-10-03,9700.0
PET,2012-10-04,9400.0
PET,2012-10-05,9500.0
PET,2012-10-08,9800.0
PET,2012-10-09,9800.0
PET,2012-10-10,10000.0
PET,2012-10-11,10000.0
PET,2012-10-12,10000.0
PET,2012-10-15,9700.0
PET,2012-10-16,9900.0
PET,2012-10-17,9900.0
PET,2012-10-18,9800.0
PET,2012-10-19,9700.0
PET,2012-10-22,9700.0
PET,2012-10-23,9800.0
PET,2012-10-24,9700.0
PET,2012-10-25,9700.0
PET,2012-10-26,9700.0
PET,2012-10-29,9700.0
PET,2012-10-30,9400.0
PET,2012-10-31,9400.0
PET,2012-11-01,9400.0
PET,2012-11-02,9100.0
PET,2012-11-05,9200.0
PET,2012-11-06,9100.0
PET,2012-11-07,9400.0
PET,2012-11-08,9300.0
PET,2012-11-09,9400.0
PET,2012-11-12,9500.0
PET,2012-11-13,9300.0
PET,2012-11-14,9700.0
PET,2012-11-15,9900.0
PET,2012-11-16,9900.0
PET,2012-11-19,9800.0
PET,2012-11-20,9700.0
PET,2012-11-21,9700.0
PET,2012-11-22,9700.0
PET,2012-11-23,9900.0
PET,2012-11-26,9800.0
PET,2012-11-27,9800.0
PET,2012-11-28,9800.0
PET,2012-11-29,9800.0
PET,2012-11-30,9900.0
PET,2012-12-03,9900.0
PET,2012-12-04,10000.0
PET,2012-12-05,10000.0
PET,2012-12-06,10000.0
PET,2012-12-07,10000.0
PET,2012-12-10,10300.0
PET,2012-12-11,10500.0
PET,2012-12-12,10800.0
PET,2012-12-13,11000.0
PET,2012-12-14,11000.0
PET,2012-12-17,11000.0
PET,2012-12-18,11000.0
PET,2012-12-19,11000.0
PET,2012-12-20,11000.0
PET,2012-12-21,10900.0
PET,2012-12-24,10900.0
PET,2012-12-25,10700.0
PET,2012-12-26,10900.0
PET,2012-12-27,10800.0
PET,2012-12-28,10800.0
PET,2013-01-02,11200.0
PET,2013-01-03,11000.0
PET,2013-01-04,11100.0
PET,2013-01-07,11200.0
PET,2013-01-08,11300.0
PET,2013-01-09,11300.0
PET,2013-01-10,11500.0
PET,2013-01-11,11400.0
PET,2013-01-14,11300.0
PET,2013-01-15,11500.0
PET,2013-01-16,11600.0
PET,2013-01-17,11400.0
PET,2013-01-18,11300.0
PET,2013-01-21,11300.0
PET,2013-01-22,11100.0
PET,2013-01-23,11000.0
PET,2013-01-24,11300.0
PET,2013-01-25,11400.0
PET,2013-01-28,11600.0
PET,2013-01-29,11600.0
PET,2013-01-30,11700.0
PET,2013-01-31,12500.0
PET,2013-02-01,12300.0
PET,2013-02-04,12200.0
PET,2013-02-05,12400.0
PET,2013-02-06,12500.0
PET,2013-02-07,12500.0
PET,2013-02-08,12700.0
PET,2013-02-18,13200.0
PET,2013-02-19,13700.0
PET,2013-02-20,14100.0
PET,2013-02-21,13500.0
PET,2013-02-22,13700.0
PET,2013-02-25,14000.0
PET,2013-02-26,13400.0
PET,2013-02-27,13400.0
PET,2013-02-28,13500.0
PET,2013-03-01,13500.0
PET,2013-03-04,12900.0
PET,2013-03-05,12300.0
PET,2013-03-06,12700.0
PET,2013-03-07,12800.0
PET,2013-03-08,12900.0
PET,2013-03-11,13500.0
PET,2013-03-12,13800.0
PET,2013-03-13,13500.0
PET,2013-03-14,13500.0
PET,2013-03-15,13500.0
PET,2013-03-18,13500.0
PET,2013-03-19,13400.0
PET,2013-03-20,13400.0
PET,2013-03-21,13500.0
PET,2013-03-22,13800.0
PET,2013-03-25,13800.0
PET,2013-03-26,14700.0
PET,2013-03-27,14700.0
PET,2013-03-28,14300.0
PET,2013-03-29,14300.0
PET,2013-04-01,15000.0
PET,2013-04-02,15400.0
PET,2013-04-03,16000.0
PET,2013-04-04,16800.0
PET,2013-04-05,16600.0
PET,2013-04-08,16400.0
PET,2013-04-09,17500.0
PET,2013-04-10,16400.0
PET,2013-04-11,16100.0
PET,2013-04-12,16100.0
PET,2013-04-15,15100.0
PET,2013-04-16,15700.0
PET,2013-04-17,15700.0
PET,2013-04-18,15400.0
PET,2013-04-22,15400.0
PET,2013-04-23,15800.0
PET,2013-04-24,15800.0
PET,2013-04-25,16300.0
PET,2013-04-26,16200.0
PET,2013-05-02,16200.0
PET,2013-05-03,16800.0
PET,2013-05-06,17300.0
PET,2013-05-07,17400.0
PET,2013-05-08,18000.0
PET,2013-05-09,18200.0
PET,2013-05-10,18400.0
PET,2013-05-13,18000.0
PET,2013-05-14,17500.0
PET,2013-05-15,17700.0
PET,2013-05-16,17600.0
PET,2013-05-17,18000.0
PET,2013-05-20,19300.0
PET,2013-05-21,19600.0
PET,2013-05-22,19200.0
PET,2013-05-23,19500.0
PET,2013-05-24,20100.0
PET,2013-05-27,21000.0
PET,2013-05-28,22400.0
PET,2013-05-29,23100.0
PET,2013-05-30,23100.0
PET,2013-05-31,23000.0
PET,2013-06-03,22400.0
PET,2013-06-04,22000.0
PET,2013-06-05,23200.0
PET,2013-06-06,24400.0
PET,2013-06-07,23900.0
PET,2013-06-10,23400.0
PET,2013-06-11,22900.0
PET,2013-06-12,22400.0
PET,2013-06-13,22900.0
PET,2013-06-14,22900.0
PET,2013-06-17,21400.0
PET,2013-06-18,20200.0
PET,2013-06-19,21600.0
PET,2013-06-20,21200.0
PET,2013-06-21,21900.0
PET,2013-06-24,21000.0
PET,2013-06-25,19600.0
PET,2013-06-26,18800.0
PET,2013-06-27,20100.0
PET,2013-06-28,20400.0
PET,2013-07-01,20000.0
PET,2013-07-02,20600.0
PET,2013-07-03,20100.0
PET,2013-07-04,21100.0
PET,2013-07-05,21400.0
PET,2013-07-08,21000.0
PET,2013-07-09,21000.0
PET,2013-07-10,20700.0
PET,2013-07-11,20800.0
PET,2013-07-12,21800.0
PET,2013-07-15,21900.0
PET,2013-07-16,22300.0
PET,2013-07-17,22300.0
PET,2013-07-18,21700.0
PET,2013-07-19,21800.0
PET,2013-07-22,21400.0
PET,2013-07-23,21500.0
PET,2013-07-24,21100.0
PET,2013-07-25,20100.0
PET,2013-07-26,20100.0
PET,2013-07-29,19400.0
PET,2013-07-30,20200.0
PET,2013-07-31,20100.0
PET,2013-08-01,20100.0
PET,2013-08-02,20100.0
PET,2013-08-05,20100.0
PET,2013-08-06,20400.0
PET,2013-08-07,21100.0
PET,2013-08-08,20600.0
PET,2013-08-09,20600.0
PET,2013-08-12,20400.0
PET,2013-08-13,20100.0
PET,2013-08-14,20800.0
PET,2013-08-15,21300.0
PET,2013-08-16,21600.0
PET,2013-08-19,21700.0
PET,2013-08-20,21500.0
PET,2013-08-21,21100.0
PET,2013-08-22,20700.0
PET,2013-08-23,20500.0
PET,2013-08-26,20800.0
PET,2013-08-27,20100.0
PET,2013-08-28,19400.0
PET,2013-08-29,19000.0
PET,2013-08-30,19600.0
PET,2013-09-03,18800.0
PET,2013-09-04,18600.0
PET,2013-09-05,19000.0
PET,2013-09-06,19400.0
PET,2013-09-09,19000.0
PET,2013-09-10,19600.0
PET,2013-09-11,19800.0
PET,2013-09-12,19700.0
PET,2013-09-13,20000.0
PET,2013-09-16,19600.0
PET,2013-09-17,19900.0
PET,2013-09-18,20100.0
PET,2013-09-19,20400.0
PET,2013-09-20,20200.0
PET,2013-09-23,20700.0
PET,2013-09-24,21200.0
PET,2013-09-25,21100.0
PET,2013-09-26,21200.0
PET,2013-09-27,21600.0
PET,2013-09-30,21700.0
PET,2013-10-01,21600.0
PET,2013-10-02,21300.0
PET,2013-10-03,21400.0
PET,2013-10-04,21800.0
PET,2013-10-07,21800.0
PET,2013-10-08,21700.0
PET,2013-10-09,21500.0
PET,2013-10-10,21000.0
PET,2013-10-11,21000.0
PET,2013-10-14,20800.0
PET,2013-10-15,21100.0
PET,2013-10-16,21300.0
PET,2013-10-17,21600.0
PET,2013-10-18,21500.0
PET,2013-10-21,21600.0
PET,2013-10-22,21800.0
PET,2013-10-23,22200.0
PET,2013-10-24,21700.0
PET,2013-10-25,21700.0
PET,2013-10-28,21100.0
PET,2013-10-29,21400.0
PET,2013-10-30,21300.0
PET,2013-10-31,21100.0
PET,2013-11-01,21200.0
PET,2013-11-04,21300.0
PET,2013-11-05,21600.0
PET,2013-11-06,21400.0
PET,2013-11-07,21500.0
PET,2013-11-08,21400.0
PET,2013-11-11,21500.0
PET,2013-11-12,21400.0
PET,2013-11-13,21300.0
PET,2013-11-14,21300.0
PET,2013-11-15,21700.0
PET,2013-11-18,21900.0
PET,2013-11-19,21800.0
PET,2013-11-20,21800.0
PET,2013-11-21,21700.0
PET,2013-11-22,21800.0
PET,2013-11-25,22200.0
PET,2013-11-26,22300.0
PET,2013-11-27,22300.0
PET,2013-11-28,22100.0
PET,2013-11-29,21900.0
PET,2013-12-02,22100.0
PET,2013-12-03,22000.0
PET,2013-12-04,22100.0
PET,2013-12-05,22100.0
PET,2013-12-06,21900.0
PET,2013-12-09,21800.0
PET,2013-12-10,21600.0
PET,2013-12-11,21400.0
PET,2013-12-12,21300.0
PET,2013-12-13,21400.0
PET,2013-12-16,21400.0
PET,2013-12-17,21400.0
PET,2013-12-18,21300.0
PET,2013-12-19,21500.0
PET,2013-12-20,21500.0
PET,2013-12-23,21400.0
PET,2013-12-24,21500.0
PET,2013-12-25,21300.0
PET,2013-12-26,21100.0
PET,2013-12-27,21000.0
PET,2013-12-30,20300.0
PET,2013-12-31,20800.0
PET,2014-01-02,20600.0
PET,2014-01-03,20400.0
PET,2014-01-06,21000.0
PET,2014-01-07,20800.0
PET,2014-01-08,21500.0
PET,2014-01-09,21800.0
PET,2014-01-10,21900.0
PET,2014-01-13,21900.0
PET,2014-01-14,21900.0
PET,2014-01-15,21600.0
PET,2014-01-16,21500.0
PET,2014-01-17,21600.0
PET,2014-01-20,21500.0
PET,2014-01-21,21500.0
PET,2014-01-22,21500.0
PET,2014-01-23,21700.0
PET,2014-01-24,21700.0
PET,2014-01-27,21700.0
PET,2014-02-06,21700.0
PET,2014-02-07,21700.0
PET,2014-02-10,22100.0
PET,2014-02-11,22800.0
PET,2014-02-12,23500.0
PET,2014-02-13,23300.0
PET,2014-02-14,23100.0
PET,2014-02-17,22500.0
PET,2014-02-18,22700.0
PET,2014-02-19,22700.0
PET,2014-02-20,22000.0
PET,2014-02-21,22100.0
PET,2014-02-24,22200.0
PET,2014-02-25,22600.0
PET,2014-02-26,22700.0
PET,2014-02-27,22300.0
PET,2014-02-28,22000.0
PET,2014-03-03,21100.0
PET,2014-03-04,20900.0
PET,2014-03-05,21000.0
PET,2014-03-06,22000.0
PET,2014-03-07,21600.0
PET,2014-03-10,22300.0
PET,2014-03-11,21800.0
PET,2014-03-12,21600.0
PET,2014-03-13,21700.0
PET,2014-03-14,21500.0
PET,2014-03-17,21300.0
PET,2014-03-18,21600.0
PET,2014-03-19,22000.0
PET,2014-03-20,21600.0
PET,2014-03-21,21900.0
PET,2014-03-24,22800.0
PET,2014-03-25,22300.0
PET,2014-03-26,21700.0
PET,2014-03-27,21700.0
PET,2014-03-28,21700.0
PET,2014-03-31,21500.0
PET,2014-04-01,21100.0
PET,2014-04-02,20600.0
PET,2014-04-03,20900.0
PET,2014-04-04,20700.0
PET,2014-04-07,20800.0
PET,2014-04-08,21200.0
PET,2014-04-10,21100.0
PET,2014-04-11,20800.0
PET,2014-04-14,20400.0
PET,2014-04-15,20000.0
PET,2014-04-16,18600.0
PET,2014-04-17,18700.0
PET,2014-04-18,18000.0
PET,2014-04-21,17400.0
PET,2014-04-22,17800.0
PET,2014-04-23,17500.0
PET,2014-04-24,17900.0
PET,2014-04-25,17900.0
PET,2014-04-28,17800.0
PET,2014-04-29,17800.0
PET,2014-05-05,17200.0
PET,2014-05-06,16700.0
PET,2014-05-07,16700.0
PET,2014-05-08,15600.0
PET,2014-05-09,15900.0
PET,2014-05-12,14800.0
PET,2014-05-13,14400.0
PET,2014-05-14,15300.0
PET,2014-05-15,15200.0
PET,2014-05-16,15600.0
PET,2014-05-19,15700.0
PET,2014-05-20,15900.0
PET,2014-05-21,16400.0
