PVD,2006-12-05,40600.0
PVD,2006-12-06,38700.0
PVD,2006-12-07,36900.0
PVD,2006-12-08,35300.0
PVD,2006-12-11,36900.0
PVD,2006-12-12,37500.0
PVD,2006-12-13,39400.0
PVD,2006-12-14,41200.0
PVD,2006-12-15,43100.0
PVD,2006-12-18,45000.0
PVD,2006-12-19,47200.0
PVD,2006-12-20,49400.0
PVD,2006-12-21,47500.0
PVD,2006-12-22,45300.0
PVD,2006-12-25,47500.0
PVD,2006-12-26,49700.0
PVD,2006-12-27,51900.0
PVD,2006-12-28,51900.0
PVD,2006-12-29,52200.0
PVD,2007-01-02,50600.0
PVD,2007-01-03,52500.0
PVD,2007-01-04,55000.0
PVD,2007-01-05,57500.0
PVD,2007-01-08,60300.0
PVD,2007-01-09,63100.0
PVD,2007-01-10,66200.0
PVD,2007-01-11,69400.0
PVD,2007-01-12,72800.0
PVD,2007-01-15,76200.0
PVD,2007-01-16,80000.0
PVD,2007-01-17,83700.0
PVD,2007-01-18,87800.0
PVD,2007-01-19,92200.0
PVD,2007-01-22,92200.0
PVD,2007-01-23,92200.0
PVD,2007-01-24,87800.0
PVD,2007-01-25,83400.0
PVD,2007-01-26,79400.0
PVD,2007-01-29,83100.0
PVD,2007-01-30,87200.0
PVD,2007-01-31,91200.0
PVD,2007-02-01,86800.0
PVD,2007-02-02,88700.0
PVD,2007-02-05,88700.0
PVD,2007-02-06,88700.0
PVD,2007-02-07,88700.0
PVD,2007-02-08,84300.0
PVD,2007-02-09,84300.0
PVD,2007-02-12,87800.0
PVD,2007-02-13,87500.0
PVD,2007-02-14,87500.0
PVD,2007-02-15,88100.0
PVD,2007-02-26,92500.0
PVD,2007-02-27,96800.0
PVD,2007-02-28,93100.0
PVD,2007-03-01,90600.0
PVD,2007-03-02,92200.0
PVD,2007-03-05,90300.0
PVD,2007-03-06,85900.0
PVD,2007-03-07,86800.0
PVD,2007-03-08,86500.0
PVD,2007-03-09,86500.0
PVD,2007-03-12,87500.0
PVD,2007-03-13,84300.0
PVD,2007-03-14,80900.0
PVD,2007-03-15,78100.0
PVD,2007-03-16,81900.0
PVD,2007-03-19,81900.0
PVD,2007-03-20,78700.0
PVD,2007-03-21,79000.0
PVD,2007-03-22,77200.0
PVD,2007-03-23,77500.0
PVD,2007-03-26,77500.0
PVD,2007-03-27,76500.0
PVD,2007-03-28,76500.0
PVD,2007-03-29,76500.0
PVD,2007-03-30,76500.0
PVD,2007-04-02,76500.0
PVD,2007-04-03,73400.0
PVD,2007-04-04,76900.0
PVD,2007-04-05,77500.0
PVD,2007-04-06,77800.0
PVD,2007-04-09,81500.0
PVD,2007-04-10,78100.0
PVD,2007-04-11,78400.0
PVD,2007-04-12,77500.0
PVD,2007-04-13,77500.0
PVD,2007-04-16,73700.0
PVD,2007-04-17,70900.0
PVD,2007-04-18,73700.0
PVD,2007-04-19,70300.0
PVD,2007-04-20,68700.0
PVD,2007-04-23,65300.0
PVD,2007-04-24,62200.0
PVD,2007-04-25,63400.0
PVD,2007-05-02,62500.0
PVD,2007-05-03,62800.0
PVD,2007-05-04,64400.0
PVD,2007-05-07,67500.0
PVD,2007-05-08,70600.0
PVD,2007-05-09,71900.0
PVD,2007-05-10,73100.0
PVD,2007-05-11,75900.0
PVD,2007-05-14,79700.0
PVD,2007-05-15,78100.0
PVD,2007-05-16,78100.0
PVD,2007-05-17,78100.0
PVD,2007-05-18,78700.0
PVD,2007-05-21,79000.0
PVD,2007-05-22,82800.0
PVD,2007-05-23,81900.0
PVD,2007-05-24,80600.0
PVD,2007-05-25,81200.0
PVD,2007-05-28,81500.0
PVD,2007-05-29,81900.0
PVD,2007-05-30,81900.0
PVD,2007-05-31,82800.0
PVD,2007-06-01,81200.0
PVD,2007-06-04,79000.0
PVD,2007-06-05,79700.0
PVD,2007-06-06,79700.0
PVD,2007-06-07,79400.0
PVD,2007-06-08,78100.0
PVD,2007-06-11,76200.0
PVD,2007-06-12,76500.0
PVD,2007-06-13,76900.0
PVD,2007-06-14,78100.0
PVD,2007-06-15,80000.0
PVD,2007-06-18,80000.0
PVD,2007-06-19,81000.0
PVD,2007-06-20,82500.0
PVD,2007-06-21,82000.0
PVD,2007-06-22,82000.0
PVD,2007-06-25,81500.0
PVD,2007-06-26,82900.0
PVD,2007-06-27,81000.0
PVD,2007-06-28,82000.0
PVD,2007-06-29,81000.0
PVD,2007-07-02,77500.0
PVD,2007-07-03,78000.0
PVD,2007-07-04,81500.0
PVD,2007-07-05,82000.0
PVD,2007-07-06,82000.0
PVD,2007-07-09,83400.0
PVD,2007-07-10,85400.0
PVD,2007-07-11,85900.0
PVD,2007-07-12,82500.0
PVD,2007-07-13,83400.0
PVD,2007-07-16,81000.0
PVD,2007-07-17,81000.0
PVD,2007-07-18,80000.0
PVD,2007-07-19,79500.0
PVD,2007-07-20,79500.0
PVD,2007-07-23,78000.0
PVD,2007-07-24,80000.0
PVD,2007-07-25,79500.0
PVD,2007-07-26,79500.0
PVD,2007-07-27,79000.0
PVD,2007-07-30,78500.0
PVD,2007-07-31,79500.0
PVD,2007-08-01,79500.0
PVD,2007-08-02,79500.0
PVD,2007-08-03,78000.0
PVD,2007-08-06,76100.0
PVD,2007-08-07,78000.0
PVD,2007-08-08,77500.0
PVD,2007-08-09,79500.0
PVD,2007-08-10,78000.0
PVD,2007-08-13,76600.0
PVD,2007-08-14,77500.0
PVD,2007-08-15,76600.0
PVD,2007-08-16,75600.0
PVD,2007-08-17,74600.0
PVD,2007-08-20,74100.0
PVD,2007-08-21,74600.0
PVD,2007-08-22,73600.0
PVD,2007-08-23,71200.0
PVD,2007-08-24,71200.0
PVD,2007-08-27,72600.0
PVD,2007-08-28,71200.0
PVD,2007-08-29,70700.0
PVD,2007-08-30,72200.0
PVD,2007-08-31,71700.0
PVD,2007-09-04,73600.0
PVD,2007-09-05,74600.0
PVD,2007-09-06,76600.0
PVD,2007-09-07,78500.0
PVD,2007-09-10,77100.0
PVD,2007-09-11,75600.0
PVD,2007-09-12,75600.0
PVD,2007-09-13,74600.0
PVD,2007-09-14,76600.0
PVD,2007-09-17,78000.0
PVD,2007-09-18,75600.0
PVD,2007-09-19,76100.0
PVD,2007-09-20,76100.0
PVD,2007-09-21,75600.0
PVD,2007-09-24,77100.0
PVD,2007-09-25,80000.0
PVD,2007-09-26,80000.0
PVD,2007-09-27,79500.0
PVD,2007-09-28,83400.0
PVD,2007-10-01,87400.0
PVD,2007-10-02,87900.0
PVD,2007-10-03,87900.0
PVD,2007-10-04,85400.0
PVD,2007-10-05,83400.0
PVD,2007-10-08,82500.0
PVD,2007-10-09,82900.0
PVD,2007-10-10,84400.0
PVD,2007-10-11,84400.0
PVD,2007-10-12,84900.0
PVD,2007-10-15,86400.0
PVD,2007-10-16,85900.0
PVD,2007-10-17,85400.0
PVD,2007-10-18,85900.0
PVD,2007-10-19,85900.0
PVD,2007-10-22,84900.0
PVD,2007-10-23,83400.0
PVD,2007-10-24,84400.0
PVD,2007-10-25,85400.0
PVD,2007-10-26,83900.0
PVD,2007-10-29,81500.0
PVD,2007-10-30,82500.0
PVD,2007-10-31,82000.0
PVD,2007-11-01,82000.0
PVD,2007-11-02,81000.0
PVD,2007-11-05,78500.0
PVD,2007-11-06,81000.0
PVD,2007-11-07,81000.0
PVD,2007-11-08,78500.0
PVD,2007-11-09,77500.0
PVD,2007-11-12,77100.0
PVD,2007-11-13,74100.0
PVD,2007-11-14,77100.0
PVD,2007-11-15,78500.0
PVD,2007-11-16,77100.0
PVD,2007-11-19,76600.0
PVD,2007-11-20,75600.0
PVD,2007-11-21,75600.0
PVD,2007-11-22,75600.0
PVD,2007-11-23,75600.0
PVD,2007-11-26,76600.0
PVD,2007-11-27,76100.0
PVD,2007-11-28,76100.0
PVD,2007-11-29,75600.0
PVD,2007-11-30,74100.0
PVD,2007-12-03,76100.0
PVD,2007-12-04,76600.0
PVD,2007-12-05,76100.0
PVD,2007-12-06,76100.0
PVD,2007-12-07,75600.0
PVD,2007-12-10,74600.0
PVD,2007-12-11,72600.0
PVD,2007-12-12,73600.0
PVD,2007-12-13,72200.0
PVD,2007-12-14,71200.0
PVD,2007-12-17,70700.0
PVD,2007-12-18,73100.0
PVD,2007-12-19,75600.0
PVD,2007-12-20,75600.0
PVD,2007-12-21,76600.0
PVD,2007-12-24,75600.0
PVD,2007-12-25,72600.0
PVD,2007-12-26,74600.0
PVD,2007-12-27,73100.0
PVD,2007-12-28,74600.0
PVD,2008-01-02,75100.0
PVD,2008-01-03,73600.0
PVD,2008-01-04,73100.0
PVD,2008-01-07,72600.0
PVD,2008-01-08,72600.0
PVD,2008-01-09,71700.0
PVD,2008-01-10,68700.0
PVD,2008-01-11,69700.0
PVD,2008-01-14,67700.0
PVD,2008-01-15,65800.0
PVD,2008-01-16,68700.0
PVD,2008-01-17,67700.0
PVD,2008-01-18,69700.0
PVD,2008-01-21,69200.0
PVD,2008-01-22,67700.0
PVD,2008-01-23,65800.0
PVD,2008-01-24,65300.0
PVD,2008-01-25,66300.0
PVD,2008-01-28,67200.0
PVD,2008-01-29,70200.0
PVD,2008-01-30,73600.0
PVD,2008-01-31,73100.0
PVD,2008-02-01,73600.0
PVD,2008-02-12,70700.0
PVD,2008-02-13,68700.0
PVD,2008-02-14,69200.0
PVD,2008-02-15,69200.0
PVD,2008-02-18,65800.0
PVD,2008-02-19,64300.0
PVD,2008-02-20,61400.0
PVD,2008-02-21,58400.0
PVD,2008-02-22,56000.0
PVD,2008-02-25,58400.0
PVD,2008-02-26,56000.0
PVD,2008-02-27,56900.0
PVD,2008-02-28,57400.0
PVD,2008-02-29,57400.0
PVD,2008-03-03,56000.0
PVD,2008-03-04,53500.0
PVD,2008-03-05,51000.0
PVD,2008-03-06,53500.0
PVD,2008-03-07,56000.0
PVD,2008-03-10,58400.0
PVD,2008-03-11,56400.0
PVD,2008-03-12,57900.0
PVD,2008-03-13,58900.0
PVD,2008-03-14,59900.0
PVD,2008-03-17,56900.0
PVD,2008-03-18,54500.0
PVD,2008-03-19,55500.0
PVD,2008-03-20,55000.0
PVD,2008-03-21,53500.0
PVD,2008-03-24,51000.0
PVD,2008-03-25,48600.0
PVD,2008-03-26,50100.0
PVD,2008-03-27,50600.0
PVD,2008-03-28,51000.0
PVD,2008-03-31,51500.0
PVD,2008-04-01,52000.0
PVD,2008-04-02,52500.0
PVD,2008-04-03,53000.0
PVD,2008-04-04,53500.0
PVD,2008-04-07,54500.0
PVD,2008-04-08,55500.0
PVD,2008-04-09,56400.0
PVD,2008-04-10,55500.0
PVD,2008-04-11,54500.0
PVD,2008-04-16,53500.0
PVD,2008-04-17,54500.0
PVD,2008-04-18,55500.0
PVD,2008-04-21,56400.0
PVD,2008-04-22,56900.0
PVD,2008-04-23,56000.0
PVD,2008-04-24,56000.0
PVD,2008-04-25,55500.0
PVD,2008-04-28,56400.0
PVD,2008-04-29,57400.0
PVD,2008-05-05,58400.0
PVD,2008-05-06,57400.0
PVD,2008-05-07,56400.0
PVD,2008-05-08,55400.0
PVD,2008-05-09,54500.0
PVD,2008-05-12,53600.0
PVD,2008-05-13,52700.0
PVD,2008-05-14,51800.0
PVD,2008-05-15,50900.0
PVD,2008-05-16,50000.0
PVD,2008-05-19,49100.0
PVD,2008-05-20,48200.0
PVD,2008-05-21,47300.0
PVD,2008-05-22,46400.0
PVD,2008-05-23,45500.0
PVD,2008-05-26,44600.0
PVD,2008-05-30,44000.0
PVD,2008-06-02,43400.0
PVD,2008-06-03,42800.0
PVD,2008-06-04,42200.0
PVD,2008-06-05,41600.0
PVD,2008-06-06,41000.0
PVD,2008-06-09,40400.0
PVD,2008-06-10,39800.0
PVD,2008-06-11,39200.0
PVD,2008-06-12,39800.0
PVD,2008-06-13,40400.0
PVD,2008-06-16,41000.0
PVD,2008-06-17,41600.0
PVD,2008-06-18,41000.0
PVD,2008-06-19,39800.0
PVD,2008-06-20,38900.0
PVD,2008-06-23,39800.0
PVD,2008-06-24,40700.0
PVD,2008-06-25,41900.0
PVD,2008-06-26,43100.0
PVD,2008-06-27,44300.0
PVD,2008-06-30,45500.0
PVD,2008-07-01,46700.0
PVD,2008-07-02,47900.0
PVD,2008-07-03,49100.0
PVD,2008-07-04,50300.0
PVD,2008-07-07,51800.0
PVD,2008-07-08,53300.0
PVD,2008-07-09,54800.0
PVD,2008-07-10,56300.0
PVD,2008-07-11,57800.0
PVD,2008-07-14,59300.0
PVD,2008-07-15,60500.0
PVD,2008-07-16,62300.0
PVD,2008-07-17,64100.0
PVD,2008-07-18,62300.0
PVD,2008-07-21,60500.0
PVD,2008-07-22,58700.0
PVD,2008-07-23,57200.0
PVD,2008-07-24,55700.0
PVD,2008-07-25,54200.0
PVD,2008-07-28,55700.0
PVD,2008-07-29,57200.0
PVD,2008-07-30,58400.0
PVD,2008-07-31,59900.0
PVD,2008-08-01,58100.0
PVD,2008-08-04,56600.0
PVD,2008-08-05,55100.0
PVD,2008-08-06,56600.0
PVD,2008-08-07,56600.0
PVD,2008-08-08,57800.0
PVD,2008-08-11,59300.0
PVD,2008-08-12,60500.0
PVD,2008-08-13,60500.0
PVD,2008-08-14,62300.0
PVD,2008-08-15,64100.0
PVD,2008-08-18,67000.0
PVD,2008-08-19,68200.0
PVD,2008-08-20,65800.0
PVD,2008-08-21,68800.0
PVD,2008-08-22,71800.0
PVD,2008-08-25,75400.0
PVD,2008-08-26,77800.0
PVD,2008-08-27,74200.0
PVD,2008-08-28,70600.0
PVD,2008-08-29,67600.0
PVD,2008-09-03,67600.0
PVD,2008-09-04,67600.0
PVD,2008-09-05,64700.0
PVD,2008-09-08,61700.0
PVD,2008-09-09,58700.0
PVD,2008-09-10,59600.0
PVD,2008-09-11,57800.0
PVD,2008-09-12,55100.0
PVD,2008-09-15,54200.0
PVD,2008-09-16,51500.0
PVD,2008-09-17,49100.0
PVD,2008-09-18,46700.0
PVD,2008-09-19,48800.0
PVD,2008-09-22,51200.0
PVD,2008-09-23,53600.0
PVD,2008-09-24,53900.0
PVD,2008-09-25,56600.0
PVD,2008-09-26,59300.0
PVD,2008-09-29,61700.0
PVD,2008-09-30,58700.0
PVD,2008-10-01,58100.0
PVD,2008-10-02,55700.0
PVD,2008-10-03,55100.0
PVD,2008-10-06,52400.0
PVD,2008-10-07,50000.0
PVD,2008-10-08,48500.0
PVD,2008-10-09,49100.0
PVD,2008-10-10,46700.0
PVD,2008-10-13,46700.0
PVD,2008-10-14,48800.0
PVD,2008-10-15,51200.0
PVD,2008-10-16,49700.0
PVD,2008-10-17,49400.0
PVD,2008-10-20,47000.0
PVD,2008-10-21,49100.0
PVD,2008-10-22,49700.0
PVD,2008-10-23,47300.0
PVD,2008-10-24,45200.0
PVD,2008-10-27,43100.0
PVD,2008-10-28,42500.0
PVD,2008-10-29,44600.0
PVD,2008-10-30,46700.0
PVD,2008-10-31,47900.0
PVD,2008-11-03,47600.0
PVD,2008-11-04,49700.0
PVD,2008-11-05,52100.0
PVD,2008-11-06,50300.0
PVD,2008-11-07,47900.0
PVD,2008-11-10,46700.0
PVD,2008-11-11,44600.0
PVD,2008-11-12,42500.0
PVD,2008-11-13,43100.0
PVD,2008-11-14,43100.0
PVD,2008-11-17,42800.0
PVD,2008-11-18,41600.0
PVD,2008-11-19,41000.0
PVD,2008-11-20,40400.0
PVD,2008-11-21,38900.0
PVD,2008-11-24,39800.0
PVD,2008-11-25,40100.0
PVD,2008-11-26,40100.0
PVD,2008-11-27,41900.0
PVD,2008-11-28,43400.0
PVD,2008-12-01,41600.0
PVD,2008-12-02,41600.0
PVD,2008-12-03,41600.0
PVD,2008-12-04,42800.0
PVD,2008-12-05,41000.0
PVD,2008-12-08,39700.0
PVD,2008-12-09,41300.0
PVD,2008-12-10,41600.0
PVD,2008-12-11,41900.0
PVD,2008-12-12,43500.0
PVD,2008-12-15,43500.0
PVD,2008-12-16,42200.0
PVD,2008-12-17,42800.0
PVD,2008-12-18,43500.0
PVD,2008-12-19,41900.0
PVD,2008-12-22,43800.0
PVD,2008-12-23,45000.0
PVD,2008-12-24,45000.0
PVD,2008-12-25,46000.0
PVD,2008-12-26,47500.0
PVD,2008-12-29,49700.0
PVD,2008-12-30,50900.0
PVD,2008-12-31,52800.0
PVD,2009-01-02,50300.0
PVD,2009-01-05,47800.0
PVD,2009-01-06,46300.0
PVD,2009-01-07,47800.0
PVD,2009-01-08,46900.0
PVD,2009-01-09,47200.0
PVD,2009-01-12,46600.0
PVD,2009-01-13,46300.0
PVD,2009-01-14,46600.0
PVD,2009-01-15,44700.0
PVD,2009-01-16,44700.0
PVD,2009-01-19,45300.0
PVD,2009-01-20,44700.0
PVD,2009-01-21,43800.0
PVD,2009-01-22,43800.0
PVD,2009-01-23,44700.0
PVD,2009-02-02,43800.0
PVD,2009-02-03,43200.0
PVD,2009-02-04,43200.0
PVD,2009-02-05,42800.0
PVD,2009-02-06,42200.0
PVD,2009-02-09,42200.0
PVD,2009-02-10,42200.0
PVD,2009-02-11,41000.0
PVD,2009-02-12,41300.0
PVD,2009-02-13,40400.0
PVD,2009-02-16,39700.0
PVD,2009-02-17,37900.0
PVD,2009-02-18,36300.0
PVD,2009-02-19,35400.0
PVD,2009-02-20,35700.0
PVD,2009-02-23,34200.0
PVD,2009-02-24,32600.0
PVD,2009-02-25,33800.0
PVD,2009-02-26,32900.0
PVD,2009-02-27,33500.0
PVD,2009-03-02,34500.0
PVD,2009-03-03,32900.0
PVD,2009-03-04,33500.0
PVD,2009-03-05,32600.0
PVD,2009-03-06,32600.0
PVD,2009-03-09,32900.0
PVD,2009-03-10,33200.0
PVD,2009-03-11,33200.0
PVD,2009-03-12,32900.0
PVD,2009-03-13,32900.0
PVD,2009-03-16,33500.0
PVD,2009-03-17,35100.0
PVD,2009-03-18,36600.0
PVD,2009-03-19,36000.0
PVD,2009-03-20,36000.0
PVD,2009-03-23,34500.0
PVD,2009-03-24,36000.0
PVD,2009-03-25,37600.0
PVD,2009-03-26,39400.0
PVD,2009-03-27,37600.0
PVD,2009-03-30,36900.0
PVD,2009-03-31,36300.0
PVD,2009-04-01,37600.0
PVD,2009-04-02,39100.0
PVD,2009-04-03,41000.0
PVD,2009-04-07,42800.0
PVD,2009-04-08,41000.0
PVD,2009-04-09,40400.0
PVD,2009-04-10,42200.0
PVD,2009-04-13,44100.0
PVD,2009-04-14,44100.0
PVD,2009-04-15,42200.0
PVD,2009-04-16,42200.0
PVD,2009-04-17,43500.0
PVD,2009-04-20,41300.0
PVD,2009-04-21,39400.0
PVD,2009-04-22,41300.0
PVD,2009-04-23,41000.0
PVD,2009-04-24,39100.0
PVD,2009-04-27,41000.0
PVD,2009-04-28,41000.0
PVD,2009-04-29,42800.0
PVD,2009-05-04,44700.0
PVD,2009-05-05,46600.0
PVD,2009-05-06,44400.0
PVD,2009-05-07,46000.0
PVD,2009-05-08,45600.0
PVD,2009-05-11,46000.0
PVD,2009-05-12,46300.0
PVD,2009-05-13,46000.0
PVD,2009-05-14,45000.0
PVD,2009-05-15,45600.0
PVD,2009-05-18,45000.0
PVD,2009-05-19,44100.0
PVD,2009-05-20,44100.0
PVD,2009-05-21,44400.0
PVD,2009-05-22,42800.0
PVD,2009-05-25,44700.0
PVD,2009-05-26,43500.0
PVD,2009-05-27,45600.0
PVD,2009-05-28,46300.0
PVD,2009-05-29,46000.0
PVD,2009-06-01,46900.0
PVD,2009-06-02,46900.0
PVD,2009-06-03,47800.0
PVD,2009-06-04,49700.0
PVD,2009-06-05,52200.0
PVD,2009-06-08,54600.0
PVD,2009-06-09,57100.0
PVD,2009-06-10,54300.0
PVD,2009-06-11,55000.0
PVD,2009-06-12,52800.0
PVD,2009-06-15,50300.0
PVD,2009-06-16,47800.0
PVD,2009-06-17,50000.0
PVD,2009-06-18,49100.0
PVD,2009-06-19,47200.0
PVD,2009-06-22,47800.0
PVD,2009-06-23,47800.0
PVD,2009-06-24,50000.0
PVD,2009-06-25,51800.0
PVD,2009-06-26,53400.0
PVD,2009-06-29,52200.0
PVD,2009-06-30,52200.0
PVD,2009-07-01,49700.0
PVD,2009-07-02,48100.0
PVD,2009-07-03,48400.0
PVD,2009-07-06,50000.0
PVD,2009-07-07,47800.0
PVD,2009-07-08,47800.0
PVD,2009-07-09,46900.0
PVD,2009-07-10,46600.0
PVD,2009-07-13,45600.0
PVD,2009-07-14,45000.0
PVD,2009-07-15,46300.0
PVD,2009-07-16,46600.0
PVD,2009-07-17,46600.0
PVD,2009-07-20,45000.0
PVD,2009-07-21,46600.0
PVD,2009-07-22,46900.0
PVD,2009-07-23,47500.0
PVD,2009-07-24,49700.0
PVD,2009-07-27,51500.0
PVD,2009-07-28,49400.0
PVD,2009-07-29,49700.0
PVD,2009-07-30,48700.0
PVD,2009-07-31,48700.0
PVD,2009-08-03,48700.0
PVD,2009-08-04,48700.0
PVD,2009-08-05,49100.0
PVD,2009-08-06,49100.0
PVD,2009-08-07,49700.0
PVD,2009-08-10,50600.0
PVD,2009-08-11,50300.0
PVD,2009-08-12,51200.0
PVD,2009-08-13,50900.0
PVD,2009-08-14,51200.0
PVD,2009-08-17,50000.0
PVD,2009-08-18,50300.0
PVD,2009-08-19,52200.0
PVD,2009-08-20,54600.0
PVD,2009-08-21,57100.0
PVD,2009-08-24,59900.0
PVD,2009-08-25,57100.0
PVD,2009-08-26,59600.0
PVD,2009-08-27,58700.0
PVD,2009-08-28,58400.0
PVD,2009-08-31,59300.0
PVD,2009-09-01,59000.0
PVD,2009-09-03,58100.0
PVD,2009-09-04,56800.0
PVD,2009-09-08,57700.0
PVD,2009-09-09,57700.0
PVD,2009-09-10,58400.0
PVD,2009-09-11,60200.0
PVD,2009-09-14,59900.0
PVD,2009-09-15,59300.0
PVD,2009-09-16,62100.0
PVD,2009-09-17,61500.0
PVD,2009-09-18,60900.0
PVD,2009-09-21,60900.0
PVD,2009-09-22,60200.0
PVD,2009-09-23,60900.0
PVD,2009-09-24,59600.0
PVD,2009-09-25,59000.0
PVD,2009-09-28,57700.0
PVD,2009-09-29,60500.0
PVD,2009-09-30,60500.0
PVD,2009-10-01,59000.0
PVD,2009-10-02,56800.0
PVD,2009-10-05,57700.0
PVD,2009-10-06,58400.0
PVD,2009-10-07,59300.0
PVD,2009-10-08,59600.0
PVD,2009-10-09,59900.0
PVD,2009-10-12,60200.0
PVD,2009-10-13,59600.0
PVD,2009-10-14,60200.0
PVD,2009-10-15,60200.0
PVD,2009-10-16,60200.0
PVD,2009-10-19,59600.0
PVD,2009-10-20,59300.0
PVD,2009-10-21,61200.0
PVD,2009-10-22,59900.0
PVD,2009-10-23,59600.0
PVD,2009-10-26,58400.0
PVD,2009-10-27,57100.0
PVD,2009-10-28,58400.0
PVD,2009-10-29,57100.0
PVD,2009-10-30,57400.0
PVD,2009-11-02,54600.0
PVD,2009-11-03,52200.0
PVD,2009-11-04,52800.0
PVD,2009-11-05,53400.0
PVD,2009-11-06,51800.0
PVD,2009-11-09,49400.0
PVD,2009-11-10,49100.0
PVD,2009-11-11,50300.0
PVD,2009-11-12,52500.0
PVD,2009-11-13,51500.0
PVD,2009-11-16,52200.0
PVD,2009-11-17,54300.0
PVD,2009-11-18,56500.0
PVD,2009-11-19,58100.0
PVD,2009-11-20,57700.0
PVD,2009-11-23,55300.0
PVD,2009-11-24,54300.0
PVD,2009-11-25,51800.0
PVD,2009-11-26,49700.0
PVD,2009-11-27,52200.0
PVD,2009-11-30,54600.0
PVD,2009-12-01,55300.0
PVD,2009-12-02,53100.0
PVD,2009-12-03,52200.0
PVD,2009-12-04,52200.0
PVD,2009-12-07,52500.0
PVD,2009-12-08,52200.0
PVD,2009-12-09,50000.0
PVD,2009-12-10,49700.0
PVD,2009-12-11,49400.0
PVD,2009-12-14,51500.0
PVD,2009-12-15,51800.0
PVD,2009-12-16,49400.0
PVD,2009-12-17,49100.0
PVD,2009-12-18,46800.0
PVD,2009-12-21,48800.0
PVD,2009-12-22,50900.0
PVD,2009-12-23,53400.0
PVD,2009-12-24,55500.0
PVD,2009-12-25,55900.0
PVD,2009-12-28,55900.0
PVD,2009-12-29,54600.0
PVD,2009-12-30,56300.0
PVD,2009-12-31,55900.0
PVD,2010-01-04,58400.0
PVD,2010-01-05,58000.0
PVD,2010-01-06,57100.0
PVD,2010-01-07,57100.0
PVD,2010-01-08,56300.0
PVD,2010-01-11,55100.0
PVD,2010-01-12,53400.0
PVD,2010-01-13,53800.0
PVD,2010-01-14,53800.0
PVD,2010-01-15,52600.0
PVD,2010-01-18,50100.0
PVD,2010-01-19,52600.0
PVD,2010-01-20,50100.0
PVD,2010-01-21,49700.0
PVD,2010-01-22,48800.0
PVD,2010-01-25,48800.0
PVD,2010-01-26,50100.0
PVD,2010-01-27,48000.0
PVD,2010-01-28,47600.0
PVD,2010-01-29,48000.0
PVD,2010-02-01,48400.0
PVD,2010-02-02,48400.0
PVD,2010-02-03,48800.0
PVD,2010-02-04,49300.0
PVD,2010-02-05,48000.0
PVD,2010-02-08,46800.0
PVD,2010-02-09,45100.0
PVD,2010-02-10,46400.0
PVD,2010-02-11,48400.0
PVD,2010-02-12,49300.0
PVD,2010-02-22,49300.0
PVD,2010-02-23,47600.0
PVD,2010-02-24,48000.0
PVD,2010-02-25,46800.0
PVD,2010-02-26,46800.0
PVD,2010-03-01,47200.0
PVD,2010-03-02,46800.0
PVD,2010-03-03,48400.0
PVD,2010-03-04,50100.0
PVD,2010-03-05,50500.0
PVD,2010-03-08,50900.0
PVD,2010-03-09,51300.0
PVD,2010-03-10,52200.0
PVD,2010-03-11,51700.0
PVD,2010-03-12,51700.0
PVD,2010-03-15,50900.0
PVD,2010-03-16,49300.0
PVD,2010-03-17,48800.0
PVD,2010-03-18,49300.0
PVD,2010-03-19,49700.0
PVD,2010-03-22,48800.0
PVD,2010-03-23,48000.0
PVD,2010-03-24,48000.0
PVD,2010-03-25,47600.0
PVD,2010-03-26,48000.0
PVD,2010-03-29,47600.0
PVD,2010-03-30,46400.0
PVD,2010-03-31,46400.0
PVD,2010-04-01,48000.0
PVD,2010-04-02,48000.0
PVD,2010-04-05,48000.0
PVD,2010-04-06,47600.0
PVD,2010-04-07,47200.0
PVD,2010-04-08,47600.0
PVD,2010-04-09,48400.0
PVD,2010-04-12,47200.0
PVD,2010-04-13,46800.0
PVD,2010-04-14,46800.0
PVD,2010-04-15,46400.0
PVD,2010-04-16,46000.0
PVD,2010-04-19,45500.0
PVD,2010-04-20,44700.0
PVD,2010-04-21,46800.0
PVD,2010-04-22,48000.0
PVD,2010-04-26,48000.0
PVD,2010-04-27,47200.0
PVD,2010-04-28,46400.0
PVD,2010-04-29,46000.0
PVD,2010-05-04,46400.0
PVD,2010-05-05,46000.0
PVD,2010-05-06,45500.0
PVD,2010-05-07,45100.0
PVD,2010-05-10,44700.0
PVD,2010-05-11,44700.0
PVD,2010-05-12,44300.0
PVD,2010-05-13,45500.0
PVD,2010-05-14,44700.0
PVD,2010-05-17,43500.0
PVD,2010-05-18,42200.0
PVD,2010-05-19,40600.0
PVD,2010-05-20,41000.0
PVD,2010-05-21,39000.0
PVD,2010-05-24,40600.0
PVD,2010-05-25,41000.0
PVD,2010-05-26,41100.0
PVD,2010-05-27,41100.0
PVD,2010-05-28,42600.0
PVD,2010-05-31,42200.0
PVD,2010-06-01,41800.0
PVD,2010-06-02,41300.0
PVD,2010-06-03,41200.0
PVD,2010-06-04,40700.0
PVD,2010-06-07,39500.0
PVD,2010-06-08,40300.0
PVD,2010-06-09,39800.0
PVD,2010-06-10,40000.0
PVD,2010-06-11,40700.0
PVD,2010-06-14,40600.0
PVD,2010-06-15,40200.0
PVD,2010-06-16,40300.0
PVD,2010-06-17,40800.0
PVD,2010-06-18,41300.0
PVD,2010-06-21,40700.0
PVD,2010-06-22,40800.0
PVD,2010-06-23,41000.0
PVD,2010-06-24,41100.0
PVD,2010-06-25,40400.0
PVD,2010-06-28,40600.0
PVD,2010-06-29,41200.0
PVD,2010-06-30,42200.0
PVD,2010-07-01,41100.0
PVD,2010-07-02,40700.0
PVD,2010-07-05,41100.0
PVD,2010-07-06,40600.0
PVD,2010-07-07,38700.0
PVD,2010-07-08,39700.0
PVD,2010-07-09,39500.0
PVD,2010-07-12,39300.0
PVD,2010-07-13,39900.0
PVD,2010-07-14,39600.0
PVD,2010-07-15,39700.0
PVD,2010-07-16,39900.0
PVD,2010-07-19,39700.0
PVD,2010-07-20,39700.0
PVD,2010-07-21,39100.0
PVD,2010-07-22,38900.0
PVD,2010-07-23,38900.0
PVD,2010-07-26,38900.0
PVD,2010-07-27,38800.0
PVD,2010-07-28,38500.0
PVD,2010-07-29,38700.0
PVD,2010-07-30,38100.0
PVD,2010-08-02,37400.0
PVD,2010-08-03,37200.0
PVD,2010-08-04,36400.0
PVD,2010-08-05,36200.0
PVD,2010-08-06,36300.0
PVD,2010-08-09,36200.0
PVD,2010-08-10,34800.0
PVD,2010-08-11,35400.0
PVD,2010-08-12,34400.0
PVD,2010-08-13,35100.0
PVD,2010-08-16,35600.0
PVD,2010-08-17,36200.0
PVD,2010-08-18,35400.0
PVD,2010-08-19,34900.0
PVD,2010-08-20,36000.0
PVD,2010-08-23,34900.0
PVD,2010-08-24,33100.0
PVD,2010-08-25,33500.0
PVD,2010-08-26,35200.0
PVD,2010-08-27,35200.0
PVD,2010-08-30,36400.0
PVD,2010-08-31,38300.0
PVD,2010-09-01,38300.0
PVD,2010-09-06,36400.0
PVD,2010-09-07,36300.0
PVD,2010-09-08,36500.0
PVD,2010-09-09,36800.0
PVD,2010-09-10,35000.0
PVD,2010-09-13,35600.0
PVD,2010-09-14,35600.0
PVD,2010-09-15,36000.0
PVD,2010-09-16,36300.0
PVD,2010-09-17,36800.0
PVD,2010-09-20,37300.0
PVD,2010-09-21,35600.0
PVD,2010-09-22,35800.0
PVD,2010-09-23,35800.0
PVD,2010-09-24,35700.0
PVD,2010-09-27,35600.0
PVD,2010-09-28,35600.0
PVD,2010-09-29,35600.0
PVD,2010-09-30,35900.0
PVD,2010-10-01,35600.0
PVD,2010-10-04,35600.0
PVD,2010-10-05,35600.0
PVD,2010-10-06,36300.0
PVD,2010-10-07,36300.0
PVD,2010-10-08,36200.0
PVD,2010-10-11,36100.0
PVD,2010-10-12,35600.0
PVD,2010-10-13,35700.0
PVD,2010-10-14,35900.0
PVD,2010-10-15,35800.0
PVD,2010-10-18,36300.0
PVD,2010-10-19,36300.0
PVD,2010-10-20,35800.0
PVD,2010-10-21,36400.0
PVD,2010-10-22,36800.0
PVD,2010-10-25,37200.0
PVD,2010-10-26,37300.0
PVD,2010-10-27,37300.0
PVD,2010-10-28,37300.0
PVD,2010-10-29,37300.0
PVD,2010-11-01,37900.0
PVD,2010-11-02,37300.0
PVD,2010-11-03,37700.0
PVD,2010-11-04,38700.0
PVD,2010-11-05,40700.0
PVD,2010-11-08,42600.0
PVD,2010-11-09,41400.0
PVD,2010-11-10,41400.0
PVD,2010-11-11,43100.0
PVD,2010-11-12,42600.0
PVD,2010-11-15,41400.0
PVD,2010-11-16,40300.0
PVD,2010-11-17,38300.0
PVD,2010-11-18,38300.0
PVD,2010-11-19,38300.0
PVD,2010-11-22,38900.0
PVD,2010-11-23,40800.0
PVD,2010-11-24,41400.0
PVD,2010-11-25,40700.0
PVD,2010-11-26,40700.0
PVD,2010-11-29,41400.0
PVD,2010-11-30,41400.0
PVD,2010-12-01,41800.0
PVD,2010-12-02,41800.0
PVD,2010-12-03,42200.0
PVD,2010-12-06,42200.0
PVD,2010-12-07,41400.0
PVD,2010-12-08,41000.0
PVD,2010-12-09,41400.0
PVD,2010-12-10,42200.0
PVD,2010-12-13,43500.0
PVD,2010-12-14,43100.0
PVD,2010-12-15,43900.0
PVD,2010-12-16,43100.0
PVD,2010-12-17,44700.0
PVD,2010-12-20,43900.0
PVD,2010-12-21,44300.0
PVD,2010-12-22,43500.0
PVD,2010-12-23,43500.0
PVD,2010-12-24,43500.0
PVD,2010-12-27,43500.0
PVD,2010-12-28,43500.0
PVD,2010-12-29,43500.0
PVD,2010-12-30,43900.0
PVD,2010-12-31,43900.0
PVD,2011-01-04,43500.0
PVD,2011-01-05,43500.0
PVD,2011-01-06,43100.0
PVD,2011-01-07,42200.0
PVD,2011-01-10,42600.0
PVD,2011-01-11,42200.0
PVD,2011-01-12,42200.0
PVD,2011-01-13,43100.0
PVD,2011-01-14,43500.0
PVD,2011-01-17,43500.0
PVD,2011-01-18,44300.0
PVD,2011-01-19,46000.0
PVD,2011-01-20,45500.0
PVD,2011-01-21,45500.0
PVD,2011-01-24,44300.0
PVD,2011-01-25,44300.0
PVD,2011-01-26,44700.0
PVD,2011-01-27,45500.0
PVD,2011-01-28,46000.0
PVD,2011-02-08,48000.0
PVD,2011-02-09,48800.0
PVD,2011-02-10,48400.0
PVD,2011-02-11,48000.0
PVD,2011-02-14,46400.0
PVD,2011-02-15,48400.0
PVD,2011-02-16,47600.0
PVD,2011-02-17,48000.0
PVD,2011-02-18,46800.0
PVD,2011-02-21,44700.0
PVD,2011-02-22,43900.0
PVD,2011-02-23,44700.0
PVD,2011-02-24,42500.0
PVD,2011-02-25,42500.0
PVD,2011-02-28,41700.0
PVD,2011-03-01,43500.0
PVD,2011-03-02,42300.0
PVD,2011-03-03,42500.0
PVD,2011-03-04,42600.0
PVD,2011-03-07,43900.0
PVD,2011-03-08,44300.0
PVD,2011-03-09,45200.0
PVD,2011-03-10,47300.0
PVD,2011-03-11,46900.0
PVD,2011-03-14,44700.0
PVD,2011-03-15,42800.0
PVD,2011-03-16,42200.0
PVD,2011-03-17,42500.0
PVD,2011-03-18,41700.0
PVD,2011-03-21,43000.0
PVD,2011-03-22,44700.0
PVD,2011-03-23,45200.0
PVD,2011-03-24,42900.0
PVD,2011-03-25,43000.0
PVD,2011-03-28,42500.0
PVD,2011-03-29,42600.0
PVD,2011-03-30,42600.0
PVD,2011-03-31,42900.0
PVD,2011-04-01,43000.0
PVD,2011-04-04,43500.0
PVD,2011-04-05,43500.0
PVD,2011-04-06,44300.0
PVD,2011-04-07,44700.0
PVD,2011-04-08,46500.0
PVD,2011-04-13,46000.0
PVD,2011-04-14,46000.0
PVD,2011-04-15,45600.0
PVD,2011-04-18,43500.0
PVD,2011-04-19,44300.0
PVD,2011-04-20,44300.0
PVD,2011-04-21,44300.0
PVD,2011-04-22,42600.0
PVD,2011-04-25,43900.0
PVD,2011-04-26,44300.0
PVD,2011-04-27,44300.0
PVD,2011-04-28,43900.0
PVD,2011-04-29,43900.0
PVD,2011-05-04,44700.0
PVD,2011-05-05,45200.0
PVD,2011-05-06,44300.0
PVD,2011-05-09,44700.0
PVD,2011-05-10,45200.0
PVD,2011-05-11,44300.0
PVD,2011-05-12,43900.0
PVD,2011-05-13,43900.0
PVD,2011-05-16,43000.0
PVD,2011-05-17,43500.0
PVD,2011-05-18,44300.0
PVD,2011-05-19,44300.0
PVD,2011-05-20,43000.0
PVD,2011-05-23,42200.0
PVD,2011-05-24,41300.0
PVD,2011-05-25,39200.0
PVD,2011-05-26,39600.0
PVD,2011-05-27,40400.0
PVD,2011-05-30,40400.0
PVD,2011-05-31,40400.0
PVD,2011-06-01,41800.0
PVD,2011-06-02,43900.0
PVD,2011-06-03,41700.0
PVD,2011-06-06,40900.0
PVD,2011-06-07,42200.0
PVD,2011-06-08,42000.0
PVD,2011-06-09,42000.0
PVD,2011-06-10,41700.0
PVD,2011-06-13,40600.0
PVD,2011-06-14,39600.0
PVD,2011-06-15,39800.0
PVD,2011-06-16,39900.0
PVD,2011-06-17,38100.0
PVD,2011-06-20,37900.0
PVD,2011-06-21,38500.0
PVD,2011-06-22,38500.0
PVD,2011-06-23,37800.0
PVD,2011-06-24,37300.0
PVD,2011-06-27,36600.0
PVD,2011-06-28,36300.0
PVD,2011-06-29,35700.0
PVD,2011-06-30,34000.0
PVD,2011-07-01,32500.0
PVD,2011-07-04,34100.0
PVD,2011-07-05,35400.0
PVD,2011-07-06,34600.0
PVD,2011-07-07,34900.0
PVD,2011-07-08,34900.0
PVD,2011-07-11,34400.0
PVD,2011-07-12,34600.0
PVD,2011-07-13,34200.0
PVD,2011-07-14,33900.0
PVD,2011-07-15,33600.0
PVD,2011-07-18,33600.0
PVD,2011-07-19,33300.0
PVD,2011-07-20,34600.0
PVD,2011-07-21,34500.0
PVD,2011-07-22,35900.0
PVD,2011-07-25,35700.0
PVD,2011-07-26,34600.0
PVD,2011-07-27,34700.0
PVD,2011-07-28,34300.0
PVD,2011-07-29,33800.0
PVD,2011-08-01,33900.0
PVD,2011-08-02,34200.0
PVD,2011-08-03,34400.0
PVD,2011-08-04,34700.0
PVD,2011-08-05,34500.0
PVD,2011-08-08,33400.0
PVD,2011-08-09,32300.0
PVD,2011-08-10,31400.0
PVD,2011-08-11,31300.0
PVD,2011-08-12,31600.0
PVD,2011-08-15,31800.0
PVD,2011-08-16,31700.0
PVD,2011-08-17,32200.0
PVD,2011-08-18,33000.0
PVD,2011-08-19,32300.0
PVD,2011-08-22,33400.0
PVD,2011-08-23,32900.0
PVD,2011-08-24,32700.0
PVD,2011-08-25,32700.0
PVD,2011-08-26,32700.0
PVD,2011-08-29,33100.0
PVD,2011-08-30,33600.0
PVD,2011-08-31,34400.0
PVD,2011-09-01,35700.0
PVD,2011-09-05,34100.0
PVD,2011-09-06,33700.0
PVD,2011-09-07,34800.0
PVD,2011-09-08,36500.0
PVD,2011-09-09,37000.0
PVD,2011-09-12,36400.0
PVD,2011-09-13,36300.0
PVD,2011-09-14,34800.0
PVD,2011-09-15,33800.0
PVD,2011-09-16,32900.0
PVD,2011-09-19,34500.0
PVD,2011-09-20,34600.0
PVD,2011-09-21,34800.0
PVD,2011-09-22,34500.0
PVD,2011-09-23,33600.0
PVD,2011-09-26,32800.0
PVD,2011-09-27,33000.0
PVD,2011-09-28,32700.0
PVD,2011-09-29,32300.0
PVD,2011-09-30,32300.0
PVD,2011-10-03,32300.0
PVD,2011-10-04,32200.0
PVD,2011-10-05,32900.0
PVD,2011-10-06,33000.0
PVD,2011-10-07,32800.0
PVD,2011-10-10,32700.0
PVD,2011-10-11,32600.0
PVD,2011-10-12,32300.0
PVD,2011-10-13,32900.0
PVD,2011-10-14,33000.0
PVD,2011-10-17,32700.0
PVD,2011-10-18,32700.0
PVD,2011-10-19,32000.0
PVD,2011-10-20,32300.0
PVD,2011-10-21,32600.0
PVD,2011-10-24,32900.0
PVD,2011-10-25,32000.0
PVD,2011-10-26,32600.0
PVD,2011-10-27,33600.0
PVD,2011-10-28,33800.0
PVD,2011-10-31,32900.0
PVD,2011-11-01,32500.0
PVD,2011-11-02,32000.0
PVD,2011-11-03,31700.0
PVD,2011-11-04,31800.0
PVD,2011-11-07,31700.0
PVD,2011-11-08,31800.0
PVD,2011-11-09,31500.0
PVD,2011-11-10,31500.0
PVD,2011-11-11,31600.0
PVD,2011-11-14,31700.0
PVD,2011-11-15,31700.0
PVD,2011-11-16,31700.0
PVD,2011-11-17,31800.0
PVD,2011-11-18,31700.0
PVD,2011-11-21,31400.0
PVD,2011-11-22,31700.0
PVD,2011-11-23,31900.0
PVD,2011-11-24,31800.0
PVD,2011-11-25,31700.0
PVD,2011-11-28,31000.0
PVD,2011-11-29,31100.0
PVD,2011-11-30,31100.0
PVD,2011-12-01,31100.0
PVD,2011-12-02,31100.0
PVD,2011-12-05,31200.0
PVD,2011-12-06,31100.0
PVD,2011-12-07,30800.0
PVD,2011-12-08,29400.0
PVD,2011-12-09,29000.0
PVD,2011-12-12,29700.0
PVD,2011-12-13,28500.0
PVD,2011-12-14,28500.0
PVD,2011-12-15,28400.0
PVD,2011-12-16,29800.0
PVD,2011-12-19,29900.0
PVD,2011-12-20,29800.0
PVD,2011-12-21,28400.0
PVD,2011-12-22,27000.0
PVD,2011-12-23,27200.0
PVD,2011-12-26,26900.0
PVD,2011-12-27,26700.0
PVD,2011-12-28,27300.0
PVD,2011-12-29,27400.0
PVD,2011-12-30,28600.0
PVD,2012-01-03,27500.0
PVD,2012-01-04,26200.0
PVD,2012-01-05,26200.0
PVD,2012-01-06,26200.0
PVD,2012-01-09,25800.0
PVD,2012-01-10,26600.0
PVD,2012-01-11,27500.0
PVD,2012-01-12,27600.0
PVD,2012-01-13,28300.0
PVD,2012-01-16,28200.0
PVD,2012-01-17,28200.0
PVD,2012-01-18,28700.0
PVD,2012-01-19,29900.0
PVD,2012-01-20,29900.0
PVD,2012-01-30,31400.0
PVD,2012-01-31,32700.0
PVD,2012-02-01,33300.0
PVD,2012-02-02,33600.0
PVD,2012-02-03,33900.0
PVD,2012-02-06,32800.0
PVD,2012-02-07,34300.0
PVD,2012-02-08,34800.0
PVD,2012-02-09,34800.0
PVD,2012-02-10,34300.0
PVD,2012-02-13,33600.0
PVD,2012-02-14,33600.0
PVD,2012-02-15,33500.0
PVD,2012-02-16,33800.0
PVD,2012-02-17,33800.0
PVD,2012-02-20,34400.0
PVD,2012-02-21,34400.0
PVD,2012-02-22,34300.0
PVD,2012-02-23,34500.0
PVD,2012-02-24,36200.0
PVD,2012-02-27,36800.0
PVD,2012-02-28,35000.0
PVD,2012-02-29,33600.0
PVD,2012-03-01,34400.0
PVD,2012-03-02,34400.0
PVD,2012-03-05,36100.0
PVD,2012-03-06,34600.0
PVD,2012-03-07,35300.0
PVD,2012-03-08,33600.0
PVD,2012-03-09,33700.0
PVD,2012-03-12,32700.0
PVD,2012-03-13,32700.0
PVD,2012-03-14,31900.0
PVD,2012-03-15,33500.0
PVD,2012-03-16,31800.0
PVD,2012-03-19,32700.0
PVD,2012-03-20,33100.0
PVD,2012-03-21,34700.0
PVD,2012-03-22,34200.0
PVD,2012-03-23,34000.0
PVD,2012-03-26,34500.0
PVD,2012-03-27,33600.0
PVD,2012-03-28,34000.0
PVD,2012-03-29,33600.0
PVD,2012-03-30,34300.0
PVD,2012-04-03,34100.0
PVD,2012-04-04,34000.0
PVD,2012-04-05,34400.0
PVD,2012-04-06,33900.0
PVD,2012-04-09,33700.0
PVD,2012-04-10,33800.0
PVD,2012-04-11,34000.0
PVD,2012-04-12,34800.0
PVD,2012-04-13,34300.0
PVD,2012-04-16,34600.0
PVD,2012-04-17,36300.0
PVD,2012-04-18,35800.0
PVD,2012-04-19,35100.0
PVD,2012-04-20,35100.0
PVD,2012-04-23,34900.0
PVD,2012-04-24,34900.0
PVD,2012-04-25,35300.0
PVD,2012-04-26,35200.0
PVD,2012-04-27,35000.0
PVD,2012-05-02,35500.0
PVD,2012-05-03,35200.0
PVD,2012-05-04,36000.0
PVD,2012-05-07,37700.0
PVD,2012-05-08,38700.0
PVD,2012-05-09,38400.0
PVD,2012-05-10,37900.0
PVD,2012-05-11,36400.0
PVD,2012-05-14,34600.0
PVD,2012-05-15,32900.0
PVD,2012-05-16,32500.0
PVD,2012-05-17,32600.0
PVD,2012-05-18,31200.0
PVD,2012-05-21,32400.0
PVD,2012-05-22,31700.0
PVD,2012-05-23,32000.0
PVD,2012-05-24,31700.0
PVD,2012-05-25,32300.0
PVD,2012-05-28,32400.0
PVD,2012-05-29,31500.0
PVD,2012-05-30,31400.0
PVD,2012-05-31,30900.0
PVD,2012-06-01,30400.0
PVD,2012-06-04,28900.0
PVD,2012-06-05,28800.0
PVD,2012-06-06,28900.0
PVD,2012-06-07,29700.0
PVD,2012-06-08,29300.0
PVD,2012-06-11,29300.0
PVD,2012-06-12,29000.0
PVD,2012-06-13,29000.0
PVD,2012-06-14,29400.0
PVD,2012-06-15,30900.0
PVD,2012-06-18,31200.0
PVD,2012-06-19,30500.0
PVD,2012-06-20,30900.0
PVD,2012-06-21,30400.0
PVD,2012-06-22,30900.0
PVD,2012-06-25,29700.0
PVD,2012-06-26,30500.0
PVD,2012-06-27,30900.0
PVD,2012-06-28,30900.0
PVD,2012-06-29,31100.0
PVD,2012-07-02,30400.0
PVD,2012-07-03,29700.0
PVD,2012-07-04,29700.0
PVD,2012-07-05,29800.0
PVD,2012-07-06,30100.0
PVD,2012-07-09,29300.0
PVD,2012-07-10,28400.0
PVD,2012-07-11,29100.0
PVD,2012-07-12,28800.0
PVD,2012-07-13,29900.0
PVD,2012-07-16,29800.0
PVD,2012-07-17,29900.0
PVD,2012-07-18,29700.0
PVD,2012-07-19,31000.0
PVD,2012-07-20,30300.0
PVD,2012-07-23,30100.0
PVD,2012-07-24,29100.0
PVD,2012-07-25,28800.0
PVD,2012-07-26,29300.0
PVD,2012-07-27,29100.0
PVD,2012-07-30,29000.0
PVD,2012-07-31,28800.0
PVD,2012-08-01,28800.0
PVD,2012-08-02,29200.0
PVD,2012-08-03,29300.0
PVD,2012-08-06,29100.0
PVD,2012-08-07,28900.0
PVD,2012-08-08,29100.0
PVD,2012-08-09,29100.0
PVD,2012-08-10,29100.0
PVD,2012-08-13,29300.0
PVD,2012-08-14,29200.0
PVD,2012-08-15,29300.0
PVD,2012-08-16,29600.0
PVD,2012-08-17,31100.0
PVD,2012-08-20,31800.0
PVD,2012-08-21,30300.0
PVD,2012-08-22,30400.0
PVD,2012-08-23,28900.0
PVD,2012-08-24,29400.0
PVD,2012-08-27,28000.0
PVD,2012-08-28,28100.0
PVD,2012-08-29,29300.0
PVD,2012-08-30,30000.0
PVD,2012-08-31,30300.0
PVD,2012-09-04,30000.0
PVD,2012-09-05,29400.0
PVD,2012-09-06,28900.0
PVD,2012-09-07,29300.0
PVD,2012-09-10,27800.0
PVD,2012-09-11,28100.0
PVD,2012-09-12,28900.0
PVD,2012-09-13,30100.0
PVD,2012-09-14,30000.0
PVD,2012-09-17,29500.0
PVD,2012-09-18,29300.0
PVD,2012-09-19,29900.0
PVD,2012-09-20,29900.0
PVD,2012-09-21,31200.0
PVD,2012-09-24,30300.0
PVD,2012-09-25,30500.0
PVD,2012-09-26,30500.0
PVD,2012-09-27,30300.0
PVD,2012-09-28,30200.0
PVD,2012-10-01,30200.0
PVD,2012-10-02,31200.0
PVD,2012-10-03,31700.0
PVD,2012-10-04,31500.0
PVD,2012-10-05,32000.0
PVD,2012-10-08,32400.0
PVD,2012-10-09,32100.0
PVD,2012-10-10,32900.0
PVD,2012-10-11,33500.0
PVD,2012-10-12,32800.0
PVD,2012-10-15,32300.0
PVD,2012-10-16,33000.0
PVD,2012-10-17,32400.0
PVD,2012-10-18,32100.0
PVD,2012-10-19,31700.0
PVD,2012-10-22,31100.0
PVD,2012-10-23,31500.0
PVD,2012-10-24,31500.0
PVD,2012-10-25,31100.0
PVD,2012-10-26,32000.0
PVD,2012-10-29,31700.0
PVD,2012-10-30,31500.0
PVD,2012-10-31,31500.0
PVD,2012-11-01,31500.0
PVD,2012-11-02,30700.0
PVD,2012-11-05,31500.0
PVD,2012-11-06,31500.0
PVD,2012-11-07,31600.0
PVD,2012-11-08,31700.0
PVD,2012-11-09,31700.0
PVD,2012-11-12,32400.0
PVD,2012-11-13,31700.0
PVD,2012-11-14,31700.0
PVD,2012-11-15,31700.0
PVD,2012-11-16,31500.0
PVD,2012-11-19,31600.0
PVD,2012-11-20,31500.0
PVD,2012-11-21,31500.0
PVD,2012-11-22,31100.0
PVD,2012-11-23,31100.0
PVD,2012-11-26,30800.0
PVD,2012-11-27,30700.0
PVD,2012-11-28,30600.0
PVD,2012-11-29,30700.0
PVD,2012-11-30,30600.0
PVD,2012-12-03,31800.0
PVD,2012-12-04,31500.0
PVD,2012-12-05,31500.0
PVD,2012-12-06,31500.0
PVD,2012-12-07,30900.0
PVD,2012-12-10,31500.0
PVD,2012-12-11,31500.0
PVD,2012-12-12,31700.0
PVD,2012-12-13,31600.0
PVD,2012-12-14,31200.0
PVD,2012-12-17,32700.0
PVD,2012-12-18,33300.0
PVD,2012-12-19,33600.0
PVD,2012-12-20,33500.0
PVD,2012-12-21,32500.0
PVD,2012-12-24,32800.0
PVD,2012-12-25,33300.0
PVD,2012-12-26,33300.0
PVD,2012-12-27,33700.0
PVD,2012-12-28,33700.0
PVD,2013-01-02,34100.0
PVD,2013-01-03,35100.0
PVD,2013-01-04,35500.0
PVD,2013-01-07,37200.0
PVD,2013-01-08,37800.0
PVD,2013-01-09,38700.0
PVD,2013-01-10,39600.0
PVD,2013-01-11,38800.0
PVD,2013-01-14,38700.0
PVD,2013-01-15,39200.0
PVD,2013-01-16,38800.0
PVD,2013-01-17,38300.0
PVD,2013-01-18,37900.0
PVD,2013-01-21,37800.0
PVD,2013-01-22,37100.0
PVD,2013-01-23,37000.0
PVD,2013-01-24,37000.0
PVD,2013-01-25,38100.0
PVD,2013-01-28,38700.0
PVD,2013-01-29,39700.0
PVD,2013-01-30,42300.0
PVD,2013-01-31,41400.0
PVD,2013-02-01,38700.0
PVD,2013-02-04,37800.0
PVD,2013-02-05,37300.0
PVD,2013-02-06,38700.0
PVD,2013-02-07,39100.0
PVD,2013-02-08,39000.0
PVD,2013-02-18,39500.0
PVD,2013-02-19,39100.0
PVD,2013-02-20,39600.0
PVD,2013-02-21,38000.0
PVD,2013-02-22,38500.0
PVD,2013-02-25,38600.0
PVD,2013-02-26,36200.0
PVD,2013-02-27,35500.0
PVD,2013-02-28,35500.0
PVD,2013-03-01,34600.0
PVD,2013-03-04,32900.0
PVD,2013-03-05,31600.0
PVD,2013-03-06,33700.0
PVD,2013-03-07,35300.0
PVD,2013-03-08,35700.0
PVD,2013-03-11,36600.0
PVD,2013-03-12,36300.0
PVD,2013-03-13,36700.0
PVD,2013-03-14,36400.0
PVD,2013-03-15,38000.0
PVD,2013-03-18,37000.0
PVD,2013-03-19,36900.0
PVD,2013-03-20,37100.0
PVD,2013-03-21,37300.0
PVD,2013-03-22,36500.0
PVD,2013-03-25,37600.0
PVD,2013-03-26,38100.0
PVD,2013-03-27,38100.0
PVD,2013-03-28,38100.0
PVD,2013-03-29,38100.0
PVD,2013-04-01,39000.0
PVD,2013-04-02,40000.0
PVD,2013-04-03,39900.0
PVD,2013-04-04,39300.0
PVD,2013-04-05,39200.0
PVD,2013-04-08,39300.0
PVD,2013-04-09,39300.0
PVD,2013-04-10,37100.0
PVD,2013-04-11,38100.0
PVD,2013-04-12,37300.0
PVD,2013-04-15,36900.0
PVD,2013-04-16,37300.0
PVD,2013-04-17,37300.0
PVD,2013-04-18,35600.0
PVD,2013-04-22,35500.0
PVD,2013-04-23,35100.0
PVD,2013-04-24,35600.0
PVD,2013-04-25,36100.0
PVD,2013-04-26,36000.0
PVD,2013-05-02,35300.0
PVD,2013-05-03,36000.0
PVD,2013-05-06,36600.0
PVD,2013-05-07,36900.0
PVD,2013-05-08,37300.0
PVD,2013-05-09,36900.0
PVD,2013-05-10,37000.0
PVD,2013-05-13,36900.0
PVD,2013-05-14,36500.0
PVD,2013-05-15,37100.0
PVD,2013-05-16,37600.0
PVD,2013-05-17,37600.0
PVD,2013-05-20,37900.0
PVD,2013-05-21,38600.0
PVD,2013-05-22,40600.0
PVD,2013-05-23,40000.0
PVD,2013-05-24,40600.0
PVD,2013-05-27,42200.0
PVD,2013-05-28,43600.0
PVD,2013-05-29,43100.0
PVD,2013-05-30,44500.0
PVD,2013-05-31,45000.0
PVD,2013-06-03,44500.0
PVD,2013-06-04,44300.0
PVD,2013-06-05,45000.0
PVD,2013-06-06,44900.0
PVD,2013-06-07,44700.0
PVD,2013-06-10,47200.0
PVD,2013-06-11,46300.0
PVD,2013-06-12,44800.0
PVD,2013-06-13,47200.0
PVD,2013-06-14,45000.0
PVD,2013-06-17,43200.0
PVD,2013-06-18,43100.0
PVD,2013-06-19,43200.0
PVD,2013-06-20,44200.0
PVD,2013-06-21,43300.0
PVD,2013-06-24,43000.0
PVD,2013-06-25,40900.0
PVD,2013-06-26,41400.0
PVD,2013-06-27,43200.0
PVD,2013-06-28,42400.0
PVD,2013-07-01,42400.0
PVD,2013-07-02,44100.0
PVD,2013-07-03,44100.0
PVD,2013-07-04,44100.0
PVD,2013-07-05,44100.0
PVD,2013-07-08,43900.0
PVD,2013-07-09,43900.0
PVD,2013-07-10,44200.0
PVD,2013-07-11,44500.0
PVD,2013-07-12,45400.0
PVD,2013-07-15,45400.0
PVD,2013-07-16,45400.0
PVD,2013-07-17,45400.0
PVD,2013-07-18,45400.0
PVD,2013-07-19,45400.0
PVD,2013-07-22,46800.0
PVD,2013-07-23,46800.0
PVD,2013-07-24,45000.0
PVD,2013-07-25,44100.0
PVD,2013-07-26,44900.0
PVD,2013-07-29,44200.0
PVD,2013-07-30,45000.0
PVD,2013-07-31,45400.0
PVD,2013-08-01,45900.0
PVD,2013-08-02,46300.0
PVD,2013-08-05,45900.0
PVD,2013-08-06,46300.0
PVD,2013-08-07,47700.0
PVD,2013-08-08,46800.0
PVD,2013-08-09,49500.0
PVD,2013-08-12,50800.0
PVD,2013-08-13,51700.0
PVD,2013-08-14,53100.0
PVD,2013-08-15,52600.0
PVD,2013-08-16,52200.0
PVD,2013-08-19,54400.0
PVD,2013-08-20,53500.0
PVD,2013-08-21,53100.0
PVD,2013-08-22,52200.0
PVD,2013-08-23,52600.0
PVD,2013-08-26,53100.0
PVD,2013-08-27,52200.0
PVD,2013-08-28,50400.0
PVD,2013-08-29,50400.0
PVD,2013-08-30,52600.0
PVD,2013-09-03,52600.0
PVD,2013-09-04,52200.0
PVD,2013-09-05,53100.0
PVD,2013-09-06,52600.0
PVD,2013-09-09,51700.0
PVD,2013-09-10,52600.0
PVD,2013-09-11,52200.0
PVD,2013-09-12,52600.0
PVD,2013-09-13,52600.0
PVD,2013-09-16,51700.0
PVD,2013-09-17,55300.0
PVD,2013-09-18,53500.0
PVD,2013-09-19,56700.0
PVD,2013-09-20,55300.0
PVD,2013-09-23,55800.0
PVD,2013-09-24,56200.0
PVD,2013-09-25,57600.0
PVD,2013-09-26,57600.0
PVD,2013-09-27,57600.0
PVD,2013-09-30,58900.0
PVD,2013-10-01,58000.0
PVD,2013-10-02,58000.0
PVD,2013-10-03,58500.0
PVD,2013-10-04,59400.0
PVD,2013-10-07,60700.0
PVD,2013-10-08,61200.0
PVD,2013-10-09,62100.0
PVD,2013-10-10,59800.0
PVD,2013-10-11,59800.0
PVD,2013-10-14,61200.0
PVD,2013-10-15,60700.0
PVD,2013-10-16,61200.0
PVD,2013-10-17,61600.0
PVD,2013-10-18,61600.0
PVD,2013-10-21,61600.0
PVD,2013-10-22,61200.0
PVD,2013-10-23,61200.0
PVD,2013-10-24,60700.0
PVD,2013-10-25,60300.0
PVD,2013-10-28,60300.0
PVD,2013-10-29,58900.0
PVD,2013-10-30,58900.0
PVD,2013-10-31,57100.0
PVD,2013-11-01,56200.0
PVD,2013-11-04,58000.0
PVD,2013-11-05,59800.0
PVD,2013-11-06,60700.0
PVD,2013-11-07,58900.0
PVD,2013-11-08,57600.0
PVD,2013-11-11,58900.0
PVD,2013-11-12,57600.0
PVD,2013-11-13,57600.0
PVD,2013-11-14,57600.0
PVD,2013-11-15,58000.0
PVD,2013-11-18,58000.0
PVD,2013-11-19,58000.0
PVD,2013-11-20,58500.0
PVD,2013-11-21,58900.0
PVD,2013-11-22,60300.0
PVD,2013-11-25,61200.0
PVD,2013-11-26,62500.0
PVD,2013-11-27,61600.0
PVD,2013-11-28,60700.0
PVD,2013-11-29,62500.0
PVD,2013-12-02,64000.0
PVD,2013-12-03,63000.0
PVD,2013-12-04,63000.0
PVD,2013-12-05,62000.0
PVD,2013-12-06,62000.0
PVD,2013-12-09,62500.0
PVD,2013-12-10,62000.0
PVD,2013-12-11,60500.0
PVD,2013-12-12,60500.0
PVD,2013-12-13,60000.0
PVD,2013-12-16,60000.0
PVD,2013-12-17,61500.0
PVD,2013-12-18,62000.0
PVD,2013-12-19,60500.0
PVD,2013-12-20,60000.0
PVD,2013-12-23,60000.0
PVD,2013-12-24,60500.0
PVD,2013-12-25,61000.0
PVD,2013-12-26,61500.0
PVD,2013-12-27,61500.0
PVD,2013-12-30,60500.0
PVD,2013-12-31,61000.0
PVD,2014-01-02,61000.0
PVD,2014-01-03,60000.0
PVD,2014-01-06,60500.0
PVD,2014-01-07,61000.0
PVD,2014-01-08,65000.0
PVD,2014-01-09,65500.0
PVD,2014-01-10,64500.0
PVD,2014-01-13,66500.0
PVD,2014-01-14,68500.0
PVD,2014-01-15,68500.0
PVD,2014-01-16,68500.0
PVD,2014-01-17,68500.0
PVD,2014-01-20,69500.0
PVD,2014-01-21,74000.0
PVD,2014-01-22,70000.0
PVD,2014-01-23,73000.0
PVD,2014-01-24,73500.0
PVD,2014-01-27,72000.0
PVD,2014-02-06,69000.0
PVD,2014-02-07,70000.0
PVD,2014-02-10,71500.0
PVD,2014-02-11,71500.0
PVD,2014-02-12,72000.0
PVD,2014-02-13,73000.0
PVD,2014-02-14,74000.0
PVD,2014-02-17,73500.0
PVD,2014-02-18,76500.0
PVD,2014-02-19,80500.0
PVD,2014-02-20,75500.0
PVD,2014-02-21,75500.0
PVD,2014-02-24,80000.0
PVD,2014-02-25,79000.0
PVD,2014-02-26,79500.0
PVD,2014-02-27,78000.0
PVD,2014-02-28,81500.0
PVD,2014-03-03,78000.0
PVD,2014-03-04,77000.0
PVD,2014-03-05,78500.0
PVD,2014-03-06,78500.0
PVD,2014-03-07,78000.0
PVD,2014-03-10,77500.0
PVD,2014-03-11,79500.0
PVD,2014-03-12,80000.0
PVD,2014-03-13,80500.0
PVD,2014-03-14,80500.0
PVD,2014-03-17,78500.0
PVD,2014-03-18,79500.0
PVD,2014-03-19,80000.0
PVD,2014-03-20,79500.0
PVD,2014-03-21,78000.0
PVD,2014-03-24,82500.0
PVD,2014-03-25,81000.0
PVD,2014-03-26,79000.0
PVD,2014-03-27,81000.0
PVD,2014-03-28,83000.0
PVD,2014-03-31,83000.0
PVD,2014-04-01,82000.0
PVD,2014-04-02,82000.0
PVD,2014-04-03,82500.0
PVD,2014-04-04,84000.0
PVD,2014-04-07,86500.0
PVD,2014-04-08,87000.0
PVD,2014-04-10,87000.0
PVD,2014-04-11,87000.0
PVD,2014-04-14,85500.0
PVD,2014-04-15,82500.0
PVD,2014-04-16,81500.0
PVD,2014-04-17,83000.0
PVD,2014-04-18,80500.0
PVD,2014-04-21,80000.0
PVD,2014-04-22,83000.0
PVD,2014-04-23,82000.0
PVD,2014-04-24,82000.0
PVD,2014-04-25,83000.0
PVD,2014-04-28,84000.0
PVD,2014-04-29,85000.0
PVD,2014-05-05,83500.0
PVD,2014-05-06,81500.0
PVD,2014-05-07,82500.0
PVD,2014-05-08,77000.0
PVD,2014-05-09,79000.0
PVD,2014-05-12,75000.0
PVD,2014-05-13,77500.0
PVD,2014-05-14,82000.0
PVD,2014-05-15,81000.0
PVD,2014-05-16,81000.0
PVD,2014-05-19,81500.0
PVD,2014-05-20,80500.0
PVD,2014-05-21,81000.0
