PXM,2010-06-21,16100.0
PXM,2010-06-22,16900.0
PXM,2010-06-23,16900.0
PXM,2010-06-24,17400.0
PXM,2010-06-25,16900.0
PXM,2010-06-28,16500.0
PXM,2010-06-29,16600.0
PXM,2010-06-30,16100.0
PXM,2010-07-01,15500.0
PXM,2010-07-02,15700.0
PXM,2010-07-05,16400.0
PXM,2010-07-06,15900.0
PXM,2010-07-07,15800.0
PXM,2010-07-08,15200.0
PXM,2010-07-09,15100.0
PXM,2010-07-12,15600.0
PXM,2010-07-13,16000.0
PXM,2010-07-14,15400.0
PXM,2010-07-15,15500.0
PXM,2010-07-16,15700.0
PXM,2010-07-19,15300.0
PXM,2010-07-20,14800.0
PXM,2010-07-21,15000.0
PXM,2010-07-22,14600.0
PXM,2010-07-23,14100.0
PXM,2010-07-26,14500.0
PXM,2010-07-27,14500.0
PXM,2010-07-28,14000.0
PXM,2010-07-29,13600.0
PXM,2010-07-30,13400.0
PXM,2010-08-02,13200.0
PXM,2010-08-03,13400.0
PXM,2010-08-04,13300.0
PXM,2010-08-05,13300.0
PXM,2010-08-06,13000.0
PXM,2010-08-09,12400.0
PXM,2010-08-10,11800.0
PXM,2010-08-11,11900.0
PXM,2010-08-12,11300.0
PXM,2010-08-13,11100.0
PXM,2010-08-16,11600.0
PXM,2010-08-17,11400.0
PXM,2010-08-18,10800.0
PXM,2010-08-19,10800.0
PXM,2010-08-20,10600.0
PXM,2010-08-23,10600.0
PXM,2010-08-24,10100.0
PXM,2010-08-25,9600.0
PXM,2010-08-26,9200.0
PXM,2010-08-27,9000.0
PXM,2010-08-30,9400.0
PXM,2010-08-31,9800.0
PXM,2010-09-01,10000.0
PXM,2010-09-06,10400.0
PXM,2010-09-07,10900.0
PXM,2010-09-08,11400.0
PXM,2010-09-09,11900.0
PXM,2010-09-10,11400.0
PXM,2010-09-13,11000.0
PXM,2010-09-14,11500.0
PXM,2010-09-15,11100.0
PXM,2010-09-16,11100.0
PXM,2010-09-17,11600.0
PXM,2010-09-20,12100.0
PXM,2010-09-21,12100.0
PXM,2010-09-22,11500.0
PXM,2010-09-23,11100.0
PXM,2010-09-24,11000.0
PXM,2010-09-27,10800.0
PXM,2010-09-28,10800.0
PXM,2010-09-29,10400.0
PXM,2010-09-30,10300.0
PXM,2010-10-01,10300.0
PXM,2010-10-04,9800.0
PXM,2010-10-05,10100.0
PXM,2010-10-06,10100.0
PXM,2010-10-07,10300.0
PXM,2010-10-08,9800.0
PXM,2010-10-11,9700.0
PXM,2010-10-12,9700.0
PXM,2010-10-13,9800.0
PXM,2010-10-14,9700.0
PXM,2010-10-15,9500.0
PXM,2010-10-18,9400.0
PXM,2010-10-19,9000.0
PXM,2010-10-20,8600.0
PXM,2010-10-21,8400.0
PXM,2010-10-22,8500.0
PXM,2010-10-25,8900.0
PXM,2010-10-26,9300.0
PXM,2010-10-27,9000.0
PXM,2010-10-28,8900.0
PXM,2010-10-29,8900.0
PXM,2010-11-01,9000.0
PXM,2010-11-02,8800.0
PXM,2010-11-03,8700.0
PXM,2010-11-04,8700.0
PXM,2010-11-05,9100.0
PXM,2010-11-08,8800.0
PXM,2010-11-09,8400.0
PXM,2010-11-10,8200.0
PXM,2010-11-11,7900.0
PXM,2010-11-12,7600.0
PXM,2010-11-15,7700.0
PXM,2010-11-16,7700.0
PXM,2010-11-17,7700.0
PXM,2010-11-18,8100.0
PXM,2010-11-19,7900.0
PXM,2010-11-22,7500.0
PXM,2010-11-23,7800.0
PXM,2010-11-24,7800.0
PXM,2010-11-25,8200.0
PXM,2010-11-26,8200.0
PXM,2010-11-29,8200.0
PXM,2010-11-30,8600.0
PXM,2010-12-01,8300.0
PXM,2010-12-02,8500.0
PXM,2010-12-03,8900.0
PXM,2010-12-06,9300.0
PXM,2010-12-07,8800.0
PXM,2010-12-08,8500.0
PXM,2010-12-09,8800.0
PXM,2010-12-10,9200.0
PXM,2010-12-13,9700.0
PXM,2010-12-14,10200.0
PXM,2010-12-15,10600.0
PXM,2010-12-16,10200.0
PXM,2010-12-17,10600.0
PXM,2010-12-20,10200.0
PXM,2010-12-21,9800.0
PXM,2010-12-22,9500.0
PXM,2010-12-23,9700.0
PXM,2010-12-24,9300.0
PXM,2010-12-27,9600.0
PXM,2010-12-28,10100.0
PXM,2010-12-29,9700.0
PXM,2010-12-30,10100.0
PXM,2010-12-31,10400.0
PXM,2011-01-04,10200.0
PXM,2011-01-05,9800.0
PXM,2011-01-06,9800.0
PXM,2011-01-07,9800.0
PXM,2011-01-10,9400.0
PXM,2011-01-11,9100.0
PXM,2011-01-12,9200.0
PXM,2011-01-13,9300.0
PXM,2011-01-14,9300.0
PXM,2011-01-17,9700.0
PXM,2011-01-18,9500.0
PXM,2011-01-19,9600.0
PXM,2011-01-20,9200.0
PXM,2011-01-21,9200.0
PXM,2011-01-24,8800.0
PXM,2011-01-25,8500.0
PXM,2011-01-26,8700.0
PXM,2011-01-27,8900.0
PXM,2011-01-28,8700.0
PXM,2011-02-08,8700.0
PXM,2011-02-09,8600.0
PXM,2011-02-10,8700.0
PXM,2011-02-11,8500.0
PXM,2011-02-14,8500.0
PXM,2011-02-15,8400.0
PXM,2011-02-16,8200.0
PXM,2011-02-17,8200.0
PXM,2011-02-18,7800.0
PXM,2011-02-21,7500.0
PXM,2011-02-22,7200.0
PXM,2011-02-23,7000.0
PXM,2011-02-24,6700.0
PXM,2011-02-25,7000.0
PXM,2011-02-28,7000.0
PXM,2011-03-01,6800.0
PXM,2011-03-02,6500.0
PXM,2011-03-03,6200.0
PXM,2011-03-04,6500.0
PXM,2011-03-07,6700.0
PXM,2011-03-08,6600.0
PXM,2011-03-09,6300.0
PXM,2011-03-10,6600.0
PXM,2011-03-11,6900.0
PXM,2011-03-14,6600.0
PXM,2011-03-15,6400.0
PXM,2011-03-16,6500.0
PXM,2011-03-17,6500.0
PXM,2011-03-18,6700.0
PXM,2011-03-21,6600.0
PXM,2011-03-22,6600.0
PXM,2011-03-23,6800.0
PXM,2011-03-24,6800.0
PXM,2011-03-25,6800.0
PXM,2011-03-28,6700.0
PXM,2011-03-29,6800.0
PXM,2011-03-30,6700.0
PXM,2011-03-31,6600.0
PXM,2011-04-01,6700.0
PXM,2011-04-04,6500.0
PXM,2011-04-05,6600.0
PXM,2011-04-06,6700.0
PXM,2011-04-07,6600.0
PXM,2011-04-08,6400.0
PXM,2011-04-13,6300.0
PXM,2011-04-14,6400.0
PXM,2011-04-15,6400.0
PXM,2011-04-18,6100.0
PXM,2011-04-19,6200.0
PXM,2011-04-20,6200.0
PXM,2011-04-21,6100.0
PXM,2011-04-22,5900.0
PXM,2011-04-25,6100.0
PXM,2011-04-26,5800.0
PXM,2011-04-27,5700.0
PXM,2011-04-28,5500.0
PXM,2011-04-29,5600.0
PXM,2011-05-04,5600.0
PXM,2011-05-05,5600.0
PXM,2011-05-06,5600.0
PXM,2011-05-09,5600.0
PXM,2011-05-10,5900.0
PXM,2011-05-11,5600.0
PXM,2011-05-12,5700.0
PXM,2011-05-13,5700.0
PXM,2011-05-16,5600.0
PXM,2011-05-17,5500.0
PXM,2011-05-18,5600.0
PXM,2011-05-19,5400.0
PXM,2011-05-20,5200.0
PXM,2011-05-23,5000.0
PXM,2011-05-24,4800.0
PXM,2011-05-25,4600.0
PXM,2011-05-26,4800.0
PXM,2011-05-27,4800.0
PXM,2011-05-30,4700.0
PXM,2011-05-31,4800.0
PXM,2011-06-01,4900.0
PXM,2011-06-02,5100.0
PXM,2011-06-03,5300.0
PXM,2011-06-06,5600.0
PXM,2011-06-07,5800.0
PXM,2011-06-08,6100.0
PXM,2011-06-09,6300.0
PXM,2011-06-10,6600.0
PXM,2011-06-13,6800.0
PXM,2011-06-14,7200.0
PXM,2011-06-15,6800.0
PXM,2011-06-16,6900.0
PXM,2011-06-17,6600.0
PXM,2011-06-20,6300.0
PXM,2011-06-21,6300.0
PXM,2011-06-22,6100.0
PXM,2011-06-23,5800.0
PXM,2011-06-24,5700.0
PXM,2011-06-27,5900.0
PXM,2011-06-28,6100.0
PXM,2011-06-29,6200.0
PXM,2011-06-30,6400.0
PXM,2011-07-01,6100.0
PXM,2011-07-04,5900.0
PXM,2011-07-05,6100.0
PXM,2011-07-06,5800.0
PXM,2011-07-07,5800.0
PXM,2011-07-08,5800.0
PXM,2011-07-11,5600.0
PXM,2011-07-12,5400.0
PXM,2011-07-13,5500.0
PXM,2011-07-14,5500.0
PXM,2011-07-15,5600.0
PXM,2011-07-18,5300.0
PXM,2011-07-19,5100.0
PXM,2011-07-20,5100.0
PXM,2011-07-21,4900.0
PXM,2011-07-22,4900.0
PXM,2011-07-25,4900.0
PXM,2011-07-26,5100.0
PXM,2011-07-27,5300.0
PXM,2011-07-28,5600.0
PXM,2011-07-29,5800.0
PXM,2011-08-01,5600.0
PXM,2011-08-02,5300.0
PXM,2011-08-03,5100.0
PXM,2011-08-04,5300.0
PXM,2011-08-05,5100.0
PXM,2011-08-08,5000.0
PXM,2011-08-09,4900.0
PXM,2011-08-10,4800.0
PXM,2011-08-11,4900.0
PXM,2011-08-12,5100.0
PXM,2011-08-15,5100.0
PXM,2011-08-16,5100.0
PXM,2011-08-17,5100.0
PXM,2011-08-18,5200.0
PXM,2011-08-19,5000.0
PXM,2011-08-22,5100.0
PXM,2011-08-23,5400.0
PXM,2011-08-24,5300.0
PXM,2011-08-25,5300.0
PXM,2011-08-26,5400.0
PXM,2011-08-29,5600.0
PXM,2011-08-30,5800.0
PXM,2011-08-31,5800.0
PXM,2011-09-01,6100.0
PXM,2011-09-05,5800.0
PXM,2011-09-06,5600.0
PXM,2011-09-07,5800.0
PXM,2011-09-08,5900.0
PXM,2011-09-09,5900.0
PXM,2011-09-12,6100.0
PXM,2011-09-13,6300.0
PXM,2011-09-14,6100.0
PXM,2011-09-15,6000.0
PXM,2011-09-16,5700.0
PXM,2011-09-19,5800.0
PXM,2011-09-20,5700.0
PXM,2011-09-21,5600.0
PXM,2011-09-22,5700.0
PXM,2011-09-23,5600.0
PXM,2011-09-26,5800.0
PXM,2011-09-27,5900.0
PXM,2011-09-28,6100.0
PXM,2011-09-29,6400.0
PXM,2011-09-30,6400.0
PXM,2011-10-03,6100.0
PXM,2011-10-04,6400.0
PXM,2011-10-05,6500.0
PXM,2011-10-06,6700.0
PXM,2011-10-07,7100.0
PXM,2011-10-10,7400.0
PXM,2011-10-11,7100.0
PXM,2011-10-12,6700.0
PXM,2011-10-13,6700.0
PXM,2011-10-14,6600.0
PXM,2011-10-17,6300.0
PXM,2011-10-18,6300.0
PXM,2011-10-19,6500.0
PXM,2011-10-20,6500.0
PXM,2011-10-21,6700.0
PXM,2011-10-24,6400.0
PXM,2011-10-25,6300.0
PXM,2011-10-26,6200.0
PXM,2011-10-27,6200.0
PXM,2011-10-28,6400.0
PXM,2011-10-31,6300.0
PXM,2011-11-01,6400.0
PXM,2011-11-02,6100.0
PXM,2011-11-03,6200.0
PXM,2011-11-04,6200.0
PXM,2011-11-07,6100.0
PXM,2011-11-08,5900.0
PXM,2011-11-09,5800.0
PXM,2011-11-10,5600.0
PXM,2011-11-11,5300.0
PXM,2011-11-14,5500.0
PXM,2011-11-15,5300.0
PXM,2011-11-16,5600.0
PXM,2011-11-17,5800.0
PXM,2011-11-18,5800.0
PXM,2011-11-21,6100.0
PXM,2011-11-22,6100.0
PXM,2011-11-23,6000.0
PXM,2011-11-24,5900.0
PXM,2011-11-25,5700.0
PXM,2011-11-28,6000.0
PXM,2011-11-29,6100.0
PXM,2011-11-30,6100.0
PXM,2011-12-01,6100.0
PXM,2011-12-02,6100.0
PXM,2011-12-05,6400.0
PXM,2011-12-06,6200.0
PXM,2011-12-07,6000.0
PXM,2011-12-08,6200.0
PXM,2011-12-09,6100.0
PXM,2011-12-12,5800.0
PXM,2011-12-13,5600.0
PXM,2011-12-14,5400.0
PXM,2011-12-15,5200.0
PXM,2011-12-16,5400.0
PXM,2011-12-19,5200.0
PXM,2011-12-20,5000.0
PXM,2011-12-21,4900.0
PXM,2011-12-22,4700.0
PXM,2011-12-23,4700.0
PXM,2011-12-26,4500.0
PXM,2011-12-27,4300.0
PXM,2011-12-28,4500.0
PXM,2011-12-29,4300.0
PXM,2011-12-30,4500.0
PXM,2012-01-03,4700.0
PXM,2012-01-04,4900.0
PXM,2012-01-05,4900.0
PXM,2012-01-06,4700.0
PXM,2012-01-09,4900.0
PXM,2012-01-10,5100.0
PXM,2012-01-11,5200.0
PXM,2012-01-12,5000.0
PXM,2012-01-13,5000.0
PXM,2012-01-16,5100.0
PXM,2012-01-17,5200.0
PXM,2012-01-18,5200.0
PXM,2012-01-19,5200.0
PXM,2012-01-20,5400.0
PXM,2012-01-30,5600.0
PXM,2012-01-31,5700.0
PXM,2012-02-01,5700.0
PXM,2012-02-02,5900.0
PXM,2012-02-03,5700.0
PXM,2012-02-06,5600.0
PXM,2012-02-07,5700.0
PXM,2012-02-08,5800.0
PXM,2012-02-09,5700.0
PXM,2012-02-10,5500.0
PXM,2012-02-13,5300.0
PXM,2012-02-14,5400.0
PXM,2012-02-15,5300.0
PXM,2012-02-16,5300.0
PXM,2012-02-17,5300.0
PXM,2012-02-20,5500.0
PXM,2012-02-21,5300.0
PXM,2012-02-22,5500.0
PXM,2012-02-23,5700.0
PXM,2012-02-24,5700.0
PXM,2012-02-27,5900.0
PXM,2012-02-28,5800.0
PXM,2012-02-29,5800.0
PXM,2012-03-01,5800.0
PXM,2012-03-02,5700.0
PXM,2012-03-05,5900.0
PXM,2012-03-06,5800.0
PXM,2012-03-07,5800.0
PXM,2012-03-08,5600.0
PXM,2012-03-09,5500.0
PXM,2012-03-12,5400.0
PXM,2012-03-13,5400.0
PXM,2012-03-14,5400.0
PXM,2012-03-15,5400.0
PXM,2012-03-16,5600.0
PXM,2012-03-19,5600.0
PXM,2012-03-20,5600.0
PXM,2012-03-21,5700.0
PXM,2012-03-22,5700.0
PXM,2012-03-23,5900.0
PXM,2012-03-26,6100.0
PXM,2012-03-27,6300.0
PXM,2012-03-28,6300.0
PXM,2012-03-29,6300.0
PXM,2012-03-30,6000.0
PXM,2012-04-03,6000.0
PXM,2012-04-04,5700.0
PXM,2012-04-05,5900.0
PXM,2012-04-06,6000.0
PXM,2012-04-09,6100.0
PXM,2012-04-10,6000.0
PXM,2012-04-11,6300.0
PXM,2012-04-12,6500.0
PXM,2012-04-13,6300.0
PXM,2012-04-16,6500.0
PXM,2012-04-17,6500.0
PXM,2012-04-18,6400.0
PXM,2012-04-19,6300.0
PXM,2012-04-20,6300.0
PXM,2012-04-23,6300.0
PXM,2012-04-24,6500.0
PXM,2012-04-25,6800.0
PXM,2012-04-26,7100.0
PXM,2012-04-27,7400.0
PXM,2012-05-02,7700.0
PXM,2012-05-03,7500.0
PXM,2012-05-04,7700.0
PXM,2012-05-07,8000.0
PXM,2012-05-08,8400.0
PXM,2012-05-09,8100.0
PXM,2012-05-10,7700.0
PXM,2012-05-11,7400.0
PXM,2012-05-14,7100.0
PXM,2012-05-15,6800.0
PXM,2012-05-16,6500.0
PXM,2012-05-17,6700.0
PXM,2012-05-18,6400.0
PXM,2012-05-21,6700.0
PXM,2012-05-22,6900.0
PXM,2012-05-23,6600.0
PXM,2012-05-24,6400.0
PXM,2012-05-25,6700.0
PXM,2012-05-28,6900.0
PXM,2012-05-29,6800.0
PXM,2012-05-30,6700.0
PXM,2012-05-31,6600.0
PXM,2012-06-01,6500.0
PXM,2012-06-04,6400.0
PXM,2012-06-05,6700.0
PXM,2012-06-06,6900.0
PXM,2012-06-07,7000.0
PXM,2012-06-08,6900.0
PXM,2012-06-11,6800.0
PXM,2012-06-12,6600.0
PXM,2012-06-13,6700.0
PXM,2012-06-14,6500.0
PXM,2012-06-15,6600.0
PXM,2012-06-18,6700.0
PXM,2012-06-19,6600.0
PXM,2012-06-20,6600.0
PXM,2012-06-21,6400.0
PXM,2012-06-22,6300.0
PXM,2012-06-25,6000.0
PXM,2012-06-26,6000.0
PXM,2012-06-27,6000.0
PXM,2012-06-28,6000.0
PXM,2012-06-29,6100.0
PXM,2012-07-02,5800.0
PXM,2012-07-03,5600.0
PXM,2012-07-04,5400.0
PXM,2012-07-05,5600.0
PXM,2012-07-06,5800.0
PXM,2012-07-09,5600.0
PXM,2012-07-10,5600.0
PXM,2012-07-11,5600.0
PXM,2012-07-12,5600.0
PXM,2012-07-13,5800.0
PXM,2012-07-16,5600.0
PXM,2012-07-17,5800.0
PXM,2012-07-18,5800.0
PXM,2012-07-19,6000.0
PXM,2012-07-20,5800.0
PXM,2012-07-23,5700.0
PXM,2012-07-24,5600.0
PXM,2012-07-25,5400.0
PXM,2012-07-26,5200.0
PXM,2012-07-27,5000.0
PXM,2012-07-30,4800.0
PXM,2012-07-31,4600.0
PXM,2012-08-01,4500.0
PXM,2012-08-02,4700.0
PXM,2012-08-03,4700.0
PXM,2012-08-06,4800.0
PXM,2012-08-07,4700.0
PXM,2012-08-08,4700.0
PXM,2012-08-09,4700.0
PXM,2012-08-10,4600.0
PXM,2012-08-13,4700.0
PXM,2012-08-14,4700.0
PXM,2012-08-15,4800.0
PXM,2012-08-16,4800.0
PXM,2012-08-17,4700.0
PXM,2012-08-20,4600.0
PXM,2012-08-21,4400.0
PXM,2012-08-22,4200.0
PXM,2012-08-23,4000.0
PXM,2012-08-24,4200.0
PXM,2012-08-27,4000.0
PXM,2012-08-28,3900.0
PXM,2012-08-29,4000.0
PXM,2012-08-30,4000.0
PXM,2012-08-31,3900.0
PXM,2012-09-04,3900.0
PXM,2012-09-05,3800.0
PXM,2012-09-06,3700.0
PXM,2012-09-07,3600.0
PXM,2012-09-10,3500.0
PXM,2012-09-11,3400.0
PXM,2012-09-12,3300.0
PXM,2012-09-13,3200.0
PXM,2012-09-14,3200.0
PXM,2012-09-17,3100.0
PXM,2012-09-18,3000.0
PXM,2012-09-19,2900.0
PXM,2012-09-20,2800.0
PXM,2012-09-21,2700.0
PXM,2012-09-24,2600.0
PXM,2012-09-25,2500.0
PXM,2012-09-26,2400.0
PXM,2012-09-27,2500.0
PXM,2012-09-28,2400.0
PXM,2012-10-01,2300.0
PXM,2012-10-02,2200.0
PXM,2012-10-03,2300.0
PXM,2012-10-04,2200.0
PXM,2012-10-05,2300.0
PXM,2012-10-08,2400.0
PXM,2012-10-09,2500.0
PXM,2012-10-10,2600.0
PXM,2012-10-11,2700.0
PXM,2012-10-12,2800.0
PXM,2012-10-15,2700.0
PXM,2012-10-16,2800.0
PXM,2012-10-17,2700.0
PXM,2012-10-18,2600.0
PXM,2012-10-19,2600.0
PXM,2012-10-22,2500.0
PXM,2012-10-23,2500.0
PXM,2012-10-24,2400.0
PXM,2012-10-25,2300.0
PXM,2012-10-26,2300.0
PXM,2012-10-29,2300.0
PXM,2012-10-30,2200.0
PXM,2012-10-31,2300.0
PXM,2012-11-01,2400.0
PXM,2012-11-02,2300.0
PXM,2012-11-05,2200.0
PXM,2012-11-06,2200.0
PXM,2012-11-07,2200.0
PXM,2012-11-08,2100.0
PXM,2012-11-09,2100.0
PXM,2012-11-12,2200.0
PXM,2012-11-13,2200.0
PXM,2012-11-14,2200.0
PXM,2012-11-15,2100.0
PXM,2012-11-16,2100.0
PXM,2012-11-19,2100.0
PXM,2012-11-20,2200.0
PXM,2012-11-21,2200.0
PXM,2012-11-22,2100.0
PXM,2012-11-23,2200.0
PXM,2012-11-26,2100.0
PXM,2012-11-27,2000.0
PXM,2012-11-28,2000.0
PXM,2012-11-29,2000.0
PXM,2012-11-30,2100.0
PXM,2012-12-03,2000.0
PXM,2012-12-04,1900.0
PXM,2012-12-05,2000.0
PXM,2012-12-06,2100.0
PXM,2012-12-07,2200.0
PXM,2012-12-10,2300.0
PXM,2012-12-11,2400.0
PXM,2012-12-12,2400.0
PXM,2012-12-13,2300.0
PXM,2012-12-14,2300.0
PXM,2012-12-17,2200.0
PXM,2012-12-18,2300.0
PXM,2012-12-19,2300.0
PXM,2012-12-20,2300.0
PXM,2012-12-21,2300.0
PXM,2012-12-24,2300.0
PXM,2012-12-25,2200.0
PXM,2012-12-26,2300.0
PXM,2012-12-27,2300.0
PXM,2012-12-28,2400.0
PXM,2013-01-02,2500.0
PXM,2013-01-03,2600.0
PXM,2013-01-04,2700.0
PXM,2013-01-07,2600.0
PXM,2013-01-08,2500.0
PXM,2013-01-09,2400.0
PXM,2013-01-10,2400.0
PXM,2013-01-11,2500.0
PXM,2013-01-14,2400.0
PXM,2013-01-15,2500.0
PXM,2013-01-16,2600.0
PXM,2013-01-17,2700.0
PXM,2013-01-18,2800.0
PXM,2013-01-21,2900.0
PXM,2013-01-22,2700.0
PXM,2013-01-23,2600.0
PXM,2013-01-24,2700.0
PXM,2013-01-25,2700.0
PXM,2013-01-28,2600.0
PXM,2013-01-29,2700.0
PXM,2013-01-30,2700.0
PXM,2013-01-31,2700.0
PXM,2013-02-01,2700.0
PXM,2013-02-04,2700.0
PXM,2013-02-05,2700.0
PXM,2013-02-06,2600.0
PXM,2013-02-07,2700.0
PXM,2013-02-08,2800.0
PXM,2013-02-18,2700.0
PXM,2013-02-19,2800.0
PXM,2013-02-20,2900.0
PXM,2013-02-21,2900.0
PXM,2013-02-22,2800.0
PXM,2013-02-25,2700.0
PXM,2013-02-26,2600.0
PXM,2013-02-27,2500.0
PXM,2013-02-28,2400.0
PXM,2013-03-01,2300.0
PXM,2013-03-04,2200.0
PXM,2013-03-05,2100.0
PXM,2013-03-06,2000.0
PXM,2013-03-07,2000.0
PXM,2013-03-08,2100.0
PXM,2013-03-11,2200.0
PXM,2013-03-12,2200.0
PXM,2013-03-13,2100.0
PXM,2013-03-14,2100.0
PXM,2013-03-15,2000.0
PXM,2013-03-18,2000.0
PXM,2013-03-19,2000.0
PXM,2013-03-20,2100.0
PXM,2013-03-21,2200.0
PXM,2013-03-22,2100.0
PXM,2013-03-25,2000.0
PXM,2013-03-26,2000.0
PXM,2013-03-27,1900.0
PXM,2013-03-28,1800.0
PXM,2013-03-29,1800.0
PXM,2013-04-01,1900.0
PXM,2013-04-02,1900.0
PXM,2013-04-03,1800.0
PXM,2013-04-04,1700.0
PXM,2013-04-05,1600.0
PXM,2013-04-08,1500.0
PXM,2013-04-09,1600.0
PXM,2013-04-10,1500.0
PXM,2013-04-11,1400.0
PXM,2013-04-12,1500.0
PXM,2013-04-15,1400.0
PXM,2013-04-16,1500.0
PXM,2013-04-17,1600.0
PXM,2013-04-18,1500.0
PXM,2013-04-22,1500.0
PXM,2013-04-23,1500.0
PXM,2013-04-24,1400.0
PXM,2013-04-25,1500.0
PXM,2013-04-26,1500.0
PXM,2013-05-02,1500.0
PXM,2013-05-03,1600.0
PXM,2013-05-06,1600.0
PXM,2013-05-07,1500.0
PXM,2013-05-08,1500.0
PXM,2013-05-09,1600.0
PXM,2013-05-10,1600.0
PXM,2013-05-13,1600.0
PXM,2013-05-14,1500.0
PXM,2013-05-15,1500.0
PXM,2013-05-16,1600.0
PXM,2013-05-17,1700.0
PXM,2013-05-20,1600.0
PXM,2013-05-21,1600.0
PXM,2013-05-22,1700.0
PXM,2013-05-23,1600.0
PXM,2013-05-24,1600.0
PXM,2013-05-27,1700.0
PXM,2013-05-28,1600.0
PXM,2013-05-29,1700.0
PXM,2013-05-30,1600.0
PXM,2013-05-31,1600.0
PXM,2013-06-03,1600.0
PXM,2013-06-04,1600.0
PXM,2013-06-05,1700.0
PXM,2013-06-06,1700.0
PXM,2013-06-07,1600.0
PXM,2013-06-10,1600.0
PXM,2013-06-11,1600.0
PXM,2013-06-12,1500.0
PXM,2013-06-13,1600.0
PXM,2013-06-14,1700.0
PXM,2013-06-17,1600.0
PXM,2013-06-18,1500.0
PXM,2013-06-19,1600.0
PXM,2013-06-20,1600.0
PXM,2013-06-21,1700.0
PXM,2013-06-24,1600.0
PXM,2013-06-25,1600.0
PXM,2013-06-26,1500.0
PXM,2013-06-27,1500.0
PXM,2013-06-28,1600.0
PXM,2013-07-01,1500.0
PXM,2013-07-02,1600.0
PXM,2013-07-03,1600.0
PXM,2013-07-04,1500.0
PXM,2013-07-05,1600.0
PXM,2013-07-08,1600.0
PXM,2013-07-09,1500.0
PXM,2013-07-10,1500.0
PXM,2013-07-11,1400.0
PXM,2013-07-12,1500.0
PXM,2013-07-15,1400.0
PXM,2013-07-16,1400.0
PXM,2013-07-17,1500.0
PXM,2013-07-18,1500.0
PXM,2013-07-19,1400.0
PXM,2013-07-22,1300.0
PXM,2013-07-23,1200.0
PXM,2013-07-24,1100.0
PXM,2013-07-25,1100.0
PXM,2013-07-26,1100.0
PXM,2013-07-29,1000.0
PXM,2013-07-30,1000.0
PXM,2013-07-31,1000.0
PXM,2013-08-01,1000.0
PXM,2013-08-02,1000.0
PXM,2013-08-05,1100.0
PXM,2013-08-06,1100.0
PXM,2013-08-07,1100.0
PXM,2013-08-08,1100.0
PXM,2013-08-09,1000.0
PXM,2013-08-12,1000.0
PXM,2013-08-13,1000.0
PXM,2013-08-14,1000.0
PXM,2013-08-15,1100.0
PXM,2013-08-16,1000.0
PXM,2013-08-19,900.0
PXM,2013-08-20,1000.0
PXM,2013-08-21,1000.0
PXM,2013-08-22,900.0
PXM,2013-08-23,900.0
PXM,2013-08-26,1000.0
PXM,2013-08-27,1000.0
PXM,2013-08-28,900.0
PXM,2013-08-29,1000.0
PXM,2013-08-30,900.0
PXM,2013-09-03,900.0
PXM,2013-09-04,900.0
PXM,2013-09-05,900.0
PXM,2013-09-06,900.0
PXM,2013-09-09,800.0
PXM,2013-09-10,700.0
PXM,2013-09-11,600.0
PXM,2013-09-12,500.0
PXM,2013-09-13,600.0
PXM,2013-09-16,600.0
PXM,2013-09-17,600.0
PXM,2013-09-18,600.0
PXM,2013-09-19,500.0
PXM,2013-09-20,600.0
PXM,2013-09-23,600.0
PXM,2013-09-24,500.0
PXM,2013-09-25,600.0
PXM,2013-09-26,700.0
PXM,2013-09-27,800.0
PXM,2013-09-30,900.0
PXM,2013-10-01,1000.0
PXM,2013-10-02,1100.0
PXM,2013-10-03,1000.0
PXM,2013-10-04,1000.0
PXM,2013-10-07,1000.0
PXM,2013-10-08,900.0
PXM,2013-10-09,800.0
PXM,2013-10-10,900.0
PXM,2013-10-11,900.0
PXM,2013-10-14,900.0
PXM,2013-10-15,1000.0
PXM,2013-10-16,1000.0
PXM,2013-10-17,900.0
PXM,2013-10-18,800.0
PXM,2013-10-21,800.0
PXM,2013-10-22,900.0
PXM,2013-10-23,900.0
PXM,2013-10-24,900.0
PXM,2013-10-25,900.0
PXM,2013-10-28,800.0
PXM,2013-10-29,700.0
PXM,2013-10-30,800.0
PXM,2013-10-31,800.0
PXM,2013-11-01,700.0
PXM,2013-11-04,600.0
PXM,2013-11-05,700.0
PXM,2013-11-06,800.0
PXM,2013-11-07,800.0
PXM,2013-11-08,700.0
PXM,2013-11-11,800.0
PXM,2013-11-12,700.0
PXM,2013-11-13,800.0
PXM,2013-11-14,900.0
PXM,2013-11-15,1000.0
PXM,2013-11-18,1100.0
PXM,2013-11-19,1200.0
PXM,2013-11-20,1300.0
PXM,2013-11-21,1400.0
PXM,2013-11-22,1500.0
PXM,2013-11-25,1600.0
PXM,2013-11-26,1700.0
PXM,2013-11-27,1800.0
PXM,2013-11-28,1700.0
PXM,2013-11-29,1600.0
PXM,2013-12-02,1500.0
PXM,2013-12-03,1400.0
PXM,2013-12-04,1300.0
PXM,2013-12-05,1200.0
PXM,2013-12-06,1200.0
PXM,2013-12-09,1300.0
PXM,2013-12-10,1200.0
PXM,2013-12-11,1100.0
PXM,2013-12-12,1100.0
PXM,2013-12-13,1200.0
PXM,2013-12-16,1200.0
PXM,2013-12-17,1300.0
PXM,2013-12-18,1200.0
PXM,2013-12-19,1200.0
PXM,2013-12-20,1200.0
PXM,2013-12-23,1300.0
PXM,2013-12-24,1400.0
PXM,2013-12-25,1300.0
PXM,2013-12-26,1300.0
PXM,2013-12-27,1300.0
PXM,2013-12-30,1300.0
PXM,2013-12-31,1300.0
PXM,2014-01-02,1300.0
PXM,2014-01-03,1200.0
PXM,2014-01-06,1300.0
PXM,2014-01-07,1400.0
PXM,2014-01-08,1500.0
PXM,2014-01-09,1600.0
PXM,2014-01-10,1700.0
PXM,2014-01-13,1800.0
PXM,2014-01-14,1900.0
PXM,2014-01-15,2000.0
PXM,2014-01-16,2100.0
PXM,2014-01-17,2000.0
PXM,2014-01-20,1900.0
PXM,2014-01-21,1800.0
PXM,2014-01-22,1700.0
PXM,2014-01-23,1600.0
PXM,2014-01-24,1700.0
PXM,2014-01-27,1800.0
PXM,2014-02-06,1900.0
PXM,2014-02-07,2000.0
PXM,2014-02-10,2000.0
PXM,2014-02-11,2000.0
PXM,2014-02-12,2100.0
PXM,2014-02-13,2000.0
PXM,2014-02-14,2000.0
PXM,2014-02-17,2000.0
PXM,2014-02-18,2000.0
PXM,2014-02-19,2000.0
PXM,2014-02-20,2000.0
PXM,2014-02-21,2000.0
PXM,2014-02-24,1900.0
PXM,2014-02-25,1800.0
PXM,2014-02-26,1700.0
PXM,2014-02-27,1600.0
PXM,2014-02-28,1500.0
PXM,2014-03-03,1600.0
PXM,2014-03-04,1700.0
PXM,2014-03-05,1800.0
PXM,2014-03-06,1700.0
PXM,2014-03-07,1800.0
PXM,2014-03-10,1900.0
PXM,2014-03-11,1800.0
PXM,2014-03-12,1700.0
PXM,2014-03-13,1800.0
PXM,2014-03-14,1900.0
PXM,2014-03-17,2000.0
PXM,2014-03-18,2100.0
PXM,2014-03-19,2200.0
PXM,2014-03-20,2300.0
PXM,2014-03-21,2400.0
PXM,2014-03-24,2500.0
PXM,2014-03-25,2600.0
PXM,2014-03-26,2700.0
PXM,2014-03-27,2800.0
PXM,2014-03-28,2900.0
PXM,2014-03-31,3100.0
PXM,2014-04-01,3300.0
PXM,2014-04-02,3500.0
PXM,2014-04-03,3700.0
PXM,2014-04-04,3500.0
PXM,2014-04-07,3300.0
PXM,2014-04-08,3100.0
PXM,2014-04-10,2900.0
PXM,2014-04-11,2700.0
PXM,2014-04-14,2600.0
PXM,2014-04-15,2500.0
PXM,2014-04-16,2400.0
PXM,2014-04-17,2300.0
PXM,2014-04-18,2200.0
PXM,2014-04-21,2100.0
PXM,2014-04-22,2000.0
PXM,2014-04-23,1900.0
PXM,2014-04-24,1800.0
PXM,2014-04-25,1700.0
PXM,2014-04-28,1600.0
PXM,2014-04-29,1500.0
PXM,2014-05-05,1400.0
PXM,2014-05-06,1300.0
PXM,2014-05-07,1200.0
PXM,2014-05-08,1100.0
PXM,2014-05-09,1000.0
PXM,2014-05-12,900.0
PXM,2014-05-13,800.0
PXM,2014-05-14,900.0
