PXS,2010-06-02,12000.0
PXS,2010-06-03,12600.0
PXS,2010-06-04,12200.0
PXS,2010-06-07,11600.0
PXS,2010-06-08,11100.0
PXS,2010-06-09,10600.0
PXS,2010-06-10,10100.0
PXS,2010-06-11,10600.0
PXS,2010-06-14,11000.0
PXS,2010-06-15,10800.0
PXS,2010-06-16,10700.0
PXS,2010-06-17,10700.0
PXS,2010-06-18,10600.0
PXS,2010-06-21,10500.0
PXS,2010-06-22,10200.0
PXS,2010-06-23,10700.0
PXS,2010-06-24,10800.0
PXS,2010-06-25,10400.0
PXS,2010-06-28,10700.0
PXS,2010-06-29,10400.0
PXS,2010-06-30,10000.0
PXS,2010-07-01,10000.0
PXS,2010-07-02,10300.0
PXS,2010-07-05,10300.0
PXS,2010-07-06,10000.0
PXS,2010-07-07,10000.0
PXS,2010-07-08,9600.0
PXS,2010-07-09,9600.0
PXS,2010-07-12,9800.0
PXS,2010-07-13,10200.0
PXS,2010-07-14,10300.0
PXS,2010-07-15,10100.0
PXS,2010-07-16,9900.0
PXS,2010-07-19,9700.0
PXS,2010-07-20,9900.0
PXS,2010-07-21,9800.0
PXS,2010-07-22,9800.0
PXS,2010-07-23,10000.0
PXS,2010-07-26,10300.0
PXS,2010-07-27,10200.0
PXS,2010-07-28,10300.0
PXS,2010-07-29,10300.0
PXS,2010-07-30,10500.0
PXS,2010-08-02,10800.0
PXS,2010-08-03,10800.0
PXS,2010-08-04,11300.0
PXS,2010-08-05,11400.0
PXS,2010-08-06,10800.0
PXS,2010-08-09,10600.0
PXS,2010-08-10,10000.0
PXS,2010-08-11,9900.0
PXS,2010-08-12,9400.0
PXS,2010-08-13,9400.0
PXS,2010-08-16,9800.0
PXS,2010-08-17,9800.0
PXS,2010-08-18,9300.0
PXS,2010-08-19,9100.0
PXS,2010-08-20,8900.0
PXS,2010-08-23,8500.0
PXS,2010-08-24,8100.0
PXS,2010-08-25,7700.0
PXS,2010-08-26,7600.0
PXS,2010-08-27,8000.0
PXS,2010-08-30,8400.0
PXS,2010-08-31,8700.0
PXS,2010-09-01,9200.0
PXS,2010-09-06,9500.0
PXS,2010-09-07,9400.0
PXS,2010-09-08,9200.0
PXS,2010-09-09,9400.0
PXS,2010-09-10,8900.0
PXS,2010-09-13,8500.0
PXS,2010-09-14,8700.0
PXS,2010-09-15,8600.0
PXS,2010-09-16,8500.0
PXS,2010-09-17,8900.0
PXS,2010-09-20,8600.0
PXS,2010-09-21,8600.0
PXS,2010-09-22,8600.0
PXS,2010-09-23,8400.0
PXS,2010-09-24,8100.0
PXS,2010-09-27,8400.0
PXS,2010-09-28,8400.0
PXS,2010-09-29,8300.0
PXS,2010-09-30,8100.0
PXS,2010-10-01,8100.0
PXS,2010-10-04,7700.0
PXS,2010-10-05,7700.0
PXS,2010-10-06,8100.0
PXS,2010-10-07,8000.0
PXS,2010-10-08,7700.0
PXS,2010-10-11,7700.0
PXS,2010-10-12,7700.0
PXS,2010-10-13,7700.0
PXS,2010-10-14,7700.0
PXS,2010-10-15,7700.0
PXS,2010-10-18,7600.0
PXS,2010-10-19,7300.0
PXS,2010-10-20,7000.0
PXS,2010-10-21,7000.0
PXS,2010-10-22,6900.0
PXS,2010-10-25,7000.0
PXS,2010-10-26,7300.0
PXS,2010-10-27,7300.0
PXS,2010-10-28,7000.0
PXS,2010-10-29,7200.0
PXS,2010-11-01,7000.0
PXS,2010-11-02,6900.0
PXS,2010-11-03,6800.0
PXS,2010-11-04,6900.0
PXS,2010-11-05,7000.0
PXS,2010-11-08,7000.0
PXS,2010-11-09,6700.0
PXS,2010-11-10,6800.0
PXS,2010-11-11,6500.0
PXS,2010-11-12,6200.0
PXS,2010-11-15,6000.0
PXS,2010-11-16,5900.0
PXS,2010-11-17,6100.0
PXS,2010-11-18,6400.0
PXS,2010-11-19,6700.0
PXS,2010-11-22,6400.0
PXS,2010-11-23,6400.0
PXS,2010-11-24,6700.0
PXS,2010-11-25,6900.0
PXS,2010-11-26,7000.0
PXS,2010-11-29,7000.0
PXS,2010-11-30,7300.0
PXS,2010-12-01,7100.0
PXS,2010-12-02,7400.0
PXS,2010-12-03,7800.0
PXS,2010-12-06,8000.0
PXS,2010-12-07,7700.0
PXS,2010-12-08,7300.0
PXS,2010-12-09,7300.0
PXS,2010-12-10,7600.0
PXS,2010-12-13,8000.0
PXS,2010-12-14,7600.0
PXS,2010-12-15,7300.0
PXS,2010-12-16,7000.0
PXS,2010-12-17,7300.0
PXS,2010-12-20,7700.0
PXS,2010-12-21,7900.0
PXS,2010-12-22,7700.0
PXS,2010-12-23,7500.0
PXS,2010-12-24,7500.0
PXS,2010-12-27,7600.0
PXS,2010-12-28,7700.0
PXS,2010-12-29,7300.0
PXS,2010-12-30,7100.0
PXS,2010-12-31,7400.0
PXS,2011-01-04,7500.0
PXS,2011-01-05,7300.0
PXS,2011-01-06,7300.0
PXS,2011-01-07,7600.0
PXS,2011-01-10,7600.0
PXS,2011-01-11,7600.0
PXS,2011-01-12,7600.0
PXS,2011-01-13,7600.0
PXS,2011-01-14,7700.0
PXS,2011-01-17,8000.0
PXS,2011-01-18,8400.0
PXS,2011-01-19,8800.0
PXS,2011-01-20,8900.0
PXS,2011-01-21,8800.0
PXS,2011-01-24,8800.0
PXS,2011-01-25,8600.0
PXS,2011-01-26,8600.0
PXS,2011-01-27,8800.0
PXS,2011-01-28,8600.0
PXS,2011-02-08,8700.0
PXS,2011-02-09,8700.0
PXS,2011-02-10,9100.0
PXS,2011-02-11,9400.0
PXS,2011-02-14,9000.0
PXS,2011-02-15,8600.0
PXS,2011-02-16,8500.0
PXS,2011-02-17,8200.0
PXS,2011-02-18,8000.0
PXS,2011-02-21,7800.0
PXS,2011-02-22,8100.0
PXS,2011-02-23,8100.0
PXS,2011-02-24,8000.0
PXS,2011-02-25,8100.0
PXS,2011-02-28,7800.0
PXS,2011-03-01,7900.0
PXS,2011-03-02,7500.0
PXS,2011-03-03,7400.0
PXS,2011-03-04,7400.0
PXS,2011-03-07,7400.0
PXS,2011-03-08,7500.0
PXS,2011-03-09,7500.0
PXS,2011-03-10,7800.0
PXS,2011-03-11,8100.0
PXS,2011-03-14,7700.0
PXS,2011-03-15,7700.0
PXS,2011-03-16,7900.0
PXS,2011-03-17,8100.0
PXS,2011-03-18,8200.0
PXS,2011-03-21,8200.0
PXS,2011-03-22,8100.0
PXS,2011-03-23,8100.0
PXS,2011-03-24,7900.0
PXS,2011-03-25,7900.0
PXS,2011-03-28,7900.0
PXS,2011-03-29,8100.0
PXS,2011-03-30,8100.0
PXS,2011-03-31,8100.0
PXS,2011-04-01,8100.0
PXS,2011-04-04,8100.0
PXS,2011-04-05,8100.0
PXS,2011-04-06,8100.0
PXS,2011-04-07,8300.0
PXS,2011-04-08,8300.0
PXS,2011-04-13,8100.0
PXS,2011-04-14,8200.0
PXS,2011-04-15,8000.0
PXS,2011-04-18,7700.0
PXS,2011-04-19,7500.0
PXS,2011-04-20,7600.0
PXS,2011-04-21,7500.0
PXS,2011-04-22,7400.0
PXS,2011-04-25,7700.0
PXS,2011-04-26,7500.0
PXS,2011-04-27,7500.0
PXS,2011-04-28,7500.0
PXS,2011-04-29,7500.0
PXS,2011-05-04,7300.0
PXS,2011-05-05,7000.0
PXS,2011-05-06,7100.0
PXS,2011-05-09,7100.0
PXS,2011-05-10,7100.0
PXS,2011-05-11,7000.0
PXS,2011-05-12,6900.0
PXS,2011-05-13,6700.0
PXS,2011-05-16,6700.0
PXS,2011-05-17,6600.0
PXS,2011-05-18,6500.0
PXS,2011-05-19,6300.0
PXS,2011-05-20,6300.0
PXS,2011-05-23,6100.0
PXS,2011-05-24,5900.0
PXS,2011-05-25,6100.0
PXS,2011-05-26,6200.0
PXS,2011-05-27,6200.0
PXS,2011-05-30,6100.0
PXS,2011-05-31,6100.0
PXS,2011-06-01,6300.0
PXS,2011-06-02,6600.0
PXS,2011-06-03,6600.0
PXS,2011-06-06,6700.0
PXS,2011-06-07,7100.0
PXS,2011-06-08,7100.0
PXS,2011-06-09,7200.0
PXS,2011-06-10,7500.0
PXS,2011-06-13,7700.0
PXS,2011-06-14,7400.0
PXS,2011-06-15,7100.0
PXS,2011-06-16,7100.0
PXS,2011-06-17,6800.0
PXS,2011-06-20,6600.0
PXS,2011-06-21,6900.0
PXS,2011-06-22,7100.0
PXS,2011-06-23,6700.0
PXS,2011-06-24,6800.0
PXS,2011-06-27,6700.0
PXS,2011-06-28,6700.0
PXS,2011-06-29,6900.0
PXS,2011-06-30,6700.0
PXS,2011-07-01,6700.0
PXS,2011-07-04,6700.0
PXS,2011-07-05,6900.0
PXS,2011-07-06,6700.0
PXS,2011-07-07,6800.0
PXS,2011-07-08,6800.0
PXS,2011-07-11,6600.0
PXS,2011-07-12,6600.0
PXS,2011-07-13,6700.0
PXS,2011-07-14,6700.0
PXS,2011-07-15,6700.0
PXS,2011-07-18,6600.0
PXS,2011-07-19,6600.0
PXS,2011-07-20,6700.0
PXS,2011-07-21,6700.0
PXS,2011-07-22,6700.0
PXS,2011-07-25,6500.0
PXS,2011-07-26,6500.0
PXS,2011-07-27,6500.0
PXS,2011-07-28,6500.0
PXS,2011-07-29,6500.0
PXS,2011-08-01,6400.0
PXS,2011-08-02,6300.0
PXS,2011-08-03,6300.0
PXS,2011-08-04,6600.0
PXS,2011-08-05,6300.0
PXS,2011-08-08,6300.0
PXS,2011-08-09,6100.0
PXS,2011-08-10,6100.0
PXS,2011-08-11,6100.0
PXS,2011-08-12,6100.0
PXS,2011-08-15,6100.0
PXS,2011-08-16,6200.0
PXS,2011-08-17,6400.0
PXS,2011-08-18,6400.0
PXS,2011-08-19,6400.0
PXS,2011-08-22,6500.0
PXS,2011-08-23,6400.0
PXS,2011-08-24,6400.0
PXS,2011-08-25,6500.0
PXS,2011-08-26,6600.0
PXS,2011-08-29,6900.0
PXS,2011-08-30,6900.0
PXS,2011-08-31,7000.0
PXS,2011-09-01,7100.0
PXS,2011-09-05,6900.0
PXS,2011-09-06,6700.0
PXS,2011-09-07,7100.0
PXS,2011-09-08,7400.0
PXS,2011-09-09,7700.0
PXS,2011-09-12,7800.0
PXS,2011-09-13,8100.0
PXS,2011-09-14,8000.0
PXS,2011-09-15,7900.0
PXS,2011-09-16,7700.0
PXS,2011-09-19,7900.0
PXS,2011-09-20,7800.0
PXS,2011-09-21,7700.0
PXS,2011-09-22,7900.0
PXS,2011-09-23,7700.0
PXS,2011-09-26,8100.0
PXS,2011-09-27,8400.0
PXS,2011-09-28,8800.0
PXS,2011-09-29,8600.0
PXS,2011-09-30,8200.0
PXS,2011-10-03,7900.0
PXS,2011-10-04,7500.0
PXS,2011-10-05,7700.0
PXS,2011-10-06,8100.0
PXS,2011-10-07,7800.0
PXS,2011-10-10,7600.0
PXS,2011-10-11,7700.0
PXS,2011-10-12,7400.0
PXS,2011-10-13,7400.0
PXS,2011-10-14,7500.0
PXS,2011-10-17,7400.0
PXS,2011-10-18,7200.0
PXS,2011-10-19,7400.0
PXS,2011-10-20,7400.0
PXS,2011-10-21,7700.0
PXS,2011-10-24,7600.0
PXS,2011-10-25,7400.0
PXS,2011-10-26,7400.0
PXS,2011-10-27,7400.0
PXS,2011-10-28,7800.0
PXS,2011-10-31,7500.0
PXS,2011-11-01,7500.0
PXS,2011-11-02,7500.0
PXS,2011-11-03,7400.0
PXS,2011-11-04,7400.0
PXS,2011-11-07,7400.0
PXS,2011-11-08,7400.0
PXS,2011-11-09,7400.0
PXS,2011-11-10,7400.0
PXS,2011-11-11,7300.0
PXS,2011-11-14,7100.0
PXS,2011-11-15,7100.0
PXS,2011-11-16,7300.0
PXS,2011-11-17,7200.0
PXS,2011-11-18,7100.0
PXS,2011-11-21,7100.0
PXS,2011-11-22,7100.0
PXS,2011-11-23,7100.0
PXS,2011-11-24,6900.0
PXS,2011-11-25,6800.0
PXS,2011-11-28,6900.0
PXS,2011-11-29,6800.0
PXS,2011-11-30,6700.0
PXS,2011-12-01,6700.0
PXS,2011-12-02,6900.0
PXS,2011-12-05,7200.0
PXS,2011-12-06,7200.0
PXS,2011-12-07,7100.0
PXS,2011-12-08,7100.0
PXS,2011-12-09,7000.0
PXS,2011-12-12,6800.0
PXS,2011-12-13,6700.0
PXS,2011-12-14,6500.0
PXS,2011-12-15,6300.0
PXS,2011-12-16,6500.0
PXS,2011-12-19,6500.0
PXS,2011-12-20,6200.0
PXS,2011-12-21,6100.0
PXS,2011-12-22,5900.0
PXS,2011-12-23,5700.0
PXS,2011-12-26,5500.0
PXS,2011-12-27,5200.0
PXS,2011-12-28,5100.0
PXS,2011-12-29,5200.0
PXS,2011-12-30,5400.0
PXS,2012-01-03,5600.0
PXS,2012-01-04,5400.0
PXS,2012-01-05,5600.0
PXS,2012-01-06,5300.0
PXS,2012-01-09,5400.0
PXS,2012-01-10,5600.0
PXS,2012-01-11,5700.0
PXS,2012-01-12,5500.0
PXS,2012-01-13,5600.0
PXS,2012-01-16,5800.0
PXS,2012-01-17,5700.0
PXS,2012-01-18,5800.0
PXS,2012-01-19,6000.0
PXS,2012-01-20,6100.0
PXS,2012-01-30,6200.0
PXS,2012-01-31,6200.0
PXS,2012-02-01,6100.0
PXS,2012-02-02,6400.0
PXS,2012-02-03,6300.0
PXS,2012-02-06,6200.0
PXS,2012-02-07,6400.0
PXS,2012-02-08,6600.0
PXS,2012-02-09,6400.0
PXS,2012-02-10,6200.0
PXS,2012-02-13,5900.0
PXS,2012-02-14,6200.0
PXS,2012-02-15,6200.0
PXS,2012-02-16,6100.0
PXS,2012-02-17,6300.0
PXS,2012-02-20,6600.0
PXS,2012-02-21,6500.0
PXS,2012-02-22,6800.0
PXS,2012-02-23,6900.0
PXS,2012-02-24,6800.0
PXS,2012-02-27,7100.0
PXS,2012-02-28,6800.0
PXS,2012-02-29,6800.0
PXS,2012-03-01,6900.0
PXS,2012-03-02,7100.0
PXS,2012-03-05,7400.0
PXS,2012-03-06,7300.0
PXS,2012-03-07,7200.0
PXS,2012-03-08,6900.0
PXS,2012-03-09,6900.0
PXS,2012-03-12,6800.0
PXS,2012-03-13,6900.0
PXS,2012-03-14,6800.0
PXS,2012-03-15,7100.0
PXS,2012-03-16,7200.0
PXS,2012-03-19,7100.0
PXS,2012-03-20,7300.0
PXS,2012-03-21,7600.0
PXS,2012-03-22,7800.0
PXS,2012-03-23,8200.0
PXS,2012-03-26,8400.0
PXS,2012-03-27,8100.0
PXS,2012-03-28,7800.0
PXS,2012-03-29,7500.0
PXS,2012-03-30,7200.0
PXS,2012-04-03,7500.0
PXS,2012-04-04,7500.0
PXS,2012-04-05,7600.0
PXS,2012-04-06,7800.0
PXS,2012-04-09,8100.0
PXS,2012-04-10,8100.0
PXS,2012-04-11,8500.0
PXS,2012-04-12,8900.0
PXS,2012-04-13,9200.0
PXS,2012-04-16,9400.0
PXS,2012-04-17,9200.0
PXS,2012-04-18,8900.0
PXS,2012-04-19,8500.0
PXS,2012-04-20,8600.0
PXS,2012-04-23,8600.0
PXS,2012-04-24,8900.0
PXS,2012-04-25,9300.0
PXS,2012-04-26,9000.0
PXS,2012-04-27,9200.0
PXS,2012-05-02,9500.0
PXS,2012-05-03,9300.0
PXS,2012-05-04,9700.0
PXS,2012-05-07,10100.0
PXS,2012-05-08,10600.0
PXS,2012-05-09,10200.0
PXS,2012-05-10,10100.0
PXS,2012-05-11,10100.0
PXS,2012-05-14,9600.0
PXS,2012-05-15,9100.0
PXS,2012-05-16,9100.0
PXS,2012-05-17,9000.0
PXS,2012-05-18,8700.0
PXS,2012-05-21,9100.0
PXS,2012-05-22,9400.0
PXS,2012-05-23,9000.0
PXS,2012-05-24,8700.0
PXS,2012-05-25,9100.0
PXS,2012-05-28,9200.0
PXS,2012-05-29,9000.0
PXS,2012-05-30,9100.0
PXS,2012-05-31,8900.0
PXS,2012-06-01,8700.0
PXS,2012-06-04,8400.0
PXS,2012-06-05,8700.0
PXS,2012-06-06,8800.0
PXS,2012-06-07,9100.0
PXS,2012-06-08,9100.0
PXS,2012-06-11,9100.0
PXS,2012-06-12,8900.0
PXS,2012-06-13,8900.0
PXS,2012-06-14,8700.0
PXS,2012-06-15,9000.0
PXS,2012-06-18,9000.0
PXS,2012-06-19,8900.0
PXS,2012-06-20,8900.0
PXS,2012-06-21,8800.0
PXS,2012-06-22,8700.0
PXS,2012-06-25,8300.0
PXS,2012-06-26,7900.0
PXS,2012-06-27,8000.0
PXS,2012-06-28,7900.0
PXS,2012-06-29,7900.0
PXS,2012-07-02,7700.0
PXS,2012-07-03,7400.0
PXS,2012-07-04,7400.0
PXS,2012-07-05,7600.0
PXS,2012-07-06,7700.0
PXS,2012-07-09,7700.0
PXS,2012-07-10,8000.0
PXS,2012-07-11,8200.0
PXS,2012-07-12,8200.0
PXS,2012-07-13,8600.0
PXS,2012-07-16,8200.0
PXS,2012-07-17,8500.0
PXS,2012-07-18,8400.0
PXS,2012-07-19,8800.0
PXS,2012-07-20,8700.0
PXS,2012-07-23,8600.0
PXS,2012-07-24,8500.0
PXS,2012-07-25,8400.0
PXS,2012-07-26,8400.0
PXS,2012-07-27,8200.0
PXS,2012-07-30,8300.0
PXS,2012-07-31,8200.0
PXS,2012-08-01,8000.0
PXS,2012-08-02,8100.0
PXS,2012-08-03,8200.0
PXS,2012-08-06,8400.0
PXS,2012-08-07,8300.0
PXS,2012-08-08,8300.0
PXS,2012-08-09,8400.0
PXS,2012-08-10,8400.0
PXS,2012-08-13,8300.0
PXS,2012-08-14,8300.0
PXS,2012-08-15,8200.0
PXS,2012-08-16,8400.0
PXS,2012-08-17,8400.0
PXS,2012-08-20,8500.0
PXS,2012-08-21,8100.0
PXS,2012-08-22,7700.0
PXS,2012-08-23,7400.0
PXS,2012-08-24,7600.0
PXS,2012-08-27,7300.0
PXS,2012-08-28,7100.0
PXS,2012-08-29,7400.0
PXS,2012-08-30,7400.0
PXS,2012-08-31,7300.0
PXS,2012-09-04,7400.0
PXS,2012-09-05,7300.0
PXS,2012-09-06,7300.0
PXS,2012-09-07,7400.0
PXS,2012-09-10,7100.0
PXS,2012-09-11,7200.0
PXS,2012-09-12,7300.0
PXS,2012-09-13,7300.0
PXS,2012-09-14,7300.0
PXS,2012-09-17,7300.0
PXS,2012-09-18,7000.0
PXS,2012-09-19,7100.0
PXS,2012-09-20,7000.0
PXS,2012-09-21,7100.0
PXS,2012-09-24,7000.0
PXS,2012-09-25,7000.0
PXS,2012-09-26,7000.0
PXS,2012-09-27,7000.0
PXS,2012-09-28,6900.0
PXS,2012-10-01,6800.0
PXS,2012-10-02,6800.0
PXS,2012-10-03,6900.0
PXS,2012-10-04,6900.0
PXS,2012-10-05,7100.0
PXS,2012-10-08,7300.0
PXS,2012-10-09,7200.0
PXS,2012-10-10,7200.0
PXS,2012-10-11,7100.0
PXS,2012-10-12,7100.0
PXS,2012-10-15,7000.0
PXS,2012-10-16,7200.0
PXS,2012-10-17,7200.0
PXS,2012-10-18,7000.0
PXS,2012-10-19,7000.0
PXS,2012-10-22,6900.0
PXS,2012-10-23,7000.0
PXS,2012-10-24,6700.0
PXS,2012-10-25,6400.0
PXS,2012-10-26,6200.0
PXS,2012-10-29,6200.0
PXS,2012-10-30,6200.0
PXS,2012-10-31,6200.0
PXS,2012-11-01,6300.0
PXS,2012-11-02,6100.0
PXS,2012-11-05,6200.0
PXS,2012-11-06,6200.0
PXS,2012-11-07,6300.0
PXS,2012-11-08,6200.0
PXS,2012-11-09,6200.0
PXS,2012-11-12,6300.0
PXS,2012-11-13,6300.0
PXS,2012-11-14,6300.0
PXS,2012-11-15,6600.0
PXS,2012-11-16,6600.0
PXS,2012-11-19,6600.0
PXS,2012-11-20,6600.0
PXS,2012-11-21,6500.0
PXS,2012-11-22,6500.0
PXS,2012-11-23,6600.0
PXS,2012-11-26,6400.0
PXS,2012-11-27,6300.0
PXS,2012-11-28,6200.0
PXS,2012-11-29,6200.0
PXS,2012-11-30,6000.0
PXS,2012-12-03,5800.0
PXS,2012-12-04,6000.0
PXS,2012-12-05,6200.0
PXS,2012-12-06,6100.0
PXS,2012-12-07,6200.0
PXS,2012-12-10,6400.0
PXS,2012-12-11,6300.0
PXS,2012-12-12,6400.0
PXS,2012-12-13,6300.0
PXS,2012-12-14,6300.0
PXS,2012-12-17,6300.0
PXS,2012-12-18,6200.0
PXS,2012-12-19,6400.0
PXS,2012-12-20,6300.0
PXS,2012-12-21,6300.0
PXS,2012-12-24,6600.0
PXS,2012-12-25,6600.0
PXS,2012-12-26,6700.0
PXS,2012-12-27,6800.0
PXS,2012-12-28,6800.0
PXS,2013-01-02,7100.0
PXS,2013-01-03,6900.0
PXS,2013-01-04,7100.0
PXS,2013-01-07,7500.0
PXS,2013-01-08,7300.0
PXS,2013-01-09,7000.0
PXS,2013-01-10,7100.0
PXS,2013-01-11,7000.0
PXS,2013-01-14,7000.0
PXS,2013-01-15,7300.0
PXS,2013-01-16,7300.0
PXS,2013-01-17,7300.0
PXS,2013-01-18,7100.0
PXS,2013-01-21,7000.0
PXS,2013-01-22,6700.0
PXS,2013-01-23,6800.0
PXS,2013-01-24,6800.0
PXS,2013-01-25,6800.0
PXS,2013-01-28,6800.0
PXS,2013-01-29,6800.0
PXS,2013-01-30,6800.0
PXS,2013-01-31,6900.0
PXS,2013-02-01,6800.0
PXS,2013-02-04,6800.0
PXS,2013-02-05,6800.0
PXS,2013-02-06,7300.0
PXS,2013-02-07,7700.0
PXS,2013-02-08,8300.0
PXS,2013-02-18,8800.0
PXS,2013-02-19,9300.0
PXS,2013-02-20,9400.0
PXS,2013-02-21,8800.0
PXS,2013-02-22,8300.0
PXS,2013-02-25,8800.0
PXS,2013-02-26,8700.0
PXS,2013-02-27,8900.0
PXS,2013-02-28,8900.0
PXS,2013-03-01,8800.0
PXS,2013-03-04,8300.0
PXS,2013-03-05,7700.0
PXS,2013-03-06,8100.0
PXS,2013-03-07,7900.0
PXS,2013-03-08,8000.0
PXS,2013-03-11,8400.0
PXS,2013-03-12,8300.0
PXS,2013-03-13,7900.0
PXS,2013-03-14,8000.0
PXS,2013-03-15,8000.0
PXS,2013-03-18,8000.0
PXS,2013-03-19,8000.0
PXS,2013-03-20,8000.0
PXS,2013-03-21,8000.0
PXS,2013-03-22,7900.0
PXS,2013-03-25,7900.0
PXS,2013-03-26,7800.0
PXS,2013-03-27,7800.0
PXS,2013-03-28,7700.0
PXS,2013-03-29,7700.0
PXS,2013-04-01,7900.0
PXS,2013-04-02,7800.0
PXS,2013-04-03,8400.0
PXS,2013-04-04,8500.0
PXS,2013-04-05,8400.0
PXS,2013-04-08,8400.0
PXS,2013-04-09,8400.0
PXS,2013-04-10,8000.0
PXS,2013-04-11,8200.0
PXS,2013-04-12,8300.0
PXS,2013-04-15,7900.0
PXS,2013-04-16,8000.0
PXS,2013-04-17,7900.0
PXS,2013-04-18,7900.0
PXS,2013-04-22,7700.0
PXS,2013-04-23,7800.0
PXS,2013-04-24,7700.0
PXS,2013-04-25,7700.0
PXS,2013-04-26,7700.0
PXS,2013-05-02,7900.0
PXS,2013-05-03,8000.0
PXS,2013-05-06,8300.0
PXS,2013-05-07,8300.0
PXS,2013-05-08,8300.0
PXS,2013-05-09,8300.0
PXS,2013-05-10,8200.0
PXS,2013-05-13,8300.0
PXS,2013-05-14,8100.0
PXS,2013-05-15,8200.0
PXS,2013-05-16,8300.0
PXS,2013-05-17,8300.0
PXS,2013-05-20,8500.0
PXS,2013-05-21,8500.0
PXS,2013-05-22,8600.0
PXS,2013-05-23,8500.0
PXS,2013-05-24,8600.0
PXS,2013-05-27,8600.0
PXS,2013-05-28,8600.0
PXS,2013-05-29,9200.0
PXS,2013-05-30,9800.0
PXS,2013-05-31,10400.0
PXS,2013-06-03,10800.0
PXS,2013-06-04,10400.0
PXS,2013-06-05,10900.0
PXS,2013-06-06,10600.0
PXS,2013-06-07,10400.0
PXS,2013-06-10,10300.0
PXS,2013-06-11,10100.0
PXS,2013-06-12,10700.0
PXS,2013-06-13,10700.0
PXS,2013-06-14,10800.0
PXS,2013-06-17,10200.0
PXS,2013-06-18,10200.0
PXS,2013-06-19,10100.0
PXS,2013-06-20,10100.0
PXS,2013-06-21,10300.0
PXS,2013-06-24,9900.0
PXS,2013-06-25,9500.0
PXS,2013-06-26,9500.0
PXS,2013-06-27,9900.0
PXS,2013-06-28,9800.0
PXS,2013-07-01,9700.0
PXS,2013-07-02,10000.0
PXS,2013-07-03,9800.0
PXS,2013-07-04,9600.0
PXS,2013-07-05,9700.0
PXS,2013-07-08,9700.0
PXS,2013-07-09,9500.0
PXS,2013-07-10,9500.0
PXS,2013-07-11,9500.0
PXS,2013-07-12,9700.0
PXS,2013-07-15,9800.0
PXS,2013-07-16,9800.0
PXS,2013-07-17,9800.0
PXS,2013-07-18,9800.0
PXS,2013-07-19,9700.0
PXS,2013-07-22,9400.0
PXS,2013-07-23,9500.0
PXS,2013-07-24,9300.0
PXS,2013-07-25,8900.0
PXS,2013-07-26,8900.0
PXS,2013-07-29,8700.0
PXS,2013-07-30,9000.0
PXS,2013-07-31,9000.0
PXS,2013-08-01,8900.0
PXS,2013-08-02,9200.0
PXS,2013-08-05,9000.0
PXS,2013-08-06,9600.0
PXS,2013-08-07,9600.0
PXS,2013-08-08,9400.0
PXS,2013-08-09,9400.0
PXS,2013-08-12,9400.0
PXS,2013-08-13,9400.0
PXS,2013-08-14,9500.0
PXS,2013-08-15,9400.0
PXS,2013-08-16,9400.0
PXS,2013-08-19,9400.0
PXS,2013-08-20,9400.0
PXS,2013-08-21,9400.0
PXS,2013-08-22,9300.0
PXS,2013-08-23,9000.0
PXS,2013-08-26,9200.0
PXS,2013-08-27,9100.0
PXS,2013-08-28,8900.0
PXS,2013-08-29,9000.0
PXS,2013-08-30,9100.0
PXS,2013-09-03,8900.0
PXS,2013-09-04,8800.0
PXS,2013-09-05,9000.0
PXS,2013-09-06,9600.0
PXS,2013-09-09,9700.0
PXS,2013-09-10,9500.0
PXS,2013-09-11,9200.0
PXS,2013-09-12,9300.0
PXS,2013-09-13,9300.0
PXS,2013-09-16,9100.0
PXS,2013-09-17,9200.0
PXS,2013-09-18,9200.0
PXS,2013-09-19,9300.0
PXS,2013-09-20,9000.0
PXS,2013-09-23,9300.0
PXS,2013-09-24,9400.0
PXS,2013-09-25,9500.0
PXS,2013-09-26,9500.0
PXS,2013-09-27,9600.0
PXS,2013-09-30,9800.0
PXS,2013-10-01,10400.0
PXS,2013-10-02,10300.0
PXS,2013-10-03,10100.0
PXS,2013-10-04,10300.0
PXS,2013-10-07,10500.0
PXS,2013-10-08,10700.0
PXS,2013-10-09,10800.0
PXS,2013-10-10,10300.0
PXS,2013-10-11,10200.0
PXS,2013-10-14,10300.0
PXS,2013-10-15,10300.0
PXS,2013-10-16,10500.0
PXS,2013-10-17,10700.0
PXS,2013-10-18,10600.0
PXS,2013-10-21,10900.0
PXS,2013-10-22,11100.0
PXS,2013-10-23,11100.0
PXS,2013-10-24,10800.0
PXS,2013-10-25,10600.0
PXS,2013-10-28,10500.0
PXS,2013-10-29,10200.0
PXS,2013-10-30,10600.0
PXS,2013-10-31,10600.0
PXS,2013-11-01,10600.0
PXS,2013-11-04,10600.0
PXS,2013-11-05,10900.0
PXS,2013-11-06,11600.0
PXS,2013-11-07,11800.0
PXS,2013-11-08,11700.0
PXS,2013-11-11,12500.0
PXS,2013-11-12,12800.0
PXS,2013-11-13,12500.0
PXS,2013-11-14,12800.0
PXS,2013-11-15,12800.0
PXS,2013-11-18,13300.0
PXS,2013-11-19,13700.0
PXS,2013-11-20,13700.0
PXS,2013-11-21,13000.0
PXS,2013-11-22,13000.0
PXS,2013-11-25,12700.0
PXS,2013-11-26,13100.0
PXS,2013-11-27,13100.0
PXS,2013-11-28,13100.0
PXS,2013-11-29,12900.0
PXS,2013-12-02,12800.0
PXS,2013-12-03,13400.0
PXS,2013-12-04,13700.0
PXS,2013-12-05,13600.0
PXS,2013-12-06,14000.0
PXS,2013-12-09,13900.0
PXS,2013-12-10,13800.0
PXS,2013-12-11,13400.0
PXS,2013-12-12,13500.0
PXS,2013-12-13,14200.0
PXS,2013-12-16,14200.0
PXS,2013-12-17,14500.0
PXS,2013-12-18,14900.0
PXS,2013-12-19,15000.0
PXS,2013-12-20,15000.0
PXS,2013-12-23,15200.0
PXS,2013-12-24,15000.0
PXS,2013-12-25,15100.0
PXS,2013-12-26,15000.0
PXS,2013-12-27,14800.0
PXS,2013-12-30,14200.0
PXS,2013-12-31,14700.0
PXS,2014-01-02,14700.0
PXS,2014-01-03,15100.0
PXS,2014-01-06,16100.0
PXS,2014-01-07,16300.0
PXS,2014-01-08,16500.0
PXS,2014-01-09,17000.0
PXS,2014-01-10,16900.0
PXS,2014-01-13,16900.0
PXS,2014-01-14,16900.0
PXS,2014-01-15,17300.0
PXS,2014-01-16,17400.0
PXS,2014-01-17,16400.0
PXS,2014-01-20,16100.0
PXS,2014-01-21,16900.0
PXS,2014-01-22,16900.0
PXS,2014-01-23,18000.0
PXS,2014-01-24,18200.0
PXS,2014-01-27,18100.0
PXS,2014-02-06,18200.0
PXS,2014-02-07,17700.0
PXS,2014-02-10,18100.0
PXS,2014-02-11,17800.0
PXS,2014-02-12,18100.0
PXS,2014-02-13,18000.0
PXS,2014-02-14,18400.0
PXS,2014-02-17,18800.0
PXS,2014-02-18,19200.0
PXS,2014-02-19,19200.0
PXS,2014-02-20,18000.0
PXS,2014-02-21,18200.0
PXS,2014-02-24,18400.0
PXS,2014-02-25,19600.0
PXS,2014-02-26,20900.0
PXS,2014-02-27,21000.0
PXS,2014-02-28,22000.0
PXS,2014-03-03,21100.0
PXS,2014-03-04,22000.0
PXS,2014-03-05,23500.0
PXS,2014-03-06,23500.0
PXS,2014-03-07,23500.0
PXS,2014-03-10,23900.0
PXS,2014-03-11,24500.0
PXS,2014-03-12,24200.0
PXS,2014-03-13,24300.0
PXS,2014-03-14,23600.0
PXS,2014-03-17,24000.0
PXS,2014-03-18,23700.0
PXS,2014-03-19,24300.0
PXS,2014-03-20,23800.0
PXS,2014-03-21,24600.0
PXS,2014-03-24,25300.0
PXS,2014-03-25,24500.0
PXS,2014-03-26,23800.0
PXS,2014-03-27,23800.0
PXS,2014-03-28,23300.0
PXS,2014-03-31,22800.0
PXS,2014-04-01,22600.0
PXS,2014-04-02,22400.0
PXS,2014-04-03,22600.0
PXS,2014-04-04,22300.0
PXS,2014-04-07,22800.0
PXS,2014-04-08,22800.0
PXS,2014-04-10,22200.0
PXS,2014-04-11,22700.0
PXS,2014-04-14,22500.0
PXS,2014-04-15,21700.0
PXS,2014-04-16,21500.0
PXS,2014-04-17,21500.0
PXS,2014-04-18,20100.0
PXS,2014-04-21,19400.0
PXS,2014-04-22,20500.0
PXS,2014-04-23,20000.0
PXS,2014-04-24,20400.0
PXS,2014-04-25,20800.0
PXS,2014-04-28,20500.0
PXS,2014-04-29,20600.0
PXS,2014-05-05,19500.0
PXS,2014-05-06,18800.0
PXS,2014-05-07,18500.0
PXS,2014-05-08,17300.0
PXS,2014-05-09,16900.0
PXS,2014-05-12,15800.0
PXS,2014-05-13,14700.0
PXS,2014-05-14,15700.0
PXS,2014-05-15,16000.0
PXS,2014-05-16,16400.0
PXS,2014-05-19,16600.0
PXS,2014-05-20,17400.0
PXS,2014-05-21,18200.0
