TLG,2010-03-26,21100.0
TLG,2010-03-29,20500.0
TLG,2010-03-30,21500.0
TLG,2010-03-31,22400.0
TLG,2010-04-01,22300.0
TLG,2010-04-02,22400.0
TLG,2010-04-05,22400.0
TLG,2010-04-06,22000.0
TLG,2010-04-07,21900.0
TLG,2010-04-08,21100.0
TLG,2010-04-09,21100.0
TLG,2010-04-12,21100.0
TLG,2010-04-13,21400.0
TLG,2010-04-14,21100.0
TLG,2010-04-15,21100.0
TLG,2010-04-16,21700.0
TLG,2010-04-19,21700.0
TLG,2010-04-20,20800.0
TLG,2010-04-21,21700.0
TLG,2010-04-22,21700.0
TLG,2010-04-26,21700.0
TLG,2010-04-27,20800.0
TLG,2010-04-28,21400.0
TLG,2010-04-29,21100.0
TLG,2010-05-04,21100.0
TLG,2010-05-05,20300.0
TLG,2010-05-06,20500.0
TLG,2010-05-07,21000.0
TLG,2010-05-10,20000.0
TLG,2010-05-11,20100.0
TLG,2010-05-12,20400.0
TLG,2010-05-13,19900.0
TLG,2010-05-14,18900.0
TLG,2010-05-17,18000.0
TLG,2010-05-18,17500.0
TLG,2010-05-19,16700.0
TLG,2010-05-20,17300.0
TLG,2010-05-21,17300.0
TLG,2010-05-24,17300.0
TLG,2010-05-25,17200.0
TLG,2010-05-26,18000.0
TLG,2010-05-27,18100.0
TLG,2010-05-28,18900.0
TLG,2010-05-31,18100.0
TLG,2010-06-01,18900.0
TLG,2010-06-02,19800.0
TLG,2010-06-03,19300.0
TLG,2010-06-04,19800.0
TLG,2010-06-07,20300.0
TLG,2010-06-08,20300.0
TLG,2010-06-09,21000.0
TLG,2010-06-10,21300.0
TLG,2010-06-11,22300.0
TLG,2010-06-14,23200.0
TLG,2010-06-15,23100.0
TLG,2010-06-16,23100.0
TLG,2010-06-17,22800.0
TLG,2010-06-18,22600.0
TLG,2010-06-21,22300.0
TLG,2010-06-22,22300.0
TLG,2010-06-23,22300.0
TLG,2010-06-24,22300.0
TLG,2010-06-25,22600.0
TLG,2010-06-28,23200.0
TLG,2010-06-29,24100.0
TLG,2010-06-30,22900.0
TLG,2010-07-01,21800.0
TLG,2010-07-02,22300.0
TLG,2010-07-05,22200.0
TLG,2010-07-06,22300.0
TLG,2010-07-07,22300.0
TLG,2010-07-08,22300.0
TLG,2010-07-09,21600.0
TLG,2010-07-12,21600.0
TLG,2010-07-13,21600.0
TLG,2010-07-14,21600.0
TLG,2010-07-15,21600.0
TLG,2010-07-16,21500.0
TLG,2010-07-19,21500.0
TLG,2010-07-20,21500.0
TLG,2010-07-21,20900.0
TLG,2010-07-22,21300.0
TLG,2010-07-23,21300.0
TLG,2010-07-26,21600.0
TLG,2010-07-27,21600.0
TLG,2010-07-28,21600.0
TLG,2010-07-29,21000.0
TLG,2010-07-30,21600.0
TLG,2010-08-02,21600.0
TLG,2010-08-03,21000.0
TLG,2010-08-04,20000.0
TLG,2010-08-05,21000.0
TLG,2010-08-06,20900.0
TLG,2010-08-09,19900.0
TLG,2010-08-10,19900.0
TLG,2010-08-11,20100.0
TLG,2010-08-12,19200.0
TLG,2010-08-13,19200.0
TLG,2010-08-16,19100.0
TLG,2010-08-17,18200.0
TLG,2010-08-18,18200.0
TLG,2010-08-19,18200.0
TLG,2010-08-20,18200.0
TLG,2010-08-23,18200.0
TLG,2010-08-24,17600.0
TLG,2010-08-25,17600.0
TLG,2010-08-26,17700.0
TLG,2010-08-27,17700.0
TLG,2010-08-30,18200.0
TLG,2010-08-31,18500.0
TLG,2010-09-01,18200.0
TLG,2010-09-06,18500.0
TLG,2010-09-07,18900.0
TLG,2010-09-08,18400.0
TLG,2010-09-09,18500.0
TLG,2010-09-10,18300.0
TLG,2010-09-13,18100.0
TLG,2010-09-14,17900.0
TLG,2010-09-15,17900.0
TLG,2010-09-16,17900.0
TLG,2010-09-17,18500.0
TLG,2010-09-20,19500.0
TLG,2010-09-21,19800.0
TLG,2010-09-22,20700.0
TLG,2010-09-23,20600.0
TLG,2010-09-24,20600.0
TLG,2010-09-27,20300.0
TLG,2010-09-28,20400.0
TLG,2010-09-29,20400.0
TLG,2010-09-30,21300.0
TLG,2010-10-01,20400.0
TLG,2010-10-04,19800.0
TLG,2010-10-05,19200.0
TLG,2010-10-06,18200.0
TLG,2010-10-07,18200.0
TLG,2010-10-08,19000.0
TLG,2010-10-11,19000.0
TLG,2010-10-12,19000.0
TLG,2010-10-13,19700.0
TLG,2010-10-14,20300.0
TLG,2010-10-15,19400.0
TLG,2010-10-18,19100.0
TLG,2010-10-19,18500.0
TLG,2010-10-20,18500.0
TLG,2010-10-21,18500.0
TLG,2010-10-22,18500.0
TLG,2010-10-25,18500.0
TLG,2010-10-26,18300.0
TLG,2010-10-27,18300.0
TLG,2010-10-28,18200.0
TLG,2010-10-29,17400.0
TLG,2010-11-01,18200.0
TLG,2010-11-02,18100.0
TLG,2010-11-03,18100.0
TLG,2010-11-04,17900.0
TLG,2010-11-05,17900.0
TLG,2010-11-08,17900.0
TLG,2010-11-09,17800.0
TLG,2010-11-10,17800.0
TLG,2010-11-11,18400.0
TLG,2010-11-12,18400.0
TLG,2010-11-15,17900.0
TLG,2010-11-16,17800.0
TLG,2010-11-17,18200.0
TLG,2010-11-18,18100.0
TLG,2010-11-19,18600.0
TLG,2010-11-22,18600.0
TLG,2010-11-23,18600.0
TLG,2010-11-24,18400.0
TLG,2010-11-25,18300.0
TLG,2010-11-26,18300.0
TLG,2010-11-29,17400.0
TLG,2010-11-30,17400.0
TLG,2010-12-01,17600.0
TLG,2010-12-02,17900.0
TLG,2010-12-03,17900.0
TLG,2010-12-06,17300.0
TLG,2010-12-07,17800.0
TLG,2010-12-08,17800.0
TLG,2010-12-09,17800.0
TLG,2010-12-10,18100.0
TLG,2010-12-13,17900.0
TLG,2010-12-14,17300.0
TLG,2010-12-15,17300.0
TLG,2010-12-16,17200.0
TLG,2010-12-17,17300.0
TLG,2010-12-20,17200.0
TLG,2010-12-21,17200.0
TLG,2010-12-22,17500.0
TLG,2010-12-23,17400.0
TLG,2010-12-24,17200.0
TLG,2010-12-27,17200.0
TLG,2010-12-28,17800.0
TLG,2010-12-29,18600.0
TLG,2010-12-30,19200.0
TLG,2010-12-31,20000.0
TLG,2011-01-04,19800.0
TLG,2011-01-05,18800.0
TLG,2011-01-06,19200.0
TLG,2011-01-07,19600.0
TLG,2011-01-10,19700.0
TLG,2011-01-11,19500.0
TLG,2011-01-12,19200.0
TLG,2011-01-13,19200.0
TLG,2011-01-14,18300.0
TLG,2011-01-17,17700.0
TLG,2011-01-18,18300.0
TLG,2011-01-19,18300.0
TLG,2011-01-20,17400.0
TLG,2011-01-21,17000.0
TLG,2011-01-24,16700.0
TLG,2011-01-25,16700.0
TLG,2011-01-26,17400.0
TLG,2011-01-27,16900.0
TLG,2011-01-28,17500.0
TLG,2011-02-08,17400.0
TLG,2011-02-09,17400.0
TLG,2011-02-10,17400.0
TLG,2011-02-11,17400.0
TLG,2011-02-14,17400.0
TLG,2011-02-15,17400.0
TLG,2011-02-16,17400.0
TLG,2011-02-17,17200.0
TLG,2011-02-18,17200.0
TLG,2011-02-21,17200.0
TLG,2011-02-22,16600.0
TLG,2011-02-23,16800.0
TLG,2011-02-24,16600.0
TLG,2011-02-25,16600.0
TLG,2011-02-28,16500.0
TLG,2011-03-01,16100.0
TLG,2011-03-02,15300.0
TLG,2011-03-03,14600.0
TLG,2011-03-04,15200.0
TLG,2011-03-07,15900.0
TLG,2011-03-08,16600.0
TLG,2011-03-09,16000.0
TLG,2011-03-10,16700.0
TLG,2011-03-11,17300.0
TLG,2011-03-14,16600.0
TLG,2011-03-15,17200.0
TLG,2011-03-16,16400.0
TLG,2011-03-17,15700.0
TLG,2011-03-18,15900.0
TLG,2011-03-21,16200.0
TLG,2011-03-22,16200.0
TLG,2011-03-23,15500.0
TLG,2011-03-24,15300.0
TLG,2011-03-25,14900.0
TLG,2011-03-28,15600.0
TLG,2011-03-29,15600.0
TLG,2011-03-30,15200.0
TLG,2011-03-31,15200.0
TLG,2011-04-01,14900.0
TLG,2011-04-04,14900.0
TLG,2011-04-05,15200.0
TLG,2011-04-06,15200.0
TLG,2011-04-07,15200.0
TLG,2011-04-08,15200.0
TLG,2011-04-13,15200.0
TLG,2011-04-14,15200.0
TLG,2011-04-15,14700.0
TLG,2011-04-18,14900.0
TLG,2011-04-19,15100.0
TLG,2011-04-20,15100.0
TLG,2011-04-21,15200.0
TLG,2011-04-22,14500.0
TLG,2011-04-25,14600.0
TLG,2011-04-26,13900.0
TLG,2011-04-27,13900.0
TLG,2011-04-28,14500.0
TLG,2011-04-29,14900.0
TLG,2011-05-04,15600.0
TLG,2011-05-05,16400.0
TLG,2011-05-06,17200.0
TLG,2011-05-09,18000.0
TLG,2011-05-10,17100.0
TLG,2011-05-11,17900.0
TLG,2011-05-12,18700.0
TLG,2011-05-13,18700.0
TLG,2011-05-16,18700.0
TLG,2011-05-17,17800.0
TLG,2011-05-18,16900.0
TLG,2011-05-19,17500.0
TLG,2011-05-20,16600.0
TLG,2011-05-23,16600.0
TLG,2011-05-24,16600.0
TLG,2011-05-25,15800.0
TLG,2011-05-26,16600.0
TLG,2011-05-27,16600.0
TLG,2011-05-30,16700.0
TLG,2011-05-31,15900.0
TLG,2011-06-01,15200.0
TLG,2011-06-02,16000.0
TLG,2011-06-03,16800.0
TLG,2011-06-06,17400.0
TLG,2011-06-07,16500.0
TLG,2011-06-08,16600.0
TLG,2011-06-09,16800.0
TLG,2011-06-10,16800.0
TLG,2011-06-13,16000.0
TLG,2011-06-14,15900.0
TLG,2011-06-15,16400.0
TLG,2011-06-16,16400.0
TLG,2011-06-17,15900.0
TLG,2011-06-20,15100.0
TLG,2011-06-21,14400.0
TLG,2011-06-22,14600.0
TLG,2011-06-23,14700.0
TLG,2011-06-24,14000.0
TLG,2011-06-27,14500.0
TLG,2011-06-28,14300.0
TLG,2011-06-29,13700.0
TLG,2011-06-30,14300.0
TLG,2011-07-01,14300.0
TLG,2011-07-04,14300.0
TLG,2011-07-05,14900.0
TLG,2011-07-06,14900.0
TLG,2011-07-07,14900.0
TLG,2011-07-08,15600.0
TLG,2011-07-11,15500.0
TLG,2011-07-12,14800.0
TLG,2011-07-13,14700.0
TLG,2011-07-14,14600.0
TLG,2011-07-15,14500.0
TLG,2011-07-18,14300.0
TLG,2011-07-19,13900.0
TLG,2011-07-20,13300.0
TLG,2011-07-21,13500.0
TLG,2011-07-22,13100.0
TLG,2011-07-25,13300.0
TLG,2011-07-26,13300.0
TLG,2011-07-27,13000.0
TLG,2011-07-28,12600.0
TLG,2011-07-29,12600.0
TLG,2011-08-01,13200.0
TLG,2011-08-02,13800.0
TLG,2011-08-03,14500.0
TLG,2011-08-04,15100.0
TLG,2011-08-05,15100.0
TLG,2011-08-08,14400.0
TLG,2011-08-09,14400.0
TLG,2011-08-10,13700.0
TLG,2011-08-11,13100.0
TLG,2011-08-12,13200.0
TLG,2011-08-15,12600.0
TLG,2011-08-16,13200.0
TLG,2011-08-17,12900.0
TLG,2011-08-18,12900.0
TLG,2011-08-19,12800.0
TLG,2011-08-22,12800.0
TLG,2011-08-23,12800.0
TLG,2011-08-24,12800.0
TLG,2011-08-25,13300.0
TLG,2011-08-26,13300.0
TLG,2011-08-29,13200.0
TLG,2011-08-30,13200.0
TLG,2011-08-31,13500.0
TLG,2011-09-01,13500.0
TLG,2011-09-05,13400.0
TLG,2011-09-06,13400.0
TLG,2011-09-07,13000.0
TLG,2011-09-08,13000.0
TLG,2011-09-09,13200.0
TLG,2011-09-12,12700.0
TLG,2011-09-13,13300.0
TLG,2011-09-14,13900.0
TLG,2011-09-15,13900.0
TLG,2011-09-16,13200.0
TLG,2011-09-19,13100.0
TLG,2011-09-20,12500.0
TLG,2011-09-21,11900.0
TLG,2011-09-22,12100.0
TLG,2011-09-23,12600.0
TLG,2011-09-26,12500.0
TLG,2011-09-27,12400.0
TLG,2011-09-28,12200.0
TLG,2011-09-29,12100.0
TLG,2011-09-30,12100.0
TLG,2011-10-03,11500.0
TLG,2011-10-04,11800.0
TLG,2011-10-05,11700.0
TLG,2011-10-06,11800.0
TLG,2011-10-07,11700.0
TLG,2011-10-10,11700.0
TLG,2011-10-11,11600.0
TLG,2011-10-12,11500.0
TLG,2011-10-13,11600.0
TLG,2011-10-14,11700.0
TLG,2011-10-17,11700.0
TLG,2011-10-18,11700.0
TLG,2011-10-19,11500.0
TLG,2011-10-20,11400.0
TLG,2011-10-21,11500.0
TLG,2011-10-24,11500.0
TLG,2011-10-25,11900.0
TLG,2011-10-26,11900.0
TLG,2011-10-27,11900.0
TLG,2011-10-28,11900.0
TLG,2011-10-31,11900.0
TLG,2011-11-01,11300.0
TLG,2011-11-02,10800.0
TLG,2011-11-03,10300.0
TLG,2011-11-04,9800.0
TLG,2011-11-07,9300.0
TLG,2011-11-08,9700.0
TLG,2011-11-09,10200.0
TLG,2011-11-10,9700.0
TLG,2011-11-11,10200.0
TLG,2011-11-14,10600.0
TLG,2011-11-15,10800.0
TLG,2011-11-16,10400.0
TLG,2011-11-17,10600.0
TLG,2011-11-18,10100.0
TLG,2011-11-21,10100.0
TLG,2011-11-22,10400.0
TLG,2011-11-23,10400.0
TLG,2011-11-24,10400.0
TLG,2011-11-25,10400.0
TLG,2011-11-28,10400.0
TLG,2011-11-29,9900.0
TLG,2011-11-30,9500.0
TLG,2011-12-01,9000.0
TLG,2011-12-02,8600.0
TLG,2011-12-05,9000.0
TLG,2011-12-06,9500.0
TLG,2011-12-07,9800.0
TLG,2011-12-08,10100.0
TLG,2011-12-09,10100.0
TLG,2011-12-12,10100.0
TLG,2011-12-13,10100.0
TLG,2011-12-14,10100.0
TLG,2011-12-15,10100.0
TLG,2011-12-16,9700.0
TLG,2011-12-19,9700.0
TLG,2011-12-20,9700.0
TLG,2011-12-21,9800.0
TLG,2011-12-22,9800.0
TLG,2011-12-23,10100.0
TLG,2011-12-26,10500.0
TLG,2011-12-27,10400.0
TLG,2011-12-28,10600.0
TLG,2011-12-29,10400.0
TLG,2011-12-30,10100.0
TLG,2012-01-03,9700.0
TLG,2012-01-04,10100.0
TLG,2012-01-05,10400.0
TLG,2012-01-06,10400.0
TLG,2012-01-09,10800.0
TLG,2012-01-10,11100.0
TLG,2012-01-11,10600.0
TLG,2012-01-12,11100.0
TLG,2012-01-13,11100.0
TLG,2012-01-16,11000.0
TLG,2012-01-17,11500.0
TLG,2012-01-18,11800.0
TLG,2012-01-19,12200.0
TLG,2012-01-20,12400.0
TLG,2012-01-30,12400.0
TLG,2012-01-31,12200.0
TLG,2012-02-01,12100.0
TLG,2012-02-02,11700.0
TLG,2012-02-03,12200.0
TLG,2012-02-06,12200.0
TLG,2012-02-07,12200.0
TLG,2012-02-08,12200.0
TLG,2012-02-09,11800.0
TLG,2012-02-10,11300.0
TLG,2012-02-13,11900.0
TLG,2012-02-14,11500.0
TLG,2012-02-15,11500.0
TLG,2012-02-16,11100.0
TLG,2012-02-17,11700.0
TLG,2012-02-20,11700.0
TLG,2012-02-21,11300.0
TLG,2012-02-22,11500.0
TLG,2012-02-23,11900.0
TLG,2012-02-24,11900.0
TLG,2012-02-27,12200.0
TLG,2012-02-28,11700.0
TLG,2012-02-29,11200.0
TLG,2012-03-01,10600.0
TLG,2012-03-02,11100.0
TLG,2012-03-05,11700.0
TLG,2012-03-06,11900.0
TLG,2012-03-07,11900.0
TLG,2012-03-08,11900.0
TLG,2012-03-09,11400.0
TLG,2012-03-12,11900.0
TLG,2012-03-13,11500.0
TLG,2012-03-14,11100.0
TLG,2012-03-15,11700.0
TLG,2012-03-16,11900.0
TLG,2012-03-19,11500.0
TLG,2012-03-20,11900.0
TLG,2012-03-21,12000.0
TLG,2012-03-22,11500.0
TLG,2012-03-23,11500.0
TLG,2012-03-26,11700.0
TLG,2012-03-27,11700.0
TLG,2012-03-28,11500.0
TLG,2012-03-29,11700.0
TLG,2012-03-30,11500.0
TLG,2012-04-03,11700.0
TLG,2012-04-04,11700.0
TLG,2012-04-05,11700.0
TLG,2012-04-06,11900.0
TLG,2012-04-09,12200.0
TLG,2012-04-10,12200.0
TLG,2012-04-11,11700.0
TLG,2012-04-12,12000.0
TLG,2012-04-13,11800.0
TLG,2012-04-16,11800.0
TLG,2012-04-17,12000.0
TLG,2012-04-18,12000.0
TLG,2012-04-19,12000.0
TLG,2012-04-20,12100.0
TLG,2012-04-23,11800.0
TLG,2012-04-24,11700.0
TLG,2012-04-25,11800.0
TLG,2012-04-26,11900.0
TLG,2012-04-27,12000.0
TLG,2012-05-02,12000.0
TLG,2012-05-03,11800.0
TLG,2012-05-04,12200.0
TLG,2012-05-07,12500.0
TLG,2012-05-08,12600.0
TLG,2012-05-09,12700.0
TLG,2012-05-10,13200.0
TLG,2012-05-11,12600.0
TLG,2012-05-14,12500.0
TLG,2012-05-15,12500.0
TLG,2012-05-16,11900.0
TLG,2012-05-17,12400.0
TLG,2012-05-18,12400.0
TLG,2012-05-21,12900.0
TLG,2012-05-22,13600.0
TLG,2012-05-23,13900.0
TLG,2012-05-24,13600.0
TLG,2012-05-25,14200.0
TLG,2012-05-28,14900.0
TLG,2012-05-29,15400.0
TLG,2012-05-30,14700.0
TLG,2012-05-31,14200.0
TLG,2012-06-01,14000.0
TLG,2012-06-04,13300.0
TLG,2012-06-05,14000.0
TLG,2012-06-06,14700.0
TLG,2012-06-07,14900.0
TLG,2012-06-08,14900.0
TLG,2012-06-11,14900.0
TLG,2012-06-12,14200.0
TLG,2012-06-13,13500.0
TLG,2012-06-14,14000.0
TLG,2012-06-15,14100.0
TLG,2012-06-18,13900.0
TLG,2012-06-19,14400.0
TLG,2012-06-20,14100.0
TLG,2012-06-21,13600.0
TLG,2012-06-22,14200.0
TLG,2012-06-25,14200.0
TLG,2012-06-26,13900.0
TLG,2012-06-27,13900.0
TLG,2012-06-28,13600.0
TLG,2012-06-29,13800.0
TLG,2012-07-02,13800.0
TLG,2012-07-03,13800.0
TLG,2012-07-04,13800.0
TLG,2012-07-05,13200.0
TLG,2012-07-06,13500.0
TLG,2012-07-09,13500.0
TLG,2012-07-10,13500.0
TLG,2012-07-11,13500.0
TLG,2012-07-12,13500.0
TLG,2012-07-13,13500.0
TLG,2012-07-16,13200.0
TLG,2012-07-17,13800.0
TLG,2012-07-18,14300.0
TLG,2012-07-19,14500.0
TLG,2012-07-20,13900.0
TLG,2012-07-23,14100.0
TLG,2012-07-24,14700.0
TLG,2012-07-25,14400.0
TLG,2012-07-26,13800.0
TLG,2012-07-27,14300.0
TLG,2012-07-30,14600.0
TLG,2012-07-31,14900.0
TLG,2012-08-01,14200.0
TLG,2012-08-02,14300.0
TLG,2012-08-03,14200.0
TLG,2012-08-06,13800.0
TLG,2012-08-07,13800.0
TLG,2012-08-08,13700.0
TLG,2012-08-09,13700.0
TLG,2012-08-10,14100.0
TLG,2012-08-13,13800.0
TLG,2012-08-14,13800.0
TLG,2012-08-15,14300.0
TLG,2012-08-16,14300.0
TLG,2012-08-17,14900.0
TLG,2012-08-20,14500.0
TLG,2012-08-21,13800.0
TLG,2012-08-22,14000.0
TLG,2012-08-23,13300.0
TLG,2012-08-24,13200.0
TLG,2012-08-27,13900.0
TLG,2012-08-28,13200.0
TLG,2012-08-29,13900.0
TLG,2012-08-30,14100.0
TLG,2012-08-31,14100.0
TLG,2012-09-04,14000.0
TLG,2012-09-05,13700.0
TLG,2012-09-06,13900.0
TLG,2012-09-07,14300.0
TLG,2012-09-10,14700.0
TLG,2012-09-11,14600.0
TLG,2012-09-12,14500.0
TLG,2012-09-13,13900.0
TLG,2012-09-14,14300.0
TLG,2012-09-17,14600.0
TLG,2012-09-18,14600.0
TLG,2012-09-19,14500.0
TLG,2012-09-20,14000.0
TLG,2012-09-21,14200.0
TLG,2012-09-24,14200.0
TLG,2012-09-25,14500.0
TLG,2012-09-26,14400.0
TLG,2012-09-27,14400.0
TLG,2012-09-28,14300.0
TLG,2012-10-01,14600.0
TLG,2012-10-02,14500.0
TLG,2012-10-03,14400.0
TLG,2012-10-04,14400.0
TLG,2012-10-05,13800.0
TLG,2012-10-08,14400.0
TLG,2012-10-09,14400.0
TLG,2012-10-10,14300.0
TLG,2012-10-11,14300.0
TLG,2012-10-12,14700.0
TLG,2012-10-15,15300.0
TLG,2012-10-16,15700.0
TLG,2012-10-17,16000.0
TLG,2012-10-18,15300.0
TLG,2012-10-19,14600.0
TLG,2012-10-22,14600.0
TLG,2012-10-23,14600.0
TLG,2012-10-24,15100.0
TLG,2012-10-25,15000.0
TLG,2012-10-26,15700.0
TLG,2012-10-29,15000.0
TLG,2012-10-30,15100.0
TLG,2012-10-31,15100.0
TLG,2012-11-01,15300.0
TLG,2012-11-02,15200.0
TLG,2012-11-05,15200.0
TLG,2012-11-06,15400.0
TLG,2012-11-07,15400.0
TLG,2012-11-08,15800.0
TLG,2012-11-09,16200.0
TLG,2012-11-12,15500.0
TLG,2012-11-13,16200.0
TLG,2012-11-14,16800.0
TLG,2012-11-15,16400.0
TLG,2012-11-16,16600.0
TLG,2012-11-19,16700.0
TLG,2012-11-20,16700.0
TLG,2012-11-21,17500.0
TLG,2012-11-22,17500.0
TLG,2012-11-23,17900.0
TLG,2012-11-26,17900.0
TLG,2012-11-27,17100.0
TLG,2012-11-28,16400.0
TLG,2012-11-29,16800.0
TLG,2012-11-30,16900.0
TLG,2012-12-03,17100.0
TLG,2012-12-04,16300.0
TLG,2012-12-05,16900.0
TLG,2012-12-06,16800.0
TLG,2012-12-07,16700.0
TLG,2012-12-10,16700.0
TLG,2012-12-11,16700.0
TLG,2012-12-12,16900.0
TLG,2012-12-13,17100.0
TLG,2012-12-14,17100.0
TLG,2012-12-17,17600.0
TLG,2012-12-18,17600.0
TLG,2012-12-19,17600.0
TLG,2012-12-20,17500.0
TLG,2012-12-21,17700.0
TLG,2012-12-24,17400.0
TLG,2012-12-25,16900.0
TLG,2012-12-26,16900.0
TLG,2012-12-27,16200.0
TLG,2012-12-28,16200.0
TLG,2013-01-02,17000.0
TLG,2013-01-03,16800.0
TLG,2013-01-04,17300.0
TLG,2013-01-07,17200.0
TLG,2013-01-08,17100.0
TLG,2013-01-09,17600.0
TLG,2013-01-10,17500.0
TLG,2013-01-11,17600.0
TLG,2013-01-14,17200.0
TLG,2013-01-15,17600.0
TLG,2013-01-16,17700.0
TLG,2013-01-17,17700.0
TLG,2013-01-18,16900.0
TLG,2013-01-21,17600.0
TLG,2013-01-22,17600.0
TLG,2013-01-23,17100.0
TLG,2013-01-24,17500.0
TLG,2013-01-25,18500.0
TLG,2013-01-28,19700.0
TLG,2013-01-29,20900.0
TLG,2013-01-30,22200.0
TLG,2013-01-31,23700.0
TLG,2013-02-01,23400.0
TLG,2013-02-04,23400.0
TLG,2013-02-05,23400.0
TLG,2013-02-06,22800.0
TLG,2013-02-07,22200.0
TLG,2013-02-08,22000.0
TLG,2013-02-18,22000.0
TLG,2013-02-19,20600.0
TLG,2013-02-20,21800.0
TLG,2013-02-21,22000.0
TLG,2013-02-22,21900.0
TLG,2013-02-25,21900.0
TLG,2013-02-26,21700.0
TLG,2013-02-27,21800.0
TLG,2013-02-28,22800.0
TLG,2013-03-01,22000.0
TLG,2013-03-04,21100.0
TLG,2013-03-05,21900.0
TLG,2013-03-06,21100.0
TLG,2013-03-07,21100.0
TLG,2013-03-08,21800.0
TLG,2013-03-11,22000.0
TLG,2013-03-12,22400.0
TLG,2013-03-13,22000.0
TLG,2013-03-14,21800.0
TLG,2013-03-15,22400.0
TLG,2013-03-18,23700.0
TLG,2013-03-19,22600.0
TLG,2013-03-20,22800.0
TLG,2013-03-21,23600.0
TLG,2013-03-22,24900.0
TLG,2013-03-25,23500.0
TLG,2013-03-26,24200.0
TLG,2013-03-27,24100.0
TLG,2013-03-28,24200.0
TLG,2013-03-29,24200.0
TLG,2013-04-01,22500.0
TLG,2013-04-02,24000.0
TLG,2013-04-03,23300.0
TLG,2013-04-04,22500.0
TLG,2013-04-05,24000.0
TLG,2013-04-08,23800.0
TLG,2013-04-09,23800.0
TLG,2013-04-10,24000.0
TLG,2013-04-11,23800.0
TLG,2013-04-12,23900.0
TLG,2013-04-15,23900.0
TLG,2013-04-16,22400.0
TLG,2013-04-17,23900.0
TLG,2013-04-18,24500.0
TLG,2013-04-22,22900.0
TLG,2013-04-23,23000.0
TLG,2013-04-24,23000.0
TLG,2013-04-25,24500.0
TLG,2013-04-26,25000.0
TLG,2013-05-02,24300.0
TLG,2013-05-03,25900.0
TLG,2013-05-06,25900.0
TLG,2013-05-07,26400.0
TLG,2013-05-08,26300.0
TLG,2013-05-09,26400.0
TLG,2013-05-10,26000.0
TLG,2013-05-13,27200.0
TLG,2013-05-14,27000.0
TLG,2013-05-15,27000.0
TLG,2013-05-16,25200.0
TLG,2013-05-17,24900.0
TLG,2013-05-20,24200.0
TLG,2013-05-21,25800.0
TLG,2013-05-22,26700.0
TLG,2013-05-23,24900.0
TLG,2013-05-24,24000.0
TLG,2013-05-27,25300.0
TLG,2013-05-28,26700.0
TLG,2013-05-29,25100.0
TLG,2013-05-30,25100.0
TLG,2013-05-31,26300.0
TLG,2013-06-03,26300.0
TLG,2013-06-04,25900.0
TLG,2013-06-05,26300.0
TLG,2013-06-06,26300.0
TLG,2013-06-07,26300.0
TLG,2013-06-10,26300.0
TLG,2013-06-11,26300.0
TLG,2013-06-12,26700.0
TLG,2013-06-13,26300.0
TLG,2013-06-14,26300.0
TLG,2013-06-17,26300.0
TLG,2013-06-18,27700.0
TLG,2013-06-19,27100.0
TLG,2013-06-20,28400.0
TLG,2013-06-21,28200.0
TLG,2013-06-24,28100.0
TLG,2013-06-25,29000.0
TLG,2013-06-26,27100.0
TLG,2013-06-27,26300.0
TLG,2013-06-28,27300.0
TLG,2013-07-01,27300.0
TLG,2013-07-02,28500.0
TLG,2013-07-03,28100.0
TLG,2013-07-04,27100.0
TLG,2013-07-05,28500.0
TLG,2013-07-08,28500.0
TLG,2013-07-09,28000.0
TLG,2013-07-10,26800.0
TLG,2013-07-11,28500.0
TLG,2013-07-12,29100.0
TLG,2013-07-15,28100.0
TLG,2013-07-16,30000.0
TLG,2013-07-17,30500.0
TLG,2013-07-18,28500.0
TLG,2013-07-19,30000.0
TLG,2013-07-22,29100.0
TLG,2013-07-23,30000.0
TLG,2013-07-24,30000.0
TLG,2013-07-25,32100.0
TLG,2013-07-26,33200.0
TLG,2013-07-29,32700.0
TLG,2013-07-30,33600.0
TLG,2013-07-31,34100.0
TLG,2013-08-01,32700.0
TLG,2013-08-02,33200.0
TLG,2013-08-05,34500.0
TLG,2013-08-06,32700.0
TLG,2013-08-07,33600.0
TLG,2013-08-08,33600.0
TLG,2013-08-09,33600.0
TLG,2013-08-12,33200.0
TLG,2013-08-13,32700.0
TLG,2013-08-14,33400.0
TLG,2013-08-15,33600.0
TLG,2013-08-16,32300.0
TLG,2013-08-19,32300.0
TLG,2013-08-20,32300.0
TLG,2013-08-21,32700.0
TLG,2013-08-22,32700.0
TLG,2013-08-23,34300.0
TLG,2013-08-26,32700.0
TLG,2013-08-27,31800.0
TLG,2013-08-28,33600.0
TLG,2013-08-29,33600.0
TLG,2013-08-30,33200.0
TLG,2013-09-03,33200.0
TLG,2013-09-04,32700.0
TLG,2013-09-05,32700.0
TLG,2013-09-06,32300.0
TLG,2013-09-09,33600.0
TLG,2013-09-10,33600.0
TLG,2013-09-11,33200.0
TLG,2013-09-12,34100.0
TLG,2013-09-13,32900.0
TLG,2013-09-16,34100.0
TLG,2013-09-17,33500.0
TLG,2013-09-18,33600.0
TLG,2013-09-19,33400.0
TLG,2013-09-20,33400.0
TLG,2013-09-23,34100.0
TLG,2013-09-24,33800.0
TLG,2013-09-25,33600.0
TLG,2013-09-26,33800.0
TLG,2013-09-27,36100.0
TLG,2013-09-30,37000.0
TLG,2013-10-01,36800.0
TLG,2013-10-02,38000.0
TLG,2013-10-03,37000.0
TLG,2013-10-04,36500.0
TLG,2013-10-07,36500.0
TLG,2013-10-08,36000.0
TLG,2013-10-09,35000.0
TLG,2013-10-10,36400.0
TLG,2013-10-11,35900.0
TLG,2013-10-14,36300.0
TLG,2013-10-15,35500.0
TLG,2013-10-16,35900.0
TLG,2013-10-17,35000.0
TLG,2013-10-18,33600.0
TLG,2013-10-21,35000.0
TLG,2013-10-22,34700.0
TLG,2013-10-23,34400.0
TLG,2013-10-24,34900.0
TLG,2013-10-25,36000.0
TLG,2013-10-28,35700.0
TLG,2013-10-29,35500.0
TLG,2013-10-30,36000.0
TLG,2013-10-31,35000.0
TLG,2013-11-01,35000.0
TLG,2013-11-04,35500.0
TLG,2013-11-05,35000.0
TLG,2013-11-06,36500.0
TLG,2013-11-07,35900.0
TLG,2013-11-08,35300.0
TLG,2013-11-11,35000.0
TLG,2013-11-12,34900.0
TLG,2013-11-13,36700.0
TLG,2013-11-14,35500.0
TLG,2013-11-15,35400.0
TLG,2013-11-18,35200.0
TLG,2013-11-19,35300.0
TLG,2013-11-20,35200.0
TLG,2013-11-21,35300.0
TLG,2013-11-22,35200.0
TLG,2013-11-25,35200.0
TLG,2013-11-26,35100.0
TLG,2013-11-27,35100.0
TLG,2013-11-28,37400.0
TLG,2013-11-29,39000.0
TLG,2013-12-02,36300.0
TLG,2013-12-03,36000.0
TLG,2013-12-04,37000.0
TLG,2013-12-05,37000.0
TLG,2013-12-06,37000.0
TLG,2013-12-09,37000.0
TLG,2013-12-10,37000.0
TLG,2013-12-11,38000.0
TLG,2013-12-12,39000.0
TLG,2013-12-13,39000.0
TLG,2013-12-16,38000.0
TLG,2013-12-17,40500.0
TLG,2013-12-18,39000.0
TLG,2013-12-19,39400.0
TLG,2013-12-20,39400.0
TLG,2013-12-23,41000.0
TLG,2013-12-24,41000.0
TLG,2013-12-25,41500.0
TLG,2013-12-26,40400.0
TLG,2013-12-27,40400.0
TLG,2013-12-30,41000.0
TLG,2013-12-31,42500.0
TLG,2014-01-02,42000.0
TLG,2014-01-03,41000.0
TLG,2014-01-06,43500.0
TLG,2014-01-07,41000.0
TLG,2014-01-08,40800.0
TLG,2014-01-09,43400.0
TLG,2014-01-10,42900.0
TLG,2014-01-13,42000.0
TLG,2014-01-14,42000.0
TLG,2014-01-15,41000.0
TLG,2014-01-16,39500.0
TLG,2014-01-17,42200.0
TLG,2014-01-20,45000.0
TLG,2014-01-21,44000.0
TLG,2014-01-22,47000.0
TLG,2014-01-23,45000.0
TLG,2014-01-24,47000.0
TLG,2014-01-27,49900.0
TLG,2014-02-06,46500.0
TLG,2014-02-07,47000.0
TLG,2014-02-10,48500.0
TLG,2014-02-11,48800.0
TLG,2014-02-12,51000.0
TLG,2014-02-13,52000.0
TLG,2014-02-14,48400.0
TLG,2014-02-17,51500.0
TLG,2014-02-18,50000.0
TLG,2014-02-19,49000.0
TLG,2014-02-20,51000.0
TLG,2014-02-21,51000.0
TLG,2014-02-24,50000.0
TLG,2014-02-25,49700.0
TLG,2014-02-26,46300.0
TLG,2014-02-27,48900.0
TLG,2014-02-28,49800.0
TLG,2014-03-03,48900.0
TLG,2014-03-04,49000.0
TLG,2014-03-05,48400.0
TLG,2014-03-06,49000.0
TLG,2014-03-07,49900.0
TLG,2014-03-10,49000.0
TLG,2014-03-11,48000.0
TLG,2014-03-12,44800.0
TLG,2014-03-13,46500.0
TLG,2014-03-14,47000.0
TLG,2014-03-17,47000.0
TLG,2014-03-18,46000.0
TLG,2014-03-19,43500.0
TLG,2014-03-20,44800.0
TLG,2014-03-21,45000.0
TLG,2014-03-24,44000.0
TLG,2014-03-25,44000.0
TLG,2014-03-26,44500.0
TLG,2014-03-27,42900.0
TLG,2014-03-28,42500.0
TLG,2014-03-31,45200.0
TLG,2014-04-01,44900.0
TLG,2014-04-02,44800.0
TLG,2014-04-03,44600.0
TLG,2014-04-04,46900.0
TLG,2014-04-07,46500.0
TLG,2014-04-08,46500.0
TLG,2014-04-10,46000.0
TLG,2014-04-11,46000.0
TLG,2014-04-14,45000.0
TLG,2014-04-15,45000.0
TLG,2014-04-16,46000.0
TLG,2014-04-17,46000.0
TLG,2014-04-18,46000.0
TLG,2014-04-21,46000.0
TLG,2014-04-22,45000.0
TLG,2014-04-23,45000.0
TLG,2014-04-24,42000.0
TLG,2014-04-25,44800.0
TLG,2014-04-28,43500.0
TLG,2014-04-29,44900.0
TLG,2014-05-05,45500.0
TLG,2014-05-06,45300.0
TLG,2014-05-07,45000.0
TLG,2014-05-08,44500.0
TLG,2014-05-09,45000.0
TLG,2014-05-12,44400.0
TLG,2014-05-13,44000.0
TLG,2014-05-14,43900.0
TLG,2014-05-15,43900.0
TLG,2014-05-16,43800.0
TLG,2014-05-19,44300.0
TLG,2014-05-20,44300.0
TLG,2014-05-21,43800.0
