TRI,2001-12-28,22700.0
TRI,2001-12-31,23100.0
TRI,2002-01-02,23100.0
TRI,2002-01-04,22700.0
TRI,2002-01-07,22300.0
TRI,2002-01-09,21900.0
TRI,2002-01-11,21900.0
TRI,2002-01-14,21600.0
TRI,2002-01-16,21200.0
TRI,2002-01-21,20200.0
TRI,2002-01-23,20600.0
TRI,2002-01-25,21000.0
TRI,2002-01-28,21400.0
TRI,2002-01-30,21000.0
TRI,2002-02-01,20600.0
TRI,2002-02-04,20200.0
TRI,2002-02-06,20600.0
TRI,2002-02-08,21000.0
TRI,2002-02-18,21000.0
TRI,2002-02-20,20700.0
TRI,2002-02-22,20700.0
TRI,2002-02-25,20700.0
TRI,2002-02-27,21100.0
TRI,2002-03-01,21500.0
TRI,2002-03-04,21600.0
TRI,2002-03-05,21600.0
TRI,2002-03-06,21600.0
TRI,2002-03-07,21800.0
TRI,2002-03-08,21800.0
TRI,2002-03-11,22200.0
TRI,2002-03-12,22300.0
TRI,2002-03-13,22700.0
TRI,2002-03-14,23100.0
TRI,2002-03-15,23500.0
TRI,2002-03-18,23000.0
TRI,2002-03-19,22700.0
TRI,2002-03-20,22700.0
TRI,2002-03-22,23100.0
TRI,2002-03-25,22700.0
TRI,2002-03-26,23100.0
TRI,2002-03-28,23700.0
TRI,2002-03-29,23300.0
TRI,2002-04-01,23700.0
TRI,2002-04-02,23700.0
TRI,2002-04-03,23200.0
TRI,2002-04-04,22800.0
TRI,2002-04-05,22400.0
TRI,2002-04-08,22800.0
TRI,2002-04-09,22600.0
TRI,2002-04-10,23000.0
TRI,2002-04-11,22900.0
TRI,2002-04-12,22900.0
TRI,2002-04-15,22800.0
TRI,2002-04-16,22600.0
TRI,2002-04-17,22500.0
TRI,2002-04-18,22500.0
TRI,2002-04-19,22800.0
TRI,2002-04-23,22800.0
TRI,2002-04-24,22700.0
TRI,2002-04-25,22700.0
TRI,2002-04-26,22900.0
TRI,2002-05-02,23100.0
TRI,2002-05-03,23500.0
TRI,2002-05-06,23500.0
TRI,2002-05-07,23000.0
TRI,2002-05-08,22700.0
TRI,2002-05-09,23000.0
TRI,2002-05-10,23300.0
TRI,2002-05-13,23000.0
TRI,2002-05-14,23100.0
TRI,2002-05-15,23100.0
TRI,2002-05-16,22700.0
TRI,2002-05-17,23000.0
TRI,2002-05-20,22900.0
TRI,2002-05-21,22700.0
TRI,2002-05-22,22700.0
TRI,2002-05-23,22700.0
TRI,2002-05-24,22700.0
TRI,2002-05-27,22700.0
TRI,2002-05-28,22700.0
TRI,2002-05-29,22700.0
TRI,2002-05-30,22700.0
TRI,2002-05-31,23100.0
TRI,2002-06-03,23000.0
TRI,2002-06-04,22900.0
TRI,2002-06-05,23300.0
TRI,2002-06-06,23100.0
TRI,2002-06-07,22700.0
TRI,2002-06-10,22700.0
TRI,2002-06-11,22700.0
TRI,2002-06-12,23000.0
TRI,2002-06-13,23000.0
TRI,2002-06-14,22700.0
TRI,2002-06-17,22700.0
TRI,2002-06-18,22300.0
TRI,2002-06-19,21900.0
TRI,2002-06-20,21600.0
TRI,2002-06-21,21900.0
TRI,2002-06-24,22300.0
TRI,2002-06-25,22700.0
TRI,2002-06-26,22300.0
TRI,2002-06-27,22500.0
TRI,2002-06-28,22700.0
TRI,2002-07-01,22300.0
TRI,2002-07-02,22000.0
TRI,2002-07-03,22100.0
TRI,2002-07-04,22300.0
TRI,2002-07-05,22500.0
TRI,2002-07-08,22500.0
TRI,2002-07-09,22100.0
TRI,2002-07-10,22200.0
TRI,2002-07-11,22200.0
TRI,2002-07-12,22200.0
TRI,2002-07-15,22200.0
TRI,2002-07-16,21800.0
TRI,2002-07-17,21400.0
TRI,2002-07-18,21000.0
TRI,2002-07-19,20600.0
TRI,2002-07-22,20800.0
TRI,2002-07-23,21200.0
TRI,2002-07-24,21600.0
TRI,2002-07-25,21200.0
TRI,2002-07-26,21000.0
TRI,2002-07-29,21000.0
TRI,2002-07-30,21400.0
TRI,2002-07-31,21800.0
TRI,2002-08-01,21800.0
TRI,2002-08-02,21400.0
TRI,2002-08-05,21400.0
TRI,2002-08-06,21400.0
TRI,2002-08-07,21300.0
TRI,2002-08-08,21200.0
TRI,2002-08-09,21200.0
TRI,2002-08-12,20600.0
TRI,2002-08-13,20600.0
TRI,2002-08-14,20200.0
TRI,2002-08-15,20200.0
TRI,2002-08-16,20800.0
TRI,2002-08-19,20700.0
TRI,2002-08-20,20700.0
TRI,2002-08-21,20600.0
TRI,2002-08-22,20400.0
TRI,2002-08-23,20100.0
TRI,2002-08-26,20100.0
TRI,2002-08-27,20100.0
TRI,2002-08-28,20200.0
TRI,2002-08-29,20400.0
TRI,2002-08-30,20800.0
TRI,2002-09-03,21000.0
TRI,2002-09-04,21000.0
TRI,2002-09-05,21000.0
TRI,2002-09-06,21000.0
TRI,2002-09-09,21100.0
TRI,2002-09-10,21200.0
TRI,2002-09-11,21200.0
TRI,2002-09-12,21100.0
TRI,2002-09-13,20900.0
TRI,2002-09-16,20900.0
TRI,2002-09-17,19800.0
TRI,2002-09-18,19800.0
TRI,2002-09-19,20000.0
TRI,2002-09-20,19700.0
TRI,2002-09-23,19600.0
TRI,2002-09-24,19200.0
TRI,2002-09-25,19200.0
TRI,2002-09-26,19700.0
TRI,2002-09-27,19500.0
TRI,2002-09-30,19600.0
TRI,2002-10-01,19600.0
TRI,2002-10-02,19700.0
TRI,2002-10-03,19600.0
TRI,2002-10-04,19600.0
TRI,2002-10-07,19000.0
TRI,2002-10-08,18800.0
TRI,2002-10-09,18300.0
TRI,2002-10-10,17800.0
TRI,2002-10-11,18300.0
TRI,2002-10-14,18700.0
TRI,2002-10-15,19200.0
TRI,2002-10-16,18700.0
TRI,2002-10-17,18700.0
TRI,2002-10-18,18700.0
TRI,2002-10-21,18700.0
TRI,2002-10-22,18400.0
TRI,2002-10-23,18400.0
TRI,2002-10-24,18400.0
TRI,2002-10-25,18300.0
TRI,2002-10-28,18300.0
TRI,2002-10-29,17900.0
TRI,2002-10-30,17900.0
TRI,2002-10-31,17600.0
TRI,2002-11-01,17500.0
TRI,2002-11-04,17500.0
TRI,2002-11-05,17500.0
TRI,2002-11-06,17300.0
TRI,2002-11-07,17200.0
TRI,2002-11-08,17600.0
TRI,2002-11-11,17600.0
TRI,2002-11-12,17600.0
TRI,2002-11-13,18000.0
TRI,2002-11-14,18000.0
TRI,2002-11-15,17600.0
TRI,2002-11-18,17600.0
TRI,2002-11-19,17600.0
TRI,2002-11-20,17600.0
TRI,2002-11-21,17600.0
TRI,2002-11-22,17600.0
TRI,2002-11-25,17600.0
TRI,2002-11-26,17600.0
TRI,2002-11-27,17600.0
TRI,2002-11-28,17600.0
TRI,2002-11-29,17800.0
TRI,2002-12-02,18000.0
TRI,2002-12-03,18500.0
TRI,2002-12-04,19000.0
TRI,2002-12-05,19000.0
TRI,2002-12-06,18500.0
TRI,2002-12-09,18700.0
TRI,2002-12-10,18700.0
TRI,2002-12-11,18300.0
TRI,2002-12-12,18300.0
TRI,2002-12-13,18300.0
TRI,2002-12-16,18300.0
TRI,2002-12-17,18300.0
TRI,2002-12-18,18300.0
TRI,2002-12-19,18700.0
TRI,2002-12-20,18700.0
TRI,2002-12-23,18700.0
TRI,2002-12-24,18700.0
TRI,2002-12-25,18700.0
TRI,2002-12-26,18300.0
TRI,2002-12-27,18400.0
TRI,2002-12-30,18400.0
TRI,2002-12-31,18200.0
TRI,2003-01-02,18400.0
TRI,2003-01-03,18400.0
TRI,2003-01-06,18400.0
TRI,2003-01-07,18400.0
TRI,2003-01-08,18400.0
TRI,2003-01-09,17600.0
TRI,2003-01-10,17900.0
TRI,2003-01-13,17900.0
TRI,2003-01-14,17600.0
TRI,2003-01-15,17600.0
TRI,2003-01-16,16800.0
TRI,2003-01-17,16800.0
TRI,2003-01-20,16800.0
TRI,2003-01-21,16800.0
TRI,2003-01-22,16800.0
TRI,2003-01-23,16800.0
TRI,2003-01-24,17200.0
TRI,2003-01-27,17200.0
TRI,2003-01-28,17200.0
TRI,2003-02-10,17200.0
TRI,2003-02-11,17600.0
TRI,2003-02-12,17600.0
TRI,2003-02-13,18000.0
TRI,2003-02-14,18000.0
TRI,2003-02-17,17200.0
TRI,2003-02-18,17200.0
TRI,2003-02-19,17000.0
TRI,2003-02-20,17200.0
TRI,2003-02-21,17000.0
TRI,2003-02-24,17000.0
TRI,2003-02-25,17000.0
TRI,2003-02-26,17000.0
TRI,2003-02-27,16700.0
TRI,2003-02-28,17200.0
TRI,2003-03-03,17200.0
TRI,2003-03-04,16600.0
TRI,2003-03-05,17200.0
TRI,2003-03-06,17200.0
TRI,2003-03-07,17200.0
TRI,2003-03-10,16700.0
TRI,2003-03-11,16800.0
TRI,2003-03-12,16800.0
TRI,2003-03-13,16500.0
TRI,2003-03-14,16500.0
TRI,2003-03-17,16500.0
TRI,2003-03-18,15800.0
TRI,2003-03-19,15800.0
TRI,2003-03-20,15800.0
TRI,2003-03-21,15700.0
TRI,2003-03-24,15100.0
TRI,2003-03-25,14700.0
TRI,2003-03-26,14200.0
TRI,2003-03-27,14200.0
TRI,2003-03-28,14200.0
TRI,2003-03-31,13500.0
TRI,2003-04-01,13300.0
TRI,2003-04-02,13500.0
TRI,2003-04-03,14100.0
TRI,2003-04-04,14800.0
TRI,2003-04-07,14800.0
TRI,2003-04-08,14500.0
TRI,2003-04-09,14300.0
TRI,2003-04-10,14300.0
TRI,2003-04-11,14300.0
TRI,2003-04-14,14500.0
TRI,2003-04-15,14700.0
TRI,2003-04-16,14700.0
TRI,2003-04-17,14700.0
TRI,2003-04-18,14700.0
TRI,2003-04-21,14700.0
TRI,2003-04-22,14700.0
TRI,2003-04-23,14700.0
TRI,2003-04-24,14900.0
TRI,2003-04-25,14900.0
TRI,2003-04-28,14200.0
TRI,2003-04-29,14700.0
TRI,2003-05-05,14500.0
TRI,2003-05-06,14500.0
TRI,2003-05-07,15000.0
TRI,2003-05-08,14700.0
TRI,2003-05-09,14700.0
TRI,2003-05-12,14700.0
TRI,2003-05-13,14900.0
TRI,2003-05-14,14900.0
TRI,2003-05-15,14900.0
TRI,2003-05-19,14900.0
TRI,2003-05-20,14700.0
TRI,2003-05-21,15000.0
TRI,2003-05-22,14400.0
TRI,2003-05-23,14700.0
TRI,2003-05-26,14700.0
TRI,2003-05-27,14600.0
TRI,2003-05-28,14400.0
TRI,2003-05-29,14400.0
TRI,2003-05-30,14600.0
TRI,2003-06-02,14600.0
TRI,2003-06-03,14700.0
TRI,2003-06-04,14700.0
TRI,2003-06-05,14700.0
TRI,2003-06-06,14700.0
TRI,2003-06-09,14700.0
TRI,2003-06-10,14700.0
TRI,2003-06-11,14700.0
TRI,2003-06-12,14700.0
TRI,2003-06-13,14700.0
TRI,2003-06-16,14700.0
TRI,2003-06-17,14700.0
TRI,2003-06-18,14700.0
TRI,2003-06-19,14700.0
TRI,2003-06-20,14700.0
TRI,2003-06-23,14700.0
TRI,2003-06-24,14700.0
TRI,2003-06-25,14700.0
TRI,2003-06-26,14700.0
TRI,2003-06-27,14700.0
TRI,2003-06-30,14700.0
TRI,2003-07-01,14700.0
TRI,2003-07-02,14700.0
TRI,2003-07-03,14700.0
TRI,2003-07-04,14800.0
TRI,2003-07-07,14400.0
TRI,2003-07-08,14700.0
TRI,2003-07-09,14700.0
TRI,2003-07-10,14700.0
TRI,2003-07-11,14700.0
TRI,2003-07-14,14500.0
TRI,2003-07-15,14300.0
TRI,2003-07-16,14500.0
TRI,2003-07-17,14400.0
TRI,2003-07-18,14400.0
TRI,2003-07-21,14300.0
TRI,2003-07-22,14300.0
TRI,2003-07-23,14400.0
TRI,2003-07-24,14400.0
TRI,2003-07-25,14600.0
TRI,2003-07-28,14500.0
TRI,2003-07-29,14300.0
TRI,2003-07-30,14700.0
TRI,2003-07-31,14300.0
TRI,2003-08-01,14600.0
TRI,2003-08-04,14600.0
TRI,2003-08-05,14600.0
TRI,2003-08-06,14600.0
TRI,2003-08-07,14600.0
TRI,2003-08-08,14300.0
TRI,2003-08-11,14500.0
TRI,2003-08-12,14500.0
TRI,2003-08-13,14500.0
TRI,2003-08-14,14500.0
TRI,2003-08-15,14600.0
TRI,2003-08-18,14700.0
TRI,2003-08-19,14700.0
TRI,2003-08-20,14500.0
TRI,2003-08-21,14500.0
TRI,2003-08-22,14500.0
TRI,2003-08-25,14500.0
TRI,2003-08-26,14500.0
TRI,2003-08-27,14500.0
TRI,2003-08-28,14600.0
TRI,2003-08-29,15100.0
TRI,2003-09-03,14800.0
TRI,2003-09-04,14700.0
TRI,2003-09-05,14700.0
TRI,2003-09-08,14600.0
TRI,2003-09-09,14600.0
TRI,2003-09-10,14300.0
TRI,2003-09-11,14100.0
TRI,2003-09-12,14100.0
TRI,2003-09-15,14100.0
TRI,2003-09-16,13800.0
TRI,2003-09-17,13900.0
TRI,2003-09-18,13900.0
TRI,2003-09-19,13900.0
TRI,2003-09-22,13900.0
TRI,2003-09-23,13900.0
TRI,2003-09-24,13900.0
TRI,2003-09-25,13900.0
TRI,2003-09-26,13800.0
TRI,2003-09-29,13800.0
TRI,2003-09-30,13900.0
TRI,2003-10-01,13900.0
TRI,2003-10-02,13800.0
TRI,2003-10-03,13800.0
TRI,2003-10-06,13700.0
TRI,2003-10-07,13700.0
TRI,2003-10-08,13700.0
TRI,2003-10-09,13700.0
TRI,2003-10-10,13700.0
TRI,2003-10-13,13700.0
TRI,2003-10-14,13700.0
TRI,2003-10-15,13700.0
TRI,2003-10-16,13700.0
TRI,2003-10-17,14100.0
TRI,2003-10-20,14100.0
TRI,2003-10-21,14100.0
TRI,2003-10-22,14000.0
TRI,2003-10-23,14000.0
TRI,2003-10-24,14000.0
TRI,2003-10-27,14000.0
TRI,2003-10-28,14000.0
TRI,2003-10-29,13500.0
TRI,2003-10-30,13500.0
TRI,2003-10-31,13700.0
TRI,2003-11-03,13700.0
TRI,2003-11-04,13600.0
TRI,2003-11-05,13700.0
TRI,2003-11-06,13700.0
TRI,2003-11-07,13700.0
TRI,2003-11-10,13700.0
TRI,2003-11-11,13700.0
TRI,2003-11-12,13900.0
TRI,2003-11-13,14500.0
TRI,2003-11-14,14900.0
TRI,2003-11-17,14900.0
TRI,2003-11-18,14500.0
TRI,2003-11-19,14500.0
TRI,2003-11-20,14700.0
TRI,2003-11-21,14800.0
TRI,2003-11-24,14800.0
TRI,2003-11-25,14800.0
TRI,2003-11-26,14200.0
TRI,2003-11-27,14500.0
TRI,2003-11-28,14900.0
TRI,2003-12-01,14900.0
TRI,2003-12-02,14500.0
TRI,2003-12-03,14500.0
TRI,2003-12-04,14600.0
TRI,2003-12-05,14500.0
TRI,2003-12-08,14500.0
TRI,2003-12-09,14400.0
TRI,2003-12-10,14400.0
TRI,2003-12-11,14400.0
TRI,2003-12-12,15100.0
TRI,2003-12-15,15000.0
TRI,2003-12-16,15000.0
TRI,2003-12-17,15300.0
TRI,2003-12-18,15400.0
TRI,2003-12-19,15400.0
TRI,2003-12-22,15400.0
TRI,2003-12-23,15400.0
TRI,2003-12-24,15400.0
TRI,2003-12-25,15200.0
TRI,2003-12-26,15000.0
TRI,2003-12-29,15300.0
TRI,2003-12-30,15700.0
TRI,2003-12-31,15700.0
TRI,2004-01-05,16100.0
TRI,2004-01-06,16500.0
TRI,2004-01-07,16500.0
TRI,2004-01-08,16800.0
TRI,2004-01-09,17500.0
TRI,2004-01-12,17200.0
TRI,2004-01-13,17200.0
TRI,2004-01-14,16500.0
TRI,2004-01-15,16600.0
TRI,2004-01-16,16800.0
TRI,2004-01-27,17600.0
TRI,2004-01-28,18400.0
TRI,2004-01-29,19300.0
TRI,2004-01-30,20200.0
TRI,2004-02-02,20200.0
TRI,2004-02-03,19400.0
TRI,2004-02-04,20100.0
TRI,2004-02-05,20800.0
TRI,2004-02-06,20800.0
TRI,2004-02-09,20800.0
TRI,2004-02-10,20800.0
TRI,2004-02-11,20800.0
TRI,2004-02-12,20800.0
TRI,2004-02-13,21600.0
TRI,2004-02-16,21500.0
TRI,2004-02-17,21500.0
TRI,2004-02-18,21900.0
TRI,2004-02-19,22300.0
TRI,2004-02-20,23300.0
TRI,2004-02-23,24400.0
TRI,2004-02-24,25500.0
TRI,2004-02-25,25500.0
TRI,2004-02-26,25100.0
TRI,2004-02-27,26300.0
TRI,2004-03-01,27500.0
TRI,2004-03-02,26600.0
TRI,2004-03-03,25500.0
TRI,2004-03-04,24500.0
TRI,2004-03-05,24800.0
TRI,2004-03-08,25100.0
TRI,2004-03-09,23900.0
TRI,2004-03-10,22700.0
TRI,2004-03-11,23800.0
TRI,2004-03-12,23900.0
TRI,2004-03-15,23900.0
TRI,2004-03-16,23200.0
TRI,2004-03-17,22300.0
TRI,2004-03-18,22300.0
TRI,2004-03-19,23100.0
TRI,2004-03-22,23100.0
TRI,2004-03-23,22700.0
TRI,2004-03-24,22300.0
TRI,2004-03-25,23000.0
TRI,2004-03-26,23000.0
TRI,2004-03-29,23000.0
TRI,2004-03-30,22000.0
TRI,2004-03-31,22600.0
TRI,2004-04-01,23100.0
TRI,2004-04-02,22600.0
TRI,2004-04-05,22200.0
TRI,2004-04-06,22400.0
TRI,2004-04-07,22400.0
TRI,2004-04-08,22400.0
TRI,2004-04-09,22400.0
TRI,2004-04-12,22400.0
TRI,2004-04-13,22300.0
TRI,2004-04-14,22400.0
TRI,2004-04-15,22700.0
TRI,2004-04-16,23100.0
TRI,2004-04-19,22700.0
TRI,2004-04-20,23300.0
TRI,2004-04-21,23900.0
TRI,2004-04-22,25100.0
TRI,2004-04-23,24300.0
TRI,2004-04-26,24100.0
TRI,2004-04-27,23600.0
TRI,2004-04-28,24100.0
TRI,2004-04-29,24100.0
TRI,2004-05-04,24300.0
TRI,2004-05-05,24300.0
TRI,2004-05-06,24100.0
TRI,2004-05-07,23900.0
TRI,2004-05-10,20000.0
TRI,2004-05-11,19800.0
TRI,2004-05-12,19900.0
TRI,2004-05-13,20000.0
TRI,2004-05-14,19600.0
TRI,2004-05-17,18800.0
TRI,2004-05-18,19200.0
TRI,2004-05-19,18900.0
TRI,2004-05-20,19300.0
TRI,2004-05-21,19200.0
TRI,2004-05-24,19100.0
TRI,2004-05-25,19000.0
TRI,2004-05-26,19000.0
TRI,2004-05-27,18800.0
TRI,2004-05-28,18900.0
TRI,2004-05-31,18900.0
TRI,2004-06-01,19100.0
TRI,2004-06-02,19100.0
TRI,2004-06-03,19100.0
TRI,2004-06-04,19000.0
TRI,2004-06-07,18900.0
TRI,2004-06-08,18800.0
TRI,2004-06-09,18800.0
TRI,2004-06-10,18800.0
TRI,2004-06-11,18700.0
TRI,2004-06-14,19100.0
TRI,2004-06-15,18900.0
TRI,2004-06-16,18800.0
TRI,2004-06-17,18800.0
TRI,2004-06-18,19000.0
TRI,2004-06-21,18700.0
TRI,2004-06-22,18600.0
TRI,2004-06-23,18700.0
TRI,2004-06-24,18500.0
TRI,2004-06-25,18700.0
TRI,2004-06-28,18500.0
TRI,2004-06-29,18700.0
TRI,2004-06-30,18500.0
TRI,2004-07-01,18500.0
TRI,2004-07-02,18400.0
TRI,2004-07-05,18300.0
TRI,2004-07-06,18300.0
TRI,2004-07-07,18400.0
TRI,2004-07-08,18500.0
TRI,2004-07-09,18300.0
TRI,2004-07-12,18300.0
TRI,2004-07-13,18300.0
TRI,2004-07-14,18300.0
TRI,2004-07-15,18000.0
TRI,2004-07-16,18000.0
TRI,2004-07-19,18000.0
TRI,2004-07-20,18000.0
TRI,2004-07-21,18000.0
TRI,2004-07-22,18000.0
TRI,2004-07-23,18000.0
TRI,2004-07-26,17900.0
TRI,2004-07-27,17900.0
TRI,2004-07-28,17900.0
TRI,2004-07-29,17600.0
TRI,2004-07-30,17600.0
TRI,2004-08-02,17600.0
TRI,2004-08-03,17600.0
TRI,2004-08-04,17300.0
TRI,2004-08-05,17200.0
TRI,2004-08-06,16400.0
TRI,2004-08-09,15600.0
TRI,2004-08-10,15300.0
TRI,2004-08-11,15700.0
TRI,2004-08-12,15700.0
TRI,2004-08-13,15700.0
TRI,2004-08-16,15700.0
TRI,2004-08-17,15800.0
TRI,2004-08-18,16000.0
TRI,2004-08-19,16600.0
TRI,2004-08-20,17200.0
TRI,2004-08-23,18000.0
TRI,2004-08-24,17200.0
TRI,2004-08-25,17100.0
TRI,2004-08-26,17100.0
TRI,2004-08-27,17600.0
TRI,2004-08-30,17100.0
TRI,2004-08-31,17200.0
TRI,2004-09-01,17100.0
TRI,2004-09-06,16500.0
TRI,2004-09-07,16500.0
TRI,2004-09-08,16100.0
TRI,2004-09-09,16500.0
TRI,2004-09-10,16500.0
TRI,2004-09-13,16500.0
TRI,2004-09-14,16500.0
TRI,2004-09-15,16500.0
TRI,2004-09-16,16500.0
TRI,2004-09-17,16700.0
TRI,2004-09-20,16600.0
TRI,2004-09-21,16500.0
TRI,2004-09-22,16500.0
TRI,2004-09-23,16500.0
TRI,2004-09-24,16800.0
TRI,2004-09-27,16600.0
TRI,2004-09-28,17000.0
TRI,2004-09-29,16900.0
TRI,2004-09-30,16800.0
TRI,2004-10-01,16600.0
TRI,2004-10-04,16800.0
TRI,2004-10-05,16700.0
TRI,2004-10-06,16800.0
TRI,2004-10-07,16800.0
TRI,2004-10-08,16800.0
TRI,2004-10-11,16600.0
TRI,2004-10-12,16600.0
TRI,2004-10-13,16400.0
TRI,2004-10-14,16500.0
TRI,2004-10-15,16500.0
TRI,2004-10-18,16700.0
TRI,2004-10-19,16700.0
TRI,2004-10-20,16700.0
TRI,2004-10-21,16700.0
TRI,2004-10-22,16700.0
TRI,2004-10-25,16600.0
TRI,2004-10-26,16500.0
TRI,2004-10-27,16400.0
TRI,2004-10-28,16500.0
TRI,2004-10-29,16500.0
TRI,2004-11-01,16500.0
TRI,2004-11-02,16500.0
TRI,2004-11-03,16500.0
TRI,2004-11-04,16400.0
TRI,2004-11-05,16400.0
TRI,2004-11-08,16400.0
TRI,2004-11-09,16400.0
TRI,2004-11-10,16200.0
TRI,2004-11-11,16100.0
TRI,2004-11-12,15900.0
TRI,2004-11-15,15800.0
TRI,2004-11-16,15800.0
TRI,2004-11-17,15700.0
TRI,2004-11-18,15800.0
TRI,2004-11-19,16000.0
TRI,2004-11-22,15800.0
TRI,2004-11-23,15700.0
TRI,2004-11-24,15700.0
TRI,2004-11-25,15700.0
TRI,2004-11-26,15800.0
TRI,2004-11-29,15800.0
TRI,2004-11-30,15900.0
TRI,2004-12-01,15900.0
TRI,2004-12-02,15900.0
TRI,2004-12-03,15900.0
TRI,2004-12-06,15900.0
TRI,2004-12-07,15800.0
TRI,2004-12-08,15700.0
TRI,2004-12-09,15700.0
TRI,2004-12-10,15900.0
TRI,2004-12-13,15900.0
TRI,2004-12-14,15800.0
TRI,2004-12-15,16100.0
TRI,2004-12-16,16100.0
TRI,2004-12-17,16100.0
TRI,2004-12-20,16100.0
TRI,2004-12-21,16100.0
TRI,2004-12-22,16100.0
TRI,2004-12-23,16100.0
TRI,2004-12-24,16100.0
TRI,2004-12-27,16300.0
TRI,2004-12-28,16200.0
TRI,2004-12-29,16200.0
TRI,2004-12-30,16100.0
TRI,2004-12-31,16100.0
TRI,2005-01-04,16100.0
TRI,2005-01-05,16100.0
TRI,2005-01-06,16300.0
TRI,2005-01-07,16500.0
TRI,2005-01-10,16300.0
TRI,2005-01-11,16400.0
TRI,2005-01-12,16300.0
TRI,2005-01-13,16300.0
TRI,2005-01-14,16400.0
TRI,2005-01-17,16500.0
TRI,2005-01-18,16500.0
TRI,2005-01-19,16500.0
TRI,2005-01-20,16400.0
TRI,2005-01-21,16400.0
TRI,2005-01-24,16400.0
TRI,2005-01-25,16200.0
TRI,2005-01-26,16200.0
TRI,2005-01-27,16200.0
TRI,2005-01-28,16200.0
TRI,2005-01-31,16200.0
TRI,2005-02-01,16000.0
TRI,2005-02-02,16000.0
TRI,2005-02-03,16200.0
TRI,2005-02-04,16200.0
TRI,2005-02-14,16200.0
TRI,2005-02-15,16400.0
TRI,2005-02-16,16400.0
TRI,2005-02-17,16400.0
TRI,2005-02-18,16400.0
TRI,2005-02-21,16000.0
TRI,2005-02-22,16000.0
TRI,2005-02-23,16400.0
TRI,2005-02-24,16300.0
TRI,2005-02-25,16300.0
TRI,2005-02-28,16300.0
TRI,2005-03-01,16200.0
TRI,2005-03-02,16200.0
TRI,2005-03-03,16100.0
TRI,2005-03-04,16100.0
TRI,2005-03-07,16200.0
TRI,2005-03-08,16100.0
TRI,2005-03-09,16100.0
TRI,2005-03-10,16300.0
TRI,2005-03-11,16100.0
TRI,2005-03-14,16100.0
TRI,2005-03-15,16100.0
TRI,2005-03-16,16100.0
TRI,2005-03-17,16100.0
TRI,2005-03-18,16000.0
TRI,2005-03-21,16000.0
TRI,2005-03-22,16100.0
TRI,2005-03-23,16800.0
TRI,2005-03-24,16800.0
TRI,2005-03-25,16700.0
TRI,2005-03-28,16500.0
TRI,2005-03-29,16100.0
TRI,2005-03-30,16300.0
TRI,2005-03-31,16200.0
TRI,2005-04-01,16200.0
TRI,2005-04-04,16200.0
TRI,2005-04-05,16300.0
TRI,2005-04-06,16100.0
TRI,2005-04-07,16100.0
TRI,2005-04-08,16100.0
TRI,2005-04-11,16100.0
TRI,2005-04-12,16200.0
TRI,2005-04-13,16100.0
TRI,2005-04-14,16100.0
TRI,2005-04-15,16100.0
TRI,2005-04-18,16000.0
TRI,2005-04-19,16000.0
TRI,2005-04-20,16100.0
TRI,2005-04-21,16000.0
TRI,2005-04-22,15700.0
TRI,2005-04-25,15700.0
TRI,2005-04-26,15800.0
TRI,2005-04-27,15600.0
TRI,2005-04-28,15600.0
TRI,2005-04-29,16000.0
TRI,2005-05-04,15900.0
TRI,2005-05-05,15900.0
TRI,2005-05-06,15900.0
TRI,2005-05-09,15900.0
TRI,2005-05-10,15900.0
TRI,2005-05-11,15900.0
TRI,2005-05-12,15900.0
TRI,2005-05-13,15900.0
TRI,2005-05-16,16000.0
TRI,2005-05-17,16000.0
TRI,2005-05-18,15800.0
TRI,2005-05-19,16000.0
TRI,2005-05-20,16000.0
TRI,2005-05-23,16200.0
TRI,2005-05-24,16200.0
TRI,2005-05-25,16300.0
TRI,2005-05-26,16200.0
TRI,2005-05-27,16200.0
TRI,2005-05-30,16200.0
TRI,2005-05-31,16100.0
TRI,2005-06-01,16100.0
TRI,2005-06-02,16200.0
TRI,2005-06-03,16200.0
TRI,2005-06-06,16200.0
TRI,2005-06-07,16200.0
TRI,2005-06-08,16200.0
TRI,2005-06-09,16300.0
TRI,2005-06-10,16300.0
TRI,2005-06-13,16400.0
TRI,2005-06-14,16400.0
TRI,2005-06-15,16400.0
TRI,2005-06-16,16400.0
TRI,2005-06-17,16500.0
TRI,2005-06-20,16600.0
TRI,2005-06-21,16900.0
TRI,2005-06-22,17000.0
TRI,2005-06-23,17200.0
TRI,2005-06-24,17200.0
TRI,2005-06-27,17400.0
TRI,2005-06-28,17300.0
TRI,2005-06-29,17200.0
TRI,2005-06-30,17200.0
TRI,2005-07-01,17300.0
TRI,2005-07-04,17300.0
TRI,2005-07-05,17400.0
TRI,2005-07-06,17400.0
TRI,2005-07-07,17600.0
TRI,2005-07-08,17700.0
TRI,2005-07-11,17900.0
TRI,2005-07-12,18700.0
TRI,2005-07-13,19600.0
TRI,2005-07-14,19100.0
TRI,2005-07-15,19200.0
TRI,2005-07-18,19200.0
TRI,2005-07-19,19200.0
TRI,2005-07-20,19200.0
TRI,2005-07-21,19200.0
TRI,2005-07-22,19100.0
TRI,2005-07-25,19100.0
TRI,2005-07-26,19100.0
TRI,2005-07-27,19100.0
TRI,2005-07-28,19000.0
TRI,2005-07-29,19100.0
TRI,2005-08-01,19100.0
TRI,2005-08-02,19100.0
TRI,2005-08-03,19200.0
TRI,2005-08-04,19700.0
TRI,2005-08-05,19200.0
TRI,2005-08-08,19200.0
TRI,2005-08-09,19200.0
TRI,2005-08-10,19200.0
TRI,2005-08-11,19200.0
TRI,2005-08-12,19200.0
TRI,2005-08-15,19200.0
TRI,2005-08-16,19200.0
TRI,2005-08-17,19200.0
TRI,2005-08-18,19200.0
TRI,2005-08-19,19200.0
TRI,2005-08-22,19200.0
TRI,2005-08-23,19500.0
TRI,2005-08-24,19400.0
TRI,2005-08-25,19400.0
TRI,2005-08-26,19400.0
TRI,2005-08-29,19400.0
TRI,2005-08-30,19500.0
TRI,2005-08-31,19500.0
TRI,2005-09-01,19200.0
TRI,2005-09-05,19200.0
TRI,2005-09-06,19200.0
TRI,2005-09-07,19200.0
TRI,2005-09-08,19200.0
TRI,2005-09-09,19200.0
TRI,2005-09-12,19200.0
TRI,2005-09-13,19200.0
TRI,2005-09-14,19200.0
TRI,2005-09-15,19700.0
TRI,2005-09-16,19700.0
TRI,2005-09-19,20500.0
TRI,2005-09-20,21300.0
TRI,2005-09-21,20200.0
TRI,2005-09-22,20200.0
TRI,2005-09-23,19700.0
TRI,2005-09-26,20100.0
TRI,2005-09-27,20100.0
TRI,2005-09-28,20100.0
TRI,2005-09-29,20100.0
TRI,2005-09-30,21000.0
TRI,2005-10-03,21700.0
TRI,2005-10-04,21300.0
TRI,2005-10-05,21600.0
TRI,2005-10-06,21700.0
TRI,2005-10-07,22100.0
TRI,2005-10-10,22400.0
TRI,2005-10-11,23100.0
TRI,2005-10-12,23700.0
TRI,2005-10-13,24900.0
TRI,2005-10-14,26100.0
TRI,2005-10-17,27300.0
TRI,2005-10-18,26300.0
TRI,2005-10-19,27600.0
TRI,2005-10-20,26500.0
TRI,2005-10-21,26200.0
TRI,2005-10-24,25000.0
TRI,2005-10-25,24200.0
TRI,2005-10-26,23300.0
TRI,2005-10-27,24300.0
TRI,2005-10-28,25400.0
TRI,2005-10-31,25400.0
TRI,2005-11-01,25100.0
TRI,2005-11-02,25400.0
TRI,2005-11-03,25700.0
TRI,2005-11-04,25400.0
TRI,2005-11-07,25600.0
TRI,2005-11-08,25400.0
TRI,2005-11-09,25100.0
TRI,2005-11-10,25000.0
TRI,2005-11-11,24200.0
TRI,2005-11-14,23700.0
TRI,2005-11-15,23700.0
TRI,2005-11-16,24200.0
TRI,2005-11-17,24200.0
TRI,2005-11-18,23700.0
TRI,2005-11-21,23500.0
TRI,2005-11-22,23500.0
TRI,2005-11-23,23200.0
TRI,2005-11-24,22300.0
TRI,2005-11-25,23300.0
TRI,2005-11-28,23300.0
TRI,2005-11-29,23400.0
TRI,2005-11-30,23700.0
TRI,2005-12-01,23700.0
TRI,2005-12-02,23600.0
TRI,2005-12-05,23600.0
TRI,2005-12-06,23200.0
TRI,2005-12-07,23200.0
TRI,2005-12-08,23500.0
TRI,2005-12-09,23500.0
TRI,2005-12-12,23300.0
TRI,2005-12-13,23300.0
TRI,2005-12-14,22900.0
TRI,2005-12-15,22900.0
TRI,2005-12-16,22900.0
TRI,2005-12-19,23300.0
TRI,2005-12-20,23600.0
TRI,2005-12-21,23600.0
TRI,2005-12-22,22900.0
TRI,2005-12-23,22900.0
TRI,2005-12-26,22900.0
TRI,2005-12-27,22900.0
TRI,2005-12-28,22900.0
TRI,2005-12-29,22900.0
TRI,2005-12-30,22900.0
TRI,2006-01-03,22600.0
TRI,2006-01-04,22700.0
TRI,2006-01-05,22800.0
TRI,2006-01-06,22900.0
TRI,2006-01-09,22800.0
TRI,2006-01-10,22800.0
TRI,2006-01-11,22800.0
TRI,2006-01-12,22800.0
TRI,2006-01-13,22800.0
TRI,2006-01-17,23000.0
TRI,2006-01-18,23900.0
TRI,2006-01-19,23500.0
TRI,2006-01-20,24100.0
TRI,2006-01-23,23700.0
TRI,2006-01-24,23000.0
TRI,2006-01-25,23000.0
TRI,2006-01-26,23000.0
TRI,2006-01-27,23100.0
TRI,2006-02-06,23100.0
TRI,2006-02-07,23200.0
TRI,2006-02-08,23600.0
TRI,2006-02-09,23800.0
TRI,2006-02-10,23800.0
TRI,2006-02-13,23800.0
TRI,2006-02-14,24200.0
TRI,2006-02-15,24200.0
TRI,2006-02-16,24100.0
TRI,2006-02-17,24200.0
TRI,2006-02-20,24800.0
TRI,2006-02-21,25900.0
TRI,2006-02-22,24600.0
TRI,2006-02-23,24800.0
TRI,2006-02-24,25100.0
TRI,2006-02-27,25100.0
TRI,2006-02-28,25100.0
TRI,2006-03-01,25100.0
TRI,2006-03-02,26300.0
TRI,2006-03-03,26100.0
TRI,2006-03-06,26300.0
TRI,2006-03-07,27600.0
TRI,2006-03-08,29000.0
TRI,2006-03-09,30200.0
TRI,2006-03-10,31500.0
TRI,2006-03-13,31500.0
TRI,2006-03-14,31500.0
TRI,2006-03-15,30000.0
TRI,2006-03-16,29400.0
TRI,2006-03-17,30200.0
TRI,2006-03-20,31100.0
TRI,2006-03-21,31100.0
TRI,2006-03-22,29500.0
TRI,2006-03-23,28500.0
TRI,2006-03-24,28500.0
TRI,2006-03-27,28500.0
TRI,2006-03-28,29800.0
TRI,2006-03-29,30700.0
TRI,2006-03-30,30100.0
TRI,2006-03-31,30200.0
TRI,2006-04-03,30200.0
TRI,2006-04-04,29400.0
TRI,2006-04-05,29400.0
TRI,2006-04-06,29400.0
TRI,2006-04-07,29400.0
TRI,2006-04-10,29800.0
TRI,2006-04-11,29400.0
TRI,2006-04-12,28900.0
TRI,2006-04-13,30200.0
TRI,2006-04-14,31700.0
TRI,2006-04-17,33300.0
TRI,2006-04-18,34900.0
TRI,2006-04-19,36600.0
TRI,2006-04-20,38400.0
TRI,2006-04-21,40300.0
TRI,2006-04-24,41900.0
TRI,2006-04-25,43600.0
TRI,2006-04-26,44900.0
TRI,2006-04-27,42700.0
TRI,2006-04-28,40600.0
TRI,2006-05-03,38600.0
TRI,2006-05-04,40500.0
TRI,2006-05-05,42300.0
TRI,2006-05-08,40300.0
TRI,2006-05-09,38300.0
TRI,2006-05-10,36400.0
TRI,2006-05-11,36400.0
TRI,2006-05-12,38200.0
TRI,2006-05-15,40100.0
TRI,2006-05-16,38100.0
TRI,2006-05-17,36700.0
TRI,2006-05-18,35900.0
TRI,2006-05-19,34100.0
TRI,2006-05-22,33000.0
TRI,2006-05-23,31400.0
TRI,2006-05-24,32900.0
TRI,2006-05-25,31400.0
TRI,2006-05-26,31400.0
TRI,2006-05-29,31100.0
TRI,2006-05-30,30200.0
TRI,2006-05-31,30200.0
TRI,2006-06-01,30600.0
TRI,2006-06-02,31500.0
TRI,2006-06-05,33100.0
TRI,2006-06-06,32800.0
TRI,2006-06-07,32000.0
TRI,2006-06-08,32000.0
TRI,2006-06-09,31800.0
TRI,2006-06-12,31400.0
TRI,2006-06-13,31400.0
TRI,2006-06-14,31500.0
TRI,2006-06-15,31400.0
TRI,2006-06-16,30700.0
TRI,2006-06-19,30700.0
TRI,2006-06-20,29700.0
TRI,2006-06-21,28200.0
TRI,2006-06-22,29600.0
TRI,2006-06-23,29700.0
TRI,2006-06-26,28600.0
TRI,2006-06-27,27600.0
TRI,2006-06-28,27900.0
TRI,2006-06-29,28500.0
TRI,2006-06-30,28300.0
TRI,2006-07-03,28500.0
TRI,2006-07-04,28100.0
TRI,2006-07-05,27300.0
TRI,2006-07-06,27300.0
TRI,2006-07-07,27300.0
TRI,2006-07-10,27900.0
TRI,2006-07-11,27600.0
TRI,2006-07-12,27600.0
TRI,2006-07-13,27200.0
TRI,2006-07-14,27000.0
TRI,2006-07-17,26600.0
TRI,2006-07-18,25700.0
TRI,2006-07-19,24500.0
TRI,2006-07-20,25100.0
TRI,2006-07-21,25100.0
TRI,2006-07-24,24200.0
TRI,2006-07-25,23000.0
TRI,2006-07-26,22500.0
TRI,2006-07-27,23300.0
TRI,2006-07-28,23300.0
TRI,2006-07-31,22200.0
TRI,2006-08-01,21200.0
TRI,2006-08-02,20100.0
TRI,2006-08-03,21100.0
TRI,2006-08-04,22100.0
TRI,2006-08-07,22500.0
TRI,2006-08-08,22500.0
TRI,2006-08-09,22400.0
TRI,2006-08-10,22500.0
TRI,2006-08-11,22500.0
TRI,2006-08-14,23600.0
TRI,2006-08-15,23600.0
TRI,2006-08-16,24400.0
TRI,2006-08-17,24400.0
TRI,2006-08-18,24100.0
TRI,2006-08-21,23800.0
TRI,2006-08-22,22600.0
TRI,2006-08-23,22500.0
TRI,2006-08-24,23000.0
TRI,2006-08-25,22800.0
TRI,2006-08-28,23200.0
TRI,2006-08-29,23400.0
TRI,2006-08-30,23800.0
TRI,2006-08-31,23800.0
TRI,2006-09-01,23800.0
TRI,2006-09-05,24900.0
TRI,2006-09-06,24600.0
TRI,2006-09-07,24400.0
TRI,2006-09-08,25600.0
TRI,2006-09-11,26800.0
TRI,2006-09-12,25800.0
TRI,2006-09-13,26100.0
TRI,2006-09-14,25900.0
TRI,2006-09-15,25900.0
TRI,2006-09-18,25900.0
TRI,2006-09-19,25500.0
TRI,2006-09-20,25900.0
TRI,2006-09-21,26200.0
TRI,2006-09-22,26400.0
TRI,2006-09-25,27000.0
TRI,2006-09-26,27200.0
TRI,2006-09-27,27300.0
TRI,2006-09-28,27200.0
TRI,2006-09-29,26800.0
TRI,2006-10-02,27000.0
TRI,2006-10-03,27600.0
TRI,2006-10-04,27300.0
TRI,2006-10-05,26800.0
TRI,2006-10-06,27000.0
TRI,2006-10-09,28300.0
TRI,2006-10-10,27600.0
TRI,2006-10-11,27600.0
TRI,2006-10-12,27600.0
TRI,2006-10-13,26800.0
TRI,2006-10-16,26000.0
TRI,2006-10-17,25400.0
TRI,2006-10-18,25500.0
TRI,2006-10-19,26600.0
TRI,2006-10-20,25900.0
TRI,2006-10-23,25800.0
TRI,2006-10-24,25500.0
TRI,2006-10-25,25200.0
TRI,2006-10-26,25600.0
TRI,2006-10-27,25500.0
TRI,2006-10-30,24300.0
TRI,2006-10-31,24300.0
TRI,2006-11-01,25100.0
TRI,2006-11-02,25100.0
TRI,2006-11-03,25500.0
TRI,2006-11-06,25400.0
TRI,2006-11-07,25200.0
TRI,2006-11-08,24900.0
TRI,2006-11-09,24600.0
TRI,2006-11-10,24200.0
TRI,2006-11-13,24200.0
TRI,2006-11-14,24000.0
TRI,2006-11-15,24000.0
TRI,2006-11-16,23300.0
TRI,2006-11-17,23200.0
TRI,2006-11-20,23400.0
TRI,2006-11-21,23300.0
TRI,2006-11-22,24400.0
TRI,2006-11-23,25600.0
TRI,2006-11-24,26800.0
TRI,2006-11-27,25500.0
TRI,2006-11-28,25800.0
TRI,2006-11-29,24600.0
TRI,2006-11-30,24500.0
TRI,2006-12-01,24200.0
TRI,2006-12-04,25100.0
TRI,2006-12-05,24700.0
TRI,2006-12-06,24200.0
TRI,2006-12-07,23800.0
TRI,2006-12-08,23300.0
TRI,2006-12-11,24400.0
TRI,2006-12-12,25700.0
TRI,2006-12-13,26800.0
TRI,2006-12-14,28100.0
TRI,2006-12-15,29500.0
TRI,2006-12-18,30900.0
TRI,2006-12-19,32400.0
TRI,2006-12-20,34000.0
TRI,2006-12-21,33700.0
TRI,2006-12-22,32100.0
TRI,2006-12-25,30500.0
TRI,2006-12-26,29400.0
TRI,2006-12-27,30800.0
TRI,2006-12-28,32000.0
TRI,2006-12-29,33500.0
TRI,2007-01-02,32400.0
TRI,2007-01-03,32200.0
TRI,2007-01-04,32800.0
TRI,2007-01-05,32800.0
TRI,2007-01-08,31400.0
TRI,2007-01-09,32000.0
TRI,2007-01-10,32800.0
TRI,2007-01-11,32000.0
TRI,2007-01-12,31500.0
TRI,2007-01-15,31600.0
TRI,2007-01-16,33200.0
TRI,2007-01-17,33700.0
TRI,2007-01-18,33300.0
TRI,2007-01-19,33700.0
TRI,2007-01-22,32800.0
TRI,2007-01-23,32000.0
TRI,2007-01-24,31100.0
TRI,2007-01-25,30200.0
TRI,2007-01-26,28900.0
TRI,2007-01-29,30200.0
TRI,2007-01-30,31700.0
TRI,2007-01-31,33300.0
TRI,2007-02-01,34900.0
TRI,2007-02-02,36600.0
TRI,2007-02-05,38400.0
TRI,2007-02-06,40300.0
TRI,2007-02-07,42300.0
TRI,2007-02-08,42300.0
TRI,2007-02-09,40300.0
TRI,2007-02-12,38400.0
TRI,2007-02-13,38400.0
TRI,2007-02-14,40300.0
TRI,2007-02-15,42200.0
TRI,2007-02-26,44100.0
TRI,2007-02-27,45800.0
TRI,2007-02-28,43600.0
TRI,2007-03-01,42300.0
TRI,2007-03-02,43100.0
TRI,2007-03-05,43200.0
TRI,2007-03-06,42300.0
TRI,2007-03-07,44400.0
TRI,2007-03-08,46300.0
TRI,2007-03-09,48500.0
TRI,2007-03-12,49900.0
TRI,2007-03-13,50300.0
TRI,2007-03-14,48100.0
TRI,2007-03-15,45900.0
TRI,2007-03-16,48100.0
TRI,2007-03-19,50300.0
TRI,2007-03-20,50800.0
TRI,2007-03-21,51700.0
TRI,2007-03-22,53000.0
TRI,2007-03-23,54300.0
TRI,2007-03-26,51700.0
TRI,2007-03-27,49400.0
TRI,2007-03-28,47200.0
TRI,2007-03-29,49400.0
TRI,2007-03-30,51700.0
TRI,2007-04-02,50800.0
TRI,2007-04-03,48500.0
TRI,2007-04-04,50800.0
TRI,2007-04-05,49000.0
TRI,2007-04-06,46800.0
TRI,2007-04-09,46300.0
TRI,2007-04-10,47200.0
TRI,2007-04-11,46300.0
TRI,2007-04-12,44500.0
TRI,2007-04-13,42300.0
TRI,2007-04-16,40300.0
TRI,2007-04-17,38300.0
TRI,2007-04-18,40200.0
TRI,2007-04-19,42100.0
TRI,2007-04-20,43400.0
TRI,2007-04-23,41200.0
TRI,2007-04-24,41200.0
TRI,2007-04-25,43300.0
TRI,2007-05-02,43600.0
TRI,2007-05-03,45400.0
TRI,2007-05-04,47600.0
TRI,2007-05-07,48100.0
TRI,2007-05-08,48100.0
TRI,2007-05-09,46300.0
TRI,2007-05-10,45400.0
TRI,2007-05-11,46300.0
TRI,2007-05-14,48500.0
TRI,2007-05-15,49900.0
TRI,2007-05-16,48100.0
TRI,2007-05-17,47200.0
TRI,2007-05-18,48100.0
TRI,2007-05-21,47200.0
TRI,2007-05-22,48100.0
TRI,2007-05-23,50300.0
TRI,2007-05-24,48100.0
TRI,2007-05-25,49400.0
TRI,2007-05-28,49900.0
TRI,2007-05-29,48100.0
TRI,2007-05-30,45900.0
TRI,2007-05-31,48100.0
TRI,2007-06-01,48100.0
TRI,2007-06-04,47600.0
TRI,2007-06-05,47600.0
TRI,2007-06-06,48100.0
TRI,2007-06-07,48100.0
TRI,2007-06-08,47600.0
TRI,2007-06-11,46600.0
TRI,2007-06-12,46100.0
TRI,2007-06-13,47100.0
TRI,2007-06-14,47600.0
TRI,2007-06-15,48500.0
TRI,2007-06-18,50900.0
TRI,2007-06-19,50900.0
TRI,2007-06-20,50000.0
TRI,2007-06-21,49000.0
TRI,2007-06-22,48500.0
TRI,2007-06-25,47800.0
TRI,2007-06-26,48100.0
TRI,2007-06-27,47800.0
TRI,2007-06-28,48100.0
TRI,2007-06-29,50000.0
TRI,2007-07-02,47600.0
TRI,2007-07-03,45300.0
TRI,2007-07-04,45200.0
TRI,2007-07-05,45600.0
TRI,2007-07-06,45900.0
TRI,2007-07-09,45700.0
TRI,2007-07-10,46100.0
TRI,2007-07-11,46900.0
TRI,2007-07-12,46100.0
TRI,2007-07-13,46100.0
TRI,2007-07-16,46000.0
TRI,2007-07-17,45600.0
TRI,2007-07-18,45600.0
TRI,2007-07-19,45600.0
TRI,2007-07-20,45600.0
TRI,2007-07-23,45300.0
TRI,2007-07-24,45200.0
TRI,2007-07-25,44700.0
TRI,2007-07-26,44200.0
TRI,2007-07-27,43200.0
TRI,2007-07-30,41300.0
TRI,2007-07-31,40800.0
TRI,2007-08-01,41300.0
TRI,2007-08-02,41800.0
TRI,2007-08-03,42100.0
TRI,2007-08-06,40400.0
TRI,2007-08-07,40800.0
TRI,2007-08-08,41300.0
TRI,2007-08-09,41300.0
TRI,2007-08-10,40800.0
TRI,2007-08-13,38900.0
TRI,2007-08-14,40700.0
TRI,2007-08-15,40200.0
TRI,2007-08-16,39400.0
TRI,2007-08-17,38100.0
TRI,2007-08-20,38100.0
TRI,2007-08-21,39400.0
TRI,2007-08-22,40400.0
TRI,2007-08-23,39900.0
TRI,2007-08-24,40400.0
TRI,2007-08-27,40800.0
TRI,2007-08-28,38900.0
TRI,2007-08-29,40300.0
TRI,2007-08-30,39900.0
TRI,2007-08-31,40200.0
TRI,2007-09-04,42100.0
TRI,2007-09-05,44100.0
TRI,2007-09-06,46200.0
TRI,2007-09-07,48100.0
TRI,2007-09-10,50500.0
TRI,2007-09-11,52900.0
TRI,2007-09-12,50500.0
TRI,2007-09-13,48000.0
TRI,2007-09-14,48500.0
TRI,2007-09-17,50000.0
TRI,2007-09-18,48100.0
TRI,2007-09-19,48500.0
TRI,2007-09-20,49000.0
TRI,2007-09-21,49000.0
TRI,2007-09-24,48500.0
TRI,2007-09-25,49500.0
TRI,2007-09-26,49000.0
TRI,2007-09-27,48100.0
TRI,2007-09-28,49000.0
TRI,2007-10-01,50500.0
TRI,2007-10-02,49000.0
TRI,2007-10-03,50900.0
TRI,2007-10-04,53300.0
TRI,2007-10-05,55700.0
TRI,2007-10-08,53300.0
TRI,2007-10-09,52900.0
TRI,2007-10-10,52900.0
TRI,2007-10-11,52400.0
TRI,2007-10-12,54300.0
TRI,2007-10-15,53300.0
TRI,2007-10-16,53800.0
TRI,2007-10-17,53800.0
TRI,2007-10-18,51900.0
TRI,2007-10-19,51400.0
TRI,2007-10-22,49000.0
TRI,2007-10-23,48100.0
TRI,2007-10-24,50500.0
TRI,2007-10-25,51400.0
TRI,2007-10-26,50900.0
TRI,2007-10-29,49000.0
TRI,2007-10-30,48500.0
TRI,2007-10-31,48100.0
TRI,2007-11-01,47100.0
TRI,2007-11-02,47800.0
TRI,2007-11-05,45500.0
TRI,2007-11-06,44900.0
TRI,2007-11-07,45600.0
TRI,2007-11-08,45600.0
TRI,2007-11-09,44700.0
TRI,2007-11-12,44200.0
TRI,2007-11-13,42100.0
TRI,2007-11-14,44100.0
TRI,2007-11-15,44700.0
TRI,2007-11-16,44200.0
TRI,2007-11-19,43700.0
TRI,2007-11-20,43200.0
TRI,2007-11-21,43200.0
TRI,2007-11-22,43800.0
TRI,2007-11-23,43200.0
TRI,2007-11-26,44200.0
TRI,2007-11-27,44200.0
TRI,2007-11-28,44700.0
TRI,2007-11-29,44700.0
TRI,2007-11-30,44200.0
TRI,2007-12-03,43700.0
TRI,2007-12-04,44200.0
TRI,2007-12-05,43700.0
TRI,2007-12-06,43000.0
TRI,2007-12-07,43200.0
TRI,2007-12-10,42300.0
TRI,2007-12-11,42300.0
TRI,2007-12-12,42300.0
TRI,2007-12-13,42300.0
TRI,2007-12-14,41800.0
TRI,2007-12-17,40800.0
TRI,2007-12-18,42900.0
TRI,2007-12-19,45000.0
TRI,2007-12-20,44200.0
TRI,2007-12-21,45600.0
TRI,2007-12-24,44400.0
TRI,2007-12-25,43700.0
TRI,2007-12-26,43200.0
TRI,2007-12-27,44000.0
TRI,2007-12-28,43700.0
TRI,2008-01-02,45200.0
TRI,2008-01-03,45200.0
TRI,2008-01-04,44000.0
TRI,2008-01-07,42500.0
TRI,2008-01-08,43000.0
TRI,2008-01-09,42300.0
TRI,2008-01-10,40500.0
TRI,2008-01-11,41800.0
TRI,2008-01-14,40400.0
TRI,2008-01-15,38300.0
TRI,2008-01-16,40200.0
TRI,2008-01-17,41600.0
TRI,2008-01-18,43600.0
TRI,2008-01-21,42300.0
TRI,2008-01-22,41300.0
TRI,2008-01-23,39300.0
TRI,2008-01-24,41200.0
TRI,2008-01-25,40800.0
TRI,2008-01-28,40400.0
TRI,2008-01-29,41100.0
TRI,2008-01-30,43200.0
TRI,2008-01-31,43200.0
TRI,2008-02-01,45000.0
TRI,2008-02-12,42800.0
TRI,2008-02-13,41300.0
TRI,2008-02-14,42800.0
TRI,2008-02-15,42300.0
TRI,2008-02-18,40400.0
TRI,2008-02-19,40400.0
TRI,2008-02-20,38300.0
TRI,2008-02-21,36500.0
TRI,2008-02-22,35100.0
TRI,2008-02-25,36800.0
TRI,2008-02-26,37000.0
TRI,2008-02-27,37000.0
TRI,2008-02-28,37000.0
TRI,2008-02-29,35200.0
TRI,2008-03-03,33500.0
TRI,2008-03-04,31900.0
TRI,2008-03-05,30600.0
TRI,2008-03-06,32100.0
TRI,2008-03-07,33700.0
TRI,2008-03-10,35000.0
TRI,2008-03-11,36000.0
TRI,2008-03-12,36000.0
TRI,2008-03-13,34200.0
TRI,2008-03-14,33300.0
TRI,2008-03-17,31700.0
TRI,2008-03-18,30200.0
TRI,2008-03-19,28700.0
TRI,2008-03-20,28000.0
TRI,2008-03-21,28500.0
TRI,2008-03-24,27100.0
TRI,2008-03-25,25800.0
TRI,2008-03-26,27000.0
TRI,2008-03-27,27200.0
TRI,2008-03-28,27400.0
TRI,2008-03-31,27600.0
TRI,2008-04-01,27800.0
TRI,2008-04-02,28000.0
TRI,2008-04-03,28200.0
TRI,2008-04-04,28400.0
TRI,2008-04-07,28900.0
TRI,2008-04-08,28600.0
TRI,2008-04-09,29100.0
TRI,2008-04-10,29000.0
TRI,2008-04-11,28500.0
TRI,2008-04-16,28000.0
TRI,2008-04-17,28500.0
TRI,2008-04-18,28500.0
TRI,2008-04-21,28400.0
TRI,2008-04-22,28200.0
TRI,2008-04-23,27700.0
TRI,2008-04-24,27200.0
TRI,2008-04-25,26700.0
TRI,2008-04-28,27200.0
TRI,2008-04-29,27700.0
TRI,2008-05-05,27200.0
TRI,2008-05-06,26700.0
TRI,2008-05-07,26200.0
TRI,2008-05-08,25700.0
TRI,2008-05-09,25200.0
TRI,2008-05-12,24700.0
TRI,2008-05-13,24300.0
TRI,2008-05-14,23900.0
TRI,2008-05-15,23500.0
TRI,2008-05-16,23100.0
TRI,2008-05-19,22700.0
TRI,2008-05-20,22300.0
TRI,2008-05-21,21900.0
TRI,2008-05-22,21500.0
TRI,2008-05-23,21100.0
TRI,2008-05-26,20700.0
TRI,2008-05-30,20300.0
TRI,2008-06-02,19900.0
TRI,2008-06-03,19600.0
TRI,2008-06-04,19300.0
TRI,2008-06-05,19000.0
TRI,2008-06-06,18700.0
TRI,2008-06-09,18400.0
TRI,2008-06-10,18100.0
TRI,2008-06-11,18400.0
TRI,2008-06-12,18700.0
TRI,2008-06-13,19000.0
TRI,2008-06-16,19300.0
TRI,2008-06-17,19500.0
TRI,2008-06-18,19500.0
TRI,2008-06-19,19000.0
TRI,2008-06-20,18500.0
TRI,2008-06-23,18900.0
TRI,2008-06-24,19400.0
TRI,2008-06-25,19700.0
TRI,2008-06-26,19200.0
TRI,2008-06-27,19300.0
TRI,2008-06-30,18800.0
TRI,2008-07-01,19300.0
TRI,2008-07-02,19500.0
TRI,2008-07-03,20000.0
TRI,2008-07-04,20600.0
TRI,2008-07-07,20000.0
TRI,2008-07-08,20600.0
TRI,2008-07-09,20500.0
TRI,2008-07-10,20500.0
TRI,2008-07-11,21000.0
TRI,2008-07-14,21600.0
TRI,2008-07-15,22200.0
TRI,2008-07-16,22400.0
TRI,2008-07-17,21800.0
TRI,2008-07-18,21200.0
TRI,2008-07-21,20600.0
TRI,2008-07-22,20000.0
TRI,2008-07-23,20000.0
TRI,2008-07-24,19400.0
TRI,2008-07-25,18900.0
TRI,2008-07-28,18400.0
TRI,2008-07-29,17900.0
TRI,2008-07-30,17400.0
TRI,2008-07-31,16900.0
TRI,2008-08-01,16400.0
TRI,2008-08-04,16000.0
TRI,2008-08-05,15600.0
TRI,2008-08-06,15200.0
TRI,2008-08-07,14900.0
TRI,2008-08-08,15300.0
TRI,2008-08-11,15700.0
TRI,2008-08-12,16000.0
TRI,2008-08-13,16400.0
TRI,2008-08-14,16800.0
TRI,2008-08-15,17300.0
TRI,2008-08-18,18000.0
TRI,2008-08-19,18000.0
TRI,2008-08-20,17100.0
TRI,2008-08-21,16400.0
TRI,2008-08-22,17200.0
TRI,2008-08-25,17900.0
TRI,2008-08-26,18700.0
TRI,2008-08-27,19400.0
TRI,2008-08-28,18500.0
TRI,2008-08-29,17600.0
TRI,2008-09-03,18400.0
TRI,2008-09-04,18500.0
TRI,2008-09-05,17900.0
TRI,2008-09-08,17900.0
TRI,2008-09-09,18600.0
TRI,2008-09-10,17700.0
TRI,2008-09-11,16900.0
TRI,2008-09-12,16800.0
TRI,2008-09-15,16000.0
TRI,2008-09-16,15200.0
TRI,2008-09-17,14500.0
TRI,2008-09-18,15000.0
TRI,2008-09-19,15700.0
TRI,2008-09-22,16400.0
TRI,2008-09-23,17200.0
TRI,2008-09-24,18000.0
TRI,2008-09-25,18000.0
TRI,2008-09-26,18700.0
TRI,2008-09-29,18000.0
TRI,2008-09-30,17100.0
TRI,2008-10-01,16300.0
TRI,2008-10-02,16500.0
TRI,2008-10-03,16500.0
TRI,2008-10-06,15700.0
TRI,2008-10-07,15000.0
TRI,2008-10-08,15000.0
TRI,2008-10-09,14500.0
TRI,2008-10-10,13800.0
TRI,2008-10-13,13200.0
TRI,2008-10-14,13800.0
TRI,2008-10-15,14400.0
TRI,2008-10-16,13700.0
TRI,2008-10-17,14300.0
TRI,2008-10-20,13600.0
TRI,2008-10-21,13200.0
TRI,2008-10-22,12700.0
TRI,2008-10-23,12100.0
TRI,2008-10-24,11500.0
TRI,2008-10-27,11000.0
TRI,2008-10-28,10500.0
TRI,2008-10-29,10200.0
TRI,2008-10-30,10700.0
TRI,2008-10-31,11200.0
TRI,2008-11-03,11300.0
TRI,2008-11-04,11400.0
TRI,2008-11-05,11900.0
TRI,2008-11-06,11900.0
TRI,2008-11-07,11400.0
TRI,2008-11-10,11400.0
TRI,2008-11-11,10900.0
TRI,2008-11-12,10400.0
TRI,2008-11-13,9900.0
TRI,2008-11-14,9500.0
TRI,2008-11-17,9900.0
TRI,2008-11-18,9500.0
TRI,2008-11-19,9500.0
TRI,2008-11-20,9100.0
TRI,2008-11-21,8700.0
TRI,2008-11-24,8600.0
TRI,2008-11-25,8400.0
TRI,2008-11-26,8100.0
TRI,2008-11-27,8000.0
TRI,2008-11-28,8400.0
TRI,2008-12-01,8000.0
TRI,2008-12-02,7800.0
TRI,2008-12-03,7600.0
TRI,2008-12-04,7900.0
TRI,2008-12-05,7600.0
TRI,2008-12-08,7300.0
TRI,2008-12-09,7000.0
TRI,2008-12-10,6700.0
TRI,2008-12-11,7000.0
TRI,2008-12-12,7300.0
TRI,2008-12-15,7600.0
TRI,2008-12-16,7600.0
TRI,2008-12-17,7700.0
TRI,2008-12-18,7800.0
TRI,2008-12-19,8000.0
TRI,2008-12-22,7700.0
TRI,2008-12-23,7500.0
TRI,2008-12-24,7500.0
TRI,2008-12-25,7400.0
TRI,2008-12-26,7700.0
TRI,2008-12-29,7600.0
TRI,2008-12-30,7700.0
TRI,2008-12-31,7700.0
TRI,2009-01-02,7800.0
TRI,2009-01-05,7600.0
TRI,2009-01-06,7900.0
TRI,2009-01-07,8000.0
TRI,2009-01-08,7800.0
TRI,2009-01-09,7800.0
TRI,2009-01-12,7800.0
TRI,2009-01-13,7700.0
TRI,2009-01-14,7700.0
TRI,2009-01-15,7500.0
TRI,2009-01-16,7500.0
TRI,2009-01-19,7500.0
TRI,2009-01-20,7500.0
TRI,2009-01-21,7200.0
TRI,2009-01-22,7300.0
TRI,2009-01-23,7500.0
TRI,2009-02-02,7200.0
TRI,2009-02-03,7000.0
TRI,2009-02-04,6700.0
TRI,2009-02-05,6400.0
TRI,2009-02-06,6100.0
TRI,2009-02-09,5800.0
TRI,2009-02-10,5600.0
TRI,2009-02-11,5400.0
TRI,2009-02-12,5200.0
TRI,2009-02-13,5000.0
TRI,2009-02-16,4800.0
TRI,2009-02-17,4600.0
TRI,2009-02-18,4800.0
TRI,2009-02-19,5000.0
TRI,2009-02-20,5200.0
TRI,2009-02-23,5000.0
TRI,2009-02-24,4800.0
TRI,2009-02-25,5000.0
TRI,2009-02-26,5100.0
TRI,2009-02-27,5100.0
TRI,2009-03-02,5300.0
TRI,2009-03-03,5500.0
TRI,2009-03-04,5700.0
TRI,2009-03-05,5900.0
TRI,2009-03-06,6100.0
TRI,2009-03-09,6400.0
TRI,2009-03-10,6700.0
TRI,2009-03-11,7000.0
TRI,2009-03-12,7300.0
TRI,2009-03-13,7600.0
TRI,2009-03-16,7900.0
TRI,2009-03-17,8200.0
TRI,2009-03-18,8600.0
TRI,2009-03-19,8200.0
TRI,2009-03-20,7800.0
TRI,2009-03-23,7500.0
TRI,2009-03-24,7800.0
TRI,2009-03-25,8100.0
TRI,2009-03-26,7900.0
TRI,2009-03-27,7900.0
TRI,2009-03-30,7600.0
TRI,2009-03-31,7300.0
TRI,2009-04-01,7600.0
TRI,2009-04-02,7900.0
TRI,2009-04-03,8200.0
TRI,2009-04-07,8200.0
TRI,2009-04-08,7800.0
TRI,2009-04-09,7500.0
TRI,2009-04-10,7800.0
TRI,2009-04-13,8100.0
TRI,2009-04-14,8200.0
TRI,2009-04-15,7800.0
TRI,2009-04-16,7600.0
TRI,2009-04-17,7600.0
TRI,2009-04-20,7300.0
TRI,2009-04-21,7000.0
TRI,2009-04-22,7300.0
TRI,2009-04-23,7500.0
TRI,2009-04-24,7500.0
TRI,2009-04-27,7500.0
TRI,2009-04-28,7400.0
TRI,2009-04-29,7400.0
TRI,2009-05-04,7700.0
TRI,2009-05-05,8000.0
TRI,2009-05-06,7600.0
TRI,2009-05-07,7700.0
TRI,2009-05-08,7400.0
TRI,2009-05-11,7300.0
TRI,2009-05-12,7600.0
TRI,2009-05-13,7900.0
TRI,2009-05-14,8200.0
TRI,2009-05-15,8600.0
TRI,2009-05-18,8200.0
TRI,2009-05-19,8600.0
TRI,2009-05-20,9000.0
TRI,2009-05-21,9400.0
TRI,2009-05-22,9600.0
TRI,2009-05-25,10000.0
TRI,2009-05-26,10500.0
TRI,2009-05-27,11000.0
TRI,2009-05-28,11500.0
TRI,2009-05-29,12000.0
TRI,2009-06-01,12100.0
TRI,2009-06-02,12400.0
TRI,2009-06-03,12300.0
TRI,2009-06-04,12900.0
TRI,2009-06-05,13500.0
TRI,2009-06-08,14100.0
TRI,2009-06-09,14800.0
TRI,2009-06-10,14100.0
TRI,2009-06-11,14800.0
TRI,2009-06-12,15500.0
TRI,2009-06-15,16200.0
TRI,2009-06-16,15400.0
TRI,2009-06-17,14700.0
TRI,2009-06-18,14100.0
TRI,2009-06-19,13400.0
TRI,2009-06-22,12800.0
TRI,2009-06-23,12200.0
TRI,2009-06-24,12800.0
TRI,2009-06-25,12400.0
TRI,2009-06-26,12800.0
TRI,2009-06-29,12200.0
TRI,2009-06-30,11600.0
TRI,2009-07-01,11100.0
TRI,2009-07-02,11200.0
TRI,2009-07-03,11700.0
TRI,2009-07-06,12200.0
TRI,2009-07-07,12000.0
TRI,2009-07-08,12000.0
TRI,2009-07-09,12000.0
TRI,2009-07-10,11600.0
TRI,2009-07-13,11100.0
TRI,2009-07-14,10800.0
TRI,2009-07-15,11300.0
TRI,2009-07-16,11500.0
TRI,2009-07-17,11300.0
TRI,2009-07-20,10800.0
TRI,2009-07-21,11100.0
TRI,2009-07-22,11100.0
TRI,2009-07-23,10900.0
TRI,2009-07-24,11400.0
TRI,2009-07-27,11900.0
TRI,2009-07-28,11400.0
TRI,2009-07-29,10900.0
TRI,2009-07-30,10600.0
TRI,2009-07-31,11000.0
TRI,2009-08-03,11000.0
TRI,2009-08-04,11000.0
TRI,2009-08-05,10600.0
TRI,2009-08-06,10900.0
TRI,2009-08-07,10800.0
TRI,2009-08-10,10900.0
TRI,2009-08-11,10900.0
TRI,2009-08-12,10800.0
TRI,2009-08-13,11100.0
TRI,2009-08-14,10800.0
TRI,2009-08-17,10800.0
TRI,2009-08-18,10800.0
TRI,2009-08-19,10900.0
TRI,2009-08-20,11000.0
TRI,2009-08-21,11000.0
TRI,2009-08-24,11500.0
TRI,2009-08-25,11400.0
TRI,2009-08-26,11300.0
TRI,2009-08-27,11300.0
TRI,2009-08-28,11500.0
TRI,2009-08-31,12000.0
TRI,2009-09-01,12600.0
TRI,2009-09-03,13200.0
TRI,2009-09-04,12700.0
TRI,2009-09-08,12700.0
TRI,2009-09-09,12300.0
TRI,2009-09-10,12400.0
TRI,2009-09-11,12300.0
TRI,2009-09-14,12100.0
TRI,2009-09-15,12000.0
TRI,2009-09-16,12100.0
TRI,2009-09-17,12300.0
TRI,2009-09-18,12100.0
TRI,2009-09-21,12000.0
TRI,2009-09-22,11800.0
TRI,2009-09-23,11800.0
TRI,2009-09-24,11800.0
TRI,2009-09-25,11500.0
TRI,2009-09-28,11600.0
TRI,2009-09-29,11800.0
TRI,2009-09-30,11600.0
TRI,2009-10-01,11300.0
TRI,2009-10-02,11300.0
TRI,2009-10-05,11300.0
TRI,2009-10-06,11400.0
TRI,2009-10-07,11400.0
TRI,2009-10-08,11100.0
TRI,2009-10-09,11500.0
TRI,2009-10-12,11500.0
TRI,2009-10-13,11300.0
TRI,2009-10-14,11500.0
TRI,2009-10-15,11700.0
TRI,2009-10-16,11500.0
TRI,2009-10-19,12000.0
TRI,2009-10-20,12600.0
TRI,2009-10-21,13200.0
TRI,2009-10-22,13100.0
TRI,2009-10-23,12500.0
TRI,2009-10-26,11900.0
TRI,2009-10-27,12000.0
TRI,2009-10-28,12000.0
TRI,2009-10-29,11500.0
TRI,2009-10-30,11000.0
TRI,2009-11-02,10500.0
TRI,2009-11-03,10000.0
TRI,2009-11-04,10500.0
TRI,2009-11-05,11000.0
TRI,2009-11-06,11200.0
TRI,2009-11-09,10700.0
TRI,2009-11-10,10500.0
TRI,2009-11-11,10800.0
TRI,2009-11-12,11000.0
TRI,2009-11-13,10900.0
TRI,2009-11-16,10600.0
TRI,2009-11-17,10800.0
TRI,2009-11-18,10600.0
TRI,2009-11-19,10500.0
TRI,2009-11-20,10500.0
TRI,2009-11-23,10400.0
TRI,2009-11-24,10500.0
TRI,2009-11-25,10000.0
TRI,2009-11-26,9500.0
TRI,2009-11-27,9900.0
TRI,2009-11-30,10000.0
TRI,2009-12-01,10400.0
TRI,2009-12-02,9900.0
TRI,2009-12-03,9600.0
TRI,2009-12-04,9700.0
TRI,2009-12-07,9600.0
TRI,2009-12-08,9400.0
TRI,2009-12-09,9100.0
TRI,2009-12-10,9500.0
TRI,2009-12-11,9100.0
TRI,2009-12-14,9400.0
TRI,2009-12-15,9000.0
TRI,2009-12-16,8600.0
TRI,2009-12-17,8500.0
TRI,2009-12-18,8900.0
TRI,2009-12-21,9300.0
TRI,2009-12-22,8900.0
TRI,2009-12-23,9000.0
TRI,2009-12-24,9000.0
TRI,2009-12-25,9100.0
TRI,2009-12-28,9200.0
TRI,2009-12-29,9000.0
TRI,2009-12-30,9200.0
TRI,2009-12-31,9300.0
TRI,2010-01-04,9700.0
TRI,2010-01-05,10100.0
TRI,2010-01-06,10200.0
TRI,2010-01-07,9700.0
TRI,2010-01-08,9500.0
TRI,2010-01-11,9700.0
TRI,2010-01-12,9300.0
TRI,2010-01-13,9300.0
TRI,2010-01-14,9000.0
TRI,2010-01-15,8900.0
TRI,2010-01-18,8500.0
TRI,2010-01-19,8800.0
TRI,2010-01-20,8500.0
TRI,2010-01-21,8400.0
TRI,2010-01-22,8100.0
TRI,2010-01-25,8200.0
TRI,2010-01-26,8600.0
TRI,2010-01-27,8300.0
TRI,2010-01-28,8100.0
TRI,2010-01-29,8100.0
TRI,2010-02-01,8100.0
TRI,2010-02-02,8100.0
TRI,2010-02-03,8300.0
TRI,2010-02-04,8500.0
TRI,2010-02-05,8500.0
TRI,2010-02-08,8300.0
TRI,2010-02-09,7900.0
TRI,2010-02-10,8100.0
TRI,2010-02-11,8000.0
TRI,2010-02-12,7900.0
TRI,2010-02-22,7600.0
TRI,2010-02-23,7300.0
TRI,2010-02-24,7000.0
TRI,2010-02-25,6700.0
TRI,2010-02-26,6400.0
TRI,2010-03-01,6100.0
TRI,2010-03-02,5800.0
TRI,2010-03-03,5800.0
TRI,2010-03-04,6000.0
TRI,2010-03-05,6300.0
TRI,2010-03-08,6600.0
TRI,2010-03-09,6900.0
TRI,2010-03-10,7200.0
TRI,2010-03-11,7500.0
TRI,2010-03-12,7800.0
TRI,2010-03-15,8100.0
TRI,2010-03-16,8400.0
TRI,2010-03-17,8000.0
TRI,2010-03-18,7600.0
TRI,2010-03-19,7300.0
TRI,2010-03-22,7000.0
TRI,2010-03-23,6700.0
TRI,2010-03-24,6400.0
TRI,2010-03-25,6400.0
TRI,2010-03-26,6400.0
TRI,2010-03-29,6400.0
TRI,2010-03-30,6400.0
TRI,2010-03-31,6400.0
TRI,2010-04-01,6400.0
TRI,2010-04-02,6400.0
TRI,2010-04-05,6400.0
TRI,2010-04-06,6400.0
TRI,2010-04-07,6400.0
TRI,2010-04-08,6400.0
TRI,2010-04-09,6400.0
TRI,2010-04-12,6400.0
TRI,2010-04-13,6400.0
TRI,2010-04-14,6400.0
TRI,2010-04-15,6400.0
TRI,2010-04-16,6400.0
TRI,2010-04-19,6400.0
TRI,2010-04-20,6400.0
TRI,2010-04-21,6400.0
TRI,2010-04-22,6400.0
TRI,2010-04-26,6400.0
TRI,2010-04-27,6400.0
TRI,2010-04-28,6400.0
TRI,2010-04-29,6400.0
TRI,2010-05-04,6400.0
TRI,2010-05-05,6400.0
TRI,2010-05-06,6400.0
TRI,2010-05-07,6400.0
TRI,2010-05-10,6400.0
TRI,2010-05-11,6400.0
TRI,2010-05-12,6400.0
TRI,2010-05-13,6400.0
TRI,2010-05-14,6400.0
TRI,2010-05-17,6400.0
TRI,2010-05-18,6400.0
TRI,2010-05-19,6400.0
TRI,2010-05-20,6400.0
TRI,2010-05-21,6400.0
TRI,2010-05-24,6400.0
TRI,2010-05-25,6400.0
TRI,2010-05-26,6400.0
TRI,2010-05-27,6400.0
TRI,2010-05-28,6400.0
TRI,2010-05-31,6400.0
TRI,2010-06-01,6400.0
TRI,2010-06-02,6400.0
TRI,2010-06-03,6400.0
TRI,2010-06-04,6400.0
TRI,2010-06-07,6400.0
TRI,2010-06-08,6400.0
TRI,2010-06-09,6400.0
TRI,2010-06-10,6400.0
TRI,2010-06-11,6400.0
TRI,2010-06-14,6400.0
TRI,2010-06-15,6400.0
TRI,2010-06-16,6400.0
TRI,2010-06-17,6400.0
TRI,2010-06-18,6400.0
TRI,2010-06-21,6400.0
TRI,2010-06-22,6700.0
TRI,2010-06-23,7000.0
TRI,2010-06-24,7300.0
TRI,2010-06-25,7600.0
TRI,2010-06-28,7900.0
TRI,2010-06-29,8200.0
TRI,2010-06-30,8600.0
TRI,2010-07-01,9000.0
TRI,2010-07-02,9400.0
TRI,2010-07-05,9800.0
TRI,2010-07-06,10200.0
TRI,2010-07-07,10700.0
TRI,2010-07-08,10200.0
TRI,2010-07-09,9700.0
TRI,2010-07-12,9300.0
TRI,2010-07-13,8900.0
TRI,2010-07-14,9300.0
TRI,2010-07-15,9700.0
TRI,2010-07-16,9300.0
TRI,2010-07-19,9000.0
TRI,2010-07-20,9400.0
TRI,2010-07-21,9400.0
TRI,2010-07-22,9000.0
TRI,2010-07-23,8700.0
TRI,2010-07-26,8400.0
TRI,2010-07-27,8000.0
TRI,2010-07-28,7900.0
TRI,2010-07-29,8200.0
TRI,2010-07-30,7800.0
TRI,2010-08-02,7800.0
TRI,2010-08-03,7900.0
TRI,2010-08-04,8000.0
TRI,2010-08-05,7900.0
TRI,2010-08-06,7600.0
TRI,2010-08-09,7300.0
TRI,2010-08-10,7000.0
TRI,2010-08-11,7000.0
TRI,2010-08-12,6700.0
TRI,2010-08-13,7000.0
TRI,2010-08-16,7300.0
TRI,2010-08-17,7600.0
TRI,2010-08-18,7700.0
TRI,2010-08-19,8000.0
TRI,2010-08-20,8400.0
TRI,2010-08-23,8800.0
TRI,2010-08-24,8400.0
TRI,2010-08-25,8000.0
TRI,2010-08-26,7600.0
TRI,2010-08-27,7300.0
TRI,2010-08-30,7600.0
TRI,2010-08-31,7900.0
TRI,2010-09-01,7600.0
TRI,2010-09-06,7800.0
TRI,2010-09-07,7500.0
TRI,2010-09-08,7300.0
TRI,2010-09-09,7500.0
TRI,2010-09-10,7200.0
TRI,2010-09-13,7100.0
TRI,2010-09-14,7300.0
TRI,2010-09-15,7100.0
TRI,2010-09-16,6900.0
TRI,2010-09-17,7200.0
TRI,2010-09-20,7300.0
TRI,2010-09-21,7200.0
TRI,2010-09-22,7300.0
TRI,2010-09-23,7000.0
TRI,2010-09-24,7000.0
TRI,2010-09-27,7200.0
TRI,2010-09-28,7100.0
TRI,2010-09-29,6900.0
TRI,2010-09-30,7000.0
TRI,2010-10-01,6900.0
TRI,2010-10-04,6600.0
TRI,2010-10-05,6600.0
TRI,2010-10-06,6400.0
TRI,2010-10-07,6700.0
TRI,2010-10-08,6500.0
TRI,2010-10-11,6400.0
TRI,2010-10-12,6200.0
TRI,2010-10-13,6300.0
TRI,2010-10-14,6100.0
TRI,2010-10-15,5900.0
TRI,2010-10-18,6100.0
TRI,2010-10-19,5800.0
TRI,2010-10-20,5600.0
TRI,2010-10-21,5800.0
TRI,2010-10-22,5800.0
TRI,2010-10-25,5600.0
TRI,2010-10-26,5800.0
TRI,2010-10-27,5600.0
TRI,2010-10-28,5700.0
TRI,2010-10-29,5600.0
TRI,2010-11-01,5400.0
TRI,2010-11-02,5600.0
TRI,2010-11-03,5800.0
TRI,2010-11-04,5600.0
TRI,2010-11-05,5400.0
TRI,2010-11-08,5400.0
TRI,2010-11-09,5300.0
TRI,2010-11-10,5400.0
TRI,2010-11-11,5200.0
TRI,2010-11-12,5300.0
TRI,2010-11-15,5100.0
TRI,2010-11-16,4900.0
TRI,2010-11-17,4700.0
TRI,2010-11-18,4900.0
TRI,2010-11-19,5100.0
TRI,2010-11-22,5100.0
TRI,2010-11-23,5000.0
TRI,2010-11-24,5200.0
TRI,2010-11-25,5400.0
TRI,2010-11-26,5600.0
TRI,2010-11-29,5800.0
TRI,2010-11-30,6000.0
TRI,2010-12-01,6100.0
TRI,2010-12-02,6000.0
TRI,2010-12-03,6300.0
TRI,2010-12-06,6200.0
TRI,2010-12-07,5900.0
TRI,2010-12-08,5700.0
TRI,2010-12-09,5900.0
TRI,2010-12-10,6100.0
TRI,2010-12-13,6300.0
TRI,2010-12-14,6000.0
TRI,2010-12-15,5700.0
TRI,2010-12-16,5900.0
TRI,2010-12-17,6100.0
TRI,2010-12-20,6000.0
TRI,2010-12-21,6300.0
TRI,2010-12-22,6000.0
TRI,2010-12-23,5800.0
TRI,2010-12-24,5800.0
TRI,2010-12-27,5800.0
TRI,2010-12-28,6000.0
TRI,2010-12-29,6000.0
TRI,2010-12-30,6000.0
TRI,2010-12-31,6100.0
TRI,2011-01-04,5900.0
TRI,2011-01-05,6100.0
TRI,2011-01-06,5800.0
TRI,2011-01-07,5800.0
TRI,2011-01-10,5800.0
TRI,2011-01-11,5800.0
TRI,2011-01-12,5800.0
TRI,2011-01-13,5800.0
TRI,2011-01-14,5800.0
TRI,2011-01-17,5800.0
TRI,2011-01-18,5700.0
TRI,2011-01-19,5700.0
TRI,2011-01-20,5800.0
TRI,2011-01-21,5600.0
TRI,2011-01-24,5500.0
TRI,2011-01-25,5400.0
TRI,2011-01-26,5200.0
TRI,2011-01-27,5200.0
TRI,2011-01-28,5200.0
TRI,2011-02-08,5400.0
TRI,2011-02-09,5600.0
TRI,2011-02-10,5500.0
TRI,2011-02-11,5400.0
TRI,2011-02-14,5500.0
TRI,2011-02-15,5700.0
TRI,2011-02-16,5700.0
TRI,2011-02-17,5500.0
TRI,2011-02-18,5300.0
TRI,2011-02-21,5100.0
TRI,2011-02-22,4900.0
TRI,2011-02-23,4900.0
TRI,2011-02-24,4700.0
TRI,2011-02-25,4500.0
TRI,2011-02-28,4700.0
TRI,2011-03-01,4800.0
TRI,2011-03-02,4600.0
TRI,2011-03-03,4400.0
TRI,2011-03-04,4200.0
TRI,2011-03-07,4100.0
TRI,2011-03-08,4300.0
TRI,2011-03-09,4500.0
TRI,2011-03-10,4700.0
TRI,2011-03-11,4900.0
TRI,2011-03-14,4900.0
TRI,2011-03-15,4700.0
TRI,2011-03-16,4500.0
TRI,2011-03-17,4300.0
TRI,2011-03-18,4500.0
TRI,2011-03-21,4400.0
TRI,2011-03-22,4600.0
TRI,2011-03-23,4500.0
TRI,2011-03-24,4400.0
TRI,2011-03-25,4300.0
TRI,2011-03-28,4500.0
TRI,2011-03-29,4700.0
TRI,2011-03-30,4800.0
TRI,2011-03-31,4800.0
TRI,2011-04-01,4600.0
TRI,2011-04-04,4500.0
TRI,2011-04-05,4300.0
TRI,2011-04-06,4300.0
TRI,2011-04-07,4400.0
TRI,2011-04-08,4600.0
TRI,2011-04-13,4500.0
TRI,2011-04-14,4500.0
TRI,2011-04-15,4300.0
TRI,2011-04-18,4100.0
TRI,2011-04-19,3900.0
TRI,2011-04-20,4000.0
TRI,2011-04-21,3800.0
TRI,2011-04-22,3700.0
TRI,2011-04-25,3800.0
TRI,2011-04-26,3900.0
TRI,2011-04-27,4000.0
TRI,2011-04-28,4100.0
TRI,2011-04-29,4200.0
TRI,2011-05-04,4400.0
TRI,2011-05-05,4200.0
TRI,2011-05-06,4200.0
TRI,2011-05-09,4400.0
TRI,2011-05-10,4200.0
TRI,2011-05-11,4000.0
TRI,2011-05-12,4200.0
TRI,2011-05-13,4000.0
TRI,2011-05-16,3800.0
TRI,2011-05-17,3700.0
TRI,2011-05-18,3800.0
TRI,2011-05-19,3700.0
TRI,2011-05-20,3800.0
TRI,2011-05-23,3900.0
TRI,2011-05-24,3900.0
TRI,2011-05-25,3900.0
TRI,2011-05-26,3800.0
TRI,2011-05-27,3900.0
TRI,2011-05-30,3800.0
TRI,2011-05-31,3700.0
TRI,2011-06-01,3700.0
TRI,2011-06-02,3800.0
TRI,2011-06-03,3900.0
TRI,2011-06-06,3800.0
TRI,2011-06-07,3900.0
TRI,2011-06-08,3900.0
TRI,2011-06-09,3800.0
TRI,2011-06-10,3800.0
TRI,2011-06-13,3900.0
TRI,2011-06-14,4000.0
TRI,2011-06-15,3800.0
TRI,2011-06-16,3800.0
TRI,2011-06-17,3700.0
TRI,2011-06-20,3700.0
TRI,2011-06-21,3800.0
TRI,2011-06-22,3700.0
TRI,2011-06-23,3800.0
TRI,2011-06-24,3900.0
TRI,2011-06-27,4000.0
TRI,2011-06-28,3800.0
TRI,2011-06-29,3700.0
TRI,2011-06-30,3600.0
TRI,2011-07-01,3500.0
TRI,2011-07-04,3400.0
TRI,2011-07-05,3400.0
TRI,2011-07-06,3500.0
TRI,2011-07-07,3400.0
TRI,2011-07-08,3500.0
TRI,2011-07-11,3600.0
TRI,2011-07-12,3700.0
TRI,2011-07-13,3700.0
TRI,2011-07-14,3700.0
TRI,2011-07-15,3800.0
TRI,2011-07-18,3800.0
TRI,2011-07-19,3800.0
TRI,2011-07-20,3700.0
TRI,2011-07-21,3600.0
TRI,2011-07-22,3500.0
TRI,2011-07-25,3400.0
TRI,2011-07-26,3500.0
TRI,2011-07-27,3500.0
TRI,2011-07-28,3500.0
TRI,2011-07-29,3500.0
TRI,2011-08-01,3600.0
TRI,2011-08-02,3700.0
TRI,2011-08-03,3700.0
TRI,2011-08-04,3600.0
TRI,2011-08-05,3500.0
TRI,2011-08-08,3600.0
TRI,2011-08-09,3500.0
TRI,2011-08-10,3400.0
TRI,2011-08-11,3500.0
TRI,2011-08-12,3600.0
TRI,2011-08-15,3500.0
TRI,2011-08-16,3400.0
TRI,2011-08-17,3400.0
TRI,2011-08-18,3300.0
TRI,2011-08-19,3200.0
TRI,2011-08-22,3200.0
TRI,2011-08-23,3300.0
TRI,2011-08-24,3200.0
TRI,2011-08-25,3300.0
TRI,2011-08-26,3200.0
TRI,2011-08-29,3100.0
TRI,2011-08-30,3000.0
TRI,2011-08-31,2900.0
TRI,2011-09-01,3000.0
TRI,2011-09-05,3000.0
TRI,2011-09-06,2900.0
TRI,2011-09-07,3000.0
TRI,2011-09-08,3100.0
TRI,2011-09-09,3200.0
TRI,2011-09-12,3200.0
TRI,2011-09-13,3200.0
TRI,2011-09-14,3100.0
TRI,2011-09-15,3000.0
TRI,2011-09-16,2900.0
TRI,2011-09-19,3000.0
TRI,2011-09-20,2900.0
TRI,2011-09-21,3000.0
TRI,2011-09-22,3000.0
TRI,2011-09-23,3000.0
TRI,2011-09-26,2900.0
TRI,2011-09-27,2900.0
TRI,2011-09-28,3000.0
TRI,2011-09-29,3000.0
TRI,2011-09-30,2900.0
TRI,2011-10-03,2900.0
TRI,2011-10-04,2800.0
TRI,2011-10-05,2700.0
TRI,2011-10-06,2700.0
TRI,2011-10-07,2600.0
TRI,2011-10-10,2700.0
TRI,2011-10-11,2700.0
TRI,2011-10-12,2800.0
TRI,2011-10-13,2900.0
TRI,2011-10-14,2800.0
TRI,2011-10-17,2700.0
TRI,2011-10-18,2700.0
TRI,2011-10-19,2800.0
TRI,2011-10-20,2900.0
TRI,2011-10-21,2900.0
TRI,2011-10-24,3000.0
TRI,2011-10-25,3000.0
TRI,2011-10-26,3000.0
TRI,2011-10-27,2900.0
TRI,2011-10-28,2800.0
TRI,2011-10-31,2700.0
TRI,2011-11-01,2600.0
TRI,2011-11-02,2500.0
TRI,2011-11-03,2400.0
TRI,2011-11-04,2300.0
TRI,2011-11-07,2200.0
TRI,2011-11-08,2100.0
TRI,2011-11-09,2000.0
TRI,2011-11-10,1900.0
TRI,2011-11-11,2000.0
TRI,2011-11-14,2000.0
TRI,2011-11-15,1900.0
TRI,2011-11-16,2000.0
TRI,2011-11-17,2100.0
TRI,2011-11-18,2000.0
TRI,2011-11-21,1900.0
TRI,2011-11-22,2000.0
TRI,2011-11-23,1900.0
TRI,2011-11-24,1800.0
TRI,2011-11-25,1900.0
TRI,2011-11-28,2000.0
TRI,2011-11-29,1900.0
TRI,2011-11-30,2000.0
TRI,2011-12-01,2100.0
TRI,2011-12-02,2000.0
TRI,2011-12-05,2100.0
TRI,2011-12-06,2000.0
TRI,2011-12-07,2000.0
TRI,2011-12-08,2000.0
TRI,2011-12-09,2000.0
TRI,2011-12-12,2000.0
TRI,2011-12-13,2000.0
TRI,2011-12-14,2000.0
TRI,2011-12-15,2000.0
TRI,2011-12-16,1900.0
TRI,2011-12-19,2000.0
TRI,2011-12-20,2100.0
TRI,2011-12-21,2000.0
TRI,2011-12-22,2000.0
TRI,2011-12-23,1900.0
TRI,2011-12-26,1800.0
TRI,2011-12-27,1900.0
TRI,2011-12-28,1900.0
TRI,2011-12-29,1800.0
TRI,2011-12-30,1900.0
TRI,2012-01-03,2000.0
TRI,2012-01-04,2100.0
TRI,2012-01-05,2000.0
TRI,2012-01-06,2000.0
TRI,2012-01-09,2000.0
TRI,2012-01-10,2000.0
TRI,2012-01-11,2000.0
TRI,2012-01-12,2000.0
TRI,2012-01-13,2000.0
TRI,2012-01-16,1900.0
TRI,2012-01-17,2000.0
TRI,2012-01-18,2000.0
TRI,2012-01-19,2000.0
TRI,2012-01-20,2000.0
TRI,2012-01-30,2000.0
TRI,2012-01-31,2000.0
TRI,2012-02-01,1900.0
TRI,2012-02-02,1800.0
TRI,2012-02-03,1900.0
TRI,2012-02-06,1800.0
TRI,2012-02-07,1800.0
TRI,2012-02-08,1800.0
TRI,2012-02-09,1800.0
TRI,2012-02-10,1700.0
TRI,2012-02-13,1600.0
TRI,2012-02-14,1700.0
TRI,2012-02-15,1700.0
TRI,2012-02-16,1700.0
TRI,2012-02-17,1700.0
TRI,2012-02-20,1800.0
TRI,2012-02-21,1900.0
TRI,2012-02-22,2000.0
TRI,2012-02-23,2100.0
TRI,2012-02-24,2000.0
TRI,2012-02-27,1900.0
TRI,2012-02-28,1800.0
TRI,2012-02-29,1700.0
TRI,2012-03-01,1800.0
TRI,2012-03-02,1800.0
TRI,2012-03-05,1900.0
TRI,2012-03-06,1800.0
TRI,2012-03-07,1900.0
TRI,2012-03-08,1800.0
TRI,2012-03-09,1900.0
TRI,2012-03-12,2000.0
TRI,2012-03-13,1900.0
TRI,2012-03-14,1900.0
TRI,2012-03-15,2000.0
TRI,2012-03-16,1900.0
TRI,2012-03-19,1800.0
TRI,2012-03-20,1900.0
TRI,2012-03-21,2000.0
TRI,2012-03-22,2100.0
TRI,2012-03-23,2200.0
TRI,2012-03-26,2300.0
TRI,2012-03-27,2200.0
TRI,2012-03-28,2200.0
TRI,2012-03-29,2300.0
TRI,2012-03-30,2200.0
TRI,2012-04-03,2100.0
TRI,2012-04-04,2100.0
TRI,2012-04-05,2000.0
TRI,2012-04-06,1900.0
TRI,2012-04-09,1800.0
