VFMVF1,2004-11-08,5100.0
VFMVF1,2004-11-09,4900.0
VFMVF1,2004-11-10,4900.0
VFMVF1,2004-11-11,4800.0
VFMVF1,2004-11-12,4700.0
VFMVF1,2004-11-15,4800.0
VFMVF1,2004-11-16,4800.0
VFMVF1,2004-11-17,4700.0
VFMVF1,2004-11-18,4700.0
VFMVF1,2004-11-19,4700.0
VFMVF1,2004-11-22,4600.0
VFMVF1,2004-11-23,4700.0
VFMVF1,2004-11-24,4600.0
VFMVF1,2004-11-25,4600.0
VFMVF1,2004-11-26,4600.0
VFMVF1,2004-11-29,4600.0
VFMVF1,2004-11-30,4700.0
VFMVF1,2004-12-01,4700.0
VFMVF1,2004-12-02,4700.0
VFMVF1,2004-12-03,4700.0
VFMVF1,2004-12-06,4600.0
VFMVF1,2004-12-07,4700.0
VFMVF1,2004-12-08,4700.0
VFMVF1,2004-12-09,4700.0
VFMVF1,2004-12-10,4700.0
VFMVF1,2004-12-13,4700.0
VFMVF1,2004-12-14,4700.0
VFMVF1,2004-12-15,4700.0
VFMVF1,2004-12-16,4700.0
VFMVF1,2004-12-17,4600.0
VFMVF1,2004-12-20,4600.0
VFMVF1,2004-12-21,4600.0
VFMVF1,2004-12-22,4600.0
VFMVF1,2004-12-23,4600.0
VFMVF1,2004-12-24,4600.0
VFMVF1,2004-12-27,4600.0
VFMVF1,2004-12-28,4600.0
VFMVF1,2004-12-29,4600.0
VFMVF1,2004-12-30,4600.0
VFMVF1,2004-12-31,4700.0
VFMVF1,2005-01-04,4600.0
VFMVF1,2005-01-05,4600.0
VFMVF1,2005-01-06,4500.0
VFMVF1,2005-01-07,4600.0
VFMVF1,2005-01-10,4500.0
VFMVF1,2005-01-11,4500.0
VFMVF1,2005-01-12,4600.0
VFMVF1,2005-01-13,4600.0
VFMVF1,2005-01-14,4500.0
VFMVF1,2005-01-17,4500.0
VFMVF1,2005-01-18,4500.0
VFMVF1,2005-01-19,4500.0
VFMVF1,2005-01-20,4500.0
VFMVF1,2005-01-21,4500.0
VFMVF1,2005-01-24,4400.0
VFMVF1,2005-01-25,4400.0
VFMVF1,2005-01-26,4400.0
VFMVF1,2005-01-27,4400.0
VFMVF1,2005-01-28,4400.0
VFMVF1,2005-01-31,4300.0
VFMVF1,2005-02-01,4300.0
VFMVF1,2005-02-02,4300.0
VFMVF1,2005-02-03,4400.0
VFMVF1,2005-02-04,4400.0
VFMVF1,2005-02-14,4400.0
VFMVF1,2005-02-15,4400.0
VFMVF1,2005-02-16,4400.0
VFMVF1,2005-02-17,4400.0
VFMVF1,2005-02-18,4300.0
VFMVF1,2005-02-21,4300.0
VFMVF1,2005-02-22,4300.0
VFMVF1,2005-02-23,4400.0
VFMVF1,2005-02-24,4400.0
VFMVF1,2005-02-25,4400.0
VFMVF1,2005-02-28,4500.0
VFMVF1,2005-03-01,4500.0
VFMVF1,2005-03-02,4500.0
VFMVF1,2005-03-03,4500.0
VFMVF1,2005-03-04,4600.0
VFMVF1,2005-03-07,4600.0
VFMVF1,2005-03-08,4500.0
VFMVF1,2005-03-09,4500.0
VFMVF1,2005-03-10,4500.0
VFMVF1,2005-03-11,4500.0
VFMVF1,2005-03-14,4500.0
VFMVF1,2005-03-15,4500.0
VFMVF1,2005-03-16,4500.0
VFMVF1,2005-03-17,4600.0
VFMVF1,2005-03-18,4500.0
VFMVF1,2005-03-21,4500.0
VFMVF1,2005-03-22,4600.0
VFMVF1,2005-03-23,4700.0
VFMVF1,2005-03-24,4800.0
VFMVF1,2005-03-25,4800.0
VFMVF1,2005-03-28,4700.0
VFMVF1,2005-03-29,4700.0
VFMVF1,2005-03-30,4700.0
VFMVF1,2005-03-31,4800.0
VFMVF1,2005-04-01,4700.0
VFMVF1,2005-04-04,4700.0
VFMVF1,2005-04-05,4700.0
VFMVF1,2005-04-06,4700.0
VFMVF1,2005-04-07,4600.0
VFMVF1,2005-04-08,4700.0
VFMVF1,2005-04-11,4600.0
VFMVF1,2005-04-12,4600.0
VFMVF1,2005-04-13,4600.0
VFMVF1,2005-04-14,4600.0
VFMVF1,2005-04-15,4600.0
VFMVF1,2005-04-18,4600.0
VFMVF1,2005-04-19,4600.0
VFMVF1,2005-04-20,4600.0
VFMVF1,2005-04-21,4600.0
VFMVF1,2005-04-22,4600.0
VFMVF1,2005-04-25,4600.0
VFMVF1,2005-04-26,4500.0
VFMVF1,2005-04-27,4500.0
VFMVF1,2005-04-28,4400.0
VFMVF1,2005-04-29,4400.0
VFMVF1,2005-05-04,4300.0
VFMVF1,2005-05-05,4400.0
VFMVF1,2005-05-06,4400.0
VFMVF1,2005-05-09,4400.0
VFMVF1,2005-05-10,4300.0
VFMVF1,2005-05-11,4300.0
VFMVF1,2005-05-12,4300.0
VFMVF1,2005-05-13,4300.0
VFMVF1,2005-05-16,4300.0
VFMVF1,2005-05-17,4300.0
VFMVF1,2005-05-18,4300.0
VFMVF1,2005-05-19,4300.0
VFMVF1,2005-05-20,4300.0
VFMVF1,2005-05-23,4300.0
VFMVF1,2005-05-24,4300.0
VFMVF1,2005-05-25,4300.0
VFMVF1,2005-05-26,4300.0
VFMVF1,2005-05-27,4300.0
VFMVF1,2005-05-30,4400.0
VFMVF1,2005-05-31,4400.0
VFMVF1,2005-06-01,4400.0
VFMVF1,2005-06-02,4400.0
VFMVF1,2005-06-03,4400.0
VFMVF1,2005-06-06,4400.0
VFMVF1,2005-06-07,4400.0
VFMVF1,2005-06-08,4400.0
VFMVF1,2005-06-09,4400.0
VFMVF1,2005-06-10,4400.0
VFMVF1,2005-06-13,4300.0
VFMVF1,2005-06-14,4400.0
VFMVF1,2005-06-15,4400.0
VFMVF1,2005-06-16,4400.0
VFMVF1,2005-06-17,4400.0
VFMVF1,2005-06-20,4400.0
VFMVF1,2005-06-21,4400.0
VFMVF1,2005-06-22,4400.0
VFMVF1,2005-06-23,4400.0
VFMVF1,2005-06-24,4400.0
VFMVF1,2005-06-27,4400.0
VFMVF1,2005-06-28,4400.0
VFMVF1,2005-06-29,4400.0
VFMVF1,2005-06-30,4400.0
VFMVF1,2005-07-01,4400.0
VFMVF1,2005-07-04,4400.0
VFMVF1,2005-07-05,4400.0
VFMVF1,2005-07-06,4400.0
VFMVF1,2005-07-07,4400.0
VFMVF1,2005-07-08,4400.0
VFMVF1,2005-07-11,4400.0
VFMVF1,2005-07-12,4400.0
VFMVF1,2005-07-13,4400.0
VFMVF1,2005-07-14,4400.0
VFMVF1,2005-07-15,4400.0
VFMVF1,2005-07-18,4400.0
VFMVF1,2005-07-19,4400.0
VFMVF1,2005-07-20,4300.0
VFMVF1,2005-07-21,4300.0
VFMVF1,2005-07-22,4300.0
VFMVF1,2005-07-25,4300.0
VFMVF1,2005-07-26,4300.0
VFMVF1,2005-07-27,4300.0
VFMVF1,2005-07-28,4300.0
VFMVF1,2005-07-29,4300.0
VFMVF1,2005-08-01,4300.0
VFMVF1,2005-08-02,4300.0
VFMVF1,2005-08-03,4300.0
VFMVF1,2005-08-04,4400.0
VFMVF1,2005-08-05,4400.0
VFMVF1,2005-08-08,4300.0
VFMVF1,2005-08-09,4300.0
VFMVF1,2005-08-10,4300.0
VFMVF1,2005-08-11,4300.0
VFMVF1,2005-08-12,4400.0
VFMVF1,2005-08-15,4300.0
VFMVF1,2005-08-16,4300.0
VFMVF1,2005-08-17,4300.0
VFMVF1,2005-08-18,4400.0
VFMVF1,2005-08-19,4400.0
VFMVF1,2005-08-22,4400.0
VFMVF1,2005-08-23,4400.0
VFMVF1,2005-08-24,4400.0
VFMVF1,2005-08-25,4400.0
VFMVF1,2005-08-26,4400.0
VFMVF1,2005-08-29,4500.0
VFMVF1,2005-08-30,4600.0
VFMVF1,2005-08-31,4600.0
VFMVF1,2005-09-01,4500.0
VFMVF1,2005-09-05,4500.0
VFMVF1,2005-09-06,4600.0
VFMVF1,2005-09-07,4600.0
VFMVF1,2005-09-08,4600.0
VFMVF1,2005-09-09,4500.0
VFMVF1,2005-09-12,4600.0
VFMVF1,2005-09-13,4600.0
VFMVF1,2005-09-14,4600.0
VFMVF1,2005-09-15,4600.0
VFMVF1,2005-09-16,4600.0
VFMVF1,2005-09-19,4800.0
VFMVF1,2005-09-20,5000.0
VFMVF1,2005-09-21,4800.0
VFMVF1,2005-09-22,4800.0
VFMVF1,2005-09-23,4800.0
VFMVF1,2005-09-26,4900.0
VFMVF1,2005-09-27,4900.0
VFMVF1,2005-09-28,4800.0
VFMVF1,2005-09-29,4800.0
VFMVF1,2005-09-30,5000.0
VFMVF1,2005-10-03,5000.0
VFMVF1,2005-10-04,4900.0
VFMVF1,2005-10-05,5000.0
VFMVF1,2005-10-06,5000.0
VFMVF1,2005-10-07,5000.0
VFMVF1,2005-10-10,5000.0
VFMVF1,2005-10-11,5000.0
VFMVF1,2005-10-12,5000.0
VFMVF1,2005-10-13,5000.0
VFMVF1,2005-10-14,5000.0
VFMVF1,2005-10-17,5100.0
VFMVF1,2005-10-18,5000.0
VFMVF1,2005-10-19,5000.0
VFMVF1,2005-10-20,5100.0
VFMVF1,2005-10-21,5200.0
VFMVF1,2005-10-24,5300.0
VFMVF1,2005-10-25,5400.0
VFMVF1,2005-10-26,5300.0
VFMVF1,2005-10-27,5200.0
VFMVF1,2005-10-28,5300.0
VFMVF1,2005-10-31,5300.0
VFMVF1,2005-11-01,5300.0
VFMVF1,2005-11-02,5300.0
VFMVF1,2005-11-03,5300.0
VFMVF1,2005-11-04,5300.0
VFMVF1,2005-11-07,5300.0
VFMVF1,2005-11-08,5300.0
VFMVF1,2005-11-09,5300.0
VFMVF1,2005-11-10,5300.0
VFMVF1,2005-11-11,5300.0
VFMVF1,2005-11-14,5300.0
VFMVF1,2005-11-15,5300.0
VFMVF1,2005-11-16,5300.0
VFMVF1,2005-11-17,5300.0
VFMVF1,2005-11-18,5300.0
VFMVF1,2005-11-21,5300.0
VFMVF1,2005-11-22,5300.0
VFMVF1,2005-11-23,5300.0
VFMVF1,2005-11-24,5200.0
VFMVF1,2005-11-25,5300.0
VFMVF1,2005-11-28,5300.0
VFMVF1,2005-11-29,5300.0
VFMVF1,2005-11-30,5300.0
VFMVF1,2005-12-01,5300.0
VFMVF1,2005-12-02,5300.0
VFMVF1,2005-12-05,5300.0
VFMVF1,2005-12-06,5300.0
VFMVF1,2005-12-07,5300.0
VFMVF1,2005-12-08,5300.0
VFMVF1,2005-12-09,5300.0
VFMVF1,2005-12-12,5300.0
VFMVF1,2005-12-13,5300.0
VFMVF1,2005-12-14,5300.0
VFMVF1,2005-12-15,5300.0
VFMVF1,2005-12-16,5400.0
VFMVF1,2005-12-19,5400.0
VFMVF1,2005-12-20,5400.0
VFMVF1,2005-12-21,5400.0
VFMVF1,2005-12-22,5500.0
VFMVF1,2005-12-23,5500.0
VFMVF1,2005-12-26,5400.0
VFMVF1,2005-12-27,5500.0
VFMVF1,2005-12-28,5500.0
VFMVF1,2005-12-29,5500.0
VFMVF1,2005-12-30,5500.0
VFMVF1,2006-01-03,5500.0
VFMVF1,2006-01-04,5500.0
VFMVF1,2006-01-05,5500.0
VFMVF1,2006-01-06,5500.0
VFMVF1,2006-01-09,5500.0
VFMVF1,2006-01-10,5500.0
VFMVF1,2006-01-11,5500.0
VFMVF1,2006-01-12,5500.0
VFMVF1,2006-01-13,5500.0
VFMVF1,2006-01-17,5700.0
VFMVF1,2006-01-18,5900.0
VFMVF1,2006-01-19,6100.0
VFMVF1,2006-01-20,6000.0
VFMVF1,2006-01-23,6000.0
VFMVF1,2006-01-24,6000.0
VFMVF1,2006-01-25,6100.0
VFMVF1,2006-01-26,6200.0
VFMVF1,2006-01-27,6200.0
VFMVF1,2006-02-06,6300.0
VFMVF1,2006-02-07,6400.0
VFMVF1,2006-02-08,6400.0
VFMVF1,2006-02-09,6400.0
VFMVF1,2006-02-10,6400.0
VFMVF1,2006-02-13,6400.0
VFMVF1,2006-02-14,6500.0
VFMVF1,2006-02-15,6700.0
VFMVF1,2006-02-16,7000.0
VFMVF1,2006-02-17,7300.0
VFMVF1,2006-02-20,7600.0
VFMVF1,2006-02-21,8000.0
VFMVF1,2006-02-22,7800.0
VFMVF1,2006-02-23,8100.0
VFMVF1,2006-02-24,8500.0
VFMVF1,2006-02-27,8800.0
VFMVF1,2006-02-28,9200.0
VFMVF1,2006-03-01,9600.0
VFMVF1,2006-03-02,10100.0
VFMVF1,2006-03-03,9600.0
VFMVF1,2006-03-06,9100.0
VFMVF1,2006-03-07,9600.0
VFMVF1,2006-03-08,9500.0
VFMVF1,2006-03-09,9500.0
VFMVF1,2006-03-10,9400.0
VFMVF1,2006-03-13,9500.0
VFMVF1,2006-03-14,9400.0
VFMVF1,2006-03-15,9700.0
VFMVF1,2006-03-16,10200.0
VFMVF1,2006-03-17,10700.0
VFMVF1,2006-03-20,11200.0
VFMVF1,2006-03-21,11700.0
VFMVF1,2006-03-22,11700.0
VFMVF1,2006-03-23,11700.0
VFMVF1,2006-03-24,11700.0
VFMVF1,2006-03-27,11900.0
VFMVF1,2006-03-28,12500.0
VFMVF1,2006-03-29,12600.0
VFMVF1,2006-03-30,12500.0
VFMVF1,2006-03-31,12700.0
VFMVF1,2006-04-03,13400.0
VFMVF1,2006-04-04,13400.0
VFMVF1,2006-04-05,13900.0
VFMVF1,2006-04-06,14600.0
VFMVF1,2006-04-07,15300.0
VFMVF1,2006-04-10,16000.0
VFMVF1,2006-04-11,16800.0
VFMVF1,2006-04-12,16800.0
VFMVF1,2006-04-13,17300.0
VFMVF1,2006-04-14,17600.0
VFMVF1,2006-04-17,18500.0
VFMVF1,2006-04-18,19300.0
VFMVF1,2006-04-19,20300.0
VFMVF1,2006-04-20,20500.0
VFMVF1,2006-04-21,20900.0
VFMVF1,2006-04-24,21900.0
VFMVF1,2006-04-25,23000.0
VFMVF1,2006-04-26,24100.0
VFMVF1,2006-04-27,22900.0
VFMVF1,2006-04-28,21800.0
VFMVF1,2006-05-03,22900.0
VFMVF1,2006-05-04,24000.0
VFMVF1,2006-05-05,23700.0
VFMVF1,2006-05-08,22500.0
VFMVF1,2006-05-09,21400.0
VFMVF1,2006-05-10,20300.0
VFMVF1,2006-05-11,21300.0
VFMVF1,2006-05-12,21300.0
VFMVF1,2006-05-15,22400.0
VFMVF1,2006-05-16,21300.0
VFMVF1,2006-05-17,21800.0
VFMVF1,2006-05-18,21000.0
VFMVF1,2006-05-19,20500.0
VFMVF1,2006-05-22,19500.0
VFMVF1,2006-05-23,18600.0
VFMVF1,2006-05-24,19200.0
VFMVF1,2006-05-25,18200.0
VFMVF1,2006-05-26,18200.0
VFMVF1,2006-05-29,17300.0
VFMVF1,2006-05-30,16500.0
VFMVF1,2006-05-31,15700.0
VFMVF1,2006-06-01,15200.0
VFMVF1,2006-06-02,15900.0
VFMVF1,2006-06-05,16700.0
VFMVF1,2006-06-06,17500.0
VFMVF1,2006-06-07,16800.0
VFMVF1,2006-06-08,17200.0
VFMVF1,2006-06-09,17100.0
VFMVF1,2006-06-12,17200.0
VFMVF1,2006-06-13,17300.0
VFMVF1,2006-06-14,17300.0
VFMVF1,2006-06-15,17100.0
VFMVF1,2006-06-16,16300.0
VFMVF1,2006-06-19,16000.0
VFMVF1,2006-06-20,15300.0
VFMVF1,2006-06-21,15000.0
VFMVF1,2006-06-22,15700.0
VFMVF1,2006-06-23,16000.0
VFMVF1,2006-06-26,15500.0
VFMVF1,2006-06-27,15600.0
VFMVF1,2006-06-28,16000.0
VFMVF1,2006-06-29,16000.0
VFMVF1,2006-06-30,16100.0
VFMVF1,2006-07-03,16100.0
VFMVF1,2006-07-04,15800.0
VFMVF1,2006-07-05,15900.0
VFMVF1,2006-07-06,16400.0
VFMVF1,2006-07-07,16800.0
VFMVF1,2006-07-10,17300.0
VFMVF1,2006-07-11,17100.0
VFMVF1,2006-07-12,16800.0
VFMVF1,2006-07-13,16600.0
VFMVF1,2006-07-14,16700.0
VFMVF1,2006-07-17,16300.0
VFMVF1,2006-07-18,16000.0
VFMVF1,2006-07-19,15400.0
VFMVF1,2006-07-20,16100.0
VFMVF1,2006-07-21,15600.0
VFMVF1,2006-07-24,15000.0
VFMVF1,2006-07-25,14200.0
VFMVF1,2006-07-26,13800.0
VFMVF1,2006-07-27,14200.0
VFMVF1,2006-07-28,13800.0
VFMVF1,2006-07-31,13200.0
VFMVF1,2006-08-01,12600.0
VFMVF1,2006-08-02,12300.0
VFMVF1,2006-08-03,12900.0
VFMVF1,2006-08-04,13500.0
VFMVF1,2006-08-07,13000.0
VFMVF1,2006-08-08,13600.0
VFMVF1,2006-08-09,13700.0
VFMVF1,2006-08-10,13600.0
VFMVF1,2006-08-11,14000.0
VFMVF1,2006-08-14,14700.0
VFMVF1,2006-08-15,15000.0
VFMVF1,2006-08-16,15700.0
VFMVF1,2006-08-17,16400.0
VFMVF1,2006-08-18,17000.0
VFMVF1,2006-08-21,17200.0
VFMVF1,2006-08-22,16400.0
VFMVF1,2006-08-23,16600.0
VFMVF1,2006-08-24,16600.0
VFMVF1,2006-08-25,16400.0
VFMVF1,2006-08-28,16600.0
VFMVF1,2006-08-29,17000.0
VFMVF1,2006-08-30,17000.0
VFMVF1,2006-08-31,16800.0
VFMVF1,2006-09-01,17300.0
VFMVF1,2006-09-05,18200.0
VFMVF1,2006-09-06,18200.0
VFMVF1,2006-09-07,18000.0
VFMVF1,2006-09-08,18000.0
VFMVF1,2006-09-11,17700.0
VFMVF1,2006-09-12,17000.0
VFMVF1,2006-09-13,17800.0
VFMVF1,2006-09-14,17600.0
VFMVF1,2006-09-15,17400.0
VFMVF1,2006-09-18,17300.0
VFMVF1,2006-09-19,17300.0
VFMVF1,2006-09-20,17400.0
VFMVF1,2006-09-21,17300.0
VFMVF1,2006-09-22,17300.0
VFMVF1,2006-09-25,17300.0
VFMVF1,2006-09-26,17400.0
VFMVF1,2006-09-27,17700.0
VFMVF1,2006-09-28,17600.0
VFMVF1,2006-09-29,17600.0
VFMVF1,2006-10-02,17500.0
VFMVF1,2006-10-03,17800.0
VFMVF1,2006-10-04,17600.0
VFMVF1,2006-10-05,17400.0
VFMVF1,2006-10-06,17500.0
VFMVF1,2006-10-09,17300.0
VFMVF1,2006-10-10,16400.0
VFMVF1,2006-10-11,16700.0
VFMVF1,2006-10-12,16800.0
VFMVF1,2006-10-13,16500.0
VFMVF1,2006-10-16,16300.0
VFMVF1,2006-10-17,16100.0
VFMVF1,2006-10-18,16200.0
VFMVF1,2006-10-19,16200.0
VFMVF1,2006-10-20,16400.0
VFMVF1,2006-10-23,16400.0
VFMVF1,2006-10-24,16300.0
VFMVF1,2006-10-25,16300.0
VFMVF1,2006-10-26,16200.0
VFMVF1,2006-10-27,16100.0
VFMVF1,2006-10-30,15600.0
VFMVF1,2006-10-31,15800.0
VFMVF1,2006-11-01,16300.0
VFMVF1,2006-11-02,16000.0
VFMVF1,2006-11-03,16000.0
VFMVF1,2006-11-06,16500.0
VFMVF1,2006-11-07,16500.0
VFMVF1,2006-11-08,16800.0
VFMVF1,2006-11-09,17300.0
VFMVF1,2006-11-10,17600.0
VFMVF1,2006-11-13,17800.0
VFMVF1,2006-11-14,18600.0
VFMVF1,2006-11-15,18600.0
VFMVF1,2006-11-16,18500.0
VFMVF1,2006-11-17,19200.0
VFMVF1,2006-11-20,19000.0
VFMVF1,2006-11-21,19000.0
VFMVF1,2006-11-22,19000.0
VFMVF1,2006-11-23,19800.0
VFMVF1,2006-11-24,20500.0
VFMVF1,2006-11-27,19500.0
VFMVF1,2006-11-28,19600.0
VFMVF1,2006-11-29,19000.0
VFMVF1,2006-11-30,19900.0
VFMVF1,2006-12-01,19600.0
VFMVF1,2006-12-04,19900.0
VFMVF1,2006-12-05,19600.0
VFMVF1,2006-12-06,19400.0
VFMVF1,2006-12-07,20400.0
VFMVF1,2006-12-08,21100.0
VFMVF1,2006-12-11,22100.0
VFMVF1,2006-12-12,22000.0
VFMVF1,2006-12-13,23000.0
VFMVF1,2006-12-14,24200.0
VFMVF1,2006-12-15,25400.0
VFMVF1,2006-12-18,24600.0
VFMVF1,2006-12-19,25800.0
VFMVF1,2006-12-20,25800.0
VFMVF1,2006-12-21,24600.0
VFMVF1,2006-12-22,23400.0
VFMVF1,2006-12-25,23400.0
VFMVF1,2006-12-26,23400.0
VFMVF1,2006-12-27,24100.0
VFMVF1,2006-12-28,24000.0
VFMVF1,2006-12-29,23800.0
VFMVF1,2007-01-02,23800.0
VFMVF1,2007-01-03,24600.0
VFMVF1,2007-01-04,25800.0
VFMVF1,2007-01-05,26300.0
VFMVF1,2007-01-08,26300.0
VFMVF1,2007-01-09,27000.0
VFMVF1,2007-01-10,28300.0
VFMVF1,2007-01-11,27900.0
VFMVF1,2007-01-12,27700.0
VFMVF1,2007-01-15,28600.0
VFMVF1,2007-01-16,29300.0
VFMVF1,2007-01-17,27800.0
VFMVF1,2007-01-18,28500.0
VFMVF1,2007-01-19,28600.0
VFMVF1,2007-01-22,27300.0
VFMVF1,2007-01-23,28600.0
VFMVF1,2007-01-24,28200.0
VFMVF1,2007-01-25,27300.0
VFMVF1,2007-01-26,26400.0
VFMVF1,2007-01-29,27300.0
VFMVF1,2007-01-30,28300.0
VFMVF1,2007-01-31,28400.0
VFMVF1,2007-02-01,27600.0
VFMVF1,2007-02-02,27600.0
VFMVF1,2007-02-05,27300.0
VFMVF1,2007-02-06,28200.0
VFMVF1,2007-02-07,28200.0
VFMVF1,2007-02-08,26800.0
VFMVF1,2007-02-09,26600.0
VFMVF1,2007-02-12,27400.0
VFMVF1,2007-02-13,28300.0
VFMVF1,2007-02-14,28300.0
VFMVF1,2007-02-15,28200.0
VFMVF1,2007-02-26,29600.0
VFMVF1,2007-02-27,29600.0
VFMVF1,2007-02-28,29300.0
VFMVF1,2007-03-01,29400.0
VFMVF1,2007-03-02,29200.0
VFMVF1,2007-03-05,30000.0
VFMVF1,2007-03-06,31000.0
VFMVF1,2007-03-07,32000.0
VFMVF1,2007-03-08,33300.0
VFMVF1,2007-03-09,35000.0
VFMVF1,2007-03-12,33200.0
VFMVF1,2007-03-13,34600.0
VFMVF1,2007-03-14,32900.0
VFMVF1,2007-03-15,31300.0
VFMVF1,2007-03-16,32800.0
VFMVF1,2007-03-19,32600.0
VFMVF1,2007-03-20,31300.0
VFMVF1,2007-03-21,31400.0
VFMVF1,2007-03-22,30300.0
VFMVF1,2007-03-23,30400.0
VFMVF1,2007-03-26,28900.0
VFMVF1,2007-03-27,27500.0
VFMVF1,2007-03-28,27500.0
VFMVF1,2007-03-29,28700.0
VFMVF1,2007-03-30,29800.0
VFMVF1,2007-04-02,29000.0
VFMVF1,2007-04-03,27600.0
VFMVF1,2007-04-04,28200.0
VFMVF1,2007-04-05,27200.0
VFMVF1,2007-04-06,26700.0
VFMVF1,2007-04-09,26500.0
VFMVF1,2007-04-10,26600.0
VFMVF1,2007-04-11,26300.0
VFMVF1,2007-04-12,25400.0
VFMVF1,2007-04-13,24700.0
VFMVF1,2007-04-16,24200.0
VFMVF1,2007-04-17,24600.0
VFMVF1,2007-04-18,25800.0
VFMVF1,2007-04-19,26500.0
VFMVF1,2007-04-20,25700.0
VFMVF1,2007-04-23,24400.0
VFMVF1,2007-04-24,24500.0
VFMVF1,2007-04-25,24900.0
VFMVF1,2007-05-02,25300.0
VFMVF1,2007-05-03,24100.0
VFMVF1,2007-05-04,22900.0
VFMVF1,2007-05-07,24000.0
VFMVF1,2007-05-08,25200.0
VFMVF1,2007-05-09,25200.0
VFMVF1,2007-05-10,24900.0
VFMVF1,2007-05-11,25700.0
VFMVF1,2007-05-14,26100.0
VFMVF1,2007-05-15,25900.0
VFMVF1,2007-05-16,25700.0
VFMVF1,2007-05-17,25800.0
VFMVF1,2007-05-18,26100.0
VFMVF1,2007-05-21,26000.0
VFMVF1,2007-05-22,26100.0
VFMVF1,2007-05-23,26400.0
VFMVF1,2007-05-24,25700.0
VFMVF1,2007-05-25,26000.0
VFMVF1,2007-05-28,25900.0
VFMVF1,2007-05-29,25800.0
VFMVF1,2007-05-30,25600.0
VFMVF1,2007-05-31,25800.0
VFMVF1,2007-06-01,25400.0
VFMVF1,2007-06-04,25200.0
VFMVF1,2007-06-05,24200.0
VFMVF1,2007-06-06,25400.0
VFMVF1,2007-06-07,25300.0
VFMVF1,2007-06-08,24900.0
VFMVF1,2007-06-11,24300.0
VFMVF1,2007-06-12,24600.0
VFMVF1,2007-06-13,24700.0
VFMVF1,2007-06-14,24600.0
VFMVF1,2007-06-15,24200.0
VFMVF1,2007-06-18,24400.0
VFMVF1,2007-06-19,24300.0
VFMVF1,2007-06-20,24000.0
VFMVF1,2007-06-21,23800.0
VFMVF1,2007-06-22,23500.0
VFMVF1,2007-06-25,23500.0
VFMVF1,2007-06-26,23700.0
VFMVF1,2007-06-27,23700.0
VFMVF1,2007-06-28,23900.0
VFMVF1,2007-06-29,24100.0
VFMVF1,2007-07-02,23100.0
VFMVF1,2007-07-03,22300.0
VFMVF1,2007-07-04,23100.0
VFMVF1,2007-07-05,22700.0
VFMVF1,2007-07-06,22300.0
VFMVF1,2007-07-09,22400.0
VFMVF1,2007-07-10,22600.0
VFMVF1,2007-07-11,22700.0
VFMVF1,2007-07-12,22600.0
VFMVF1,2007-07-13,22800.0
VFMVF1,2007-07-16,22400.0
VFMVF1,2007-07-17,22500.0
VFMVF1,2007-07-18,22300.0
VFMVF1,2007-07-19,22300.0
VFMVF1,2007-07-20,22300.0
VFMVF1,2007-07-23,22300.0
VFMVF1,2007-07-24,22000.0
VFMVF1,2007-07-25,21500.0
VFMVF1,2007-07-26,21100.0
VFMVF1,2007-07-27,20400.0
VFMVF1,2007-07-30,19700.0
VFMVF1,2007-07-31,19500.0
VFMVF1,2007-08-01,20500.0
VFMVF1,2007-08-02,20500.0
VFMVF1,2007-08-03,20300.0
VFMVF1,2007-08-06,20300.0
VFMVF1,2007-08-07,20900.0
VFMVF1,2007-08-08,21100.0
VFMVF1,2007-08-09,22100.0
VFMVF1,2007-08-10,21900.0
VFMVF1,2007-08-13,21300.0
VFMVF1,2007-08-14,21700.0
VFMVF1,2007-08-15,21500.0
VFMVF1,2007-08-16,21300.0
VFMVF1,2007-08-17,21100.0
VFMVF1,2007-08-20,21000.0
VFMVF1,2007-08-21,21600.0
VFMVF1,2007-08-22,21900.0
VFMVF1,2007-08-23,22600.0
VFMVF1,2007-08-24,22600.0
VFMVF1,2007-08-27,22900.0
VFMVF1,2007-08-28,22600.0
VFMVF1,2007-08-29,22400.0
VFMVF1,2007-08-30,22600.0
VFMVF1,2007-08-31,22700.0
VFMVF1,2007-09-04,23200.0
VFMVF1,2007-09-05,23400.0
VFMVF1,2007-09-06,23300.0
VFMVF1,2007-09-07,23200.0
VFMVF1,2007-09-10,23200.0
VFMVF1,2007-09-11,23000.0
VFMVF1,2007-09-12,22800.0
VFMVF1,2007-09-13,22900.0
VFMVF1,2007-09-14,23100.0
VFMVF1,2007-09-17,23100.0
VFMVF1,2007-09-18,23200.0
VFMVF1,2007-09-19,23700.0
VFMVF1,2007-09-20,24100.0
VFMVF1,2007-09-21,23900.0
VFMVF1,2007-09-24,25100.0
VFMVF1,2007-09-25,26100.0
VFMVF1,2007-09-26,26000.0
VFMVF1,2007-09-27,25700.0
VFMVF1,2007-09-28,26100.0
VFMVF1,2007-10-01,26800.0
VFMVF1,2007-10-02,26600.0
VFMVF1,2007-10-03,26400.0
VFMVF1,2007-10-04,26000.0
VFMVF1,2007-10-05,25600.0
VFMVF1,2007-10-08,25600.0
VFMVF1,2007-10-09,25900.0
VFMVF1,2007-10-10,26000.0
VFMVF1,2007-10-11,26000.0
VFMVF1,2007-10-12,25800.0
VFMVF1,2007-10-15,25500.0
VFMVF1,2007-10-16,25300.0
VFMVF1,2007-10-17,25400.0
VFMVF1,2007-10-18,24900.0
VFMVF1,2007-10-19,24900.0
VFMVF1,2007-10-22,24900.0
VFMVF1,2007-10-23,24700.0
VFMVF1,2007-10-24,24900.0
VFMVF1,2007-10-25,24900.0
VFMVF1,2007-10-26,25000.0
VFMVF1,2007-10-29,24600.0
VFMVF1,2007-10-30,24500.0
VFMVF1,2007-10-31,24500.0
VFMVF1,2007-11-01,24900.0
VFMVF1,2007-11-02,24700.0
VFMVF1,2007-11-05,24200.0
VFMVF1,2007-11-06,24600.0
VFMVF1,2007-11-07,24500.0
VFMVF1,2007-11-08,24300.0
VFMVF1,2007-11-09,23700.0
VFMVF1,2007-11-12,22900.0
VFMVF1,2007-11-13,22000.0
VFMVF1,2007-11-14,23100.0
VFMVF1,2007-11-15,22800.0
VFMVF1,2007-11-16,22500.0
VFMVF1,2007-11-19,22600.0
VFMVF1,2007-11-20,22300.0
VFMVF1,2007-11-21,21900.0
VFMVF1,2007-11-22,21900.0
VFMVF1,2007-11-23,22200.0
VFMVF1,2007-11-26,22600.0
VFMVF1,2007-11-27,22400.0
VFMVF1,2007-11-28,22200.0
VFMVF1,2007-11-29,22300.0
VFMVF1,2007-11-30,22300.0
VFMVF1,2007-12-03,22300.0
VFMVF1,2007-12-04,22300.0
VFMVF1,2007-12-05,22100.0
VFMVF1,2007-12-06,22100.0
VFMVF1,2007-12-07,22000.0
VFMVF1,2007-12-10,21700.0
VFMVF1,2007-12-11,21500.0
VFMVF1,2007-12-12,21500.0
VFMVF1,2007-12-13,21300.0
VFMVF1,2007-12-14,21100.0
VFMVF1,2007-12-17,20900.0
VFMVF1,2007-12-18,21200.0
VFMVF1,2007-12-19,21600.0
VFMVF1,2007-12-20,21300.0
VFMVF1,2007-12-21,21400.0
VFMVF1,2007-12-24,21200.0
VFMVF1,2007-12-25,21100.0
VFMVF1,2007-12-26,21200.0
VFMVF1,2007-12-27,21100.0
VFMVF1,2007-12-28,21200.0
VFMVF1,2008-01-02,21200.0
VFMVF1,2008-01-03,21000.0
VFMVF1,2008-01-04,20900.0
VFMVF1,2008-01-07,20500.0
VFMVF1,2008-01-08,20800.0
VFMVF1,2008-01-09,19800.0
VFMVF1,2008-01-10,19700.0
VFMVF1,2008-01-11,20100.0
VFMVF1,2008-01-14,19600.0
VFMVF1,2008-01-15,18700.0
VFMVF1,2008-01-16,19600.0
VFMVF1,2008-01-17,19500.0
VFMVF1,2008-01-18,20100.0
VFMVF1,2008-01-21,19600.0
VFMVF1,2008-01-22,19000.0
VFMVF1,2008-01-23,18100.0
VFMVF1,2008-01-24,17200.0
VFMVF1,2008-01-25,17700.0
VFMVF1,2008-01-28,17600.0
VFMVF1,2008-01-29,18500.0
VFMVF1,2008-01-30,19300.0
VFMVF1,2008-01-31,19400.0
VFMVF1,2008-02-01,20300.0
VFMVF1,2008-02-12,19500.0
VFMVF1,2008-02-13,19000.0
VFMVF1,2008-02-14,19200.0
VFMVF1,2008-02-15,18800.0
VFMVF1,2008-02-18,17800.0
VFMVF1,2008-02-19,17800.0
VFMVF1,2008-02-20,16900.0
VFMVF1,2008-02-21,16100.0
VFMVF1,2008-02-22,16100.0
VFMVF1,2008-02-25,16800.0
VFMVF1,2008-02-26,16100.0
VFMVF1,2008-02-27,16100.0
VFMVF1,2008-02-28,15800.0
VFMVF1,2008-02-29,15400.0
VFMVF1,2008-03-03,14700.0
VFMVF1,2008-03-04,14000.0
VFMVF1,2008-03-05,13300.0
VFMVF1,2008-03-06,13900.0
VFMVF1,2008-03-07,14600.0
VFMVF1,2008-03-10,15000.0
VFMVF1,2008-03-11,14300.0
VFMVF1,2008-03-12,14400.0
VFMVF1,2008-03-13,14600.0
VFMVF1,2008-03-14,14500.0
VFMVF1,2008-03-17,13800.0
VFMVF1,2008-03-18,13200.0
VFMVF1,2008-03-19,12700.0
VFMVF1,2008-03-20,12700.0
VFMVF1,2008-03-21,12200.0
VFMVF1,2008-03-24,11700.0
VFMVF1,2008-03-25,11100.0
VFMVF1,2008-03-26,11700.0
VFMVF1,2008-03-27,11700.0
VFMVF1,2008-03-28,11800.0
VFMVF1,2008-03-31,11900.0
VFMVF1,2008-04-01,12000.0
VFMVF1,2008-04-02,12000.0
VFMVF1,2008-04-03,12100.0
VFMVF1,2008-04-04,12200.0
VFMVF1,2008-04-07,12400.0
VFMVF1,2008-04-08,12700.0
VFMVF1,2008-04-09,12900.0
VFMVF1,2008-04-10,12700.0
VFMVF1,2008-04-11,12700.0
VFMVF1,2008-04-16,12400.0
VFMVF1,2008-04-17,12600.0
VFMVF1,2008-04-18,12500.0
VFMVF1,2008-04-21,12300.0
VFMVF1,2008-04-22,12100.0
VFMVF1,2008-04-23,11900.0
VFMVF1,2008-04-24,11800.0
VFMVF1,2008-04-25,11600.0
VFMVF1,2008-04-28,11800.0
VFMVF1,2008-04-29,11800.0
VFMVF1,2008-05-05,11600.0
VFMVF1,2008-05-06,11400.0
VFMVF1,2008-05-07,11300.0
VFMVF1,2008-05-08,11100.0
VFMVF1,2008-05-09,10900.0
VFMVF1,2008-05-12,10800.0
VFMVF1,2008-05-13,10600.0
VFMVF1,2008-05-14,10400.0
VFMVF1,2008-05-15,10300.0
VFMVF1,2008-05-16,10100.0
VFMVF1,2008-05-19,9900.0
VFMVF1,2008-05-20,9800.0
VFMVF1,2008-05-21,9600.0
VFMVF1,2008-05-22,9400.0
VFMVF1,2008-05-23,9300.0
VFMVF1,2008-05-26,9100.0
VFMVF1,2008-05-30,8900.0
VFMVF1,2008-06-02,8800.0
VFMVF1,2008-06-03,8600.0
VFMVF1,2008-06-04,8400.0
VFMVF1,2008-06-05,8300.0
VFMVF1,2008-06-06,8200.0
VFMVF1,2008-06-09,8100.0
VFMVF1,2008-06-10,8000.0
VFMVF1,2008-06-11,7900.0
VFMVF1,2008-06-12,7800.0
VFMVF1,2008-06-13,7900.0
VFMVF1,2008-06-16,8000.0
VFMVF1,2008-06-17,8100.0
VFMVF1,2008-06-18,8000.0
VFMVF1,2008-06-19,7800.0
VFMVF1,2008-06-20,7700.0
VFMVF1,2008-06-23,7800.0
VFMVF1,2008-06-24,8000.0
VFMVF1,2008-06-25,8200.0
VFMVF1,2008-06-26,8300.0
VFMVF1,2008-06-27,8400.0
VFMVF1,2008-06-30,8700.0
VFMVF1,2008-07-01,8900.0
VFMVF1,2008-07-02,9200.0
VFMVF1,2008-07-03,9400.0
VFMVF1,2008-07-04,9700.0
VFMVF1,2008-07-07,9400.0
VFMVF1,2008-07-08,9700.0
VFMVF1,2008-07-09,9900.0
VFMVF1,2008-07-10,10200.0
VFMVF1,2008-07-11,10400.0
VFMVF1,2008-07-14,10700.0
VFMVF1,2008-07-15,10900.0
VFMVF1,2008-07-16,11200.0
VFMVF1,2008-07-17,11500.0
VFMVF1,2008-07-18,11200.0
VFMVF1,2008-07-21,10800.0
VFMVF1,2008-07-22,10600.0
VFMVF1,2008-07-23,10300.0
VFMVF1,2008-07-24,10100.0
VFMVF1,2008-07-25,9800.0
VFMVF1,2008-07-28,10100.0
VFMVF1,2008-07-29,10300.0
VFMVF1,2008-07-30,10100.0
VFMVF1,2008-07-31,10100.0
VFMVF1,2008-08-01,9800.0
VFMVF1,2008-08-04,9600.0
VFMVF1,2008-08-05,9300.0
VFMVF1,2008-08-06,9600.0
VFMVF1,2008-08-07,9600.0
VFMVF1,2008-08-08,9800.0
VFMVF1,2008-08-11,10100.0
VFMVF1,2008-08-12,10300.0
VFMVF1,2008-08-13,10400.0
VFMVF1,2008-08-14,10700.0
VFMVF1,2008-08-15,10900.0
VFMVF1,2008-08-18,11400.0
VFMVF1,2008-08-19,11300.0
VFMVF1,2008-08-20,11000.0
VFMVF1,2008-08-21,11500.0
VFMVF1,2008-08-22,11000.0
VFMVF1,2008-08-25,11500.0
VFMVF1,2008-08-26,12000.0
VFMVF1,2008-08-27,12400.0
VFMVF1,2008-08-28,11800.0
VFMVF1,2008-08-29,11300.0
VFMVF1,2008-09-03,11900.0
VFMVF1,2008-09-04,11700.0
VFMVF1,2008-09-05,11300.0
VFMVF1,2008-09-08,10800.0
VFMVF1,2008-09-09,11200.0
VFMVF1,2008-09-10,11200.0
VFMVF1,2008-09-11,10700.0
VFMVF1,2008-09-12,10200.0
VFMVF1,2008-09-15,10000.0
VFMVF1,2008-09-16,9500.0
VFMVF1,2008-09-17,9100.0
VFMVF1,2008-09-18,8700.0
VFMVF1,2008-09-19,9100.0
VFMVF1,2008-09-22,9500.0
VFMVF1,2008-09-23,9800.0
VFMVF1,2008-09-24,9300.0
VFMVF1,2008-09-25,9800.0
VFMVF1,2008-09-26,9800.0
VFMVF1,2008-09-29,9600.0
VFMVF1,2008-09-30,9200.0
VFMVF1,2008-10-01,9200.0
VFMVF1,2008-10-02,9600.0
VFMVF1,2008-10-03,9300.0
VFMVF1,2008-10-06,9000.0
VFMVF1,2008-10-07,8600.0
VFMVF1,2008-10-08,8200.0
VFMVF1,2008-10-09,8300.0
VFMVF1,2008-10-10,7900.0
VFMVF1,2008-10-13,7800.0
VFMVF1,2008-10-14,8200.0
VFMVF1,2008-10-15,8500.0
VFMVF1,2008-10-16,8100.0
VFMVF1,2008-10-17,8200.0
VFMVF1,2008-10-20,8000.0
VFMVF1,2008-10-21,8300.0
VFMVF1,2008-10-22,8300.0
VFMVF1,2008-10-23,7900.0
VFMVF1,2008-10-24,7600.0
VFMVF1,2008-10-27,7300.0
VFMVF1,2008-10-28,6900.0
VFMVF1,2008-10-29,7300.0
VFMVF1,2008-10-30,7500.0
VFMVF1,2008-10-31,7800.0
VFMVF1,2008-11-03,7800.0
VFMVF1,2008-11-04,8100.0
VFMVF1,2008-11-05,8400.0
VFMVF1,2008-11-06,8000.0
VFMVF1,2008-11-07,7700.0
VFMVF1,2008-11-10,7800.0
VFMVF1,2008-11-11,7500.0
VFMVF1,2008-11-12,7500.0
VFMVF1,2008-11-13,7600.0
VFMVF1,2008-11-14,7600.0
VFMVF1,2008-11-17,7400.0
VFMVF1,2008-11-18,7300.0
VFMVF1,2008-11-19,7300.0
VFMVF1,2008-11-20,7000.0
VFMVF1,2008-11-21,6700.0
VFMVF1,2008-11-24,6700.0
VFMVF1,2008-11-25,6800.0
VFMVF1,2008-11-26,6700.0
VFMVF1,2008-11-27,6400.0
VFMVF1,2008-11-28,6700.0
VFMVF1,2008-12-01,6700.0
VFMVF1,2008-12-02,6400.0
VFMVF1,2008-12-03,6300.0
VFMVF1,2008-12-04,6300.0
VFMVF1,2008-12-05,6100.0
VFMVF1,2008-12-08,5800.0
VFMVF1,2008-12-09,6000.0
VFMVF1,2008-12-10,5800.0
VFMVF1,2008-12-11,5900.0
VFMVF1,2008-12-12,6200.0
VFMVF1,2008-12-15,6400.0
VFMVF1,2008-12-16,6200.0
VFMVF1,2008-12-17,6300.0
VFMVF1,2008-12-18,6300.0
VFMVF1,2008-12-19,6300.0
VFMVF1,2008-12-22,6400.0
VFMVF1,2008-12-23,6400.0
VFMVF1,2008-12-24,6400.0
VFMVF1,2008-12-25,6300.0
VFMVF1,2008-12-26,6300.0
VFMVF1,2008-12-29,6300.0
VFMVF1,2008-12-30,6300.0
VFMVF1,2008-12-31,6400.0
VFMVF1,2009-01-02,6500.0
VFMVF1,2009-01-05,6800.0
VFMVF1,2009-01-06,7100.0
VFMVF1,2009-01-07,7400.0
VFMVF1,2009-01-08,7200.0
VFMVF1,2009-01-09,7000.0
VFMVF1,2009-01-12,6900.0
VFMVF1,2009-01-13,6600.0
VFMVF1,2009-01-14,6500.0
VFMVF1,2009-01-15,6400.0
VFMVF1,2009-01-16,6400.0
VFMVF1,2009-01-19,6400.0
VFMVF1,2009-01-20,6500.0
VFMVF1,2009-01-21,6500.0
VFMVF1,2009-01-22,6500.0
VFMVF1,2009-01-23,6600.0
VFMVF1,2009-02-02,6300.0
VFMVF1,2009-02-03,6300.0
VFMVF1,2009-02-04,6200.0
VFMVF1,2009-02-05,6000.0
VFMVF1,2009-02-06,6200.0
VFMVF1,2009-02-09,6300.0
VFMVF1,2009-02-10,6300.0
VFMVF1,2009-02-11,6300.0
VFMVF1,2009-02-12,6200.0
VFMVF1,2009-02-13,6200.0
VFMVF1,2009-02-16,6200.0
VFMVF1,2009-02-17,6000.0
VFMVF1,2009-02-18,5800.0
VFMVF1,2009-02-19,5900.0
VFMVF1,2009-02-20,5900.0
VFMVF1,2009-02-23,5800.0
VFMVF1,2009-02-24,5700.0
VFMVF1,2009-02-25,5800.0
VFMVF1,2009-02-26,5800.0
VFMVF1,2009-02-27,5800.0
VFMVF1,2009-03-02,5700.0
VFMVF1,2009-03-03,5600.0
VFMVF1,2009-03-04,5700.0
VFMVF1,2009-03-05,5800.0
VFMVF1,2009-03-06,5700.0
VFMVF1,2009-03-09,5800.0
VFMVF1,2009-03-10,5800.0
VFMVF1,2009-03-11,5900.0
VFMVF1,2009-03-12,5800.0
VFMVF1,2009-03-13,5800.0
VFMVF1,2009-03-16,5900.0
VFMVF1,2009-03-17,6000.0
VFMVF1,2009-03-18,6300.0
VFMVF1,2009-03-19,6200.0
VFMVF1,2009-03-20,6100.0
VFMVF1,2009-03-23,6000.0
VFMVF1,2009-03-24,6200.0
VFMVF1,2009-03-25,6200.0
VFMVF1,2009-03-26,6300.0
VFMVF1,2009-03-27,6200.0
VFMVF1,2009-03-30,6000.0
VFMVF1,2009-03-31,5900.0
VFMVF1,2009-04-01,6100.0
VFMVF1,2009-04-02,6200.0
VFMVF1,2009-04-03,6400.0
VFMVF1,2009-04-07,6700.0
VFMVF1,2009-04-08,6600.0
VFMVF1,2009-04-09,6600.0
VFMVF1,2009-04-10,6800.0
VFMVF1,2009-04-13,7200.0
VFMVF1,2009-04-14,7500.0
VFMVF1,2009-04-15,7700.0
VFMVF1,2009-04-16,8000.0
VFMVF1,2009-04-17,8000.0
VFMVF1,2009-04-20,7700.0
VFMVF1,2009-04-21,7300.0
VFMVF1,2009-04-22,7400.0
VFMVF1,2009-04-23,7100.0
VFMVF1,2009-04-24,6800.0
VFMVF1,2009-04-27,6700.0
VFMVF1,2009-04-28,6800.0
VFMVF1,2009-04-29,7200.0
VFMVF1,2009-05-04,7500.0
VFMVF1,2009-05-05,7800.0
VFMVF1,2009-05-06,7500.0
VFMVF1,2009-05-07,7800.0
VFMVF1,2009-05-08,7800.0
VFMVF1,2009-05-11,7900.0
VFMVF1,2009-05-12,8100.0
VFMVF1,2009-05-13,7800.0
VFMVF1,2009-05-14,7800.0
VFMVF1,2009-05-15,8200.0
VFMVF1,2009-05-18,8000.0
VFMVF1,2009-05-19,8300.0
VFMVF1,2009-05-20,8300.0
VFMVF1,2009-05-21,8200.0
VFMVF1,2009-05-22,7900.0
VFMVF1,2009-05-25,8300.0
VFMVF1,2009-05-26,8200.0
VFMVF1,2009-05-27,8100.0
VFMVF1,2009-05-28,7800.0
VFMVF1,2009-05-29,7800.0
VFMVF1,2009-06-01,8200.0
VFMVF1,2009-06-02,8400.0
VFMVF1,2009-06-03,8500.0
VFMVF1,2009-06-04,8900.0
VFMVF1,2009-06-05,9300.0
VFMVF1,2009-06-08,9800.0
VFMVF1,2009-06-09,10200.0
VFMVF1,2009-06-10,10700.0
VFMVF1,2009-06-11,11200.0
VFMVF1,2009-06-12,11700.0
VFMVF1,2009-06-15,12300.0
VFMVF1,2009-06-16,11700.0
VFMVF1,2009-06-17,11300.0
VFMVF1,2009-06-18,11700.0
VFMVF1,2009-06-19,11200.0
VFMVF1,2009-06-22,10700.0
VFMVF1,2009-06-23,10200.0
VFMVF1,2009-06-24,10700.0
VFMVF1,2009-06-25,10200.0
VFMVF1,2009-06-26,10300.0
VFMVF1,2009-06-29,10200.0
VFMVF1,2009-06-30,9800.0
VFMVF1,2009-07-01,9300.0
VFMVF1,2009-07-02,9700.0
VFMVF1,2009-07-03,9700.0
VFMVF1,2009-07-06,10100.0
VFMVF1,2009-07-07,9900.0
VFMVF1,2009-07-08,9800.0
VFMVF1,2009-07-09,9700.0
VFMVF1,2009-07-10,9500.0
VFMVF1,2009-07-13,9100.0
VFMVF1,2009-07-14,8800.0
VFMVF1,2009-07-15,8900.0
VFMVF1,2009-07-16,9300.0
VFMVF1,2009-07-17,9300.0
VFMVF1,2009-07-20,8900.0
VFMVF1,2009-07-21,9300.0
VFMVF1,2009-07-22,9600.0
VFMVF1,2009-07-23,10000.0
VFMVF1,2009-07-24,10500.0
VFMVF1,2009-07-27,11000.0
VFMVF1,2009-07-28,10500.0
VFMVF1,2009-07-29,10500.0
VFMVF1,2009-07-30,10100.0
VFMVF1,2009-07-31,10600.0
VFMVF1,2009-08-03,10400.0
VFMVF1,2009-08-04,10700.0
VFMVF1,2009-08-05,10700.0
VFMVF1,2009-08-06,10700.0
VFMVF1,2009-08-07,10600.0
VFMVF1,2009-08-10,10800.0
VFMVF1,2009-08-11,10800.0
VFMVF1,2009-08-12,11300.0
VFMVF1,2009-08-13,11800.0
VFMVF1,2009-08-14,11800.0
VFMVF1,2009-08-17,11500.0
VFMVF1,2009-08-18,11400.0
VFMVF1,2009-08-19,11900.0
VFMVF1,2009-08-20,12400.0
VFMVF1,2009-08-21,12700.0
VFMVF1,2009-08-24,12500.0
VFMVF1,2009-08-25,12300.0
VFMVF1,2009-08-26,12200.0
VFMVF1,2009-08-27,12200.0
VFMVF1,2009-08-28,12400.0
VFMVF1,2009-08-31,12800.0
VFMVF1,2009-09-01,12600.0
VFMVF1,2009-09-03,12300.0
VFMVF1,2009-09-04,12100.0
VFMVF1,2009-09-08,12300.0
VFMVF1,2009-09-09,12300.0
VFMVF1,2009-09-10,12300.0
VFMVF1,2009-09-11,12400.0
VFMVF1,2009-09-14,12500.0
VFMVF1,2009-09-15,12600.0
VFMVF1,2009-09-16,12900.0
VFMVF1,2009-09-17,12800.0
VFMVF1,2009-09-18,12900.0
VFMVF1,2009-09-21,12900.0
VFMVF1,2009-09-22,13500.0
VFMVF1,2009-09-23,14200.0
VFMVF1,2009-09-24,13700.0
VFMVF1,2009-09-25,14200.0
VFMVF1,2009-09-28,13900.0
VFMVF1,2009-09-29,13800.0
VFMVF1,2009-09-30,13500.0
VFMVF1,2009-10-01,13400.0
VFMVF1,2009-10-02,12700.0
VFMVF1,2009-10-05,12700.0
VFMVF1,2009-10-06,12700.0
VFMVF1,2009-10-07,13000.0
VFMVF1,2009-10-08,13200.0
VFMVF1,2009-10-09,13800.0
VFMVF1,2009-10-12,14400.0
VFMVF1,2009-10-13,15100.0
VFMVF1,2009-10-14,15600.0
VFMVF1,2009-10-15,15900.0
VFMVF1,2009-10-16,16700.0
VFMVF1,2009-10-19,16300.0
VFMVF1,2009-10-20,16300.0
VFMVF1,2009-10-21,15800.0
VFMVF1,2009-10-22,16000.0
VFMVF1,2009-10-23,15900.0
VFMVF1,2009-10-26,15400.0
VFMVF1,2009-10-27,15100.0
VFMVF1,2009-10-28,15100.0
VFMVF1,2009-10-29,14900.0
VFMVF1,2009-10-30,15000.0
VFMVF1,2009-11-02,14300.0
VFMVF1,2009-11-03,13600.0
VFMVF1,2009-11-04,13500.0
VFMVF1,2009-11-05,14200.0
VFMVF1,2009-11-06,13900.0
VFMVF1,2009-11-09,13400.0
VFMVF1,2009-11-10,13100.0
VFMVF1,2009-11-11,13700.0
VFMVF1,2009-11-12,14100.0
VFMVF1,2009-11-13,14100.0
VFMVF1,2009-11-16,14000.0
VFMVF1,2009-11-17,14000.0
VFMVF1,2009-11-18,14100.0
VFMVF1,2009-11-19,14800.0
VFMVF1,2009-11-20,14500.0
VFMVF1,2009-11-23,13900.0
VFMVF1,2009-11-24,13900.0
VFMVF1,2009-11-25,13200.0
VFMVF1,2009-11-26,12600.0
VFMVF1,2009-11-27,12500.0
VFMVF1,2009-11-30,13100.0
VFMVF1,2009-12-01,13700.0
VFMVF1,2009-12-02,13400.0
VFMVF1,2009-12-03,13400.0
VFMVF1,2009-12-04,13600.0
VFMVF1,2009-12-07,13800.0
VFMVF1,2009-12-08,13300.0
VFMVF1,2009-12-09,12700.0
VFMVF1,2009-12-10,12100.0
VFMVF1,2009-12-11,11500.0
VFMVF1,2009-12-14,12100.0
VFMVF1,2009-12-15,12000.0
VFMVF1,2009-12-16,11400.0
VFMVF1,2009-12-17,11000.0
VFMVF1,2009-12-18,11500.0
VFMVF1,2009-12-21,12100.0
VFMVF1,2009-12-22,11800.0
VFMVF1,2009-12-23,11800.0
VFMVF1,2009-12-24,12100.0
VFMVF1,2009-12-25,12600.0
VFMVF1,2009-12-28,12200.0
VFMVF1,2009-12-29,12100.0
VFMVF1,2009-12-30,12300.0
VFMVF1,2009-12-31,12400.0
VFMVF1,2010-01-04,13000.0
VFMVF1,2010-01-05,13400.0
VFMVF1,2010-01-06,13600.0
VFMVF1,2010-01-07,13400.0
VFMVF1,2010-01-08,13100.0
VFMVF1,2010-01-11,13100.0
VFMVF1,2010-01-12,12800.0
VFMVF1,2010-01-13,12800.0
VFMVF1,2010-01-14,12800.0
VFMVF1,2010-01-15,12400.0
VFMVF1,2010-01-18,12100.0
VFMVF1,2010-01-19,12200.0
VFMVF1,2010-01-20,12200.0
VFMVF1,2010-01-21,11700.0
VFMVF1,2010-01-22,11600.0
VFMVF1,2010-01-25,11600.0
VFMVF1,2010-01-26,12200.0
VFMVF1,2010-01-27,12000.0
VFMVF1,2010-01-28,11800.0
VFMVF1,2010-01-29,12000.0
VFMVF1,2010-02-01,11800.0
VFMVF1,2010-02-02,11800.0
VFMVF1,2010-02-03,11900.0
VFMVF1,2010-02-04,12200.0
VFMVF1,2010-02-05,12000.0
VFMVF1,2010-02-08,11900.0
VFMVF1,2010-02-09,11700.0
VFMVF1,2010-02-10,12100.0
VFMVF1,2010-02-11,12200.0
VFMVF1,2010-02-12,12400.0
VFMVF1,2010-02-22,12300.0
VFMVF1,2010-02-23,12000.0
VFMVF1,2010-02-24,12000.0
VFMVF1,2010-02-25,11800.0
VFMVF1,2010-02-26,12000.0
VFMVF1,2010-03-01,12200.0
VFMVF1,2010-03-02,12200.0
VFMVF1,2010-03-03,12300.0
VFMVF1,2010-03-04,12300.0
VFMVF1,2010-03-05,12400.0
VFMVF1,2010-03-08,12800.0
VFMVF1,2010-03-09,13000.0
VFMVF1,2010-03-10,13000.0
VFMVF1,2010-03-11,12800.0
VFMVF1,2010-03-12,12900.0
VFMVF1,2010-03-15,13100.0
VFMVF1,2010-03-16,12700.0
VFMVF1,2010-03-17,12400.0
VFMVF1,2010-03-18,12600.0
VFMVF1,2010-03-19,12500.0
VFMVF1,2010-03-22,12500.0
VFMVF1,2010-03-23,12300.0
VFMVF1,2010-03-24,12700.0
VFMVF1,2010-03-25,12500.0
VFMVF1,2010-03-26,12600.0
VFMVF1,2010-03-29,12500.0
VFMVF1,2010-03-30,12700.0
VFMVF1,2010-03-31,12600.0
VFMVF1,2010-04-01,12700.0
VFMVF1,2010-04-02,12600.0
VFMVF1,2010-04-05,12600.0
VFMVF1,2010-04-06,13000.0
VFMVF1,2010-04-07,13100.0
VFMVF1,2010-04-08,13200.0
VFMVF1,2010-04-09,13200.0
VFMVF1,2010-04-12,13200.0
VFMVF1,2010-04-13,13200.0
VFMVF1,2010-04-14,13300.0
VFMVF1,2010-04-15,13400.0
VFMVF1,2010-04-16,13600.0
VFMVF1,2010-04-19,13500.0
VFMVF1,2010-04-20,13400.0
VFMVF1,2010-04-21,13400.0
VFMVF1,2010-04-22,13500.0
VFMVF1,2010-04-26,13400.0
VFMVF1,2010-04-27,13300.0
VFMVF1,2010-04-28,13100.0
VFMVF1,2010-04-29,13100.0
VFMVF1,2010-05-04,13500.0
VFMVF1,2010-05-05,13500.0
VFMVF1,2010-05-06,13500.0
VFMVF1,2010-05-07,13200.0
VFMVF1,2010-05-10,13000.0
VFMVF1,2010-05-11,13100.0
VFMVF1,2010-05-12,12800.0
VFMVF1,2010-05-13,12900.0
VFMVF1,2010-05-14,13000.0
VFMVF1,2010-05-17,12700.0
VFMVF1,2010-05-18,12500.0
VFMVF1,2010-05-19,12200.0
VFMVF1,2010-05-20,12400.0
VFMVF1,2010-05-21,11800.0
VFMVF1,2010-05-24,11900.0
VFMVF1,2010-05-25,11700.0
VFMVF1,2010-05-26,11900.0
VFMVF1,2010-05-27,11900.0
VFMVF1,2010-05-28,12300.0
VFMVF1,2010-05-31,12100.0
VFMVF1,2010-06-01,12000.0
VFMVF1,2010-06-02,11900.0
VFMVF1,2010-06-03,12000.0
VFMVF1,2010-06-04,11900.0
VFMVF1,2010-06-07,11600.0
VFMVF1,2010-06-08,11600.0
VFMVF1,2010-06-09,11600.0
VFMVF1,2010-06-10,11700.0
VFMVF1,2010-06-11,11800.0
VFMVF1,2010-06-14,11900.0
VFMVF1,2010-06-15,11900.0
VFMVF1,2010-06-16,12000.0
VFMVF1,2010-06-17,11900.0
VFMVF1,2010-06-18,11900.0
VFMVF1,2010-06-21,12000.0
VFMVF1,2010-06-22,12100.0
VFMVF1,2010-06-23,12100.0
VFMVF1,2010-06-24,12200.0
VFMVF1,2010-06-25,11900.0
VFMVF1,2010-06-28,12000.0
VFMVF1,2010-06-29,12000.0
VFMVF1,2010-06-30,12000.0
VFMVF1,2010-07-01,11900.0
VFMVF1,2010-07-02,11900.0
VFMVF1,2010-07-05,11800.0
VFMVF1,2010-07-06,11800.0
VFMVF1,2010-07-07,11800.0
VFMVF1,2010-07-08,11800.0
VFMVF1,2010-07-09,11900.0
VFMVF1,2010-07-12,12100.0
VFMVF1,2010-07-13,12400.0
VFMVF1,2010-07-14,12400.0
VFMVF1,2010-07-15,12400.0
VFMVF1,2010-07-16,12300.0
VFMVF1,2010-07-19,12200.0
VFMVF1,2010-07-20,12100.0
VFMVF1,2010-07-21,12200.0
VFMVF1,2010-07-22,12000.0
VFMVF1,2010-07-23,12100.0
VFMVF1,2010-07-26,12000.0
VFMVF1,2010-07-27,12100.0
VFMVF1,2010-07-28,11900.0
VFMVF1,2010-07-29,12000.0
VFMVF1,2010-07-30,12000.0
VFMVF1,2010-08-02,12000.0
VFMVF1,2010-08-03,12000.0
VFMVF1,2010-08-04,12000.0
VFMVF1,2010-08-05,11900.0
VFMVF1,2010-08-06,11700.0
VFMVF1,2010-08-09,11500.0
VFMVF1,2010-08-10,11300.0
VFMVF1,2010-08-11,11500.0
VFMVF1,2010-08-12,11000.0
VFMVF1,2010-08-13,11000.0
VFMVF1,2010-08-16,11400.0
VFMVF1,2010-08-17,11300.0
VFMVF1,2010-08-18,11000.0
VFMVF1,2010-08-19,10900.0
VFMVF1,2010-08-20,11000.0
VFMVF1,2010-08-23,10900.0
VFMVF1,2010-08-24,10500.0
VFMVF1,2010-08-25,10200.0
VFMVF1,2010-08-26,10100.0
VFMVF1,2010-08-27,10000.0
VFMVF1,2010-08-30,10500.0
VFMVF1,2010-08-31,10700.0
VFMVF1,2010-09-01,10600.0
VFMVF1,2010-09-06,11100.0
VFMVF1,2010-09-07,10800.0
VFMVF1,2010-09-08,10800.0
VFMVF1,2010-09-09,10900.0
VFMVF1,2010-09-10,10600.0
VFMVF1,2010-09-13,10400.0
VFMVF1,2010-09-14,10600.0
VFMVF1,2010-09-15,10500.0
VFMVF1,2010-09-16,10500.0
VFMVF1,2010-09-17,10700.0
VFMVF1,2010-09-20,10800.0
VFMVF1,2010-09-21,10800.0
VFMVF1,2010-09-22,10800.0
VFMVF1,2010-09-23,10600.0
VFMVF1,2010-09-24,10600.0
VFMVF1,2010-09-27,10700.0
VFMVF1,2010-09-28,10800.0
VFMVF1,2010-09-29,10600.0
VFMVF1,2010-09-30,10900.0
VFMVF1,2010-10-01,10700.0
VFMVF1,2010-10-04,10500.0
VFMVF1,2010-10-05,10500.0
VFMVF1,2010-10-06,10700.0
VFMVF1,2010-10-07,10600.0
VFMVF1,2010-10-08,10600.0
VFMVF1,2010-10-11,10600.0
VFMVF1,2010-10-12,10500.0
VFMVF1,2010-10-13,10500.0
VFMVF1,2010-10-14,10500.0
VFMVF1,2010-10-15,10500.0
VFMVF1,2010-10-18,10600.0
VFMVF1,2010-10-19,10500.0
VFMVF1,2010-10-20,10300.0
VFMVF1,2010-10-21,10300.0
VFMVF1,2010-10-22,10400.0
VFMVF1,2010-10-25,10500.0
VFMVF1,2010-10-26,10600.0
VFMVF1,2010-10-27,10600.0
VFMVF1,2010-10-28,10500.0
VFMVF1,2010-10-29,10600.0
VFMVF1,2010-11-01,10600.0
VFMVF1,2010-11-02,10600.0
VFMVF1,2010-11-03,10600.0
VFMVF1,2010-11-04,10600.0
VFMVF1,2010-11-05,10900.0
VFMVF1,2010-11-08,10900.0
VFMVF1,2010-11-09,10700.0
VFMVF1,2010-11-10,10600.0
VFMVF1,2010-11-11,10500.0
VFMVF1,2010-11-12,10400.0
VFMVF1,2010-11-15,10300.0
VFMVF1,2010-11-16,10100.0
VFMVF1,2010-11-17,10200.0
VFMVF1,2010-11-18,10300.0
VFMVF1,2010-11-19,10300.0
VFMVF1,2010-11-22,10200.0
VFMVF1,2010-11-23,10400.0
VFMVF1,2010-11-24,10400.0
VFMVF1,2010-11-25,10600.0
VFMVF1,2010-11-26,10600.0
VFMVF1,2010-11-29,10700.0
VFMVF1,2010-11-30,10900.0
VFMVF1,2010-12-01,10900.0
VFMVF1,2010-12-02,11300.0
VFMVF1,2010-12-03,11700.0
VFMVF1,2010-12-06,11800.0
VFMVF1,2010-12-07,11500.0
VFMVF1,2010-12-08,11000.0
VFMVF1,2010-12-09,11300.0
VFMVF1,2010-12-10,11800.0
VFMVF1,2010-12-13,12300.0
VFMVF1,2010-12-14,12300.0
VFMVF1,2010-12-15,12400.0
VFMVF1,2010-12-16,11800.0
VFMVF1,2010-12-17,12100.0
VFMVF1,2010-12-20,12000.0
VFMVF1,2010-12-21,11900.0
VFMVF1,2010-12-22,11700.0
VFMVF1,2010-12-23,11300.0
VFMVF1,2010-12-24,11300.0
VFMVF1,2010-12-27,11300.0
VFMVF1,2010-12-28,11500.0
VFMVF1,2010-12-29,11300.0
VFMVF1,2010-12-30,11200.0
VFMVF1,2010-12-31,11600.0
VFMVF1,2011-01-04,11500.0
VFMVF1,2011-01-05,11400.0
VFMVF1,2011-01-06,11400.0
VFMVF1,2011-01-07,11400.0
VFMVF1,2011-01-10,11200.0
VFMVF1,2011-01-11,11000.0
VFMVF1,2011-01-12,11000.0
VFMVF1,2011-01-13,11200.0
VFMVF1,2011-01-14,11100.0
VFMVF1,2011-01-17,11200.0
VFMVF1,2011-01-18,11200.0
VFMVF1,2011-01-19,11200.0
VFMVF1,2011-01-20,11200.0
VFMVF1,2011-01-21,11400.0
VFMVF1,2011-01-24,11300.0
VFMVF1,2011-01-25,11200.0
VFMVF1,2011-01-26,11100.0
VFMVF1,2011-01-27,11300.0
VFMVF1,2011-01-28,11300.0
VFMVF1,2011-02-08,11400.0
VFMVF1,2011-02-09,11400.0
VFMVF1,2011-02-10,11300.0
VFMVF1,2011-02-11,11300.0
VFMVF1,2011-02-14,11300.0
VFMVF1,2011-02-15,11300.0
VFMVF1,2011-02-16,11200.0
VFMVF1,2011-02-17,11100.0
VFMVF1,2011-02-18,10700.0
VFMVF1,2011-02-21,10200.0
VFMVF1,2011-02-22,10200.0
VFMVF1,2011-02-23,10200.0
VFMVF1,2011-02-24,10200.0
VFMVF1,2011-02-25,10500.0
VFMVF1,2011-02-28,10300.0
VFMVF1,2011-03-01,10200.0
VFMVF1,2011-03-02,10000.0
VFMVF1,2011-03-03,10000.0
VFMVF1,2011-03-04,10000.0
VFMVF1,2011-03-07,10000.0
VFMVF1,2011-03-08,10000.0
VFMVF1,2011-03-09,9900.0
VFMVF1,2011-03-10,10300.0
VFMVF1,2011-03-11,10400.0
VFMVF1,2011-03-14,10200.0
VFMVF1,2011-03-15,10200.0
VFMVF1,2011-03-16,10400.0
VFMVF1,2011-03-17,10400.0
VFMVF1,2011-03-18,10900.0
VFMVF1,2011-03-21,10900.0
VFMVF1,2011-03-22,10600.0
VFMVF1,2011-03-23,10700.0
VFMVF1,2011-03-24,10700.0
VFMVF1,2011-03-25,10900.0
VFMVF1,2011-03-28,10900.0
VFMVF1,2011-03-29,10900.0
VFMVF1,2011-03-30,10900.0
VFMVF1,2011-03-31,10900.0
VFMVF1,2011-04-01,10900.0
VFMVF1,2011-04-04,10700.0
VFMVF1,2011-04-05,10700.0
VFMVF1,2011-04-06,10900.0
VFMVF1,2011-04-07,10800.0
VFMVF1,2011-04-08,10800.0
VFMVF1,2011-04-13,10700.0
VFMVF1,2011-04-14,10700.0
VFMVF1,2011-04-15,10800.0
VFMVF1,2011-04-18,10600.0
VFMVF1,2011-04-19,10600.0
VFMVF1,2011-04-20,10600.0
VFMVF1,2011-04-21,10500.0
VFMVF1,2011-04-22,10300.0
VFMVF1,2011-04-25,10600.0
VFMVF1,2011-04-26,10200.0
VFMVF1,2011-04-27,10000.0
VFMVF1,2011-04-28,10000.0
VFMVF1,2011-04-29,10000.0
VFMVF1,2011-05-04,10000.0
VFMVF1,2011-05-05,10000.0
VFMVF1,2011-05-06,10000.0
VFMVF1,2011-05-09,10100.0
VFMVF1,2011-05-10,10100.0
VFMVF1,2011-05-11,10000.0
VFMVF1,2011-05-12,10000.0
VFMVF1,2011-05-13,9900.0
VFMVF1,2011-05-16,9800.0
VFMVF1,2011-05-17,9800.0
VFMVF1,2011-05-18,9700.0
VFMVF1,2011-05-19,9800.0
VFMVF1,2011-05-20,9700.0
VFMVF1,2011-05-23,9500.0
VFMVF1,2011-05-24,9100.0
VFMVF1,2011-05-25,8700.0
VFMVF1,2011-05-26,9100.0
VFMVF1,2011-05-27,9300.0
VFMVF1,2011-05-30,8900.0
VFMVF1,2011-05-31,8500.0
VFMVF1,2011-06-01,8900.0
VFMVF1,2011-06-02,9300.0
VFMVF1,2011-06-03,9200.0
VFMVF1,2011-06-06,9000.0
VFMVF1,2011-06-07,9400.0
VFMVF1,2011-06-08,9200.0
VFMVF1,2011-06-09,9400.0
VFMVF1,2011-06-10,9500.0
VFMVF1,2011-06-13,9600.0
VFMVF1,2011-06-14,9500.0
VFMVF1,2011-06-15,9200.0
VFMVF1,2011-06-16,9300.0
VFMVF1,2011-06-17,9100.0
VFMVF1,2011-06-20,9100.0
VFMVF1,2011-06-21,9200.0
VFMVF1,2011-06-22,9200.0
VFMVF1,2011-06-23,9000.0
VFMVF1,2011-06-24,9300.0
VFMVF1,2011-06-27,9200.0
VFMVF1,2011-06-28,9100.0
VFMVF1,2011-06-29,9100.0
VFMVF1,2011-06-30,9200.0
VFMVF1,2011-07-01,9000.0
VFMVF1,2011-07-04,9000.0
VFMVF1,2011-07-05,9200.0
VFMVF1,2011-07-06,9000.0
VFMVF1,2011-07-07,9100.0
VFMVF1,2011-07-08,9100.0
VFMVF1,2011-07-11,9000.0
VFMVF1,2011-07-12,8900.0
VFMVF1,2011-07-13,8900.0
VFMVF1,2011-07-14,9000.0
VFMVF1,2011-07-15,8900.0
VFMVF1,2011-07-18,8900.0
VFMVF1,2011-07-19,8600.0
VFMVF1,2011-07-20,8700.0
VFMVF1,2011-07-21,8700.0
VFMVF1,2011-07-22,8700.0
VFMVF1,2011-07-25,8600.0
VFMVF1,2011-07-26,8300.0
VFMVF1,2011-07-27,8300.0
VFMVF1,2011-07-28,8300.0
VFMVF1,2011-07-29,8400.0
VFMVF1,2011-08-01,8400.0
VFMVF1,2011-08-02,8200.0
VFMVF1,2011-08-03,7900.0
VFMVF1,2011-08-04,8100.0
VFMVF1,2011-08-05,8100.0
VFMVF1,2011-08-08,8100.0
VFMVF1,2011-08-09,7900.0
VFMVF1,2011-08-10,7900.0
VFMVF1,2011-08-11,7900.0
VFMVF1,2011-08-12,7900.0
VFMVF1,2011-08-15,7900.0
VFMVF1,2011-08-16,8000.0
VFMVF1,2011-08-17,8200.0
VFMVF1,2011-08-18,8400.0
VFMVF1,2011-08-19,8300.0
VFMVF1,2011-08-22,8600.0
VFMVF1,2011-08-23,8500.0
VFMVF1,2011-08-24,8500.0
VFMVF1,2011-08-25,8600.0
VFMVF1,2011-08-26,9000.0
VFMVF1,2011-08-29,9100.0
VFMVF1,2011-08-30,9300.0
VFMVF1,2011-08-31,9400.0
VFMVF1,2011-09-01,9800.0
VFMVF1,2011-09-05,9700.0
VFMVF1,2011-09-06,9300.0
VFMVF1,2011-09-07,9400.0
VFMVF1,2011-09-08,9700.0
VFMVF1,2011-09-09,9600.0
VFMVF1,2011-09-12,9700.0
VFMVF1,2011-09-13,9800.0
VFMVF1,2011-09-14,9600.0
VFMVF1,2011-09-15,9500.0
VFMVF1,2011-09-16,9200.0
VFMVF1,2011-09-19,9400.0
VFMVF1,2011-09-20,9100.0
VFMVF1,2011-09-21,9000.0
VFMVF1,2011-09-22,9200.0
VFMVF1,2011-09-23,9000.0
VFMVF1,2011-09-26,8800.0
VFMVF1,2011-09-27,8800.0
VFMVF1,2011-09-28,8800.0
VFMVF1,2011-09-29,8800.0
VFMVF1,2011-09-30,8900.0
VFMVF1,2011-10-03,8700.0
VFMVF1,2011-10-04,8600.0
VFMVF1,2011-10-05,8700.0
VFMVF1,2011-10-06,8800.0
VFMVF1,2011-10-07,8700.0
VFMVF1,2011-10-10,8600.0
VFMVF1,2011-10-11,8600.0
VFMVF1,2011-10-12,8400.0
VFMVF1,2011-10-13,8400.0
VFMVF1,2011-10-14,8600.0
VFMVF1,2011-10-17,8500.0
VFMVF1,2011-10-18,8200.0
VFMVF1,2011-10-19,8300.0
VFMVF1,2011-10-20,8300.0
VFMVF1,2011-10-21,8500.0
VFMVF1,2011-10-24,8300.0
VFMVF1,2011-10-25,8400.0
VFMVF1,2011-10-26,8300.0
VFMVF1,2011-10-27,8400.0
VFMVF1,2011-10-28,8700.0
VFMVF1,2011-10-31,8700.0
VFMVF1,2011-11-01,8300.0
VFMVF1,2011-11-02,8300.0
VFMVF1,2011-11-03,8200.0
VFMVF1,2011-11-04,8200.0
VFMVF1,2011-11-07,8000.0
VFMVF1,2011-11-08,8000.0
VFMVF1,2011-11-09,7900.0
VFMVF1,2011-11-10,7900.0
VFMVF1,2011-11-11,7700.0
VFMVF1,2011-11-14,7500.0
VFMVF1,2011-11-15,7600.0
VFMVF1,2011-11-16,7700.0
VFMVF1,2011-11-17,7400.0
VFMVF1,2011-11-18,7500.0
VFMVF1,2011-11-21,7400.0
VFMVF1,2011-11-22,7500.0
VFMVF1,2011-11-23,7500.0
VFMVF1,2011-11-24,7400.0
VFMVF1,2011-11-25,7400.0
VFMVF1,2011-11-28,7500.0
VFMVF1,2011-11-29,7400.0
VFMVF1,2011-11-30,7300.0
VFMVF1,2011-12-01,7300.0
VFMVF1,2011-12-02,7300.0
VFMVF1,2011-12-05,7600.0
VFMVF1,2011-12-06,7600.0
VFMVF1,2011-12-07,7300.0
VFMVF1,2011-12-08,7300.0
VFMVF1,2011-12-09,7200.0
VFMVF1,2011-12-12,7000.0
VFMVF1,2011-12-13,6900.0
VFMVF1,2011-12-14,7000.0
VFMVF1,2011-12-15,7100.0
VFMVF1,2011-12-16,7200.0
VFMVF1,2011-12-19,7200.0
VFMVF1,2011-12-20,7300.0
VFMVF1,2011-12-21,7600.0
VFMVF1,2011-12-22,7800.0
VFMVF1,2011-12-23,7500.0
VFMVF1,2011-12-26,7200.0
VFMVF1,2011-12-27,6900.0
VFMVF1,2011-12-28,6900.0
VFMVF1,2011-12-29,6600.0
VFMVF1,2011-12-30,6900.0
VFMVF1,2012-01-03,7100.0
VFMVF1,2012-01-04,6800.0
VFMVF1,2012-01-05,6800.0
VFMVF1,2012-01-06,6500.0
VFMVF1,2012-01-09,6500.0
VFMVF1,2012-01-10,6600.0
VFMVF1,2012-01-11,6500.0
VFMVF1,2012-01-12,6500.0
VFMVF1,2012-01-13,6600.0
VFMVF1,2012-01-16,6700.0
VFMVF1,2012-01-17,6400.0
VFMVF1,2012-01-18,6300.0
VFMVF1,2012-01-19,6600.0
VFMVF1,2012-01-20,6700.0
VFMVF1,2012-01-30,6800.0
VFMVF1,2012-01-31,6900.0
VFMVF1,2012-02-01,6800.0
VFMVF1,2012-02-02,7100.0
VFMVF1,2012-02-03,7100.0
VFMVF1,2012-02-06,7100.0
VFMVF1,2012-02-07,7200.0
VFMVF1,2012-02-08,7500.0
VFMVF1,2012-02-09,7400.0
VFMVF1,2012-02-10,7200.0
VFMVF1,2012-02-13,7000.0
VFMVF1,2012-02-14,7100.0
VFMVF1,2012-02-15,6900.0
VFMVF1,2012-02-16,7100.0
VFMVF1,2012-02-17,7300.0
VFMVF1,2012-02-20,7500.0
VFMVF1,2012-02-21,7400.0
VFMVF1,2012-02-22,7500.0
VFMVF1,2012-02-23,7800.0
VFMVF1,2012-02-24,8000.0
VFMVF1,2012-02-27,8200.0
VFMVF1,2012-02-28,7900.0
VFMVF1,2012-02-29,8100.0
VFMVF1,2012-03-01,8200.0
VFMVF1,2012-03-02,8600.0
VFMVF1,2012-03-05,9000.0
VFMVF1,2012-03-06,8700.0
VFMVF1,2012-03-07,9000.0
VFMVF1,2012-03-08,8600.0
VFMVF1,2012-03-09,8500.0
VFMVF1,2012-03-12,8300.0
VFMVF1,2012-03-13,8400.0
VFMVF1,2012-03-14,8100.0
VFMVF1,2012-03-15,8500.0
VFMVF1,2012-03-16,8900.0
VFMVF1,2012-03-19,8900.0
VFMVF1,2012-03-20,9100.0
VFMVF1,2012-03-21,9300.0
VFMVF1,2012-03-22,9200.0
VFMVF1,2012-03-23,9300.0
VFMVF1,2012-03-26,9300.0
VFMVF1,2012-03-27,8900.0
VFMVF1,2012-03-28,8900.0
VFMVF1,2012-03-29,8500.0
VFMVF1,2012-03-30,8500.0
VFMVF1,2012-04-03,8600.0
VFMVF1,2012-04-04,8600.0
VFMVF1,2012-04-05,8600.0
VFMVF1,2012-04-06,8600.0
VFMVF1,2012-04-09,8800.0
VFMVF1,2012-04-10,8800.0
VFMVF1,2012-04-11,9000.0
VFMVF1,2012-04-12,9000.0
VFMVF1,2012-04-13,9000.0
VFMVF1,2012-04-16,9200.0
VFMVF1,2012-04-17,9400.0
VFMVF1,2012-04-18,9200.0
VFMVF1,2012-04-19,9000.0
VFMVF1,2012-04-20,9000.0
VFMVF1,2012-04-23,9000.0
VFMVF1,2012-04-24,9100.0
VFMVF1,2012-04-25,9300.0
VFMVF1,2012-04-26,9300.0
VFMVF1,2012-04-27,9300.0
VFMVF1,2012-05-02,9300.0
VFMVF1,2012-05-03,9300.0
VFMVF1,2012-05-04,9500.0
VFMVF1,2012-05-07,9700.0
VFMVF1,2012-05-08,9800.0
VFMVF1,2012-05-09,10000.0
VFMVF1,2012-05-10,10100.0
VFMVF1,2012-05-11,9900.0
VFMVF1,2012-05-14,9500.0
VFMVF1,2012-05-15,9300.0
VFMVF1,2012-05-16,9200.0
VFMVF1,2012-05-17,9200.0
VFMVF1,2012-05-18,8800.0
VFMVF1,2012-05-21,9200.0
VFMVF1,2012-05-22,9200.0
VFMVF1,2012-05-23,8800.0
VFMVF1,2012-05-24,8600.0
VFMVF1,2012-05-25,9000.0
VFMVF1,2012-05-28,9000.0
VFMVF1,2012-05-29,9000.0
VFMVF1,2012-05-30,8900.0
VFMVF1,2012-05-31,8800.0
VFMVF1,2012-06-01,8900.0
VFMVF1,2012-06-04,8500.0
VFMVF1,2012-06-05,8700.0
VFMVF1,2012-06-06,8800.0
VFMVF1,2012-06-07,9000.0
VFMVF1,2012-06-08,9000.0
VFMVF1,2012-06-11,9000.0
VFMVF1,2012-06-12,8900.0
VFMVF1,2012-06-13,8800.0
VFMVF1,2012-06-14,8800.0
VFMVF1,2012-06-15,8900.0
VFMVF1,2012-06-18,8900.0
VFMVF1,2012-06-19,9000.0
VFMVF1,2012-06-20,8800.0
VFMVF1,2012-06-21,8900.0
VFMVF1,2012-06-22,8800.0
VFMVF1,2012-06-25,8600.0
VFMVF1,2012-06-26,8400.0
VFMVF1,2012-06-27,8500.0
VFMVF1,2012-06-28,8400.0
VFMVF1,2012-06-29,8400.0
VFMVF1,2012-07-02,8400.0
VFMVF1,2012-07-03,8100.0
VFMVF1,2012-07-04,8200.0
VFMVF1,2012-07-05,8300.0
VFMVF1,2012-07-06,8400.0
VFMVF1,2012-07-09,8200.0
VFMVF1,2012-07-10,8200.0
VFMVF1,2012-07-11,8200.0
VFMVF1,2012-07-12,8300.0
VFMVF1,2012-07-13,8500.0
VFMVF1,2012-07-16,8400.0
VFMVF1,2012-07-17,8500.0
VFMVF1,2012-07-18,8400.0
VFMVF1,2012-07-19,8600.0
VFMVF1,2012-07-20,8500.0
VFMVF1,2012-07-23,8500.0
VFMVF1,2012-07-24,8300.0
VFMVF1,2012-07-25,8300.0
VFMVF1,2012-07-26,8400.0
VFMVF1,2012-07-27,8200.0
VFMVF1,2012-07-30,8400.0
VFMVF1,2012-07-31,8400.0
VFMVF1,2012-08-01,8400.0
VFMVF1,2012-08-02,8400.0
VFMVF1,2012-08-03,8500.0
VFMVF1,2012-08-06,8700.0
VFMVF1,2012-08-07,8600.0
VFMVF1,2012-08-08,8700.0
VFMVF1,2012-08-09,8700.0
VFMVF1,2012-08-10,8600.0
VFMVF1,2012-08-13,8400.0
VFMVF1,2012-08-14,8600.0
VFMVF1,2012-08-15,8600.0
VFMVF1,2012-08-16,8600.0
VFMVF1,2012-08-17,8700.0
VFMVF1,2012-08-20,8800.0
VFMVF1,2012-08-21,8400.0
VFMVF1,2012-08-22,8400.0
VFMVF1,2012-08-23,8000.0
VFMVF1,2012-08-24,8200.0
VFMVF1,2012-08-27,8000.0
VFMVF1,2012-08-28,8000.0
VFMVF1,2012-08-29,8200.0
VFMVF1,2012-08-30,8100.0
VFMVF1,2012-08-31,8000.0
VFMVF1,2012-09-04,8000.0
VFMVF1,2012-09-05,7800.0
VFMVF1,2012-09-06,7800.0
VFMVF1,2012-09-07,7800.0
VFMVF1,2012-09-10,7500.0
VFMVF1,2012-09-11,7400.0
VFMVF1,2012-09-12,7500.0
VFMVF1,2012-09-13,7500.0
VFMVF1,2012-09-14,7500.0
VFMVF1,2012-09-17,7700.0
VFMVF1,2012-09-18,7500.0
VFMVF1,2012-09-19,7500.0
VFMVF1,2012-09-20,7400.0
VFMVF1,2012-09-21,7500.0
VFMVF1,2012-09-24,7500.0
VFMVF1,2012-09-25,7500.0
VFMVF1,2012-09-26,7600.0
VFMVF1,2012-09-27,7500.0
VFMVF1,2012-09-28,7500.0
VFMVF1,2012-10-01,7300.0
VFMVF1,2012-10-02,7400.0
VFMVF1,2012-10-03,7500.0
VFMVF1,2012-10-04,7400.0
VFMVF1,2012-10-05,7400.0
VFMVF1,2012-10-08,7500.0
VFMVF1,2012-10-09,7500.0
VFMVF1,2012-10-10,7600.0
VFMVF1,2012-10-11,7600.0
VFMVF1,2012-10-12,7600.0
VFMVF1,2012-10-15,7600.0
VFMVF1,2012-10-16,7700.0
VFMVF1,2012-10-17,7500.0
VFMVF1,2012-10-18,7500.0
VFMVF1,2012-10-19,7500.0
VFMVF1,2012-10-22,7300.0
VFMVF1,2012-10-23,7500.0
VFMVF1,2012-10-24,7400.0
VFMVF1,2012-10-25,7300.0
VFMVF1,2012-10-26,7300.0
VFMVF1,2012-10-29,7300.0
VFMVF1,2012-10-30,7300.0
VFMVF1,2012-10-31,7400.0
VFMVF1,2012-11-01,7400.0
VFMVF1,2012-11-02,7100.0
VFMVF1,2012-11-05,7300.0
VFMVF1,2012-11-06,7500.0
VFMVF1,2012-11-07,7800.0
VFMVF1,2012-11-08,7600.0
VFMVF1,2012-11-09,7900.0
VFMVF1,2012-11-12,8200.0
VFMVF1,2012-11-13,8600.0
VFMVF1,2012-11-14,8500.0
VFMVF1,2012-11-15,8500.0
VFMVF1,2012-11-16,8600.0
VFMVF1,2012-11-19,8600.0
VFMVF1,2012-11-20,8900.0
VFMVF1,2012-11-21,9000.0
VFMVF1,2012-11-22,8900.0
VFMVF1,2012-11-23,9000.0
VFMVF1,2012-11-26,8700.0
VFMVF1,2012-11-27,8800.0
VFMVF1,2012-11-28,8800.0
VFMVF1,2012-11-29,8700.0
VFMVF1,2012-11-30,8800.0
VFMVF1,2012-12-03,8900.0
VFMVF1,2012-12-04,9000.0
VFMVF1,2012-12-05,9200.0
VFMVF1,2012-12-06,9100.0
VFMVF1,2012-12-07,9100.0
VFMVF1,2012-12-10,9300.0
VFMVF1,2012-12-11,9400.0
VFMVF1,2012-12-12,9800.0
VFMVF1,2012-12-13,10000.0
VFMVF1,2012-12-14,10100.0
VFMVF1,2012-12-17,9900.0
VFMVF1,2012-12-18,9800.0
VFMVF1,2012-12-19,9900.0
VFMVF1,2012-12-20,9800.0
VFMVF1,2012-12-21,9700.0
VFMVF1,2012-12-24,10100.0
VFMVF1,2012-12-25,10600.0
VFMVF1,2012-12-26,10800.0
VFMVF1,2012-12-27,10300.0
VFMVF1,2012-12-28,10800.0
VFMVF1,2013-01-02,10900.0
VFMVF1,2013-01-03,11000.0
VFMVF1,2013-01-04,11000.0
VFMVF1,2013-01-07,11300.0
VFMVF1,2013-01-08,11800.0
VFMVF1,2013-01-09,11600.0
VFMVF1,2013-01-10,11900.0
VFMVF1,2013-01-11,11900.0
VFMVF1,2013-01-14,11800.0
VFMVF1,2013-01-15,12400.0
VFMVF1,2013-01-16,12600.0
VFMVF1,2013-01-17,12500.0
VFMVF1,2013-01-18,12500.0
VFMVF1,2013-01-21,12600.0
VFMVF1,2013-01-22,12600.0
VFMVF1,2013-01-23,12400.0
VFMVF1,2013-01-24,12400.0
VFMVF1,2013-01-25,12900.0
VFMVF1,2013-01-28,12800.0
VFMVF1,2013-01-29,12900.0
VFMVF1,2013-01-30,12900.0
VFMVF1,2013-01-31,12900.0
VFMVF1,2013-02-01,12900.0
VFMVF1,2013-02-04,13100.0
VFMVF1,2013-02-05,12900.0
VFMVF1,2013-02-06,13000.0
VFMVF1,2013-02-07,13100.0
VFMVF1,2013-02-08,13000.0
VFMVF1,2013-02-18,13000.0
VFMVF1,2013-02-19,13300.0
VFMVF1,2013-02-20,13300.0
VFMVF1,2013-02-21,13000.0
VFMVF1,2013-02-22,13000.0
VFMVF1,2013-02-25,13200.0
VFMVF1,2013-02-26,13000.0
VFMVF1,2013-02-27,13000.0
VFMVF1,2013-02-28,12900.0
VFMVF1,2013-03-01,13100.0
VFMVF1,2013-03-04,13100.0
VFMVF1,2013-03-05,12900.0
VFMVF1,2013-03-06,13000.0
VFMVF1,2013-03-07,13100.0
VFMVF1,2013-03-08,13000.0
VFMVF1,2013-03-11,13300.0
VFMVF1,2013-03-12,13300.0
VFMVF1,2013-03-13,13300.0
VFMVF1,2013-03-14,13300.0
VFMVF1,2013-03-15,13900.0
VFMVF1,2013-03-18,13800.0
VFMVF1,2013-03-19,14000.0
VFMVF1,2013-03-20,14000.0
VFMVF1,2013-03-21,13700.0
VFMVF1,2013-03-22,14000.0
VFMVF1,2013-03-25,14100.0
VFMVF1,2013-03-26,14000.0
VFMVF1,2013-03-27,14000.0
VFMVF1,2013-03-28,14100.0
VFMVF1,2013-03-29,14100.0
VFMVF1,2013-04-01,14300.0
VFMVF1,2013-04-02,14200.0
VFMVF1,2013-04-03,14400.0
VFMVF1,2013-04-04,14500.0
VFMVF1,2013-04-05,14600.0
VFMVF1,2013-04-08,14500.0
VFMVF1,2013-04-09,14700.0
VFMVF1,2013-04-10,14700.0
VFMVF1,2013-04-11,14700.0
VFMVF1,2013-04-12,14700.0
VFMVF1,2013-04-15,14600.0
VFMVF1,2013-04-16,14500.0
VFMVF1,2013-04-17,14500.0
VFMVF1,2013-04-18,14500.0
VFMVF1,2013-04-22,14500.0
VFMVF1,2013-04-23,14500.0
VFMVF1,2013-04-24,14500.0
VFMVF1,2013-04-25,14600.0
VFMVF1,2013-04-26,14500.0
VFMVF1,2013-05-02,14500.0
VFMVF1,2013-05-03,14600.0
VFMVF1,2013-05-06,14800.0
VFMVF1,2013-05-07,14800.0
VFMVF1,2013-05-08,14900.0
VFMVF1,2013-05-09,14900.0
VFMVF1,2013-05-10,15000.0
VFMVF1,2013-05-13,15100.0
VFMVF1,2013-05-14,15100.0
VFMVF1,2013-05-15,15100.0
VFMVF1,2013-05-16,15100.0
VFMVF1,2013-05-17,15100.0
VFMVF1,2013-05-20,15100.0
VFMVF1,2013-05-21,15400.0
VFMVF1,2013-05-22,15600.0
VFMVF1,2013-05-23,15700.0
VFMVF1,2013-05-24,15600.0
VFMVF1,2013-05-27,15700.0
VFMVF1,2013-05-28,15800.0
VFMVF1,2013-05-29,16000.0
VFMVF1,2013-05-30,15900.0
VFMVF1,2013-05-31,15800.0
VFMVF1,2013-06-03,15800.0
VFMVF1,2013-06-04,15700.0
VFMVF1,2013-06-05,15800.0
VFMVF1,2013-06-06,15900.0
VFMVF1,2013-06-07,16200.0
VFMVF1,2013-06-10,16600.0
VFMVF1,2013-06-11,16200.0
VFMVF1,2013-06-12,16200.0
VFMVF1,2013-06-13,16300.0
VFMVF1,2013-06-14,16300.0
VFMVF1,2013-06-17,16100.0
VFMVF1,2013-06-18,16000.0
VFMVF1,2013-06-19,16200.0
VFMVF1,2013-06-20,16100.0
VFMVF1,2013-06-21,16100.0
VFMVF1,2013-06-24,16000.0
VFMVF1,2013-06-25,15600.0
VFMVF1,2013-06-26,15800.0
VFMVF1,2013-06-27,16000.0
VFMVF1,2013-06-28,16000.0
VFMVF1,2013-07-01,16000.0
VFMVF1,2013-07-02,16100.0
VFMVF1,2013-07-03,16000.0
VFMVF1,2013-07-04,15900.0
VFMVF1,2013-07-05,16000.0
VFMVF1,2013-07-08,15900.0
VFMVF1,2013-07-09,15900.0
VFMVF1,2013-07-10,15900.0
VFMVF1,2013-07-11,15900.0
VFMVF1,2013-07-12,16000.0
VFMVF1,2013-07-15,15900.0
VFMVF1,2013-07-16,15900.0
VFMVF1,2013-07-17,15900.0
VFMVF1,2013-07-18,16000.0
VFMVF1,2013-07-19,16100.0
VFMVF1,2013-07-22,16100.0
VFMVF1,2013-07-23,16100.0
VFMVF1,2013-07-24,16000.0
VFMVF1,2013-07-25,16000.0
VFMVF1,2013-07-26,16100.0
VFMVF1,2013-07-29,16000.0
VFMVF1,2013-07-30,16000.0
VFMVF1,2013-07-31,16000.0
VFMVF1,2013-08-01,16000.0
VFMVF1,2013-08-02,16100.0
VFMVF1,2013-08-05,16100.0
VFMVF1,2013-08-06,16300.0
VFMVF1,2013-08-07,16200.0
VFMVF1,2013-08-08,16200.0
VFMVF1,2013-08-09,16300.0
VFMVF1,2013-08-12,16100.0
VFMVF1,2013-08-13,16100.0
VFMVF1,2013-08-14,16200.0
VFMVF1,2013-08-15,16200.0
VFMVF1,2013-08-16,16200.0
VFMVF1,2013-08-19,16400.0
VFMVF1,2013-08-20,16400.0
VFMVF1,2013-08-21,16500.0
VFMVF1,2013-08-22,16500.0
VFMVF1,2013-08-23,16300.0
VFMVF1,2013-08-26,16200.0
VFMVF1,2013-08-27,16300.0
VFMVF1,2013-08-28,16400.0
VFMVF1,2013-08-29,16200.0
VFMVF1,2013-08-30,16300.0
VFMVF1,2013-09-03,16300.0
VFMVF1,2013-09-04,16200.0
VFMVF1,2013-09-05,16300.0
VFMVF1,2013-09-06,16300.0
VFMVF1,2013-09-09,16300.0
VFMVF1,2013-09-10,16600.0
VFMVF1,2013-09-11,16700.0
VFMVF1,2013-09-12,16700.0
VFMVF1,2013-09-13,16600.0
VFMVF1,2013-09-16,16600.0
VFMVF1,2013-09-17,16600.0
VFMVF1,2013-09-18,16600.0
VFMVF1,2013-09-19,16600.0
VFMVF1,2013-09-20,16900.0
VFMVF1,2013-09-23,16900.0
VFMVF1,2013-09-24,17300.0
