VIS,2006-12-25,12900.0
VIS,2006-12-26,12900.0
VIS,2006-12-27,12600.0
VIS,2006-12-28,12000.0
VIS,2006-12-29,11400.0
VIS,2007-01-02,10900.0
VIS,2007-01-03,10300.0
VIS,2007-01-04,9900.0
VIS,2007-01-05,10400.0
VIS,2007-01-08,10900.0
VIS,2007-01-09,11400.0
VIS,2007-01-10,12000.0
VIS,2007-01-11,12500.0
VIS,2007-01-12,13100.0
VIS,2007-01-15,13300.0
VIS,2007-01-16,13300.0
VIS,2007-01-17,13300.0
VIS,2007-01-18,13300.0
VIS,2007-01-19,12700.0
VIS,2007-01-22,12700.0
VIS,2007-01-23,12000.0
VIS,2007-01-24,11400.0
VIS,2007-01-25,11400.0
VIS,2007-01-26,10900.0
VIS,2007-01-29,11400.0
VIS,2007-01-30,12000.0
VIS,2007-01-31,12500.0
VIS,2007-02-01,12900.0
VIS,2007-02-02,12900.0
VIS,2007-02-05,12300.0
VIS,2007-02-06,12300.0
VIS,2007-02-07,12500.0
VIS,2007-02-08,12500.0
VIS,2007-02-09,12500.0
VIS,2007-02-12,12600.0
VIS,2007-02-13,12600.0
VIS,2007-02-14,12600.0
VIS,2007-02-15,12600.0
VIS,2007-02-26,12600.0
VIS,2007-02-27,13200.0
VIS,2007-02-28,13900.0
VIS,2007-03-01,14500.0
VIS,2007-03-02,15200.0
VIS,2007-03-05,15900.0
VIS,2007-03-06,16600.0
VIS,2007-03-07,16300.0
VIS,2007-03-08,17000.0
VIS,2007-03-09,17700.0
VIS,2007-03-12,18600.0
VIS,2007-03-13,19500.0
VIS,2007-03-14,20300.0
VIS,2007-03-15,19300.0
VIS,2007-03-16,18500.0
VIS,2007-03-19,17600.0
VIS,2007-03-20,18300.0
VIS,2007-03-21,19200.0
VIS,2007-03-22,19500.0
VIS,2007-03-23,18600.0
VIS,2007-03-26,17700.0
VIS,2007-03-27,16900.0
VIS,2007-03-28,16200.0
VIS,2007-03-29,16600.0
VIS,2007-03-30,17300.0
VIS,2007-04-02,16500.0
VIS,2007-04-03,16900.0
VIS,2007-04-04,16300.0
VIS,2007-04-05,16600.0
VIS,2007-04-06,16600.0
VIS,2007-04-09,16600.0
VIS,2007-04-10,16600.0
VIS,2007-04-11,15900.0
VIS,2007-04-12,15900.0
VIS,2007-04-13,15200.0
VIS,2007-04-16,14500.0
VIS,2007-04-17,13700.0
VIS,2007-04-18,14300.0
VIS,2007-04-19,15000.0
VIS,2007-04-20,14300.0
VIS,2007-04-23,13900.0
VIS,2007-04-24,14300.0
VIS,2007-04-25,14900.0
VIS,2007-05-02,14900.0
VIS,2007-05-03,14200.0
VIS,2007-05-04,14200.0
VIS,2007-05-07,14200.0
VIS,2007-05-08,14500.0
VIS,2007-05-09,14600.0
VIS,2007-05-10,15000.0
VIS,2007-05-11,14300.0
VIS,2007-05-14,14600.0
VIS,2007-05-15,14300.0
VIS,2007-05-16,14000.0
VIS,2007-05-17,14000.0
VIS,2007-05-18,14300.0
VIS,2007-05-21,13900.0
VIS,2007-05-22,13700.0
VIS,2007-05-23,14100.0
VIS,2007-05-24,14100.0
VIS,2007-05-25,14000.0
VIS,2007-05-28,13700.0
VIS,2007-05-29,13700.0
VIS,2007-05-30,13600.0
VIS,2007-05-31,13500.0
VIS,2007-06-01,13500.0
VIS,2007-06-04,13500.0
VIS,2007-06-05,12800.0
VIS,2007-06-06,12600.0
VIS,2007-06-07,12900.0
VIS,2007-06-08,13500.0
VIS,2007-06-11,14200.0
VIS,2007-06-12,14000.0
VIS,2007-06-13,13500.0
VIS,2007-06-14,13900.0
VIS,2007-06-15,13600.0
VIS,2007-06-18,13700.0
VIS,2007-06-19,13700.0
VIS,2007-06-20,13900.0
VIS,2007-06-21,13500.0
VIS,2007-06-22,14100.0
VIS,2007-06-25,14300.0
VIS,2007-06-26,14000.0
VIS,2007-06-27,13800.0
VIS,2007-06-28,13500.0
VIS,2007-06-29,13200.0
VIS,2007-07-02,12500.0
VIS,2007-07-03,11900.0
VIS,2007-07-04,11900.0
VIS,2007-07-05,11900.0
VIS,2007-07-06,11900.0
VIS,2007-07-09,11900.0
VIS,2007-07-10,11900.0
VIS,2007-07-11,12300.0
VIS,2007-07-12,12900.0
VIS,2007-07-13,13600.0
VIS,2007-07-16,14300.0
VIS,2007-07-17,14900.0
VIS,2007-07-18,15600.0
VIS,2007-07-19,16400.0
VIS,2007-07-20,17200.0
VIS,2007-07-23,16400.0
VIS,2007-07-24,15600.0
VIS,2007-07-25,14800.0
VIS,2007-07-26,14100.0
VIS,2007-07-27,13900.0
VIS,2007-07-30,13500.0
VIS,2007-07-31,13100.0
VIS,2007-08-01,13700.0
VIS,2007-08-02,13900.0
VIS,2007-08-03,13500.0
VIS,2007-08-06,12900.0
VIS,2007-08-07,12700.0
VIS,2007-08-08,13400.0
VIS,2007-08-09,14000.0
VIS,2007-08-10,13300.0
VIS,2007-08-13,13500.0
VIS,2007-08-14,13500.0
VIS,2007-08-15,13100.0
VIS,2007-08-16,13000.0
VIS,2007-08-17,13100.0
VIS,2007-08-20,13100.0
VIS,2007-08-21,13100.0
VIS,2007-08-22,12900.0
VIS,2007-08-23,12700.0
VIS,2007-08-24,13100.0
VIS,2007-08-27,12800.0
VIS,2007-08-28,12800.0
VIS,2007-08-29,13100.0
VIS,2007-08-30,12900.0
VIS,2007-08-31,13200.0
VIS,2007-09-04,13800.0
VIS,2007-09-05,14500.0
VIS,2007-09-06,14300.0
VIS,2007-09-07,14300.0
VIS,2007-09-10,13900.0
VIS,2007-09-11,14100.0
VIS,2007-09-12,14500.0
VIS,2007-09-13,13900.0
VIS,2007-09-14,14300.0
VIS,2007-09-17,14100.0
VIS,2007-09-18,13700.0
VIS,2007-09-19,13900.0
VIS,2007-09-20,14300.0
VIS,2007-09-21,13800.0
VIS,2007-09-24,14000.0
VIS,2007-09-25,14300.0
VIS,2007-09-26,14500.0
VIS,2007-09-27,14100.0
VIS,2007-09-28,14100.0
VIS,2007-10-01,14800.0
VIS,2007-10-02,15500.0
VIS,2007-10-03,16300.0
VIS,2007-10-04,17100.0
VIS,2007-10-05,17900.0
VIS,2007-10-08,18800.0
VIS,2007-10-09,19700.0
VIS,2007-10-10,20500.0
VIS,2007-10-11,21500.0
VIS,2007-10-12,22500.0
VIS,2007-10-15,23500.0
VIS,2007-10-16,24500.0
VIS,2007-10-17,25700.0
VIS,2007-10-18,26900.0
VIS,2007-10-19,27100.0
VIS,2007-10-22,27900.0
VIS,2007-10-23,29300.0
VIS,2007-10-24,30700.0
VIS,2007-10-25,32100.0
VIS,2007-10-26,33400.0
VIS,2007-10-29,35000.0
VIS,2007-10-30,36600.0
VIS,2007-10-31,38400.0
VIS,2007-11-01,40200.0
VIS,2007-11-02,38200.0
VIS,2007-11-05,36400.0
VIS,2007-11-06,34600.0
VIS,2007-11-07,33000.0
VIS,2007-11-08,31500.0
VIS,2007-11-09,32800.0
VIS,2007-11-12,34400.0
VIS,2007-11-13,36000.0
VIS,2007-11-14,35800.0
VIS,2007-11-15,36000.0
VIS,2007-11-16,35800.0
VIS,2007-11-19,35800.0
VIS,2007-11-20,34200.0
VIS,2007-11-21,33000.0
VIS,2007-11-22,32600.0
VIS,2007-11-23,31900.0
VIS,2007-11-26,31900.0
VIS,2007-11-27,31700.0
VIS,2007-11-28,31100.0
VIS,2007-11-29,31500.0
VIS,2007-11-30,31300.0
VIS,2007-12-03,31500.0
VIS,2007-12-04,31500.0
VIS,2007-12-05,30300.0
VIS,2007-12-06,30300.0
VIS,2007-12-07,31700.0
VIS,2007-12-10,30700.0
VIS,2007-12-11,29900.0
VIS,2007-12-12,29500.0
VIS,2007-12-13,28300.0
VIS,2007-12-14,27100.0
VIS,2007-12-17,25900.0
VIS,2007-12-18,24700.0
VIS,2007-12-19,25900.0
VIS,2007-12-20,27100.0
VIS,2007-12-21,27100.0
VIS,2007-12-24,25900.0
VIS,2007-12-25,24700.0
VIS,2007-12-26,25900.0
VIS,2007-12-27,25100.0
VIS,2007-12-28,25100.0
VIS,2008-01-02,25300.0
VIS,2008-01-03,25100.0
VIS,2008-01-04,24900.0
VIS,2008-01-07,23700.0
VIS,2008-01-08,23900.0
VIS,2008-01-09,23900.0
VIS,2008-01-10,22700.0
VIS,2008-01-11,22700.0
VIS,2008-01-14,21700.0
VIS,2008-01-15,20700.0
VIS,2008-01-16,21700.0
VIS,2008-01-17,21700.0
VIS,2008-01-18,22700.0
VIS,2008-01-21,21900.0
VIS,2008-01-22,21700.0
VIS,2008-01-23,20700.0
VIS,2008-01-24,20300.0
VIS,2008-01-25,20500.0
VIS,2008-01-28,20300.0
VIS,2008-01-29,21300.0
VIS,2008-01-30,22300.0
VIS,2008-01-31,21500.0
VIS,2008-02-01,22500.0
VIS,2008-02-12,22300.0
VIS,2008-02-13,21500.0
VIS,2008-02-14,22500.0
VIS,2008-02-15,21900.0
VIS,2008-02-18,21700.0
VIS,2008-02-19,21900.0
VIS,2008-02-20,20500.0
VIS,2008-02-21,19500.0
VIS,2008-02-22,19900.0
VIS,2008-02-25,20900.0
VIS,2008-02-26,21100.0
VIS,2008-02-27,20700.0
VIS,2008-02-28,20500.0
VIS,2008-02-29,19500.0
VIS,2008-03-03,18600.0
VIS,2008-03-04,17600.0
VIS,2008-03-05,16800.0
VIS,2008-03-06,17600.0
VIS,2008-03-07,18500.0
VIS,2008-03-10,19400.0
VIS,2008-03-11,19900.0
VIS,2008-03-12,20300.0
VIS,2008-03-13,20700.0
VIS,2008-03-14,20900.0
VIS,2008-03-17,19900.0
VIS,2008-03-18,18900.0
VIS,2008-03-19,18200.0
VIS,2008-03-20,19000.0
VIS,2008-03-21,18100.0
VIS,2008-03-24,17200.0
VIS,2008-03-25,16400.0
VIS,2008-03-26,17200.0
VIS,2008-03-27,17300.0
VIS,2008-03-28,17500.0
VIS,2008-03-31,17600.0
VIS,2008-04-01,17800.0
VIS,2008-04-02,18000.0
VIS,2008-04-03,18100.0
VIS,2008-04-04,18300.0
VIS,2008-04-07,18600.0
VIS,2008-04-08,18300.0
VIS,2008-04-09,17900.0
VIS,2008-04-10,17600.0
VIS,2008-04-11,17200.0
VIS,2008-04-16,16900.0
VIS,2008-04-17,16600.0
VIS,2008-04-18,16300.0
VIS,2008-04-21,16000.0
VIS,2008-04-22,15600.0
VIS,2008-04-23,15400.0
VIS,2008-04-24,15100.0
VIS,2008-04-25,14800.0
VIS,2008-04-28,14500.0
VIS,2008-04-29,14300.0
VIS,2008-05-05,14000.0
VIS,2008-05-06,13700.0
VIS,2008-05-07,13700.0
VIS,2008-05-08,13500.0
VIS,2008-05-09,13200.0
VIS,2008-05-12,13100.0
VIS,2008-05-13,13100.0
VIS,2008-05-14,12900.0
VIS,2008-05-15,12700.0
VIS,2008-05-16,12400.0
VIS,2008-05-19,12200.0
VIS,2008-05-20,11900.0
VIS,2008-05-21,11900.0
VIS,2008-05-22,11700.0
VIS,2008-05-23,11700.0
VIS,2008-05-26,11500.0
VIS,2008-05-30,11300.0
VIS,2008-06-02,11300.0
VIS,2008-06-03,11100.0
VIS,2008-06-04,10900.0
VIS,2008-06-05,10700.0
VIS,2008-06-06,10500.0
VIS,2008-06-09,10500.0
VIS,2008-06-10,10300.0
VIS,2008-06-11,10100.0
VIS,2008-06-12,9900.0
VIS,2008-06-13,9800.0
VIS,2008-06-16,9600.0
VIS,2008-06-17,9800.0
VIS,2008-06-18,9600.0
VIS,2008-06-19,9300.0
VIS,2008-06-20,9000.0
VIS,2008-06-23,8800.0
VIS,2008-06-24,8600.0
VIS,2008-06-25,8300.0
VIS,2008-06-26,8100.0
VIS,2008-06-27,7800.0
VIS,2008-06-30,7600.0
VIS,2008-07-01,7800.0
VIS,2008-07-02,7900.0
VIS,2008-07-03,8100.0
VIS,2008-07-04,8300.0
VIS,2008-07-07,8100.0
VIS,2008-07-08,8000.0
VIS,2008-07-09,7900.0
VIS,2008-07-10,8100.0
VIS,2008-07-11,8300.0
VIS,2008-07-14,8600.0
VIS,2008-07-15,8800.0
VIS,2008-07-16,9000.0
VIS,2008-07-17,9300.0
VIS,2008-07-18,9300.0
VIS,2008-07-21,9000.0
VIS,2008-07-22,8800.0
VIS,2008-07-23,8600.0
VIS,2008-07-24,8400.0
VIS,2008-07-25,8600.0
VIS,2008-07-28,8800.0
VIS,2008-07-29,9100.0
VIS,2008-07-30,9300.0
VIS,2008-07-31,9600.0
VIS,2008-08-01,9900.0
VIS,2008-08-04,10200.0
VIS,2008-08-05,10400.0
VIS,2008-08-06,10700.0
VIS,2008-08-07,11000.0
VIS,2008-08-08,11300.0
VIS,2008-08-11,11700.0
VIS,2008-08-12,12000.0
VIS,2008-08-13,12300.0
VIS,2008-08-14,12700.0
VIS,2008-08-15,13100.0
VIS,2008-08-18,13700.0
VIS,2008-08-19,14400.0
VIS,2008-08-20,15100.0
VIS,2008-08-21,15800.0
VIS,2008-08-22,16600.0
VIS,2008-08-25,17400.0
VIS,2008-08-26,18200.0
VIS,2008-08-27,19100.0
VIS,2008-08-28,18200.0
VIS,2008-08-29,17300.0
VIS,2008-09-03,16400.0
VIS,2008-09-04,17200.0
VIS,2008-09-05,18100.0
VIS,2008-09-08,17200.0
VIS,2008-09-09,16400.0
VIS,2008-09-10,15600.0
VIS,2008-09-11,14800.0
VIS,2008-09-12,14100.0
VIS,2008-09-15,13400.0
VIS,2008-09-16,12800.0
VIS,2008-09-17,12100.0
VIS,2008-09-18,11500.0
VIS,2008-09-19,12100.0
VIS,2008-09-22,12700.0
VIS,2008-09-23,13300.0
VIS,2008-09-24,12700.0
VIS,2008-09-25,12100.0
VIS,2008-09-26,11500.0
VIS,2008-09-29,11000.0
VIS,2008-09-30,10500.0
VIS,2008-10-01,10000.0
VIS,2008-10-02,9800.0
VIS,2008-10-03,10200.0
VIS,2008-10-06,10200.0
VIS,2008-10-07,9800.0
VIS,2008-10-08,9300.0
VIS,2008-10-09,8800.0
VIS,2008-10-10,8400.0
VIS,2008-10-13,8800.0
VIS,2008-10-14,9200.0
VIS,2008-10-15,9700.0
VIS,2008-10-16,10200.0
VIS,2008-10-17,10600.0
VIS,2008-10-20,10200.0
VIS,2008-10-21,10400.0
VIS,2008-10-22,10500.0
VIS,2008-10-23,10200.0
VIS,2008-10-24,10600.0
VIS,2008-10-27,10000.0
VIS,2008-10-28,9600.0
VIS,2008-10-29,9900.0
VIS,2008-10-30,10000.0
VIS,2008-10-31,10200.0
VIS,2008-11-03,10100.0
VIS,2008-11-04,10200.0
VIS,2008-11-05,10600.0
VIS,2008-11-06,10000.0
VIS,2008-11-07,9600.0
VIS,2008-11-10,9700.0
VIS,2008-11-11,9700.0
VIS,2008-11-12,9200.0
VIS,2008-11-13,9400.0
VIS,2008-11-14,9700.0
VIS,2008-11-17,9800.0
VIS,2008-11-18,9600.0
VIS,2008-11-19,9600.0
VIS,2008-11-20,9600.0
VIS,2008-11-21,9200.0
VIS,2008-11-24,9400.0
VIS,2008-11-25,9800.0
VIS,2008-11-26,9300.0
VIS,2008-11-27,8900.0
VIS,2008-11-28,9300.0
VIS,2008-12-01,9300.0
VIS,2008-12-02,8900.0
VIS,2008-12-03,9200.0
VIS,2008-12-04,9100.0
VIS,2008-12-05,8700.0
VIS,2008-12-08,8300.0
VIS,2008-12-09,8600.0
VIS,2008-12-10,8800.0
VIS,2008-12-11,9200.0
VIS,2008-12-12,9600.0
VIS,2008-12-15,10100.0
VIS,2008-12-16,9600.0
VIS,2008-12-17,10000.0
VIS,2008-12-18,9900.0
VIS,2008-12-19,9600.0
VIS,2008-12-22,9600.0
VIS,2008-12-23,9600.0
VIS,2008-12-24,10000.0
VIS,2008-12-25,9600.0
VIS,2008-12-26,10000.0
VIS,2008-12-29,10000.0
VIS,2008-12-30,10000.0
VIS,2008-12-31,10000.0
VIS,2009-01-02,10000.0
VIS,2009-01-05,10000.0
VIS,2009-01-06,10000.0
VIS,2009-01-07,10400.0
VIS,2009-01-08,10900.0
VIS,2009-01-09,11300.0
VIS,2009-01-12,11300.0
VIS,2009-01-13,10900.0
VIS,2009-01-14,10800.0
VIS,2009-01-15,10800.0
VIS,2009-01-16,10900.0
VIS,2009-01-19,10800.0
VIS,2009-01-20,10900.0
VIS,2009-01-21,10800.0
VIS,2009-01-22,11100.0
VIS,2009-01-23,10800.0
VIS,2009-02-02,10800.0
VIS,2009-02-03,10400.0
VIS,2009-02-04,10100.0
VIS,2009-02-05,9600.0
VIS,2009-02-06,9800.0
VIS,2009-02-09,10300.0
VIS,2009-02-10,10100.0
VIS,2009-02-11,10100.0
VIS,2009-02-12,9800.0
VIS,2009-02-13,10000.0
VIS,2009-02-16,10100.0
VIS,2009-02-17,9800.0
VIS,2009-02-18,9600.0
VIS,2009-02-19,9600.0
VIS,2009-02-20,9600.0
VIS,2009-02-23,9100.0
VIS,2009-02-24,9100.0
VIS,2009-02-25,9600.0
VIS,2009-02-26,9400.0
VIS,2009-02-27,9600.0
VIS,2009-03-02,9700.0
VIS,2009-03-03,9700.0
VIS,2009-03-04,9400.0
VIS,2009-03-05,9400.0
VIS,2009-03-06,9800.0
VIS,2009-03-09,9800.0
VIS,2009-03-10,10000.0
VIS,2009-03-11,10000.0
VIS,2009-03-12,9800.0
VIS,2009-03-13,9800.0
VIS,2009-03-16,9500.0
VIS,2009-03-17,9600.0
VIS,2009-03-18,10100.0
VIS,2009-03-19,10100.0
VIS,2009-03-20,9700.0
VIS,2009-03-23,9600.0
VIS,2009-03-24,10000.0
VIS,2009-03-25,9900.0
VIS,2009-03-26,9900.0
VIS,2009-03-27,10000.0
VIS,2009-03-30,10000.0
VIS,2009-03-31,9700.0
VIS,2009-04-01,10200.0
VIS,2009-04-02,10500.0
VIS,2009-04-03,10600.0
VIS,2009-04-07,10900.0
VIS,2009-04-08,10300.0
VIS,2009-04-09,9900.0
VIS,2009-04-10,10400.0
VIS,2009-04-13,10900.0
VIS,2009-04-14,11400.0
VIS,2009-04-15,11900.0
VIS,2009-04-16,12500.0
VIS,2009-04-17,12900.0
VIS,2009-04-20,12300.0
VIS,2009-04-21,11700.0
VIS,2009-04-22,12100.0
VIS,2009-04-23,11600.0
VIS,2009-04-24,11000.0
VIS,2009-04-27,10900.0
VIS,2009-04-28,11000.0
VIS,2009-04-29,11100.0
VIS,2009-05-04,11600.0
VIS,2009-05-05,12200.0
VIS,2009-05-06,11600.0
VIS,2009-05-07,11800.0
VIS,2009-05-08,11500.0
VIS,2009-05-11,11700.0
VIS,2009-05-12,11900.0
VIS,2009-05-13,11900.0
VIS,2009-05-14,11700.0
VIS,2009-05-15,12300.0
VIS,2009-05-18,12700.0
VIS,2009-05-19,13300.0
VIS,2009-05-20,13900.0
VIS,2009-05-21,14600.0
VIS,2009-05-22,13900.0
VIS,2009-05-25,14400.0
VIS,2009-05-26,13900.0
VIS,2009-05-27,13500.0
VIS,2009-05-28,12900.0
VIS,2009-05-29,13000.0
VIS,2009-06-01,13600.0
VIS,2009-06-02,14300.0
VIS,2009-06-03,15000.0
VIS,2009-06-04,15700.0
VIS,2009-06-05,16500.0
VIS,2009-06-08,17300.0
VIS,2009-06-09,17900.0
VIS,2009-06-10,17000.0
VIS,2009-06-11,17700.0
VIS,2009-06-12,17000.0
VIS,2009-06-15,16100.0
VIS,2009-06-16,15400.0
VIS,2009-06-17,14600.0
VIS,2009-06-18,15300.0
VIS,2009-06-19,16100.0
VIS,2009-06-22,15400.0
VIS,2009-06-23,14700.0
VIS,2009-06-24,15400.0
VIS,2009-06-25,15000.0
VIS,2009-06-26,14900.0
VIS,2009-06-29,14500.0
VIS,2009-06-30,13800.0
VIS,2009-07-01,13100.0
VIS,2009-07-02,13100.0
VIS,2009-07-03,13500.0
VIS,2009-07-06,14200.0
VIS,2009-07-07,13700.0
VIS,2009-07-08,13200.0
VIS,2009-07-09,13900.0
VIS,2009-07-10,14600.0
VIS,2009-07-13,15300.0
VIS,2009-07-14,14600.0
VIS,2009-07-15,14900.0
VIS,2009-07-16,15600.0
VIS,2009-07-17,16300.0
VIS,2009-07-20,16800.0
VIS,2009-07-21,16900.0
VIS,2009-07-22,16500.0
VIS,2009-07-23,17300.0
VIS,2009-07-24,18200.0
VIS,2009-07-27,19100.0
VIS,2009-07-28,20000.0
VIS,2009-07-29,21000.0
VIS,2009-07-30,22000.0
VIS,2009-07-31,22900.0
VIS,2009-08-03,22900.0
VIS,2009-08-04,22500.0
VIS,2009-08-05,23600.0
VIS,2009-08-06,24700.0
VIS,2009-08-07,25800.0
VIS,2009-08-10,26900.0
VIS,2009-08-11,28200.0
VIS,2009-08-12,29600.0
VIS,2009-08-13,30400.0
VIS,2009-08-14,29100.0
VIS,2009-08-17,30000.0
VIS,2009-08-18,31300.0
VIS,2009-08-19,32900.0
VIS,2009-08-20,33500.0
VIS,2009-08-21,32200.0
VIS,2009-08-24,30900.0
VIS,2009-08-25,31300.0
VIS,2009-08-26,31800.0
VIS,2009-08-27,32000.0
VIS,2009-08-28,31300.0
VIS,2009-08-31,31300.0
VIS,2009-09-01,30400.0
VIS,2009-09-03,30200.0
VIS,2009-09-04,31300.0
VIS,2009-09-08,34400.0
VIS,2009-09-09,36000.0
VIS,2009-09-10,37500.0
VIS,2009-09-11,37100.0
VIS,2009-09-14,36400.0
VIS,2009-09-15,34600.0
VIS,2009-09-16,36200.0
VIS,2009-09-17,37900.0
VIS,2009-09-18,39800.0
VIS,2009-09-21,41600.0
VIS,2009-09-22,43600.0
VIS,2009-09-23,45600.0
VIS,2009-09-24,46500.0
VIS,2009-09-25,47000.0
VIS,2009-09-28,46500.0
VIS,2009-09-29,44700.0
VIS,2009-09-30,47000.0
VIS,2009-10-01,49200.0
VIS,2009-10-02,51400.0
VIS,2009-10-05,53200.0
VIS,2009-10-06,52800.0
VIS,2009-10-07,55000.0
VIS,2009-10-08,57700.0
VIS,2009-10-09,60400.0
VIS,2009-10-12,63100.0
VIS,2009-10-13,64400.0
VIS,2009-10-14,62600.0
VIS,2009-10-15,59500.0
VIS,2009-10-16,59100.0
VIS,2009-10-19,58200.0
VIS,2009-10-20,60800.0
VIS,2009-10-21,62600.0
VIS,2009-10-22,59900.0
VIS,2009-10-23,57300.0
VIS,2009-10-26,54600.0
VIS,2009-10-27,53700.0
VIS,2009-10-28,56400.0
VIS,2009-10-29,57300.0
VIS,2009-10-30,56400.0
VIS,2009-11-02,53700.0
VIS,2009-11-03,51000.0
VIS,2009-11-04,48800.0
VIS,2009-11-05,47400.0
VIS,2009-11-06,45200.0
VIS,2009-11-09,42900.0
VIS,2009-11-10,40900.0
VIS,2009-11-11,41400.0
VIS,2009-11-12,43400.0
VIS,2009-11-13,45200.0
VIS,2009-11-16,47400.0
VIS,2009-11-17,47400.0
VIS,2009-11-18,47000.0
VIS,2009-11-19,47400.0
VIS,2009-11-20,46100.0
VIS,2009-11-23,43800.0
VIS,2009-11-24,41800.0
VIS,2009-11-25,39800.0
VIS,2009-11-26,38000.0
VIS,2009-11-27,36200.0
VIS,2009-11-30,34400.0
VIS,2009-12-01,36000.0
VIS,2009-12-02,37100.0
VIS,2009-12-03,37100.0
VIS,2009-12-04,36000.0
VIS,2009-12-07,36000.0
VIS,2009-12-08,34700.0
VIS,2009-12-09,33100.0
VIS,2009-12-10,31500.0
VIS,2009-12-11,30000.0
VIS,2009-12-14,30000.0
VIS,2009-12-15,28600.0
VIS,2009-12-16,27300.0
VIS,2009-12-17,25900.0
VIS,2009-12-18,27100.0
VIS,2009-12-21,28400.0
VIS,2009-12-22,29700.0
VIS,2009-12-23,30200.0
VIS,2009-12-24,30400.0
VIS,2009-12-25,31800.0
VIS,2009-12-28,33300.0
VIS,2009-12-29,34900.0
VIS,2009-12-30,35300.0
VIS,2009-12-31,36900.0
VIS,2010-01-04,38700.0
VIS,2010-01-05,40500.0
VIS,2010-01-06,42500.0
VIS,2010-01-07,44300.0
VIS,2010-01-08,42300.0
VIS,2010-01-11,40700.0
VIS,2010-01-12,42100.0
VIS,2010-01-13,44100.0
VIS,2010-01-14,46100.0
VIS,2010-01-15,45200.0
VIS,2010-01-18,42900.0
VIS,2010-01-19,41600.0
VIS,2010-01-20,39800.0
VIS,2010-01-21,38000.0
VIS,2010-01-22,36200.0
VIS,2010-01-25,38000.0
VIS,2010-01-26,39800.0
VIS,2010-01-27,41200.0
VIS,2010-01-28,39400.0
VIS,2010-01-29,40000.0
VIS,2010-02-01,40700.0
VIS,2010-02-02,39600.0
VIS,2010-02-03,41400.0
VIS,2010-02-04,43400.0
VIS,2010-02-05,43600.0
VIS,2010-02-08,43800.0
VIS,2010-02-09,42500.0
VIS,2010-02-10,43200.0
VIS,2010-02-11,44300.0
VIS,2010-02-12,44300.0
VIS,2010-02-22,43600.0
VIS,2010-02-23,41600.0
VIS,2010-02-24,41200.0
VIS,2010-02-25,40500.0
VIS,2010-02-26,42400.0
VIS,2010-03-01,44500.0
VIS,2010-03-02,46600.0
VIS,2010-03-03,48800.0
VIS,2010-03-04,50900.0
VIS,2010-03-05,53000.0
VIS,2010-03-08,52600.0
VIS,2010-03-09,55100.0
VIS,2010-03-10,57700.0
VIS,2010-03-11,60200.0
VIS,2010-03-12,60200.0
VIS,2010-03-15,58100.0
VIS,2010-03-16,57700.0
VIS,2010-03-17,56800.0
VIS,2010-03-18,59400.0
VIS,2010-03-19,58900.0
VIS,2010-03-22,57200.0
VIS,2010-03-23,56800.0
VIS,2010-03-24,59400.0
VIS,2010-03-25,57200.0
VIS,2010-03-26,56800.0
VIS,2010-03-29,57200.0
VIS,2010-03-30,56000.0
VIS,2010-03-31,53400.0
VIS,2010-04-01,53400.0
VIS,2010-04-02,53800.0
VIS,2010-04-05,56400.0
VIS,2010-04-06,58900.0
VIS,2010-04-07,57200.0
VIS,2010-04-08,57200.0
VIS,2010-04-09,56800.0
VIS,2010-04-12,56000.0
VIS,2010-04-13,54700.0
VIS,2010-04-14,55100.0
VIS,2010-04-15,55100.0
VIS,2010-04-16,54300.0
VIS,2010-04-19,53000.0
VIS,2010-04-20,55500.0
VIS,2010-04-21,54700.0
VIS,2010-04-22,55100.0
VIS,2010-04-26,53800.0
VIS,2010-04-27,56000.0
VIS,2010-04-28,58500.0
VIS,2010-04-29,61000.0
VIS,2010-05-04,64000.0
VIS,2010-05-05,67000.0
VIS,2010-05-06,68300.0
VIS,2010-05-07,64900.0
VIS,2010-05-10,61900.0
VIS,2010-05-11,63200.0
VIS,2010-05-12,60200.0
VIS,2010-05-13,57200.0
VIS,2010-05-14,58100.0
VIS,2010-05-17,56400.0
VIS,2010-05-18,57700.0
VIS,2010-05-19,55100.0
VIS,2010-05-20,56800.0
VIS,2010-05-21,54300.0
VIS,2010-05-24,52600.0
VIS,2010-05-25,50400.0
VIS,2010-05-26,52600.0
VIS,2010-05-27,54700.0
VIS,2010-05-28,56000.0
VIS,2010-05-31,53800.0
VIS,2010-06-01,54300.0
VIS,2010-06-02,54300.0
VIS,2010-06-03,53800.0
VIS,2010-06-04,53400.0
VIS,2010-06-07,50900.0
VIS,2010-06-08,51700.0
VIS,2010-06-09,51300.0
VIS,2010-06-10,50900.0
VIS,2010-06-11,50900.0
VIS,2010-06-14,50400.0
VIS,2010-06-15,50900.0
VIS,2010-06-16,53400.0
VIS,2010-06-17,52100.0
VIS,2010-06-18,52100.0
VIS,2010-06-21,51700.0
VIS,2010-06-22,50900.0
VIS,2010-06-23,51300.0
VIS,2010-06-24,50900.0
VIS,2010-06-25,49600.0
VIS,2010-06-28,48800.0
VIS,2010-06-29,49200.0
VIS,2010-06-30,48300.0
VIS,2010-07-01,47500.0
VIS,2010-07-02,47500.0
VIS,2010-07-05,48800.0
VIS,2010-07-06,47900.0
VIS,2010-07-07,47500.0
VIS,2010-07-08,47900.0
VIS,2010-07-09,47900.0
VIS,2010-07-12,47500.0
VIS,2010-07-13,48800.0
VIS,2010-07-14,47900.0
VIS,2010-07-15,48800.0
VIS,2010-07-16,48300.0
VIS,2010-07-19,47900.0
VIS,2010-07-20,47900.0
VIS,2010-07-21,47100.0
VIS,2010-07-22,45800.0
VIS,2010-07-23,44900.0
VIS,2010-07-26,44500.0
VIS,2010-07-27,44100.0
VIS,2010-07-28,42000.0
VIS,2010-07-29,42400.0
VIS,2010-07-30,42800.0
VIS,2010-08-02,42100.0
VIS,2010-08-03,42200.0
VIS,2010-08-04,41000.0
VIS,2010-08-05,40900.0
VIS,2010-08-06,40300.0
VIS,2010-08-09,38300.0
VIS,2010-08-10,36500.0
VIS,2010-08-11,35800.0
VIS,2010-08-12,34000.0
VIS,2010-08-13,32700.0
VIS,2010-08-16,34300.0
VIS,2010-08-17,34800.0
VIS,2010-08-18,33400.0
VIS,2010-08-19,33200.0
VIS,2010-08-20,34300.0
VIS,2010-08-23,33400.0
VIS,2010-08-24,31800.0
VIS,2010-08-25,30300.0
VIS,2010-08-26,30500.0
VIS,2010-08-27,29500.0
VIS,2010-08-30,30900.0
VIS,2010-08-31,32500.0
VIS,2010-09-01,34100.0
VIS,2010-09-06,35800.0
VIS,2010-09-07,37600.0
VIS,2010-09-08,38900.0
VIS,2010-09-09,40800.0
VIS,2010-09-10,38700.0
VIS,2010-09-13,36900.0
VIS,2010-09-14,36900.0
VIS,2010-09-15,35200.0
VIS,2010-09-16,35600.0
VIS,2010-09-17,37400.0
VIS,2010-09-20,38700.0
VIS,2010-09-21,38000.0
VIS,2010-09-22,37100.0
VIS,2010-09-23,36300.0
VIS,2010-09-24,36500.0
VIS,2010-09-27,36300.0
VIS,2010-09-28,36200.0
VIS,2010-09-29,35100.0
VIS,2010-09-30,35500.0
VIS,2010-10-01,34900.0
VIS,2010-10-04,33200.0
VIS,2010-10-05,33900.0
VIS,2010-10-06,34900.0
VIS,2010-10-07,33900.0
VIS,2010-10-08,33800.0
VIS,2010-10-11,33200.0
VIS,2010-10-12,32600.0
VIS,2010-10-13,32900.0
VIS,2010-10-14,32900.0
VIS,2010-10-15,32700.0
VIS,2010-10-18,32300.0
VIS,2010-10-19,30900.0
VIS,2010-10-20,29300.0
VIS,2010-10-21,29100.0
VIS,2010-10-22,29000.0
VIS,2010-10-25,29700.0
VIS,2010-10-26,31100.0
VIS,2010-10-27,31200.0
VIS,2010-10-28,31100.0
VIS,2010-10-29,31000.0
VIS,2010-11-01,30400.0
VIS,2010-11-02,29700.0
VIS,2010-11-03,29100.0
VIS,2010-11-04,29600.0
VIS,2010-11-05,30400.0
VIS,2010-11-08,29500.0
VIS,2010-11-09,28300.0
VIS,2010-11-10,28200.0
VIS,2010-11-11,27100.0
VIS,2010-11-12,25800.0
VIS,2010-11-15,24600.0
VIS,2010-11-16,23700.0
VIS,2010-11-17,23500.0
VIS,2010-11-18,23500.0
VIS,2010-11-19,23000.0
VIS,2010-11-22,22000.0
VIS,2010-11-23,22500.0
VIS,2010-11-24,22000.0
VIS,2010-11-25,23000.0
VIS,2010-11-26,24100.0
VIS,2010-11-29,25300.0
VIS,2010-11-30,26500.0
VIS,2010-12-01,27100.0
VIS,2010-12-02,28500.0
VIS,2010-12-03,29800.0
VIS,2010-12-06,30000.0
VIS,2010-12-07,28600.0
VIS,2010-12-08,27200.0
VIS,2010-12-09,27600.0
VIS,2010-12-10,28900.0
VIS,2010-12-13,30400.0
VIS,2010-12-14,29000.0
VIS,2010-12-15,28700.0
VIS,2010-12-16,27500.0
VIS,2010-12-17,28800.0
VIS,2010-12-20,28000.0
VIS,2010-12-21,28000.0
VIS,2010-12-22,27600.0
VIS,2010-12-23,26400.0
VIS,2010-12-24,25900.0
VIS,2010-12-27,25800.0
VIS,2010-12-28,27000.0
VIS,2010-12-29,26700.0
VIS,2010-12-30,26600.0
VIS,2010-12-31,26800.0
VIS,2011-01-04,27300.0
VIS,2011-01-05,26700.0
VIS,2011-01-06,26600.0
VIS,2011-01-07,27000.0
VIS,2011-01-10,26600.0
VIS,2011-01-11,25400.0
VIS,2011-01-12,25400.0
VIS,2011-01-13,25600.0
VIS,2011-01-14,25900.0
VIS,2011-01-17,25900.0
VIS,2011-01-18,25900.0
VIS,2011-01-19,26000.0
VIS,2011-01-20,27300.0
VIS,2011-01-21,27000.0
VIS,2011-01-24,25800.0
VIS,2011-01-25,25500.0
VIS,2011-01-26,25800.0
VIS,2011-01-27,25800.0
VIS,2011-01-28,25800.0
VIS,2011-02-08,25900.0
VIS,2011-02-09,25800.0
VIS,2011-02-10,25900.0
VIS,2011-02-11,25900.0
VIS,2011-02-14,25900.0
VIS,2011-02-15,25900.0
VIS,2011-02-16,25900.0
VIS,2011-02-17,24900.0
VIS,2011-02-18,24200.0
VIS,2011-02-21,23000.0
VIS,2011-02-22,22300.0
VIS,2011-02-23,22400.0
VIS,2011-02-24,21900.0
VIS,2011-02-25,22200.0
VIS,2011-02-28,21500.0
VIS,2011-03-01,21100.0
VIS,2011-03-02,20100.0
VIS,2011-03-03,19200.0
VIS,2011-03-04,19100.0
VIS,2011-03-07,19800.0
VIS,2011-03-08,20500.0
VIS,2011-03-09,19900.0
VIS,2011-03-10,20900.0
VIS,2011-03-11,21900.0
VIS,2011-03-14,21900.0
VIS,2011-03-15,23000.0
VIS,2011-03-16,24100.0
VIS,2011-03-17,24100.0
VIS,2011-03-18,25300.0
VIS,2011-03-21,24500.0
VIS,2011-03-22,24000.0
VIS,2011-03-23,23800.0
VIS,2011-03-24,23500.0
VIS,2011-03-25,23100.0
VIS,2011-03-28,23500.0
VIS,2011-03-29,22800.0
VIS,2011-03-30,22100.0
VIS,2011-03-31,21900.0
VIS,2011-04-01,21600.0
VIS,2011-04-04,21900.0
VIS,2011-04-05,21700.0
VIS,2011-04-06,22800.0
VIS,2011-04-07,22600.0
VIS,2011-04-08,22200.0
VIS,2011-04-13,21700.0
VIS,2011-04-14,20900.0
VIS,2011-04-15,20400.0
VIS,2011-04-18,19900.0
VIS,2011-04-19,20100.0
VIS,2011-04-20,20100.0
VIS,2011-04-21,19900.0
VIS,2011-04-22,19500.0
VIS,2011-04-25,20400.0
VIS,2011-04-26,20600.0
VIS,2011-04-27,20600.0
VIS,2011-04-28,20800.0
VIS,2011-04-29,20700.0
VIS,2011-05-04,20600.0
VIS,2011-05-05,20200.0
VIS,2011-05-06,19900.0
VIS,2011-05-09,20600.0
VIS,2011-05-10,20300.0
VIS,2011-05-11,20200.0
VIS,2011-05-12,19800.0
VIS,2011-05-13,20000.0
VIS,2011-05-16,19200.0
VIS,2011-05-17,18600.0
VIS,2011-05-18,18100.0
VIS,2011-05-19,17200.0
VIS,2011-05-20,16400.0
VIS,2011-05-23,15700.0
VIS,2011-05-24,14900.0
VIS,2011-05-25,14200.0
VIS,2011-05-26,14900.0
VIS,2011-05-27,15500.0
VIS,2011-05-30,14800.0
VIS,2011-05-31,14800.0
VIS,2011-06-01,15400.0
VIS,2011-06-02,16200.0
VIS,2011-06-03,16200.0
VIS,2011-06-06,16800.0
VIS,2011-06-07,17700.0
VIS,2011-06-08,16800.0
VIS,2011-06-09,17200.0
VIS,2011-06-10,17500.0
VIS,2011-06-13,18300.0
VIS,2011-06-14,19200.0
VIS,2011-06-15,18200.0
VIS,2011-06-16,18800.0
VIS,2011-06-17,17900.0
VIS,2011-06-20,17000.0
VIS,2011-06-21,17800.0
VIS,2011-06-22,17100.0
VIS,2011-06-23,16900.0
VIS,2011-06-24,16600.0
VIS,2011-06-27,16400.0
VIS,2011-06-28,16000.0
VIS,2011-06-29,16200.0
VIS,2011-06-30,15600.0
VIS,2011-07-01,15400.0
VIS,2011-07-04,15000.0
VIS,2011-07-05,15700.0
VIS,2011-07-06,15700.0
VIS,2011-07-07,15400.0
VIS,2011-07-08,15200.0
VIS,2011-07-11,15100.0
VIS,2011-07-12,14900.0
VIS,2011-07-13,15100.0
VIS,2011-07-14,15200.0
VIS,2011-07-15,15100.0
VIS,2011-07-18,14800.0
VIS,2011-07-19,14600.0
VIS,2011-07-20,15000.0
VIS,2011-07-21,14800.0
VIS,2011-07-22,15100.0
VIS,2011-07-25,14900.0
VIS,2011-07-26,15100.0
VIS,2011-07-27,14900.0
VIS,2011-07-28,14900.0
VIS,2011-07-29,14700.0
VIS,2011-08-01,14400.0
VIS,2011-08-02,13800.0
VIS,2011-08-03,13400.0
VIS,2011-08-04,14000.0
VIS,2011-08-05,14200.0
VIS,2011-08-08,13800.0
VIS,2011-08-09,13200.0
VIS,2011-08-10,13600.0
VIS,2011-08-11,13400.0
VIS,2011-08-12,13600.0
VIS,2011-08-15,13500.0
VIS,2011-08-16,13800.0
VIS,2011-08-17,14400.0
VIS,2011-08-18,15100.0
VIS,2011-08-19,14800.0
VIS,2011-08-22,15400.0
VIS,2011-08-23,15000.0
VIS,2011-08-24,14800.0
VIS,2011-08-25,15200.0
VIS,2011-08-26,15100.0
VIS,2011-08-29,15800.0
VIS,2011-08-30,16400.0
VIS,2011-08-31,17100.0
VIS,2011-09-01,18000.0
VIS,2011-09-05,17200.0
VIS,2011-09-06,16400.0
VIS,2011-09-07,17100.0
VIS,2011-09-08,17100.0
VIS,2011-09-09,17300.0
VIS,2011-09-12,17300.0
VIS,2011-09-13,18100.0
VIS,2011-09-14,18100.0
VIS,2011-09-15,18200.0
VIS,2011-09-16,17400.0
VIS,2011-09-19,18000.0
VIS,2011-09-20,17300.0
VIS,2011-09-21,17100.0
VIS,2011-09-22,17900.0
VIS,2011-09-23,17400.0
VIS,2011-09-26,17400.0
VIS,2011-09-27,17300.0
VIS,2011-09-28,17300.0
VIS,2011-09-29,16700.0
VIS,2011-09-30,16400.0
VIS,2011-10-03,15600.0
VIS,2011-10-04,15300.0
VIS,2011-10-05,15700.0
VIS,2011-10-06,16300.0
VIS,2011-10-07,16000.0
VIS,2011-10-10,15600.0
VIS,2011-10-11,15700.0
VIS,2011-10-12,15200.0
VIS,2011-10-13,15300.0
VIS,2011-10-14,15500.0
VIS,2011-10-17,15200.0
VIS,2011-10-18,14700.0
VIS,2011-10-19,15100.0
VIS,2011-10-20,15400.0
VIS,2011-10-21,15900.0
VIS,2011-10-24,15700.0
VIS,2011-10-25,15200.0
VIS,2011-10-26,15200.0
VIS,2011-10-27,15400.0
VIS,2011-10-28,16200.0
VIS,2011-10-31,16200.0
VIS,2011-11-01,15600.0
VIS,2011-11-02,15200.0
VIS,2011-11-03,15300.0
VIS,2011-11-04,15200.0
VIS,2011-11-07,14800.0
VIS,2011-11-08,15100.0
VIS,2011-11-09,15100.0
VIS,2011-11-10,14500.0
VIS,2011-11-11,14200.0
VIS,2011-11-14,13600.0
VIS,2011-11-15,13400.0
VIS,2011-11-16,13900.0
VIS,2011-11-17,13500.0
VIS,2011-11-18,13300.0
VIS,2011-11-21,13200.0
VIS,2011-11-22,13200.0
VIS,2011-11-23,13500.0
VIS,2011-11-24,13300.0
VIS,2011-11-25,13300.0
VIS,2011-11-28,13700.0
VIS,2011-11-29,13400.0
VIS,2011-11-30,13100.0
VIS,2011-12-01,13200.0
VIS,2011-12-02,13300.0
VIS,2011-12-05,13900.0
VIS,2011-12-06,14000.0
VIS,2011-12-07,13800.0
VIS,2011-12-08,13400.0
VIS,2011-12-09,13300.0
VIS,2011-12-12,13000.0
VIS,2011-12-13,12700.0
VIS,2011-12-14,12200.0
VIS,2011-12-15,11800.0
VIS,2011-12-16,12300.0
VIS,2011-12-19,12200.0
VIS,2011-12-20,11600.0
VIS,2011-12-21,11600.0
VIS,2011-12-22,11000.0
VIS,2011-12-23,10700.0
VIS,2011-12-26,10600.0
VIS,2011-12-27,10200.0
VIS,2011-12-28,10700.0
VIS,2011-12-29,10500.0
VIS,2011-12-30,10800.0
VIS,2012-01-03,10900.0
VIS,2012-01-04,10900.0
VIS,2012-01-05,10800.0
VIS,2012-01-06,10700.0
VIS,2012-01-09,10700.0
VIS,2012-01-10,11100.0
VIS,2012-01-11,11100.0
VIS,2012-01-12,10900.0
VIS,2012-01-13,11100.0
VIS,2012-01-16,11400.0
VIS,2012-01-17,11200.0
VIS,2012-01-18,11200.0
VIS,2012-01-19,11800.0
VIS,2012-01-20,11900.0
VIS,2012-01-30,12400.0
VIS,2012-01-31,12400.0
VIS,2012-02-01,12300.0
VIS,2012-02-02,12800.0
VIS,2012-02-03,12300.0
VIS,2012-02-06,12000.0
VIS,2012-02-07,12300.0
VIS,2012-02-08,12400.0
VIS,2012-02-09,12200.0
VIS,2012-02-10,11700.0
VIS,2012-02-13,11200.0
VIS,2012-02-14,11800.0
VIS,2012-02-15,11800.0
VIS,2012-02-16,11800.0
VIS,2012-02-17,12000.0
VIS,2012-02-20,12500.0
VIS,2012-02-21,12300.0
VIS,2012-02-22,12800.0
VIS,2012-02-23,13400.0
VIS,2012-02-24,13200.0
VIS,2012-02-27,13800.0
VIS,2012-02-28,13200.0
VIS,2012-02-29,13200.0
VIS,2012-03-01,12900.0
VIS,2012-03-02,13500.0
VIS,2012-03-05,14100.0
VIS,2012-03-06,13600.0
VIS,2012-03-07,13700.0
VIS,2012-03-08,13000.0
VIS,2012-03-09,12800.0
VIS,2012-03-12,12300.0
VIS,2012-03-13,12500.0
VIS,2012-03-14,12000.0
VIS,2012-03-15,12500.0
VIS,2012-03-16,12900.0
VIS,2012-03-19,12800.0
VIS,2012-03-20,12900.0
VIS,2012-03-21,13200.0
VIS,2012-03-22,13100.0
VIS,2012-03-23,13800.0
VIS,2012-03-26,14200.0
VIS,2012-03-27,13600.0
VIS,2012-03-28,13200.0
VIS,2012-03-29,12800.0
VIS,2012-03-30,12300.0
VIS,2012-04-03,12400.0
VIS,2012-04-04,12100.0
VIS,2012-04-05,12300.0
VIS,2012-04-06,12600.0
VIS,2012-04-09,12900.0
VIS,2012-04-10,12800.0
VIS,2012-04-11,13400.0
VIS,2012-04-12,14000.0
VIS,2012-04-13,14500.0
VIS,2012-04-16,15200.0
VIS,2012-04-17,15900.0
VIS,2012-04-18,15300.0
VIS,2012-04-19,14600.0
VIS,2012-04-20,14300.0
VIS,2012-04-23,15000.0
VIS,2012-04-24,15700.0
VIS,2012-04-25,16500.0
VIS,2012-04-26,15900.0
VIS,2012-04-27,16000.0
VIS,2012-05-02,15300.0
VIS,2012-05-03,15400.0
VIS,2012-05-04,16200.0
VIS,2012-05-07,16700.0
VIS,2012-05-08,16100.0
VIS,2012-05-09,16400.0
VIS,2012-05-10,17100.0
VIS,2012-05-11,16400.0
VIS,2012-05-14,15600.0
VIS,2012-05-15,15000.0
VIS,2012-05-16,15000.0
VIS,2012-05-17,14500.0
VIS,2012-05-18,13900.0
VIS,2012-05-21,14500.0
VIS,2012-05-22,15100.0
VIS,2012-05-23,14400.0
VIS,2012-05-24,14000.0
VIS,2012-05-25,14700.0
VIS,2012-05-28,15000.0
VIS,2012-05-29,14300.0
VIS,2012-05-30,13900.0
VIS,2012-05-31,13400.0
VIS,2012-06-01,13300.0
VIS,2012-06-04,12900.0
VIS,2012-06-05,13300.0
VIS,2012-06-06,13800.0
VIS,2012-06-07,14300.0
VIS,2012-06-08,13600.0
VIS,2012-06-11,14000.0
VIS,2012-06-12,14000.0
VIS,2012-06-13,13800.0
VIS,2012-06-14,13900.0
VIS,2012-06-15,13800.0
VIS,2012-06-18,14100.0
VIS,2012-06-19,13600.0
VIS,2012-06-20,13800.0
VIS,2012-06-21,13400.0
VIS,2012-06-22,13400.0
VIS,2012-06-25,13000.0
VIS,2012-06-26,12400.0
VIS,2012-06-27,12000.0
VIS,2012-06-28,12000.0
VIS,2012-06-29,12100.0
VIS,2012-07-02,11700.0
VIS,2012-07-03,11300.0
VIS,2012-07-04,11200.0
VIS,2012-07-05,11700.0
VIS,2012-07-06,12100.0
VIS,2012-07-09,11500.0
VIS,2012-07-10,11400.0
VIS,2012-07-11,11500.0
VIS,2012-07-12,11600.0
VIS,2012-07-13,12100.0
VIS,2012-07-16,11800.0
VIS,2012-07-17,12300.0
VIS,2012-07-18,12500.0
VIS,2012-07-19,13000.0
VIS,2012-07-20,12900.0
VIS,2012-07-23,12400.0
VIS,2012-07-24,11800.0
VIS,2012-07-25,11500.0
VIS,2012-07-26,11800.0
VIS,2012-07-27,11500.0
VIS,2012-07-30,11600.0
VIS,2012-07-31,11700.0
VIS,2012-08-01,11800.0
VIS,2012-08-02,11600.0
VIS,2012-08-03,11400.0
VIS,2012-08-06,11900.0
VIS,2012-08-07,11600.0
VIS,2012-08-08,11700.0
VIS,2012-08-09,12000.0
VIS,2012-08-10,12000.0
VIS,2012-08-13,11800.0
VIS,2012-08-14,11900.0
VIS,2012-08-15,11700.0
VIS,2012-08-16,11500.0
VIS,2012-08-17,11600.0
VIS,2012-08-20,11600.0
VIS,2012-08-21,11100.0
VIS,2012-08-22,10600.0
VIS,2012-08-23,10100.0
VIS,2012-08-24,10100.0
VIS,2012-08-27,9600.0
VIS,2012-08-28,9200.0
VIS,2012-08-29,9600.0
VIS,2012-08-30,9800.0
VIS,2012-08-31,9900.0
VIS,2012-09-04,9900.0
VIS,2012-09-05,9500.0
VIS,2012-09-06,9300.0
VIS,2012-09-07,9300.0
VIS,2012-09-10,8900.0
VIS,2012-09-11,8500.0
VIS,2012-09-12,8500.0
VIS,2012-09-13,8700.0
VIS,2012-09-14,9100.0
VIS,2012-09-17,8900.0
VIS,2012-09-18,8600.0
VIS,2012-09-19,8400.0
VIS,2012-09-20,8100.0
VIS,2012-09-21,8400.0
VIS,2012-09-24,8100.0
VIS,2012-09-25,8100.0
VIS,2012-09-26,8200.0
VIS,2012-09-27,8100.0
VIS,2012-09-28,7900.0
VIS,2012-10-01,7600.0
VIS,2012-10-02,7300.0
VIS,2012-10-03,7400.0
VIS,2012-10-04,7100.0
VIS,2012-10-05,7200.0
VIS,2012-10-08,7500.0
VIS,2012-10-09,7800.0
VIS,2012-10-10,8000.0
VIS,2012-10-11,7900.0
VIS,2012-10-12,7900.0
VIS,2012-10-15,7600.0
VIS,2012-10-16,7900.0
VIS,2012-10-17,7900.0
VIS,2012-10-18,7800.0
VIS,2012-10-19,7600.0
VIS,2012-10-22,7300.0
VIS,2012-10-23,7000.0
VIS,2012-10-24,6900.0
VIS,2012-10-25,6800.0
VIS,2012-10-26,6900.0
VIS,2012-10-29,6900.0
VIS,2012-10-30,6700.0
VIS,2012-10-31,6600.0
VIS,2012-11-01,6800.0
VIS,2012-11-02,6600.0
VIS,2012-11-05,6600.0
VIS,2012-11-06,6400.0
VIS,2012-11-07,6700.0
VIS,2012-11-08,6500.0
VIS,2012-11-09,6600.0
VIS,2012-11-12,6800.0
VIS,2012-11-13,6700.0
VIS,2012-11-14,6700.0
VIS,2012-11-15,6500.0
VIS,2012-11-16,6500.0
VIS,2012-11-19,6600.0
VIS,2012-11-20,6600.0
VIS,2012-11-21,6600.0
VIS,2012-11-22,6600.0
VIS,2012-11-23,6500.0
VIS,2012-11-26,6400.0
VIS,2012-11-27,6200.0
VIS,2012-11-28,6300.0
VIS,2012-11-29,6300.0
VIS,2012-11-30,6100.0
VIS,2012-12-03,6100.0
VIS,2012-12-04,6300.0
VIS,2012-12-05,6400.0
VIS,2012-12-06,6600.0
VIS,2012-12-07,6800.0
VIS,2012-12-10,6800.0
VIS,2012-12-11,6600.0
VIS,2012-12-12,6900.0
VIS,2012-12-13,6800.0
VIS,2012-12-14,6800.0
VIS,2012-12-17,6800.0
VIS,2012-12-18,6600.0
VIS,2012-12-19,6900.0
VIS,2012-12-20,7000.0
VIS,2012-12-21,6900.0
VIS,2012-12-24,7200.0
VIS,2012-12-25,7500.0
VIS,2012-12-26,7800.0
VIS,2012-12-27,8000.0
VIS,2012-12-28,8300.0
VIS,2013-01-02,8700.0
VIS,2013-01-03,8300.0
VIS,2013-01-04,8300.0
VIS,2013-01-07,8100.0
VIS,2013-01-08,8200.0
VIS,2013-01-09,7800.0
VIS,2013-01-10,7800.0
VIS,2013-01-11,8100.0
VIS,2013-01-14,8500.0
VIS,2013-01-15,9000.0
VIS,2013-01-16,9500.0
VIS,2013-01-17,9400.0
VIS,2013-01-18,9200.0
VIS,2013-01-21,9100.0
VIS,2013-01-22,8500.0
VIS,2013-01-23,8000.0
VIS,2013-01-24,8500.0
VIS,2013-01-25,9000.0
VIS,2013-01-28,9600.0
VIS,2013-01-29,10200.0
VIS,2013-01-30,10000.0
VIS,2013-01-31,10400.0
VIS,2013-02-01,10300.0
VIS,2013-02-04,10800.0
VIS,2013-02-05,10800.0
VIS,2013-02-06,11300.0
VIS,2013-02-07,11300.0
VIS,2013-02-08,12000.0
VIS,2013-02-18,12800.0
VIS,2013-02-19,12400.0
VIS,2013-02-20,12800.0
VIS,2013-02-21,12000.0
VIS,2013-02-22,11700.0
VIS,2013-02-25,11700.0
VIS,2013-02-26,10900.0
VIS,2013-02-27,10600.0
VIS,2013-02-28,11300.0
VIS,2013-03-01,11500.0
VIS,2013-03-04,10700.0
VIS,2013-03-05,10000.0
VIS,2013-03-06,10100.0
VIS,2013-03-07,9600.0
VIS,2013-03-08,9800.0
VIS,2013-03-11,10400.0
VIS,2013-03-12,11100.0
VIS,2013-03-13,11000.0
VIS,2013-03-14,10900.0
VIS,2013-03-15,11000.0
VIS,2013-03-18,10700.0
VIS,2013-03-19,10800.0
VIS,2013-03-20,10800.0
VIS,2013-03-21,10700.0
VIS,2013-03-22,10100.0
VIS,2013-03-25,10400.0
VIS,2013-03-26,10200.0
VIS,2013-03-27,10000.0
VIS,2013-03-28,9700.0
VIS,2013-03-29,9400.0
VIS,2013-04-01,10000.0
VIS,2013-04-02,10100.0
VIS,2013-04-03,10100.0
VIS,2013-04-04,9900.0
VIS,2013-04-05,9800.0
VIS,2013-04-08,9800.0
VIS,2013-04-09,10000.0
VIS,2013-04-10,10100.0
VIS,2013-04-11,10200.0
VIS,2013-04-12,10100.0
VIS,2013-04-15,9900.0
VIS,2013-04-16,9900.0
VIS,2013-04-17,10500.0
VIS,2013-04-18,10200.0
VIS,2013-04-22,10000.0
VIS,2013-04-23,10100.0
VIS,2013-04-24,10300.0
VIS,2013-04-25,10400.0
VIS,2013-04-26,10200.0
VIS,2013-05-02,10200.0
VIS,2013-05-03,10300.0
VIS,2013-05-06,11000.0
VIS,2013-05-07,11200.0
VIS,2013-05-08,11000.0
VIS,2013-05-09,11400.0
VIS,2013-05-10,11200.0
VIS,2013-05-13,11200.0
VIS,2013-05-14,10900.0
VIS,2013-05-15,11000.0
VIS,2013-05-16,11100.0
VIS,2013-05-17,11000.0
VIS,2013-05-20,11300.0
VIS,2013-05-21,12000.0
VIS,2013-05-22,12400.0
VIS,2013-05-23,12100.0
VIS,2013-05-24,12600.0
VIS,2013-05-27,13400.0
VIS,2013-05-28,13700.0
VIS,2013-05-29,13700.0
VIS,2013-05-30,14600.0
VIS,2013-05-31,15000.0
VIS,2013-06-03,15500.0
VIS,2013-06-04,14500.0
VIS,2013-06-05,14700.0
VIS,2013-06-06,14800.0
VIS,2013-06-07,14300.0
VIS,2013-06-10,14200.0
VIS,2013-06-11,14400.0
VIS,2013-06-12,14600.0
VIS,2013-06-13,14500.0
VIS,2013-06-14,14200.0
VIS,2013-06-17,13500.0
VIS,2013-06-18,13300.0
VIS,2013-06-19,13400.0
VIS,2013-06-20,12800.0
VIS,2013-06-21,13200.0
VIS,2013-06-24,13000.0
VIS,2013-06-25,12200.0
VIS,2013-06-26,12200.0
VIS,2013-06-27,12600.0
VIS,2013-06-28,12400.0
VIS,2013-07-01,12200.0
VIS,2013-07-02,12700.0
VIS,2013-07-03,12500.0
VIS,2013-07-04,12600.0
VIS,2013-07-05,13000.0
VIS,2013-07-08,12600.0
VIS,2013-07-09,12600.0
VIS,2013-07-10,12500.0
VIS,2013-07-11,12500.0
VIS,2013-07-12,12900.0
VIS,2013-07-15,12700.0
VIS,2013-07-16,12700.0
VIS,2013-07-17,12800.0
VIS,2013-07-18,12800.0
VIS,2013-07-19,12600.0
VIS,2013-07-22,12500.0
VIS,2013-07-23,12100.0
VIS,2013-07-24,11300.0
VIS,2013-07-25,10800.0
VIS,2013-07-26,10400.0
VIS,2013-07-29,10500.0
VIS,2013-07-30,10800.0
VIS,2013-07-31,10600.0
VIS,2013-08-01,10600.0
VIS,2013-08-02,10700.0
VIS,2013-08-05,10500.0
VIS,2013-08-06,10600.0
VIS,2013-08-07,10600.0
VIS,2013-08-08,10400.0
VIS,2013-08-09,10400.0
VIS,2013-08-12,10400.0
VIS,2013-08-13,10100.0
VIS,2013-08-14,10300.0
VIS,2013-08-15,11000.0
VIS,2013-08-16,11200.0
VIS,2013-08-19,11300.0
VIS,2013-08-20,11400.0
VIS,2013-08-21,11200.0
VIS,2013-08-22,10600.0
VIS,2013-08-23,10700.0
VIS,2013-08-26,10900.0
VIS,2013-08-27,10800.0
VIS,2013-08-28,10300.0
VIS,2013-08-29,10200.0
VIS,2013-08-30,10500.0
VIS,2013-09-03,10300.0
VIS,2013-09-04,10100.0
VIS,2013-09-05,10400.0
VIS,2013-09-06,10300.0
VIS,2013-09-09,10200.0
VIS,2013-09-10,10300.0
VIS,2013-09-11,10400.0
VIS,2013-09-12,10500.0
VIS,2013-09-13,10700.0
VIS,2013-09-16,10600.0
VIS,2013-09-17,10500.0
VIS,2013-09-18,10300.0
VIS,2013-09-19,10400.0
VIS,2013-09-20,10300.0
VIS,2013-09-23,10800.0
VIS,2013-09-24,10600.0
VIS,2013-09-25,11100.0
VIS,2013-09-26,11300.0
VIS,2013-09-27,10900.0
VIS,2013-09-30,11100.0
VIS,2013-10-01,11400.0
VIS,2013-10-02,11300.0
VIS,2013-10-03,11200.0
VIS,2013-10-04,11200.0
VIS,2013-10-07,11100.0
VIS,2013-10-08,10900.0
VIS,2013-10-09,10900.0
VIS,2013-10-10,10600.0
VIS,2013-10-11,10500.0
VIS,2013-10-14,10200.0
VIS,2013-10-15,10500.0
VIS,2013-10-16,10300.0
VIS,2013-10-17,10400.0
VIS,2013-10-18,10200.0
VIS,2013-10-21,10200.0
VIS,2013-10-22,9900.0
VIS,2013-10-23,9900.0
VIS,2013-10-24,9800.0
VIS,2013-10-25,9900.0
VIS,2013-10-28,9700.0
VIS,2013-10-29,9700.0
VIS,2013-10-30,9700.0
VIS,2013-10-31,9500.0
VIS,2013-11-01,10100.0
VIS,2013-11-04,10400.0
VIS,2013-11-05,10400.0
VIS,2013-11-06,11100.0
VIS,2013-11-07,11200.0
VIS,2013-11-08,11300.0
VIS,2013-11-11,11500.0
VIS,2013-11-12,11100.0
VIS,2013-11-13,10900.0
VIS,2013-11-14,11200.0
VIS,2013-11-15,11300.0
VIS,2013-11-18,11700.0
VIS,2013-11-19,11700.0
VIS,2013-11-20,11800.0
VIS,2013-11-21,11800.0
VIS,2013-11-22,11700.0
VIS,2013-11-25,11600.0
VIS,2013-11-26,11500.0
VIS,2013-11-27,11500.0
VIS,2013-11-28,11500.0
VIS,2013-11-29,11600.0
VIS,2013-12-02,11600.0
VIS,2013-12-03,11800.0
VIS,2013-12-04,12400.0
VIS,2013-12-05,12300.0
VIS,2013-12-06,12200.0
VIS,2013-12-09,12000.0
VIS,2013-12-10,11900.0
VIS,2013-12-11,11500.0
VIS,2013-12-12,11500.0
VIS,2013-12-13,11500.0
VIS,2013-12-16,11500.0
VIS,2013-12-17,11900.0
VIS,2013-12-18,11800.0
VIS,2013-12-19,12000.0
VIS,2013-12-20,12000.0
VIS,2013-12-23,11800.0
VIS,2013-12-24,11800.0
VIS,2013-12-25,11800.0
VIS,2013-12-26,11700.0
VIS,2013-12-27,11600.0
VIS,2013-12-30,11300.0
VIS,2013-12-31,11300.0
VIS,2014-01-02,11600.0
VIS,2014-01-03,11500.0
VIS,2014-01-06,11600.0
VIS,2014-01-07,11500.0
VIS,2014-01-08,11500.0
VIS,2014-01-09,11400.0
VIS,2014-01-10,11400.0
VIS,2014-01-13,10700.0
VIS,2014-01-14,10400.0
VIS,2014-01-15,10400.0
VIS,2014-01-16,10200.0
VIS,2014-01-17,9900.0
VIS,2014-01-20,10000.0
VIS,2014-01-21,10000.0
VIS,2014-01-22,10000.0
VIS,2014-01-23,10100.0
VIS,2014-01-24,10100.0
VIS,2014-01-27,10000.0
VIS,2014-02-06,10700.0
VIS,2014-02-07,10500.0
VIS,2014-02-10,10700.0
VIS,2014-02-11,10600.0
VIS,2014-02-12,10700.0
VIS,2014-02-13,10700.0
VIS,2014-02-14,10800.0
VIS,2014-02-17,11400.0
VIS,2014-02-18,11500.0
VIS,2014-02-19,11400.0
VIS,2014-02-20,10700.0
VIS,2014-02-21,10500.0
VIS,2014-02-24,10100.0
VIS,2014-02-25,10200.0
VIS,2014-02-26,10200.0
VIS,2014-02-27,9800.0
VIS,2014-02-28,10000.0
VIS,2014-03-03,9600.0
VIS,2014-03-04,9600.0
VIS,2014-03-05,9000.0
VIS,2014-03-06,8500.0
VIS,2014-03-07,8900.0
VIS,2014-03-10,9200.0
VIS,2014-03-11,9200.0
VIS,2014-03-12,9200.0
VIS,2014-03-13,9800.0
VIS,2014-03-14,10400.0
VIS,2014-03-17,10900.0
VIS,2014-03-18,10600.0
VIS,2014-03-19,10500.0
VIS,2014-03-20,10200.0
VIS,2014-03-21,10200.0
VIS,2014-03-24,10300.0
VIS,2014-03-25,10600.0
VIS,2014-03-26,10300.0
VIS,2014-03-27,10500.0
VIS,2014-03-28,10300.0
VIS,2014-03-31,10200.0
VIS,2014-04-01,9800.0
VIS,2014-04-02,9700.0
VIS,2014-04-03,9800.0
VIS,2014-04-04,10000.0
VIS,2014-04-07,9900.0
VIS,2014-04-08,10000.0
VIS,2014-04-10,10200.0
VIS,2014-04-11,10100.0
VIS,2014-04-14,9900.0
VIS,2014-04-15,9500.0
VIS,2014-04-16,9200.0
VIS,2014-04-17,9400.0
VIS,2014-04-18,8800.0
VIS,2014-04-21,8800.0
VIS,2014-04-22,8900.0
VIS,2014-04-23,8700.0
VIS,2014-04-24,8800.0
VIS,2014-04-25,8900.0
VIS,2014-04-28,8800.0
VIS,2014-04-29,8800.0
VIS,2014-05-05,8300.0
VIS,2014-05-06,7800.0
VIS,2014-05-07,7800.0
VIS,2014-05-08,7300.0
VIS,2014-05-09,7700.0
VIS,2014-05-12,7200.0
VIS,2014-05-13,6700.0
VIS,2014-05-14,7100.0
VIS,2014-05-15,7400.0
VIS,2014-05-16,7600.0
VIS,2014-05-19,7900.0
VIS,2014-05-20,7900.0
VIS,2014-05-21,8300.0
