VNA,2008-09-09,31300.0
VNA,2008-09-10,29700.0
VNA,2008-09-11,28300.0
VNA,2008-09-12,26900.0
VNA,2008-09-15,27100.0
VNA,2008-09-16,26200.0
VNA,2008-09-17,24900.0
VNA,2008-09-18,23700.0
VNA,2008-09-19,24900.0
VNA,2008-09-22,26100.0
VNA,2008-09-23,25600.0
VNA,2008-09-24,25200.0
VNA,2008-09-25,26400.0
VNA,2008-09-26,27700.0
VNA,2008-09-29,28900.0
VNA,2008-09-30,27400.0
VNA,2008-10-01,27000.0
VNA,2008-10-02,27400.0
VNA,2008-10-03,26700.0
VNA,2008-10-06,25400.0
VNA,2008-10-07,24200.0
VNA,2008-10-08,23000.0
VNA,2008-10-09,22700.0
VNA,2008-10-10,21600.0
VNA,2008-10-13,20600.0
VNA,2008-10-14,21600.0
VNA,2008-10-15,22200.0
VNA,2008-10-16,21200.0
VNA,2008-10-17,20600.0
VNA,2008-10-20,19900.0
VNA,2008-10-21,20300.0
VNA,2008-10-22,19300.0
VNA,2008-10-23,18300.0
VNA,2008-10-24,17500.0
VNA,2008-10-27,16600.0
VNA,2008-10-28,15800.0
VNA,2008-10-29,15100.0
VNA,2008-10-30,14400.0
VNA,2008-10-31,15100.0
VNA,2008-11-03,15200.0
VNA,2008-11-04,15900.0
VNA,2008-11-05,16700.0
VNA,2008-11-06,16500.0
VNA,2008-11-07,15700.0
VNA,2008-11-10,15900.0
VNA,2008-11-11,15100.0
VNA,2008-11-12,14900.0
VNA,2008-11-13,14500.0
VNA,2008-11-14,14900.0
VNA,2008-11-17,15100.0
VNA,2008-11-18,15800.0
VNA,2008-11-19,15800.0
VNA,2008-11-20,15100.0
VNA,2008-11-21,14500.0
VNA,2008-11-24,14600.0
VNA,2008-11-25,14600.0
VNA,2008-11-26,14500.0
VNA,2008-11-27,14300.0
VNA,2008-11-28,14800.0
VNA,2008-12-01,14000.0
VNA,2008-12-02,13400.0
VNA,2008-12-03,12800.0
VNA,2008-12-04,12800.0
VNA,2008-12-05,12200.0
VNA,2008-12-08,11600.0
VNA,2008-12-09,11100.0
VNA,2008-12-10,10600.0
VNA,2008-12-11,10700.0
VNA,2008-12-12,11100.0
VNA,2008-12-15,11700.0
VNA,2008-12-16,11100.0
VNA,2008-12-17,10800.0
VNA,2008-12-18,11000.0
VNA,2008-12-19,11000.0
VNA,2008-12-22,11100.0
VNA,2008-12-23,10800.0
VNA,2008-12-24,10900.0
VNA,2008-12-25,10800.0
VNA,2008-12-26,10800.0
VNA,2008-12-29,11100.0
VNA,2008-12-30,11700.0
VNA,2008-12-31,11700.0
VNA,2009-01-02,12200.0
VNA,2009-01-05,12200.0
VNA,2009-01-06,11800.0
VNA,2009-01-07,12000.0
VNA,2009-01-08,11700.0
VNA,2009-01-09,12000.0
VNA,2009-01-12,12200.0
VNA,2009-01-13,12000.0
VNA,2009-01-14,11900.0
VNA,2009-01-15,11800.0
VNA,2009-01-16,11900.0
VNA,2009-01-19,11700.0
VNA,2009-01-20,11200.0
VNA,2009-01-21,11100.0
VNA,2009-01-22,11000.0
VNA,2009-01-23,11000.0
VNA,2009-02-02,11000.0
VNA,2009-02-03,10700.0
VNA,2009-02-04,10200.0
VNA,2009-02-05,9700.0
VNA,2009-02-06,9600.0
VNA,2009-02-09,9900.0
VNA,2009-02-10,9500.0
VNA,2009-02-11,9300.0
VNA,2009-02-12,9300.0
VNA,2009-02-13,9500.0
VNA,2009-02-16,9500.0
VNA,2009-02-17,9200.0
VNA,2009-02-18,8800.0
VNA,2009-02-19,9100.0
VNA,2009-02-20,9000.0
VNA,2009-02-23,8800.0
VNA,2009-02-24,8500.0
VNA,2009-02-25,8900.0
VNA,2009-02-26,8700.0
VNA,2009-02-27,8800.0
VNA,2009-03-02,8800.0
VNA,2009-03-03,8900.0
VNA,2009-03-04,8900.0
VNA,2009-03-05,9200.0
VNA,2009-03-06,9200.0
VNA,2009-03-09,9500.0
VNA,2009-03-10,9600.0
VNA,2009-03-11,9900.0
VNA,2009-03-12,9400.0
VNA,2009-03-13,9500.0
VNA,2009-03-16,9600.0
VNA,2009-03-17,9800.0
VNA,2009-03-18,10300.0
VNA,2009-03-19,9800.0
VNA,2009-03-20,9800.0
VNA,2009-03-23,9700.0
VNA,2009-03-24,10100.0
VNA,2009-03-25,10100.0
VNA,2009-03-26,10200.0
VNA,2009-03-27,10100.0
VNA,2009-03-30,10000.0
VNA,2009-03-31,9900.0
VNA,2009-04-01,10200.0
VNA,2009-04-02,10200.0
VNA,2009-04-03,10700.0
VNA,2009-04-07,11100.0
VNA,2009-04-08,10600.0
VNA,2009-04-09,10800.0
VNA,2009-04-10,11300.0
VNA,2009-04-13,11800.0
VNA,2009-04-14,12400.0
VNA,2009-04-15,11800.0
VNA,2009-04-16,11800.0
VNA,2009-04-17,11400.0
VNA,2009-04-20,10800.0
VNA,2009-04-21,10300.0
VNA,2009-04-22,10700.0
VNA,2009-04-23,10400.0
VNA,2009-04-24,9900.0
VNA,2009-04-27,9900.0
VNA,2009-04-28,9700.0
VNA,2009-04-29,10200.0
VNA,2009-05-04,10700.0
VNA,2009-05-05,11000.0
VNA,2009-05-06,10500.0
VNA,2009-05-07,10700.0
VNA,2009-05-08,10300.0
VNA,2009-05-11,10600.0
VNA,2009-05-12,10700.0
VNA,2009-05-13,10500.0
VNA,2009-05-14,10800.0
VNA,2009-05-15,11000.0
VNA,2009-05-18,11300.0
VNA,2009-05-19,11800.0
VNA,2009-05-20,12400.0
VNA,2009-05-21,12900.0
VNA,2009-05-22,12300.0
VNA,2009-05-25,12900.0
VNA,2009-05-26,13500.0
VNA,2009-05-27,14100.0
VNA,2009-05-28,14600.0
VNA,2009-05-29,13900.0
VNA,2009-06-01,14500.0
VNA,2009-06-02,15200.0
VNA,2009-06-03,15900.0
VNA,2009-06-04,16700.0
VNA,2009-06-05,17500.0
VNA,2009-06-08,18400.0
VNA,2009-06-09,19300.0
VNA,2009-06-10,18300.0
VNA,2009-06-11,18700.0
VNA,2009-06-12,17800.0
VNA,2009-06-15,17000.0
VNA,2009-06-16,16200.0
VNA,2009-06-17,15400.0
VNA,2009-06-18,15000.0
VNA,2009-06-19,15700.0
VNA,2009-06-22,15000.0
VNA,2009-06-23,14300.0
VNA,2009-06-24,15000.0
VNA,2009-06-25,14300.0
VNA,2009-06-26,14100.0
VNA,2009-06-29,14000.0
VNA,2009-06-30,13400.0
VNA,2009-07-01,12800.0
VNA,2009-07-02,13400.0
VNA,2009-07-03,13100.0
VNA,2009-07-06,13700.0
VNA,2009-07-07,13700.0
VNA,2009-07-08,13700.0
VNA,2009-07-09,13400.0
VNA,2009-07-10,13100.0
VNA,2009-07-13,12600.0
VNA,2009-07-14,12200.0
VNA,2009-07-15,12600.0
VNA,2009-07-16,12900.0
VNA,2009-07-17,12900.0
VNA,2009-07-20,12200.0
VNA,2009-07-21,12300.0
VNA,2009-07-22,12300.0
VNA,2009-07-23,12900.0
VNA,2009-07-24,13500.0
VNA,2009-07-27,13000.0
VNA,2009-07-28,12400.0
VNA,2009-07-29,12100.0
VNA,2009-07-30,11800.0
VNA,2009-07-31,11800.0
VNA,2009-08-03,11500.0
VNA,2009-08-04,11600.0
VNA,2009-08-05,11400.0
VNA,2009-08-06,12000.0
VNA,2009-08-07,11900.0
VNA,2009-08-10,12500.0
VNA,2009-08-11,13000.0
VNA,2009-08-12,13000.0
VNA,2009-08-13,12600.0
VNA,2009-08-14,12400.0
VNA,2009-08-17,12400.0
VNA,2009-08-18,12400.0
VNA,2009-08-19,12700.0
VNA,2009-08-20,12900.0
VNA,2009-08-21,13200.0
VNA,2009-08-24,13300.0
VNA,2009-08-25,12900.0
VNA,2009-08-26,13000.0
VNA,2009-08-27,13200.0
VNA,2009-08-28,13300.0
VNA,2009-08-31,13500.0
VNA,2009-09-01,13300.0
VNA,2009-09-03,13200.0
VNA,2009-09-04,12900.0
VNA,2009-09-08,13300.0
VNA,2009-09-09,13400.0
VNA,2009-09-10,14000.0
VNA,2009-09-11,14700.0
VNA,2009-09-14,15400.0
VNA,2009-09-15,14700.0
VNA,2009-09-16,14700.0
VNA,2009-09-17,14200.0
VNA,2009-09-18,14300.0
VNA,2009-09-21,14600.0
VNA,2009-09-22,14400.0
VNA,2009-09-23,14500.0
VNA,2009-09-24,14300.0
VNA,2009-09-25,15000.0
VNA,2009-09-28,14600.0
VNA,2009-09-29,14400.0
VNA,2009-09-30,14200.0
VNA,2009-10-01,13800.0
VNA,2009-10-02,13300.0
VNA,2009-10-05,13700.0
VNA,2009-10-06,13600.0
VNA,2009-10-07,13800.0
VNA,2009-10-08,13900.0
VNA,2009-10-09,14500.0
VNA,2009-10-12,15100.0
VNA,2009-10-13,15000.0
VNA,2009-10-14,15200.0
VNA,2009-10-15,15900.0
VNA,2009-10-16,16700.0
VNA,2009-10-19,17500.0
VNA,2009-10-20,18400.0
VNA,2009-10-21,17500.0
VNA,2009-10-22,17400.0
VNA,2009-10-23,16700.0
VNA,2009-10-26,16200.0
VNA,2009-10-27,15900.0
VNA,2009-10-28,16200.0
VNA,2009-10-29,15500.0
VNA,2009-10-30,16000.0
VNA,2009-11-02,15200.0
VNA,2009-11-03,14500.0
VNA,2009-11-04,14500.0
VNA,2009-11-05,15200.0
VNA,2009-11-06,14700.0
VNA,2009-11-09,14400.0
VNA,2009-11-10,14500.0
VNA,2009-11-11,15200.0
VNA,2009-11-12,15800.0
VNA,2009-11-13,16100.0
VNA,2009-11-16,16900.0
VNA,2009-11-17,16700.0
VNA,2009-11-18,16200.0
VNA,2009-11-19,17000.0
VNA,2009-11-20,16400.0
VNA,2009-11-23,15900.0
VNA,2009-11-24,15100.0
VNA,2009-11-25,14400.0
VNA,2009-11-26,13700.0
VNA,2009-11-27,14100.0
VNA,2009-11-30,14500.0
VNA,2009-12-01,14400.0
VNA,2009-12-02,13700.0
VNA,2009-12-03,13700.0
VNA,2009-12-04,14000.0
VNA,2009-12-07,14100.0
VNA,2009-12-08,13600.0
VNA,2009-12-09,13000.0
VNA,2009-12-10,12800.0
VNA,2009-12-11,12400.0
VNA,2009-12-14,12900.0
VNA,2009-12-15,12900.0
VNA,2009-12-16,12200.0
VNA,2009-12-17,12600.0
VNA,2009-12-18,13000.0
VNA,2009-12-21,13700.0
VNA,2009-12-22,13300.0
VNA,2009-12-23,13100.0
VNA,2009-12-24,13700.0
VNA,2009-12-25,14300.0
VNA,2009-12-28,13900.0
VNA,2009-12-29,13900.0
VNA,2009-12-30,13900.0
VNA,2009-12-31,13900.0
VNA,2010-01-04,14400.0
VNA,2010-01-05,14200.0
VNA,2010-01-06,14200.0
VNA,2010-01-07,14500.0
VNA,2010-01-08,14800.0
VNA,2010-01-11,14400.0
VNA,2010-01-12,15000.0
VNA,2010-01-13,14600.0
VNA,2010-01-14,14600.0
VNA,2010-01-15,14200.0
VNA,2010-01-18,13500.0
VNA,2010-01-19,13200.0
VNA,2010-01-20,12500.0
VNA,2010-01-21,12200.0
VNA,2010-01-22,12600.0
VNA,2010-01-25,12700.0
VNA,2010-01-26,13100.0
VNA,2010-01-27,12600.0
VNA,2010-01-28,12600.0
VNA,2010-01-29,12500.0
VNA,2010-02-01,12600.0
VNA,2010-02-02,12600.0
VNA,2010-02-03,12600.0
VNA,2010-02-04,12900.0
VNA,2010-02-05,12600.0
VNA,2010-02-08,12300.0
VNA,2010-02-09,12500.0
VNA,2010-02-10,12500.0
VNA,2010-02-11,12500.0
VNA,2010-02-12,12700.0
VNA,2010-02-22,12700.0
VNA,2010-02-23,12300.0
VNA,2010-02-24,12100.0
VNA,2010-02-25,12400.0
VNA,2010-02-26,12500.0
VNA,2010-03-01,12600.0
VNA,2010-03-02,12400.0
VNA,2010-03-03,12600.0
VNA,2010-03-04,12800.0
VNA,2010-03-05,12800.0
VNA,2010-03-08,13000.0
VNA,2010-03-09,13000.0
VNA,2010-03-10,13000.0
VNA,2010-03-11,13700.0
VNA,2010-03-12,13400.0
VNA,2010-03-15,13400.0
VNA,2010-03-16,13400.0
VNA,2010-03-17,13000.0
VNA,2010-03-18,13100.0
VNA,2010-03-19,12900.0
VNA,2010-03-22,12900.0
VNA,2010-03-23,12900.0
VNA,2010-03-24,12700.0
VNA,2010-03-25,12500.0
VNA,2010-03-26,12500.0
VNA,2010-03-29,12600.0
VNA,2010-03-30,12900.0
VNA,2010-03-31,12900.0
VNA,2010-04-01,12900.0
VNA,2010-04-02,13600.0
VNA,2010-04-05,14200.0
VNA,2010-04-06,14800.0
VNA,2010-04-07,15500.0
VNA,2010-04-08,15100.0
VNA,2010-04-09,15700.0
VNA,2010-04-12,15700.0
VNA,2010-04-13,15100.0
VNA,2010-04-14,15000.0
VNA,2010-04-15,15400.0
VNA,2010-04-16,15800.0
VNA,2010-04-19,15500.0
VNA,2010-04-20,16300.0
VNA,2010-04-21,17000.0
VNA,2010-04-22,17800.0
VNA,2010-04-26,18700.0
VNA,2010-04-27,19600.0
VNA,2010-04-28,20500.0
VNA,2010-04-29,20800.0
VNA,2010-05-04,20500.0
VNA,2010-05-05,20100.0
VNA,2010-05-06,21100.0
VNA,2010-05-07,21100.0
VNA,2010-05-10,20000.0
VNA,2010-05-11,19700.0
VNA,2010-05-12,18800.0
VNA,2010-05-13,19700.0
VNA,2010-05-14,20500.0
VNA,2010-05-17,19700.0
VNA,2010-05-18,20400.0
VNA,2010-05-19,19400.0
VNA,2010-05-20,20200.0
VNA,2010-05-21,19300.0
VNA,2010-05-24,18700.0
VNA,2010-05-25,18300.0
VNA,2010-05-26,19200.0
VNA,2010-05-27,19300.0
VNA,2010-05-28,20300.0
VNA,2010-05-31,21200.0
VNA,2010-06-01,22300.0
VNA,2010-06-02,21700.0
VNA,2010-06-03,22700.0
VNA,2010-06-04,22900.0
VNA,2010-06-07,21800.0
VNA,2010-06-08,20800.0
VNA,2010-06-09,20200.0
VNA,2010-06-10,21200.0
VNA,2010-06-11,21800.0
VNA,2010-06-14,21700.0
VNA,2010-06-15,21200.0
VNA,2010-06-16,20800.0
VNA,2010-06-17,20400.0
VNA,2010-06-18,20300.0
VNA,2010-06-21,20900.0
VNA,2010-06-22,20500.0
VNA,2010-06-23,20500.0
VNA,2010-06-24,20200.0
VNA,2010-06-25,19400.0
VNA,2010-06-28,19500.0
VNA,2010-06-29,19200.0
VNA,2010-06-30,18500.0
VNA,2010-07-01,18500.0
VNA,2010-07-02,18800.0
VNA,2010-07-05,19000.0
VNA,2010-07-06,18300.0
VNA,2010-07-07,17800.0
VNA,2010-07-08,17800.0
VNA,2010-07-09,17400.0
VNA,2010-07-12,17600.0
VNA,2010-07-13,18500.0
VNA,2010-07-14,18900.0
VNA,2010-07-15,18500.0
VNA,2010-07-16,18500.0
VNA,2010-07-19,18200.0
VNA,2010-07-20,17800.0
VNA,2010-07-21,17900.0
VNA,2010-07-22,17800.0
VNA,2010-07-23,17700.0
VNA,2010-07-26,17000.0
VNA,2010-07-27,16300.0
VNA,2010-07-28,15800.0
VNA,2010-07-29,15800.0
VNA,2010-07-30,16400.0
VNA,2010-08-02,16300.0
VNA,2010-08-03,16300.0
VNA,2010-08-04,15900.0
VNA,2010-08-05,16200.0
VNA,2010-08-06,16200.0
VNA,2010-08-09,15800.0
VNA,2010-08-10,15000.0
VNA,2010-08-11,15000.0
VNA,2010-08-12,14300.0
VNA,2010-08-13,14300.0
VNA,2010-08-16,15000.0
VNA,2010-08-17,14900.0
VNA,2010-08-18,14200.0
VNA,2010-08-19,14000.0
VNA,2010-08-20,14000.0
VNA,2010-08-23,14000.0
VNA,2010-08-24,13300.0
VNA,2010-08-25,12700.0
VNA,2010-08-26,12700.0
VNA,2010-08-27,12300.0
VNA,2010-08-30,12900.0
VNA,2010-08-31,13300.0
VNA,2010-09-01,13300.0
VNA,2010-09-06,13900.0
VNA,2010-09-07,14500.0
VNA,2010-09-08,15200.0
VNA,2010-09-09,15400.0
VNA,2010-09-10,14700.0
VNA,2010-09-13,14200.0
VNA,2010-09-14,14100.0
VNA,2010-09-15,13800.0
VNA,2010-09-16,14100.0
VNA,2010-09-17,14800.0
VNA,2010-09-20,14800.0
VNA,2010-09-21,14400.0
VNA,2010-09-22,14600.0
VNA,2010-09-23,14100.0
VNA,2010-09-24,14000.0
VNA,2010-09-27,14000.0
VNA,2010-09-28,14000.0
VNA,2010-09-29,13900.0
VNA,2010-09-30,13700.0
VNA,2010-10-01,13700.0
VNA,2010-10-04,13600.0
VNA,2010-10-05,13200.0
VNA,2010-10-06,13500.0
VNA,2010-10-07,13100.0
VNA,2010-10-08,13100.0
VNA,2010-10-11,13000.0
VNA,2010-10-12,12800.0
VNA,2010-10-13,12600.0
VNA,2010-10-14,12600.0
VNA,2010-10-15,12500.0
VNA,2010-10-18,12600.0
VNA,2010-10-19,12400.0
VNA,2010-10-20,11900.0
VNA,2010-10-21,11800.0
VNA,2010-10-22,11600.0
VNA,2010-10-25,11800.0
VNA,2010-10-26,11900.0
VNA,2010-10-27,11800.0
VNA,2010-10-28,11700.0
VNA,2010-10-29,11800.0
VNA,2010-11-01,11800.0
VNA,2010-11-02,11700.0
VNA,2010-11-03,11800.0
VNA,2010-11-04,11700.0
VNA,2010-11-05,11800.0
VNA,2010-11-08,11700.0
VNA,2010-11-09,11400.0
VNA,2010-11-10,11300.0
VNA,2010-11-11,11200.0
VNA,2010-11-12,10900.0
VNA,2010-11-15,10500.0
VNA,2010-11-16,10300.0
VNA,2010-11-17,10300.0
VNA,2010-11-18,10400.0
VNA,2010-11-19,10300.0
VNA,2010-11-22,10300.0
VNA,2010-11-23,10300.0
VNA,2010-11-24,10300.0
VNA,2010-11-25,10800.0
VNA,2010-11-26,10600.0
VNA,2010-11-29,10700.0
VNA,2010-11-30,11100.0
VNA,2010-12-01,11300.0
VNA,2010-12-02,11400.0
VNA,2010-12-03,12000.0
VNA,2010-12-06,12300.0
VNA,2010-12-07,11800.0
VNA,2010-12-08,11300.0
VNA,2010-12-09,11700.0
VNA,2010-12-10,12200.0
VNA,2010-12-13,12500.0
VNA,2010-12-14,12200.0
VNA,2010-12-15,11700.0
VNA,2010-12-16,11400.0
VNA,2010-12-17,11400.0
VNA,2010-12-20,11200.0
VNA,2010-12-21,11800.0
VNA,2010-12-22,11600.0
VNA,2010-12-23,11400.0
VNA,2010-12-24,11500.0
VNA,2010-12-27,11600.0
VNA,2010-12-28,11800.0
VNA,2010-12-29,11800.0
VNA,2010-12-30,11800.0
VNA,2010-12-31,11900.0
VNA,2011-01-04,11900.0
VNA,2011-01-05,11400.0
VNA,2011-01-06,11400.0
VNA,2011-01-07,11400.0
VNA,2011-01-10,11000.0
VNA,2011-01-11,11000.0
VNA,2011-01-12,11000.0
VNA,2011-01-13,11000.0
VNA,2011-01-14,11200.0
VNA,2011-01-17,11800.0
VNA,2011-01-18,11800.0
VNA,2011-01-19,11400.0
VNA,2011-01-20,11200.0
VNA,2011-01-21,11000.0
VNA,2011-01-24,11000.0
VNA,2011-01-25,10800.0
VNA,2011-01-26,11000.0
VNA,2011-01-27,11000.0
VNA,2011-01-28,10800.0
VNA,2011-02-08,10900.0
VNA,2011-02-09,10800.0
VNA,2011-02-10,10800.0
VNA,2011-02-11,10800.0
VNA,2011-02-14,10800.0
VNA,2011-02-15,10600.0
VNA,2011-02-16,10600.0
VNA,2011-02-17,10700.0
VNA,2011-02-18,10400.0
VNA,2011-02-21,9900.0
VNA,2011-02-22,9700.0
VNA,2011-02-23,9500.0
VNA,2011-02-24,9500.0
VNA,2011-02-25,9500.0
VNA,2011-02-28,9300.0
VNA,2011-03-01,9100.0
VNA,2011-03-02,9000.0
VNA,2011-03-03,8600.0
VNA,2011-03-04,8700.0
VNA,2011-03-07,8500.0
VNA,2011-03-08,8500.0
VNA,2011-03-09,8400.0
VNA,2011-03-10,8800.0
VNA,2011-03-11,8800.0
VNA,2011-03-14,8500.0
VNA,2011-03-15,8400.0
VNA,2011-03-16,8400.0
VNA,2011-03-17,8600.0
VNA,2011-03-18,8500.0
VNA,2011-03-21,8700.0
VNA,2011-03-22,8800.0
VNA,2011-03-23,8700.0
VNA,2011-03-24,8600.0
VNA,2011-03-25,8700.0
VNA,2011-03-28,8600.0
VNA,2011-03-29,8500.0
VNA,2011-03-30,8500.0
VNA,2011-03-31,8600.0
VNA,2011-04-01,8300.0
VNA,2011-04-04,8200.0
VNA,2011-04-05,8100.0
VNA,2011-04-06,8300.0
VNA,2011-04-07,8100.0
VNA,2011-04-08,8100.0
VNA,2011-04-13,8100.0
VNA,2011-04-14,8100.0
VNA,2011-04-15,8100.0
VNA,2011-04-18,8000.0
VNA,2011-04-19,8000.0
VNA,2011-04-20,7900.0
VNA,2011-04-21,7800.0
VNA,2011-04-22,7700.0
VNA,2011-04-25,8100.0
VNA,2011-04-26,7700.0
VNA,2011-04-27,7700.0
VNA,2011-04-28,7700.0
VNA,2011-04-29,7800.0
VNA,2011-05-04,8000.0
VNA,2011-05-05,7800.0
VNA,2011-05-06,7700.0
VNA,2011-05-09,7700.0
VNA,2011-05-10,7700.0
VNA,2011-05-11,7500.0
VNA,2011-05-12,7400.0
VNA,2011-05-13,7600.0
VNA,2011-05-16,7400.0
VNA,2011-05-17,7100.0
VNA,2011-05-18,7300.0
VNA,2011-05-19,7000.0
VNA,2011-05-20,6900.0
VNA,2011-05-23,6700.0
VNA,2011-05-24,6400.0
VNA,2011-05-25,6100.0
VNA,2011-05-26,6000.0
VNA,2011-05-27,6300.0
VNA,2011-05-30,6600.0
VNA,2011-05-31,6800.0
VNA,2011-06-01,7100.0
VNA,2011-06-02,7400.0
VNA,2011-06-03,7400.0
VNA,2011-06-06,7600.0
VNA,2011-06-07,7900.0
VNA,2011-06-08,7700.0
VNA,2011-06-09,7600.0
VNA,2011-06-10,7400.0
VNA,2011-06-13,7400.0
VNA,2011-06-14,7600.0
VNA,2011-06-15,7600.0
VNA,2011-06-16,7300.0
VNA,2011-06-17,6900.0
VNA,2011-06-20,7000.0
VNA,2011-06-21,7400.0
VNA,2011-06-22,7000.0
VNA,2011-06-23,7200.0
VNA,2011-06-24,6800.0
VNA,2011-06-27,6800.0
VNA,2011-06-28,7000.0
VNA,2011-06-29,7000.0
VNA,2011-06-30,6700.0
VNA,2011-07-01,6700.0
VNA,2011-07-04,6900.0
VNA,2011-07-05,6700.0
VNA,2011-07-06,6700.0
VNA,2011-07-07,6700.0
VNA,2011-07-08,6500.0
VNA,2011-07-11,6500.0
VNA,2011-07-12,6200.0
VNA,2011-07-13,6100.0
VNA,2011-07-14,6200.0
VNA,2011-07-15,6200.0
VNA,2011-07-18,6000.0
VNA,2011-07-19,6100.0
VNA,2011-07-20,6400.0
VNA,2011-07-21,6300.0
VNA,2011-07-22,6400.0
VNA,2011-07-25,6200.0
VNA,2011-07-26,6300.0
VNA,2011-07-27,6600.0
VNA,2011-07-28,6300.0
VNA,2011-07-29,6500.0
VNA,2011-08-01,6500.0
VNA,2011-08-02,6200.0
VNA,2011-08-03,6500.0
VNA,2011-08-04,6200.0
VNA,2011-08-05,6200.0
VNA,2011-08-08,6100.0
VNA,2011-08-09,5900.0
VNA,2011-08-10,6000.0
VNA,2011-08-11,5800.0
VNA,2011-08-12,5800.0
VNA,2011-08-15,5800.0
VNA,2011-08-16,5800.0
VNA,2011-08-17,6000.0
VNA,2011-08-18,6100.0
VNA,2011-08-19,6400.0
VNA,2011-08-22,6700.0
VNA,2011-08-23,6400.0
VNA,2011-08-24,6300.0
VNA,2011-08-25,6500.0
VNA,2011-08-26,6700.0
VNA,2011-08-29,7000.0
VNA,2011-08-30,7400.0
VNA,2011-08-31,7300.0
VNA,2011-09-01,6900.0
VNA,2011-09-05,7000.0
VNA,2011-09-06,7000.0
VNA,2011-09-07,7000.0
VNA,2011-09-08,7100.0
VNA,2011-09-09,7100.0
VNA,2011-09-12,6900.0
VNA,2011-09-13,7200.0
VNA,2011-09-14,7200.0
VNA,2011-09-15,7100.0
VNA,2011-09-16,7100.0
VNA,2011-09-19,6800.0
VNA,2011-09-20,7000.0
VNA,2011-09-21,7000.0
VNA,2011-09-22,7100.0
VNA,2011-09-23,6800.0
VNA,2011-09-26,6900.0
VNA,2011-09-27,6900.0
VNA,2011-09-28,6900.0
VNA,2011-09-29,6700.0
VNA,2011-09-30,6800.0
VNA,2011-10-03,6900.0
VNA,2011-10-04,6800.0
VNA,2011-10-05,6600.0
VNA,2011-10-06,6700.0
VNA,2011-10-07,6800.0
VNA,2011-10-10,6900.0
VNA,2011-10-11,6900.0
VNA,2011-10-12,6600.0
VNA,2011-10-13,6500.0
VNA,2011-10-14,6600.0
VNA,2011-10-17,6300.0
VNA,2011-10-18,6200.0
VNA,2011-10-19,6000.0
VNA,2011-10-20,6300.0
VNA,2011-10-21,6400.0
VNA,2011-10-24,6400.0
VNA,2011-10-25,6100.0
VNA,2011-10-26,6100.0
VNA,2011-10-27,5800.0
VNA,2011-10-28,5900.0
VNA,2011-10-31,6000.0
VNA,2011-11-01,6000.0
VNA,2011-11-02,5700.0
VNA,2011-11-03,5600.0
VNA,2011-11-04,5700.0
VNA,2011-11-07,5600.0
VNA,2011-11-08,5400.0
VNA,2011-11-09,5200.0
VNA,2011-11-10,5200.0
VNA,2011-11-11,5100.0
VNA,2011-11-14,5300.0
VNA,2011-11-15,5400.0
VNA,2011-11-16,5500.0
VNA,2011-11-17,5300.0
VNA,2011-11-18,5400.0
VNA,2011-11-21,5200.0
VNA,2011-11-22,5000.0
VNA,2011-11-23,5100.0
VNA,2011-11-24,4900.0
VNA,2011-11-25,4900.0
VNA,2011-11-28,4900.0
VNA,2011-11-29,4900.0
VNA,2011-11-30,4900.0
VNA,2011-12-01,4700.0
VNA,2011-12-02,4800.0
VNA,2011-12-05,4800.0
VNA,2011-12-06,4800.0
VNA,2011-12-07,4600.0
VNA,2011-12-08,4400.0
VNA,2011-12-09,4200.0
VNA,2011-12-12,4000.0
VNA,2011-12-13,3800.0
VNA,2011-12-14,3700.0
VNA,2011-12-15,3600.0
VNA,2011-12-16,3500.0
VNA,2011-12-19,3500.0
VNA,2011-12-20,3400.0
VNA,2011-12-21,3500.0
VNA,2011-12-22,3500.0
VNA,2011-12-23,3400.0
VNA,2011-12-26,3400.0
VNA,2011-12-27,3400.0
VNA,2011-12-28,3500.0
VNA,2011-12-29,3600.0
VNA,2011-12-30,3700.0
VNA,2012-01-03,3800.0
VNA,2012-01-04,3800.0
VNA,2012-01-05,3800.0
VNA,2012-01-06,3800.0
VNA,2012-01-09,3900.0
VNA,2012-01-10,3900.0
VNA,2012-01-11,3900.0
VNA,2012-01-12,3800.0
VNA,2012-01-13,3900.0
VNA,2012-01-16,4000.0
VNA,2012-01-17,4000.0
VNA,2012-01-18,4000.0
VNA,2012-01-19,4000.0
VNA,2012-01-20,4000.0
VNA,2012-01-30,4200.0
VNA,2012-01-31,4400.0
VNA,2012-02-01,4400.0
VNA,2012-02-02,4500.0
VNA,2012-02-03,4300.0
VNA,2012-02-06,4400.0
VNA,2012-02-07,4400.0
VNA,2012-02-08,4600.0
VNA,2012-02-09,4600.0
VNA,2012-02-10,4400.0
VNA,2012-02-13,4200.0
VNA,2012-02-14,4100.0
VNA,2012-02-15,4200.0
VNA,2012-02-16,4400.0
VNA,2012-02-17,4300.0
VNA,2012-02-20,4500.0
VNA,2012-02-21,4500.0
VNA,2012-02-22,4500.0
VNA,2012-02-23,4700.0
VNA,2012-02-24,4900.0
VNA,2012-02-27,5000.0
VNA,2012-02-28,4800.0
VNA,2012-02-29,4900.0
VNA,2012-03-01,4900.0
VNA,2012-03-02,5000.0
VNA,2012-03-05,5200.0
VNA,2012-03-06,5200.0
VNA,2012-03-07,5200.0
VNA,2012-03-08,5000.0
VNA,2012-03-09,5000.0
VNA,2012-03-12,4800.0
VNA,2012-03-13,5000.0
VNA,2012-03-14,4800.0
VNA,2012-03-15,4900.0
VNA,2012-03-16,5000.0
VNA,2012-03-19,4900.0
VNA,2012-03-20,4800.0
VNA,2012-03-21,5000.0
VNA,2012-03-22,5200.0
VNA,2012-03-23,5300.0
VNA,2012-03-26,5500.0
VNA,2012-03-27,5500.0
VNA,2012-03-28,5500.0
VNA,2012-03-29,5400.0
VNA,2012-03-30,5200.0
VNA,2012-04-03,5200.0
VNA,2012-04-04,5200.0
VNA,2012-04-05,5200.0
VNA,2012-04-06,5200.0
VNA,2012-04-09,5200.0
VNA,2012-04-10,5100.0
VNA,2012-04-11,5200.0
VNA,2012-04-12,5200.0
VNA,2012-04-13,5200.0
VNA,2012-04-16,5300.0
VNA,2012-04-17,5400.0
VNA,2012-04-18,5600.0
VNA,2012-04-19,5800.0
VNA,2012-04-20,5700.0
VNA,2012-04-23,5500.0
VNA,2012-04-24,5500.0
VNA,2012-04-25,5700.0
VNA,2012-04-26,5900.0
VNA,2012-04-27,6100.0
VNA,2012-05-02,6400.0
VNA,2012-05-03,6400.0
VNA,2012-05-04,6100.0
VNA,2012-05-07,5800.0
VNA,2012-05-08,6000.0
VNA,2012-05-09,6300.0
VNA,2012-05-10,6300.0
VNA,2012-05-11,6000.0
VNA,2012-05-14,5700.0
VNA,2012-05-15,5500.0
VNA,2012-05-16,5300.0
VNA,2012-05-17,5100.0
VNA,2012-05-18,5000.0
VNA,2012-05-21,5200.0
VNA,2012-05-22,5000.0
VNA,2012-05-23,4800.0
VNA,2012-05-24,4700.0
VNA,2012-05-25,4900.0
VNA,2012-05-28,4700.0
VNA,2012-05-29,4500.0
VNA,2012-05-30,4600.0
VNA,2012-05-31,4400.0
VNA,2012-06-01,4300.0
VNA,2012-06-04,4100.0
VNA,2012-06-05,4300.0
VNA,2012-06-06,4500.0
VNA,2012-06-07,4700.0
VNA,2012-06-08,4700.0
VNA,2012-06-11,4500.0
VNA,2012-06-12,4300.0
VNA,2012-06-13,4400.0
VNA,2012-06-14,4500.0
VNA,2012-06-15,4500.0
VNA,2012-06-18,4600.0
VNA,2012-06-19,4600.0
VNA,2012-06-20,4500.0
VNA,2012-06-21,4400.0
VNA,2012-06-22,4200.0
VNA,2012-06-25,4000.0
VNA,2012-06-26,3900.0
VNA,2012-06-27,3900.0
VNA,2012-06-28,4000.0
VNA,2012-06-29,4200.0
VNA,2012-07-02,4000.0
VNA,2012-07-03,3800.0
VNA,2012-07-04,3800.0
VNA,2012-07-05,3900.0
VNA,2012-07-06,4000.0
VNA,2012-07-09,4000.0
VNA,2012-07-10,4000.0
VNA,2012-07-11,3900.0
VNA,2012-07-12,3900.0
VNA,2012-07-13,4000.0
VNA,2012-07-16,4100.0
VNA,2012-07-17,4200.0
VNA,2012-07-18,4200.0
VNA,2012-07-19,4100.0
VNA,2012-07-20,4000.0
VNA,2012-07-23,3800.0
VNA,2012-07-24,3800.0
VNA,2012-07-25,3700.0
VNA,2012-07-26,3800.0
VNA,2012-07-27,3700.0
VNA,2012-07-30,3700.0
VNA,2012-07-31,3800.0
VNA,2012-08-01,3800.0
VNA,2012-08-02,3800.0
VNA,2012-08-03,3800.0
VNA,2012-08-06,3900.0
VNA,2012-08-07,4000.0
VNA,2012-08-08,3800.0
VNA,2012-08-09,3800.0
VNA,2012-08-10,3800.0
VNA,2012-08-13,3800.0
VNA,2012-08-14,3800.0
VNA,2012-08-15,3800.0
VNA,2012-08-16,3700.0
VNA,2012-08-17,3800.0
VNA,2012-08-20,3700.0
VNA,2012-08-21,3600.0
VNA,2012-08-22,3700.0
VNA,2012-08-23,3600.0
VNA,2012-08-24,3600.0
VNA,2012-08-27,3500.0
VNA,2012-08-28,3400.0
VNA,2012-08-29,3400.0
VNA,2012-08-30,3300.0
VNA,2012-08-31,3200.0
VNA,2012-09-04,3300.0
VNA,2012-09-05,3200.0
VNA,2012-09-06,3100.0
VNA,2012-09-07,3100.0
VNA,2012-09-10,3200.0
VNA,2012-09-11,3200.0
VNA,2012-09-12,3100.0
VNA,2012-09-13,3100.0
VNA,2012-09-14,3200.0
VNA,2012-09-17,3200.0
VNA,2012-09-18,3100.0
VNA,2012-09-19,3000.0
VNA,2012-09-20,3000.0
VNA,2012-09-21,3000.0
VNA,2012-09-24,3100.0
VNA,2012-09-25,3000.0
VNA,2012-09-26,3000.0
VNA,2012-09-27,2900.0
VNA,2012-09-28,2900.0
VNA,2012-10-01,3000.0
VNA,2012-10-02,3100.0
VNA,2012-10-03,3000.0
VNA,2012-10-04,3000.0
VNA,2012-10-05,2900.0
VNA,2012-10-08,3000.0
VNA,2012-10-09,3100.0
VNA,2012-10-10,3200.0
VNA,2012-10-11,3200.0
VNA,2012-10-12,3200.0
VNA,2012-10-15,3100.0
VNA,2012-10-16,3100.0
VNA,2012-10-17,3000.0
VNA,2012-10-18,3000.0
VNA,2012-10-19,3000.0
VNA,2012-10-22,2900.0
VNA,2012-10-23,3000.0
VNA,2012-10-24,3000.0
VNA,2012-10-25,2900.0
VNA,2012-10-26,2800.0
VNA,2012-10-29,2900.0
VNA,2012-10-30,2900.0
VNA,2012-10-31,2900.0
VNA,2012-11-01,2800.0
VNA,2012-11-02,2700.0
VNA,2012-11-05,2800.0
VNA,2012-11-06,2900.0
VNA,2012-11-07,2900.0
VNA,2012-11-08,2800.0
VNA,2012-11-09,2700.0
VNA,2012-11-12,2600.0
VNA,2012-11-13,2500.0
VNA,2012-11-14,2500.0
VNA,2012-11-15,2600.0
VNA,2012-11-16,2700.0
VNA,2012-11-19,2700.0
VNA,2012-11-20,2800.0
VNA,2012-11-21,2900.0
VNA,2012-11-22,2900.0
VNA,2012-11-23,2800.0
VNA,2012-11-26,2700.0
VNA,2012-11-27,2600.0
VNA,2012-11-28,2500.0
VNA,2012-11-29,2400.0
VNA,2012-11-30,2400.0
VNA,2012-12-03,2500.0
VNA,2012-12-04,2500.0
VNA,2012-12-05,2500.0
VNA,2012-12-06,2600.0
VNA,2012-12-07,2600.0
VNA,2012-12-10,2600.0
VNA,2012-12-11,2600.0
VNA,2012-12-12,2700.0
VNA,2012-12-13,2600.0
VNA,2012-12-14,2700.0
VNA,2012-12-17,2600.0
VNA,2012-12-18,2500.0
VNA,2012-12-19,2600.0
VNA,2012-12-20,2500.0
VNA,2012-12-21,2500.0
VNA,2012-12-24,2600.0
VNA,2012-12-25,2700.0
VNA,2012-12-26,2800.0
VNA,2012-12-27,2900.0
VNA,2012-12-28,2800.0
VNA,2013-01-02,2800.0
VNA,2013-01-03,2800.0
VNA,2013-01-04,2700.0
VNA,2013-01-07,2600.0
VNA,2013-01-08,2700.0
VNA,2013-01-09,2600.0
VNA,2013-01-10,2700.0
VNA,2013-01-11,2600.0
VNA,2013-01-14,2700.0
VNA,2013-01-15,2700.0
VNA,2013-01-16,2800.0
VNA,2013-01-17,2800.0
VNA,2013-01-18,2900.0
VNA,2013-01-21,2700.0
VNA,2013-01-22,2800.0
VNA,2013-01-23,2700.0
VNA,2013-01-24,2800.0
VNA,2013-01-25,2900.0
VNA,2013-01-28,2900.0
VNA,2013-01-29,2800.0
VNA,2013-01-30,2700.0
VNA,2013-01-31,2700.0
VNA,2013-02-01,2700.0
VNA,2013-02-04,2700.0
VNA,2013-02-05,2700.0
VNA,2013-02-06,2700.0
VNA,2013-02-07,2800.0
VNA,2013-02-08,2800.0
VNA,2013-02-18,2900.0
VNA,2013-02-19,3100.0
VNA,2013-02-20,3300.0
VNA,2013-02-21,3500.0
VNA,2013-02-22,3300.0
VNA,2013-02-25,3100.0
VNA,2013-02-26,2900.0
VNA,2013-02-27,2900.0
VNA,2013-02-28,2900.0
VNA,2013-03-01,2800.0
VNA,2013-03-04,2800.0
VNA,2013-03-05,2700.0
VNA,2013-03-06,2800.0
VNA,2013-03-07,2800.0
VNA,2013-03-08,2900.0
VNA,2013-03-11,2900.0
VNA,2013-03-12,2900.0
VNA,2013-03-13,2800.0
VNA,2013-03-14,2800.0
VNA,2013-03-15,2800.0
VNA,2013-03-18,2900.0
VNA,2013-03-19,2900.0
VNA,2013-03-20,3100.0
VNA,2013-03-21,3000.0
VNA,2013-03-22,2900.0
VNA,2013-03-25,2900.0
VNA,2013-03-26,2900.0
VNA,2013-03-27,3000.0
VNA,2013-03-28,2900.0
VNA,2013-03-29,2900.0
VNA,2013-04-01,3000.0
VNA,2013-04-02,2900.0
VNA,2013-04-03,2900.0
VNA,2013-04-04,2800.0
VNA,2013-04-05,2800.0
VNA,2013-04-08,2800.0
VNA,2013-04-09,2700.0
VNA,2013-04-10,2700.0
VNA,2013-04-11,2800.0
VNA,2013-04-12,2700.0
VNA,2013-04-15,2600.0
VNA,2013-04-16,2700.0
VNA,2013-04-17,2700.0
VNA,2013-04-18,2700.0
VNA,2013-04-22,2600.0
VNA,2013-04-23,2600.0
VNA,2013-04-24,2700.0
VNA,2013-04-25,2600.0
VNA,2013-04-26,2600.0
VNA,2013-05-02,2600.0
VNA,2013-05-03,2600.0
VNA,2013-05-06,2700.0
VNA,2013-05-07,2700.0
VNA,2013-05-08,2700.0
VNA,2013-05-09,2700.0
VNA,2013-05-10,2700.0
VNA,2013-05-13,2700.0
VNA,2013-05-14,2700.0
VNA,2013-05-15,2600.0
VNA,2013-05-16,2700.0
VNA,2013-05-17,2700.0
VNA,2013-05-20,2700.0
VNA,2013-05-21,2700.0
VNA,2013-05-22,2700.0
VNA,2013-05-23,2700.0
VNA,2013-05-24,2700.0
VNA,2013-05-27,2700.0
VNA,2013-05-28,2800.0
VNA,2013-05-29,2800.0
VNA,2013-05-30,2700.0
VNA,2013-05-31,2700.0
VNA,2013-06-03,2700.0
VNA,2013-06-04,2700.0
VNA,2013-06-05,2700.0
VNA,2013-06-06,2600.0
VNA,2013-06-07,2700.0
VNA,2013-06-10,2700.0
VNA,2013-06-11,2700.0
VNA,2013-06-12,2700.0
VNA,2013-06-13,2700.0
VNA,2013-06-14,2800.0
VNA,2013-06-17,2700.0
VNA,2013-06-18,2800.0
VNA,2013-06-19,2700.0
VNA,2013-06-20,2600.0
VNA,2013-06-21,2700.0
VNA,2013-06-24,2700.0
VNA,2013-06-25,2600.0
VNA,2013-06-26,2700.0
VNA,2013-06-27,2700.0
VNA,2013-06-28,2600.0
VNA,2013-07-01,2700.0
VNA,2013-07-02,2600.0
VNA,2013-07-03,2700.0
VNA,2013-07-04,2600.0
VNA,2013-07-05,2600.0
VNA,2013-07-08,2700.0
VNA,2013-07-09,2600.0
VNA,2013-07-10,2600.0
VNA,2013-07-11,2700.0
VNA,2013-07-12,2700.0
VNA,2013-07-15,2700.0
VNA,2013-07-16,2700.0
VNA,2013-07-17,2700.0
VNA,2013-07-18,2700.0
VNA,2013-07-19,2600.0
VNA,2013-07-22,2500.0
VNA,2013-07-23,2500.0
VNA,2013-07-24,2500.0
VNA,2013-07-25,2500.0
VNA,2013-07-26,2500.0
VNA,2013-07-29,2400.0
VNA,2013-07-30,2500.0
VNA,2013-07-31,2500.0
VNA,2013-08-01,2500.0
VNA,2013-08-02,2500.0
VNA,2013-08-05,2400.0
VNA,2013-08-06,2500.0
VNA,2013-08-07,2500.0
VNA,2013-08-08,2500.0
VNA,2013-08-09,2500.0
VNA,2013-08-12,2500.0
VNA,2013-08-13,2600.0
VNA,2013-08-14,2500.0
VNA,2013-08-15,2500.0
VNA,2013-08-16,2500.0
VNA,2013-08-19,2500.0
VNA,2013-08-20,2400.0
VNA,2013-08-21,2500.0
VNA,2013-08-22,2500.0
VNA,2013-08-23,2500.0
VNA,2013-08-26,2400.0
VNA,2013-08-27,2500.0
VNA,2013-08-28,2500.0
VNA,2013-08-29,2400.0
VNA,2013-08-30,2500.0
VNA,2013-09-03,2500.0
VNA,2013-09-04,2500.0
VNA,2013-09-05,2500.0
VNA,2013-09-06,2500.0
VNA,2013-09-09,2500.0
VNA,2013-09-10,2500.0
VNA,2013-09-11,2500.0
VNA,2013-09-12,2500.0
VNA,2013-09-13,2500.0
VNA,2013-09-16,2500.0
VNA,2013-09-17,2500.0
VNA,2013-09-18,2400.0
VNA,2013-09-19,2400.0
VNA,2013-09-20,2500.0
VNA,2013-09-23,2500.0
VNA,2013-09-24,2500.0
VNA,2013-09-25,2500.0
VNA,2013-09-26,2500.0
VNA,2013-09-27,2500.0
VNA,2013-09-30,2600.0
VNA,2013-10-01,2700.0
VNA,2013-10-02,2700.0
VNA,2013-10-03,2700.0
VNA,2013-10-04,2700.0
VNA,2013-10-07,2700.0
VNA,2013-10-08,2700.0
VNA,2013-10-09,2700.0
VNA,2013-10-10,2700.0
VNA,2013-10-11,2700.0
VNA,2013-10-14,2700.0
VNA,2013-10-15,2700.0
VNA,2013-10-16,2800.0
VNA,2013-10-17,2900.0
VNA,2013-10-18,3000.0
VNA,2013-10-21,3000.0
VNA,2013-10-22,2900.0
VNA,2013-10-23,2900.0
VNA,2013-10-24,2900.0
VNA,2013-10-25,2800.0
VNA,2013-10-28,2900.0
VNA,2013-10-29,3000.0
VNA,2013-10-30,3000.0
VNA,2013-10-31,3000.0
VNA,2013-11-01,3000.0
VNA,2013-11-04,2900.0
VNA,2013-11-05,3100.0
VNA,2013-11-06,3100.0
VNA,2013-11-07,3100.0
VNA,2013-11-08,3100.0
VNA,2013-11-11,3100.0
VNA,2013-11-12,3000.0
VNA,2013-11-13,3000.0
VNA,2013-11-14,3000.0
VNA,2013-11-15,3000.0
VNA,2013-11-18,2900.0
VNA,2013-11-19,3100.0
VNA,2013-11-20,3300.0
VNA,2013-11-21,3300.0
VNA,2013-11-22,3300.0
VNA,2013-11-25,3300.0
VNA,2013-11-26,3500.0
VNA,2013-11-27,3700.0
VNA,2013-11-28,3900.0
VNA,2013-11-29,4100.0
VNA,2013-12-02,3900.0
VNA,2013-12-03,4100.0
VNA,2013-12-04,4000.0
VNA,2013-12-05,3900.0
VNA,2013-12-06,3700.0
VNA,2013-12-09,3600.0
VNA,2013-12-10,3600.0
VNA,2013-12-11,3400.0
VNA,2013-12-12,3500.0
VNA,2013-12-13,3600.0
VNA,2013-12-16,3700.0
VNA,2013-12-17,3800.0
VNA,2013-12-18,3700.0
VNA,2013-12-19,3700.0
VNA,2013-12-20,3600.0
VNA,2013-12-23,3500.0
VNA,2013-12-24,3400.0
VNA,2013-12-25,3200.0
VNA,2013-12-26,3400.0
VNA,2013-12-27,3400.0
VNA,2013-12-30,3300.0
VNA,2013-12-31,3200.0
VNA,2014-01-02,3300.0
VNA,2014-01-03,3400.0
VNA,2014-01-06,3500.0
VNA,2014-01-07,3500.0
VNA,2014-01-08,3500.0
VNA,2014-01-09,3500.0
VNA,2014-01-10,3400.0
VNA,2014-01-13,3300.0
VNA,2014-01-14,3300.0
VNA,2014-01-15,3300.0
VNA,2014-01-16,3300.0
VNA,2014-01-17,3200.0
VNA,2014-01-20,3200.0
VNA,2014-01-21,3000.0
VNA,2014-01-22,2800.0
VNA,2014-01-23,2900.0
VNA,2014-01-24,3100.0
VNA,2014-01-27,3300.0
VNA,2014-02-06,3200.0
VNA,2014-02-07,3000.0
VNA,2014-02-10,3000.0
VNA,2014-02-11,3100.0
VNA,2014-02-12,3100.0
VNA,2014-02-13,3200.0
VNA,2014-02-14,3200.0
VNA,2014-02-17,3000.0
VNA,2014-02-18,3000.0
VNA,2014-02-19,3000.0
VNA,2014-02-20,2800.0
VNA,2014-02-21,2900.0
VNA,2014-02-24,3000.0
VNA,2014-02-25,3000.0
VNA,2014-02-26,3100.0
VNA,2014-02-27,3100.0
VNA,2014-02-28,2900.0
VNA,2014-03-03,2900.0
VNA,2014-03-04,2900.0
VNA,2014-03-05,3000.0
VNA,2014-03-06,3100.0
VNA,2014-03-07,3200.0
VNA,2014-03-10,3100.0
VNA,2014-03-11,3200.0
VNA,2014-03-12,3000.0
VNA,2014-03-13,3000.0
VNA,2014-03-14,3100.0
VNA,2014-03-17,3300.0
VNA,2014-03-18,3500.0
VNA,2014-03-19,3700.0
VNA,2014-03-20,3900.0
VNA,2014-03-21,4100.0
VNA,2014-03-24,4300.0
VNA,2014-03-25,4000.0
VNA,2014-03-26,3800.0
VNA,2014-03-27,3800.0
VNA,2014-03-28,3800.0
VNA,2014-03-31,3700.0
VNA,2014-04-01,3500.0
VNA,2014-04-02,3300.0
VNA,2014-04-03,3500.0
VNA,2014-04-04,3500.0
VNA,2014-04-07,3500.0
VNA,2014-04-08,3500.0
VNA,2014-04-10,3500.0
VNA,2014-04-11,3500.0
VNA,2014-04-14,3500.0
VNA,2014-04-15,3500.0
VNA,2014-04-16,3500.0
VNA,2014-04-17,3500.0
VNA,2014-04-18,3300.0
VNA,2014-04-21,3100.0
VNA,2014-04-22,3000.0
VNA,2014-04-23,2900.0
VNA,2014-04-24,3100.0
VNA,2014-04-25,3300.0
VNA,2014-04-28,3300.0
VNA,2014-04-29,3300.0
VNA,2014-05-05,3100.0
VNA,2014-05-06,2900.0
VNA,2014-05-07,3000.0
VNA,2014-05-08,2800.0
VNA,2014-05-09,2900.0
VNA,2014-05-12,2700.0
VNA,2014-05-13,2600.0
VNA,2014-05-14,2700.0
VNA,2014-05-15,2800.0
VNA,2014-05-16,2800.0
VNA,2014-05-19,2700.0
VNA,2014-05-20,2800.0
VNA,2014-05-21,2900.0
