VNINDEX,2000-07-28,100.0
VNINDEX,2000-07-31,101.55
VNINDEX,2000-08-02,103.38
VNINDEX,2000-08-04,105.2
VNINDEX,2000-08-07,106.92
VNINDEX,2000-08-09,108.64
VNINDEX,2000-08-11,110.36
VNINDEX,2000-08-14,112.08
VNINDEX,2000-08-16,113.8
VNINDEX,2000-08-18,115.52
VNINDEX,2000-08-21,117.24
VNINDEX,2000-08-23,118.96
VNINDEX,2000-08-25,118.84
VNINDEX,2000-08-28,117.0
VNINDEX,2000-08-30,115.15
VNINDEX,2000-09-01,113.37
VNINDEX,2000-09-06,112.51
VNINDEX,2000-09-08,112.39
VNINDEX,2000-09-11,114.11
VNINDEX,2000-09-13,116.08
VNINDEX,2000-09-15,118.04
VNINDEX,2000-09-18,118.19
VNINDEX,2000-09-20,118.21
VNINDEX,2000-09-22,118.76
VNINDEX,2000-09-25,118.98
VNINDEX,2000-09-27,119.69
VNINDEX,2000-09-29,120.71
VNINDEX,2000-10-02,120.92
VNINDEX,2000-10-04,121.14
VNINDEX,2000-10-06,122.21
VNINDEX,2000-10-09,124.33
VNINDEX,2000-10-11,126.45
VNINDEX,2000-10-13,128.57001
VNINDEX,2000-10-16,130.71001
VNINDEX,2000-10-18,132.85001
VNINDEX,2000-10-20,135.03999
VNINDEX,2000-10-23,136.55
VNINDEX,2000-10-25,137.08
VNINDEX,2000-10-27,139.57001
VNINDEX,2000-10-30,140.48
VNINDEX,2000-11-01,143.33
VNINDEX,2000-11-03,145.83
VNINDEX,2000-11-06,148.57001
VNINDEX,2000-11-08,151.32001
VNINDEX,2000-11-10,154.08
VNINDEX,2000-11-13,156.84
VNINDEX,2000-11-15,159.60001
VNINDEX,2000-11-17,162.36
VNINDEX,2000-11-20,165.17
VNINDEX,2000-11-22,165.52
VNINDEX,2000-11-24,166.17
VNINDEX,2000-11-27,165.60001
VNINDEX,2000-11-29,168.73
VNINDEX,2000-12-01,171.87
VNINDEX,2000-12-04,175.0
VNINDEX,2000-12-06,178.13
VNINDEX,2000-12-08,181.25999
VNINDEX,2000-12-11,181.94
VNINDEX,2000-12-13,184.48
VNINDEX,2000-12-15,187.62
VNINDEX,2000-12-18,191.11
VNINDEX,2000-12-20,194.85001
VNINDEX,2000-12-22,198.58
VNINDEX,2000-12-25,202.32001
VNINDEX,2000-12-27,203.09
VNINDEX,2000-12-29,206.83
VNINDEX,2001-01-03,210.56
VNINDEX,2001-01-08,218.12
VNINDEX,2001-01-10,222.14999
VNINDEX,2001-01-12,225.67
VNINDEX,2001-01-15,228.35001
VNINDEX,2001-01-17,232.67999
VNINDEX,2001-01-19,236.97
VNINDEX,2001-01-29,241.36
VNINDEX,2001-01-31,245.8
VNINDEX,2001-02-02,250.23
VNINDEX,2001-02-05,254.96001
VNINDEX,2001-02-09,260.14999
VNINDEX,2001-02-12,256.17999
VNINDEX,2001-02-14,252.21001
VNINDEX,2001-02-16,248.98
VNINDEX,2001-02-23,251.22
VNINDEX,2001-02-26,255.67
VNINDEX,2001-02-28,252.39999
VNINDEX,2001-03-02,253.64
VNINDEX,2001-03-05,250.73
VNINDEX,2001-03-07,248.05
VNINDEX,2001-03-09,252.61
VNINDEX,2001-03-12,255.99001
VNINDEX,2001-03-14,257.70001
VNINDEX,2001-03-16,258.51999
VNINDEX,2001-03-19,260.29001
VNINDEX,2001-03-21,261.10999
VNINDEX,2001-03-23,259.60001
VNINDEX,2001-03-26,260.10999
VNINDEX,2001-03-28,264.70001
VNINDEX,2001-03-30,269.29999
VNINDEX,2001-04-02,274.42999
VNINDEX,2001-04-04,279.56
VNINDEX,2001-04-06,284.69
VNINDEX,2001-04-09,289.82001
VNINDEX,2001-04-11,295.09
VNINDEX,2001-04-13,300.35999
VNINDEX,2001-04-16,306.16
VNINDEX,2001-04-18,311.95999
VNINDEX,2001-04-20,317.76001
VNINDEX,2001-04-23,313.73999
VNINDEX,2001-04-25,315.26999
VNINDEX,2001-04-27,321.07001
VNINDEX,2001-05-02,327.13
VNINDEX,2001-05-04,332.0
VNINDEX,2001-05-07,338.35001
VNINDEX,2001-05-09,344.47
VNINDEX,2001-05-11,351.06
VNINDEX,2001-05-14,357.64999
VNINDEX,2001-05-16,364.26999
VNINDEX,2001-05-18,370.89999
VNINDEX,2001-05-21,377.42999
VNINDEX,2001-05-23,384.16
VNINDEX,2001-05-25,390.88
VNINDEX,2001-05-28,397.5
VNINDEX,2001-05-30,404.26001
VNINDEX,2001-06-01,411.03
VNINDEX,2001-06-04,417.79001
VNINDEX,2001-06-06,424.56
VNINDEX,2001-06-08,426.57999
VNINDEX,2001-06-11,428.01999
VNINDEX,2001-06-13,456.17999
VNINDEX,2001-06-15,486.34
VNINDEX,2001-06-18,518.62
VNINDEX,2001-06-20,553.56
VNINDEX,2001-06-22,563.0
VNINDEX,2001-06-25,571.03998
VNINDEX,2001-06-29,500.28
VNINDEX,2001-07-02,491.17001
VNINDEX,2001-07-04,512.79999
VNINDEX,2001-07-06,502.92999
VNINDEX,2001-07-09,470.82999
VNINDEX,2001-07-11,436.13
VNINDEX,2001-07-13,416.45999
VNINDEX,2001-07-16,411.42999
VNINDEX,2001-07-18,438.12
VNINDEX,2001-07-20,466.67001
VNINDEX,2001-07-23,438.32999
VNINDEX,2001-07-25,450.87
VNINDEX,2001-07-27,445.37
VNINDEX,2001-07-30,422.45999
VNINDEX,2001-08-01,395.63
VNINDEX,2001-08-03,371.76001
VNINDEX,2001-08-06,350.69
VNINDEX,2001-08-08,373.63
VNINDEX,2001-08-10,394.17999
VNINDEX,2001-08-13,368.34
VNINDEX,2001-08-15,344.31
VNINDEX,2001-08-17,321.82999
VNINDEX,2001-08-20,302.25
VNINDEX,2001-08-22,320.98001
VNINDEX,2001-08-24,300.03
VNINDEX,2001-08-27,279.64999
VNINDEX,2001-08-29,261.35001
VNINDEX,2001-08-31,277.39999
VNINDEX,2001-09-05,296.42999
VNINDEX,2001-09-07,307.76001
VNINDEX,2001-09-10,286.54999
VNINDEX,2001-09-12,284.67999
VNINDEX,2001-09-14,274.64001
VNINDEX,2001-09-17,266.09
VNINDEX,2001-09-19,273.37
VNINDEX,2001-09-21,272.03
VNINDEX,2001-09-24,259.75
VNINDEX,2001-09-26,249.72
VNINDEX,2001-09-28,244.46001
VNINDEX,2001-10-01,229.06
VNINDEX,2001-10-03,214.28999
VNINDEX,2001-10-05,203.12
VNINDEX,2001-10-08,217.10001
VNINDEX,2001-10-10,221.17999
VNINDEX,2001-10-12,225.27
VNINDEX,2001-10-15,229.35001
VNINDEX,2001-10-17,233.48
VNINDEX,2001-10-19,237.62
VNINDEX,2001-10-22,242.00999
VNINDEX,2001-10-24,246.41
VNINDEX,2001-10-26,250.85001
VNINDEX,2001-10-29,255.55
VNINDEX,2001-10-31,260.29001
VNINDEX,2001-11-02,265.03
VNINDEX,2001-11-05,269.76999
VNINDEX,2001-11-07,274.89001
VNINDEX,2001-11-09,280.03
VNINDEX,2001-11-12,285.06
VNINDEX,2001-11-14,290.51001
VNINDEX,2001-11-16,295.97
VNINDEX,2001-11-19,301.09
VNINDEX,2001-11-21,296.10999
VNINDEX,2001-11-23,292.17001
VNINDEX,2001-11-26,296.89999
VNINDEX,2001-11-28,293.03
VNINDEX,2001-11-30,288.51999
VNINDEX,2001-12-03,283.01999
VNINDEX,2001-12-05,279.14999
VNINDEX,2001-12-07,275.48999
VNINDEX,2001-12-10,271.62
VNINDEX,2001-12-12,267.82999
VNINDEX,2001-12-14,263.04001
VNINDEX,2001-12-17,259.07999
VNINDEX,2001-12-19,247.25999
VNINDEX,2001-12-24,248.05
VNINDEX,2001-12-26,242.75
VNINDEX,2001-12-28,239.27
VNINDEX,2001-12-31,235.39999
VNINDEX,2002-01-02,231.7
VNINDEX,2002-01-04,227.78999
VNINDEX,2002-01-07,225.95
VNINDEX,2002-01-09,222.89999
VNINDEX,2002-01-11,219.22
VNINDEX,2002-01-14,214.16
VNINDEX,2002-01-16,210.67999
VNINDEX,2002-01-21,203.27
VNINDEX,2002-01-23,206.00999
VNINDEX,2002-01-25,209.02
VNINDEX,2002-01-28,210.75999
VNINDEX,2002-01-30,207.55
VNINDEX,2002-02-01,204.48
VNINDEX,2002-02-04,203.77
VNINDEX,2002-02-06,205.37
VNINDEX,2002-02-08,205.2
VNINDEX,2002-02-18,202.89
VNINDEX,2002-02-20,199.52
VNINDEX,2002-02-22,196.58
VNINDEX,2002-02-25,193.78999
VNINDEX,2002-02-27,191.10001
VNINDEX,2002-03-01,193.59
VNINDEX,2002-03-04,190.98
VNINDEX,2002-03-05,188.22
VNINDEX,2002-03-06,185.74001
VNINDEX,2002-03-07,183.2
VNINDEX,2002-03-08,181.2
VNINDEX,2002-03-11,180.73
VNINDEX,2002-03-12,182.92
VNINDEX,2002-03-13,185.66
VNINDEX,2002-03-14,188.97
VNINDEX,2002-03-15,192.39
VNINDEX,2002-03-18,190.3
VNINDEX,2002-03-19,187.06
VNINDEX,2002-03-20,189.05
VNINDEX,2002-03-22,187.67
VNINDEX,2002-03-25,188.71001
VNINDEX,2002-03-26,191.97
VNINDEX,2002-03-28,197.89
VNINDEX,2002-03-29,200.14999
VNINDEX,2002-04-01,203.14
VNINDEX,2002-04-02,203.22
VNINDEX,2002-04-03,202.16
VNINDEX,2002-04-04,201.38
VNINDEX,2002-04-05,198.77
VNINDEX,2002-04-08,198.52
VNINDEX,2002-04-09,200.48
VNINDEX,2002-04-10,200.85001
VNINDEX,2002-04-11,200.36
VNINDEX,2002-04-12,199.69
VNINDEX,2002-04-15,200.39999
VNINDEX,2002-04-16,198.44
VNINDEX,2002-04-17,197.12
VNINDEX,2002-04-18,199.31
VNINDEX,2002-04-19,201.42999
VNINDEX,2002-04-22,201.14
VNINDEX,2002-04-23,202.81
VNINDEX,2002-04-24,205.64999
VNINDEX,2002-04-25,207.06
VNINDEX,2002-04-26,208.48
VNINDEX,2002-04-29,209.52
VNINDEX,2002-05-03,212.95
VNINDEX,2002-05-06,214.23
VNINDEX,2002-05-07,210.42999
VNINDEX,2002-05-08,207.05
VNINDEX,2002-05-09,208.85001
VNINDEX,2002-05-10,211.88
VNINDEX,2002-05-13,209.62
VNINDEX,2002-05-14,209.88
VNINDEX,2002-05-15,209.82001
VNINDEX,2002-05-16,209.08
VNINDEX,2002-05-17,209.78999
VNINDEX,2002-05-20,208.14
VNINDEX,2002-05-21,208.92999
VNINDEX,2002-05-22,209.66
VNINDEX,2002-05-23,208.92999
VNINDEX,2002-05-24,208.03999
VNINDEX,2002-05-27,206.3
VNINDEX,2002-05-28,205.02
VNINDEX,2002-05-29,203.64999
VNINDEX,2002-05-30,203.77
VNINDEX,2002-05-31,207.12
VNINDEX,2002-06-03,207.81
VNINDEX,2002-06-04,205.67999
VNINDEX,2002-06-05,205.48
VNINDEX,2002-06-06,205.07001
VNINDEX,2002-06-07,203.25999
VNINDEX,2002-06-10,204.88
VNINDEX,2002-06-11,203.53
VNINDEX,2002-06-12,203.78999
VNINDEX,2002-06-13,202.35001
VNINDEX,2002-06-14,200.75
VNINDEX,2002-06-17,197.77
VNINDEX,2002-06-18,195.59
VNINDEX,2002-06-19,192.13
VNINDEX,2002-06-20,193.32001
VNINDEX,2002-06-21,196.89
VNINDEX,2002-06-24,200.5
VNINDEX,2002-06-25,202.39999
VNINDEX,2002-06-26,200.5
VNINDEX,2002-06-27,199.61
VNINDEX,2002-06-28,202.06
VNINDEX,2002-07-01,200.25999
VNINDEX,2002-07-02,199.94
VNINDEX,2002-07-03,199.61
VNINDEX,2002-07-04,199.7
VNINDEX,2002-07-05,200.5
VNINDEX,2002-07-08,200.19
VNINDEX,2002-07-09,199.0
VNINDEX,2002-07-10,197.27
VNINDEX,2002-07-11,197.25
VNINDEX,2002-07-12,198.17
VNINDEX,2002-07-15,197.37
VNINDEX,2002-07-16,196.85001
VNINDEX,2002-07-17,194.3
VNINDEX,2002-07-18,192.42
VNINDEX,2002-07-19,191.25
VNINDEX,2002-07-22,193.36
VNINDEX,2002-07-23,196.85001
VNINDEX,2002-07-24,197.42
VNINDEX,2002-07-25,194.49001
VNINDEX,2002-07-26,195.78999
VNINDEX,2002-07-29,195.16
VNINDEX,2002-07-30,196.94
VNINDEX,2002-07-31,197.57001
VNINDEX,2002-08-01,197.12
VNINDEX,2002-08-02,195.06
VNINDEX,2002-08-05,193.67
VNINDEX,2002-08-06,194.34
VNINDEX,2002-08-07,194.06
VNINDEX,2002-08-08,193.39
VNINDEX,2002-08-09,192.49001
VNINDEX,2002-08-12,191.53
VNINDEX,2002-08-13,189.78
VNINDEX,2002-08-14,188.73
VNINDEX,2002-08-15,189.55
VNINDEX,2002-08-16,191.67
VNINDEX,2002-08-19,192.67
VNINDEX,2002-08-20,190.96001
VNINDEX,2002-08-21,190.89999
VNINDEX,2002-08-22,190.95
VNINDEX,2002-08-23,190.21001
VNINDEX,2002-08-26,189.97
VNINDEX,2002-08-27,189.32001
VNINDEX,2002-08-28,190.53999
VNINDEX,2002-08-29,191.28
VNINDEX,2002-08-30,191.66
VNINDEX,2002-09-03,191.42999
VNINDEX,2002-09-04,190.59
VNINDEX,2002-09-05,190.53999
VNINDEX,2002-09-06,190.45
VNINDEX,2002-09-09,190.21001
VNINDEX,2002-09-10,189.86
VNINDEX,2002-09-11,189.39999
VNINDEX,2002-09-12,189.14
VNINDEX,2002-09-13,188.72
VNINDEX,2002-09-16,188.66
VNINDEX,2002-09-17,186.87
VNINDEX,2002-09-18,185.0
VNINDEX,2002-09-19,184.69
VNINDEX,2002-09-20,183.83
VNINDEX,2002-09-23,182.33
VNINDEX,2002-09-24,179.92999
VNINDEX,2002-09-25,181.66
VNINDEX,2002-09-26,183.67
VNINDEX,2002-09-27,182.62
VNINDEX,2002-09-30,182.13
VNINDEX,2002-10-01,182.97
VNINDEX,2002-10-02,182.84
VNINDEX,2002-10-03,183.39999
VNINDEX,2002-10-04,182.49001
VNINDEX,2002-10-07,181.71001
VNINDEX,2002-10-08,180.02
VNINDEX,2002-10-09,178.85001
VNINDEX,2002-10-10,179.10001
VNINDEX,2002-10-11,179.33
VNINDEX,2002-10-14,180.10001
VNINDEX,2002-10-15,180.63
VNINDEX,2002-10-16,180.13
VNINDEX,2002-10-17,179.66
VNINDEX,2002-10-18,178.64
VNINDEX,2002-10-21,178.66
VNINDEX,2002-10-22,179.39
VNINDEX,2002-10-23,179.10001
VNINDEX,2002-10-24,179.10001
VNINDEX,2002-10-25,178.81
VNINDEX,2002-10-28,178.8
VNINDEX,2002-10-29,177.92
VNINDEX,2002-10-30,177.61
VNINDEX,2002-10-31,177.61
VNINDEX,2002-11-01,177.35001
VNINDEX,2002-11-04,176.57001
VNINDEX,2002-11-05,175.02
VNINDEX,2002-11-06,174.84
VNINDEX,2002-11-07,174.62
VNINDEX,2002-11-08,174.88
VNINDEX,2002-11-11,175.19
VNINDEX,2002-11-12,175.27
VNINDEX,2002-11-13,175.63
VNINDEX,2002-11-14,175.42
VNINDEX,2002-11-15,175.77
VNINDEX,2002-11-18,175.73
VNINDEX,2002-11-19,175.53999
VNINDEX,2002-11-20,176.08
VNINDEX,2002-11-21,176.47
VNINDEX,2002-11-22,175.24001
VNINDEX,2002-11-25,176.47
VNINDEX,2002-11-26,176.5
VNINDEX,2002-11-27,176.44
VNINDEX,2002-11-28,177.25
VNINDEX,2002-11-29,177.87
VNINDEX,2002-12-02,179.27
VNINDEX,2002-12-03,183.56
VNINDEX,2002-12-04,187.21001
VNINDEX,2002-12-05,186.83
VNINDEX,2002-12-06,184.55
VNINDEX,2002-12-09,183.62
VNINDEX,2002-12-10,184.75
VNINDEX,2002-12-11,184.34
VNINDEX,2002-12-12,183.69
VNINDEX,2002-12-13,184.14999
VNINDEX,2002-12-16,184.74001
VNINDEX,2002-12-17,185.37
VNINDEX,2002-12-18,185.96001
VNINDEX,2002-12-19,186.17999
VNINDEX,2002-12-20,184.92999
VNINDEX,2002-12-23,184.2
VNINDEX,2002-12-24,184.17999
VNINDEX,2002-12-25,184.14
VNINDEX,2002-12-26,183.78
VNINDEX,2002-12-27,184.14
VNINDEX,2002-12-30,182.64999
VNINDEX,2002-12-31,183.33
VNINDEX,2003-01-02,183.41
VNINDEX,2003-01-03,182.39
VNINDEX,2003-01-06,181.75999
VNINDEX,2003-01-07,180.63
VNINDEX,2003-01-08,179.78999
VNINDEX,2003-01-09,178.92999
VNINDEX,2003-01-10,178.67
VNINDEX,2003-01-13,178.03
VNINDEX,2003-01-14,177.31
VNINDEX,2003-01-15,176.42999
VNINDEX,2003-01-16,173.11
VNINDEX,2003-01-17,173.05
VNINDEX,2003-01-20,171.39999
VNINDEX,2003-01-21,171.36
VNINDEX,2003-01-22,170.55
VNINDEX,2003-01-23,172.03
VNINDEX,2003-01-24,172.66
VNINDEX,2003-01-27,172.3
VNINDEX,2003-01-28,172.38
VNINDEX,2003-02-10,170.94
VNINDEX,2003-02-11,167.59
VNINDEX,2003-02-12,163.91
VNINDEX,2003-02-13,167.07001
VNINDEX,2003-02-14,168.73
VNINDEX,2003-02-17,168.49001
VNINDEX,2003-02-18,167.23
VNINDEX,2003-02-19,166.31
VNINDEX,2003-02-20,165.99001
VNINDEX,2003-02-21,164.62
VNINDEX,2003-02-24,165.48
VNINDEX,2003-02-25,165.28999
VNINDEX,2003-02-26,164.71001
VNINDEX,2003-02-27,164.69
VNINDEX,2003-02-28,164.61
VNINDEX,2003-03-03,165.58
VNINDEX,2003-03-04,164.91
VNINDEX,2003-03-05,164.34
VNINDEX,2003-03-06,164.28
VNINDEX,2003-03-07,164.02
VNINDEX,2003-03-10,163.57001
VNINDEX,2003-03-11,162.86
VNINDEX,2003-03-12,162.11
VNINDEX,2003-03-13,161.63
VNINDEX,2003-03-14,161.3
VNINDEX,2003-03-17,160.7
VNINDEX,2003-03-18,157.83
VNINDEX,2003-03-19,157.95
VNINDEX,2003-03-20,156.14
VNINDEX,2003-03-21,155.24001
VNINDEX,2003-03-24,153.94
VNINDEX,2003-03-25,153.07001
VNINDEX,2003-03-26,152.36
VNINDEX,2003-03-27,151.96001
VNINDEX,2003-03-28,150.53
VNINDEX,2003-03-31,145.41
VNINDEX,2003-04-01,139.64
VNINDEX,2003-04-02,144.92999
VNINDEX,2003-04-03,149.17999
VNINDEX,2003-04-04,150.22
VNINDEX,2003-04-07,149.39
VNINDEX,2003-04-08,147.14
VNINDEX,2003-04-09,146.49001
VNINDEX,2003-04-10,147.66
VNINDEX,2003-04-11,149.27
VNINDEX,2003-04-14,149.02
VNINDEX,2003-04-15,148.69
VNINDEX,2003-04-16,148.78
VNINDEX,2003-04-17,150.67
VNINDEX,2003-04-18,152.17
VNINDEX,2003-04-21,151.97
VNINDEX,2003-04-22,151.96001
VNINDEX,2003-04-23,152.58
VNINDEX,2003-04-24,152.98
VNINDEX,2003-04-25,152.96001
VNINDEX,2003-04-28,152.75
VNINDEX,2003-04-29,152.53999
VNINDEX,2003-05-05,152.21001
VNINDEX,2003-05-06,153.28999
VNINDEX,2003-05-07,154.82001
VNINDEX,2003-05-08,155.92
VNINDEX,2003-05-09,156.57001
VNINDEX,2003-05-12,157.89
VNINDEX,2003-05-13,158.53999
VNINDEX,2003-05-14,157.39999
VNINDEX,2003-05-15,155.67
VNINDEX,2003-05-19,155.8
VNINDEX,2003-05-20,154.17999
VNINDEX,2003-05-21,153.36
VNINDEX,2003-05-22,153.17999
VNINDEX,2003-05-23,152.92
VNINDEX,2003-05-26,152.78
VNINDEX,2003-05-27,152.56
VNINDEX,2003-05-28,152.74001
VNINDEX,2003-05-29,152.32001
VNINDEX,2003-05-30,152.24001
VNINDEX,2003-06-02,151.66
VNINDEX,2003-06-03,151.60001
VNINDEX,2003-06-04,151.61
VNINDEX,2003-06-05,151.69
VNINDEX,2003-06-06,151.82001
VNINDEX,2003-06-09,152.35001
VNINDEX,2003-06-10,152.23
VNINDEX,2003-06-11,152.25
VNINDEX,2003-06-12,152.39999
VNINDEX,2003-06-13,152.2
VNINDEX,2003-06-16,151.97
VNINDEX,2003-06-17,151.67
VNINDEX,2003-06-18,151.73
VNINDEX,2003-06-19,152.02
VNINDEX,2003-06-20,152.42999
VNINDEX,2003-06-23,151.59
VNINDEX,2003-06-24,152.00999
VNINDEX,2003-06-25,152.64
VNINDEX,2003-06-26,151.88
VNINDEX,2003-06-27,152.0
VNINDEX,2003-06-30,152.27
VNINDEX,2003-07-01,152.62
VNINDEX,2003-07-02,151.67999
VNINDEX,2003-07-03,151.84
VNINDEX,2003-07-04,152.17999
VNINDEX,2003-07-07,152.17999
VNINDEX,2003-07-08,152.25999
VNINDEX,2003-07-09,151.10001
VNINDEX,2003-07-10,151.2
VNINDEX,2003-07-11,151.22
VNINDEX,2003-07-14,150.81
VNINDEX,2003-07-15,150.59
VNINDEX,2003-07-16,150.67999
VNINDEX,2003-07-17,150.27
VNINDEX,2003-07-18,150.34
VNINDEX,2003-07-21,149.92999
VNINDEX,2003-07-22,149.2
VNINDEX,2003-07-23,149.63
VNINDEX,2003-07-24,149.87
VNINDEX,2003-07-25,149.28999
VNINDEX,2003-07-28,148.8
VNINDEX,2003-07-29,148.02
VNINDEX,2003-07-30,147.27
VNINDEX,2003-07-31,146.32001
VNINDEX,2003-08-01,144.89
VNINDEX,2003-08-04,143.89
VNINDEX,2003-08-05,143.42999
VNINDEX,2003-08-06,142.66
VNINDEX,2003-08-07,142.12
VNINDEX,2003-08-08,140.96001
VNINDEX,2003-08-11,141.66
VNINDEX,2003-08-12,141.89999
VNINDEX,2003-08-13,141.89
VNINDEX,2003-08-14,142.73
VNINDEX,2003-08-15,142.89999
VNINDEX,2003-08-18,143.0
VNINDEX,2003-08-19,142.87
VNINDEX,2003-08-20,142.25
VNINDEX,2003-08-21,142.46001
VNINDEX,2003-08-22,142.10001
VNINDEX,2003-08-25,142.25999
VNINDEX,2003-08-26,142.24001
VNINDEX,2003-08-27,142.67999
VNINDEX,2003-08-28,142.10001
VNINDEX,2003-08-29,142.71001
VNINDEX,2003-09-03,142.11
VNINDEX,2003-09-04,142.05
VNINDEX,2003-09-05,141.8
VNINDEX,2003-09-08,141.50999
VNINDEX,2003-09-09,141.73
VNINDEX,2003-09-10,141.5
VNINDEX,2003-09-11,141.39999
VNINDEX,2003-09-12,140.91
VNINDEX,2003-09-15,140.17999
VNINDEX,2003-09-16,140.06
VNINDEX,2003-09-17,140.33
VNINDEX,2003-09-18,140.25999
VNINDEX,2003-09-19,139.89
VNINDEX,2003-09-22,139.97
VNINDEX,2003-09-23,140.0
VNINDEX,2003-09-24,139.88
VNINDEX,2003-09-25,141.53999
VNINDEX,2003-09-26,139.92999
VNINDEX,2003-09-29,139.27
VNINDEX,2003-09-30,139.32001
VNINDEX,2003-10-01,139.19
VNINDEX,2003-10-02,138.92
VNINDEX,2003-10-03,138.63
VNINDEX,2003-10-06,138.5
VNINDEX,2003-10-07,138.22
VNINDEX,2003-10-08,137.25
VNINDEX,2003-10-09,136.95
VNINDEX,2003-10-10,136.57001
VNINDEX,2003-10-13,136.12
VNINDEX,2003-10-14,135.61
VNINDEX,2003-10-15,135.49001
VNINDEX,2003-10-16,134.82001
VNINDEX,2003-10-17,134.46001
VNINDEX,2003-10-20,134.09
VNINDEX,2003-10-21,133.69
VNINDEX,2003-10-22,132.72
VNINDEX,2003-10-23,131.17
VNINDEX,2003-10-24,130.89999
VNINDEX,2003-10-27,131.44
VNINDEX,2003-10-28,132.44
VNINDEX,2003-10-29,133.22
VNINDEX,2003-10-30,134.10001
VNINDEX,2003-10-31,136.21001
VNINDEX,2003-11-03,135.78
VNINDEX,2003-11-04,135.7
VNINDEX,2003-11-05,135.97
VNINDEX,2003-11-06,136.73
VNINDEX,2003-11-07,137.33
VNINDEX,2003-11-10,138.19
VNINDEX,2003-11-11,140.19
VNINDEX,2003-11-12,143.78999
VNINDEX,2003-11-13,149.59
VNINDEX,2003-11-14,155.73
VNINDEX,2003-11-17,154.67
VNINDEX,2003-11-18,150.09
VNINDEX,2003-11-19,152.06
VNINDEX,2003-11-20,155.31
VNINDEX,2003-11-21,159.98
VNINDEX,2003-11-24,163.31
VNINDEX,2003-11-25,165.39999
VNINDEX,2003-11-26,161.61
VNINDEX,2003-11-27,162.92
VNINDEX,2003-11-28,163.87
VNINDEX,2003-12-01,164.86
VNINDEX,2003-12-02,164.49001
VNINDEX,2003-12-03,164.06
VNINDEX,2003-12-04,163.60001
VNINDEX,2003-12-05,162.47
VNINDEX,2003-12-08,161.00999
VNINDEX,2003-12-09,161.85001
VNINDEX,2003-12-10,161.74001
VNINDEX,2003-12-11,161.84
VNINDEX,2003-12-12,162.14
VNINDEX,2003-12-15,163.61
VNINDEX,2003-12-16,166.14
VNINDEX,2003-12-17,168.74001
VNINDEX,2003-12-18,168.69
VNINDEX,2003-12-19,167.92999
VNINDEX,2003-12-22,167.11
VNINDEX,2003-12-23,166.47
VNINDEX,2003-12-24,166.42
VNINDEX,2003-12-25,166.48
VNINDEX,2003-12-26,166.03
VNINDEX,2003-12-29,165.57001
VNINDEX,2003-12-30,166.06
VNINDEX,2003-12-31,166.94
VNINDEX,2004-01-05,169.16
VNINDEX,2004-01-06,170.25999
VNINDEX,2004-01-07,171.17
VNINDEX,2004-01-08,171.60001
VNINDEX,2004-01-09,173.27
VNINDEX,2004-01-12,174.13
VNINDEX,2004-01-13,175.17
VNINDEX,2004-01-14,176.35001
VNINDEX,2004-01-15,177.59
VNINDEX,2004-01-16,183.17999
VNINDEX,2004-01-27,191.87
VNINDEX,2004-01-28,200.8
VNINDEX,2004-01-29,210.46001
VNINDEX,2004-01-30,214.32001
VNINDEX,2004-02-02,207.14
VNINDEX,2004-02-03,199.56
VNINDEX,2004-02-04,208.25999
VNINDEX,2004-02-05,215.33
VNINDEX,2004-02-06,213.42
VNINDEX,2004-02-09,212.55
VNINDEX,2004-02-10,213.0
VNINDEX,2004-02-11,212.81
VNINDEX,2004-02-12,213.75999
VNINDEX,2004-02-13,217.10001
VNINDEX,2004-02-16,218.22
VNINDEX,2004-02-17,219.06
VNINDEX,2004-02-18,221.99001
VNINDEX,2004-02-19,227.67
VNINDEX,2004-02-20,235.3
VNINDEX,2004-02-23,246.35001
VNINDEX,2004-02-24,255.0
VNINDEX,2004-02-25,255.11
VNINDEX,2004-02-26,250.64
VNINDEX,2004-02-27,260.60001
VNINDEX,2004-03-01,271.45001
VNINDEX,2004-03-02,273.42999
VNINDEX,2004-03-03,269.85999
VNINDEX,2004-03-04,265.03
VNINDEX,2004-03-05,267.53
VNINDEX,2004-03-08,264.81
VNINDEX,2004-03-09,256.32001
VNINDEX,2004-03-10,255.47
VNINDEX,2004-03-11,261.22
VNINDEX,2004-03-12,262.88
VNINDEX,2004-03-15,264.51001
VNINDEX,2004-03-16,263.10001
VNINDEX,2004-03-17,260.70999
VNINDEX,2004-03-18,261.54001
VNINDEX,2004-03-19,261.91
VNINDEX,2004-03-22,261.47
VNINDEX,2004-03-23,257.41
VNINDEX,2004-03-24,257.32999
VNINDEX,2004-03-25,264.91
VNINDEX,2004-03-26,272.29999
VNINDEX,2004-03-29,275.66
VNINDEX,2004-03-30,273.28
VNINDEX,2004-03-31,277.44
VNINDEX,2004-04-01,279.70999
VNINDEX,2004-04-02,272.89001
VNINDEX,2004-04-05,270.69
VNINDEX,2004-04-06,271.29999
VNINDEX,2004-04-07,269.47
VNINDEX,2004-04-08,262.47
VNINDEX,2004-04-09,259.64999
VNINDEX,2004-04-12,254.41
VNINDEX,2004-04-13,250.52
VNINDEX,2004-04-14,251.24001
VNINDEX,2004-04-15,256.04999
VNINDEX,2004-04-16,259.42999
VNINDEX,2004-04-19,255.38
VNINDEX,2004-04-20,254.82001
VNINDEX,2004-04-21,256.39999
VNINDEX,2004-04-22,258.39001
VNINDEX,2004-04-23,259.76001
VNINDEX,2004-04-26,260.53
VNINDEX,2004-04-27,261.13
VNINDEX,2004-04-28,262.20999
VNINDEX,2004-04-29,264.42999
VNINDEX,2004-05-04,265.60001
VNINDEX,2004-05-05,264.13
VNINDEX,2004-05-06,261.67999
VNINDEX,2004-05-07,261.32001
VNINDEX,2004-05-10,258.20999
VNINDEX,2004-05-11,256.91
VNINDEX,2004-05-12,262.64999
VNINDEX,2004-05-13,263.63
VNINDEX,2004-05-14,261.48999
VNINDEX,2004-05-17,260.23001
VNINDEX,2004-05-18,260.79001
VNINDEX,2004-05-19,261.29999
VNINDEX,2004-05-20,261.57999
VNINDEX,2004-05-21,261.13
VNINDEX,2004-05-24,261.97
VNINDEX,2004-05-25,258.31
VNINDEX,2004-05-26,253.98
VNINDEX,2004-05-27,251.16
VNINDEX,2004-05-28,251.46001
VNINDEX,2004-05-31,251.99001
VNINDEX,2004-06-01,252.50999
VNINDEX,2004-06-02,252.12
VNINDEX,2004-06-03,250.99001
VNINDEX,2004-06-04,248.99001
VNINDEX,2004-06-07,247.37
VNINDEX,2004-06-08,245.03999
VNINDEX,2004-06-09,246.64
VNINDEX,2004-06-10,247.41
VNINDEX,2004-06-11,248.44
VNINDEX,2004-06-14,254.25999
VNINDEX,2004-06-15,253.53999
VNINDEX,2004-06-16,251.99001
VNINDEX,2004-06-17,249.28
VNINDEX,2004-06-18,249.28999
VNINDEX,2004-06-21,249.95
VNINDEX,2004-06-22,249.25999
VNINDEX,2004-06-23,249.39999
VNINDEX,2004-06-24,250.0
VNINDEX,2004-06-25,249.82001
VNINDEX,2004-06-28,249.38
VNINDEX,2004-06-29,248.03999
VNINDEX,2004-06-30,249.7
VNINDEX,2004-07-01,248.55
VNINDEX,2004-07-02,248.13
VNINDEX,2004-07-05,247.61
VNINDEX,2004-07-06,247.27
VNINDEX,2004-07-07,247.0
VNINDEX,2004-07-08,246.47
VNINDEX,2004-07-09,246.32001
VNINDEX,2004-07-12,245.50999
VNINDEX,2004-07-13,244.63
VNINDEX,2004-07-14,243.48
VNINDEX,2004-07-15,242.24001
VNINDEX,2004-07-16,245.57001
VNINDEX,2004-07-19,243.08
VNINDEX,2004-07-20,244.24001
VNINDEX,2004-07-21,244.02
VNINDEX,2004-07-22,244.13
VNINDEX,2004-07-23,243.55
VNINDEX,2004-07-26,241.84
VNINDEX,2004-07-27,240.94
VNINDEX,2004-07-28,240.31
VNINDEX,2004-07-29,235.3
VNINDEX,2004-07-30,238.44
VNINDEX,2004-08-02,237.16
VNINDEX,2004-08-03,234.05
VNINDEX,2004-08-04,231.50999
VNINDEX,2004-08-05,228.64
VNINDEX,2004-08-06,224.14
VNINDEX,2004-08-09,213.74001
VNINDEX,2004-08-10,222.46001
VNINDEX,2004-08-11,227.22
VNINDEX,2004-08-12,224.48
VNINDEX,2004-08-13,223.2
VNINDEX,2004-08-16,221.0
VNINDEX,2004-08-17,222.19
VNINDEX,2004-08-18,223.61
VNINDEX,2004-08-19,226.92999
VNINDEX,2004-08-20,229.16
VNINDEX,2004-08-23,237.3
VNINDEX,2004-08-24,231.85001
VNINDEX,2004-08-25,231.74001
VNINDEX,2004-08-26,232.71001
VNINDEX,2004-08-27,233.91
VNINDEX,2004-08-30,232.48
VNINDEX,2004-08-31,232.38
VNINDEX,2004-09-01,231.50999
VNINDEX,2004-09-06,231.00999
VNINDEX,2004-09-07,230.82001
VNINDEX,2004-09-08,229.98
VNINDEX,2004-09-09,230.2
VNINDEX,2004-09-10,231.13
VNINDEX,2004-09-13,231.42
VNINDEX,2004-09-14,231.60001
VNINDEX,2004-09-15,231.97
VNINDEX,2004-09-16,231.94
VNINDEX,2004-09-17,231.25
VNINDEX,2004-09-20,230.85001
VNINDEX,2004-09-21,231.12
VNINDEX,2004-09-22,230.33
VNINDEX,2004-09-23,230.17999
VNINDEX,2004-09-24,230.58
VNINDEX,2004-09-27,230.86
VNINDEX,2004-09-28,231.91
VNINDEX,2004-09-29,232.67
VNINDEX,2004-09-30,233.19
VNINDEX,2004-10-01,232.57001
VNINDEX,2004-10-04,232.60001
VNINDEX,2004-10-05,233.00999
VNINDEX,2004-10-06,233.27
VNINDEX,2004-10-07,233.35001
VNINDEX,2004-10-08,232.53999
VNINDEX,2004-10-11,230.75
VNINDEX,2004-10-12,230.89
VNINDEX,2004-10-13,231.48
VNINDEX,2004-10-14,231.81
VNINDEX,2004-10-15,232.16
VNINDEX,2004-10-18,233.60001
VNINDEX,2004-10-19,235.69
VNINDEX,2004-10-20,235.97
VNINDEX,2004-10-21,234.3
VNINDEX,2004-10-22,232.85001
VNINDEX,2004-10-25,233.55
VNINDEX,2004-10-26,233.56
VNINDEX,2004-10-27,234.28
VNINDEX,2004-10-28,232.97
VNINDEX,2004-10-29,232.59
VNINDEX,2004-11-01,232.3
VNINDEX,2004-11-02,232.67
VNINDEX,2004-11-03,231.67999
VNINDEX,2004-11-04,231.06
VNINDEX,2004-11-05,230.55
VNINDEX,2004-11-08,230.11
VNINDEX,2004-11-09,228.96001
VNINDEX,2004-11-10,228.75
VNINDEX,2004-11-11,228.16
VNINDEX,2004-11-12,226.99001
VNINDEX,2004-11-15,226.64999
VNINDEX,2004-11-16,226.07001
VNINDEX,2004-11-17,225.75999
VNINDEX,2004-11-18,225.64999
VNINDEX,2004-11-19,224.72
VNINDEX,2004-11-22,223.85001
VNINDEX,2004-11-23,222.62
VNINDEX,2004-11-24,221.89
VNINDEX,2004-11-25,221.33
VNINDEX,2004-11-26,221.69
VNINDEX,2004-11-29,224.47
VNINDEX,2004-11-30,229.56
VNINDEX,2004-12-01,232.08
VNINDEX,2004-12-02,227.69
VNINDEX,2004-12-03,229.03999
VNINDEX,2004-12-06,228.92999
VNINDEX,2004-12-07,229.81
VNINDEX,2004-12-08,229.66
VNINDEX,2004-12-09,229.59
VNINDEX,2004-12-10,230.10001
VNINDEX,2004-12-13,230.71001
VNINDEX,2004-12-14,230.72
VNINDEX,2004-12-15,232.06
VNINDEX,2004-12-16,232.57001
VNINDEX,2004-12-17,233.92999
VNINDEX,2004-12-20,234.32001
VNINDEX,2004-12-21,233.59
VNINDEX,2004-12-22,235.45
VNINDEX,2004-12-23,236.89999
VNINDEX,2004-12-24,240.24001
VNINDEX,2004-12-27,239.89
VNINDEX,2004-12-28,239.49001
VNINDEX,2004-12-29,237.56
VNINDEX,2004-12-30,237.50999
VNINDEX,2004-12-31,239.28999
VNINDEX,2005-01-04,237.23
VNINDEX,2005-01-05,236.72
VNINDEX,2005-01-06,235.53
VNINDEX,2005-01-07,235.38
VNINDEX,2005-01-10,233.97
VNINDEX,2005-01-11,234.72
VNINDEX,2005-01-12,234.83
VNINDEX,2005-01-13,234.47
VNINDEX,2005-01-14,235.85001
VNINDEX,2005-01-17,236.07001
VNINDEX,2005-01-18,235.33
VNINDEX,2005-01-19,234.61
VNINDEX,2005-01-20,234.59
VNINDEX,2005-01-21,236.07001
VNINDEX,2005-01-24,234.7
VNINDEX,2005-01-25,234.58
VNINDEX,2005-01-26,234.91
VNINDEX,2005-01-27,233.75999
VNINDEX,2005-01-28,234.17999
VNINDEX,2005-01-31,233.32001
VNINDEX,2005-02-01,232.41
VNINDEX,2005-02-02,232.85001
VNINDEX,2005-02-03,233.36
VNINDEX,2005-02-04,236.02
VNINDEX,2005-02-14,235.28
VNINDEX,2005-02-15,235.36
VNINDEX,2005-02-16,234.49001
VNINDEX,2005-02-17,234.02
VNINDEX,2005-02-18,233.62
VNINDEX,2005-02-21,233.13
VNINDEX,2005-02-22,233.03
VNINDEX,2005-02-23,234.14999
VNINDEX,2005-02-24,234.38
VNINDEX,2005-02-25,235.14
VNINDEX,2005-02-28,235.10001
VNINDEX,2005-03-01,235.81
VNINDEX,2005-03-02,236.41
VNINDEX,2005-03-03,237.62
VNINDEX,2005-03-04,237.78
VNINDEX,2005-03-07,238.11
VNINDEX,2005-03-08,237.55
VNINDEX,2005-03-09,237.19
VNINDEX,2005-03-10,236.81
VNINDEX,2005-03-11,237.00999
VNINDEX,2005-03-14,236.67
VNINDEX,2005-03-15,237.96001
VNINDEX,2005-03-16,238.47
VNINDEX,2005-03-17,237.87
VNINDEX,2005-03-18,238.39
VNINDEX,2005-03-21,241.86
VNINDEX,2005-03-22,241.53999
VNINDEX,2005-03-23,244.24001
VNINDEX,2005-03-24,250.64
VNINDEX,2005-03-25,248.42999
VNINDEX,2005-03-28,244.84
VNINDEX,2005-03-29,244.22
VNINDEX,2005-03-30,245.17
VNINDEX,2005-03-31,246.50999
VNINDEX,2005-04-01,245.55
VNINDEX,2005-04-04,245.67999
VNINDEX,2005-04-05,245.56
VNINDEX,2005-04-06,244.98
VNINDEX,2005-04-07,245.21001
VNINDEX,2005-04-08,245.88
VNINDEX,2005-04-11,246.13
VNINDEX,2005-04-12,248.08
VNINDEX,2005-04-13,246.25
VNINDEX,2005-04-14,245.95
VNINDEX,2005-04-15,246.83
VNINDEX,2005-04-18,245.44
VNINDEX,2005-04-19,244.87
VNINDEX,2005-04-20,246.77
VNINDEX,2005-04-21,245.58
VNINDEX,2005-04-22,245.63
VNINDEX,2005-04-25,245.69
VNINDEX,2005-04-26,246.64999
VNINDEX,2005-04-27,246.42999
VNINDEX,2005-04-28,245.67
VNINDEX,2005-04-29,246.25
VNINDEX,2005-05-04,244.03
VNINDEX,2005-05-05,244.71001
VNINDEX,2005-05-06,245.24001
VNINDEX,2005-05-09,244.48
VNINDEX,2005-05-10,244.14
VNINDEX,2005-05-11,243.10001
VNINDEX,2005-05-12,242.81
VNINDEX,2005-05-13,243.36
VNINDEX,2005-05-16,242.45
VNINDEX,2005-05-17,241.53
VNINDEX,2005-05-18,241.39
VNINDEX,2005-05-19,242.48
VNINDEX,2005-05-20,243.69
VNINDEX,2005-05-23,243.39
VNINDEX,2005-05-24,243.72
VNINDEX,2005-05-25,243.19
VNINDEX,2005-05-26,243.24001
VNINDEX,2005-05-27,244.13
VNINDEX,2005-05-30,244.56
VNINDEX,2005-05-31,244.24001
VNINDEX,2005-06-01,244.73
VNINDEX,2005-06-02,244.88
VNINDEX,2005-06-03,245.38
VNINDEX,2005-06-06,245.75999
VNINDEX,2005-06-07,246.67
VNINDEX,2005-06-08,247.21001
VNINDEX,2005-06-09,247.06
VNINDEX,2005-06-10,246.59
VNINDEX,2005-06-13,245.83
VNINDEX,2005-06-14,245.73
VNINDEX,2005-06-15,246.07001
VNINDEX,2005-06-16,246.28999
VNINDEX,2005-06-17,246.56
VNINDEX,2005-06-20,246.42
VNINDEX,2005-06-21,246.56
VNINDEX,2005-06-22,246.75999
VNINDEX,2005-06-23,247.0
VNINDEX,2005-06-24,246.78
VNINDEX,2005-06-27,245.99001
VNINDEX,2005-06-28,245.02
VNINDEX,2005-06-29,246.44
VNINDEX,2005-06-30,246.81
VNINDEX,2005-07-01,246.50999
VNINDEX,2005-07-04,247.77
VNINDEX,2005-07-05,247.89
VNINDEX,2005-07-06,247.10001
VNINDEX,2005-07-07,246.78
VNINDEX,2005-07-08,248.32001
VNINDEX,2005-07-11,249.53
VNINDEX,2005-07-12,249.49001
VNINDEX,2005-07-13,249.81
VNINDEX,2005-07-14,248.67
VNINDEX,2005-07-15,248.94
VNINDEX,2005-07-18,248.78999
VNINDEX,2005-07-19,248.32001
VNINDEX,2005-07-20,248.0
VNINDEX,2005-07-21,246.53999
VNINDEX,2005-07-22,245.77
VNINDEX,2005-07-25,254.14999
VNINDEX,2005-07-26,253.78
VNINDEX,2005-07-27,244.24001
VNINDEX,2005-07-28,243.67
VNINDEX,2005-07-29,253.35001
VNINDEX,2005-08-01,245.48
VNINDEX,2005-08-02,254.38
VNINDEX,2005-08-03,255.85001
VNINDEX,2005-08-04,261.57999
VNINDEX,2005-08-05,250.92999
VNINDEX,2005-08-08,248.87
VNINDEX,2005-08-09,249.31
VNINDEX,2005-08-10,249.03999
VNINDEX,2005-08-11,248.99001
VNINDEX,2005-08-12,249.23
VNINDEX,2005-08-15,248.24001
VNINDEX,2005-08-16,247.53
VNINDEX,2005-08-17,247.33
VNINDEX,2005-08-18,247.35001
VNINDEX,2005-08-19,247.84
VNINDEX,2005-08-22,247.91
VNINDEX,2005-08-23,248.19
VNINDEX,2005-08-24,248.41
VNINDEX,2005-08-25,249.07001
VNINDEX,2005-08-26,249.74001
VNINDEX,2005-08-29,253.7
VNINDEX,2005-08-30,255.94
VNINDEX,2005-08-31,254.5
VNINDEX,2005-09-01,254.95
VNINDEX,2005-09-05,255.55
VNINDEX,2005-09-06,257.57999
VNINDEX,2005-09-07,259.57001
VNINDEX,2005-09-08,260.60999
VNINDEX,2005-09-09,259.95999
VNINDEX,2005-09-12,262.17999
VNINDEX,2005-09-13,264.09
VNINDEX,2005-09-14,264.03
VNINDEX,2005-09-15,265.48999
VNINDEX,2005-09-16,268.07999
VNINDEX,2005-09-19,274.81
VNINDEX,2005-09-20,285.98999
VNINDEX,2005-09-21,276.60999
VNINDEX,2005-09-22,280.39999
VNINDEX,2005-09-23,278.35001
VNINDEX,2005-09-26,277.54001
VNINDEX,2005-09-27,276.48999
VNINDEX,2005-09-28,275.63
VNINDEX,2005-09-29,275.95001
VNINDEX,2005-09-30,289.32999
VNINDEX,2005-10-03,286.0
VNINDEX,2005-10-04,283.85999
VNINDEX,2005-10-05,286.34
VNINDEX,2005-10-06,288.14001
VNINDEX,2005-10-07,291.29999
VNINDEX,2005-10-10,292.10999
VNINDEX,2005-10-11,291.34
VNINDEX,2005-10-12,292.35001
VNINDEX,2005-10-13,298.73999
VNINDEX,2005-10-14,304.10001
VNINDEX,2005-10-17,310.20001
VNINDEX,2005-10-18,307.09
VNINDEX,2005-10-19,306.45999
VNINDEX,2005-10-20,307.04999
VNINDEX,2005-10-21,306.72
VNINDEX,2005-10-24,306.89999
VNINDEX,2005-10-25,305.10999
VNINDEX,2005-10-26,300.53
VNINDEX,2005-10-27,300.98001
VNINDEX,2005-10-28,305.38
VNINDEX,2005-10-31,307.39999
VNINDEX,2005-11-01,310.51001
VNINDEX,2005-11-02,315.56
VNINDEX,2005-11-03,322.51999
VNINDEX,2005-11-04,321.14999
VNINDEX,2005-11-07,322.59
VNINDEX,2005-11-08,321.35001
VNINDEX,2005-11-09,320.56
VNINDEX,2005-11-10,319.13
VNINDEX,2005-11-11,317.73001
VNINDEX,2005-11-14,317.82999
VNINDEX,2005-11-15,317.06
VNINDEX,2005-11-16,315.89999
VNINDEX,2005-11-17,313.91
VNINDEX,2005-11-18,312.5
VNINDEX,2005-11-21,311.79999
VNINDEX,2005-11-22,308.53
VNINDEX,2005-11-23,305.5
VNINDEX,2005-11-24,301.78
VNINDEX,2005-11-25,309.47
VNINDEX,2005-11-28,308.17999
VNINDEX,2005-11-29,307.76999
VNINDEX,2005-11-30,311.32999
VNINDEX,2005-12-01,312.09
VNINDEX,2005-12-02,312.42999
VNINDEX,2005-12-05,312.85999
VNINDEX,2005-12-06,312.29001
VNINDEX,2005-12-07,312.31
VNINDEX,2005-12-08,313.09
VNINDEX,2005-12-09,315.79001
VNINDEX,2005-12-12,316.88
VNINDEX,2005-12-13,316.73001
VNINDEX,2005-12-14,314.94
VNINDEX,2005-12-15,314.07999
VNINDEX,2005-12-16,314.48999
VNINDEX,2005-12-19,311.60001
VNINDEX,2005-12-20,311.82999
VNINDEX,2005-12-21,310.64001
VNINDEX,2005-12-22,309.95999
VNINDEX,2005-12-23,309.14001
VNINDEX,2005-12-26,309.26001
VNINDEX,2005-12-27,308.42001
VNINDEX,2005-12-28,307.32001
VNINDEX,2005-12-29,308.79999
VNINDEX,2005-12-30,307.5
VNINDEX,2006-01-03,305.28
VNINDEX,2006-01-04,305.09
VNINDEX,2006-01-05,306.70999
VNINDEX,2006-01-06,307.5
VNINDEX,2006-01-09,306.31
VNINDEX,2006-01-10,306.35001
VNINDEX,2006-01-11,304.95999
VNINDEX,2006-01-12,304.23001
VNINDEX,2006-01-13,306.82999
VNINDEX,2006-01-17,308.94
VNINDEX,2006-01-18,310.38
VNINDEX,2006-01-19,310.51999
VNINDEX,2006-01-20,313.38
VNINDEX,2006-01-23,308.31
VNINDEX,2006-01-24,306.84
VNINDEX,2006-01-25,310.85999
VNINDEX,2006-01-26,313.29999
VNINDEX,2006-01-27,312.32001
VNINDEX,2006-02-06,313.14001
VNINDEX,2006-02-07,318.95001
VNINDEX,2006-02-08,325.0
VNINDEX,2006-02-09,325.54001
VNINDEX,2006-02-10,325.17001
VNINDEX,2006-02-13,324.45999
VNINDEX,2006-02-14,325.59
VNINDEX,2006-02-15,327.67001
VNINDEX,2006-02-16,331.06
VNINDEX,2006-02-17,339.82999
VNINDEX,2006-02-20,353.95999
VNINDEX,2006-02-21,366.45999
VNINDEX,2006-02-22,364.44
VNINDEX,2006-02-23,368.92999
VNINDEX,2006-02-24,373.5
VNINDEX,2006-02-27,379.57001
VNINDEX,2006-02-28,390.64999
VNINDEX,2006-03-01,401.89999
VNINDEX,2006-03-02,412.82001
VNINDEX,2006-03-03,397.95001
VNINDEX,2006-03-06,409.76001
VNINDEX,2006-03-07,413.32999
VNINDEX,2006-03-08,409.28
VNINDEX,2006-03-09,412.12
VNINDEX,2006-03-10,414.35999
VNINDEX,2006-03-13,424.45999
VNINDEX,2006-03-14,432.20999
VNINDEX,2006-03-15,427.59
VNINDEX,2006-03-16,432.85999
VNINDEX,2006-03-17,443.19
VNINDEX,2006-03-20,453.48001
VNINDEX,2006-03-21,462.69
VNINDEX,2006-03-22,459.35999
VNINDEX,2006-03-23,459.42001
VNINDEX,2006-03-24,456.06
VNINDEX,2006-03-27,463.0
VNINDEX,2006-03-28,466.47
VNINDEX,2006-03-29,474.79001
VNINDEX,2006-03-30,493.41
VNINDEX,2006-03-31,503.56
VNINDEX,2006-04-03,523.32001
VNINDEX,2006-04-04,505.42001
VNINDEX,2006-04-05,521.12
VNINDEX,2006-04-06,532.69
VNINDEX,2006-04-07,544.71002
VNINDEX,2006-04-10,540.35999
VNINDEX,2006-04-11,528.63
VNINDEX,2006-04-12,539.22998
VNINDEX,2006-04-13,551.59998
VNINDEX,2006-04-14,555.15002
VNINDEX,2006-04-17,561.09003
VNINDEX,2006-04-18,570.94
VNINDEX,2006-04-19,571.15997
VNINDEX,2006-04-20,569.78998
VNINDEX,2006-04-21,591.39001
VNINDEX,2006-04-24,615.14001
VNINDEX,2006-04-25,632.69
VNINDEX,2006-04-26,621.53003
VNINDEX,2006-04-27,594.02002
VNINDEX,2006-04-28,595.47998
VNINDEX,2006-05-03,612.10999
VNINDEX,2006-05-04,601.34003
VNINDEX,2006-05-05,593.89001
VNINDEX,2006-05-08,574.25
VNINDEX,2006-05-09,546.40002
VNINDEX,2006-05-10,520.82001
VNINDEX,2006-05-11,542.95001
VNINDEX,2006-05-12,566.76001
VNINDEX,2006-05-15,590.25
VNINDEX,2006-05-16,564.52002
VNINDEX,2006-05-17,575.53998
VNINDEX,2006-05-18,566.10999
VNINDEX,2006-05-19,562.33002
VNINDEX,2006-05-22,553.37
VNINDEX,2006-05-23,538.59998
VNINDEX,2006-05-24,559.54999
VNINDEX,2006-05-25,543.40997
VNINDEX,2006-05-26,545.39001
VNINDEX,2006-05-29,537.29999
VNINDEX,2006-05-30,526.01001
VNINDEX,2006-05-31,538.90997
VNINDEX,2006-06-01,535.17999
VNINDEX,2006-06-02,540.22998
VNINDEX,2006-06-05,551.26001
VNINDEX,2006-06-06,551.78998
VNINDEX,2006-06-07,544.54999
VNINDEX,2006-06-08,548.19
VNINDEX,2006-06-09,548.78998
VNINDEX,2006-06-12,545.97998
VNINDEX,2006-06-13,543.90002
VNINDEX,2006-06-14,540.96002
VNINDEX,2006-06-15,537.47998
VNINDEX,2006-06-16,523.70001
VNINDEX,2006-06-19,519.46997
VNINDEX,2006-06-20,505.94
VNINDEX,2006-06-21,487.85999
VNINDEX,2006-06-22,510.14999
VNINDEX,2006-06-23,510.62
VNINDEX,2006-06-26,502.94
VNINDEX,2006-06-27,501.56
VNINDEX,2006-06-28,506.45999
VNINDEX,2006-06-29,512.28998
VNINDEX,2006-06-30,515.59003
VNINDEX,2006-07-03,507.31
VNINDEX,2006-07-04,500.48999
VNINDEX,2006-07-05,499.79999
VNINDEX,2006-07-06,505.26001
VNINDEX,2006-07-07,508.31
VNINDEX,2006-07-10,504.98001
VNINDEX,2006-07-11,504.0
VNINDEX,2006-07-12,502.07999
VNINDEX,2006-07-13,509.14999
VNINDEX,2006-07-14,506.10001
VNINDEX,2006-07-17,494.31
VNINDEX,2006-07-18,484.13
VNINDEX,2006-07-19,466.19
VNINDEX,2006-07-20,485.57001
VNINDEX,2006-07-21,472.85999
VNINDEX,2006-07-24,460.67999
VNINDEX,2006-07-25,439.66
VNINDEX,2006-07-26,434.23999
VNINDEX,2006-07-27,441.26999
VNINDEX,2006-07-28,439.57001
VNINDEX,2006-07-31,422.41
VNINDEX,2006-08-01,404.87
VNINDEX,2006-08-02,399.79999
VNINDEX,2006-08-03,417.73001
VNINDEX,2006-08-04,435.5
VNINDEX,2006-08-07,423.48999
VNINDEX,2006-08-08,433.39999
VNINDEX,2006-08-09,430.25
VNINDEX,2006-08-10,432.39999
VNINDEX,2006-08-11,443.45001
VNINDEX,2006-08-14,464.54999
VNINDEX,2006-08-15,460.34
VNINDEX,2006-08-16,476.23999
VNINDEX,2006-08-17,483.32001
VNINDEX,2006-08-18,482.31
VNINDEX,2006-08-21,482.19
VNINDEX,2006-08-22,470.12
VNINDEX,2006-08-23,478.39001
VNINDEX,2006-08-24,479.03
VNINDEX,2006-08-25,477.42999
VNINDEX,2006-08-28,483.06
VNINDEX,2006-08-29,488.63
VNINDEX,2006-08-30,492.76999
VNINDEX,2006-08-31,491.17999
VNINDEX,2006-09-01,498.20999
VNINDEX,2006-09-05,515.65997
VNINDEX,2006-09-06,517.60999
VNINDEX,2006-09-07,511.20999
VNINDEX,2006-09-08,513.03998
VNINDEX,2006-09-11,511.54999
VNINDEX,2006-09-12,500.82001
VNINDEX,2006-09-13,510.66
VNINDEX,2006-09-14,505.17001
VNINDEX,2006-09-15,509.32001
VNINDEX,2006-09-18,510.07999
VNINDEX,2006-09-19,515.08002
VNINDEX,2006-09-20,514.47998
VNINDEX,2006-09-21,513.37
VNINDEX,2006-09-22,513.75
VNINDEX,2006-09-25,515.09003
VNINDEX,2006-09-26,520.04999
VNINDEX,2006-09-27,520.41998
VNINDEX,2006-09-28,527.73999
VNINDEX,2006-09-29,526.72998
VNINDEX,2006-10-02,531.67999
VNINDEX,2006-10-03,537.87
VNINDEX,2006-10-04,541.90997
VNINDEX,2006-10-05,534.72998
VNINDEX,2006-10-06,536.47998
VNINDEX,2006-10-09,535.13
VNINDEX,2006-10-10,527.17999
VNINDEX,2006-10-11,524.66998
VNINDEX,2006-10-12,525.21997
VNINDEX,2006-10-13,525.92999
VNINDEX,2006-10-16,526.34003
VNINDEX,2006-10-17,518.71002
VNINDEX,2006-10-18,518.58002
VNINDEX,2006-10-19,524.59003
VNINDEX,2006-10-20,528.41998
VNINDEX,2006-10-23,525.91998
VNINDEX,2006-10-24,525.75
VNINDEX,2006-10-25,524.25
VNINDEX,2006-10-26,524.98999
VNINDEX,2006-10-27,521.03998
VNINDEX,2006-10-30,512.40002
VNINDEX,2006-10-31,511.54001
VNINDEX,2006-11-01,521.38
VNINDEX,2006-11-02,516.95001
VNINDEX,2006-11-03,513.73999
VNINDEX,2006-11-06,517.10999
VNINDEX,2006-11-07,520.03003
VNINDEX,2006-11-08,525.98999
VNINDEX,2006-11-09,531.69
VNINDEX,2006-11-10,530.81
VNINDEX,2006-11-13,537.28003
VNINDEX,2006-11-14,555.77002
VNINDEX,2006-11-15,563.09003
VNINDEX,2006-11-16,559.83002
VNINDEX,2006-11-17,573.78998
VNINDEX,2006-11-20,584.26001
VNINDEX,2006-11-21,598.21997
VNINDEX,2006-11-22,610.15997
VNINDEX,2006-11-23,636.95001
VNINDEX,2006-11-24,665.53003
VNINDEX,2006-11-27,640.15002
VNINDEX,2006-11-28,638.0
VNINDEX,2006-11-29,616.58002
VNINDEX,2006-11-30,633.04999
VNINDEX,2006-12-01,631.28998
VNINDEX,2006-12-04,640.65002
VNINDEX,2006-12-05,644.59998
VNINDEX,2006-12-06,655.13
VNINDEX,2006-12-07,677.14001
VNINDEX,2006-12-08,696.12
VNINDEX,2006-12-11,723.84003
VNINDEX,2006-12-12,716.64001
VNINDEX,2006-12-13,740.57001
VNINDEX,2006-12-14,757.16998
VNINDEX,2006-12-15,775.56
VNINDEX,2006-12-18,779.57001
VNINDEX,2006-12-19,799.31
VNINDEX,2006-12-20,809.85999
VNINDEX,2006-12-21,778.88
VNINDEX,2006-12-22,744.15002
VNINDEX,2006-12-25,734.65997
VNINDEX,2006-12-26,747.82001
VNINDEX,2006-12-27,754.63
VNINDEX,2006-12-28,753.81
VNINDEX,2006-12-29,751.77002
VNINDEX,2007-01-02,741.27002
VNINDEX,2007-01-03,757.71002
VNINDEX,2007-01-04,788.82001
VNINDEX,2007-01-05,816.51001
VNINDEX,2007-01-08,825.10999
VNINDEX,2007-01-09,844.90997
VNINDEX,2007-01-10,865.71002
VNINDEX,2007-01-11,885.42999
VNINDEX,2007-01-12,914.78998
VNINDEX,2007-01-15,947.15002
VNINDEX,2007-01-16,983.59998
VNINDEX,2007-01-17,964.96002
VNINDEX,2007-01-18,983.09003
VNINDEX,2007-01-19,1023.04999
VNINDEX,2007-01-22,1027.69995
VNINDEX,2007-01-23,1040.69995
VNINDEX,2007-01-24,1016.39001
VNINDEX,2007-01-25,988.85999
VNINDEX,2007-01-26,974.76001
VNINDEX,2007-01-29,995.54999
VNINDEX,2007-01-30,1022.40002
VNINDEX,2007-01-31,1041.32996
VNINDEX,2007-02-01,1049.31995
VNINDEX,2007-02-02,1074.55005
VNINDEX,2007-02-05,1058.70996
VNINDEX,2007-02-06,1091.38
VNINDEX,2007-02-07,1095.75
VNINDEX,2007-02-08,1052.85999
VNINDEX,2007-02-09,1030.90002
VNINDEX,2007-02-12,1054.26001
VNINDEX,2007-02-13,1074.45996
VNINDEX,2007-02-14,1073.18994
VNINDEX,2007-02-15,1083.25
VNINDEX,2007-02-26,1129.02002
VNINDEX,2007-02-27,1167.35999
VNINDEX,2007-02-28,1137.68994
VNINDEX,2007-03-01,1123.06995
VNINDEX,2007-03-02,1147.66003
VNINDEX,2007-03-05,1158.90002
VNINDEX,2007-03-06,1133.31006
VNINDEX,2007-03-07,1132.22998
VNINDEX,2007-03-08,1141.58997
VNINDEX,2007-03-09,1155.68005
VNINDEX,2007-03-12,1170.67004
VNINDEX,2007-03-13,1158.27002
VNINDEX,2007-03-14,1114.20996
VNINDEX,2007-03-15,1065.52002
VNINDEX,2007-03-16,1109.76001
VNINDEX,2007-03-19,1133.33997
VNINDEX,2007-03-20,1117.25
VNINDEX,2007-03-21,1111.63
VNINDEX,2007-03-22,1099.81995
VNINDEX,2007-03-23,1090.56006
VNINDEX,2007-03-26,1072.16003
VNINDEX,2007-03-27,1034.23999
VNINDEX,2007-03-28,1031.79004
VNINDEX,2007-03-29,1068.70996
VNINDEX,2007-03-30,1071.32996
VNINDEX,2007-04-02,1055.09998
VNINDEX,2007-04-03,1027.53003
VNINDEX,2007-04-04,1050.90002
VNINDEX,2007-04-05,1048.97998
VNINDEX,2007-04-06,1033.92004
VNINDEX,2007-04-09,1041.35999
VNINDEX,2007-04-10,1039.67004
VNINDEX,2007-04-11,1034.68005
VNINDEX,2007-04-12,1027.57996
VNINDEX,2007-04-13,1012.97998
VNINDEX,2007-04-16,983.0
VNINDEX,2007-04-17,965.71997
VNINDEX,2007-04-18,1001.12
VNINDEX,2007-04-19,998.09003
VNINDEX,2007-04-20,968.88
VNINDEX,2007-04-23,931.17999
VNINDEX,2007-04-24,905.53003
VNINDEX,2007-04-25,923.89001
VNINDEX,2007-05-02,935.47998
VNINDEX,2007-05-03,937.46002
VNINDEX,2007-05-04,947.19
VNINDEX,2007-05-07,983.62
VNINDEX,2007-05-08,1015.42999
VNINDEX,2007-05-09,1019.96002
VNINDEX,2007-05-10,1020.03998
VNINDEX,2007-05-11,1039.63
VNINDEX,2007-05-14,1066.04004
VNINDEX,2007-05-15,1054.68994
VNINDEX,2007-05-16,1040.98999
VNINDEX,2007-05-17,1059.79004
VNINDEX,2007-05-18,1066.56006
VNINDEX,2007-05-21,1085.41003
VNINDEX,2007-05-22,1107.52002
VNINDEX,2007-05-23,1113.18994
VNINDEX,2007-05-24,1085.30005
VNINDEX,2007-05-25,1089.59998
VNINDEX,2007-05-28,1098.64001
VNINDEX,2007-05-29,1093.77002
VNINDEX,2007-05-30,1077.88
VNINDEX,2007-05-31,1081.47998
VNINDEX,2007-06-01,1077.35999
VNINDEX,2007-06-04,1062.09998
VNINDEX,2007-06-05,1039.66003
VNINDEX,2007-06-06,1045.29004
VNINDEX,2007-06-07,1060.02002
VNINDEX,2007-06-08,1057.35999
VNINDEX,2007-06-11,1040.75
VNINDEX,2007-06-12,1036.54004
VNINDEX,2007-06-13,1038.80005
VNINDEX,2007-06-14,1042.79004
VNINDEX,2007-06-15,1048.18994
VNINDEX,2007-06-18,1043.98999
VNINDEX,2007-06-19,1049.57996
VNINDEX,2007-06-20,1045.28003
VNINDEX,2007-06-21,1034.43005
VNINDEX,2007-06-22,1033.68994
VNINDEX,2007-06-25,1044.39001
VNINDEX,2007-06-26,1055.69995
VNINDEX,2007-06-27,1032.95996
VNINDEX,2007-06-28,1024.04004
VNINDEX,2007-06-29,1024.68005
VNINDEX,2007-07-02,994.16998
VNINDEX,2007-07-03,977.29999
VNINDEX,2007-07-04,1013.56
VNINDEX,2007-07-05,1012.82001
VNINDEX,2007-07-06,1010.53003
VNINDEX,2007-07-09,1010.27002
VNINDEX,2007-07-10,1023.03998
VNINDEX,2007-07-11,1029.84998
VNINDEX,2007-07-12,1017.67999
VNINDEX,2007-07-13,1015.72998
VNINDEX,2007-07-16,995.83002
VNINDEX,2007-07-17,1000.33002
VNINDEX,2007-07-18,994.72998
VNINDEX,2007-07-19,984.42999
VNINDEX,2007-07-20,981.31
VNINDEX,2007-07-23,979.22998
VNINDEX,2007-07-24,982.42999
VNINDEX,2007-07-25,972.56
VNINDEX,2007-07-26,956.13
VNINDEX,2007-07-27,940.35999
VNINDEX,2007-07-30,925.44
VNINDEX,2007-07-31,907.95001
VNINDEX,2007-08-01,923.14001
VNINDEX,2007-08-02,911.17999
VNINDEX,2007-08-03,892.88
VNINDEX,2007-08-06,883.90002
VNINDEX,2007-08-07,896.90997
VNINDEX,2007-08-08,910.04999
VNINDEX,2007-08-09,938.21002
VNINDEX,2007-08-10,935.67999
VNINDEX,2007-08-13,909.15002
VNINDEX,2007-08-14,923.15002
VNINDEX,2007-08-15,915.34003
VNINDEX,2007-08-16,900.26001
VNINDEX,2007-08-17,887.92999
VNINDEX,2007-08-20,890.02002
VNINDEX,2007-08-21,895.71997
VNINDEX,2007-08-22,892.07001
VNINDEX,2007-08-23,887.62
VNINDEX,2007-08-24,905.47998
VNINDEX,2007-08-27,909.07001
VNINDEX,2007-08-28,902.58002
VNINDEX,2007-08-29,901.16998
VNINDEX,2007-08-30,903.94
VNINDEX,2007-08-31,908.37
VNINDEX,2007-09-04,929.84998
VNINDEX,2007-09-05,925.57001
VNINDEX,2007-09-06,928.35999
VNINDEX,2007-09-07,934.13
VNINDEX,2007-09-10,927.14001
VNINDEX,2007-09-11,920.47998
VNINDEX,2007-09-12,921.19
VNINDEX,2007-09-13,921.31
VNINDEX,2007-09-14,930.46002
VNINDEX,2007-09-17,934.73999
VNINDEX,2007-09-18,935.16998
VNINDEX,2007-09-19,946.21997
VNINDEX,2007-09-20,963.60999
VNINDEX,2007-09-21,958.66998
VNINDEX,2007-09-24,975.82001
VNINDEX,2007-09-25,1009.88
VNINDEX,2007-09-26,1015.90997
VNINDEX,2007-09-27,1014.09003
VNINDEX,2007-09-28,1046.85999
VNINDEX,2007-10-01,1084.39001
VNINDEX,2007-10-02,1099.47998
VNINDEX,2007-10-03,1106.59998
VNINDEX,2007-10-04,1087.76001
VNINDEX,2007-10-05,1081.63
VNINDEX,2007-10-08,1084.87
VNINDEX,2007-10-09,1097.35999
VNINDEX,2007-10-10,1104.67004
VNINDEX,2007-10-11,1099.31006
VNINDEX,2007-10-12,1104.60999
VNINDEX,2007-10-15,1105.20996
VNINDEX,2007-10-16,1103.88
VNINDEX,2007-10-17,1101.29004
VNINDEX,2007-10-18,1088.68005
VNINDEX,2007-10-19,1097.06995
VNINDEX,2007-10-22,1085.73999
VNINDEX,2007-10-23,1075.29004
VNINDEX,2007-10-24,1096.19995
VNINDEX,2007-10-25,1095.53003
VNINDEX,2007-10-26,1092.47998
VNINDEX,2007-10-29,1064.19995
VNINDEX,2007-10-30,1069.78003
VNINDEX,2007-10-31,1065.08997
VNINDEX,2007-11-01,1075.92004
VNINDEX,2007-11-02,1066.63
VNINDEX,2007-11-05,1047.15002
VNINDEX,2007-11-06,1031.70996
VNINDEX,2007-11-07,1031.19995
VNINDEX,2007-11-08,1026.46997
VNINDEX,2007-11-09,1018.28998
VNINDEX,2007-11-12,1006.12
VNINDEX,2007-11-13,973.59003
VNINDEX,2007-11-14,993.75
VNINDEX,2007-11-15,1002.71002
VNINDEX,2007-11-16,998.21997
VNINDEX,2007-11-19,998.75
VNINDEX,2007-11-20,983.52002
VNINDEX,2007-11-21,971.48999
VNINDEX,2007-11-22,977.16998
VNINDEX,2007-11-23,975.91998
VNINDEX,2007-11-26,991.38
VNINDEX,2007-11-27,988.08002
VNINDEX,2007-11-28,984.57001
VNINDEX,2007-11-29,980.09003
VNINDEX,2007-11-30,972.34998
VNINDEX,2007-12-03,987.96002
VNINDEX,2007-12-04,988.90997
VNINDEX,2007-12-05,976.21002
VNINDEX,2007-12-06,974.46002
VNINDEX,2007-12-07,974.63
VNINDEX,2007-12-10,958.47998
VNINDEX,2007-12-11,941.03998
VNINDEX,2007-12-12,946.32001
VNINDEX,2007-12-13,930.35999
VNINDEX,2007-12-14,922.09003
VNINDEX,2007-12-17,911.15002
VNINDEX,2007-12-18,919.59998
VNINDEX,2007-12-19,946.78003
VNINDEX,2007-12-20,930.45001
VNINDEX,2007-12-21,935.07001
VNINDEX,2007-12-24,930.85999
VNINDEX,2007-12-25,918.42999
VNINDEX,2007-12-26,924.37
VNINDEX,2007-12-27,921.75
VNINDEX,2007-12-28,927.02002
VNINDEX,2008-01-02,921.07001
VNINDEX,2008-01-03,908.25
VNINDEX,2008-01-04,903.09003
VNINDEX,2008-01-07,887.08002
VNINDEX,2008-01-08,893.73999
VNINDEX,2008-01-09,878.40997
VNINDEX,2008-01-10,850.07001
VNINDEX,2008-01-11,860.77002
VNINDEX,2008-01-14,841.0
VNINDEX,2008-01-15,808.83002
VNINDEX,2008-01-16,846.07001
VNINDEX,2008-01-17,833.81
VNINDEX,2008-01-18,847.04999
VNINDEX,2008-01-21,833.88
VNINDEX,2008-01-22,807.73999
VNINDEX,2008-01-23,776.67999
VNINDEX,2008-01-24,764.13
VNINDEX,2008-01-25,776.03998
VNINDEX,2008-01-28,785.07001
VNINDEX,2008-01-29,811.60999
VNINDEX,2008-01-30,843.09998
VNINDEX,2008-01-31,844.10999
VNINDEX,2008-02-01,859.62
VNINDEX,2008-02-12,841.22998
VNINDEX,2008-02-13,817.85999
VNINDEX,2008-02-14,823.46002
VNINDEX,2008-02-15,816.03003
VNINDEX,2008-02-18,782.57001
VNINDEX,2008-02-19,776.78998
VNINDEX,2008-02-20,744.91998
VNINDEX,2008-02-21,710.45001
VNINDEX,2008-02-22,687.09998
VNINDEX,2008-02-25,715.03998
VNINDEX,2008-02-26,692.90997
VNINDEX,2008-02-27,686.48999
VNINDEX,2008-02-28,678.12
VNINDEX,2008-02-29,663.29999
VNINDEX,2008-03-03,635.23999
VNINDEX,2008-03-04,608.88
VNINDEX,2008-03-05,583.45001
VNINDEX,2008-03-06,611.16998
VNINDEX,2008-03-07,640.14001
VNINDEX,2008-03-10,658.28998
VNINDEX,2008-03-11,638.71002
VNINDEX,2008-03-12,643.90002
VNINDEX,2008-03-13,647.59998
VNINDEX,2008-03-14,643.79999
VNINDEX,2008-03-17,615.71002
VNINDEX,2008-03-18,588.26001
VNINDEX,2008-03-19,573.45001
VNINDEX,2008-03-20,564.82001
VNINDEX,2008-03-21,545.67999
VNINDEX,2008-03-24,521.07001
VNINDEX,2008-03-25,496.64001
VNINDEX,2008-03-26,504.67001
VNINDEX,2008-03-27,508.75
VNINDEX,2008-03-28,512.70001
VNINDEX,2008-03-31,516.84998
VNINDEX,2008-04-01,520.98999
VNINDEX,2008-04-02,525.10999
VNINDEX,2008-04-03,529.22998
VNINDEX,2008-04-04,533.0
VNINDEX,2008-04-07,542.33002
VNINDEX,2008-04-08,548.56
VNINDEX,2008-04-09,552.04999
VNINDEX,2008-04-10,545.72998
VNINDEX,2008-04-11,539.01001
VNINDEX,2008-04-16,531.38
VNINDEX,2008-04-17,537.58002
VNINDEX,2008-04-18,537.31
VNINDEX,2008-04-21,534.91998
VNINDEX,2008-04-22,530.62
VNINDEX,2008-04-23,521.95001
VNINDEX,2008-04-24,518.41998
VNINDEX,2008-04-25,515.88
VNINDEX,2008-04-28,519.41998
VNINDEX,2008-04-29,522.35999
VNINDEX,2008-05-05,521.28003
VNINDEX,2008-05-06,518.34998
VNINDEX,2008-05-07,515.26001
VNINDEX,2008-05-08,507.94
VNINDEX,2008-05-09,500.32999
VNINDEX,2008-05-12,492.04001
VNINDEX,2008-05-13,483.92001
VNINDEX,2008-05-14,475.5
VNINDEX,2008-05-15,466.67001
VNINDEX,2008-05-16,460.04001
VNINDEX,2008-05-19,455.67001
VNINDEX,2008-05-20,449.23999
VNINDEX,2008-05-21,441.75
VNINDEX,2008-05-22,434.75
VNINDEX,2008-05-23,428.04999
VNINDEX,2008-05-26,420.51001
VNINDEX,2008-05-30,414.10001
VNINDEX,2008-06-02,407.94
VNINDEX,2008-06-03,401.20001
VNINDEX,2008-06-04,395.66
VNINDEX,2008-06-05,390.07999
VNINDEX,2008-06-06,384.23999
VNINDEX,2008-06-09,379.12
VNINDEX,2008-06-10,373.0
VNINDEX,2008-06-11,370.45001
VNINDEX,2008-06-12,370.54999
VNINDEX,2008-06-13,372.67999
VNINDEX,2008-06-16,378.64999
VNINDEX,2008-06-17,384.70999
VNINDEX,2008-06-18,382.07001
VNINDEX,2008-06-19,373.26999
VNINDEX,2008-06-20,366.01999
VNINDEX,2008-06-23,368.95001
VNINDEX,2008-06-24,375.97
VNINDEX,2008-06-25,383.78
VNINDEX,2008-06-26,386.48001
VNINDEX,2008-06-27,392.60999
VNINDEX,2008-06-30,399.39999
VNINDEX,2008-07-01,409.60999
VNINDEX,2008-07-02,419.29001
VNINDEX,2008-07-03,430.04999
VNINDEX,2008-07-04,439.67999
VNINDEX,2008-07-07,435.89001
VNINDEX,2008-07-08,436.70999
VNINDEX,2008-07-09,439.54999
VNINDEX,2008-07-10,446.60001
VNINDEX,2008-07-11,456.64001
VNINDEX,2008-07-14,467.94
VNINDEX,2008-07-15,479.79999
VNINDEX,2008-07-16,486.53
VNINDEX,2008-07-17,489.82999
VNINDEX,2008-07-18,483.04999
VNINDEX,2008-07-21,470.82001
VNINDEX,2008-07-22,457.88
VNINDEX,2008-07-23,445.59
VNINDEX,2008-07-24,435.79001
VNINDEX,2008-07-25,429.45999
VNINDEX,2008-07-28,434.64001
VNINDEX,2008-07-29,444.39999
VNINDEX,2008-07-30,448.26999
VNINDEX,2008-07-31,451.35999
VNINDEX,2008-08-01,447.10999
VNINDEX,2008-08-04,439.41
VNINDEX,2008-08-05,430.26001
VNINDEX,2008-08-06,437.45001
VNINDEX,2008-08-07,438.82999
VNINDEX,2008-08-08,444.28
VNINDEX,2008-08-11,454.79999
VNINDEX,2008-08-12,459.89001
VNINDEX,2008-08-13,464.01001
VNINDEX,2008-08-14,476.5
VNINDEX,2008-08-15,488.94
VNINDEX,2008-08-18,508.04999
VNINDEX,2008-08-19,511.53
VNINDEX,2008-08-20,508.47
VNINDEX,2008-08-21,525.97998
VNINDEX,2008-08-22,526.97998
VNINDEX,2008-08-25,548.25
VNINDEX,2008-08-26,561.66998
VNINDEX,2008-08-27,561.84998
VNINDEX,2008-08-28,547.69
VNINDEX,2008-08-29,539.09998
VNINDEX,2008-09-03,555.14001
VNINDEX,2008-09-04,558.56
VNINDEX,2008-09-05,546.65997
VNINDEX,2008-09-08,532.71002
VNINDEX,2008-09-09,525.48999
VNINDEX,2008-09-10,514.45001
VNINDEX,2008-09-11,497.01001
VNINDEX,2008-09-12,476.0
VNINDEX,2008-09-15,476.76001
VNINDEX,2008-09-16,455.95001
VNINDEX,2008-09-17,437.23999
VNINDEX,2008-09-18,419.28
VNINDEX,2008-09-19,439.06
VNINDEX,2008-09-22,459.85999
VNINDEX,2008-09-23,465.87
VNINDEX,2008-09-24,455.04999
VNINDEX,2008-09-25,470.42999
VNINDEX,2008-09-26,483.81
VNINDEX,2008-09-29,479.0
VNINDEX,2008-09-30,456.70001
VNINDEX,2008-10-01,454.41
VNINDEX,2008-10-02,460.25
VNINDEX,2008-10-03,452.14001
VNINDEX,2008-10-06,433.70999
VNINDEX,2008-10-07,414.23999
VNINDEX,2008-10-08,401.32999
VNINDEX,2008-10-09,397.67999
VNINDEX,2008-10-10,379.06
VNINDEX,2008-10-13,371.67001
VNINDEX,2008-10-14,389.32999
VNINDEX,2008-10-15,397.14999
VNINDEX,2008-10-16,384.60999
VNINDEX,2008-10-17,382.51001
VNINDEX,2008-10-20,370.79999
VNINDEX,2008-10-21,379.94
VNINDEX,2008-10-22,374.91
VNINDEX,2008-10-23,360.42999
VNINDEX,2008-10-24,345.10999
VNINDEX,2008-10-27,329.28
VNINDEX,2008-10-28,322.79999
VNINDEX,2008-10-29,331.62
VNINDEX,2008-10-30,336.57001
VNINDEX,2008-10-31,347.04999
VNINDEX,2008-11-03,348.64001
VNINDEX,2008-11-04,361.44
VNINDEX,2008-11-05,377.82999
VNINDEX,2008-11-06,379.51001
VNINDEX,2008-11-07,365.97
VNINDEX,2008-11-10,366.0
VNINDEX,2008-11-11,351.70999
VNINDEX,2008-11-12,342.32999
VNINDEX,2008-11-13,346.23999
VNINDEX,2008-11-14,352.07001
VNINDEX,2008-11-17,345.04999
VNINDEX,2008-11-18,340.69
VNINDEX,2008-11-19,336.89001
VNINDEX,2008-11-20,325.73999
VNINDEX,2008-11-21,318.95999
VNINDEX,2008-11-24,317.92999
VNINDEX,2008-11-25,320.32999
VNINDEX,2008-11-26,311.73999
VNINDEX,2008-11-27,303.54001
VNINDEX,2008-11-28,314.73999
VNINDEX,2008-12-01,314.70999
VNINDEX,2008-12-02,307.45001
VNINDEX,2008-12-03,306.22
VNINDEX,2008-12-04,308.60001
VNINDEX,2008-12-05,299.67999
VNINDEX,2008-12-08,288.69
VNINDEX,2008-12-09,293.29999
VNINDEX,2008-12-10,286.85001
VNINDEX,2008-12-11,288.92999
VNINDEX,2008-12-12,299.54001
VNINDEX,2008-12-15,308.28
VNINDEX,2008-12-16,296.42001
VNINDEX,2008-12-17,301.01999
VNINDEX,2008-12-18,305.56
VNINDEX,2008-12-19,307.26001
VNINDEX,2008-12-22,310.04999
VNINDEX,2008-12-23,303.92999
VNINDEX,2008-12-24,304.04999
VNINDEX,2008-12-25,302.19
VNINDEX,2008-12-26,304.45999
VNINDEX,2008-12-29,308.56
VNINDEX,2008-12-30,316.32001
VNINDEX,2008-12-31,315.62
VNINDEX,2009-01-02,313.34
VNINDEX,2009-01-05,311.91
VNINDEX,2009-01-06,314.04001
VNINDEX,2009-01-07,319.57999
VNINDEX,2009-01-08,314.14999
VNINDEX,2009-01-09,313.39999
VNINDEX,2009-01-12,312.17999
VNINDEX,2009-01-13,307.13
VNINDEX,2009-01-14,307.98001
VNINDEX,2009-01-15,304.01001
VNINDEX,2009-01-16,306.12
VNINDEX,2009-01-19,304.98001
VNINDEX,2009-01-20,302.85999
VNINDEX,2009-01-21,300.04001
VNINDEX,2009-01-22,301.12
VNINDEX,2009-01-23,303.20999
VNINDEX,2009-02-02,297.51999
VNINDEX,2009-02-03,288.69
VNINDEX,2009-02-04,286.10999
VNINDEX,2009-02-05,277.81
VNINDEX,2009-02-06,281.63
VNINDEX,2009-02-09,287.57001
VNINDEX,2009-02-10,282.01999
VNINDEX,2009-02-11,276.22
VNINDEX,2009-02-12,276.09
VNINDEX,2009-02-13,274.51001
VNINDEX,2009-02-16,272.31
VNINDEX,2009-02-17,263.07001
VNINDEX,2009-02-18,255.09
VNINDEX,2009-02-19,254.85001
VNINDEX,2009-02-20,252.57001
VNINDEX,2009-02-23,244.02
VNINDEX,2009-02-24,235.5
VNINDEX,2009-02-25,244.33
VNINDEX,2009-02-26,242.53
VNINDEX,2009-02-27,245.74001
VNINDEX,2009-03-02,247.66
VNINDEX,2009-03-03,241.46001
VNINDEX,2009-03-04,244.36
VNINDEX,2009-03-05,246.67999
VNINDEX,2009-03-06,245.7
VNINDEX,2009-03-09,247.85001
VNINDEX,2009-03-10,251.88
VNINDEX,2009-03-11,255.85001
VNINDEX,2009-03-12,251.00999
VNINDEX,2009-03-13,251.44
VNINDEX,2009-03-16,254.56
VNINDEX,2009-03-17,263.20001
VNINDEX,2009-03-18,273.39001
VNINDEX,2009-03-19,267.04001
VNINDEX,2009-03-20,266.62
VNINDEX,2009-03-23,260.16
VNINDEX,2009-03-24,270.62
VNINDEX,2009-03-25,277.63
VNINDEX,2009-03-26,286.25
VNINDEX,2009-03-27,287.41
VNINDEX,2009-03-30,282.38
VNINDEX,2009-03-31,280.67001
VNINDEX,2009-04-01,289.51999
VNINDEX,2009-04-02,297.29999
VNINDEX,2009-04-03,310.28
VNINDEX,2009-04-07,322.35999
VNINDEX,2009-04-08,313.76001
VNINDEX,2009-04-09,311.72
VNINDEX,2009-04-10,325.04999
VNINDEX,2009-04-13,340.01001
VNINDEX,2009-04-14,347.07001
VNINDEX,2009-04-15,339.29001
VNINDEX,2009-04-16,343.88
VNINDEX,2009-04-17,334.14001
VNINDEX,2009-04-20,318.89001
VNINDEX,2009-04-21,312.76999
VNINDEX,2009-04-22,321.85999
VNINDEX,2009-04-23,315.20001
VNINDEX,2009-04-24,309.89999
VNINDEX,2009-04-27,313.69
VNINDEX,2009-04-28,315.70999
VNINDEX,2009-04-29,321.63
VNINDEX,2009-05-04,336.64001
VNINDEX,2009-05-05,351.32001
VNINDEX,2009-05-06,350.14001
VNINDEX,2009-05-07,363.85001
VNINDEX,2009-05-08,366.22
VNINDEX,2009-05-11,372.95001
VNINDEX,2009-05-12,381.97
VNINDEX,2009-05-13,378.25
VNINDEX,2009-05-14,376.75
VNINDEX,2009-05-15,390.16
VNINDEX,2009-05-18,390.85001
VNINDEX,2009-05-19,400.89999
VNINDEX,2009-05-20,410.38
VNINDEX,2009-05-21,412.51001
VNINDEX,2009-05-22,404.57999
VNINDEX,2009-05-25,421.75
VNINDEX,2009-05-26,425.03
VNINDEX,2009-05-27,425.17001
VNINDEX,2009-05-28,415.45001
VNINDEX,2009-05-29,411.64001
VNINDEX,2009-06-01,426.42999
VNINDEX,2009-06-02,440.56
VNINDEX,2009-06-03,444.79001
VNINDEX,2009-06-04,458.19
VNINDEX,2009-06-05,478.72
VNINDEX,2009-06-08,501.48999
VNINDEX,2009-06-09,512.46002
VNINDEX,2009-06-10,497.51001
VNINDEX,2009-06-11,511.26999
VNINDEX,2009-06-12,509.59
VNINDEX,2009-06-15,493.51999
VNINDEX,2009-06-16,471.97
VNINDEX,2009-06-17,472.47
VNINDEX,2009-06-18,479.26999
VNINDEX,2009-06-19,475.22
VNINDEX,2009-06-22,458.10999
VNINDEX,2009-06-23,438.54999
VNINDEX,2009-06-24,456.22
VNINDEX,2009-06-25,453.76001
VNINDEX,2009-06-26,461.37
VNINDEX,2009-06-29,460.42001
VNINDEX,2009-06-30,448.29001
VNINDEX,2009-07-01,430.0
VNINDEX,2009-07-02,433.79001
VNINDEX,2009-07-03,435.44
VNINDEX,2009-07-06,454.26999
VNINDEX,2009-07-07,447.63
VNINDEX,2009-07-08,446.79001
VNINDEX,2009-07-09,446.39999
VNINDEX,2009-07-10,438.82999
VNINDEX,2009-07-13,426.67001
VNINDEX,2009-07-14,418.54999
VNINDEX,2009-07-15,427.04999
VNINDEX,2009-07-16,433.47
VNINDEX,2009-07-17,428.67001
VNINDEX,2009-07-20,412.88
VNINDEX,2009-07-21,416.42999
VNINDEX,2009-07-22,419.48001
VNINDEX,2009-07-23,434.20001
VNINDEX,2009-07-24,454.70999
VNINDEX,2009-07-27,469.70999
VNINDEX,2009-07-28,462.98001
VNINDEX,2009-07-29,458.04001
VNINDEX,2009-07-30,451.91
VNINDEX,2009-07-31,466.76001
VNINDEX,2009-08-03,467.92999
VNINDEX,2009-08-04,476.59
VNINDEX,2009-08-05,481.29001
VNINDEX,2009-08-06,481.44
VNINDEX,2009-08-07,480.64999
VNINDEX,2009-08-10,491.20001
VNINDEX,2009-08-11,494.17001
VNINDEX,2009-08-12,497.16
VNINDEX,2009-08-13,503.57999
VNINDEX,2009-08-14,506.98999
VNINDEX,2009-08-17,500.07999
VNINDEX,2009-08-18,499.69
VNINDEX,2009-08-19,508.45999
VNINDEX,2009-08-20,513.90002
VNINDEX,2009-08-21,519.16998
VNINDEX,2009-08-24,528.20001
VNINDEX,2009-08-25,528.84998
VNINDEX,2009-08-26,525.95001
VNINDEX,2009-08-27,527.03998
VNINDEX,2009-08-28,536.53003
VNINDEX,2009-08-31,546.78003
VNINDEX,2009-09-01,547.69
VNINDEX,2009-09-03,540.81
VNINDEX,2009-09-04,528.48999
VNINDEX,2009-09-07,524.51001
VNINDEX,2009-09-08,537.81
VNINDEX,2009-09-09,536.10999
VNINDEX,2009-09-10,540.19
VNINDEX,2009-09-11,547.98999
VNINDEX,2009-09-14,556.59003
VNINDEX,2009-09-15,556.75
VNINDEX,2009-09-16,556.97998
VNINDEX,2009-09-17,561.19
VNINDEX,2009-09-18,571.01001
VNINDEX,2009-09-21,577.96997
VNINDEX,2009-09-22,582.84998
VNINDEX,2009-09-23,582.10999
VNINDEX,2009-09-24,574.78003
VNINDEX,2009-09-25,582.84003
VNINDEX,2009-09-28,582.02002
VNINDEX,2009-09-29,582.59003
VNINDEX,2009-09-30,580.90002
VNINDEX,2009-10-01,568.98999
VNINDEX,2009-10-02,549.72998
VNINDEX,2009-10-05,549.0
VNINDEX,2009-10-06,552.03003
VNINDEX,2009-10-07,566.41998
VNINDEX,2009-10-08,571.84003
VNINDEX,2009-10-09,581.98999
VNINDEX,2009-10-12,594.29999
VNINDEX,2009-10-13,589.89001
VNINDEX,2009-10-14,605.65002
VNINDEX,2009-10-15,617.38
VNINDEX,2009-10-16,609.53998
VNINDEX,2009-10-19,607.10999
VNINDEX,2009-10-20,616.58002
VNINDEX,2009-10-21,618.47998
VNINDEX,2009-10-22,624.09998
VNINDEX,2009-10-23,615.67999
VNINDEX,2009-10-26,609.34003
VNINDEX,2009-10-27,596.78003
VNINDEX,2009-10-28,599.85999
VNINDEX,2009-10-29,581.48999
VNINDEX,2009-10-30,587.12
VNINDEX,2009-11-02,561.71002
VNINDEX,2009-11-03,539.65002
VNINDEX,2009-11-04,537.53003
VNINDEX,2009-11-05,555.53998
VNINDEX,2009-11-06,554.88
VNINDEX,2009-11-09,534.09003
VNINDEX,2009-11-10,524.40002
VNINDEX,2009-11-11,537.59003
VNINDEX,2009-11-12,545.97998
VNINDEX,2009-11-13,548.21002
VNINDEX,2009-11-16,545.70001
VNINDEX,2009-11-17,547.08002
VNINDEX,2009-11-18,553.83002
VNINDEX,2009-11-19,560.04999
VNINDEX,2009-11-20,555.84003
VNINDEX,2009-11-23,537.28998
VNINDEX,2009-11-24,527.13
VNINDEX,2009-11-25,503.41
VNINDEX,2009-11-26,482.60001
VNINDEX,2009-11-27,490.62
VNINDEX,2009-11-30,504.12
VNINDEX,2009-12-01,514.91998
VNINDEX,2009-12-02,499.14001
VNINDEX,2009-12-03,494.79999
VNINDEX,2009-12-04,494.95999
VNINDEX,2009-12-07,498.60999
VNINDEX,2009-12-08,488.47
VNINDEX,2009-12-09,470.63
VNINDEX,2009-12-10,458.72
VNINDEX,2009-12-11,444.16
VNINDEX,2009-12-14,458.39001
VNINDEX,2009-12-15,459.44
VNINDEX,2009-12-16,442.10001
VNINDEX,2009-12-17,434.87
VNINDEX,2009-12-18,443.34
VNINDEX,2009-12-21,460.98999
VNINDEX,2009-12-22,465.23999
VNINDEX,2009-12-23,470.75
VNINDEX,2009-12-24,479.13
VNINDEX,2009-12-25,495.07999
VNINDEX,2009-12-28,492.57001
VNINDEX,2009-12-29,484.45001
VNINDEX,2009-12-30,495.35999
VNINDEX,2009-12-31,494.76999
VNINDEX,2010-01-04,517.04999
VNINDEX,2010-01-05,532.53003
VNINDEX,2010-01-06,534.46002
VNINDEX,2010-01-07,533.34003
VNINDEX,2010-01-08,520.90002
VNINDEX,2010-01-11,515.06
VNINDEX,2010-01-12,498.31
VNINDEX,2010-01-13,508.60999
VNINDEX,2010-01-14,512.33002
VNINDEX,2010-01-15,505.42001
VNINDEX,2010-01-18,487.13
VNINDEX,2010-01-19,495.51001
VNINDEX,2010-01-20,489.5
VNINDEX,2010-01-21,478.42001
VNINDEX,2010-01-22,477.59
VNINDEX,2010-01-25,480.91
VNINDEX,2010-01-26,497.89999
VNINDEX,2010-01-27,486.41
VNINDEX,2010-01-28,481.76001
VNINDEX,2010-01-29,481.95999
VNINDEX,2010-02-01,486.95001
VNINDEX,2010-02-02,487.92999
VNINDEX,2010-02-03,495.48001
VNINDEX,2010-02-04,503.82999
VNINDEX,2010-02-05,493.04001
VNINDEX,2010-02-08,491.20001
VNINDEX,2010-02-09,482.89001
VNINDEX,2010-02-10,490.91
VNINDEX,2010-02-11,499.94
VNINDEX,2010-02-12,507.0
VNINDEX,2010-02-22,510.01999
VNINDEX,2010-02-23,496.29001
VNINDEX,2010-02-24,494.59
VNINDEX,2010-02-25,494.98999
VNINDEX,2010-02-26,496.91
VNINDEX,2010-03-01,503.01001
VNINDEX,2010-03-02,501.0
VNINDEX,2010-03-03,507.32001
VNINDEX,2010-03-04,511.91
VNINDEX,2010-03-05,513.39001
VNINDEX,2010-03-08,521.12
VNINDEX,2010-03-09,527.27002
VNINDEX,2010-03-10,525.66998
VNINDEX,2010-03-11,524.64001
VNINDEX,2010-03-12,531.51001
VNINDEX,2010-03-15,531.85999
VNINDEX,2010-03-16,516.08002
VNINDEX,2010-03-17,510.85001
VNINDEX,2010-03-18,519.72998
VNINDEX,2010-03-19,515.98999
VNINDEX,2010-03-22,511.57999
VNINDEX,2010-03-23,506.53
VNINDEX,2010-03-24,512.12
VNINDEX,2010-03-25,503.39001
VNINDEX,2010-03-26,505.29999
VNINDEX,2010-03-29,505.67001
VNINDEX,2010-03-30,500.72
VNINDEX,2010-03-31,499.23999
VNINDEX,2010-04-01,508.17999
VNINDEX,2010-04-02,510.48001
VNINDEX,2010-04-05,514.78998
VNINDEX,2010-04-06,515.33002
VNINDEX,2010-04-07,515.82001
VNINDEX,2010-04-08,515.92999
VNINDEX,2010-04-09,517.41998
VNINDEX,2010-04-12,519.92999
VNINDEX,2010-04-13,517.97998
VNINDEX,2010-04-14,516.21002
VNINDEX,2010-04-15,521.48999
VNINDEX,2010-04-16,522.03003
VNINDEX,2010-04-19,516.73999
VNINDEX,2010-04-20,515.20001
VNINDEX,2010-04-21,519.70001
VNINDEX,2010-04-22,529.31
VNINDEX,2010-04-26,531.21002
VNINDEX,2010-04-27,535.71997
VNINDEX,2010-04-28,539.20001
VNINDEX,2010-04-29,542.37
VNINDEX,2010-05-04,549.12
VNINDEX,2010-05-05,548.01001
VNINDEX,2010-05-06,549.51001
VNINDEX,2010-05-07,542.03003
VNINDEX,2010-05-10,534.38
VNINDEX,2010-05-11,534.35999
VNINDEX,2010-05-12,519.59998
VNINDEX,2010-05-13,518.92999
VNINDEX,2010-05-14,520.71997
VNINDEX,2010-05-17,511.26999
VNINDEX,2010-05-18,508.29999
VNINDEX,2010-05-19,494.89999
VNINDEX,2010-05-20,503.54999
VNINDEX,2010-05-21,483.69
VNINDEX,2010-05-24,486.19
VNINDEX,2010-05-25,486.25
VNINDEX,2010-05-26,492.69
VNINDEX,2010-05-27,497.16
VNINDEX,2010-05-28,512.98999
VNINDEX,2010-05-31,507.44
VNINDEX,2010-06-01,508.67999
VNINDEX,2010-06-02,510.73999
VNINDEX,2010-06-03,511.16
VNINDEX,2010-06-04,510.37
VNINDEX,2010-06-07,496.89001
VNINDEX,2010-06-08,497.19
VNINDEX,2010-06-09,497.56
VNINDEX,2010-06-10,500.51001
VNINDEX,2010-06-11,504.29001
VNINDEX,2010-06-14,508.32001
VNINDEX,2010-06-15,508.01001
VNINDEX,2010-06-16,510.72
VNINDEX,2010-06-17,510.76001
VNINDEX,2010-06-18,511.17999
VNINDEX,2010-06-21,514.75
VNINDEX,2010-06-22,512.63
VNINDEX,2010-06-23,512.82001
VNINDEX,2010-06-24,511.67001
VNINDEX,2010-06-25,505.12
VNINDEX,2010-06-28,507.28
VNINDEX,2010-06-29,510.70999
VNINDEX,2010-06-30,507.14001
VNINDEX,2010-07-01,504.01999
VNINDEX,2010-07-02,503.64999
VNINDEX,2010-07-05,506.54999
VNINDEX,2010-07-06,500.82001
VNINDEX,2010-07-07,496.91
VNINDEX,2010-07-08,498.54999
VNINDEX,2010-07-09,499.45999
VNINDEX,2010-07-12,499.92999
VNINDEX,2010-07-13,509.07999
VNINDEX,2010-07-14,507.34
VNINDEX,2010-07-15,505.19
VNINDEX,2010-07-16,506.20999
VNINDEX,2010-07-19,506.84
VNINDEX,2010-07-20,506.56
VNINDEX,2010-07-21,505.39999
VNINDEX,2010-07-22,500.28
VNINDEX,2010-07-23,500.31
VNINDEX,2010-07-26,498.10001
VNINDEX,2010-07-27,497.67001
VNINDEX,2010-07-28,491.0
VNINDEX,2010-07-29,491.10999
VNINDEX,2010-07-30,493.91
VNINDEX,2010-08-02,491.60999
VNINDEX,2010-08-03,491.89999
VNINDEX,2010-08-04,486.70999
VNINDEX,2010-08-05,486.20999
VNINDEX,2010-08-06,482.82001
VNINDEX,2010-08-09,472.73999
VNINDEX,2010-08-10,461.67001
VNINDEX,2010-08-11,463.12
VNINDEX,2010-08-12,448.39999
VNINDEX,2010-08-13,452.73001
VNINDEX,2010-08-16,464.76001
VNINDEX,2010-08-17,463.51999
VNINDEX,2010-08-18,455.48999
VNINDEX,2010-08-19,452.23001
VNINDEX,2010-08-20,454.84
VNINDEX,2010-08-23,447.92001
VNINDEX,2010-08-24,434.42001
VNINDEX,2010-08-25,423.89001
VNINDEX,2010-08-26,427.07001
VNINDEX,2010-08-27,429.14001
VNINDEX,2010-08-30,444.54999
VNINDEX,2010-08-31,455.07999
VNINDEX,2010-09-01,458.75
VNINDEX,2010-09-06,466.0
VNINDEX,2010-09-07,460.59
VNINDEX,2010-09-08,458.44
VNINDEX,2010-09-09,463.67999
VNINDEX,2010-09-10,451.39001
VNINDEX,2010-09-13,447.26999
VNINDEX,2010-09-14,449.01001
VNINDEX,2010-09-15,448.72
VNINDEX,2010-09-16,449.51999
VNINDEX,2010-09-17,457.57999
VNINDEX,2010-09-20,457.87
VNINDEX,2010-09-21,453.32001
VNINDEX,2010-09-22,453.89999
VNINDEX,2010-09-23,450.76999
VNINDEX,2010-09-24,449.70999
VNINDEX,2010-09-27,450.20001
VNINDEX,2010-09-28,455.13
VNINDEX,2010-09-29,452.94
VNINDEX,2010-09-30,454.51999
VNINDEX,2010-10-01,451.70999
VNINDEX,2010-10-04,445.82999
VNINDEX,2010-10-05,450.95999
VNINDEX,2010-10-06,460.72
VNINDEX,2010-10-07,462.04999
VNINDEX,2010-10-08,459.26001
VNINDEX,2010-10-11,459.32001
VNINDEX,2010-10-12,454.32001
VNINDEX,2010-10-13,457.70001
VNINDEX,2010-10-14,458.66
VNINDEX,2010-10-15,458.39001
VNINDEX,2010-10-18,457.59
VNINDEX,2010-10-19,454.25
VNINDEX,2010-10-20,442.17001
VNINDEX,2010-10-21,445.04999
VNINDEX,2010-10-22,445.20999
VNINDEX,2010-10-25,448.60999
VNINDEX,2010-10-26,455.12
VNINDEX,2010-10-27,450.01001
VNINDEX,2010-10-28,450.07001
VNINDEX,2010-10-29,452.63
VNINDEX,2010-11-01,451.06
VNINDEX,2010-11-02,446.29999
VNINDEX,2010-11-03,444.16
VNINDEX,2010-11-04,448.95001
VNINDEX,2010-11-05,457.26999
VNINDEX,2010-11-08,457.13
VNINDEX,2010-11-09,449.39999
VNINDEX,2010-11-10,451.26001
VNINDEX,2010-11-11,446.69
VNINDEX,2010-11-12,441.60001
VNINDEX,2010-11-15,433.54001
VNINDEX,2010-11-16,426.89001
VNINDEX,2010-11-17,425.5
VNINDEX,2010-11-18,430.72
VNINDEX,2010-11-19,426.51001
VNINDEX,2010-11-22,426.19
VNINDEX,2010-11-23,430.81
VNINDEX,2010-11-24,434.48001
VNINDEX,2010-11-25,439.85001
VNINDEX,2010-11-26,439.94
VNINDEX,2010-11-29,446.35999
VNINDEX,2010-11-30,451.59
VNINDEX,2010-12-01,449.92999
VNINDEX,2010-12-02,457.42001
VNINDEX,2010-12-03,464.35001
VNINDEX,2010-12-06,465.56
VNINDEX,2010-12-07,460.76001
VNINDEX,2010-12-08,452.82999
VNINDEX,2010-12-09,460.45001
VNINDEX,2010-12-10,473.06
VNINDEX,2010-12-13,490.22
VNINDEX,2010-12-14,489.64999
VNINDEX,2010-12-15,493.47
VNINDEX,2010-12-16,480.20999
VNINDEX,2010-12-17,485.29001
VNINDEX,2010-12-20,478.29001
VNINDEX,2010-12-21,481.78
VNINDEX,2010-12-22,481.53
VNINDEX,2010-12-23,475.41
VNINDEX,2010-12-24,472.76001
VNINDEX,2010-12-27,473.04999
VNINDEX,2010-12-28,479.32999
VNINDEX,2010-12-29,478.75
VNINDEX,2010-12-30,481.39999
VNINDEX,2010-12-31,484.66
VNINDEX,2011-01-04,485.97
VNINDEX,2011-01-05,481.91
VNINDEX,2011-01-06,482.31
VNINDEX,2011-01-07,481.85999
VNINDEX,2011-01-10,480.54999
VNINDEX,2011-01-11,477.44
VNINDEX,2011-01-12,478.45001
VNINDEX,2011-01-13,484.12
VNINDEX,2011-01-14,489.22
VNINDEX,2011-01-17,495.16
VNINDEX,2011-01-18,497.42999
VNINDEX,2011-01-19,505.91
VNINDEX,2011-01-20,511.98001
VNINDEX,2011-01-21,519.5
VNINDEX,2011-01-24,509.88
VNINDEX,2011-01-25,501.97
VNINDEX,2011-01-26,501.25
VNINDEX,2011-01-27,502.67999
VNINDEX,2011-01-28,510.60001
VNINDEX,2011-02-08,520.69
VNINDEX,2011-02-09,522.59003
VNINDEX,2011-02-10,520.22998
VNINDEX,2011-02-11,519.97998
VNINDEX,2011-02-14,514.04999
VNINDEX,2011-02-15,517.87
VNINDEX,2011-02-16,513.10999
VNINDEX,2011-02-17,509.82999
VNINDEX,2011-02-18,503.92001
VNINDEX,2011-02-21,483.67999
VNINDEX,2011-02-22,470.01999
VNINDEX,2011-02-23,470.67001
VNINDEX,2011-02-24,461.29001
VNINDEX,2011-02-25,466.95999
VNINDEX,2011-02-28,461.37
VNINDEX,2011-03-01,466.12
VNINDEX,2011-03-02,457.82999
VNINDEX,2011-03-03,452.34
VNINDEX,2011-03-04,459.23001
VNINDEX,2011-03-07,468.22
VNINDEX,2011-03-08,475.38
VNINDEX,2011-03-09,470.51001
VNINDEX,2011-03-10,482.48999
VNINDEX,2011-03-11,495.06
VNINDEX,2011-03-14,479.89999
VNINDEX,2011-03-15,468.73999
VNINDEX,2011-03-16,463.57999
VNINDEX,2011-03-17,460.53
VNINDEX,2011-03-18,461.07999
VNINDEX,2011-03-21,468.25
VNINDEX,2011-03-22,464.79999
VNINDEX,2011-03-23,467.64001
VNINDEX,2011-03-24,461.32001
VNINDEX,2011-03-25,457.73999
VNINDEX,2011-03-28,459.51999
VNINDEX,2011-03-29,457.88
VNINDEX,2011-03-30,460.04001
VNINDEX,2011-03-31,461.13
VNINDEX,2011-04-01,459.17001
VNINDEX,2011-04-04,457.25
VNINDEX,2011-04-05,457.20001
VNINDEX,2011-04-06,464.94
VNINDEX,2011-04-07,463.48999
VNINDEX,2011-04-08,464.29001
VNINDEX,2011-04-13,461.01001
VNINDEX,2011-04-14,460.63
VNINDEX,2011-04-15,460.95999
VNINDEX,2011-04-18,455.45999
VNINDEX,2011-04-19,453.73999
VNINDEX,2011-04-20,458.5
VNINDEX,2011-04-21,460.29999
VNINDEX,2011-04-22,456.45001
VNINDEX,2011-04-25,465.62
VNINDEX,2011-04-26,461.85999
VNINDEX,2011-04-27,469.32001
VNINDEX,2011-04-28,472.92999
VNINDEX,2011-04-29,480.07999
VNINDEX,2011-05-04,486.57999
VNINDEX,2011-05-05,479.29001
VNINDEX,2011-05-06,472.70999
VNINDEX,2011-05-09,477.47
VNINDEX,2011-05-10,481.29001
VNINDEX,2011-05-11,483.14999
VNINDEX,2011-05-12,482.14001
VNINDEX,2011-05-13,479.67001
VNINDEX,2011-05-16,471.48999
VNINDEX,2011-05-17,464.35001
VNINDEX,2011-05-18,454.91
VNINDEX,2011-05-19,444.85001
VNINDEX,2011-05-20,432.87
VNINDEX,2011-05-23,417.82001
VNINDEX,2011-05-24,402.59
VNINDEX,2011-05-25,386.35999
VNINDEX,2011-05-26,398.04001
VNINDEX,2011-05-27,410.82001
VNINDEX,2011-05-30,412.10001
VNINDEX,2011-05-31,421.37
VNINDEX,2011-06-01,435.69
VNINDEX,2011-06-02,450.59
VNINDEX,2011-06-03,443.41
VNINDEX,2011-06-06,433.81
VNINDEX,2011-06-07,443.67999
VNINDEX,2011-06-08,439.57001
VNINDEX,2011-06-09,443.95001
VNINDEX,2011-06-10,445.0
VNINDEX,2011-06-13,442.69
VNINDEX,2011-06-14,441.54001
VNINDEX,2011-06-15,441.45001
VNINDEX,2011-06-16,445.17001
VNINDEX,2011-06-17,438.92999
VNINDEX,2011-06-20,431.63
VNINDEX,2011-06-21,442.73999
VNINDEX,2011-06-22,439.63
VNINDEX,2011-06-23,434.75
VNINDEX,2011-06-24,433.39999
VNINDEX,2011-06-27,434.25
VNINDEX,2011-06-28,432.31
VNINDEX,2011-06-29,434.60001
VNINDEX,2011-06-30,432.54001
VNINDEX,2011-07-01,425.29001
VNINDEX,2011-07-04,425.42001
VNINDEX,2011-07-05,431.03
VNINDEX,2011-07-06,428.29999
VNINDEX,2011-07-07,429.98999
VNINDEX,2011-07-08,430.32001
VNINDEX,2011-07-11,425.09
VNINDEX,2011-07-12,417.25
VNINDEX,2011-07-13,418.17999
VNINDEX,2011-07-14,418.92999
VNINDEX,2011-07-15,414.73999
VNINDEX,2011-07-18,415.76999
VNINDEX,2011-07-19,410.12
VNINDEX,2011-07-20,416.76999
VNINDEX,2011-07-21,413.06
VNINDEX,2011-07-22,409.20001
VNINDEX,2011-07-25,409.35999
VNINDEX,2011-07-26,409.39001
VNINDEX,2011-07-27,409.39999
VNINDEX,2011-07-28,408.39001
VNINDEX,2011-07-29,405.70001
VNINDEX,2011-08-01,401.95001
VNINDEX,2011-08-02,396.54999
VNINDEX,2011-08-03,391.47
VNINDEX,2011-08-04,396.04999
VNINDEX,2011-08-05,400.88
VNINDEX,2011-08-08,396.41
VNINDEX,2011-08-09,387.70001
VNINDEX,2011-08-10,385.95999
VNINDEX,2011-08-11,384.44
VNINDEX,2011-08-12,383.92001
VNINDEX,2011-08-15,384.32001
VNINDEX,2011-08-16,386.48001
VNINDEX,2011-08-17,393.45999
VNINDEX,2011-08-18,402.89001
VNINDEX,2011-08-19,400.76001
VNINDEX,2011-08-22,406.03
VNINDEX,2011-08-23,401.28
VNINDEX,2011-08-24,396.67999
VNINDEX,2011-08-25,401.64999
VNINDEX,2011-08-26,404.41
VNINDEX,2011-08-29,413.37
VNINDEX,2011-08-30,419.26001
VNINDEX,2011-08-31,424.70999
VNINDEX,2011-09-01,435.29001
VNINDEX,2011-09-05,435.73001
VNINDEX,2011-09-06,436.16
VNINDEX,2011-09-07,443.98999
VNINDEX,2011-09-08,453.26001
VNINDEX,2011-09-09,459.92001
VNINDEX,2011-09-12,462.92999
VNINDEX,2011-09-13,469.39999
VNINDEX,2011-09-14,466.98999
VNINDEX,2011-09-15,470.67001
VNINDEX,2011-09-16,457.10999
VNINDEX,2011-09-19,461.67999
VNINDEX,2011-09-20,454.37
VNINDEX,2011-09-21,447.57001
VNINDEX,2011-09-22,449.26001
VNINDEX,2011-09-23,440.29999
VNINDEX,2011-09-26,434.42999
VNINDEX,2011-09-27,437.47
VNINDEX,2011-09-28,433.97
VNINDEX,2011-09-29,428.07999
VNINDEX,2011-09-30,427.60001
VNINDEX,2011-10-03,422.12
VNINDEX,2011-10-04,418.17999
VNINDEX,2011-10-05,417.20999
VNINDEX,2011-10-06,421.32001
VNINDEX,2011-10-07,417.95999
VNINDEX,2011-10-10,419.66
VNINDEX,2011-10-11,417.73001
VNINDEX,2011-10-12,410.91
VNINDEX,2011-10-13,412.59
VNINDEX,2011-10-14,414.48999
VNINDEX,2011-10-17,410.84
VNINDEX,2011-10-18,404.32001
VNINDEX,2011-10-19,401.14999
VNINDEX,2011-10-20,403.73001
VNINDEX,2011-10-21,411.03
VNINDEX,2011-10-24,414.45999
VNINDEX,2011-10-25,409.38
VNINDEX,2011-10-26,412.10001
VNINDEX,2011-10-27,414.75
VNINDEX,2011-10-28,422.07001
VNINDEX,2011-10-31,420.81
VNINDEX,2011-11-01,413.82001
VNINDEX,2011-11-02,407.79001
VNINDEX,2011-11-03,408.44
VNINDEX,2011-11-04,410.57001
VNINDEX,2011-11-07,410.51999
VNINDEX,2011-11-08,408.60001
VNINDEX,2011-11-09,405.19
VNINDEX,2011-11-10,401.03
VNINDEX,2011-11-11,396.29999
VNINDEX,2011-11-14,391.73999
VNINDEX,2011-11-15,387.87
VNINDEX,2011-11-16,390.89001
VNINDEX,2011-11-17,385.85999
VNINDEX,2011-11-18,379.62
VNINDEX,2011-11-21,379.14001
VNINDEX,2011-11-22,381.76001
VNINDEX,2011-11-23,388.57001
VNINDEX,2011-11-24,381.78
VNINDEX,2011-11-25,383.35001
VNINDEX,2011-11-28,383.31
VNINDEX,2011-11-29,382.89999
VNINDEX,2011-11-30,380.69
VNINDEX,2011-12-01,380.10001
VNINDEX,2011-12-02,383.88
VNINDEX,2011-12-05,391.19
VNINDEX,2011-12-06,390.20001
VNINDEX,2011-12-07,387.20999
VNINDEX,2011-12-08,381.63
VNINDEX,2011-12-09,377.16
VNINDEX,2011-12-12,375.29999
VNINDEX,2011-12-13,371.75
VNINDEX,2011-12-14,367.54999
VNINDEX,2011-12-15,364.48001
VNINDEX,2011-12-16,366.03
VNINDEX,2011-12-19,367.39999
VNINDEX,2011-12-20,365.67001
VNINDEX,2011-12-21,367.72
VNINDEX,2011-12-22,360.37
VNINDEX,2011-12-23,356.20999
VNINDEX,2011-12-26,352.67999
VNINDEX,2011-12-27,347.79999
VNINDEX,2011-12-28,350.66
VNINDEX,2011-12-29,350.51001
VNINDEX,2011-12-30,351.54999
VNINDEX,2012-01-03,350.0
VNINDEX,2012-01-04,348.84
VNINDEX,2012-01-05,340.94
VNINDEX,2012-01-06,336.73001
VNINDEX,2012-01-09,339.32001
VNINDEX,2012-01-10,344.67999
VNINDEX,2012-01-11,347.42999
VNINDEX,2012-01-12,348.10999
VNINDEX,2012-01-13,354.32999
VNINDEX,2012-01-16,357.87
VNINDEX,2012-01-17,358.85999
VNINDEX,2012-01-18,362.66
VNINDEX,2012-01-19,373.42999
VNINDEX,2012-01-20,373.0
VNINDEX,2012-01-30,384.94
VNINDEX,2012-01-31,387.97
VNINDEX,2012-02-01,390.67001
VNINDEX,2012-02-02,401.60999
VNINDEX,2012-02-03,401.73999
VNINDEX,2012-02-06,399.73001
VNINDEX,2012-02-07,401.07999
VNINDEX,2012-02-08,409.53
VNINDEX,2012-02-09,411.39001
VNINDEX,2012-02-10,405.01999
VNINDEX,2012-02-13,395.54001
VNINDEX,2012-02-14,400.26001
VNINDEX,2012-02-15,397.41
VNINDEX,2012-02-16,396.51001
VNINDEX,2012-02-17,403.29999
VNINDEX,2012-02-20,413.98001
VNINDEX,2012-02-21,410.91
VNINDEX,2012-02-22,418.41
VNINDEX,2012-02-23,423.89001
VNINDEX,2012-02-24,423.42999
VNINDEX,2012-02-27,428.41
VNINDEX,2012-02-28,422.22
VNINDEX,2012-02-29,423.64001
VNINDEX,2012-03-01,427.95001
VNINDEX,2012-03-02,439.60001
VNINDEX,2012-03-05,457.20999
VNINDEX,2012-03-06,445.0
VNINDEX,2012-03-07,444.01999
VNINDEX,2012-03-08,431.66
VNINDEX,2012-03-09,432.10999
VNINDEX,2012-03-12,428.01999
VNINDEX,2012-03-13,429.39001
VNINDEX,2012-03-14,433.85999
VNINDEX,2012-03-15,441.85001
VNINDEX,2012-03-16,438.51999
VNINDEX,2012-03-19,438.07001
VNINDEX,2012-03-20,440.29001
VNINDEX,2012-03-21,445.76999
VNINDEX,2012-03-22,445.67001
VNINDEX,2012-03-23,454.10001
VNINDEX,2012-03-26,459.26001
VNINDEX,2012-03-27,445.92001
VNINDEX,2012-03-28,446.32001
VNINDEX,2012-03-29,439.63
VNINDEX,2012-03-30,441.03
VNINDEX,2012-04-03,445.76999
VNINDEX,2012-04-04,439.76999
VNINDEX,2012-04-05,444.92999
VNINDEX,2012-04-06,447.44
VNINDEX,2012-04-09,450.73001
VNINDEX,2012-04-10,450.85001
VNINDEX,2012-04-11,458.73999
VNINDEX,2012-04-12,465.26001
VNINDEX,2012-04-13,462.51999
VNINDEX,2012-04-16,468.26001
VNINDEX,2012-04-17,472.84
VNINDEX,2012-04-18,472.16
VNINDEX,2012-04-19,467.07999
VNINDEX,2012-04-20,465.72
VNINDEX,2012-04-23,465.17001
VNINDEX,2012-04-24,465.64999
VNINDEX,2012-04-25,472.87
VNINDEX,2012-04-26,470.20999
VNINDEX,2012-04-27,473.76999
VNINDEX,2012-05-02,472.45999
VNINDEX,2012-05-03,468.79999
VNINDEX,2012-05-04,476.32001
VNINDEX,2012-05-07,486.31
VNINDEX,2012-05-08,488.07001
VNINDEX,2012-05-09,487.62
VNINDEX,2012-05-10,486.07001
VNINDEX,2012-05-11,480.10001
VNINDEX,2012-05-14,469.69
VNINDEX,2012-05-15,455.64999
VNINDEX,2012-05-16,449.91
VNINDEX,2012-05-17,442.57999
VNINDEX,2012-05-18,434.95001
VNINDEX,2012-05-21,448.01999
VNINDEX,2012-05-22,447.94
VNINDEX,2012-05-23,436.75
VNINDEX,2012-05-24,426.92001
VNINDEX,2012-05-25,437.38
VNINDEX,2012-05-28,435.48001
VNINDEX,2012-05-29,431.44
VNINDEX,2012-05-30,435.34
VNINDEX,2012-05-31,429.20001
VNINDEX,2012-06-01,428.79999
VNINDEX,2012-06-04,416.64999
VNINDEX,2012-06-05,421.01999
VNINDEX,2012-06-06,426.39001
VNINDEX,2012-06-07,434.41
VNINDEX,2012-06-08,432.89999
VNINDEX,2012-06-11,432.5
VNINDEX,2012-06-12,428.16
VNINDEX,2012-06-13,427.60999
VNINDEX,2012-06-14,425.28
VNINDEX,2012-06-15,433.09
VNINDEX,2012-06-18,435.59
VNINDEX,2012-06-19,431.07999
VNINDEX,2012-06-20,432.89001
VNINDEX,2012-06-21,431.14001
VNINDEX,2012-06-22,427.17001
VNINDEX,2012-06-25,424.12
VNINDEX,2012-06-26,419.19
VNINDEX,2012-06-27,418.04001
VNINDEX,2012-06-28,418.16
VNINDEX,2012-06-29,422.37
VNINDEX,2012-07-02,419.29999
VNINDEX,2012-07-03,413.09
VNINDEX,2012-07-04,410.73001
VNINDEX,2012-07-05,413.82999
VNINDEX,2012-07-06,415.44
VNINDEX,2012-07-09,408.12
VNINDEX,2012-07-10,405.39001
VNINDEX,2012-07-11,407.28
VNINDEX,2012-07-12,408.72
VNINDEX,2012-07-13,416.98001
VNINDEX,2012-07-16,413.98001
VNINDEX,2012-07-17,417.54999
VNINDEX,2012-07-18,418.82999
VNINDEX,2012-07-19,428.38
VNINDEX,2012-07-20,424.47
VNINDEX,2012-07-23,421.98999
VNINDEX,2012-07-24,415.63
VNINDEX,2012-07-25,412.91
VNINDEX,2012-07-26,414.79999
VNINDEX,2012-07-27,413.16
VNINDEX,2012-07-30,415.0
VNINDEX,2012-07-31,414.48001
VNINDEX,2012-08-01,412.54999
VNINDEX,2012-08-02,416.10001
VNINDEX,2012-08-03,418.20999
VNINDEX,2012-08-06,423.16
VNINDEX,2012-08-07,422.5
VNINDEX,2012-08-08,423.57001
VNINDEX,2012-08-09,426.98001
VNINDEX,2012-08-10,425.56
VNINDEX,2012-08-13,426.17001
VNINDEX,2012-08-14,429.47
VNINDEX,2012-08-15,430.76999
VNINDEX,2012-08-16,430.82999
VNINDEX,2012-08-17,433.45001
VNINDEX,2012-08-20,437.28
VNINDEX,2012-08-21,416.84
VNINDEX,2012-08-22,410.23001
VNINDEX,2012-08-23,392.82001
VNINDEX,2012-08-24,399.72
VNINDEX,2012-08-27,386.19
VNINDEX,2012-08-28,385.78
VNINDEX,2012-08-29,393.06
VNINDEX,2012-08-30,397.25
VNINDEX,2012-08-31,396.01999
VNINDEX,2012-09-04,402.07999
VNINDEX,2012-09-05,398.92001
VNINDEX,2012-09-06,393.41
VNINDEX,2012-09-07,397.51001
VNINDEX,2012-09-10,388.88
VNINDEX,2012-09-11,386.62
VNINDEX,2012-09-12,388.35001
VNINDEX,2012-09-13,391.35999
VNINDEX,2012-09-14,398.87
VNINDEX,2012-09-17,401.75
VNINDEX,2012-09-18,394.51001
VNINDEX,2012-09-19,394.54999
VNINDEX,2012-09-20,389.28
VNINDEX,2012-09-21,395.48001
VNINDEX,2012-09-24,390.37
VNINDEX,2012-09-25,391.76999
VNINDEX,2012-09-26,395.12
VNINDEX,2012-09-27,393.34
VNINDEX,2012-09-28,392.57001
VNINDEX,2012-10-01,386.54999
VNINDEX,2012-10-02,384.32001
VNINDEX,2012-10-03,385.37
VNINDEX,2012-10-04,384.51001
VNINDEX,2012-10-05,388.16
VNINDEX,2012-10-08,393.45001
VNINDEX,2012-10-09,393.67001
VNINDEX,2012-10-10,394.66
VNINDEX,2012-10-11,394.19
VNINDEX,2012-10-12,392.54001
VNINDEX,2012-10-15,391.56
VNINDEX,2012-10-16,399.22
VNINDEX,2012-10-17,397.01999
VNINDEX,2012-10-18,398.51001
VNINDEX,2012-10-19,398.23001
VNINDEX,2012-10-22,397.0
VNINDEX,2012-10-23,397.70999
VNINDEX,2012-10-24,395.45001
VNINDEX,2012-10-25,389.92001
VNINDEX,2012-10-26,391.70001
VNINDEX,2012-10-29,391.35999
VNINDEX,2012-10-30,389.85999
VNINDEX,2012-10-31,388.42001
VNINDEX,2012-11-01,387.95001
VNINDEX,2012-11-02,375.26001
VNINDEX,2012-11-05,377.26999
VNINDEX,2012-11-06,376.95001
VNINDEX,2012-11-07,380.89999
VNINDEX,2012-11-08,385.60001
VNINDEX,2012-11-09,386.70999
VNINDEX,2012-11-12,388.62
VNINDEX,2012-11-13,385.22
VNINDEX,2012-11-14,387.70999
VNINDEX,2012-11-15,386.91
VNINDEX,2012-11-16,385.70999
VNINDEX,2012-11-19,383.32001
VNINDEX,2012-11-20,385.10001
VNINDEX,2012-11-21,383.87
VNINDEX,2012-11-22,383.22
VNINDEX,2012-11-23,381.70999
VNINDEX,2012-11-26,377.89999
VNINDEX,2012-11-27,376.89001
VNINDEX,2012-11-28,375.79001
VNINDEX,2012-11-29,378.20001
VNINDEX,2012-11-30,377.82001
VNINDEX,2012-12-03,379.26999
VNINDEX,2012-12-04,382.10001
VNINDEX,2012-12-05,385.69
VNINDEX,2012-12-06,385.69
VNINDEX,2012-12-07,383.79999
VNINDEX,2012-12-10,386.69
VNINDEX,2012-12-11,389.37
VNINDEX,2012-12-12,391.07999
VNINDEX,2012-12-13,391.19
VNINDEX,2012-12-14,392.20999
VNINDEX,2012-12-17,393.63
VNINDEX,2012-12-18,393.39001
VNINDEX,2012-12-19,398.59
VNINDEX,2012-12-20,399.67999
VNINDEX,2012-12-21,396.78
VNINDEX,2012-12-24,399.70999
VNINDEX,2012-12-25,401.34
VNINDEX,2012-12-26,406.10001
VNINDEX,2012-12-27,409.97
VNINDEX,2012-12-28,413.73001
VNINDEX,2013-01-02,418.35001
VNINDEX,2013-01-03,419.26999
VNINDEX,2013-01-04,426.06
VNINDEX,2013-01-07,434.19
VNINDEX,2013-01-08,447.16
VNINDEX,2013-01-09,448.76999
VNINDEX,2013-01-10,460.12
VNINDEX,2013-01-11,462.69
VNINDEX,2013-01-14,458.97
VNINDEX,2013-01-15,461.42001
VNINDEX,2013-01-16,465.25
VNINDEX,2013-01-17,456.76001
VNINDEX,2013-01-18,454.16
VNINDEX,2013-01-21,447.79001
VNINDEX,2013-01-22,442.85001
VNINDEX,2013-01-23,443.37
VNINDEX,2013-01-24,452.39999
VNINDEX,2013-01-25,468.09
VNINDEX,2013-01-28,479.60001
VNINDEX,2013-01-29,484.01001
VNINDEX,2013-01-30,487.60001
VNINDEX,2013-01-31,479.79001
VNINDEX,2013-02-01,483.42001
VNINDEX,2013-02-04,482.38
VNINDEX,2013-02-05,477.35999
VNINDEX,2013-02-06,488.35999
VNINDEX,2013-02-07,490.62
VNINDEX,2013-02-08,494.03
VNINDEX,2013-02-18,493.95001
VNINDEX,2013-02-19,490.78
VNINDEX,2013-02-20,494.82999
VNINDEX,2013-02-21,476.73001
VNINDEX,2013-02-22,477.69
VNINDEX,2013-02-25,483.69
VNINDEX,2013-02-26,465.04999
VNINDEX,2013-02-27,465.72
VNINDEX,2013-02-28,474.56
VNINDEX,2013-03-01,477.14999
VNINDEX,2013-03-04,468.73999
VNINDEX,2013-03-05,462.12
VNINDEX,2013-03-06,471.09
VNINDEX,2013-03-07,466.63
VNINDEX,2013-03-08,470.67999
VNINDEX,2013-03-11,476.5
VNINDEX,2013-03-12,475.34
VNINDEX,2013-03-13,473.17999
VNINDEX,2013-03-14,474.60001
VNINDEX,2013-03-15,481.35001
VNINDEX,2013-03-18,479.13
VNINDEX,2013-03-19,480.48001
VNINDEX,2013-03-20,487.04001
VNINDEX,2013-03-21,491.79001
VNINDEX,2013-03-22,489.98999
VNINDEX,2013-03-25,493.57001
VNINDEX,2013-03-26,489.45999
VNINDEX,2013-03-27,491.26001
VNINDEX,2013-03-28,490.67001
VNINDEX,2013-03-29,491.04001
VNINDEX,2013-04-01,505.81
VNINDEX,2013-04-02,509.42999
VNINDEX,2013-04-03,505.92999
VNINDEX,2013-04-04,497.35001
VNINDEX,2013-04-05,502.57999
VNINDEX,2013-04-08,506.66
VNINDEX,2013-04-09,510.48999
VNINDEX,2013-04-10,496.5
VNINDEX,2013-04-11,504.07001
VNINDEX,2013-04-12,494.26999
VNINDEX,2013-04-15,480.01999
VNINDEX,2013-04-16,478.07001
VNINDEX,2013-04-17,483.98999
VNINDEX,2013-04-18,473.20999
VNINDEX,2013-04-22,468.42999
VNINDEX,2013-04-23,473.69
VNINDEX,2013-04-24,472.89001
VNINDEX,2013-04-25,476.59
VNINDEX,2013-04-26,474.51001
VNINDEX,2013-05-02,473.01999
VNINDEX,2013-05-03,475.23999
VNINDEX,2013-05-06,488.32001
VNINDEX,2013-05-07,485.57999
VNINDEX,2013-05-08,485.07001
VNINDEX,2013-05-09,486.22
VNINDEX,2013-05-10,486.10001
VNINDEX,2013-05-13,488.92999
VNINDEX,2013-05-14,483.85001
VNINDEX,2013-05-15,485.97
VNINDEX,2013-05-16,490.34
VNINDEX,2013-05-17,487.60001
VNINDEX,2013-05-20,492.26999
VNINDEX,2013-05-21,500.17999
VNINDEX,2013-05-22,502.23001
VNINDEX,2013-05-23,498.22
VNINDEX,2013-05-24,500.23999
VNINDEX,2013-05-27,512.40997
VNINDEX,2013-05-28,516.33002
VNINDEX,2013-05-29,515.09003
VNINDEX,2013-05-30,521.45001
VNINDEX,2013-05-31,518.39001
VNINDEX,2013-06-03,517.03003
VNINDEX,2013-06-04,510.69
VNINDEX,2013-06-05,514.64001
VNINDEX,2013-06-06,520.90002
VNINDEX,2013-06-07,527.96997
VNINDEX,2013-06-10,524.56
VNINDEX,2013-06-11,521.95001
VNINDEX,2013-06-12,518.23999
VNINDEX,2013-06-13,515.09003
VNINDEX,2013-06-14,509.03
VNINDEX,2013-06-17,498.51999
VNINDEX,2013-06-18,498.88
VNINDEX,2013-06-19,503.37
VNINDEX,2013-06-20,499.51001
VNINDEX,2013-06-21,498.84
VNINDEX,2013-06-24,489.73999
VNINDEX,2013-06-25,473.01999
VNINDEX,2013-06-26,473.53
VNINDEX,2013-06-27,482.95001
VNINDEX,2013-06-28,481.13
VNINDEX,2013-07-01,480.04001
VNINDEX,2013-07-02,489.84
VNINDEX,2013-07-03,487.35001
VNINDEX,2013-07-04,487.22
VNINDEX,2013-07-05,485.66
VNINDEX,2013-07-08,482.76999
VNINDEX,2013-07-09,485.5
VNINDEX,2013-07-10,484.42999
VNINDEX,2013-07-11,484.47
VNINDEX,2013-07-12,493.98999
VNINDEX,2013-07-15,494.10001
VNINDEX,2013-07-16,496.22
VNINDEX,2013-07-17,497.5
VNINDEX,2013-07-18,496.84
VNINDEX,2013-07-19,503.76001
VNINDEX,2013-07-22,506.16
VNINDEX,2013-07-23,504.29001
VNINDEX,2013-07-24,494.17999
VNINDEX,2013-07-25,491.78
VNINDEX,2013-07-26,493.92999
VNINDEX,2013-07-29,485.69
VNINDEX,2013-07-30,488.54001
VNINDEX,2013-07-31,491.85001
VNINDEX,2013-08-01,492.42999
VNINDEX,2013-08-02,494.66
VNINDEX,2013-08-05,493.66
VNINDEX,2013-08-06,496.56
VNINDEX,2013-08-07,500.10001
VNINDEX,2013-08-08,498.22
VNINDEX,2013-08-09,500.62
VNINDEX,2013-08-12,499.45999
VNINDEX,2013-08-13,497.73001
VNINDEX,2013-08-14,503.57001
VNINDEX,2013-08-15,508.22
VNINDEX,2013-08-16,507.79001
VNINDEX,2013-08-19,511.01999
VNINDEX,2013-08-20,504.81
VNINDEX,2013-08-21,502.70001
VNINDEX,2013-08-22,496.12
VNINDEX,2013-08-23,486.82001
VNINDEX,2013-08-26,490.54001
VNINDEX,2013-08-27,485.57001
VNINDEX,2013-08-28,473.29999
VNINDEX,2013-08-29,468.54999
VNINDEX,2013-08-30,472.70001
VNINDEX,2013-09-03,472.17001
VNINDEX,2013-09-04,471.45001
VNINDEX,2013-09-05,477.57001
VNINDEX,2013-09-06,480.03
VNINDEX,2013-09-09,470.16
VNINDEX,2013-09-10,474.53
VNINDEX,2013-09-11,476.39999
VNINDEX,2013-09-12,475.59
VNINDEX,2013-09-13,476.42001
VNINDEX,2013-09-16,475.57001
VNINDEX,2013-09-17,477.73001
VNINDEX,2013-09-18,474.26001
VNINDEX,2013-09-19,476.09
VNINDEX,2013-09-20,477.19
VNINDEX,2013-09-23,479.09
VNINDEX,2013-09-24,482.82001
VNINDEX,2013-09-25,486.22
VNINDEX,2013-09-26,485.10999
VNINDEX,2013-09-27,486.60999
VNINDEX,2013-09-30,492.63
VNINDEX,2013-10-01,492.23999
VNINDEX,2013-10-02,494.39001
VNINDEX,2013-10-03,492.29999
VNINDEX,2013-10-04,497.5
VNINDEX,2013-10-07,500.47
VNINDEX,2013-10-08,502.22
VNINDEX,2013-10-09,500.67001
VNINDEX,2013-10-10,494.81
VNINDEX,2013-10-11,494.53
VNINDEX,2013-10-14,493.62
VNINDEX,2013-10-15,495.72
VNINDEX,2013-10-16,498.95999
VNINDEX,2013-10-17,499.59
VNINDEX,2013-10-18,500.82999
VNINDEX,2013-10-21,501.57001
VNINDEX,2013-10-22,500.57001
VNINDEX,2013-10-23,504.04999
VNINDEX,2013-10-24,501.17001
VNINDEX,2013-10-25,500.75
VNINDEX,2013-10-28,496.45999
VNINDEX,2013-10-29,497.07999
VNINDEX,2013-10-30,499.07001
VNINDEX,2013-10-31,497.41
VNINDEX,2013-11-01,497.07999
VNINDEX,2013-11-04,497.07001
VNINDEX,2013-11-05,499.79001
VNINDEX,2013-11-06,502.51999
VNINDEX,2013-11-07,499.85999
VNINDEX,2013-11-08,498.60999
VNINDEX,2013-11-11,501.07999
VNINDEX,2013-11-12,497.64999
VNINDEX,2013-11-13,496.12
VNINDEX,2013-11-14,497.85001
VNINDEX,2013-11-15,501.34
VNINDEX,2013-11-18,506.48001
VNINDEX,2013-11-19,504.70999
VNINDEX,2013-11-20,505.51999
VNINDEX,2013-11-21,503.54001
VNINDEX,2013-11-22,505.64001
VNINDEX,2013-11-25,506.45999
VNINDEX,2013-11-26,509.16
VNINDEX,2013-11-27,508.42999
VNINDEX,2013-11-28,507.70999
VNINDEX,2013-11-29,507.78
VNINDEX,2013-12-02,508.53
VNINDEX,2013-12-03,511.62
VNINDEX,2013-12-04,510.88
VNINDEX,2013-12-05,510.03
VNINDEX,2013-12-06,510.12
VNINDEX,2013-12-09,511.23001
VNINDEX,2013-12-10,511.60001
VNINDEX,2013-12-11,505.31
VNINDEX,2013-12-12,506.92001
VNINDEX,2013-12-13,506.06
VNINDEX,2013-12-16,502.04001
VNINDEX,2013-12-17,505.67001
VNINDEX,2013-12-18,505.25
VNINDEX,2013-12-19,506.28
VNINDEX,2013-12-20,504.45001
VNINDEX,2013-12-23,508.67999
VNINDEX,2013-12-24,505.62
VNINDEX,2013-12-25,504.42001
VNINDEX,2013-12-26,506.54999
VNINDEX,2013-12-27,506.41
VNINDEX,2013-12-30,500.35001
VNINDEX,2013-12-31,504.63
VNINDEX,2014-01-02,504.51001
VNINDEX,2014-01-03,505.37
VNINDEX,2014-01-06,509.10001
VNINDEX,2014-01-07,510.12
VNINDEX,2014-01-08,513.90002
VNINDEX,2014-01-09,516.97998
VNINDEX,2014-01-10,518.94
VNINDEX,2014-01-13,521.10999
VNINDEX,2014-01-14,522.31
VNINDEX,2014-01-15,526.67999
VNINDEX,2014-01-16,533.53998
VNINDEX,2014-01-17,543.59003
VNINDEX,2014-01-20,553.66998
VNINDEX,2014-01-21,559.90997
VNINDEX,2014-01-22,551.91998
VNINDEX,2014-01-23,553.54999
VNINDEX,2014-01-24,560.19
VNINDEX,2014-01-27,556.52002
VNINDEX,2014-02-06,554.67999
VNINDEX,2014-02-07,549.76001
VNINDEX,2014-02-10,555.90002
VNINDEX,2014-02-11,553.90002
VNINDEX,2014-02-12,564.25
VNINDEX,2014-02-13,570.17999
VNINDEX,2014-02-14,572.21997
VNINDEX,2014-02-17,570.20001
VNINDEX,2014-02-18,574.56
VNINDEX,2014-02-19,578.12
VNINDEX,2014-02-20,571.03998
VNINDEX,2014-02-21,570.57001
VNINDEX,2014-02-24,576.58002
VNINDEX,2014-02-25,586.20001
VNINDEX,2014-02-26,589.81
VNINDEX,2014-02-27,584.78998
VNINDEX,2014-02-28,586.47998
VNINDEX,2014-03-03,573.38
VNINDEX,2014-03-04,569.96997
VNINDEX,2014-03-05,574.94
VNINDEX,2014-03-06,578.56
VNINDEX,2014-03-07,579.75
VNINDEX,2014-03-10,583.69
VNINDEX,2014-03-11,588.5
VNINDEX,2014-03-12,590.02002
VNINDEX,2014-03-13,595.21997
VNINDEX,2014-03-14,596.83002
VNINDEX,2014-03-17,600.35999
VNINDEX,2014-03-18,599.84998
VNINDEX,2014-03-19,605.59003
VNINDEX,2014-03-20,600.26001
VNINDEX,2014-03-21,601.75
VNINDEX,2014-03-24,607.54999
VNINDEX,2014-03-25,601.84998
VNINDEX,2014-03-26,588.06
VNINDEX,2014-03-27,590.14001
VNINDEX,2014-03-28,594.28998
VNINDEX,2014-03-31,591.57001
VNINDEX,2014-04-01,583.84998
VNINDEX,2014-04-02,581.66998
VNINDEX,2014-04-03,589.44
VNINDEX,2014-04-04,593.03998
VNINDEX,2014-04-07,600.57001
VNINDEX,2014-04-08,603.25
VNINDEX,2014-04-10,601.33002
VNINDEX,2014-04-11,600.57001
VNINDEX,2014-04-14,596.10999
VNINDEX,2014-04-15,586.09003
VNINDEX,2014-04-16,574.28998
VNINDEX,2014-04-17,580.31
VNINDEX,2014-04-18,565.33002
VNINDEX,2014-04-21,558.14001
VNINDEX,2014-04-22,569.87
VNINDEX,2014-04-23,569.35999
VNINDEX,2014-04-24,570.46002
VNINDEX,2014-04-25,578.91998
VNINDEX,2014-04-28,573.09998
VNINDEX,2014-04-29,578.0
VNINDEX,2014-05-05,564.84998
VNINDEX,2014-05-06,555.10999
VNINDEX,2014-05-07,559.96997
VNINDEX,2014-05-08,527.09003
VNINDEX,2014-05-09,542.46002
VNINDEX,2014-05-12,517.04999
VNINDEX,2014-05-13,513.90997
VNINDEX,2014-05-14,529.53003
VNINDEX,2014-05-15,524.04999
VNINDEX,2014-05-16,529.48999
VNINDEX,2014-05-19,533.03998
VNINDEX,2014-05-20,537.52002
VNINDEX,2014-05-21,543.88
