AAM,2014-6-11,00:00:00,0.0,14.4,0.0,0.0,0.0,0
ABT,2014-6-11,00:00:00,0.0,0.0,0.0,0.0,0.0,0
ACC,2014-6-11,00:00:00,32.0,32.1,31.9,32.0,9.5,0
ACL,2014-6-11,00:00:00,9.7,9.7,9.7,9.7,0.6,0
AGF,2014-6-11,00:00:00,0.0,19.0,0.0,0.0,0.0,0
AGM,2014-6-11,00:00:00,0.0,0.0,0.0,0.0,0.0,0
AGR,2014-6-11,00:00:00,6.8,7.0,6.7,6.8,2771.6,0
ALP,2014-6-11,00:00:00,4.3,4.3,0.0,0.0,0.0,0
ANV,2014-6-11,00:00:00,8.8,8.8,8.7,8.8,1.2,0
APC,2014-6-11,00:00:00,0.0,15.3,0.0,15.3,0.1,0
ASM,2014-6-11,00:00:00,9.4,9.6,9.3,9.4,911.8,0
ASP,2014-6-11,00:00:00,6.6,6.7,6.6,6.6,26.4,0
ATA,2014-6-11,00:00:00,5.9,6.1,5.9,5.9,849.9,0
AVF,2014-6-11,00:00:00,4.7,4.8,4.7,4.7,1195.9,0
BBC,2014-6-11,00:00:00,52.0,52.0,50.0,52.0,0.1,0
BCE,2014-6-11,00:00:00,10.0,10.0,9.9,9.9,99.5,0
BCI,2014-6-11,00:00:00,0.0,0.0,0.0,0.0,0.0,0
BGM,2014-6-11,00:00:00,4.2,4.4,4.2,4.2,189.0,0
BHS,2014-6-11,00:00:00,11.9,11.9,0.0,11.9,0.2,0
BIC,2014-6-11,00:00:00,10.7,10.7,0.0,10.7,0.1,0
BID,2014-6-11,00:00:00,14.5,14.6,14.5,14.5,75.8,0
BMC,2014-6-11,00:00:00,29.7,30.0,29.7,29.7,31.0,0
BMI,2014-6-11,00:00:00,13.1,13.4,13.1,13.2,80.8,0
BMP,2014-6-11,00:00:00,69.0,69.0,68.5,69.0,22.6,0
BRC,2014-6-11,00:00:00,9.5,9.5,9.5,9.5,0.1,0
BT6,2014-6-11,00:00:00,0.0,0.0,0.0,0.0,0.0,0
BTP,2014-6-11,00:00:00,12.8,13.0,12.8,12.8,123.4,0
BTT,2014-6-11,00:00:00,0.0,0.0,0.0,0.0,0.0,0
BVH,2014-6-11,00:00:00,39.0,39.5,39.0,39.2,51.0,0
C21,2014-6-11,00:00:00,19.7,19.7,0.0,0.0,0.0,0
C32,2014-6-11,00:00:00,28.3,28.3,28.1,28.2,10.2,0
C47,2014-6-11,00:00:00,0.0,0.0,0.0,0.0,0.0,0
CCI,2014-6-11,00:00:00,0.0,0.0,0.0,0.0,0.0,0
CCL,2014-6-11,00:00:00,5.0,5.1,5.0,5.0,291.5,0
CDC,2014-6-11,00:00:00,6.4,6.4,6.3,6.4,0.1,0
CII,2014-6-11,00:00:00,18.0,18.2,17.9,18.0,844.6,0
CLC,2014-6-11,00:00:00,28.0,28.0,0.0,0.0,0.0,0
CLG,2014-6-11,00:00:00,7.5,7.6,0.0,7.5,1.0,0
CLW,2014-6-11,00:00:00,16.3,16.3,0.0,16.3,38.0,0
CMG,2014-6-11,00:00:00,0.0,5.8,0.0,0.0,0.0,0
CMT,2014-6-11,00:00:00,10.3,10.3,10.3,10.3,0.1,0
CMV,2014-6-11,00:00:00,0.0,0.0,0.0,0.0,0.0,0
CMX,2014-6-11,00:00:00,0.0,4.9,0.0,0.0,0.0,0
CNG,2014-6-11,00:00:00,37.5,38.0,37.2,38.0,2.4,0
COM,2014-6-11,00:00:00,0.0,0.0,0.0,0.0,0.0,0
CSM,2014-6-11,00:00:00,40.7,40.7,40.4,40.7,115.0,0
CTD,2014-6-11,00:00:00,0.0,0.0,0.0,0.0,0.0,0
CTG,2014-6-11,00:00:00,14.5,14.6,14.5,14.5,285.2,0
CTI,2014-6-11,00:00:00,12.0,12.0,0.0,12.0,0.2,0
CYC,2014-6-11,00:00:00,0.0,0.0,0.0,0.0,0.0,0
D2D,2014-6-11,00:00:00,0.0,22.5,0.0,0.0,0.0,0
DAG,2014-6-11,00:00:00,0.0,12.9,0.0,0.0,0.0,0
DCL,2014-6-11,00:00:00,27.1,27.2,26.9,27.0,108.0,0
DCT,2014-6-11,00:00:00,2.9,2.9,2.9,2.9,141.9,0
DHA,2014-6-11,00:00:00,8.9,9.1,0.0,9.1,73.6,0
DHC,2014-6-11,00:00:00,0.0,13.3,0.0,13.3,100.0,0
DHG,2014-6-11,00:00:00,97.0,97.5,96.0,97.0,12.9,0
DHM,2014-6-11,00:00:00,7.0,7.2,7.0,7.0,1305.8,0
DIC,2014-6-11,00:00:00,8.6,8.8,8.6,8.6,189.7,0
DIG,2014-6-11,00:00:00,16.5,16.6,16.0,16.6,235.5,0
DLG,2014-6-11,00:00:00,7.8,7.9,7.8,7.9,895.0,0
DMC,2014-6-11,00:00:00,0.0,38.5,0.0,0.0,0.0,0
DPM,2014-6-11,00:00:00,32.3,32.4,32.1,32.2,686.0,0
DPR,2014-6-11,00:00:00,0.0,39.1,0.0,0.0,0.0,0
DQC,2014-6-11,00:00:00,37.8,37.8,37.8,37.8,0.3,0
DRC,2014-6-11,00:00:00,41.0,43.2,40.6,41.0,182.6,0
DRH,2014-6-11,00:00:00,3.2,3.2,0.0,3.2,70.1,0
DRL,2014-6-11,00:00:00,0.0,29.8,0.0,0.0,0.0,0
DSN,2014-6-11,00:00:00,53.0,54.0,53.0,53.0,34.0,0
DTA,2014-6-11,00:00:00,0.0,0.0,0.0,0.0,0.0,0
DTL,2014-6-11,00:00:00,0.0,9.2,0.0,0.0,0.0,0
DTT,2014-6-11,00:00:00,0.0,0.0,0.0,0.0,0.0,0
DVP,2014-6-11,00:00:00,38.9,40.9,38.9,40.9,0.1,0
DXG,2014-6-11,00:00:00,14.5,14.7,14.4,14.4,30.5,0
DXV,2014-6-11,00:00:00,4.2,4.3,4.2,4.2,49.0,0
EIB,2014-6-11,00:00:00,13.6,13.7,13.5,13.6,296.6,0
ELC,2014-6-11,00:00:00,15.9,15.9,15.9,15.9,30.9,0
EMC,2014-6-11,00:00:00,4.5,4.5,4.5,4.5,0.1,0
EVE,2014-6-11,00:00:00,0.0,0.0,0.0,0.0,0.0,0
FCM,2014-6-11,00:00:00,12.7,13.0,12.7,12.7,451.0,0
FCN,2014-6-11,00:00:00,22.8,23.7,22.7,22.7,98.2,0
FDC,2014-6-11,00:00:00,18.4,18.7,18.4,18.4,1.4,0
FLC,2014-6-11,00:00:00,10.5,10.8,10.4,10.5,26969.1,0
FMC,2014-6-11,00:00:00,14.8,15.0,0.0,0.0,0.0,0
FPT,2014-6-11,00:00:00,45.2,45.6,45.1,45.1,733.2,0
GAS,2014-6-11,00:00:00,106.0,108.0,106.0,106.0,681.0,0
GDT,2014-6-11,00:00:00,27.0,27.2,27.0,27.0,1.0,0
GIL,2014-6-11,00:00:00,0.0,22.7,0.0,0.0,0.0,0
GMC,2014-6-11,00:00:00,0.0,0.0,0.0,0.0,0.0,0
GMD,2014-6-11,00:00:00,32.8,33.4,32.8,33.0,124.7,0
GSP,2014-6-11,00:00:00,11.1,11.2,10.9,11.1,14.2,0
GTA,2014-6-11,00:00:00,11.0,11.0,11.0,11.0,0.1,0
GTT,2014-6-11,00:00:00,4.7,4.8,4.7,4.7,607.0,0
HAG,2014-6-11,00:00:00,24.4,24.6,24.3,24.4,2070.7,0
HAP,2014-6-11,00:00:00,8.3,8.3,8.0,8.3,743.2,0
HAR,2014-6-11,00:00:00,9.0,9.3,8.8,9.0,4220.6,0
HAS,2014-6-11,00:00:00,0.0,0.0,0.0,0.0,0.0,0
HBC,2014-6-11,00:00:00,16.0,16.2,15.8,15.8,204.6,0
HCM,2014-6-11,00:00:00,32.9,34.2,32.6,32.9,1949.4,0
HDC,2014-6-11,00:00:00,23.2,23.2,23.2,23.2,0.5,0
HDG,2014-6-11,00:00:00,28.0,28.5,0.0,28.0,141.3,0
HHS,2014-6-11,00:00:00,30.1,30.1,30.1,30.1,343.4,0
HLA,2014-6-11,00:00:00,2.5,2.5,2.4,2.5,154.5,0
HLG,2014-6-11,00:00:00,5.3,5.3,5.3,5.3,0.1,0
HMC,2014-6-11,00:00:00,9.5,10.0,9.5,10.0,0.2,0
HOT,2014-6-11,00:00:00,0.0,0.0,0.0,0.0,0.0,0
HPG,2014-6-11,00:00:00,49.4,49.9,49.4,49.5,794.0,0
HQC,2014-6-11,00:00:00,7.0,7.1,6.9,6.9,4463.2,0
HRC,2014-6-11,00:00:00,0.0,0.0,0.0,0.0,0.0,0
HSG,2014-6-11,00:00:00,43.4,43.5,43.0,43.4,53.4,0
HSI,2014-6-11,00:00:00,2.8,3.0,2.8,3.0,6.1,0
HT1,2014-6-11,00:00:00,13.5,13.8,13.3,13.5,5788.5,0
HTI,2014-6-11,00:00:00,8.9,8.9,8.9,8.9,75.2,0
HTV,2014-6-11,00:00:00,0.0,0.0,0.0,0.0,0.0,0
HU1,2014-6-11,00:00:00,7.5,7.5,7.5,7.5,0.1,0
HU3,2014-6-11,00:00:00,8.8,8.8,0.0,0.0,0.0,0
HVG,2014-6-11,00:00:00,24.8,24.9,24.7,24.9,162.7,0
HVX,2014-6-11,00:00:00,0.0,0.0,0.0,0.0,0.0,0
ICF,2014-6-11,00:00:00,4.8,4.8,4.8,4.8,54.3,0
IDI,2014-6-11,00:00:00,12.3,12.5,12.3,12.3,255.9,0
IJC,2014-6-11,00:00:00,12.4,12.5,12.3,12.4,1623.1,0
IMP,2014-6-11,00:00:00,52.5,53.5,52.5,52.5,0.5,0
ITA,2014-6-11,00:00:00,7.9,8.1,7.9,7.9,2636.1,0
ITC,2014-6-11,00:00:00,7.3,7.5,7.3,7.4,204.7,0
ITD,2014-6-11,00:00:00,6.4,6.5,0.0,6.4,24.6,0
JVC,2014-6-11,00:00:00,14.0,14.3,14.0,14.0,169.1,0
KBC,2014-6-11,00:00:00,10.6,10.8,10.5,10.6,573.0,0
KDC,2014-6-11,00:00:00,58.5,59.0,58.0,58.0,7.1,0
KDH,2014-6-11,00:00:00,16.5,16.6,16.3,16.5,72.2,0
KHA,2014-6-11,00:00:00,0.0,0.0,0.0,0.0,0.0,0
KHP,2014-6-11,00:00:00,13.8,13.9,13.8,13.9,2.0,0
KMR,2014-6-11,00:00:00,6.1,6.1,6.0,6.1,166.1,0
KSA,2014-6-11,00:00:00,7.6,7.7,7.5,7.6,793.4,0
KSB,2014-6-11,00:00:00,25.3,25.3,25.3,25.3,10.0,0
KSH,2014-6-11,00:00:00,5.4,5.5,5.4,5.4,59.0,0
KSS,2014-6-11,00:00:00,5.5,5.7,5.5,5.5,5756.7,0
KTB,2014-6-11,00:00:00,6.8,6.8,0.0,6.8,1352.5,0
L10,2014-6-11,00:00:00,13.0,13.0,13.0,13.0,0.1,0
LAF,2014-6-11,00:00:00,10.6,10.9,10.5,10.6,143.3,0
LBM,2014-6-11,00:00:00,0.0,0.0,0.0,0.0,0.0,0
LCG,2014-6-11,00:00:00,6.6,6.7,6.5,6.6,1517.8,0
LCM,2014-6-11,00:00:00,6.1,6.1,6.0,6.1,273.0,0
LGC,2014-6-11,00:00:00,0.0,19.0,0.0,19.0,0.1,0
LGL,2014-6-11,00:00:00,0.0,4.4,0.0,4.4,1.0,0
LHG,2014-6-11,00:00:00,9.6,9.6,0.0,0.0,0.0,0
LIX,2014-6-11,00:00:00,0.0,0.0,0.0,0.0,0.0,0
LM8,2014-6-11,00:00:00,22.5,22.5,22.5,22.5,0.1,0
LSS,2014-6-11,00:00:00,10.8,10.8,0.0,0.0,0.0,0
MBB,2014-6-11,00:00:00,13.5,13.7,13.5,13.5,3249.1,0
MCG,2014-6-11,00:00:00,6.4,6.6,6.3,6.4,2138.8,0
MDG,2014-6-11,00:00:00,5.3,5.3,5.3,5.3,167.6,0
MHC,2014-6-11,00:00:00,11.4,11.8,11.3,11.4,991.8,0
MPC,2014-6-11,00:00:00,35.8,36.0,35.8,35.8,110.1,0
MSN,2014-6-11,00:00:00,98.5,99.5,98.5,98.5,54.2,0
MTG,2014-6-11,00:00:00,4.6,4.8,4.5,4.6,47.6,0
NAV,2014-6-11,00:00:00,0.0,0.0,0.0,0.0,0.0,0
NBB,2014-6-11,00:00:00,23.6,23.6,23.6,23.6,1544.3,0
NHS,2014-6-11,00:00:00,11.6,11.6,11.4,11.4,125.0,0
NKG,2014-6-11,00:00:00,0.0,0.0,0.0,0.0,0.0,0
NLG,2014-6-11,00:00:00,0.0,0.0,0.0,0.0,0.0,0
NNC,2014-6-11,00:00:00,52.0,52.0,52.0,52.0,355.0,0
NSC,2014-6-11,00:00:00,0.0,0.0,0.0,0.0,0.0,0
NTL,2014-6-11,00:00:00,14.2,14.3,14.1,14.2,208.7,0
NVN,2014-6-11,00:00:00,0.0,0.0,0.0,0.0,0.0,0
NVT,2014-6-11,00:00:00,0.0,6.6,0.0,0.0,0.0,0
OGC,2014-6-11,00:00:00,10.7,11.0,10.5,10.7,4244.1,0
OPC,2014-6-11,00:00:00,0.0,0.0,0.0,0.0,0.0,0
PAC,2014-6-11,00:00:00,21.0,21.0,0.0,0.0,0.0,0
PDR,2014-6-11,00:00:00,12.9,12.9,12.9,12.9,2.2,0
PET,2014-6-11,00:00:00,14.9,15.1,14.9,15.0,81.9,0
PGC,2014-6-11,00:00:00,11.7,12.3,11.7,11.7,223.6,0
PGD,2014-6-11,00:00:00,0.0,0.0,0.0,0.0,0.0,0
PGI,2014-6-11,00:00:00,8.9,8.9,8.9,8.9,0.1,0
PIT,2014-6-11,00:00:00,8.5,8.5,8.5,8.5,2.0,0
PJT,2014-6-11,00:00:00,8.5,8.5,8.5,8.5,5.0,0
PNC,2014-6-11,00:00:00,7.0,7.0,6.6,7.0,0.8,0
PNJ,2014-6-11,00:00:00,0.0,0.0,0.0,0.0,0.0,0
POM,2014-6-11,00:00:00,13.0,13.3,13.0,13.3,8.2,0
PPC,2014-6-11,00:00:00,20.5,20.9,20.5,20.5,203.8,0
PPI,2014-6-11,00:00:00,9.2,9.7,9.2,9.7,356.1,0
PTB,2014-6-11,00:00:00,40.8,40.8,0.0,0.0,0.0,0
PTC,2014-6-11,00:00:00,5.7,5.7,5.7,5.7,235.9,0
PTK,2014-6-11,00:00:00,4.4,4.5,4.4,4.5,489.6,0
PTL,2014-6-11,00:00:00,2.9,3.0,2.9,2.9,2567.0,0
PVD,2014-6-11,00:00:00,82.5,83.0,82.5,83.0,119.9,0
PVT,2014-6-11,00:00:00,13.3,13.4,13.2,13.3,490.2,0
PXI,2014-6-11,00:00:00,4.8,5.1,4.8,4.8,206.5,0
PXL,2014-6-11,00:00:00,3.8,3.9,3.7,3.8,1011.4,0
PXS,2014-6-11,00:00:00,17.6,18.0,17.5,17.9,113.0,0
PXT,2014-6-11,00:00:00,3.5,3.5,0.0,0.0,0.0,0
QCG,2014-6-11,00:00:00,0.0,8.7,0.0,0.0,0.0,0
RAL,2014-6-11,00:00:00,43.0,43.0,43.0,43.0,1.4,0
RDP,2014-6-11,00:00:00,15.0,15.0,15.0,15.0,0.1,0
REE,2014-6-11,00:00:00,24.7,25.1,24.7,24.7,544.0,0
RIC,2014-6-11,00:00:00,0.0,0.0,0.0,0.0,0.0,0
SAM,2014-6-11,00:00:00,8.7,8.9,8.7,8.7,1407.6,0
SAV,2014-6-11,00:00:00,14.0,14.9,14.0,14.0,1.9,0
SBA,2014-6-11,00:00:00,9.7,9.7,9.7,9.7,1.5,0
SBC,2014-6-11,00:00:00,10.0,10.0,10.0,10.0,15.1,0
SBT,2014-6-11,00:00:00,12.0,12.0,11.9,12.0,392.4,0
SC5,2014-6-11,00:00:00,26.0,26.0,26.0,26.0,0.1,0
SCD,2014-6-11,00:00:00,0.0,0.0,0.0,0.0,0.0,0
SEC,2014-6-11,00:00:00,0.0,0.0,0.0,0.0,0.0,0
SFC,2014-6-11,00:00:00,21.5,21.5,0.0,0.0,0.0,0
SFI,2014-6-11,00:00:00,29.9,29.9,29.9,29.9,0.1,0
SHI,2014-6-11,00:00:00,5.5,5.5,5.4,5.5,41.0,0
SJD,2014-6-11,00:00:00,0.0,0.0,0.0,0.0,0.0,0
SJS,2014-6-11,00:00:00,18.8,18.8,18.6,18.8,13.0,0
SMA,2014-6-11,00:00:00,5.0,5.0,0.0,0.0,0.0,0
SMC,2014-6-11,00:00:00,0.0,9.4,0.0,9.4,0.5,0
SPM,2014-6-11,00:00:00,0.0,0.0,0.0,0.0,0.0,0
SRC,2014-6-11,00:00:00,19.0,19.3,19.0,19.0,42.5,0
SRF,2014-6-11,00:00:00,0.0,0.0,0.0,0.0,0.0,0
SSC,2014-6-11,00:00:00,60.0,60.0,60.0,60.0,38.9,0
SSI,2014-6-11,00:00:00,24.8,25.3,24.5,24.8,8120.8,0
ST8,2014-6-11,00:00:00,19.5,19.5,19.5,19.5,19.4,0
STB,2014-6-11,00:00:00,20.2,20.3,20.1,20.1,1335.7,0
STT,2014-6-11,00:00:00,3.2,3.2,3.2,3.2,0.1,0
SVC,2014-6-11,00:00:00,14.5,14.5,14.5,14.5,45.0,0
SZL,2014-6-11,00:00:00,15.4,15.5,15.4,15.4,19.4,0
TAC,2014-6-11,00:00:00,44.0,44.0,44.0,44.0,0.1,0
TBC,2014-6-11,00:00:00,19.4,19.4,19.4,19.4,20.0,0
TCL,2014-6-11,00:00:00,22.6,22.6,0.0,22.6,0.3,0
TCM,2014-6-11,00:00:00,24.5,25.4,24.2,24.5,766.3,0
TCO,2014-6-11,00:00:00,11.5,11.5,0.0,0.0,0.0,0
TDC,2014-6-11,00:00:00,9.2,9.4,0.0,9.2,210.8,0
TDH,2014-6-11,00:00:00,15.0,15.5,0.0,0.0,0.0,0
TIE,2014-6-11,00:00:00,0.0,14.5,0.0,0.0,0.0,0
TIX,2014-6-11,00:00:00,0.0,0.0,0.0,0.0,0.0,0
TLG,2014-6-11,00:00:00,44.6,44.6,41.7,44.6,1.3,0
TLH,2014-6-11,00:00:00,7.9,8.1,7.9,7.9,1690.1,0
TMT,2014-6-11,00:00:00,0.0,0.0,0.0,0.0,0.0,0
TNC,2014-6-11,00:00:00,10.8,10.8,10.7,10.8,0.1,0
TNT,2014-6-11,00:00:00,2.7,2.8,2.7,2.7,261.9,0
TPC,2014-6-11,00:00:00,10.5,10.5,10.5,10.5,20.0,0
TRA,2014-6-11,00:00:00,80.0,82.0,80.0,82.0,0.1,0
TRC,2014-6-11,00:00:00,35.0,35.0,35.0,35.0,30.0,0
TS4,2014-6-11,00:00:00,8.8,8.8,8.8,8.8,34.3,0
TSC,2014-6-11,00:00:00,26.6,26.6,25.0,26.6,2556.2,0
TTF,2014-6-11,00:00:00,9.3,9.4,9.3,9.3,833.2,0
TV1,2014-6-11,00:00:00,0.0,0.0,0.0,0.0,0.0,0
TYA,2014-6-11,00:00:00,6.9,6.9,6.5,6.9,0.2,0
UDC,2014-6-11,00:00:00,5.5,5.6,5.4,5.4,10.2,0
UIC,2014-6-11,00:00:00,0.0,0.0,0.0,0.0,0.0,0
VCB,2014-6-11,00:00:00,28.9,28.9,28.7,28.9,415.6,0
VCF,2014-6-11,00:00:00,0.0,0.0,0.0,0.0,0.0,0
VHC,2014-6-11,00:00:00,30.0,30.0,29.9,30.0,95.1,0
VHG,2014-6-11,00:00:00,8.5,8.8,8.4,8.5,2119.3,0
VIC,2014-6-11,00:00:00,65.5,66.0,65.5,65.5,38.7,0
VID,2014-6-11,00:00:00,3.9,3.9,3.9,3.9,113.6,0
VIP,2014-6-11,00:00:00,9.3,9.4,9.2,9.3,171.3,0
VIS,2014-6-11,00:00:00,7.5,7.5,0.0,7.4,30.0,0
VMD,2014-6-11,00:00:00,16.4,16.4,16.4,16.4,0.3,0
VNA,2014-6-11,00:00:00,2.9,2.9,2.9,2.9,29.5,0
VNE,2014-6-11,00:00:00,5.8,5.8,5.7,5.8,211.9,0
VNH,2014-6-11,00:00:00,3.9,3.9,3.8,3.8,162.9,0
VNI,2014-6-11,00:00:00,3.6,3.6,3.6,3.6,5.3,0
VNM,2014-6-11,00:00:00,122.0,123.0,122.0,123.0,202.8,0
VNS,2014-6-11,00:00:00,45.0,45.0,45.0,45.0,22.0,0
VOS,2014-6-11,00:00:00,3.7,3.7,3.5,3.7,0.1,0
VPH,2014-6-11,00:00:00,8.1,8.3,8.1,8.1,170.1,0
VPK,2014-6-11,00:00:00,22.0,22.0,0.0,0.0,0.0,0
VRC,2014-6-11,00:00:00,5.3,5.4,5.3,5.4,68.5,0
VSC,2014-6-11,00:00:00,60.0,60.0,58.5,60.0,84.0,0
VSH,2014-6-11,00:00:00,15.9,16.0,0.0,16.0,0.1,0
VST,2014-6-11,00:00:00,2.6,2.6,0.0,0.0,0.0,0
VTO,2014-6-11,00:00:00,6.3,6.4,6.3,6.3,175.0,0
