AGC,2009-01-05,17100.0
AGC,2009-01-06,16300.0
AGC,2009-01-07,15400.0
AGC,2009-01-08,15900.0
AGC,2009-01-09,15900.0
AGC,2009-01-12,17000.0
AGC,2009-01-13,17300.0
AGC,2009-01-14,16100.0
AGC,2009-01-15,15100.0
AGC,2009-01-16,15500.0
AGC,2009-01-19,14300.0
AGC,2009-01-20,15200.0
AGC,2009-01-21,14300.0
AGC,2009-01-22,14800.0
AGC,2009-01-23,14500.0
AGC,2009-02-02,14200.0
AGC,2009-02-03,13400.0
AGC,2009-02-04,12900.0
AGC,2009-02-05,12300.0
AGC,2009-02-06,13100.0
AGC,2009-02-09,13000.0
AGC,2009-02-10,12700.0
AGC,2009-02-11,12100.0
AGC,2009-02-12,12100.0
AGC,2009-02-13,12100.0
AGC,2009-02-16,11800.0
AGC,2009-02-17,11100.0
AGC,2009-02-18,10900.0
AGC,2009-02-19,11200.0
AGC,2009-02-20,10900.0
AGC,2009-02-23,10100.0
AGC,2009-02-24,9400.0
AGC,2009-02-25,9700.0
AGC,2009-02-26,9900.0
AGC,2009-02-27,9800.0
AGC,2009-03-02,9300.0
AGC,2009-03-03,9800.0
AGC,2009-03-04,9500.0
AGC,2009-03-05,9300.0
AGC,2009-03-06,8900.0
AGC,2009-03-09,9100.0
AGC,2009-03-10,9800.0
AGC,2009-03-11,10300.0
AGC,2009-03-12,10300.0
AGC,2009-03-13,10200.0
AGC,2009-03-16,10800.0
AGC,2009-03-17,11400.0
AGC,2009-03-18,12100.0
AGC,2009-03-19,11300.0
AGC,2009-03-20,11300.0
AGC,2009-03-23,11200.0
AGC,2009-03-24,11400.0
AGC,2009-03-25,11600.0
AGC,2009-03-26,11500.0
AGC,2009-03-27,10800.0
AGC,2009-03-30,10400.0
AGC,2009-03-31,10400.0
AGC,2009-04-01,10800.0
AGC,2009-04-02,10800.0
AGC,2009-04-03,11500.0
AGC,2009-04-07,12300.0
AGC,2009-04-08,11200.0
AGC,2009-04-09,11400.0
AGC,2009-04-10,11800.0
AGC,2009-04-13,12600.0
AGC,2009-04-14,12000.0
AGC,2009-04-15,11800.0
AGC,2009-04-16,11000.0
AGC,2009-04-17,10400.0
AGC,2009-04-20,9800.0
AGC,2009-04-21,10500.0
AGC,2009-04-22,10500.0
AGC,2009-04-23,11000.0
AGC,2009-04-24,10200.0
AGC,2009-04-27,10400.0
AGC,2009-04-28,10600.0
AGC,2009-04-29,10600.0
AGC,2009-05-04,11000.0
AGC,2009-05-05,11300.0
AGC,2009-05-06,10800.0
AGC,2009-05-07,11000.0
AGC,2009-05-08,10400.0
AGC,2009-05-11,10100.0
AGC,2009-05-12,10500.0
AGC,2009-05-13,10500.0
AGC,2009-05-14,10200.0
AGC,2009-05-15,10200.0
AGC,2009-05-18,10500.0
AGC,2009-05-19,11100.0
AGC,2009-05-20,11800.0
AGC,2009-05-21,12600.0
AGC,2009-05-22,12500.0
AGC,2009-05-25,13000.0
AGC,2009-05-26,12500.0
AGC,2009-05-27,12600.0
AGC,2009-05-28,12200.0
AGC,2009-05-29,12400.0
AGC,2009-06-01,13000.0
AGC,2009-06-02,13400.0
AGC,2009-06-03,14500.0
AGC,2009-06-04,15000.0
AGC,2009-06-05,16000.0
AGC,2009-06-08,17100.0
AGC,2009-06-09,18100.0
AGC,2009-06-10,16900.0
AGC,2009-06-11,17400.0
AGC,2009-06-12,16100.0
AGC,2009-06-15,15100.0
AGC,2009-06-16,14100.0
AGC,2009-06-17,14500.0
AGC,2009-06-18,14200.0
AGC,2009-06-19,14200.0
AGC,2009-06-22,13400.0
AGC,2009-06-23,12500.0
AGC,2009-06-24,13300.0
AGC,2009-06-25,13000.0
AGC,2009-06-26,12900.0
AGC,2009-06-29,12500.0
AGC,2009-06-30,11900.0
AGC,2009-07-01,11600.0
AGC,2009-07-02,11900.0
AGC,2009-07-03,12000.0
AGC,2009-07-06,12600.0
AGC,2009-07-07,12800.0
AGC,2009-07-08,12100.0
AGC,2009-07-09,11500.0
AGC,2009-07-10,11600.0
AGC,2009-07-13,11000.0
AGC,2009-07-14,11200.0
AGC,2009-07-15,11600.0
AGC,2009-07-16,11700.0
AGC,2009-07-17,11700.0
AGC,2009-07-20,11200.0
AGC,2009-07-21,11100.0
AGC,2009-07-22,11200.0
AGC,2009-07-23,11800.0
AGC,2009-07-24,12300.0
AGC,2009-07-27,12200.0
AGC,2009-07-28,11500.0
AGC,2009-07-29,11500.0
AGC,2009-07-30,11200.0
AGC,2009-07-31,11200.0
AGC,2009-08-03,10700.0
AGC,2009-08-04,11300.0
AGC,2009-08-05,11300.0
AGC,2009-08-06,11100.0
AGC,2009-08-07,10800.0
AGC,2009-08-10,10800.0
AGC,2009-08-11,10900.0
AGC,2009-08-12,11000.0
AGC,2009-08-13,10900.0
AGC,2009-08-14,10800.0
AGC,2009-08-17,10700.0
AGC,2009-08-18,10800.0
AGC,2009-08-19,11000.0
AGC,2009-08-20,10900.0
AGC,2009-08-21,11200.0
AGC,2009-08-24,11300.0
AGC,2009-08-25,11100.0
AGC,2009-08-26,11000.0
AGC,2009-08-27,11300.0
AGC,2009-08-28,11800.0
AGC,2009-08-31,12500.0
AGC,2009-09-01,13300.0
AGC,2009-09-03,14200.0
AGC,2009-09-04,15100.0
AGC,2009-09-07,14500.0
AGC,2009-09-08,14600.0
AGC,2009-09-09,14000.0
AGC,2009-09-10,13900.0
AGC,2009-09-11,13900.0
AGC,2009-09-14,13900.0
AGC,2009-09-15,14600.0
AGC,2009-09-16,14400.0
AGC,2009-09-17,14000.0
AGC,2009-09-18,14000.0
AGC,2009-09-21,14000.0
AGC,2009-09-22,13600.0
AGC,2009-09-23,13300.0
AGC,2009-09-24,13400.0
AGC,2009-09-25,13300.0
AGC,2009-09-28,14000.0
AGC,2009-09-29,14400.0
AGC,2009-09-30,14500.0
AGC,2009-10-01,13700.0
AGC,2009-10-02,13400.0
AGC,2009-10-05,13600.0
AGC,2009-10-06,13500.0
AGC,2009-10-07,13400.0
AGC,2009-10-08,13400.0
AGC,2009-10-09,13400.0
AGC,2009-10-12,13500.0
AGC,2009-10-13,13700.0
AGC,2009-10-14,14000.0
AGC,2009-10-15,14700.0
AGC,2009-10-16,15700.0
AGC,2009-10-19,16700.0
AGC,2009-10-20,17800.0
AGC,2009-10-21,19000.0
AGC,2009-10-22,20300.0
AGC,2009-10-23,20300.0
AGC,2009-10-26,19900.0
AGC,2009-10-27,18800.0
AGC,2009-10-28,17500.0
AGC,2009-10-29,16400.0
AGC,2009-10-30,17500.0
AGC,2009-11-02,16000.0
AGC,2009-11-03,15000.0
AGC,2009-11-04,14200.0
AGC,2009-11-05,15100.0
AGC,2009-11-06,15600.0
AGC,2009-11-09,14700.0
AGC,2009-11-10,14200.0
AGC,2009-11-11,15200.0
AGC,2009-11-12,14900.0
AGC,2009-11-13,14800.0
AGC,2009-11-16,14700.0
AGC,2009-11-17,14200.0
AGC,2009-11-18,14900.0
AGC,2009-11-19,14600.0
AGC,2009-11-20,14500.0
AGC,2009-11-23,13900.0
AGC,2009-11-24,13500.0
AGC,2009-11-25,12700.0
AGC,2009-11-26,12000.0
AGC,2009-11-27,12200.0
AGC,2009-11-30,12800.0
AGC,2009-12-01,13400.0
AGC,2009-12-02,12600.0
AGC,2009-12-03,12900.0
AGC,2009-12-04,13000.0
AGC,2009-12-07,12900.0
AGC,2009-12-08,12600.0
AGC,2009-12-09,11900.0
AGC,2009-12-10,11400.0
AGC,2009-12-11,10700.0
AGC,2009-12-14,11600.0
AGC,2009-12-15,11100.0
AGC,2009-12-16,10700.0
AGC,2009-12-17,10200.0
AGC,2009-12-18,10900.0
AGC,2009-12-21,11500.0
AGC,2009-12-22,11400.0
AGC,2009-12-23,11900.0
AGC,2009-12-24,12300.0
AGC,2009-12-25,12800.0
AGC,2009-12-28,12400.0
AGC,2009-12-29,12000.0
AGC,2009-12-30,12300.0
AGC,2009-12-31,12000.0
AGC,2010-01-04,12800.0
AGC,2010-01-05,13500.0
AGC,2010-01-06,14400.0
AGC,2010-01-07,15000.0
AGC,2010-01-08,14200.0
AGC,2010-01-11,14300.0
AGC,2010-01-12,12900.0
AGC,2010-01-13,13700.0
AGC,2010-01-14,13400.0
AGC,2010-01-15,13700.0
AGC,2010-01-18,12200.0
AGC,2010-01-19,12700.0
AGC,2010-01-20,12300.0
AGC,2010-01-21,12200.0
AGC,2010-01-22,12300.0
AGC,2010-01-25,12000.0
AGC,2010-01-26,12800.0
AGC,2010-01-27,12700.0
AGC,2010-01-28,12100.0
AGC,2010-01-29,12300.0
AGC,2010-02-01,12600.0
AGC,2010-02-02,12100.0
AGC,2010-02-03,12000.0
AGC,2010-02-04,12300.0
AGC,2010-02-05,12000.0
AGC,2010-02-08,11500.0
AGC,2010-02-09,11200.0
AGC,2010-02-10,11700.0
AGC,2010-02-11,12200.0
AGC,2010-02-12,12100.0
AGC,2010-02-22,12300.0
AGC,2010-02-23,12600.0
AGC,2010-02-24,12300.0
AGC,2010-02-25,12400.0
AGC,2010-02-26,12000.0
AGC,2010-03-01,12000.0
AGC,2010-03-02,12000.0
AGC,2010-03-03,12000.0
AGC,2010-03-04,11900.0
AGC,2010-03-05,12000.0
AGC,2010-03-08,12400.0
AGC,2010-03-09,12000.0
AGC,2010-03-10,12000.0
AGC,2010-03-11,12300.0
AGC,2010-03-12,13100.0
AGC,2010-03-15,13000.0
AGC,2010-03-16,12400.0
AGC,2010-03-17,12000.0
AGC,2010-03-18,12300.0
AGC,2010-03-19,11800.0
AGC,2010-03-22,12000.0
AGC,2010-03-23,12500.0
AGC,2010-03-24,12500.0
AGC,2010-03-25,12300.0
AGC,2010-03-26,12300.0
AGC,2010-03-29,12000.0
AGC,2010-03-30,12000.0
AGC,2010-03-31,11800.0
AGC,2010-04-01,12000.0
AGC,2010-04-02,12100.0
AGC,2010-04-05,12300.0
AGC,2010-04-06,12000.0
AGC,2010-04-07,12000.0
AGC,2010-04-08,12300.0
AGC,2010-04-09,12300.0
AGC,2010-04-12,13000.0
AGC,2010-04-13,13500.0
AGC,2010-04-14,13000.0
AGC,2010-04-15,13800.0
AGC,2010-04-16,14500.0
AGC,2010-04-19,15500.0
AGC,2010-04-20,15300.0
AGC,2010-04-21,16500.0
AGC,2010-04-22,14700.0
AGC,2010-04-26,14000.0
AGC,2010-04-27,15000.0
AGC,2010-04-28,14900.0
AGC,2010-04-29,14400.0
AGC,2010-05-04,14300.0
AGC,2010-05-05,14300.0
AGC,2010-05-06,15000.0
AGC,2010-05-07,14500.0
AGC,2010-05-10,14000.0
AGC,2010-05-11,14200.0
AGC,2010-05-12,13300.0
AGC,2010-05-13,13600.0
AGC,2010-05-14,13400.0
AGC,2010-05-17,13000.0
AGC,2010-05-18,12500.0
AGC,2010-05-19,11700.0
AGC,2010-05-20,12600.0
AGC,2010-05-21,11500.0
AGC,2010-05-24,12300.0
AGC,2010-05-25,13000.0
AGC,2010-05-26,13800.0
AGC,2010-05-27,13300.0
AGC,2010-05-28,13900.0
AGC,2010-05-31,13200.0
AGC,2010-06-01,12800.0
AGC,2010-06-02,13200.0
AGC,2010-06-03,12400.0
AGC,2010-06-04,12600.0
AGC,2010-06-07,12100.0
AGC,2010-06-08,12900.0
AGC,2010-06-09,12700.0
AGC,2010-06-10,13000.0
AGC,2010-06-11,13000.0
AGC,2010-06-14,13200.0
AGC,2010-06-15,13000.0
AGC,2010-06-16,13100.0
AGC,2010-06-17,12800.0
AGC,2010-06-18,13300.0
AGC,2010-06-21,14000.0
AGC,2010-06-22,14100.0
AGC,2010-06-23,14400.0
AGC,2010-06-24,14200.0
AGC,2010-06-25,13900.0
AGC,2010-06-28,14700.0
AGC,2010-06-29,15700.0
AGC,2010-06-30,16700.0
AGC,2010-07-01,17800.0
AGC,2010-07-02,19000.0
AGC,2010-07-05,20300.0
AGC,2010-07-06,21700.0
AGC,2010-07-07,23200.0
AGC,2010-07-08,24800.0
AGC,2010-07-09,24400.0
AGC,2010-07-12,25700.0
AGC,2010-07-13,27200.0
AGC,2010-07-14,28500.0
AGC,2010-07-15,27000.0
AGC,2010-07-16,28800.0
AGC,2010-07-19,30300.0
AGC,2010-07-20,30100.0
AGC,2010-07-21,28500.0
AGC,2010-07-22,26700.0
AGC,2010-07-23,25600.0
AGC,2010-07-26,25800.0
AGC,2010-07-27,25000.0
AGC,2010-07-28,25200.0
AGC,2010-07-29,25200.0
AGC,2010-07-30,24300.0
AGC,2010-08-02,26100.0
AGC,2010-08-03,25800.0
AGC,2010-08-04,24700.0
AGC,2010-08-05,24000.0
AGC,2010-08-06,22900.0
AGC,2010-08-09,21600.0
AGC,2010-08-10,21500.0
AGC,2010-08-11,20900.0
AGC,2010-08-12,20300.0
AGC,2010-08-13,19800.0
AGC,2010-08-16,20700.0
AGC,2010-08-17,19200.0
AGC,2010-08-18,20900.0
AGC,2010-08-19,21000.0
AGC,2010-08-20,20900.0
AGC,2010-08-23,20000.0
AGC,2010-08-24,19200.0
AGC,2010-08-25,17900.0
AGC,2010-08-26,19100.0
AGC,2010-08-27,19100.0
AGC,2010-08-30,21000.0
AGC,2010-08-31,20200.0
AGC,2010-09-01,22100.0
AGC,2010-09-06,21500.0
AGC,2010-09-07,23000.0
AGC,2010-09-08,24600.0
AGC,2010-09-09,24300.0
AGC,2010-09-10,23300.0
AGC,2010-09-13,21800.0
AGC,2010-09-14,21700.0
AGC,2010-09-15,21500.0
AGC,2010-09-16,22200.0
AGC,2010-09-17,23300.0
AGC,2010-09-20,23100.0
AGC,2010-09-21,22000.0
AGC,2010-09-22,21200.0
AGC,2010-09-23,20700.0
AGC,2010-09-24,21800.0
AGC,2010-09-27,22300.0
AGC,2010-09-28,21900.0
AGC,2010-09-29,21200.0
AGC,2010-09-30,21000.0
AGC,2010-10-01,20800.0
AGC,2010-10-04,19500.0
AGC,2010-10-05,19900.0
AGC,2010-10-06,20000.0
AGC,2010-10-07,19100.0
AGC,2010-10-08,18500.0
AGC,2010-10-11,18000.0
AGC,2010-10-12,17300.0
AGC,2010-10-13,17600.0
AGC,2010-10-14,17600.0
AGC,2010-10-15,17800.0
AGC,2010-10-18,17500.0
AGC,2010-10-19,16700.0
AGC,2010-10-20,15400.0
AGC,2010-10-21,15100.0
AGC,2010-10-22,15000.0
AGC,2010-10-25,15000.0
AGC,2010-10-26,15500.0
AGC,2010-10-27,15200.0
AGC,2010-10-28,15200.0
AGC,2010-10-29,15400.0
AGC,2010-11-01,14900.0
AGC,2010-11-02,14500.0
AGC,2010-11-03,14700.0
AGC,2010-11-04,15400.0
AGC,2010-11-05,16100.0
AGC,2010-11-08,15500.0
AGC,2010-11-09,14700.0
AGC,2010-11-10,14800.0
AGC,2010-11-11,14500.0
AGC,2010-11-12,14000.0
AGC,2010-11-15,13400.0
AGC,2010-11-16,13400.0
AGC,2010-11-17,13600.0
AGC,2010-11-18,14400.0
AGC,2010-11-19,13600.0
AGC,2010-11-22,13200.0
AGC,2010-11-23,13600.0
AGC,2010-11-24,13600.0
AGC,2010-11-25,14600.0
AGC,2010-11-26,14600.0
AGC,2010-11-29,15700.0
AGC,2010-11-30,16100.0
AGC,2010-12-01,15100.0
AGC,2010-12-02,16400.0
AGC,2010-12-03,17100.0
AGC,2010-12-06,16100.0
AGC,2010-12-07,15800.0
AGC,2010-12-08,15000.0
AGC,2010-12-09,15300.0
AGC,2010-12-10,16200.0
AGC,2010-12-13,17200.0
AGC,2010-12-14,16000.0
AGC,2010-12-15,15800.0
AGC,2010-12-16,14900.0
AGC,2010-12-17,15600.0
AGC,2010-12-20,15400.0
AGC,2010-12-21,15200.0
AGC,2010-12-22,14600.0
AGC,2010-12-23,14300.0
AGC,2010-12-24,14000.0
AGC,2010-12-27,14500.0
AGC,2010-12-28,15100.0
AGC,2010-12-29,14800.0
AGC,2010-12-30,14500.0
AGC,2010-12-31,14600.0
AGC,2011-01-04,14800.0
AGC,2011-01-05,14300.0
AGC,2011-01-06,14600.0
AGC,2011-01-07,14400.0
AGC,2011-01-10,13900.0
AGC,2011-01-11,13500.0
AGC,2011-01-12,13700.0
AGC,2011-01-13,14000.0
AGC,2011-01-14,14100.0
AGC,2011-01-17,15100.0
AGC,2011-01-18,16000.0
AGC,2011-01-19,15100.0
AGC,2011-01-20,15200.0
AGC,2011-01-21,14800.0
AGC,2011-01-24,14300.0
AGC,2011-01-25,13700.0
AGC,2011-01-26,13900.0
AGC,2011-01-27,14200.0
AGC,2011-01-28,14000.0
AGC,2011-02-08,14100.0
AGC,2011-02-09,13800.0
AGC,2011-02-10,13800.0
AGC,2011-02-11,13900.0
AGC,2011-02-14,13800.0
AGC,2011-02-15,14400.0
AGC,2011-02-16,14700.0
AGC,2011-02-17,14000.0
AGC,2011-02-18,14000.0
AGC,2011-02-21,13200.0
AGC,2011-02-22,12700.0
AGC,2011-02-23,12900.0
AGC,2011-02-24,12000.0
AGC,2011-02-25,12600.0
AGC,2011-02-28,11900.0
AGC,2011-03-01,11800.0
AGC,2011-03-02,11500.0
AGC,2011-03-03,10900.0
AGC,2011-03-04,11200.0
AGC,2011-03-07,10800.0
AGC,2011-03-08,10600.0
AGC,2011-03-09,10400.0
AGC,2011-03-10,11200.0
AGC,2011-03-11,11700.0
AGC,2011-03-14,11000.0
AGC,2011-03-15,10900.0
AGC,2011-03-16,11000.0
AGC,2011-03-17,11000.0
AGC,2011-03-18,11500.0
AGC,2011-03-21,11400.0
AGC,2011-03-22,11000.0
AGC,2011-03-23,11400.0
AGC,2011-03-24,11200.0
AGC,2011-03-25,11000.0
AGC,2011-03-28,10900.0
AGC,2011-03-29,10500.0
AGC,2011-03-30,10200.0
AGC,2011-03-31,10600.0
AGC,2011-04-01,10400.0
AGC,2011-04-04,10200.0
AGC,2011-04-05,10300.0
AGC,2011-04-06,10600.0
AGC,2011-04-07,11100.0
AGC,2011-04-08,11300.0
AGC,2011-04-13,11000.0
AGC,2011-04-14,11200.0
AGC,2011-04-15,10700.0
AGC,2011-04-18,10100.0
AGC,2011-04-19,10000.0
AGC,2011-04-20,10000.0
AGC,2011-04-21,10400.0
AGC,2011-04-22,10500.0
AGC,2011-04-25,10600.0
AGC,2011-04-26,10500.0
AGC,2011-04-27,10400.0
AGC,2011-04-28,10200.0
AGC,2011-04-29,10200.0
AGC,2011-05-04,10200.0
AGC,2011-05-05,9900.0
AGC,2011-05-06,9800.0
AGC,2011-05-09,9800.0
AGC,2011-05-10,9600.0
AGC,2011-05-11,9300.0
AGC,2011-05-12,9200.0
AGC,2011-05-13,9700.0
AGC,2011-05-16,9200.0
AGC,2011-05-17,9000.0
AGC,2011-05-18,8900.0
AGC,2011-05-19,8800.0
AGC,2011-05-20,8800.0
AGC,2011-05-23,8200.0
AGC,2011-05-24,7700.0
AGC,2011-05-25,7200.0
AGC,2011-05-26,7100.0
AGC,2011-05-27,7300.0
AGC,2011-05-30,6700.0
AGC,2011-05-31,6600.0
AGC,2011-06-01,6900.0
AGC,2011-06-02,7200.0
AGC,2011-06-03,7200.0
AGC,2011-06-06,7200.0
AGC,2011-06-07,7500.0
AGC,2011-06-08,7200.0
AGC,2011-06-09,7800.0
AGC,2011-06-10,8100.0
AGC,2011-06-13,8500.0
AGC,2011-06-14,8200.0
AGC,2011-06-15,8000.0
AGC,2011-06-16,7600.0
AGC,2011-06-17,7300.0
AGC,2011-06-20,6900.0
AGC,2011-06-21,7200.0
AGC,2011-06-22,7200.0
AGC,2011-06-23,6900.0
AGC,2011-06-24,7000.0
AGC,2011-06-27,7000.0
AGC,2011-06-28,6900.0
AGC,2011-06-29,7000.0
AGC,2011-06-30,6800.0
AGC,2011-07-01,6600.0
AGC,2011-07-04,6600.0
AGC,2011-07-05,6900.0
AGC,2011-07-06,6700.0
AGC,2011-07-07,6600.0
AGC,2011-07-08,6500.0
AGC,2011-07-11,6300.0
AGC,2011-07-12,6100.0
AGC,2011-07-13,6100.0
AGC,2011-07-14,6000.0
AGC,2011-07-15,6000.0
AGC,2011-07-18,6000.0
AGC,2011-07-19,5900.0
AGC,2011-07-20,6200.0
AGC,2011-07-21,6100.0
AGC,2011-07-22,5900.0
AGC,2011-07-25,5800.0
AGC,2011-07-26,5800.0
AGC,2011-07-27,5700.0
AGC,2011-07-28,5800.0
AGC,2011-07-29,5600.0
AGC,2011-08-01,5300.0
AGC,2011-08-02,5100.0
AGC,2011-08-03,5100.0
AGC,2011-08-04,5300.0
AGC,2011-08-05,5300.0
AGC,2011-08-08,5000.0
AGC,2011-08-09,4700.0
AGC,2011-08-10,4800.0
AGC,2011-08-11,4800.0
AGC,2011-08-12,4800.0
AGC,2011-08-15,5000.0
AGC,2011-08-16,5300.0
AGC,2011-08-17,5000.0
AGC,2011-08-18,4800.0
AGC,2011-08-19,4800.0
AGC,2011-08-22,5000.0
AGC,2011-08-23,5000.0
AGC,2011-08-24,4800.0
AGC,2011-08-25,4800.0
AGC,2011-08-26,4700.0
AGC,2011-08-29,5000.0
AGC,2011-08-30,5100.0
AGC,2011-08-31,5100.0
AGC,2011-09-01,5400.0
AGC,2011-09-05,5200.0
AGC,2011-09-06,5100.0
AGC,2011-09-07,5400.0
AGC,2011-09-08,5500.0
AGC,2011-09-09,5800.0
AGC,2011-09-12,6000.0
AGC,2011-09-13,6400.0
AGC,2011-09-14,6500.0
AGC,2011-09-15,6300.0
AGC,2011-09-16,6000.0
AGC,2011-09-19,6000.0
AGC,2011-09-20,5600.0
AGC,2011-09-21,5900.0
AGC,2011-09-22,6300.0
AGC,2011-09-23,6200.0
AGC,2011-09-26,6000.0
AGC,2011-09-27,5800.0
AGC,2011-09-28,6200.0
AGC,2011-09-29,6000.0
AGC,2011-09-30,5700.0
AGC,2011-10-03,5400.0
AGC,2011-10-04,5400.0
AGC,2011-10-05,5400.0
AGC,2011-10-06,5600.0
AGC,2011-10-07,5600.0
AGC,2011-10-10,5400.0
AGC,2011-10-11,5400.0
AGC,2011-10-12,5100.0
AGC,2011-10-13,5100.0
AGC,2011-10-14,5200.0
AGC,2011-10-17,5200.0
AGC,2011-10-18,4900.0
AGC,2011-10-19,4900.0
AGC,2011-10-20,4900.0
AGC,2011-10-21,5200.0
AGC,2011-10-24,5200.0
AGC,2011-10-25,5000.0
AGC,2011-10-26,5200.0
AGC,2011-10-27,5300.0
AGC,2011-10-28,5600.0
AGC,2011-10-31,5200.0
AGC,2011-11-01,5100.0
AGC,2011-11-02,5100.0
AGC,2011-11-03,5100.0
AGC,2011-11-04,4900.0
AGC,2011-11-07,4700.0
AGC,2011-11-08,4900.0
AGC,2011-11-09,4500.0
AGC,2011-11-10,4400.0
AGC,2011-11-11,4200.0
AGC,2011-11-14,4100.0
AGC,2011-11-15,4100.0
AGC,2011-11-16,4200.0
AGC,2011-11-17,4100.0
AGC,2011-11-18,4100.0
AGC,2011-11-21,4000.0
AGC,2011-11-22,3900.0
AGC,2011-11-23,3900.0
AGC,2011-11-24,3600.0
AGC,2011-11-25,3600.0
AGC,2011-11-28,3800.0
AGC,2011-11-29,3700.0
AGC,2011-11-30,3900.0
AGC,2011-12-01,3900.0
AGC,2011-12-02,3900.0
AGC,2011-12-05,4100.0
AGC,2011-12-06,4000.0
AGC,2011-12-07,4000.0
AGC,2011-12-08,3900.0
AGC,2011-12-09,3700.0
AGC,2011-12-12,3700.0
AGC,2011-12-13,3500.0
AGC,2011-12-14,3500.0
AGC,2011-12-15,3400.0
AGC,2011-12-16,3400.0
AGC,2011-12-19,3300.0
AGC,2011-12-20,3000.0
AGC,2011-12-21,3000.0
AGC,2011-12-22,2800.0
AGC,2011-12-23,2700.0
AGC,2011-12-26,2600.0
AGC,2011-12-27,2500.0
AGC,2011-12-28,2600.0
AGC,2011-12-29,2500.0
AGC,2011-12-30,2500.0
AGC,2012-01-03,2600.0
AGC,2012-01-04,2600.0
AGC,2012-01-05,2600.0
AGC,2012-01-06,2500.0
AGC,2012-01-09,2500.0
AGC,2012-01-10,2600.0
AGC,2012-01-11,2600.0
AGC,2012-01-12,2600.0
AGC,2012-01-13,2500.0
AGC,2012-01-16,2600.0
AGC,2012-01-17,2600.0
AGC,2012-01-18,2500.0
AGC,2012-01-19,2600.0
AGC,2012-01-20,2700.0
AGC,2012-01-30,2800.0
AGC,2012-01-31,2800.0
AGC,2012-02-01,2900.0
AGC,2012-02-02,2900.0
AGC,2012-02-03,3000.0
AGC,2012-02-06,2900.0
AGC,2012-02-07,2900.0
AGC,2012-02-08,3100.0
AGC,2012-02-09,2900.0
AGC,2012-02-10,2800.0
AGC,2012-02-13,2700.0
AGC,2012-02-14,2800.0
AGC,2012-02-15,2800.0
AGC,2012-02-16,2700.0
AGC,2012-02-17,2900.0
AGC,2012-02-20,3100.0
AGC,2012-02-21,3000.0
AGC,2012-02-22,3200.0
AGC,2012-02-23,3200.0
AGC,2012-02-24,3200.0
AGC,2012-02-27,3100.0
AGC,2012-02-28,2900.0
AGC,2012-02-29,2900.0
AGC,2012-03-01,2900.0
AGC,2012-03-02,3000.0
AGC,2012-03-05,3200.0
AGC,2012-03-06,3200.0
AGC,2012-03-07,3200.0
AGC,2012-03-08,2900.0
AGC,2012-03-09,3000.0
AGC,2012-03-12,2900.0
AGC,2012-03-13,2900.0
AGC,2012-03-14,2800.0
AGC,2012-03-15,2900.0
AGC,2012-03-16,2900.0
AGC,2012-03-19,2900.0
AGC,2012-03-20,2900.0
AGC,2012-03-21,3000.0
AGC,2012-03-22,2900.0
AGC,2012-03-23,3100.0
AGC,2012-03-26,3300.0
AGC,2012-03-27,3400.0
AGC,2012-03-28,3500.0
AGC,2012-03-29,3700.0
AGC,2012-03-30,3500.0
AGC,2012-04-03,3500.0
AGC,2012-04-04,3300.0
AGC,2012-04-05,3100.0
AGC,2012-04-06,2900.0
AGC,2012-04-09,3100.0
AGC,2012-04-10,3100.0
AGC,2012-04-11,3200.0
AGC,2012-04-12,3000.0
AGC,2012-04-13,2900.0
AGC,2012-04-16,3100.0
AGC,2012-04-17,3200.0
AGC,2012-04-18,3000.0
AGC,2012-04-19,3000.0
AGC,2012-04-20,3200.0
AGC,2012-04-23,3100.0
AGC,2012-04-24,3100.0
AGC,2012-04-25,3200.0
AGC,2012-04-26,3000.0
AGC,2012-04-27,3200.0
AGC,2012-05-02,3400.0
AGC,2012-05-03,3300.0
AGC,2012-05-04,3200.0
AGC,2012-05-07,3400.0
AGC,2012-05-08,3300.0
AGC,2012-05-09,3200.0
AGC,2012-05-10,3300.0
AGC,2012-05-11,3300.0
AGC,2012-05-14,3100.0
AGC,2012-05-15,3000.0
AGC,2012-05-16,3100.0
AGC,2012-05-17,3100.0
AGC,2012-05-18,2900.0
AGC,2012-05-21,3100.0
AGC,2012-05-22,2900.0
AGC,2012-05-23,2800.0
AGC,2012-05-24,2700.0
AGC,2012-05-25,2800.0
AGC,2012-05-28,2700.0
AGC,2012-05-29,2600.0
AGC,2012-05-30,2500.0
AGC,2012-05-31,2400.0
AGC,2012-06-01,2300.0
AGC,2012-06-04,2200.0
AGC,2012-06-05,2100.0
AGC,2012-06-06,2000.0
AGC,2012-06-07,2100.0
AGC,2012-06-08,2200.0
AGC,2012-06-11,2300.0
AGC,2012-06-12,2300.0
AGC,2012-06-13,2200.0
AGC,2012-06-14,2100.0
AGC,2012-06-15,2200.0
AGC,2012-06-18,2200.0
AGC,2012-06-19,2200.0
AGC,2012-06-20,2100.0
AGC,2012-06-21,2000.0
AGC,2012-06-22,1900.0
AGC,2012-06-25,1800.0
AGC,2012-06-26,1700.0
AGC,2012-06-27,1600.0
AGC,2012-06-28,1500.0
AGC,2012-06-29,1400.0
AGC,2012-07-02,1300.0
AGC,2012-07-03,1200.0
AGC,2012-07-04,1100.0
AGC,2012-07-05,1000.0
AGC,2012-07-06,900.0
AGC,2012-07-09,800.0
AGC,2012-07-10,700.0
AGC,2012-07-11,600.0
AGC,2012-07-12,700.0
AGC,2012-07-13,800.0
AGC,2012-07-16,900.0
