ARM,2010-10-26,13100.0
ARM,2010-10-27,14600.0
ARM,2010-10-28,14000.0
ARM,2010-10-29,14100.0
ARM,2010-11-01,13100.0
ARM,2010-11-02,12500.0
ARM,2010-11-03,11700.0
ARM,2010-11-04,10900.0
ARM,2010-11-05,10900.0
ARM,2010-11-08,10700.0
ARM,2010-11-09,10100.0
ARM,2010-11-10,9800.0
ARM,2010-11-11,9300.0
ARM,2010-11-12,9000.0
ARM,2010-11-15,8400.0
ARM,2010-11-16,7900.0
ARM,2010-11-17,7800.0
ARM,2010-11-18,8200.0
ARM,2010-11-19,8200.0
ARM,2010-11-22,7700.0
ARM,2010-11-23,7900.0
ARM,2010-11-24,8400.0
ARM,2010-11-25,8800.0
ARM,2010-11-26,8200.0
ARM,2010-11-29,8800.0
ARM,2010-11-30,8500.0
ARM,2010-12-01,8300.0
ARM,2010-12-02,8700.0
ARM,2010-12-03,8700.0
ARM,2010-12-06,8600.0
ARM,2010-12-07,8500.0
ARM,2010-12-08,8200.0
ARM,2010-12-09,8700.0
ARM,2010-12-10,8500.0
ARM,2010-12-13,8800.0
ARM,2010-12-14,8500.0
ARM,2010-12-15,9200.0
ARM,2010-12-16,8500.0
ARM,2010-12-17,8800.0
ARM,2010-12-20,8400.0
ARM,2010-12-21,8400.0
ARM,2010-12-22,8800.0
ARM,2010-12-23,8800.0
ARM,2010-12-24,8500.0
ARM,2010-12-27,8500.0
ARM,2010-12-28,8100.0
ARM,2010-12-29,8200.0
ARM,2010-12-30,8200.0
ARM,2010-12-31,8200.0
ARM,2011-01-04,8500.0
ARM,2011-01-05,8200.0
ARM,2011-01-06,8700.0
ARM,2011-01-07,8500.0
ARM,2011-01-10,8200.0
ARM,2011-01-11,7700.0
ARM,2011-01-12,8200.0
ARM,2011-01-13,8800.0
ARM,2011-01-14,8700.0
ARM,2011-01-17,8800.0
ARM,2011-01-18,8500.0
ARM,2011-01-19,8800.0
ARM,2011-01-20,8500.0
ARM,2011-01-21,8700.0
ARM,2011-01-24,8500.0
ARM,2011-01-25,8100.0
ARM,2011-01-26,8600.0
ARM,2011-01-27,8900.0
ARM,2011-01-28,8700.0
ARM,2011-02-08,8500.0
ARM,2011-02-09,8500.0
ARM,2011-02-10,8600.0
ARM,2011-02-11,8700.0
ARM,2011-02-14,8800.0
ARM,2011-02-15,8400.0
ARM,2011-02-16,8000.0
ARM,2011-02-17,8500.0
ARM,2011-02-18,8500.0
ARM,2011-02-21,8200.0
ARM,2011-02-22,8200.0
ARM,2011-02-23,8100.0
ARM,2011-02-24,7700.0
ARM,2011-02-25,7700.0
ARM,2011-02-28,8400.0
ARM,2011-03-01,9000.0
ARM,2011-03-02,8400.0
ARM,2011-03-03,8500.0
ARM,2011-03-04,7700.0
ARM,2011-03-07,8700.0
ARM,2011-03-08,9300.0
ARM,2011-03-09,9700.0
ARM,2011-03-10,9000.0
ARM,2011-03-11,8400.0
ARM,2011-03-14,8500.0
ARM,2011-03-15,9000.0
ARM,2011-03-16,9000.0
ARM,2011-03-17,8400.0
ARM,2011-03-18,8400.0
ARM,2011-03-21,8200.0
ARM,2011-03-22,8100.0
ARM,2011-03-23,8200.0
ARM,2011-03-24,8100.0
ARM,2011-03-25,8300.0
ARM,2011-03-28,8200.0
ARM,2011-03-29,8200.0
ARM,2011-03-30,8200.0
ARM,2011-03-31,8200.0
ARM,2011-04-01,8200.0
ARM,2011-04-04,8200.0
ARM,2011-04-05,7800.0
ARM,2011-04-06,7800.0
ARM,2011-04-07,8300.0
ARM,2011-04-08,7800.0
ARM,2011-04-13,8300.0
ARM,2011-04-14,7800.0
ARM,2011-04-15,7600.0
ARM,2011-04-18,7900.0
ARM,2011-04-19,8200.0
ARM,2011-04-20,8500.0
ARM,2011-04-21,8500.0
ARM,2011-04-22,8000.0
ARM,2011-04-25,8100.0
ARM,2011-04-26,7900.0
ARM,2011-04-27,7700.0
ARM,2011-04-28,7900.0
ARM,2011-04-29,7400.0
ARM,2011-05-04,7300.0
ARM,2011-05-05,7600.0
ARM,2011-05-06,7800.0
ARM,2011-05-09,7800.0
ARM,2011-05-10,7400.0
ARM,2011-05-11,7200.0
ARM,2011-05-12,7600.0
ARM,2011-05-13,7900.0
ARM,2011-05-16,7900.0
ARM,2011-05-17,7400.0
ARM,2011-05-18,7000.0
ARM,2011-05-19,7400.0
ARM,2011-05-20,7800.0
ARM,2011-05-23,7300.0
ARM,2011-05-24,7800.0
ARM,2011-05-25,8200.0
ARM,2011-05-26,7900.0
ARM,2011-05-27,7800.0
ARM,2011-05-30,7300.0
ARM,2011-05-31,7800.0
ARM,2011-06-01,8300.0
ARM,2011-06-02,8800.0
ARM,2011-06-03,8200.0
ARM,2011-06-06,8400.0
ARM,2011-06-07,9000.0
ARM,2011-06-08,9000.0
ARM,2011-06-09,9400.0
ARM,2011-06-10,8700.0
ARM,2011-06-13,9100.0
ARM,2011-06-14,9000.0
ARM,2011-06-15,8400.0
ARM,2011-06-16,8400.0
ARM,2011-06-17,8300.0
ARM,2011-06-20,8400.0
ARM,2011-06-21,8500.0
ARM,2011-06-22,8700.0
ARM,2011-06-23,8500.0
ARM,2011-06-24,8500.0
ARM,2011-06-27,8900.0
ARM,2011-06-28,8500.0
ARM,2011-06-29,8700.0
ARM,2011-06-30,8300.0
ARM,2011-07-01,7900.0
ARM,2011-07-04,7400.0
ARM,2011-07-05,7500.0
ARM,2011-07-06,7800.0
ARM,2011-07-07,7600.0
ARM,2011-07-08,7600.0
ARM,2011-07-11,7600.0
ARM,2011-07-12,7700.0
ARM,2011-07-13,7700.0
ARM,2011-07-14,8100.0
ARM,2011-07-15,7600.0
ARM,2011-07-18,7600.0
ARM,2011-07-19,7600.0
ARM,2011-07-20,7600.0
ARM,2011-07-21,7600.0
ARM,2011-07-22,7600.0
ARM,2011-07-25,7600.0
ARM,2011-07-26,7600.0
ARM,2011-07-27,7600.0
ARM,2011-07-28,7600.0
ARM,2011-07-29,7600.0
ARM,2011-08-01,7100.0
ARM,2011-08-02,7100.0
ARM,2011-08-03,7600.0
ARM,2011-08-04,7800.0
ARM,2011-08-05,7800.0
ARM,2011-08-08,7600.0
ARM,2011-08-09,7600.0
ARM,2011-08-10,7900.0
ARM,2011-08-11,8000.0
ARM,2011-08-12,8100.0
ARM,2011-08-15,8100.0
ARM,2011-08-16,8400.0
ARM,2011-08-17,8400.0
ARM,2011-08-18,8400.0
ARM,2011-08-19,8400.0
ARM,2011-08-22,8400.0
ARM,2011-08-23,8500.0
ARM,2011-08-24,8500.0
ARM,2011-08-25,8600.0
ARM,2011-08-26,8600.0
ARM,2011-08-29,9100.0
ARM,2011-08-30,8800.0
ARM,2011-08-31,8800.0
ARM,2011-09-01,8800.0
ARM,2011-09-05,8800.0
ARM,2011-09-06,8800.0
ARM,2011-09-07,9400.0
ARM,2011-09-08,9300.0
ARM,2011-09-09,9300.0
ARM,2011-09-12,9200.0
ARM,2011-09-13,9200.0
ARM,2011-09-14,9800.0
ARM,2011-09-15,9200.0
ARM,2011-09-16,8600.0
ARM,2011-09-19,8500.0
ARM,2011-09-20,8500.0
ARM,2011-09-21,8500.0
ARM,2011-09-22,8500.0
ARM,2011-09-23,8500.0
ARM,2011-09-26,8500.0
ARM,2011-09-27,8500.0
ARM,2011-09-28,8500.0
ARM,2011-09-29,8800.0
ARM,2011-09-30,8800.0
ARM,2011-10-03,8800.0
ARM,2011-10-04,8900.0
ARM,2011-10-05,8900.0
ARM,2011-10-06,8500.0
ARM,2011-10-07,8500.0
ARM,2011-10-10,8500.0
ARM,2011-10-11,8500.0
ARM,2011-10-12,8500.0
ARM,2011-10-13,8500.0
ARM,2011-10-14,8500.0
ARM,2011-10-17,8500.0
ARM,2011-10-18,8500.0
ARM,2011-10-19,9100.0
ARM,2011-10-20,9200.0
ARM,2011-10-21,8900.0
ARM,2011-10-24,8800.0
ARM,2011-10-25,8500.0
ARM,2011-10-26,8500.0
ARM,2011-10-27,8800.0
ARM,2011-10-28,8900.0
ARM,2011-10-31,8700.0
ARM,2011-11-01,8500.0
ARM,2011-11-02,8600.0
ARM,2011-11-03,8600.0
ARM,2011-11-04,8600.0
ARM,2011-11-07,8600.0
ARM,2011-11-08,8600.0
ARM,2011-11-09,9200.0
ARM,2011-11-10,9600.0
ARM,2011-11-11,9600.0
ARM,2011-11-14,10000.0
ARM,2011-11-15,10000.0
ARM,2011-11-16,10000.0
ARM,2011-11-17,10000.0
ARM,2011-11-18,10000.0
ARM,2011-11-21,10000.0
ARM,2011-11-22,10000.0
ARM,2011-11-23,10000.0
ARM,2011-11-24,10500.0
ARM,2011-11-25,10500.0
ARM,2011-11-28,10800.0
ARM,2011-11-29,10800.0
ARM,2011-11-30,10800.0
ARM,2011-12-01,10800.0
ARM,2011-12-02,10800.0
ARM,2011-12-05,10100.0
ARM,2011-12-06,10800.0
ARM,2011-12-07,10800.0
ARM,2011-12-08,10800.0
ARM,2011-12-09,10800.0
ARM,2011-12-12,10800.0
ARM,2011-12-13,11400.0
ARM,2011-12-14,11400.0
ARM,2011-12-15,11400.0
ARM,2011-12-16,11400.0
ARM,2011-12-19,11400.0
ARM,2011-12-20,11400.0
ARM,2011-12-21,10600.0
ARM,2011-12-22,10600.0
ARM,2011-12-23,10600.0
ARM,2011-12-26,10600.0
ARM,2011-12-27,10600.0
ARM,2011-12-28,10600.0
ARM,2011-12-29,10600.0
ARM,2011-12-30,10600.0
ARM,2012-01-03,10600.0
ARM,2012-01-04,10600.0
ARM,2012-01-05,10600.0
ARM,2012-01-06,10600.0
ARM,2012-01-09,10600.0
ARM,2012-01-10,10600.0
ARM,2012-01-11,10600.0
ARM,2012-01-12,10600.0
ARM,2012-01-13,10600.0
ARM,2012-01-16,10600.0
ARM,2012-01-17,10600.0
ARM,2012-01-18,10600.0
ARM,2012-01-19,10600.0
ARM,2012-01-20,10600.0
ARM,2012-01-30,10600.0
ARM,2012-01-31,10600.0
ARM,2012-02-01,10600.0
ARM,2012-02-02,9900.0
ARM,2012-02-03,9900.0
ARM,2012-02-06,9900.0
ARM,2012-02-07,9900.0
ARM,2012-02-08,9300.0
ARM,2012-02-09,8600.0
ARM,2012-02-10,8200.0
ARM,2012-02-13,8200.0
ARM,2012-02-14,8800.0
ARM,2012-02-15,8200.0
ARM,2012-02-16,8800.0
ARM,2012-02-17,8600.0
ARM,2012-02-20,8600.0
ARM,2012-02-21,8600.0
ARM,2012-02-22,9200.0
ARM,2012-02-23,9200.0
ARM,2012-02-24,9700.0
ARM,2012-02-27,9300.0
ARM,2012-02-28,8700.0
ARM,2012-02-29,8500.0
ARM,2012-03-01,8800.0
ARM,2012-03-02,9300.0
ARM,2012-03-05,9600.0
ARM,2012-03-06,9200.0
ARM,2012-03-07,9600.0
ARM,2012-03-08,9600.0
ARM,2012-03-09,9600.0
ARM,2012-03-12,9600.0
ARM,2012-03-13,9600.0
ARM,2012-03-14,9600.0
ARM,2012-03-15,9900.0
ARM,2012-03-16,9900.0
ARM,2012-03-19,9900.0
ARM,2012-03-20,9900.0
ARM,2012-03-21,10200.0
ARM,2012-03-22,10800.0
ARM,2012-03-23,11300.0
ARM,2012-03-26,11300.0
ARM,2012-03-27,10500.0
ARM,2012-03-28,10500.0
ARM,2012-03-29,10300.0
ARM,2012-03-30,10300.0
ARM,2012-04-03,10300.0
ARM,2012-04-04,10000.0
ARM,2012-04-05,9900.0
ARM,2012-04-06,9600.0
ARM,2012-04-09,9600.0
ARM,2012-04-10,10000.0
ARM,2012-04-11,10600.0
ARM,2012-04-12,10100.0
ARM,2012-04-13,10100.0
ARM,2012-04-16,10600.0
ARM,2012-04-17,11000.0
ARM,2012-04-18,10300.0
ARM,2012-04-19,10600.0
ARM,2012-04-20,10000.0
ARM,2012-04-23,10600.0
ARM,2012-04-24,10600.0
ARM,2012-04-25,10600.0
ARM,2012-04-26,11300.0
ARM,2012-04-27,11300.0
ARM,2012-05-02,11300.0
ARM,2012-05-03,11300.0
ARM,2012-05-04,12100.0
ARM,2012-05-07,12100.0
ARM,2012-05-08,12900.0
ARM,2012-05-09,13100.0
ARM,2012-05-10,13100.0
ARM,2012-05-11,13600.0
ARM,2012-05-14,12700.0
ARM,2012-05-15,11800.0
ARM,2012-05-16,11800.0
ARM,2012-05-17,12600.0
ARM,2012-05-18,11700.0
ARM,2012-05-21,12500.0
ARM,2012-05-22,11900.0
ARM,2012-05-23,11900.0
ARM,2012-05-24,11900.0
ARM,2012-05-25,12600.0
ARM,2012-05-28,12400.0
ARM,2012-05-29,13200.0
ARM,2012-05-30,14000.0
ARM,2012-05-31,14000.0
ARM,2012-06-01,13400.0
ARM,2012-06-04,13600.0
ARM,2012-06-05,13700.0
ARM,2012-06-06,13700.0
ARM,2012-06-07,14600.0
ARM,2012-06-08,13700.0
ARM,2012-06-11,13600.0
ARM,2012-06-12,13400.0
ARM,2012-06-13,14300.0
ARM,2012-06-14,13400.0
ARM,2012-06-15,13400.0
ARM,2012-06-18,13400.0
ARM,2012-06-19,14100.0
ARM,2012-06-20,14100.0
ARM,2012-06-21,14100.0
ARM,2012-06-22,13400.0
ARM,2012-06-25,13400.0
ARM,2012-06-26,13400.0
ARM,2012-06-27,13100.0
ARM,2012-06-28,13100.0
ARM,2012-06-29,13100.0
ARM,2012-07-02,13400.0
ARM,2012-07-03,13400.0
ARM,2012-07-04,13400.0
ARM,2012-07-05,13400.0
ARM,2012-07-06,13400.0
ARM,2012-07-09,13400.0
ARM,2012-07-10,13400.0
ARM,2012-07-11,13400.0
ARM,2012-07-12,13400.0
ARM,2012-07-13,13400.0
ARM,2012-07-16,13400.0
ARM,2012-07-17,13400.0
ARM,2012-07-18,13600.0
ARM,2012-07-19,14100.0
ARM,2012-07-20,14400.0
ARM,2012-07-23,14400.0
ARM,2012-07-24,14400.0
ARM,2012-07-25,14400.0
ARM,2012-07-26,14400.0
ARM,2012-07-27,13400.0
ARM,2012-07-30,13000.0
ARM,2012-07-31,13000.0
ARM,2012-08-01,13400.0
ARM,2012-08-02,13400.0
ARM,2012-08-03,13400.0
ARM,2012-08-06,13100.0
ARM,2012-08-07,13100.0
ARM,2012-08-08,13100.0
ARM,2012-08-09,13100.0
ARM,2012-08-10,13100.0
ARM,2012-08-13,13100.0
ARM,2012-08-14,13100.0
ARM,2012-08-15,13100.0
ARM,2012-08-16,13000.0
ARM,2012-08-17,13000.0
ARM,2012-08-20,13000.0
ARM,2012-08-21,13000.0
ARM,2012-08-22,13000.0
ARM,2012-08-23,12100.0
ARM,2012-08-24,12100.0
ARM,2012-08-27,12100.0
ARM,2012-08-28,12100.0
ARM,2012-08-29,12100.0
ARM,2012-08-30,12100.0
ARM,2012-08-31,12100.0
ARM,2012-09-04,12100.0
ARM,2012-09-05,12100.0
ARM,2012-09-06,12100.0
ARM,2012-09-07,12100.0
ARM,2012-09-10,12100.0
ARM,2012-09-11,12100.0
ARM,2012-09-12,12100.0
ARM,2012-09-13,12100.0
ARM,2012-09-14,12100.0
ARM,2012-09-17,12100.0
ARM,2012-09-18,12100.0
ARM,2012-09-19,12100.0
ARM,2012-09-20,12100.0
ARM,2012-09-21,12100.0
ARM,2012-09-24,12100.0
ARM,2012-09-25,12100.0
ARM,2012-09-26,11700.0
ARM,2012-09-27,11700.0
ARM,2012-09-28,11700.0
ARM,2012-10-01,11700.0
ARM,2012-10-02,11700.0
ARM,2012-10-03,11700.0
ARM,2012-10-04,11700.0
ARM,2012-10-05,11700.0
ARM,2012-10-08,11700.0
ARM,2012-10-09,11700.0
ARM,2012-10-10,11700.0
ARM,2012-10-11,11700.0
ARM,2012-10-12,11700.0
ARM,2012-10-15,11700.0
ARM,2012-10-16,11700.0
ARM,2012-10-17,11700.0
ARM,2012-10-18,11700.0
ARM,2012-10-19,11700.0
ARM,2012-10-22,11700.0
ARM,2012-10-23,11700.0
ARM,2012-10-24,11700.0
ARM,2012-10-25,11700.0
ARM,2012-10-26,11700.0
ARM,2012-10-29,11700.0
ARM,2012-10-30,12600.0
ARM,2012-10-31,13400.0
ARM,2012-11-01,14300.0
ARM,2012-11-02,14300.0
ARM,2012-11-05,14300.0
ARM,2012-11-06,13300.0
ARM,2012-11-07,13300.0
ARM,2012-11-08,13300.0
ARM,2012-11-09,13300.0
ARM,2012-11-12,13300.0
ARM,2012-11-13,13300.0
ARM,2012-11-14,13300.0
ARM,2012-11-15,13300.0
ARM,2012-11-16,13300.0
ARM,2012-11-19,13300.0
ARM,2012-11-20,13000.0
ARM,2012-11-21,13000.0
ARM,2012-11-22,13000.0
ARM,2012-11-23,13300.0
ARM,2012-11-26,13300.0
ARM,2012-11-27,14200.0
ARM,2012-11-28,14300.0
ARM,2012-11-29,14200.0
ARM,2012-11-30,13800.0
ARM,2012-12-03,14300.0
ARM,2012-12-04,15300.0
ARM,2012-12-05,16200.0
ARM,2012-12-06,15100.0
ARM,2012-12-07,15000.0
ARM,2012-12-10,14500.0
ARM,2012-12-11,13900.0
ARM,2012-12-12,14300.0
ARM,2012-12-13,14300.0
ARM,2012-12-14,14300.0
ARM,2012-12-17,14300.0
ARM,2012-12-18,14700.0
ARM,2012-12-19,15600.0
ARM,2012-12-20,14600.0
ARM,2012-12-21,14600.0
ARM,2012-12-24,14600.0
ARM,2012-12-25,13800.0
ARM,2012-12-26,14500.0
ARM,2012-12-27,14400.0
ARM,2012-12-28,14300.0
ARM,2013-01-02,14400.0
ARM,2013-01-03,15400.0
ARM,2013-01-04,16200.0
ARM,2013-01-07,15100.0
ARM,2013-01-08,14000.0
ARM,2013-01-09,14200.0
ARM,2013-01-10,14200.0
ARM,2013-01-11,13800.0
ARM,2013-01-14,13900.0
ARM,2013-01-15,14400.0
ARM,2013-01-16,14400.0
ARM,2013-01-17,14100.0
ARM,2013-01-18,14100.0
ARM,2013-01-21,14100.0
ARM,2013-01-22,14100.0
ARM,2013-01-23,13900.0
ARM,2013-01-24,13900.0
ARM,2013-01-25,13800.0
ARM,2013-01-28,14000.0
ARM,2013-01-29,14000.0
ARM,2013-01-30,14200.0
ARM,2013-01-31,15600.0
ARM,2013-02-01,15600.0
ARM,2013-02-04,15600.0
ARM,2013-02-05,15600.0
ARM,2013-02-06,14900.0
ARM,2013-02-07,14500.0
ARM,2013-02-08,15600.0
ARM,2013-02-18,16100.0
ARM,2013-02-19,15000.0
ARM,2013-02-20,14200.0
ARM,2013-02-21,14400.0
ARM,2013-02-22,15400.0
ARM,2013-02-25,14600.0
ARM,2013-02-26,14200.0
ARM,2013-02-27,14200.0
ARM,2013-02-28,14500.0
ARM,2013-03-01,14500.0
ARM,2013-03-04,14200.0
ARM,2013-03-05,14200.0
ARM,2013-03-06,15100.0
ARM,2013-03-07,15100.0
ARM,2013-03-08,14500.0
ARM,2013-03-11,14000.0
ARM,2013-03-12,14500.0
ARM,2013-03-13,14600.0
ARM,2013-03-14,15100.0
ARM,2013-03-15,15100.0
ARM,2013-03-18,15100.0
ARM,2013-03-19,15400.0
ARM,2013-03-20,15400.0
ARM,2013-03-21,16400.0
ARM,2013-03-22,16800.0
ARM,2013-03-25,16800.0
ARM,2013-03-26,17400.0
ARM,2013-03-27,19000.0
ARM,2013-03-28,17800.0
ARM,2013-03-29,17800.0
ARM,2013-04-01,16100.0
ARM,2013-04-02,16900.0
ARM,2013-04-03,16200.0
ARM,2013-04-04,16200.0
ARM,2013-04-05,16500.0
ARM,2013-04-08,17800.0
ARM,2013-04-09,17800.0
ARM,2013-04-10,17500.0
ARM,2013-04-11,17500.0
ARM,2013-04-12,16200.0
ARM,2013-04-15,17000.0
ARM,2013-04-16,18600.0
ARM,2013-04-17,18600.0
ARM,2013-04-18,16800.0
ARM,2013-04-22,16800.0
ARM,2013-04-23,16800.0
ARM,2013-04-24,16800.0
ARM,2013-04-25,16800.0
ARM,2013-04-26,16800.0
ARM,2013-05-02,16800.0
ARM,2013-05-03,16600.0
ARM,2013-05-06,17000.0
ARM,2013-05-07,16600.0
ARM,2013-05-08,17000.0
ARM,2013-05-09,17000.0
ARM,2013-05-10,16600.0
ARM,2013-05-13,17400.0
ARM,2013-05-14,17400.0
ARM,2013-05-15,18300.0
ARM,2013-05-16,18300.0
ARM,2013-05-17,18500.0
ARM,2013-05-20,18500.0
ARM,2013-05-21,18500.0
ARM,2013-05-22,18700.0
ARM,2013-05-23,18700.0
ARM,2013-05-24,18700.0
ARM,2013-05-27,18700.0
ARM,2013-05-28,17400.0
ARM,2013-05-29,17400.0
ARM,2013-05-30,19000.0
ARM,2013-05-31,18300.0
ARM,2013-06-03,18300.0
ARM,2013-06-04,19600.0
ARM,2013-06-05,19600.0
ARM,2013-06-06,19800.0
ARM,2013-06-07,19900.0
ARM,2013-06-10,19800.0
ARM,2013-06-11,20700.0
ARM,2013-06-12,22100.0
ARM,2013-06-13,22400.0
ARM,2013-06-14,22400.0
ARM,2013-06-17,21900.0
ARM,2013-06-18,21700.0
ARM,2013-06-19,21800.0
ARM,2013-06-20,20700.0
ARM,2013-06-21,20700.0
ARM,2013-06-24,21700.0
ARM,2013-06-25,21600.0
ARM,2013-06-26,20700.0
ARM,2013-06-27,19800.0
ARM,2013-06-28,21000.0
ARM,2013-07-01,21200.0
ARM,2013-07-02,20600.0
ARM,2013-07-03,19600.0
ARM,2013-07-04,20700.0
ARM,2013-07-05,20700.0
ARM,2013-07-08,20700.0
ARM,2013-07-09,19300.0
ARM,2013-07-10,20200.0
ARM,2013-07-11,20200.0
ARM,2013-07-12,19800.0
ARM,2013-07-15,18400.0
ARM,2013-07-16,19000.0
ARM,2013-07-17,18900.0
ARM,2013-07-18,18600.0
ARM,2013-07-19,19800.0
ARM,2013-07-22,19800.0
ARM,2013-07-23,19000.0
ARM,2013-07-24,18900.0
ARM,2013-07-25,18900.0
ARM,2013-07-26,18900.0
ARM,2013-07-29,18900.0
ARM,2013-07-30,18900.0
ARM,2013-07-31,17400.0
ARM,2013-08-01,17400.0
ARM,2013-08-02,19100.0
ARM,2013-08-05,18100.0
ARM,2013-08-06,18100.0
ARM,2013-08-07,17400.0
ARM,2013-08-08,17400.0
ARM,2013-08-09,17400.0
ARM,2013-08-12,17400.0
ARM,2013-08-13,18400.0
ARM,2013-08-14,16800.0
ARM,2013-08-15,16800.0
ARM,2013-08-16,16800.0
ARM,2013-08-19,17000.0
ARM,2013-08-20,17000.0
ARM,2013-08-21,17000.0
ARM,2013-08-22,16800.0
ARM,2013-08-23,16800.0
ARM,2013-08-26,16800.0
ARM,2013-08-27,16800.0
ARM,2013-08-28,16400.0
ARM,2013-08-29,16400.0
ARM,2013-08-30,16400.0
ARM,2013-09-03,16400.0
ARM,2013-09-04,16400.0
ARM,2013-09-05,16000.0
ARM,2013-09-06,15800.0
ARM,2013-09-09,15800.0
ARM,2013-09-10,15800.0
ARM,2013-09-11,15500.0
ARM,2013-09-12,15100.0
ARM,2013-09-13,15600.0
ARM,2013-09-16,17000.0
ARM,2013-09-17,15500.0
ARM,2013-09-18,15500.0
ARM,2013-09-19,16000.0
ARM,2013-09-20,16000.0
ARM,2013-09-23,16000.0
ARM,2013-09-24,16000.0
ARM,2013-09-25,15700.0
ARM,2013-09-26,15600.0
ARM,2013-09-27,15600.0
ARM,2013-09-30,15700.0
ARM,2013-10-01,15900.0
ARM,2013-10-02,15900.0
ARM,2013-10-03,15700.0
ARM,2013-10-04,16000.0
ARM,2013-10-07,16000.0
ARM,2013-10-08,15800.0
ARM,2013-10-09,16500.0
ARM,2013-10-10,16300.0
ARM,2013-10-11,16100.0
ARM,2013-10-14,15900.0
ARM,2013-10-15,15900.0
ARM,2013-10-16,16400.0
ARM,2013-10-17,17000.0
ARM,2013-10-18,16300.0
ARM,2013-10-21,16500.0
ARM,2013-10-22,16300.0
ARM,2013-10-23,16100.0
ARM,2013-10-24,16300.0
ARM,2013-10-25,16400.0
ARM,2013-10-28,16100.0
ARM,2013-10-29,16300.0
ARM,2013-10-30,16200.0
ARM,2013-10-31,16200.0
ARM,2013-11-01,16200.0
ARM,2013-11-04,16200.0
ARM,2013-11-05,16500.0
ARM,2013-11-06,16700.0
ARM,2013-11-07,16900.0
ARM,2013-11-08,17000.0
ARM,2013-11-11,17100.0
ARM,2013-11-12,18600.0
ARM,2013-11-13,18600.0
ARM,2013-11-14,17400.0
ARM,2013-11-15,17800.0
ARM,2013-11-18,18300.0
ARM,2013-11-19,17700.0
ARM,2013-11-20,17700.0
ARM,2013-11-21,17700.0
ARM,2013-11-22,18700.0
ARM,2013-11-25,18600.0
ARM,2013-11-26,18900.0
ARM,2013-11-27,19000.0
ARM,2013-11-28,19000.0
ARM,2013-11-29,19000.0
ARM,2013-12-02,18900.0
ARM,2013-12-03,18500.0
ARM,2013-12-04,18500.0
ARM,2013-12-05,19000.0
ARM,2013-12-06,19200.0
ARM,2013-12-09,19800.0
ARM,2013-12-10,19700.0
ARM,2013-12-11,18900.0
ARM,2013-12-12,19800.0
ARM,2013-12-13,19800.0
ARM,2013-12-16,20000.0
ARM,2013-12-17,20000.0
ARM,2013-12-18,19900.0
ARM,2013-12-19,19900.0
ARM,2013-12-20,20000.0
ARM,2013-12-23,20100.0
ARM,2013-12-24,20100.0
ARM,2013-12-25,20100.0
ARM,2013-12-26,20000.0
ARM,2013-12-27,20100.0
ARM,2013-12-30,20100.0
ARM,2013-12-31,20100.0
ARM,2014-01-02,20000.0
ARM,2014-01-03,20100.0
ARM,2014-01-06,20100.0
ARM,2014-01-07,20500.0
ARM,2014-01-08,20500.0
ARM,2014-01-09,20500.0
ARM,2014-01-10,20500.0
ARM,2014-01-13,20000.0
ARM,2014-01-14,19500.0
ARM,2014-01-15,20200.0
ARM,2014-01-16,20200.0
ARM,2014-01-17,19900.0
ARM,2014-01-20,19900.0
ARM,2014-01-21,20000.0
ARM,2014-01-22,19700.0
ARM,2014-01-23,19700.0
ARM,2014-01-24,19700.0
ARM,2014-01-27,19700.0
ARM,2014-02-06,19700.0
ARM,2014-02-07,19700.0
ARM,2014-02-10,19700.0
ARM,2014-02-11,19700.0
ARM,2014-02-12,20000.0
ARM,2014-02-13,19800.0
ARM,2014-02-14,20100.0
ARM,2014-02-17,20000.0
ARM,2014-02-18,20000.0
ARM,2014-02-19,20000.0
ARM,2014-02-20,19900.0
ARM,2014-02-21,19900.0
ARM,2014-02-24,19800.0
ARM,2014-02-25,19900.0
ARM,2014-02-26,20000.0
ARM,2014-02-27,20000.0
ARM,2014-02-28,20000.0
ARM,2014-03-03,20000.0
ARM,2014-03-04,19500.0
ARM,2014-03-05,20000.0
ARM,2014-03-06,20000.0
ARM,2014-03-07,19800.0
ARM,2014-03-10,19800.0
ARM,2014-03-11,20000.0
ARM,2014-03-12,20000.0
ARM,2014-03-13,20000.0
ARM,2014-03-14,20000.0
ARM,2014-03-17,20000.0
ARM,2014-03-18,20900.0
ARM,2014-03-19,20200.0
ARM,2014-03-20,20200.0
ARM,2014-03-21,20200.0
ARM,2014-03-24,20300.0
ARM,2014-03-25,20200.0
ARM,2014-03-26,20500.0
ARM,2014-03-27,20100.0
ARM,2014-03-28,20300.0
ARM,2014-03-31,20200.0
ARM,2014-04-01,19900.0
ARM,2014-04-02,20000.0
ARM,2014-04-03,20500.0
ARM,2014-04-04,20000.0
ARM,2014-04-07,20100.0
ARM,2014-04-08,20000.0
ARM,2014-04-10,20100.0
ARM,2014-04-11,20100.0
ARM,2014-04-14,20100.0
ARM,2014-04-15,20100.0
ARM,2014-04-16,19900.0
ARM,2014-04-17,20000.0
ARM,2014-04-18,19900.0
ARM,2014-04-21,19900.0
ARM,2014-04-22,19900.0
ARM,2014-04-23,19900.0
ARM,2014-04-24,19900.0
ARM,2014-04-25,19900.0
ARM,2014-04-28,19800.0
ARM,2014-04-29,19800.0
ARM,2014-05-05,19900.0
ARM,2014-05-06,19700.0
ARM,2014-05-07,19700.0
ARM,2014-05-08,19700.0
ARM,2014-05-09,19600.0
ARM,2014-05-12,18200.0
ARM,2014-05-13,16500.0
ARM,2014-05-14,17000.0
ARM,2014-05-15,17100.0
ARM,2014-05-16,17100.0
ARM,2014-05-19,17100.0
ARM,2014-05-20,17400.0
ARM,2014-05-21,17700.0
