ASA,2012-03-12,10300.0
ASA,2012-03-13,10700.0
ASA,2012-03-14,11100.0
ASA,2012-03-15,11400.0
ASA,2012-03-16,11400.0
ASA,2012-03-19,11600.0
ASA,2012-03-20,12000.0
ASA,2012-03-21,12800.0
ASA,2012-03-22,12900.0
ASA,2012-03-23,13000.0
ASA,2012-03-26,12800.0
ASA,2012-03-27,12800.0
ASA,2012-03-28,12800.0
ASA,2012-03-29,12800.0
ASA,2012-03-30,11900.0
ASA,2012-04-03,12800.0
ASA,2012-04-04,13400.0
ASA,2012-04-05,13200.0
ASA,2012-04-06,13200.0
ASA,2012-04-09,13200.0
ASA,2012-04-10,13200.0
ASA,2012-04-11,13200.0
ASA,2012-04-12,13200.0
ASA,2012-04-13,13200.0
ASA,2012-04-16,13200.0
ASA,2012-04-17,13200.0
ASA,2012-04-18,13400.0
ASA,2012-04-19,13800.0
ASA,2012-04-20,14700.0
ASA,2012-04-23,15400.0
ASA,2012-04-24,14400.0
ASA,2012-04-25,14900.0
ASA,2012-04-26,13500.0
ASA,2012-04-27,13600.0
ASA,2012-05-02,13700.0
ASA,2012-05-03,13700.0
ASA,2012-05-04,13700.0
ASA,2012-05-07,14600.0
ASA,2012-05-08,15600.0
ASA,2012-05-09,15400.0
ASA,2012-05-10,15300.0
ASA,2012-05-11,14200.0
ASA,2012-05-14,13300.0
ASA,2012-05-15,12600.0
ASA,2012-05-16,12900.0
ASA,2012-05-17,12500.0
ASA,2012-05-18,12800.0
ASA,2012-05-21,13600.0
ASA,2012-05-22,13200.0
ASA,2012-05-23,12700.0
ASA,2012-05-24,12500.0
ASA,2012-05-25,13400.0
ASA,2012-05-28,13200.0
ASA,2012-05-29,13100.0
ASA,2012-05-30,13100.0
ASA,2012-05-31,12800.0
ASA,2012-06-01,13700.0
ASA,2012-06-04,13400.0
ASA,2012-06-05,13800.0
ASA,2012-06-06,14700.0
ASA,2012-06-07,15700.0
ASA,2012-06-08,14800.0
ASA,2012-06-11,14800.0
ASA,2012-06-12,14500.0
ASA,2012-06-13,13700.0
ASA,2012-06-14,13600.0
ASA,2012-06-15,13800.0
ASA,2012-06-18,14000.0
ASA,2012-06-19,13900.0
ASA,2012-06-20,14000.0
ASA,2012-06-21,14000.0
ASA,2012-06-22,13800.0
ASA,2012-06-25,13300.0
ASA,2012-06-26,13300.0
ASA,2012-06-27,13000.0
ASA,2012-06-28,13300.0
ASA,2012-06-29,13500.0
ASA,2012-07-02,13400.0
ASA,2012-07-03,13200.0
ASA,2012-07-04,13000.0
ASA,2012-07-05,13100.0
ASA,2012-07-06,13300.0
ASA,2012-07-09,13100.0
ASA,2012-07-10,12900.0
ASA,2012-07-11,13100.0
ASA,2012-07-12,13100.0
ASA,2012-07-13,13300.0
ASA,2012-07-16,12900.0
ASA,2012-07-17,13200.0
ASA,2012-07-18,13100.0
ASA,2012-07-19,13600.0
ASA,2012-07-20,13100.0
ASA,2012-07-23,13100.0
ASA,2012-07-24,13000.0
ASA,2012-07-25,13100.0
ASA,2012-07-26,13200.0
ASA,2012-07-27,13200.0
ASA,2012-07-30,12900.0
ASA,2012-07-31,12900.0
ASA,2012-08-01,12900.0
ASA,2012-08-02,13000.0
ASA,2012-08-03,13000.0
ASA,2012-08-06,13600.0
ASA,2012-08-07,13100.0
ASA,2012-08-08,13200.0
ASA,2012-08-09,13300.0
ASA,2012-08-10,13100.0
ASA,2012-08-13,13000.0
ASA,2012-08-14,13200.0
ASA,2012-08-15,12900.0
ASA,2012-08-16,12900.0
ASA,2012-08-17,13100.0
ASA,2012-08-20,13200.0
ASA,2012-08-21,12500.0
ASA,2012-08-22,12700.0
ASA,2012-08-23,12300.0
ASA,2012-08-24,12800.0
ASA,2012-08-27,12600.0
ASA,2012-08-28,12700.0
ASA,2012-08-29,13400.0
ASA,2012-08-30,13300.0
ASA,2012-08-31,13100.0
ASA,2012-09-04,13400.0
ASA,2012-09-05,12900.0
ASA,2012-09-06,12900.0
ASA,2012-09-07,12900.0
ASA,2012-09-10,12800.0
ASA,2012-09-11,12700.0
ASA,2012-09-12,12800.0
ASA,2012-09-13,12900.0
ASA,2012-09-14,13200.0
ASA,2012-09-17,13300.0
ASA,2012-09-18,13000.0
ASA,2012-09-19,13000.0
ASA,2012-09-20,13100.0
ASA,2012-09-21,13400.0
ASA,2012-09-24,13100.0
ASA,2012-09-25,13100.0
ASA,2012-09-26,13200.0
ASA,2012-09-27,13200.0
ASA,2012-09-28,13200.0
ASA,2012-10-01,13000.0
ASA,2012-10-02,13100.0
ASA,2012-10-03,13400.0
ASA,2012-10-04,13200.0
ASA,2012-10-05,13400.0
ASA,2012-10-08,13600.0
ASA,2012-10-09,13900.0
ASA,2012-10-10,13800.0
ASA,2012-10-11,13900.0
ASA,2012-10-12,13500.0
ASA,2012-10-15,12900.0
ASA,2012-10-16,13200.0
ASA,2012-10-17,13000.0
ASA,2012-10-18,13000.0
ASA,2012-10-19,12800.0
ASA,2012-10-22,12700.0
ASA,2012-10-23,12900.0
ASA,2012-10-24,12800.0
ASA,2012-10-25,12900.0
ASA,2012-10-26,12900.0
ASA,2012-10-29,13100.0
ASA,2012-10-30,13100.0
ASA,2012-10-31,13000.0
ASA,2012-11-01,13000.0
ASA,2012-11-02,12700.0
ASA,2012-11-05,12600.0
ASA,2012-11-06,12800.0
ASA,2012-11-07,13100.0
ASA,2012-11-08,12900.0
ASA,2012-11-09,13000.0
ASA,2012-11-12,13100.0
ASA,2012-11-13,12900.0
ASA,2012-11-14,12900.0
ASA,2012-11-15,13000.0
ASA,2012-11-16,13100.0
ASA,2012-11-19,13000.0
ASA,2012-11-20,13000.0
ASA,2012-11-21,12800.0
ASA,2012-11-22,12900.0
ASA,2012-11-23,12800.0
ASA,2012-11-26,12800.0
ASA,2012-11-27,12800.0
ASA,2012-11-28,12700.0
ASA,2012-11-29,12900.0
ASA,2012-11-30,12800.0
ASA,2012-12-03,12800.0
ASA,2012-12-04,12800.0
ASA,2012-12-05,12900.0
ASA,2012-12-06,12800.0
ASA,2012-12-07,12700.0
ASA,2012-12-10,12900.0
ASA,2012-12-11,12800.0
ASA,2012-12-12,13200.0
ASA,2012-12-13,13100.0
ASA,2012-12-14,13100.0
ASA,2012-12-17,13000.0
ASA,2012-12-18,12900.0
ASA,2012-12-19,13300.0
ASA,2012-12-20,12900.0
ASA,2012-12-21,12900.0
ASA,2012-12-24,12900.0
ASA,2012-12-25,12900.0
ASA,2012-12-26,13000.0
ASA,2012-12-27,12900.0
ASA,2012-12-28,13000.0
ASA,2013-01-02,13300.0
ASA,2013-01-03,12900.0
ASA,2013-01-04,13200.0
ASA,2013-01-07,13000.0
ASA,2013-01-08,13400.0
ASA,2013-01-09,13100.0
ASA,2013-01-10,13100.0
ASA,2013-01-11,13200.0
ASA,2013-01-14,12900.0
ASA,2013-01-15,13200.0
ASA,2013-01-16,12900.0
ASA,2013-01-17,12800.0
ASA,2013-01-18,12400.0
ASA,2013-01-21,12600.0
ASA,2013-01-22,12500.0
ASA,2013-01-23,12300.0
ASA,2013-01-24,12700.0
ASA,2013-01-25,12800.0
ASA,2013-01-28,13700.0
ASA,2013-01-29,13300.0
ASA,2013-01-30,14700.0
ASA,2013-01-31,13800.0
ASA,2013-02-01,13300.0
ASA,2013-02-04,13200.0
ASA,2013-02-05,12800.0
ASA,2013-02-06,13500.0
ASA,2013-02-07,14700.0
ASA,2013-02-08,16100.0
ASA,2013-02-18,16300.0
ASA,2013-02-19,15900.0
ASA,2013-02-20,16000.0
ASA,2013-02-21,14400.0
ASA,2013-02-22,14600.0
ASA,2013-02-25,14800.0
ASA,2013-02-26,14400.0
ASA,2013-02-27,14900.0
ASA,2013-02-28,15000.0
ASA,2013-03-01,15100.0
ASA,2013-03-04,13900.0
ASA,2013-03-05,13400.0
ASA,2013-03-06,14300.0
ASA,2013-03-07,13900.0
ASA,2013-03-08,14200.0
ASA,2013-03-11,14600.0
ASA,2013-03-12,14900.0
ASA,2013-03-13,14000.0
ASA,2013-03-14,14300.0
ASA,2013-03-15,14400.0
ASA,2013-03-18,13100.0
ASA,2013-03-19,14600.0
ASA,2013-03-20,15800.0
ASA,2013-03-21,16200.0
ASA,2013-03-22,14900.0
ASA,2013-03-25,14800.0
ASA,2013-03-26,14400.0
ASA,2013-03-27,14200.0
ASA,2013-03-28,13800.0
ASA,2013-03-29,13500.0
ASA,2013-04-01,14800.0
ASA,2013-04-02,15600.0
ASA,2013-04-03,15700.0
ASA,2013-04-04,15500.0
ASA,2013-04-05,16000.0
ASA,2013-04-08,16000.0
ASA,2013-04-09,16000.0
ASA,2013-04-10,15400.0
ASA,2013-04-11,16100.0
ASA,2013-04-12,16000.0
ASA,2013-04-15,14700.0
ASA,2013-04-16,14800.0
ASA,2013-04-17,14800.0
ASA,2013-04-18,15000.0
ASA,2013-04-22,15100.0
ASA,2013-04-23,15300.0
ASA,2013-04-24,15200.0
ASA,2013-04-25,15400.0
ASA,2013-04-26,15300.0
ASA,2013-05-02,15100.0
ASA,2013-05-03,15200.0
ASA,2013-05-06,16000.0
ASA,2013-05-07,15200.0
ASA,2013-05-08,15800.0
ASA,2013-05-09,16700.0
ASA,2013-05-10,15900.0
ASA,2013-05-13,16100.0
ASA,2013-05-14,15900.0
ASA,2013-05-15,16300.0
ASA,2013-05-16,16500.0
ASA,2013-05-17,15800.0
ASA,2013-05-20,16000.0
ASA,2013-05-21,16500.0
ASA,2013-05-22,17400.0
ASA,2013-05-23,17200.0
ASA,2013-05-24,17300.0
ASA,2013-05-27,16800.0
ASA,2013-05-28,16700.0
ASA,2013-05-29,16800.0
ASA,2013-05-30,16600.0
ASA,2013-05-31,16200.0
ASA,2013-06-03,16800.0
ASA,2013-06-04,15800.0
ASA,2013-06-05,16200.0
ASA,2013-06-06,16200.0
ASA,2013-06-07,16500.0
ASA,2013-06-10,16500.0
ASA,2013-06-11,16500.0
ASA,2013-06-12,16500.0
ASA,2013-06-13,16700.0
ASA,2013-06-14,16700.0
ASA,2013-06-17,16900.0
ASA,2013-06-18,16700.0
ASA,2013-06-19,16800.0
ASA,2013-06-20,16600.0
ASA,2013-06-21,16700.0
ASA,2013-06-24,16700.0
ASA,2013-06-25,16500.0
ASA,2013-06-26,17000.0
ASA,2013-06-27,16800.0
ASA,2013-06-28,17700.0
ASA,2013-07-01,17400.0
ASA,2013-07-02,17200.0
ASA,2013-07-03,17200.0
ASA,2013-07-04,17100.0
ASA,2013-07-05,17100.0
ASA,2013-07-08,17100.0
ASA,2013-07-09,17100.0
ASA,2013-07-10,17100.0
ASA,2013-07-11,17100.0
ASA,2013-07-12,17100.0
ASA,2013-07-15,17100.0
ASA,2013-07-16,17100.0
ASA,2013-07-17,17100.0
ASA,2013-07-18,17100.0
ASA,2013-07-19,17100.0
ASA,2013-07-22,17100.0
ASA,2013-07-23,17100.0
ASA,2013-07-24,17100.0
ASA,2013-07-25,17100.0
ASA,2013-07-26,17100.0
ASA,2013-07-29,17100.0
ASA,2013-07-30,17100.0
ASA,2013-07-31,17100.0
ASA,2013-08-01,17100.0
ASA,2013-08-02,17100.0
ASA,2013-08-05,17100.0
ASA,2013-08-06,17100.0
ASA,2013-08-07,17100.0
ASA,2013-08-08,17100.0
ASA,2013-08-09,17100.0
ASA,2013-08-12,17100.0
ASA,2013-08-13,17100.0
ASA,2013-08-14,17100.0
ASA,2013-08-15,17100.0
ASA,2013-08-16,17100.0
ASA,2013-08-19,17100.0
ASA,2013-08-20,17100.0
ASA,2013-08-21,17100.0
ASA,2013-08-22,17100.0
ASA,2013-08-23,17100.0
ASA,2013-08-26,17100.0
ASA,2013-08-27,17100.0
ASA,2013-08-28,17100.0
ASA,2013-08-29,17100.0
ASA,2013-08-30,17100.0
ASA,2013-09-03,17100.0
ASA,2013-09-04,17100.0
ASA,2013-09-05,17100.0
ASA,2013-09-06,17100.0
ASA,2013-09-09,17100.0
ASA,2013-09-10,17100.0
ASA,2013-09-11,17100.0
ASA,2013-09-12,17100.0
ASA,2013-09-13,17100.0
ASA,2013-09-16,17100.0
ASA,2013-09-17,17100.0
ASA,2013-09-18,17100.0
ASA,2013-09-19,17100.0
ASA,2013-09-20,17100.0
ASA,2013-09-23,17100.0
ASA,2013-09-24,17100.0
ASA,2013-09-25,17100.0
ASA,2013-09-26,17100.0
ASA,2013-09-27,17100.0
ASA,2013-09-30,17100.0
ASA,2013-10-01,17100.0
ASA,2013-10-02,17100.0
ASA,2013-10-03,17100.0
ASA,2013-10-04,17100.0
ASA,2013-10-07,17100.0
ASA,2013-10-08,17100.0
ASA,2013-10-09,17100.0
ASA,2013-10-10,17100.0
ASA,2013-10-11,17100.0
ASA,2013-10-14,17100.0
ASA,2013-10-15,17100.0
ASA,2013-10-16,17100.0
ASA,2013-10-17,17100.0
ASA,2013-10-18,17100.0
ASA,2013-10-21,17100.0
ASA,2013-10-22,17100.0
ASA,2013-10-23,17100.0
ASA,2013-10-24,17100.0
ASA,2013-10-25,17100.0
ASA,2013-10-28,17100.0
ASA,2013-10-29,17100.0
ASA,2013-10-30,17100.0
ASA,2013-10-31,17100.0
ASA,2013-11-01,17100.0
ASA,2013-11-04,17100.0
ASA,2013-11-05,17100.0
ASA,2013-11-06,17100.0
ASA,2013-11-07,17100.0
ASA,2013-11-08,17100.0
ASA,2013-11-11,17100.0
ASA,2013-11-12,17100.0
ASA,2013-11-13,17100.0
ASA,2013-11-14,17100.0
ASA,2013-11-15,17100.0
ASA,2013-11-18,17100.0
ASA,2013-11-19,17100.0
ASA,2013-11-20,17100.0
ASA,2013-11-21,17100.0
ASA,2013-11-22,17100.0
ASA,2013-11-25,17100.0
ASA,2013-11-26,17100.0
ASA,2013-11-27,17100.0
ASA,2013-11-28,17100.0
ASA,2013-11-29,17100.0
ASA,2013-12-02,17100.0
ASA,2013-12-03,17100.0
ASA,2013-12-04,17100.0
ASA,2013-12-05,17100.0
ASA,2013-12-06,17100.0
ASA,2013-12-09,17100.0
ASA,2013-12-10,17100.0
ASA,2013-12-11,17100.0
ASA,2013-12-12,17100.0
ASA,2013-12-13,17100.0
ASA,2013-12-16,17100.0
ASA,2013-12-17,17100.0
ASA,2013-12-18,17100.0
ASA,2013-12-19,17100.0
ASA,2013-12-20,17100.0
ASA,2013-12-23,17100.0
ASA,2013-12-24,17100.0
ASA,2013-12-25,17100.0
ASA,2013-12-26,17100.0
ASA,2013-12-27,17100.0
ASA,2013-12-30,17100.0
ASA,2013-12-31,17100.0
ASA,2014-01-02,17100.0
ASA,2014-01-03,17100.0
ASA,2014-01-06,17100.0
ASA,2014-01-07,17100.0
ASA,2014-01-08,17100.0
ASA,2014-01-09,17100.0
ASA,2014-01-10,17100.0
ASA,2014-01-13,17100.0
ASA,2014-01-14,17100.0
ASA,2014-01-15,17100.0
ASA,2014-01-16,17100.0
ASA,2014-01-17,17100.0
ASA,2014-01-20,17100.0
ASA,2014-01-21,17100.0
ASA,2014-01-22,17100.0
ASA,2014-01-23,17100.0
ASA,2014-01-24,17100.0
ASA,2014-01-27,17100.0
ASA,2014-02-06,17100.0
ASA,2014-02-07,17100.0
ASA,2014-02-10,17100.0
ASA,2014-02-11,17100.0
ASA,2014-02-12,17100.0
ASA,2014-02-13,17100.0
ASA,2014-02-14,17100.0
ASA,2014-02-17,17100.0
ASA,2014-02-18,17100.0
ASA,2014-02-19,17100.0
ASA,2014-02-20,17100.0
ASA,2014-02-21,17100.0
ASA,2014-02-24,17100.0
ASA,2014-02-25,17100.0
ASA,2014-02-26,17100.0
ASA,2014-02-27,17100.0
ASA,2014-02-28,17100.0
ASA,2014-03-03,17100.0
ASA,2014-03-04,17000.0
ASA,2014-03-05,17000.0
ASA,2014-03-06,17000.0
ASA,2014-03-07,17200.0
ASA,2014-03-10,17200.0
ASA,2014-03-11,17000.0
ASA,2014-03-12,17000.0
ASA,2014-03-13,17000.0
ASA,2014-03-14,17000.0
ASA,2014-03-17,17000.0
ASA,2014-03-18,17200.0
ASA,2014-03-19,17200.0
ASA,2014-03-20,17200.0
ASA,2014-03-21,17200.0
ASA,2014-03-24,17200.0
ASA,2014-03-25,17200.0
ASA,2014-03-26,17200.0
ASA,2014-03-27,17200.0
ASA,2014-03-28,17200.0
ASA,2014-03-31,17200.0
ASA,2014-04-01,17200.0
ASA,2014-04-02,17200.0
ASA,2014-04-03,17200.0
ASA,2014-04-04,17200.0
ASA,2014-04-07,17200.0
ASA,2014-04-08,17200.0
ASA,2014-04-10,17200.0
ASA,2014-04-11,16600.0
ASA,2014-04-14,16600.0
ASA,2014-04-15,16600.0
ASA,2014-04-16,16600.0
ASA,2014-04-17,16600.0
ASA,2014-04-18,16600.0
ASA,2014-04-21,16600.0
ASA,2014-04-22,16600.0
ASA,2014-04-23,16600.0
ASA,2014-04-24,16600.0
ASA,2014-04-25,16600.0
ASA,2014-04-28,16600.0
ASA,2014-04-29,16600.0
ASA,2014-05-05,16600.0
ASA,2014-05-06,16600.0
ASA,2014-05-07,16600.0
ASA,2014-05-08,16600.0
ASA,2014-05-09,16600.0
ASA,2014-05-12,16600.0
ASA,2014-05-13,16600.0
ASA,2014-05-14,16600.0
ASA,2014-05-15,16600.0
ASA,2014-05-16,16600.0
ASA,2014-05-19,16600.0
ASA,2014-05-20,16600.0
ASA,2014-05-21,16600.0
