AVS,2010-04-22,15500.0
AVS,2010-04-26,15500.0
AVS,2010-04-27,16500.0
AVS,2010-04-28,17600.0
AVS,2010-04-29,18800.0
AVS,2010-05-04,18800.0
AVS,2010-05-05,18500.0
AVS,2010-05-06,19300.0
AVS,2010-05-07,19500.0
AVS,2010-05-10,18700.0
AVS,2010-05-11,18800.0
AVS,2010-05-12,17500.0
AVS,2010-05-13,17900.0
AVS,2010-05-14,17600.0
AVS,2010-05-17,16500.0
AVS,2010-05-18,16600.0
AVS,2010-05-19,15500.0
AVS,2010-05-20,16500.0
AVS,2010-05-21,14800.0
AVS,2010-05-24,15900.0
AVS,2010-05-25,15600.0
AVS,2010-05-26,16200.0
AVS,2010-05-27,15800.0
AVS,2010-05-28,16700.0
AVS,2010-05-31,15900.0
AVS,2010-06-01,15900.0
AVS,2010-06-02,15700.0
AVS,2010-06-03,15900.0
AVS,2010-06-04,15800.0
AVS,2010-06-07,15000.0
AVS,2010-06-08,15300.0
AVS,2010-06-09,15000.0
AVS,2010-06-10,15200.0
AVS,2010-06-11,15200.0
AVS,2010-06-14,15100.0
AVS,2010-06-15,15000.0
AVS,2010-06-16,15400.0
AVS,2010-06-17,15500.0
AVS,2010-06-18,15400.0
AVS,2010-06-21,15400.0
AVS,2010-06-22,15100.0
AVS,2010-06-23,15200.0
AVS,2010-06-24,15000.0
AVS,2010-06-25,15100.0
AVS,2010-06-28,15000.0
AVS,2010-06-29,14900.0
AVS,2010-06-30,14500.0
AVS,2010-07-01,14300.0
AVS,2010-07-02,14400.0
AVS,2010-07-05,14000.0
AVS,2010-07-06,13800.0
AVS,2010-07-07,13700.0
AVS,2010-07-08,13700.0
AVS,2010-07-09,13800.0
AVS,2010-07-12,13900.0
AVS,2010-07-13,14700.0
AVS,2010-07-14,15300.0
AVS,2010-07-15,14800.0
AVS,2010-07-16,14500.0
AVS,2010-07-19,14100.0
AVS,2010-07-20,13900.0
AVS,2010-07-21,13900.0
AVS,2010-07-22,14000.0
AVS,2010-07-23,13900.0
AVS,2010-07-26,13600.0
AVS,2010-07-27,13900.0
AVS,2010-07-28,13500.0
AVS,2010-07-29,13700.0
AVS,2010-07-30,13500.0
AVS,2010-08-02,13400.0
AVS,2010-08-03,13300.0
AVS,2010-08-04,13400.0
AVS,2010-08-05,13000.0
AVS,2010-08-06,12500.0
AVS,2010-08-09,12600.0
AVS,2010-08-10,12000.0
AVS,2010-08-11,12200.0
AVS,2010-08-12,11300.0
AVS,2010-08-13,11700.0
AVS,2010-08-16,12100.0
AVS,2010-08-17,11300.0
AVS,2010-08-18,11000.0
AVS,2010-08-19,11200.0
AVS,2010-08-20,11000.0
AVS,2010-08-23,10900.0
AVS,2010-08-24,11200.0
AVS,2010-08-25,10200.0
AVS,2010-08-26,10200.0
AVS,2010-08-27,10000.0
AVS,2010-08-30,10700.0
AVS,2010-08-31,10900.0
AVS,2010-09-01,10900.0
AVS,2010-09-06,11600.0
AVS,2010-09-07,11700.0
AVS,2010-09-08,11200.0
AVS,2010-09-09,11500.0
AVS,2010-09-10,11300.0
AVS,2010-09-13,10700.0
AVS,2010-09-14,10900.0
AVS,2010-09-15,10600.0
AVS,2010-09-16,10600.0
AVS,2010-09-17,11300.0
AVS,2010-09-20,11000.0
AVS,2010-09-21,10800.0
AVS,2010-09-22,10700.0
AVS,2010-09-23,10400.0
AVS,2010-09-24,10600.0
AVS,2010-09-27,10400.0
AVS,2010-09-28,10400.0
AVS,2010-09-29,10300.0
AVS,2010-09-30,10200.0
AVS,2010-10-01,10000.0
AVS,2010-10-04,9400.0
AVS,2010-10-05,9700.0
AVS,2010-10-06,10000.0
AVS,2010-10-07,9700.0
AVS,2010-10-08,9800.0
AVS,2010-10-11,9700.0
AVS,2010-10-12,9500.0
AVS,2010-10-13,9600.0
AVS,2010-10-14,9500.0
AVS,2010-10-15,9500.0
AVS,2010-10-18,9400.0
AVS,2010-10-19,9200.0
AVS,2010-10-20,8800.0
AVS,2010-10-21,8700.0
AVS,2010-10-22,8000.0
AVS,2010-10-25,7900.0
AVS,2010-10-26,8300.0
AVS,2010-10-27,8000.0
AVS,2010-10-28,7700.0
AVS,2010-10-29,7900.0
AVS,2010-11-01,7900.0
AVS,2010-11-02,7800.0
AVS,2010-11-03,7600.0
AVS,2010-11-04,7600.0
AVS,2010-11-05,8000.0
AVS,2010-11-08,8000.0
AVS,2010-11-09,7500.0
AVS,2010-11-10,7500.0
AVS,2010-11-11,7500.0
AVS,2010-11-12,7500.0
AVS,2010-11-15,7000.0
AVS,2010-11-16,7000.0
AVS,2010-11-17,7100.0
AVS,2010-11-18,7400.0
AVS,2010-11-19,7300.0
AVS,2010-11-22,7000.0
AVS,2010-11-23,7200.0
AVS,2010-11-24,7100.0
AVS,2010-11-25,7300.0
AVS,2010-11-26,7300.0
AVS,2010-11-29,7800.0
AVS,2010-11-30,8100.0
AVS,2010-12-01,8200.0
AVS,2010-12-02,8800.0
AVS,2010-12-03,9200.0
AVS,2010-12-06,9800.0
AVS,2010-12-07,10100.0
AVS,2010-12-08,9800.0
AVS,2010-12-09,10300.0
AVS,2010-12-10,10700.0
AVS,2010-12-13,11400.0
AVS,2010-12-14,12100.0
AVS,2010-12-15,12200.0
AVS,2010-12-16,11700.0
AVS,2010-12-17,12500.0
AVS,2010-12-20,11600.0
AVS,2010-12-21,11000.0
AVS,2010-12-22,10400.0
AVS,2010-12-23,10100.0
AVS,2010-12-24,10200.0
AVS,2010-12-27,10600.0
AVS,2010-12-28,11200.0
AVS,2010-12-29,11200.0
AVS,2010-12-30,11000.0
AVS,2010-12-31,11200.0
AVS,2011-01-04,11000.0
AVS,2011-01-05,10500.0
AVS,2011-01-06,10700.0
AVS,2011-01-07,10400.0
AVS,2011-01-10,10000.0
AVS,2011-01-11,9400.0
AVS,2011-01-12,9900.0
AVS,2011-01-13,10200.0
AVS,2011-01-14,10200.0
AVS,2011-01-17,10600.0
AVS,2011-01-18,10000.0
AVS,2011-01-19,10000.0
AVS,2011-01-20,10000.0
AVS,2011-01-21,9800.0
AVS,2011-01-24,9500.0
AVS,2011-01-25,9400.0
AVS,2011-01-26,10000.0
AVS,2011-01-27,10100.0
AVS,2011-01-28,10000.0
AVS,2011-02-08,10000.0
AVS,2011-02-09,10000.0
AVS,2011-02-10,9800.0
AVS,2011-02-11,9600.0
AVS,2011-02-14,9600.0
AVS,2011-02-15,9500.0
AVS,2011-02-16,9200.0
AVS,2011-02-17,9000.0
AVS,2011-02-18,8600.0
AVS,2011-02-21,8100.0
AVS,2011-02-22,7700.0
AVS,2011-02-23,8200.0
AVS,2011-02-24,8000.0
AVS,2011-02-25,8300.0
AVS,2011-02-28,8500.0
AVS,2011-03-01,8200.0
AVS,2011-03-02,8000.0
AVS,2011-03-03,7700.0
AVS,2011-03-04,7900.0
AVS,2011-03-07,7900.0
AVS,2011-03-08,7600.0
AVS,2011-03-09,7200.0
AVS,2011-03-10,7700.0
AVS,2011-03-11,8200.0
AVS,2011-03-14,7800.0
AVS,2011-03-15,7700.0
AVS,2011-03-16,7800.0
AVS,2011-03-17,8000.0
AVS,2011-03-18,8400.0
AVS,2011-03-21,8400.0
AVS,2011-03-22,8100.0
AVS,2011-03-23,8200.0
AVS,2011-03-24,8100.0
AVS,2011-03-25,7900.0
AVS,2011-03-28,7900.0
AVS,2011-03-29,7800.0
AVS,2011-03-30,7700.0
AVS,2011-03-31,7600.0
AVS,2011-04-01,7500.0
AVS,2011-04-04,7300.0
AVS,2011-04-05,7300.0
AVS,2011-04-06,7500.0
AVS,2011-04-07,7300.0
AVS,2011-04-08,7200.0
AVS,2011-04-13,7000.0
AVS,2011-04-14,6900.0
AVS,2011-04-15,6600.0
AVS,2011-04-18,6300.0
AVS,2011-04-19,6100.0
AVS,2011-04-20,5900.0
AVS,2011-04-21,5700.0
AVS,2011-04-22,6000.0
AVS,2011-04-25,6200.0
AVS,2011-04-26,6000.0
AVS,2011-04-27,6200.0
AVS,2011-04-28,6200.0
AVS,2011-04-29,6300.0
AVS,2011-05-04,6000.0
AVS,2011-05-05,5800.0
AVS,2011-05-06,6100.0
AVS,2011-05-09,6300.0
AVS,2011-05-10,6200.0
AVS,2011-05-11,6000.0
AVS,2011-05-12,6000.0
AVS,2011-05-13,6000.0
AVS,2011-05-16,5800.0
AVS,2011-05-17,5500.0
AVS,2011-05-18,5500.0
AVS,2011-05-19,5400.0
AVS,2011-05-20,5200.0
AVS,2011-05-23,5000.0
AVS,2011-05-24,4700.0
AVS,2011-05-25,4500.0
AVS,2011-05-26,4700.0
AVS,2011-05-27,4900.0
AVS,2011-05-30,4600.0
AVS,2011-05-31,4600.0
AVS,2011-06-01,4900.0
AVS,2011-06-02,5100.0
AVS,2011-06-03,5100.0
AVS,2011-06-06,5000.0
AVS,2011-06-07,5300.0
AVS,2011-06-08,5000.0
AVS,2011-06-09,5300.0
AVS,2011-06-10,5500.0
AVS,2011-06-13,5800.0
AVS,2011-06-14,5800.0
AVS,2011-06-15,5500.0
AVS,2011-06-16,5400.0
AVS,2011-06-17,5200.0
AVS,2011-06-20,5000.0
AVS,2011-06-21,5300.0
AVS,2011-06-22,5000.0
AVS,2011-06-23,4900.0
AVS,2011-06-24,4900.0
AVS,2011-06-27,4900.0
AVS,2011-06-28,4800.0
AVS,2011-06-29,4800.0
AVS,2011-06-30,4700.0
AVS,2011-07-01,4600.0
AVS,2011-07-04,4600.0
AVS,2011-07-05,4700.0
AVS,2011-07-06,4600.0
AVS,2011-07-07,4600.0
AVS,2011-07-08,4500.0
AVS,2011-07-11,4400.0
AVS,2011-07-12,4400.0
AVS,2011-07-13,4300.0
AVS,2011-07-14,4400.0
AVS,2011-07-15,4200.0
AVS,2011-07-18,4200.0
AVS,2011-07-19,4100.0
AVS,2011-07-20,4300.0
AVS,2011-07-21,4200.0
AVS,2011-07-22,4200.0
AVS,2011-07-25,4100.0
AVS,2011-07-26,4200.0
AVS,2011-07-27,4100.0
AVS,2011-07-28,4100.0
AVS,2011-07-29,4100.0
AVS,2011-08-01,3900.0
AVS,2011-08-02,3800.0
AVS,2011-08-03,3900.0
AVS,2011-08-04,3900.0
AVS,2011-08-05,3900.0
AVS,2011-08-08,3800.0
AVS,2011-08-09,3600.0
AVS,2011-08-10,3700.0
AVS,2011-08-11,3700.0
AVS,2011-08-12,3600.0
AVS,2011-08-15,3800.0
AVS,2011-08-16,3600.0
AVS,2011-08-17,3800.0
AVS,2011-08-18,4000.0
AVS,2011-08-19,3800.0
AVS,2011-08-22,4100.0
AVS,2011-08-23,4100.0
AVS,2011-08-24,4000.0
AVS,2011-08-25,4100.0
AVS,2011-08-26,4100.0
AVS,2011-08-29,4300.0
AVS,2011-08-30,4400.0
AVS,2011-08-31,4700.0
AVS,2011-09-01,5000.0
AVS,2011-09-05,5200.0
AVS,2011-09-06,4900.0
AVS,2011-09-07,5200.0
AVS,2011-09-08,5400.0
AVS,2011-09-09,5400.0
AVS,2011-09-12,5800.0
AVS,2011-09-13,6000.0
AVS,2011-09-14,5700.0
AVS,2011-09-15,5600.0
AVS,2011-09-16,5300.0
AVS,2011-09-19,5500.0
AVS,2011-09-20,5300.0
AVS,2011-09-21,5600.0
AVS,2011-09-22,5700.0
AVS,2011-09-23,5500.0
AVS,2011-09-26,5400.0
AVS,2011-09-27,5200.0
AVS,2011-09-28,5100.0
AVS,2011-09-29,4800.0
AVS,2011-09-30,4800.0
AVS,2011-10-03,4500.0
AVS,2011-10-04,4600.0
AVS,2011-10-05,4700.0
AVS,2011-10-06,5000.0
AVS,2011-10-07,4900.0
AVS,2011-10-10,4700.0
AVS,2011-10-11,4700.0
AVS,2011-10-12,4400.0
AVS,2011-10-13,4400.0
AVS,2011-10-14,4400.0
AVS,2011-10-17,4200.0
AVS,2011-10-18,4000.0
AVS,2011-10-19,4100.0
AVS,2011-10-20,4100.0
AVS,2011-10-21,4300.0
AVS,2011-10-24,4400.0
AVS,2011-10-25,4400.0
AVS,2011-10-26,4300.0
AVS,2011-10-27,4300.0
AVS,2011-10-28,4600.0
AVS,2011-10-31,4700.0
AVS,2011-11-01,4500.0
AVS,2011-11-02,4400.0
AVS,2011-11-03,4300.0
AVS,2011-11-04,4300.0
AVS,2011-11-07,4300.0
AVS,2011-11-08,4300.0
AVS,2011-11-09,4200.0
AVS,2011-11-10,4100.0
AVS,2011-11-11,3900.0
AVS,2011-11-14,3800.0
AVS,2011-11-15,3900.0
AVS,2011-11-16,4100.0
AVS,2011-11-17,3900.0
AVS,2011-11-18,3900.0
AVS,2011-11-21,3700.0
AVS,2011-11-22,3700.0
AVS,2011-11-23,3800.0
AVS,2011-11-24,3600.0
AVS,2011-11-25,3600.0
AVS,2011-11-28,3800.0
AVS,2011-11-29,3600.0
AVS,2011-11-30,3600.0
AVS,2011-12-01,3600.0
AVS,2011-12-02,3700.0
AVS,2011-12-05,3900.0
AVS,2011-12-06,3800.0
AVS,2011-12-07,3700.0
AVS,2011-12-08,3800.0
AVS,2011-12-09,3600.0
AVS,2011-12-12,3500.0
AVS,2011-12-13,3500.0
AVS,2011-12-14,3300.0
AVS,2011-12-15,3200.0
AVS,2011-12-16,3300.0
AVS,2011-12-19,3100.0
AVS,2011-12-20,2900.0
AVS,2011-12-21,3100.0
AVS,2011-12-22,2900.0
AVS,2011-12-23,2900.0
AVS,2011-12-26,2800.0
AVS,2011-12-27,2800.0
AVS,2011-12-28,2900.0
AVS,2011-12-29,2900.0
AVS,2011-12-30,3100.0
AVS,2012-01-03,3000.0
AVS,2012-01-04,2900.0
AVS,2012-01-05,2900.0
AVS,2012-01-06,2900.0
AVS,2012-01-09,3000.0
AVS,2012-01-10,3000.0
AVS,2012-01-11,3000.0
AVS,2012-01-12,2900.0
AVS,2012-01-13,2900.0
AVS,2012-01-16,2900.0
AVS,2012-01-17,2900.0
AVS,2012-01-18,2900.0
AVS,2012-01-19,3100.0
AVS,2012-01-20,3000.0
AVS,2012-01-30,3000.0
AVS,2012-01-31,3100.0
AVS,2012-02-01,3100.0
AVS,2012-02-02,3200.0
AVS,2012-02-03,3100.0
AVS,2012-02-06,3000.0
AVS,2012-02-07,3200.0
AVS,2012-02-08,3200.0
AVS,2012-02-09,3100.0
AVS,2012-02-10,2900.0
AVS,2012-02-13,3000.0
AVS,2012-02-14,2900.0
AVS,2012-02-15,3000.0
AVS,2012-02-16,3000.0
AVS,2012-02-17,3100.0
AVS,2012-02-20,3200.0
AVS,2012-02-21,3100.0
AVS,2012-02-22,3100.0
AVS,2012-02-23,3300.0
AVS,2012-02-24,3400.0
AVS,2012-02-27,3700.0
AVS,2012-02-28,3500.0
AVS,2012-02-29,3500.0
AVS,2012-03-01,3600.0
AVS,2012-03-02,3600.0
AVS,2012-03-05,3800.0
AVS,2012-03-06,4000.0
AVS,2012-03-07,4200.0
AVS,2012-03-08,4400.0
AVS,2012-03-09,4200.0
AVS,2012-03-12,4000.0
AVS,2012-03-13,4000.0
AVS,2012-03-14,3800.0
AVS,2012-03-15,4100.0
AVS,2012-03-16,4100.0
AVS,2012-03-19,4300.0
AVS,2012-03-20,4400.0
AVS,2012-03-21,4700.0
AVS,2012-03-22,5000.0
AVS,2012-03-23,5300.0
AVS,2012-03-26,5600.0
AVS,2012-03-27,5300.0
AVS,2012-03-28,5200.0
AVS,2012-03-29,4900.0
AVS,2012-03-30,4600.0
AVS,2012-04-03,4900.0
AVS,2012-04-04,4900.0
AVS,2012-04-05,5200.0
AVS,2012-04-06,5000.0
AVS,2012-04-09,5100.0
AVS,2012-04-10,4800.0
AVS,2012-04-11,5100.0
AVS,2012-04-12,5000.0
AVS,2012-04-13,5200.0
AVS,2012-04-16,5300.0
AVS,2012-04-17,5100.0
AVS,2012-04-18,5200.0
AVS,2012-04-19,5000.0
AVS,2012-04-20,5000.0
AVS,2012-04-23,4900.0
AVS,2012-04-24,4800.0
AVS,2012-04-25,4900.0
AVS,2012-04-26,4700.0
AVS,2012-04-27,4900.0
AVS,2012-05-02,4700.0
AVS,2012-05-03,4800.0
AVS,2012-05-04,4900.0
AVS,2012-05-07,5200.0
AVS,2012-05-08,5100.0
AVS,2012-05-09,5200.0
AVS,2012-05-10,5000.0
AVS,2012-05-11,4800.0
AVS,2012-05-14,4600.0
AVS,2012-05-15,4400.0
AVS,2012-05-16,4600.0
AVS,2012-05-17,4500.0
AVS,2012-05-18,4300.0
AVS,2012-05-21,4600.0
AVS,2012-05-22,4500.0
AVS,2012-05-23,4200.0
AVS,2012-05-24,4200.0
AVS,2012-05-25,4400.0
AVS,2012-05-28,4400.0
AVS,2012-05-29,4400.0
AVS,2012-05-30,4400.0
AVS,2012-05-31,4200.0
AVS,2012-06-01,4300.0
AVS,2012-06-04,4200.0
AVS,2012-06-05,4300.0
AVS,2012-06-06,4400.0
AVS,2012-06-07,4500.0
AVS,2012-06-08,4500.0
AVS,2012-06-11,4400.0
AVS,2012-06-12,4200.0
AVS,2012-06-13,4300.0
AVS,2012-06-14,4200.0
AVS,2012-06-15,4300.0
AVS,2012-06-18,4300.0
AVS,2012-06-19,4200.0
AVS,2012-06-20,4200.0
AVS,2012-06-21,4100.0
AVS,2012-06-22,4000.0
AVS,2012-06-25,3900.0
AVS,2012-06-26,3800.0
AVS,2012-06-27,3800.0
AVS,2012-06-28,3900.0
AVS,2012-06-29,3700.0
AVS,2012-07-02,3700.0
AVS,2012-07-03,3700.0
AVS,2012-07-04,3500.0
AVS,2012-07-05,3700.0
AVS,2012-07-06,3600.0
AVS,2012-07-09,3500.0
AVS,2012-07-10,3600.0
AVS,2012-07-11,3600.0
AVS,2012-07-12,3600.0
AVS,2012-07-13,3800.0
AVS,2012-07-16,4000.0
AVS,2012-07-17,4200.0
AVS,2012-07-18,4300.0
AVS,2012-07-19,4600.0
AVS,2012-07-20,4400.0
AVS,2012-07-23,4300.0
AVS,2012-07-24,4200.0
AVS,2012-07-25,4200.0
AVS,2012-07-26,4300.0
AVS,2012-07-27,4100.0
AVS,2012-07-30,4100.0
AVS,2012-07-31,4000.0
AVS,2012-08-01,4000.0
AVS,2012-08-02,4000.0
AVS,2012-08-03,4000.0
AVS,2012-08-06,4200.0
AVS,2012-08-07,4200.0
AVS,2012-08-08,4300.0
AVS,2012-08-09,4300.0
AVS,2012-08-10,4100.0
AVS,2012-08-13,4000.0
AVS,2012-08-14,4100.0
AVS,2012-08-15,4100.0
AVS,2012-08-16,4000.0
AVS,2012-08-17,4100.0
AVS,2012-08-20,4200.0
AVS,2012-08-21,3900.0
AVS,2012-08-22,3800.0
AVS,2012-08-23,3600.0
AVS,2012-08-24,3800.0
AVS,2012-08-27,3700.0
AVS,2012-08-28,3800.0
AVS,2012-08-29,4000.0
AVS,2012-08-30,3900.0
AVS,2012-08-31,3800.0
AVS,2012-09-04,3800.0
AVS,2012-09-05,3600.0
AVS,2012-09-06,3600.0
AVS,2012-09-07,3700.0
AVS,2012-09-10,3500.0
AVS,2012-09-11,3600.0
AVS,2012-09-12,3600.0
AVS,2012-09-13,3700.0
AVS,2012-09-14,3700.0
AVS,2012-09-17,3600.0
AVS,2012-09-18,3400.0
AVS,2012-09-19,3500.0
AVS,2012-09-20,3300.0
AVS,2012-09-21,3400.0
AVS,2012-09-24,3300.0
AVS,2012-09-25,3300.0
AVS,2012-09-26,3400.0
AVS,2012-09-27,3300.0
AVS,2012-09-28,3500.0
AVS,2012-10-01,3300.0
AVS,2012-10-02,3200.0
AVS,2012-10-03,3200.0
AVS,2012-10-04,3200.0
AVS,2012-10-05,3300.0
AVS,2012-10-08,3200.0
AVS,2012-10-09,3200.0
AVS,2012-10-10,3200.0
AVS,2012-10-11,3300.0
AVS,2012-10-12,3300.0
AVS,2012-10-15,3100.0
AVS,2012-10-16,3300.0
AVS,2012-10-17,3200.0
AVS,2012-10-18,3400.0
AVS,2012-10-19,3300.0
AVS,2012-10-22,3200.0
AVS,2012-10-23,3100.0
AVS,2012-10-24,3100.0
AVS,2012-10-25,3200.0
AVS,2012-10-26,3100.0
AVS,2012-10-29,3200.0
AVS,2012-10-30,3200.0
AVS,2012-10-31,3100.0
AVS,2012-11-01,3200.0
AVS,2012-11-02,3200.0
AVS,2012-11-05,3100.0
AVS,2012-11-06,3100.0
AVS,2012-11-07,3300.0
AVS,2012-11-08,3300.0
AVS,2012-11-09,3300.0
AVS,2012-11-12,3200.0
AVS,2012-11-13,3200.0
AVS,2012-11-14,3300.0
AVS,2012-11-15,3200.0
AVS,2012-11-16,3100.0
AVS,2012-11-19,3300.0
AVS,2012-11-20,3400.0
AVS,2012-11-21,3400.0
AVS,2012-11-22,3400.0
AVS,2012-11-23,3300.0
AVS,2012-11-26,3100.0
AVS,2012-11-27,3100.0
AVS,2012-11-28,3300.0
AVS,2012-11-29,3300.0
AVS,2012-11-30,3300.0
AVS,2012-12-03,3300.0
AVS,2012-12-04,3200.0
AVS,2012-12-05,3200.0
AVS,2012-12-06,3100.0
AVS,2012-12-07,3100.0
AVS,2012-12-10,3300.0
AVS,2012-12-11,3400.0
AVS,2012-12-12,3400.0
AVS,2012-12-13,3400.0
AVS,2012-12-14,3200.0
AVS,2012-12-17,3400.0
AVS,2012-12-18,3400.0
AVS,2012-12-19,3400.0
AVS,2012-12-20,3400.0
AVS,2012-12-21,3200.0
AVS,2012-12-24,3400.0
AVS,2012-12-25,3300.0
AVS,2012-12-26,3400.0
AVS,2012-12-27,3300.0
AVS,2012-12-28,3400.0
AVS,2013-01-02,3600.0
AVS,2013-01-03,3400.0
AVS,2013-01-04,3600.0
AVS,2013-01-07,3700.0
AVS,2013-01-08,3800.0
AVS,2013-01-09,3800.0
AVS,2013-01-10,3500.0
AVS,2013-01-11,3800.0
AVS,2013-01-14,4000.0
AVS,2013-01-15,4400.0
AVS,2013-01-16,4400.0
AVS,2013-01-17,4400.0
AVS,2013-01-18,4200.0
AVS,2013-01-21,4300.0
AVS,2013-01-22,4400.0
AVS,2013-01-23,4400.0
AVS,2013-01-24,4300.0
AVS,2013-01-25,4500.0
AVS,2013-01-28,4400.0
AVS,2013-01-29,4600.0
AVS,2013-01-30,4500.0
AVS,2013-01-31,4600.0
AVS,2013-02-01,4700.0
AVS,2013-02-04,4700.0
AVS,2013-02-05,4700.0
AVS,2013-02-06,4700.0
AVS,2013-02-07,4700.0
AVS,2013-02-08,4700.0
AVS,2013-02-18,4700.0
AVS,2013-02-19,4800.0
AVS,2013-02-20,4700.0
AVS,2013-02-21,4900.0
AVS,2013-02-22,4800.0
AVS,2013-02-25,4700.0
AVS,2013-02-26,4700.0
AVS,2013-02-27,4700.0
AVS,2013-02-28,4700.0
AVS,2013-03-01,4800.0
AVS,2013-03-04,4800.0
AVS,2013-03-05,4700.0
AVS,2013-03-06,4700.0
AVS,2013-03-07,4800.0
AVS,2013-03-08,4800.0
AVS,2013-03-11,4700.0
AVS,2013-03-12,4700.0
AVS,2013-03-13,4700.0
AVS,2013-03-14,4700.0
AVS,2013-03-15,4800.0
AVS,2013-03-18,4700.0
AVS,2013-03-19,4600.0
AVS,2013-03-20,5000.0
AVS,2013-03-21,4700.0
AVS,2013-03-22,4900.0
AVS,2013-03-25,4700.0
AVS,2013-03-26,4900.0
AVS,2013-03-27,4900.0
AVS,2013-03-28,4800.0
AVS,2013-03-29,4800.0
AVS,2013-04-01,4900.0
AVS,2013-04-02,4800.0
AVS,2013-04-03,4900.0
AVS,2013-04-04,5000.0
AVS,2013-04-05,4900.0
AVS,2013-04-08,4900.0
AVS,2013-04-09,5000.0
AVS,2013-04-10,5000.0
AVS,2013-04-11,4900.0
AVS,2013-04-12,4900.0
AVS,2013-04-15,5300.0
AVS,2013-04-16,5300.0
AVS,2013-04-17,5000.0
AVS,2013-04-18,5100.0
AVS,2013-04-22,5300.0
AVS,2013-04-23,5100.0
AVS,2013-04-24,5400.0
AVS,2013-04-25,5400.0
AVS,2013-04-26,5400.0
AVS,2013-05-02,5400.0
AVS,2013-05-03,5400.0
AVS,2013-05-06,5300.0
AVS,2013-05-07,5400.0
AVS,2013-05-08,5600.0
AVS,2013-05-09,5600.0
AVS,2013-05-10,5300.0
AVS,2013-05-13,5300.0
AVS,2013-05-14,5400.0
AVS,2013-05-15,5300.0
AVS,2013-05-16,5600.0
AVS,2013-05-17,5700.0
AVS,2013-05-20,5400.0
AVS,2013-05-21,5400.0
AVS,2013-05-22,5700.0
AVS,2013-05-23,5700.0
AVS,2013-05-24,5500.0
AVS,2013-05-27,5500.0
AVS,2013-05-28,5500.0
AVS,2013-05-29,5500.0
AVS,2013-05-30,5500.0
AVS,2013-05-31,5500.0
AVS,2013-06-03,5700.0
AVS,2013-06-04,6200.0
