CTB,2006-10-10,14200.0
CTB,2006-10-11,14000.0
CTB,2006-10-12,14000.0
CTB,2006-10-13,14000.0
CTB,2006-10-16,13400.0
CTB,2006-10-17,13800.0
CTB,2006-10-18,13500.0
CTB,2006-10-19,13500.0
CTB,2006-10-20,13500.0
CTB,2006-10-23,13500.0
CTB,2006-10-24,13400.0
CTB,2006-10-25,13400.0
CTB,2006-10-26,13400.0
CTB,2006-10-27,13400.0
CTB,2006-10-30,13400.0
CTB,2006-10-31,13400.0
CTB,2006-11-01,13400.0
CTB,2006-11-02,13400.0
CTB,2006-11-03,13400.0
CTB,2006-11-06,13400.0
CTB,2006-11-07,13400.0
CTB,2006-11-08,13400.0
CTB,2006-11-09,13400.0
CTB,2006-11-10,13400.0
CTB,2006-11-13,13400.0
CTB,2006-11-14,13400.0
CTB,2006-11-15,13400.0
CTB,2006-11-16,13400.0
CTB,2006-11-17,12000.0
CTB,2006-11-20,12000.0
CTB,2006-11-21,12000.0
CTB,2006-11-22,12000.0
CTB,2006-11-23,12000.0
CTB,2006-11-24,11600.0
CTB,2006-11-27,12000.0
CTB,2006-11-28,11600.0
CTB,2006-11-29,11600.0
CTB,2006-11-30,11100.0
CTB,2006-12-01,11100.0
CTB,2006-12-04,11100.0
CTB,2006-12-05,10700.0
CTB,2006-12-06,10500.0
CTB,2006-12-07,10200.0
CTB,2006-12-08,9900.0
CTB,2006-12-11,9800.0
CTB,2006-12-12,9800.0
CTB,2006-12-13,9800.0
CTB,2006-12-14,9300.0
CTB,2006-12-15,9300.0
CTB,2006-12-18,9300.0
CTB,2006-12-19,9300.0
CTB,2006-12-20,8900.0
CTB,2006-12-21,8900.0
CTB,2006-12-22,8900.0
CTB,2006-12-25,9300.0
CTB,2006-12-26,9300.0
CTB,2006-12-27,9300.0
CTB,2006-12-28,9300.0
CTB,2006-12-29,9300.0
CTB,2007-01-02,9300.0
CTB,2007-01-03,9300.0
CTB,2007-01-04,10300.0
CTB,2007-01-05,10300.0
CTB,2007-01-08,10300.0
CTB,2007-01-09,10300.0
CTB,2007-01-10,11100.0
CTB,2007-01-11,11100.0
CTB,2007-01-12,11100.0
CTB,2007-01-15,11100.0
CTB,2007-01-16,11100.0
CTB,2007-01-17,11200.0
CTB,2007-01-18,11600.0
CTB,2007-01-19,11800.0
CTB,2007-01-22,12000.0
CTB,2007-01-23,11600.0
CTB,2007-01-24,11600.0
CTB,2007-01-25,12000.0
CTB,2007-01-26,12000.0
CTB,2007-01-29,11800.0
CTB,2007-01-30,11700.0
CTB,2007-01-31,11700.0
CTB,2007-02-01,11700.0
CTB,2007-02-02,11800.0
CTB,2007-02-05,11800.0
CTB,2007-02-06,11600.0
CTB,2007-02-07,11600.0
CTB,2007-02-08,11600.0
CTB,2007-02-09,11600.0
CTB,2007-02-12,12200.0
CTB,2007-02-13,12200.0
CTB,2007-02-14,12200.0
CTB,2007-02-15,12200.0
CTB,2007-02-26,12700.0
CTB,2007-02-27,13800.0
CTB,2007-02-28,15200.0
CTB,2007-03-01,16700.0
CTB,2007-03-02,18300.0
CTB,2007-03-05,20200.0
CTB,2007-03-06,22200.0
CTB,2007-03-07,24400.0
CTB,2007-03-08,26800.0
CTB,2007-03-09,29100.0
CTB,2007-03-12,27600.0
CTB,2007-03-13,26400.0
CTB,2007-03-14,23800.0
CTB,2007-03-15,21500.0
CTB,2007-03-16,21600.0
CTB,2007-03-19,21700.0
CTB,2007-03-20,23800.0
CTB,2007-03-21,24600.0
CTB,2007-03-22,23900.0
CTB,2007-03-23,21800.0
CTB,2007-03-26,21100.0
CTB,2007-03-27,19000.0
CTB,2007-03-28,19000.0
CTB,2007-03-29,20600.0
CTB,2007-03-30,22000.0
CTB,2007-04-02,20200.0
CTB,2007-04-03,18300.0
CTB,2007-04-04,18700.0
CTB,2007-04-05,18800.0
CTB,2007-04-06,18800.0
CTB,2007-04-09,18800.0
CTB,2007-04-10,19000.0
CTB,2007-04-11,19200.0
CTB,2007-04-12,18600.0
CTB,2007-04-13,18700.0
CTB,2007-04-16,16900.0
CTB,2007-04-17,15300.0
CTB,2007-04-18,14100.0
CTB,2007-04-19,15800.0
CTB,2007-04-20,15000.0
CTB,2007-04-23,15200.0
CTB,2007-04-24,15000.0
CTB,2007-04-25,15500.0
CTB,2007-05-02,16400.0
CTB,2007-05-03,17100.0
CTB,2007-05-04,16900.0
CTB,2007-05-07,17300.0
CTB,2007-05-08,17800.0
CTB,2007-05-09,18300.0
CTB,2007-05-10,18000.0
CTB,2007-05-11,16400.0
CTB,2007-05-14,17800.0
CTB,2007-05-15,17900.0
CTB,2007-05-16,16200.0
CTB,2007-05-17,17700.0
CTB,2007-05-18,17200.0
CTB,2007-05-21,16900.0
CTB,2007-05-22,17100.0
CTB,2007-05-23,17100.0
CTB,2007-05-24,17800.0
CTB,2007-05-25,17100.0
CTB,2007-05-28,17800.0
CTB,2007-05-29,17800.0
CTB,2007-05-30,17800.0
CTB,2007-05-31,17200.0
CTB,2007-06-01,17600.0
CTB,2007-06-04,16900.0
CTB,2007-06-05,16900.0
CTB,2007-06-06,16900.0
CTB,2007-06-07,16900.0
CTB,2007-06-08,16400.0
CTB,2007-06-11,16400.0
CTB,2007-06-12,16800.0
CTB,2007-06-13,16400.0
CTB,2007-06-14,16200.0
CTB,2007-06-15,16400.0
CTB,2007-06-18,16400.0
CTB,2007-06-19,16100.0
CTB,2007-06-20,16100.0
CTB,2007-06-21,15900.0
CTB,2007-06-22,15900.0
CTB,2007-06-25,15900.0
CTB,2007-06-26,15900.0
CTB,2007-06-27,15900.0
CTB,2007-06-28,16300.0
CTB,2007-06-29,16300.0
CTB,2007-07-02,16300.0
CTB,2007-07-03,16300.0
CTB,2007-07-04,15900.0
CTB,2007-07-05,15100.0
CTB,2007-07-06,16400.0
CTB,2007-07-09,16400.0
CTB,2007-07-10,16400.0
CTB,2007-07-11,16400.0
CTB,2007-07-12,16400.0
CTB,2007-07-13,16400.0
CTB,2007-07-16,15000.0
CTB,2007-07-17,15000.0
CTB,2007-07-18,13500.0
CTB,2007-07-19,14800.0
CTB,2007-07-20,14800.0
CTB,2007-07-23,16300.0
CTB,2007-07-24,14500.0
CTB,2007-07-25,14500.0
CTB,2007-07-26,13300.0
CTB,2007-07-27,14500.0
CTB,2007-07-30,14100.0
CTB,2007-07-31,13900.0
CTB,2007-08-01,13900.0
CTB,2007-08-02,13600.0
CTB,2007-08-03,13600.0
CTB,2007-08-06,13800.0
CTB,2007-08-07,13800.0
CTB,2007-08-08,14300.0
CTB,2007-08-09,14400.0
CTB,2007-08-10,14400.0
CTB,2007-08-13,14100.0
CTB,2007-08-14,14400.0
CTB,2007-08-15,14500.0
CTB,2007-08-16,14500.0
CTB,2007-08-17,14500.0
CTB,2007-08-20,14500.0
CTB,2007-08-21,14500.0
CTB,2007-08-22,14500.0
CTB,2007-08-23,14300.0
CTB,2007-08-24,14200.0
CTB,2007-08-27,14900.0
CTB,2007-08-28,14300.0
CTB,2007-08-29,14300.0
CTB,2007-08-30,14300.0
CTB,2007-08-31,14500.0
CTB,2007-09-04,14500.0
CTB,2007-09-05,14500.0
CTB,2007-09-06,15500.0
CTB,2007-09-07,15000.0
CTB,2007-09-10,15000.0
CTB,2007-09-11,15000.0
CTB,2007-09-12,16700.0
CTB,2007-09-13,15000.0
CTB,2007-09-14,15000.0
CTB,2007-09-17,15000.0
CTB,2007-09-18,15100.0
CTB,2007-09-19,15200.0
CTB,2007-09-20,15500.0
CTB,2007-09-21,15000.0
CTB,2007-09-24,15200.0
CTB,2007-09-25,15200.0
CTB,2007-09-26,15400.0
CTB,2007-09-27,16400.0
CTB,2007-09-28,16400.0
CTB,2007-10-01,18000.0
CTB,2007-10-02,17300.0
CTB,2007-10-03,17800.0
CTB,2007-10-04,17600.0
CTB,2007-10-05,17300.0
CTB,2007-10-08,16900.0
CTB,2007-10-09,17200.0
CTB,2007-10-10,17300.0
CTB,2007-10-11,18700.0
CTB,2007-10-12,19900.0
CTB,2007-10-15,21200.0
CTB,2007-10-16,23000.0
CTB,2007-10-17,22000.0
CTB,2007-10-18,21200.0
CTB,2007-10-19,21800.0
CTB,2007-10-22,21100.0
CTB,2007-10-23,21000.0
CTB,2007-10-24,22300.0
CTB,2007-10-25,23600.0
CTB,2007-10-26,25600.0
CTB,2007-10-29,26900.0
CTB,2007-10-30,24400.0
CTB,2007-10-31,23000.0
CTB,2007-11-01,24900.0
CTB,2007-11-02,23800.0
CTB,2007-11-05,23700.0
CTB,2007-11-06,22300.0
CTB,2007-11-07,23700.0
CTB,2007-11-08,23000.0
CTB,2007-11-09,22800.0
CTB,2007-11-12,21600.0
CTB,2007-11-13,19700.0
CTB,2007-11-14,21700.0
CTB,2007-11-15,21100.0
CTB,2007-11-16,21100.0
CTB,2007-11-19,21100.0
CTB,2007-11-20,19100.0
CTB,2007-11-21,19100.0
CTB,2007-11-22,18700.0
CTB,2007-11-23,19700.0
CTB,2007-11-26,20600.0
CTB,2007-11-27,20400.0
CTB,2007-11-28,20000.0
CTB,2007-11-29,21600.0
CTB,2007-11-30,21500.0
CTB,2007-12-03,20900.0
CTB,2007-12-04,20200.0
CTB,2007-12-05,20200.0
CTB,2007-12-06,20800.0
CTB,2007-12-07,20200.0
CTB,2007-12-10,20200.0
CTB,2007-12-11,20400.0
CTB,2007-12-12,20400.0
CTB,2007-12-13,21300.0
CTB,2007-12-14,19400.0
CTB,2007-12-17,20200.0
CTB,2007-12-18,20200.0
CTB,2007-12-19,21300.0
CTB,2007-12-20,19800.0
CTB,2007-12-21,21100.0
CTB,2007-12-24,20200.0
CTB,2007-12-25,19900.0
CTB,2007-12-26,19700.0
CTB,2007-12-27,19700.0
CTB,2007-12-28,19700.0
CTB,2008-01-02,19500.0
CTB,2008-01-03,19200.0
CTB,2008-01-04,19200.0
CTB,2008-01-07,18700.0
CTB,2008-01-08,17100.0
CTB,2008-01-09,17400.0
CTB,2008-01-10,17400.0
CTB,2008-01-11,17400.0
CTB,2008-01-14,17300.0
CTB,2008-01-15,15700.0
CTB,2008-01-16,17400.0
CTB,2008-01-17,16400.0
CTB,2008-01-18,18500.0
CTB,2008-01-21,18000.0
CTB,2008-01-22,17800.0
CTB,2008-01-23,17800.0
CTB,2008-01-24,16400.0
CTB,2008-01-25,16400.0
CTB,2008-01-28,17100.0
CTB,2008-01-29,17800.0
CTB,2008-01-30,19200.0
CTB,2008-01-31,18900.0
CTB,2008-02-01,20600.0
CTB,2008-02-12,17400.0
CTB,2008-02-13,17800.0
CTB,2008-02-14,17900.0
CTB,2008-02-15,17700.0
CTB,2008-02-18,17300.0
CTB,2008-02-19,17600.0
CTB,2008-02-20,15700.0
CTB,2008-02-21,14600.0
CTB,2008-02-22,15800.0
CTB,2008-02-25,16300.0
CTB,2008-02-26,15600.0
CTB,2008-02-27,16100.0
CTB,2008-02-28,16100.0
CTB,2008-02-29,14700.0
CTB,2008-03-03,14700.0
CTB,2008-03-04,13600.0
CTB,2008-03-05,12900.0
CTB,2008-03-06,14300.0
CTB,2008-03-07,15700.0
CTB,2008-03-10,16100.0
CTB,2008-03-11,15200.0
CTB,2008-03-12,16100.0
CTB,2008-03-13,16100.0
CTB,2008-03-14,15600.0
CTB,2008-03-17,15100.0
CTB,2008-03-18,13600.0
CTB,2008-03-19,12700.0
CTB,2008-03-20,13700.0
CTB,2008-03-21,12900.0
CTB,2008-03-24,13200.0
CTB,2008-03-25,11700.0
CTB,2008-03-26,12700.0
CTB,2008-03-27,12600.0
CTB,2008-03-28,12800.0
CTB,2008-03-31,13100.0
CTB,2008-04-01,13300.0
CTB,2008-04-02,13600.0
CTB,2008-04-03,13800.0
CTB,2008-04-04,14100.0
CTB,2008-04-07,14500.0
CTB,2008-04-08,14200.0
CTB,2008-04-09,14300.0
CTB,2008-04-10,14100.0
CTB,2008-04-11,13700.0
CTB,2008-04-16,13300.0
CTB,2008-04-17,13800.0
CTB,2008-04-18,14100.0
CTB,2008-04-21,14000.0
CTB,2008-04-22,13700.0
CTB,2008-04-23,13700.0
CTB,2008-04-24,13400.0
CTB,2008-04-25,13000.0
CTB,2008-04-28,13000.0
CTB,2008-04-29,13000.0
CTB,2008-05-05,13000.0
CTB,2008-05-06,13200.0
CTB,2008-05-07,12800.0
CTB,2008-05-08,12500.0
CTB,2008-05-09,12200.0
CTB,2008-05-12,11800.0
CTB,2008-05-13,11500.0
CTB,2008-05-14,11100.0
CTB,2008-05-15,10800.0
CTB,2008-05-16,10500.0
CTB,2008-05-19,10400.0
CTB,2008-05-20,10100.0
CTB,2008-05-21,10300.0
CTB,2008-05-22,10400.0
CTB,2008-05-23,10100.0
CTB,2008-05-26,9800.0
CTB,2008-05-27,9500.0
CTB,2008-05-28,9300.0
CTB,2008-05-29,9300.0
CTB,2008-05-30,8900.0
CTB,2008-06-02,8700.0
CTB,2008-06-03,8700.0
CTB,2008-06-04,8400.0
CTB,2008-06-05,8400.0
CTB,2008-06-06,8200.0
CTB,2008-06-09,8000.0
CTB,2008-06-10,7800.0
CTB,2008-06-11,8000.0
CTB,2008-06-12,8200.0
CTB,2008-06-13,8200.0
CTB,2008-06-16,8400.0
CTB,2008-06-17,8700.0
CTB,2008-06-18,8400.0
CTB,2008-06-19,8900.0
CTB,2008-06-20,8500.0
CTB,2008-06-23,8800.0
CTB,2008-06-24,9100.0
CTB,2008-06-25,9300.0
CTB,2008-06-26,9300.0
CTB,2008-06-27,9500.0
CTB,2008-06-30,9300.0
CTB,2008-07-01,9300.0
CTB,2008-07-02,8900.0
CTB,2008-07-03,9300.0
CTB,2008-07-04,9200.0
CTB,2008-07-07,8800.0
CTB,2008-07-08,9200.0
CTB,2008-07-09,9200.0
CTB,2008-07-10,8800.0
CTB,2008-07-11,8800.0
CTB,2008-07-14,9200.0
CTB,2008-07-15,9500.0
CTB,2008-07-16,9300.0
CTB,2008-07-17,9300.0
CTB,2008-07-18,8900.0
CTB,2008-07-21,8600.0
CTB,2008-07-22,8300.0
CTB,2008-07-23,8000.0
CTB,2008-07-24,7700.0
CTB,2008-07-25,7400.0
CTB,2008-07-28,7100.0
CTB,2008-07-29,7300.0
CTB,2008-07-30,7600.0
CTB,2008-07-31,7800.0
CTB,2008-08-01,7600.0
CTB,2008-08-04,7800.0
CTB,2008-08-05,7500.0
CTB,2008-08-06,7600.0
CTB,2008-08-07,7400.0
CTB,2008-08-08,7400.0
CTB,2008-08-11,7700.0
CTB,2008-08-12,8000.0
CTB,2008-08-13,8200.0
CTB,2008-08-14,8400.0
CTB,2008-08-15,8600.0
CTB,2008-08-18,8300.0
CTB,2008-08-19,8500.0
CTB,2008-08-20,8600.0
CTB,2008-08-21,9200.0
CTB,2008-08-22,8800.0
CTB,2008-08-25,10000.0
CTB,2008-08-26,9800.0
CTB,2008-08-27,9500.0
CTB,2008-08-28,9500.0
CTB,2008-08-29,8900.0
CTB,2008-09-03,9400.0
CTB,2008-09-04,10100.0
CTB,2008-09-05,10700.0
CTB,2008-09-08,10700.0
CTB,2008-09-09,11200.0
CTB,2008-09-10,11300.0
CTB,2008-09-11,11300.0
CTB,2008-09-12,10500.0
CTB,2008-09-15,9800.0
CTB,2008-09-16,9800.0
CTB,2008-09-17,9100.0
CTB,2008-09-18,8400.0
CTB,2008-09-19,9000.0
CTB,2008-09-22,9000.0
CTB,2008-09-23,9000.0
CTB,2008-09-24,8400.0
CTB,2008-09-25,9000.0
CTB,2008-09-26,9000.0
CTB,2008-09-29,9200.0
CTB,2008-09-30,8500.0
CTB,2008-10-01,8000.0
CTB,2008-10-02,8000.0
CTB,2008-10-03,7100.0
CTB,2008-10-06,7100.0
CTB,2008-10-07,7600.0
CTB,2008-10-08,8100.0
CTB,2008-10-09,7500.0
CTB,2008-10-10,7100.0
CTB,2008-10-13,7600.0
CTB,2008-10-14,8100.0
CTB,2008-10-15,8200.0
CTB,2008-10-16,8200.0
CTB,2008-10-17,8400.0
CTB,2008-10-20,8400.0
CTB,2008-10-21,8200.0
CTB,2008-10-22,7700.0
CTB,2008-10-23,7200.0
CTB,2008-10-24,7200.0
CTB,2008-10-27,6700.0
CTB,2008-10-28,6300.0
CTB,2008-10-29,6600.0
CTB,2008-10-30,6900.0
CTB,2008-10-31,6800.0
CTB,2008-11-03,6800.0
CTB,2008-11-04,7200.0
CTB,2008-11-05,7500.0
CTB,2008-11-06,7200.0
CTB,2008-11-07,7000.0
CTB,2008-11-10,7000.0
CTB,2008-11-11,7000.0
CTB,2008-11-12,7000.0
CTB,2008-11-13,6500.0
CTB,2008-11-14,7000.0
CTB,2008-11-17,6500.0
CTB,2008-11-18,6200.0
CTB,2008-11-19,6200.0
CTB,2008-11-20,6600.0
CTB,2008-11-21,6600.0
CTB,2008-11-24,7000.0
CTB,2008-11-25,7000.0
CTB,2008-11-26,6500.0
CTB,2008-11-27,6300.0
CTB,2008-11-28,6300.0
CTB,2008-12-01,6300.0
CTB,2008-12-02,6300.0
CTB,2008-12-03,6000.0
CTB,2008-12-04,6400.0
CTB,2008-12-05,6300.0
CTB,2008-12-08,6300.0
CTB,2008-12-09,6300.0
CTB,2008-12-10,6300.0
CTB,2008-12-11,6300.0
CTB,2008-12-12,6300.0
CTB,2008-12-15,6800.0
CTB,2008-12-16,6800.0
CTB,2008-12-17,6700.0
CTB,2008-12-18,6700.0
CTB,2008-12-19,6700.0
CTB,2008-12-22,6700.0
CTB,2008-12-23,6300.0
CTB,2008-12-24,7000.0
CTB,2008-12-25,7000.0
CTB,2008-12-26,7000.0
CTB,2008-12-29,7000.0
CTB,2008-12-30,7200.0
CTB,2008-12-31,6400.0
CTB,2009-01-02,6500.0
CTB,2009-01-05,6500.0
CTB,2009-01-06,6500.0
CTB,2009-01-07,6500.0
CTB,2009-01-08,6700.0
CTB,2009-01-09,6700.0
CTB,2009-01-12,6700.0
CTB,2009-01-13,6700.0
CTB,2009-01-14,6700.0
CTB,2009-01-15,6700.0
CTB,2009-01-16,6700.0
CTB,2009-01-19,6700.0
CTB,2009-01-20,6700.0
CTB,2009-01-21,6700.0
CTB,2009-01-22,6700.0
CTB,2009-01-23,6700.0
CTB,2009-02-02,6700.0
CTB,2009-02-03,6700.0
CTB,2009-02-04,6700.0
CTB,2009-02-05,6200.0
CTB,2009-02-06,6700.0
CTB,2009-02-09,6700.0
CTB,2009-02-10,6700.0
CTB,2009-02-11,6700.0
CTB,2009-02-12,6700.0
CTB,2009-02-13,7200.0
CTB,2009-02-16,7200.0
CTB,2009-02-17,7200.0
CTB,2009-02-18,7200.0
CTB,2009-02-19,7200.0
CTB,2009-02-20,7200.0
CTB,2009-02-23,7200.0
CTB,2009-02-24,7200.0
CTB,2009-02-25,7200.0
CTB,2009-02-26,6700.0
CTB,2009-02-27,6800.0
CTB,2009-03-02,7100.0
CTB,2009-03-03,7100.0
CTB,2009-03-04,7100.0
CTB,2009-03-05,7100.0
CTB,2009-03-06,7300.0
CTB,2009-03-09,7000.0
CTB,2009-03-10,7000.0
CTB,2009-03-11,7000.0
CTB,2009-03-12,7000.0
CTB,2009-03-13,6900.0
CTB,2009-03-16,7300.0
CTB,2009-03-17,7300.0
CTB,2009-03-18,6900.0
CTB,2009-03-19,6800.0
CTB,2009-03-20,6800.0
CTB,2009-03-23,6800.0
CTB,2009-03-24,7100.0
CTB,2009-03-25,7100.0
CTB,2009-03-26,7400.0
CTB,2009-03-27,7600.0
CTB,2009-03-30,7600.0
CTB,2009-03-31,7600.0
CTB,2009-04-01,7600.0
CTB,2009-04-02,7200.0
CTB,2009-04-03,7100.0
CTB,2009-04-07,7700.0
CTB,2009-04-08,7700.0
CTB,2009-04-09,7700.0
CTB,2009-04-10,7800.0
CTB,2009-04-13,8200.0
CTB,2009-04-14,7600.0
CTB,2009-04-15,8200.0
CTB,2009-04-16,7900.0
CTB,2009-04-17,7700.0
CTB,2009-04-20,7200.0
CTB,2009-04-21,6800.0
CTB,2009-04-22,7100.0
CTB,2009-04-23,7100.0
CTB,2009-04-24,7300.0
CTB,2009-04-27,7100.0
CTB,2009-04-28,7100.0
CTB,2009-04-29,6600.0
CTB,2009-05-04,7000.0
CTB,2009-05-05,7400.0
CTB,2009-05-06,7100.0
CTB,2009-05-07,7500.0
CTB,2009-05-08,7800.0
CTB,2009-05-11,7900.0
CTB,2009-05-12,8100.0
CTB,2009-05-13,7700.0
CTB,2009-05-14,7200.0
CTB,2009-05-15,7700.0
CTB,2009-05-18,7500.0
CTB,2009-05-19,7900.0
CTB,2009-05-20,8300.0
CTB,2009-05-21,8400.0
CTB,2009-05-22,7800.0
CTB,2009-05-25,8400.0
CTB,2009-05-26,8800.0
CTB,2009-05-27,8300.0
CTB,2009-05-28,7900.0
CTB,2009-05-29,7900.0
CTB,2009-06-01,8100.0
CTB,2009-06-02,8700.0
CTB,2009-06-03,8700.0
CTB,2009-06-04,8400.0
CTB,2009-06-05,8800.0
CTB,2009-06-08,9400.0
CTB,2009-06-09,10100.0
CTB,2009-06-10,9900.0
CTB,2009-06-11,10000.0
CTB,2009-06-12,10400.0
CTB,2009-06-15,10400.0
CTB,2009-06-16,10100.0
CTB,2009-06-17,10600.0
CTB,2009-06-18,10000.0
CTB,2009-06-19,9600.0
CTB,2009-06-22,9200.0
CTB,2009-06-23,9900.0
CTB,2009-06-24,10000.0
CTB,2009-06-25,10400.0
CTB,2009-06-26,9700.0
CTB,2009-06-29,9700.0
CTB,2009-06-30,10100.0
CTB,2009-07-01,9500.0
CTB,2009-07-02,10100.0
CTB,2009-07-03,9600.0
CTB,2009-07-06,9900.0
CTB,2009-07-07,9900.0
CTB,2009-07-08,9300.0
CTB,2009-07-09,9300.0
CTB,2009-07-10,9300.0
CTB,2009-07-13,8900.0
CTB,2009-07-14,8900.0
CTB,2009-07-15,9500.0
CTB,2009-07-16,9700.0
CTB,2009-07-17,9700.0
CTB,2009-07-20,9100.0
CTB,2009-07-21,9100.0
CTB,2009-07-22,9100.0
CTB,2009-07-23,9700.0
CTB,2009-07-24,9500.0
CTB,2009-07-27,9900.0
CTB,2009-07-28,10000.0
CTB,2009-07-29,10000.0
CTB,2009-07-30,10400.0
CTB,2009-07-31,10700.0
CTB,2009-08-03,9500.0
CTB,2009-08-04,9800.0
CTB,2009-08-05,9900.0
CTB,2009-08-06,9900.0
CTB,2009-08-07,10100.0
CTB,2009-08-10,9900.0
CTB,2009-08-11,9900.0
CTB,2009-08-12,9900.0
CTB,2009-08-13,9900.0
CTB,2009-08-14,9900.0
CTB,2009-08-17,10200.0
CTB,2009-08-18,10300.0
CTB,2009-08-19,9800.0
CTB,2009-08-20,10000.0
CTB,2009-08-21,9500.0
CTB,2009-08-24,10100.0
CTB,2009-08-25,10400.0
CTB,2009-08-26,10400.0
CTB,2009-08-27,10000.0
CTB,2009-08-28,10600.0
CTB,2009-08-31,10600.0
CTB,2009-09-01,9800.0
CTB,2009-09-03,10600.0
CTB,2009-09-04,10500.0
CTB,2009-09-07,9900.0
CTB,2009-09-08,10500.0
CTB,2009-09-09,10300.0
CTB,2009-09-10,10200.0
CTB,2009-09-11,10100.0
CTB,2009-09-14,10300.0
CTB,2009-09-15,10900.0
CTB,2009-09-16,10300.0
CTB,2009-09-17,11200.0
CTB,2009-09-18,10900.0
CTB,2009-09-21,10900.0
CTB,2009-09-22,10600.0
CTB,2009-09-23,10600.0
CTB,2009-09-24,10600.0
CTB,2009-09-25,10600.0
CTB,2009-09-28,10400.0
CTB,2009-09-29,10400.0
CTB,2009-09-30,10800.0
CTB,2009-10-01,11100.0
CTB,2009-10-02,10600.0
CTB,2009-10-05,10600.0
CTB,2009-10-06,11100.0
CTB,2009-10-07,11600.0
CTB,2009-10-08,12300.0
CTB,2009-10-09,12800.0
CTB,2009-10-12,12800.0
CTB,2009-10-13,13100.0
CTB,2009-10-14,13200.0
CTB,2009-10-15,13500.0
CTB,2009-10-16,13900.0
CTB,2009-10-19,13800.0
CTB,2009-10-20,14300.0
CTB,2009-10-21,13400.0
CTB,2009-10-22,12600.0
CTB,2009-10-23,13200.0
CTB,2009-10-26,13200.0
CTB,2009-10-27,14000.0
CTB,2009-10-28,14100.0
CTB,2009-10-29,14100.0
CTB,2009-10-30,14100.0
CTB,2009-11-02,14300.0
CTB,2009-11-03,13600.0
CTB,2009-11-04,13100.0
CTB,2009-11-05,13200.0
CTB,2009-11-06,12700.0
CTB,2009-11-09,13000.0
CTB,2009-11-10,12900.0
CTB,2009-11-11,13400.0
CTB,2009-11-12,14100.0
CTB,2009-11-13,13600.0
CTB,2009-11-16,12700.0
CTB,2009-11-17,13700.0
CTB,2009-11-18,14600.0
CTB,2009-11-19,13600.0
CTB,2009-11-20,13200.0
CTB,2009-11-23,13800.0
CTB,2009-11-24,12800.0
CTB,2009-11-25,12000.0
CTB,2009-11-26,11200.0
CTB,2009-11-27,11500.0
CTB,2009-11-30,11400.0
CTB,2009-12-01,12000.0
CTB,2009-12-02,11500.0
CTB,2009-12-03,11500.0
CTB,2009-12-04,12300.0
CTB,2009-12-07,12300.0
CTB,2009-12-08,12300.0
CTB,2009-12-09,13100.0
CTB,2009-12-10,11500.0
CTB,2009-12-11,11500.0
CTB,2009-12-14,12300.0
CTB,2009-12-15,13000.0
CTB,2009-12-16,13000.0
CTB,2009-12-17,12100.0
CTB,2009-12-18,12900.0
CTB,2009-12-21,12400.0
CTB,2009-12-22,12400.0
CTB,2009-12-23,12400.0
CTB,2009-12-24,13200.0
CTB,2009-12-25,14000.0
CTB,2009-12-28,13000.0
CTB,2009-12-29,12400.0
CTB,2009-12-30,13000.0
CTB,2009-12-31,13000.0
CTB,2010-01-04,13600.0
CTB,2010-01-05,14200.0
CTB,2010-01-06,14200.0
CTB,2010-01-07,14200.0
CTB,2010-01-08,14200.0
CTB,2010-01-11,14200.0
CTB,2010-01-12,13200.0
CTB,2010-01-13,12400.0
CTB,2010-01-14,11600.0
CTB,2010-01-15,11600.0
CTB,2010-01-18,11600.0
CTB,2010-01-19,12300.0
CTB,2010-01-20,11800.0
CTB,2010-01-21,12400.0
CTB,2010-01-22,11600.0
CTB,2010-01-25,12300.0
CTB,2010-01-26,12700.0
CTB,2010-01-27,13300.0
CTB,2010-01-28,13300.0
CTB,2010-01-29,13300.0
CTB,2010-02-01,13300.0
CTB,2010-02-02,13300.0
CTB,2010-02-03,12400.0
CTB,2010-02-04,11800.0
CTB,2010-02-05,12600.0
CTB,2010-02-08,12600.0
CTB,2010-02-09,12600.0
CTB,2010-02-10,12600.0
CTB,2010-02-11,13400.0
CTB,2010-02-12,13400.0
CTB,2010-02-22,13400.0
CTB,2010-02-23,13400.0
CTB,2010-02-24,13400.0
CTB,2010-02-25,12500.0
CTB,2010-02-26,12500.0
CTB,2010-03-01,11800.0
CTB,2010-03-02,11800.0
CTB,2010-03-03,11800.0
CTB,2010-03-04,11600.0
CTB,2010-03-05,11600.0
CTB,2010-03-08,12400.0
CTB,2010-03-09,12400.0
CTB,2010-03-10,12400.0
CTB,2010-03-11,12400.0
CTB,2010-03-12,11700.0
CTB,2010-03-15,11800.0
CTB,2010-03-16,11800.0
CTB,2010-03-17,11600.0
CTB,2010-03-18,11600.0
CTB,2010-03-19,12000.0
CTB,2010-03-22,11900.0
CTB,2010-03-23,11300.0
CTB,2010-03-24,11800.0
CTB,2010-03-25,11300.0
CTB,2010-03-26,11800.0
CTB,2010-03-29,11300.0
CTB,2010-03-30,11300.0
CTB,2010-03-31,10800.0
CTB,2010-04-01,10800.0
CTB,2010-04-02,10800.0
CTB,2010-04-05,11500.0
CTB,2010-04-06,11500.0
CTB,2010-04-07,10800.0
CTB,2010-04-08,11500.0
CTB,2010-04-09,11800.0
CTB,2010-04-12,11800.0
CTB,2010-04-13,11900.0
CTB,2010-04-14,12400.0
CTB,2010-04-15,12400.0
CTB,2010-04-16,12700.0
CTB,2010-04-19,13300.0
CTB,2010-04-20,12400.0
CTB,2010-04-21,13400.0
CTB,2010-04-22,12600.0
CTB,2010-04-26,11900.0
CTB,2010-04-27,12100.0
CTB,2010-04-28,11800.0
CTB,2010-04-29,12100.0
CTB,2010-05-04,12600.0
CTB,2010-05-05,13000.0
CTB,2010-05-06,12800.0
CTB,2010-05-07,12700.0
CTB,2010-05-10,12800.0
CTB,2010-05-11,13600.0
CTB,2010-05-12,12800.0
CTB,2010-05-13,12200.0
CTB,2010-05-14,12400.0
CTB,2010-05-17,12400.0
CTB,2010-05-18,12200.0
CTB,2010-05-19,12500.0
CTB,2010-05-20,11600.0
CTB,2010-05-21,11800.0
CTB,2010-05-24,11800.0
CTB,2010-05-25,12400.0
CTB,2010-05-26,11800.0
CTB,2010-05-27,11800.0
CTB,2010-05-28,12600.0
CTB,2010-05-31,12100.0
CTB,2010-06-01,12500.0
CTB,2010-06-02,12400.0
CTB,2010-06-03,12700.0
CTB,2010-06-04,11800.0
CTB,2010-06-07,11200.0
CTB,2010-06-08,12000.0
CTB,2010-06-09,11900.0
CTB,2010-06-10,12700.0
CTB,2010-06-11,12200.0
CTB,2010-06-14,12700.0
CTB,2010-06-15,12100.0
CTB,2010-06-16,13000.0
CTB,2010-06-17,12800.0
CTB,2010-06-18,12500.0
CTB,2010-06-21,12400.0
CTB,2010-06-22,12900.0
CTB,2010-06-23,13700.0
CTB,2010-06-24,12800.0
CTB,2010-06-25,13600.0
CTB,2010-06-28,12400.0
CTB,2010-06-29,13900.0
CTB,2010-06-30,13900.0
CTB,2010-07-01,13900.0
CTB,2010-07-02,13600.0
CTB,2010-07-05,13900.0
CTB,2010-07-06,13900.0
CTB,2010-07-07,13600.0
CTB,2010-07-08,12900.0
CTB,2010-07-09,12600.0
CTB,2010-07-12,12700.0
CTB,2010-07-13,13300.0
CTB,2010-07-14,12700.0
CTB,2010-07-15,12400.0
CTB,2010-07-16,12900.0
CTB,2010-07-19,12100.0
CTB,2010-07-20,12600.0
CTB,2010-07-21,12200.0
CTB,2010-07-22,12900.0
CTB,2010-07-23,12700.0
CTB,2010-07-26,12700.0
CTB,2010-07-27,13400.0
CTB,2010-07-28,13800.0
CTB,2010-07-29,12900.0
CTB,2010-07-30,12800.0
CTB,2010-08-02,13100.0
CTB,2010-08-03,12300.0
CTB,2010-08-04,12400.0
CTB,2010-08-05,12400.0
CTB,2010-08-06,12600.0
CTB,2010-08-09,12600.0
CTB,2010-08-10,12500.0
CTB,2010-08-11,12400.0
CTB,2010-08-12,12400.0
CTB,2010-08-13,12100.0
CTB,2010-08-16,12700.0
CTB,2010-08-17,12400.0
CTB,2010-08-18,12900.0
CTB,2010-08-19,12900.0
CTB,2010-08-20,13600.0
CTB,2010-08-23,12700.0
CTB,2010-08-24,12700.0
CTB,2010-08-25,11900.0
CTB,2010-08-26,12700.0
CTB,2010-08-27,12700.0
CTB,2010-08-30,12800.0
CTB,2010-08-31,12500.0
CTB,2010-09-01,12400.0
CTB,2010-09-06,12600.0
CTB,2010-09-07,12800.0
CTB,2010-09-08,12300.0
CTB,2010-09-09,12300.0
CTB,2010-09-10,13100.0
CTB,2010-09-13,12900.0
CTB,2010-09-14,12900.0
CTB,2010-09-15,13200.0
CTB,2010-09-16,12700.0
CTB,2010-09-17,12700.0
CTB,2010-09-20,12000.0
CTB,2010-09-21,11800.0
CTB,2010-09-22,12100.0
CTB,2010-09-23,12800.0
CTB,2010-09-24,12200.0
CTB,2010-09-27,12000.0
CTB,2010-09-28,12200.0
CTB,2010-09-29,12500.0
CTB,2010-09-30,12500.0
CTB,2010-10-01,12500.0
CTB,2010-10-04,11600.0
CTB,2010-10-05,12000.0
CTB,2010-10-06,11800.0
CTB,2010-10-07,11400.0
CTB,2010-10-08,11600.0
CTB,2010-10-11,11800.0
CTB,2010-10-12,12200.0
CTB,2010-10-13,11900.0
CTB,2010-10-14,12000.0
CTB,2010-10-15,11500.0
CTB,2010-10-18,12000.0
CTB,2010-10-19,11500.0
CTB,2010-10-20,11400.0
CTB,2010-10-21,11400.0
CTB,2010-10-22,11300.0
CTB,2010-10-25,11600.0
CTB,2010-10-26,12000.0
CTB,2010-10-27,11600.0
CTB,2010-10-28,12000.0
CTB,2010-10-29,12000.0
CTB,2010-11-01,11700.0
CTB,2010-11-02,11100.0
CTB,2010-11-03,11100.0
CTB,2010-11-04,11800.0
CTB,2010-11-05,12000.0
CTB,2010-11-08,11100.0
CTB,2010-11-09,11900.0
CTB,2010-11-10,11500.0
CTB,2010-11-11,11700.0
CTB,2010-11-12,11700.0
CTB,2010-11-15,11700.0
CTB,2010-11-16,11600.0
CTB,2010-11-17,11600.0
CTB,2010-11-18,11300.0
CTB,2010-11-19,10800.0
CTB,2010-11-22,11300.0
CTB,2010-11-23,10900.0
CTB,2010-11-24,11100.0
CTB,2010-11-25,10900.0
CTB,2010-11-26,10900.0
CTB,2010-11-29,11200.0
CTB,2010-11-30,11300.0
CTB,2010-12-01,11100.0
CTB,2010-12-02,11800.0
CTB,2010-12-03,11400.0
CTB,2010-12-06,11500.0
CTB,2010-12-07,12200.0
CTB,2010-12-08,11800.0
CTB,2010-12-09,11400.0
CTB,2010-12-10,11400.0
CTB,2010-12-13,12000.0
CTB,2010-12-14,11300.0
CTB,2010-12-15,11800.0
CTB,2010-12-16,11300.0
CTB,2010-12-17,11400.0
CTB,2010-12-20,11500.0
CTB,2010-12-21,12100.0
CTB,2010-12-22,12100.0
CTB,2010-12-23,11400.0
CTB,2010-12-24,12000.0
CTB,2010-12-27,12100.0
CTB,2010-12-28,12000.0
CTB,2010-12-29,12200.0
CTB,2010-12-30,12100.0
CTB,2010-12-31,12400.0
CTB,2011-01-04,12500.0
CTB,2011-01-05,12100.0
CTB,2011-01-06,12000.0
CTB,2011-01-07,11800.0
CTB,2011-01-10,12000.0
CTB,2011-01-11,12500.0
CTB,2011-01-12,12500.0
CTB,2011-01-13,12700.0
CTB,2011-01-14,12700.0
CTB,2011-01-17,12800.0
CTB,2011-01-18,12800.0
CTB,2011-01-19,13200.0
CTB,2011-01-20,12700.0
CTB,2011-01-21,12400.0
CTB,2011-01-24,12800.0
CTB,2011-01-25,12800.0
CTB,2011-01-26,13000.0
CTB,2011-01-27,12600.0
CTB,2011-01-28,13000.0
CTB,2011-02-08,13200.0
CTB,2011-02-09,13200.0
CTB,2011-02-10,13200.0
CTB,2011-02-11,12300.0
CTB,2011-02-14,12400.0
CTB,2011-02-15,12700.0
CTB,2011-02-16,12500.0
CTB,2011-02-17,11700.0
CTB,2011-02-18,12500.0
CTB,2011-02-21,12500.0
CTB,2011-02-22,13300.0
CTB,2011-02-23,12500.0
CTB,2011-02-24,12500.0
CTB,2011-02-25,12500.0
CTB,2011-02-28,12500.0
CTB,2011-03-01,12500.0
CTB,2011-03-02,12500.0
CTB,2011-03-03,13100.0
CTB,2011-03-04,13100.0
CTB,2011-03-07,13500.0
CTB,2011-03-08,13500.0
CTB,2011-03-09,13500.0
CTB,2011-03-10,13500.0
CTB,2011-03-11,13500.0
CTB,2011-03-14,13500.0
CTB,2011-03-15,13500.0
CTB,2011-03-16,13500.0
CTB,2011-03-17,13500.0
CTB,2011-03-18,13500.0
CTB,2011-03-21,13500.0
CTB,2011-03-22,13500.0
CTB,2011-03-23,13500.0
CTB,2011-03-24,13500.0
CTB,2011-03-25,13500.0
CTB,2011-03-28,13500.0
CTB,2011-03-29,13500.0
CTB,2011-03-30,13300.0
CTB,2011-03-31,13600.0
CTB,2011-04-01,13300.0
CTB,2011-04-04,13100.0
CTB,2011-04-05,13300.0
CTB,2011-04-06,13300.0
CTB,2011-04-07,13400.0
CTB,2011-04-08,13400.0
CTB,2011-04-13,13400.0
CTB,2011-04-14,13400.0
CTB,2011-04-15,13400.0
CTB,2011-04-18,13500.0
CTB,2011-04-19,13500.0
CTB,2011-04-20,13500.0
CTB,2011-04-21,13300.0
CTB,2011-04-22,13200.0
CTB,2011-04-25,13200.0
CTB,2011-04-26,13300.0
CTB,2011-04-27,13300.0
CTB,2011-04-28,13300.0
CTB,2011-04-29,13300.0
CTB,2011-05-04,13300.0
CTB,2011-05-05,13900.0
CTB,2011-05-06,13900.0
CTB,2011-05-09,13900.0
CTB,2011-05-10,14900.0
CTB,2011-05-11,14900.0
CTB,2011-05-12,14900.0
CTB,2011-05-13,14900.0
CTB,2011-05-16,14900.0
CTB,2011-05-17,14900.0
CTB,2011-05-18,14900.0
CTB,2011-05-19,14900.0
CTB,2011-05-20,14900.0
CTB,2011-05-23,14900.0
CTB,2011-05-24,14900.0
CTB,2011-05-25,15500.0
CTB,2011-05-26,15500.0
CTB,2011-05-27,15500.0
CTB,2011-05-30,15500.0
CTB,2011-05-31,15500.0
CTB,2011-06-01,15500.0
CTB,2011-06-02,16300.0
CTB,2011-06-03,16300.0
CTB,2011-06-06,16300.0
CTB,2011-06-07,16300.0
CTB,2011-06-08,15200.0
CTB,2011-06-09,14200.0
CTB,2011-06-10,13200.0
CTB,2011-06-13,12300.0
CTB,2011-06-14,11900.0
CTB,2011-06-15,11100.0
CTB,2011-06-16,11700.0
CTB,2011-06-17,11900.0
CTB,2011-06-20,12300.0
CTB,2011-06-21,12900.0
CTB,2011-06-22,13600.0
CTB,2011-06-23,13600.0
CTB,2011-06-24,13600.0
CTB,2011-06-27,13600.0
CTB,2011-06-28,13600.0
CTB,2011-06-29,13600.0
CTB,2011-06-30,13600.0
CTB,2011-07-01,13600.0
CTB,2011-07-04,13600.0
CTB,2011-07-05,13600.0
CTB,2011-07-06,12700.0
CTB,2011-07-07,12700.0
CTB,2011-07-08,12700.0
CTB,2011-07-11,12700.0
CTB,2011-07-12,12700.0
CTB,2011-07-13,12700.0
CTB,2011-07-14,12700.0
CTB,2011-07-15,12700.0
CTB,2011-07-18,13500.0
CTB,2011-07-19,13500.0
CTB,2011-07-20,13500.0
CTB,2011-07-21,13500.0
CTB,2011-07-22,13500.0
CTB,2011-07-25,13500.0
CTB,2011-07-26,13500.0
CTB,2011-07-27,13500.0
CTB,2011-07-28,13500.0
CTB,2011-07-29,13500.0
CTB,2011-08-01,14300.0
CTB,2011-08-02,14300.0
CTB,2011-08-03,14300.0
CTB,2011-08-04,14300.0
CTB,2011-08-05,15100.0
CTB,2011-08-08,15100.0
CTB,2011-08-09,15100.0
CTB,2011-08-10,15100.0
CTB,2011-08-11,15100.0
CTB,2011-08-12,15100.0
CTB,2011-08-15,15100.0
CTB,2011-08-16,15100.0
CTB,2011-08-17,15100.0
CTB,2011-08-18,15900.0
CTB,2011-08-19,15900.0
CTB,2011-08-22,15900.0
CTB,2011-08-23,15900.0
CTB,2011-08-24,15900.0
CTB,2011-08-25,15900.0
CTB,2011-08-26,15900.0
CTB,2011-08-29,15900.0
CTB,2011-08-30,15900.0
CTB,2011-08-31,15900.0
CTB,2011-09-01,15900.0
CTB,2011-09-05,15900.0
CTB,2011-09-06,15900.0
CTB,2011-09-07,15900.0
CTB,2011-09-08,15900.0
CTB,2011-09-09,15900.0
CTB,2011-09-12,15900.0
CTB,2011-09-13,14800.0
CTB,2011-09-14,15900.0
CTB,2011-09-15,14800.0
CTB,2011-09-16,14800.0
CTB,2011-09-19,14800.0
CTB,2011-09-20,14800.0
CTB,2011-09-21,14800.0
CTB,2011-09-22,14800.0
CTB,2011-09-23,14800.0
CTB,2011-09-26,14800.0
CTB,2011-09-27,14800.0
CTB,2011-09-28,14800.0
CTB,2011-09-29,14800.0
CTB,2011-09-30,14800.0
CTB,2011-10-03,14800.0
CTB,2011-10-04,14800.0
CTB,2011-10-05,14800.0
CTB,2011-10-06,14800.0
CTB,2011-10-07,14800.0
CTB,2011-10-10,14800.0
CTB,2011-10-11,14800.0
CTB,2011-10-12,14800.0
CTB,2011-10-13,14800.0
CTB,2011-10-14,14800.0
CTB,2011-10-17,14800.0
CTB,2011-10-18,15800.0
CTB,2011-10-19,15800.0
CTB,2011-10-20,15800.0
CTB,2011-10-21,15800.0
CTB,2011-10-24,15800.0
CTB,2011-10-25,15100.0
CTB,2011-10-26,14300.0
CTB,2011-10-27,15100.0
CTB,2011-10-28,16100.0
CTB,2011-10-31,15100.0
CTB,2011-11-01,15800.0
CTB,2011-11-02,15800.0
CTB,2011-11-03,16600.0
CTB,2011-11-04,16600.0
CTB,2011-11-07,16600.0
CTB,2011-11-08,16600.0
CTB,2011-11-09,16600.0
CTB,2011-11-10,16600.0
CTB,2011-11-11,16600.0
CTB,2011-11-14,16600.0
CTB,2011-11-15,16600.0
CTB,2011-11-16,16600.0
CTB,2011-11-17,16600.0
CTB,2011-11-18,16600.0
CTB,2011-11-21,16600.0
CTB,2011-11-22,16600.0
CTB,2011-11-23,16600.0
CTB,2011-11-24,16600.0
CTB,2011-11-25,16600.0
CTB,2011-11-28,16600.0
CTB,2011-11-29,16600.0
CTB,2011-11-30,16600.0
CTB,2011-12-01,16600.0
CTB,2011-12-02,16600.0
CTB,2011-12-05,15500.0
CTB,2011-12-06,15500.0
CTB,2011-12-07,15500.0
CTB,2011-12-08,16300.0
CTB,2011-12-09,16300.0
CTB,2011-12-12,16300.0
CTB,2011-12-13,16300.0
CTB,2011-12-14,16300.0
CTB,2011-12-15,16300.0
CTB,2011-12-16,16300.0
CTB,2011-12-19,17400.0
CTB,2011-12-20,15900.0
CTB,2011-12-21,16700.0
CTB,2011-12-22,16700.0
CTB,2011-12-23,16700.0
CTB,2011-12-26,16700.0
CTB,2011-12-27,16700.0
CTB,2011-12-28,16700.0
CTB,2011-12-29,16700.0
CTB,2011-12-30,16700.0
CTB,2012-01-03,17800.0
CTB,2012-01-04,16600.0
CTB,2012-01-05,16600.0
CTB,2012-01-06,16600.0
CTB,2012-01-09,15500.0
CTB,2012-01-10,16600.0
CTB,2012-01-11,17500.0
CTB,2012-01-12,17500.0
CTB,2012-01-13,17500.0
CTB,2012-01-16,17500.0
CTB,2012-01-17,17500.0
CTB,2012-01-18,17500.0
CTB,2012-01-19,17500.0
CTB,2012-01-20,17500.0
CTB,2012-01-30,17500.0
CTB,2012-01-31,17500.0
CTB,2012-02-01,17500.0
CTB,2012-02-02,17500.0
CTB,2012-02-03,17500.0
CTB,2012-02-06,17500.0
CTB,2012-02-07,17500.0
CTB,2012-02-08,17500.0
CTB,2012-02-09,17500.0
CTB,2012-02-10,17500.0
CTB,2012-02-13,17500.0
CTB,2012-02-14,17500.0
CTB,2012-02-15,17500.0
CTB,2012-02-16,16300.0
CTB,2012-02-17,16300.0
CTB,2012-02-20,15200.0
CTB,2012-02-21,14200.0
CTB,2012-02-22,15100.0
CTB,2012-02-23,14100.0
CTB,2012-02-24,15100.0
CTB,2012-02-27,15100.0
CTB,2012-02-28,15100.0
CTB,2012-02-29,14100.0
CTB,2012-03-01,13100.0
CTB,2012-03-02,13900.0
CTB,2012-03-05,14800.0
CTB,2012-03-06,15700.0
CTB,2012-03-07,14700.0
CTB,2012-03-08,13700.0
CTB,2012-03-09,13600.0
CTB,2012-03-12,15200.0
CTB,2012-03-13,14700.0
CTB,2012-03-14,14700.0
CTB,2012-03-15,13800.0
CTB,2012-03-16,14300.0
CTB,2012-03-19,15100.0
CTB,2012-03-20,15100.0
CTB,2012-03-21,15100.0
CTB,2012-03-22,15100.0
CTB,2012-03-23,15100.0
CTB,2012-03-26,15900.0
CTB,2012-03-27,15900.0
CTB,2012-03-28,15900.0
CTB,2012-03-29,15100.0
CTB,2012-03-30,15000.0
CTB,2012-04-03,15000.0
CTB,2012-04-04,15000.0
CTB,2012-04-05,13900.0
CTB,2012-04-06,13500.0
CTB,2012-04-09,14300.0
CTB,2012-04-10,13300.0
CTB,2012-04-11,13500.0
CTB,2012-04-12,13400.0
CTB,2012-04-13,13500.0
CTB,2012-04-16,13900.0
CTB,2012-04-17,14100.0
CTB,2012-04-18,14100.0
CTB,2012-04-19,14000.0
CTB,2012-04-20,14000.0
CTB,2012-04-23,13900.0
CTB,2012-04-24,13900.0
CTB,2012-04-25,13900.0
CTB,2012-04-26,13900.0
CTB,2012-04-27,13900.0
CTB,2012-05-02,13900.0
CTB,2012-05-03,13100.0
CTB,2012-05-04,13900.0
CTB,2012-05-07,13900.0
CTB,2012-05-08,13500.0
CTB,2012-05-09,13500.0
CTB,2012-05-10,13400.0
CTB,2012-05-11,13400.0
CTB,2012-05-14,13400.0
CTB,2012-05-15,13400.0
CTB,2012-05-16,13900.0
CTB,2012-05-17,13900.0
CTB,2012-05-18,13900.0
CTB,2012-05-21,13900.0
CTB,2012-05-22,13900.0
CTB,2012-05-23,13900.0
CTB,2012-05-24,13900.0
CTB,2012-05-25,14300.0
CTB,2012-05-28,14300.0
CTB,2012-05-29,14300.0
CTB,2012-05-30,14300.0
CTB,2012-05-31,14300.0
CTB,2012-06-01,14300.0
CTB,2012-06-04,13500.0
CTB,2012-06-05,13500.0
CTB,2012-06-06,13500.0
CTB,2012-06-07,13500.0
CTB,2012-06-08,13100.0
CTB,2012-06-11,13100.0
CTB,2012-06-12,13300.0
CTB,2012-06-13,13300.0
CTB,2012-06-14,13300.0
CTB,2012-06-15,13300.0
CTB,2012-06-18,13200.0
CTB,2012-06-19,13000.0
CTB,2012-06-20,12700.0
CTB,2012-06-21,12900.0
CTB,2012-06-22,12900.0
CTB,2012-06-25,12900.0
CTB,2012-06-26,12600.0
CTB,2012-06-27,12800.0
CTB,2012-06-28,13300.0
CTB,2012-06-29,12800.0
CTB,2012-07-02,12600.0
CTB,2012-07-03,12600.0
CTB,2012-07-04,13400.0
CTB,2012-07-05,13400.0
CTB,2012-07-06,13600.0
CTB,2012-07-09,14200.0
CTB,2012-07-10,14200.0
CTB,2012-07-11,14000.0
CTB,2012-07-12,14000.0
CTB,2012-07-13,14000.0
CTB,2012-07-16,14000.0
CTB,2012-07-17,14000.0
CTB,2012-07-18,14000.0
CTB,2012-07-19,14200.0
CTB,2012-07-20,14200.0
CTB,2012-07-23,13400.0
CTB,2012-07-24,13200.0
CTB,2012-07-25,13900.0
CTB,2012-07-26,13900.0
CTB,2012-07-27,13900.0
CTB,2012-07-30,13900.0
CTB,2012-07-31,13900.0
CTB,2012-08-01,13900.0
CTB,2012-08-02,14100.0
CTB,2012-08-03,14100.0
CTB,2012-08-06,14100.0
CTB,2012-08-07,14400.0
CTB,2012-08-08,14400.0
CTB,2012-08-09,13500.0
CTB,2012-08-10,13100.0
CTB,2012-08-13,14500.0
CTB,2012-08-14,14500.0
CTB,2012-08-15,15100.0
CTB,2012-08-16,14300.0
CTB,2012-08-17,13400.0
CTB,2012-08-20,13300.0
CTB,2012-08-21,14200.0
CTB,2012-08-22,13400.0
CTB,2012-08-23,13100.0
CTB,2012-08-24,12600.0
CTB,2012-08-27,12600.0
CTB,2012-08-28,13400.0
CTB,2012-08-29,13700.0
CTB,2012-08-30,13700.0
CTB,2012-08-31,13700.0
CTB,2012-09-04,13300.0
CTB,2012-09-05,13300.0
CTB,2012-09-06,13200.0
CTB,2012-09-07,13700.0
CTB,2012-09-10,13700.0
CTB,2012-09-11,13400.0
CTB,2012-09-12,13100.0
CTB,2012-09-13,13100.0
CTB,2012-09-14,12600.0
CTB,2012-09-17,12600.0
CTB,2012-09-18,12600.0
CTB,2012-09-19,12600.0
CTB,2012-09-20,12500.0
CTB,2012-09-21,12500.0
CTB,2012-09-24,12500.0
CTB,2012-09-25,13200.0
CTB,2012-09-26,13200.0
CTB,2012-09-27,12600.0
CTB,2012-09-28,12600.0
CTB,2012-10-01,12600.0
CTB,2012-10-02,12600.0
CTB,2012-10-03,12600.0
CTB,2012-10-04,12600.0
CTB,2012-10-05,12600.0
CTB,2012-10-08,12600.0
CTB,2012-10-09,12600.0
CTB,2012-10-10,12600.0
CTB,2012-10-11,12600.0
CTB,2012-10-12,12600.0
CTB,2012-10-15,12600.0
CTB,2012-10-16,12600.0
CTB,2012-10-17,12600.0
CTB,2012-10-18,12600.0
CTB,2012-10-19,12600.0
CTB,2012-10-22,12600.0
CTB,2012-10-23,12600.0
CTB,2012-10-24,12600.0
CTB,2012-10-25,12600.0
CTB,2012-10-26,12600.0
CTB,2012-10-29,12600.0
CTB,2012-10-30,12600.0
CTB,2012-10-31,12600.0
CTB,2012-11-01,13000.0
CTB,2012-11-02,13000.0
CTB,2012-11-05,13000.0
CTB,2012-11-06,13000.0
CTB,2012-11-07,13100.0
CTB,2012-11-08,13100.0
CTB,2012-11-09,13100.0
CTB,2012-11-12,13200.0
CTB,2012-11-13,13200.0
CTB,2012-11-14,13200.0
CTB,2012-11-15,13200.0
CTB,2012-11-16,13200.0
CTB,2012-11-19,13200.0
CTB,2012-11-20,13200.0
CTB,2012-11-21,13200.0
CTB,2012-11-22,13200.0
CTB,2012-11-23,13200.0
CTB,2012-11-26,13200.0
CTB,2012-11-27,13100.0
CTB,2012-11-28,13100.0
CTB,2012-11-29,13100.0
CTB,2012-11-30,13100.0
CTB,2012-12-03,13100.0
CTB,2012-12-04,14000.0
CTB,2012-12-05,14000.0
CTB,2012-12-06,14000.0
CTB,2012-12-07,14000.0
CTB,2012-12-10,14400.0
CTB,2012-12-11,14400.0
CTB,2012-12-12,14900.0
CTB,2012-12-13,15300.0
CTB,2012-12-14,15600.0
CTB,2012-12-17,15600.0
CTB,2012-12-18,15600.0
CTB,2012-12-19,15200.0
CTB,2012-12-20,15200.0
CTB,2012-12-21,15200.0
CTB,2012-12-24,15200.0
CTB,2012-12-25,15200.0
CTB,2012-12-26,15200.0
CTB,2012-12-27,15600.0
CTB,2012-12-28,15900.0
CTB,2013-01-02,16000.0
CTB,2013-01-03,16000.0
CTB,2013-01-04,16000.0
CTB,2013-01-07,16000.0
CTB,2013-01-08,16000.0
CTB,2013-01-09,16000.0
CTB,2013-01-10,16000.0
CTB,2013-01-11,16000.0
CTB,2013-01-14,17000.0
CTB,2013-01-15,18000.0
CTB,2013-01-16,18200.0
CTB,2013-01-17,18200.0
CTB,2013-01-18,18500.0
CTB,2013-01-21,18500.0
CTB,2013-01-22,18500.0
CTB,2013-01-23,18500.0
CTB,2013-01-24,18500.0
CTB,2013-01-25,18500.0
CTB,2013-01-28,18500.0
CTB,2013-01-29,18500.0
CTB,2013-01-30,18500.0
CTB,2013-01-31,18500.0
CTB,2013-02-01,16700.0
CTB,2013-02-04,16700.0
CTB,2013-02-05,16700.0
CTB,2013-02-06,16700.0
CTB,2013-02-07,16700.0
CTB,2013-02-08,16700.0
CTB,2013-02-18,16700.0
CTB,2013-02-19,16700.0
CTB,2013-02-20,16000.0
CTB,2013-02-21,16000.0
CTB,2013-02-22,16000.0
CTB,2013-02-25,16000.0
CTB,2013-02-26,16000.0
CTB,2013-02-27,16000.0
CTB,2013-02-28,16000.0
CTB,2013-03-01,16000.0
CTB,2013-03-04,16000.0
CTB,2013-03-05,16000.0
CTB,2013-03-06,16000.0
CTB,2013-03-07,16000.0
CTB,2013-03-08,16000.0
CTB,2013-03-11,16000.0
CTB,2013-03-12,16000.0
CTB,2013-03-13,16000.0
CTB,2013-03-14,16000.0
CTB,2013-03-15,16000.0
CTB,2013-03-18,16000.0
CTB,2013-03-19,16000.0
CTB,2013-03-20,16000.0
CTB,2013-03-21,16000.0
CTB,2013-03-22,16000.0
CTB,2013-03-25,16000.0
CTB,2013-03-26,16000.0
CTB,2013-03-27,16000.0
CTB,2013-03-28,16000.0
CTB,2013-03-29,16000.0
CTB,2013-04-01,16000.0
CTB,2013-04-02,17500.0
CTB,2013-04-03,17500.0
CTB,2013-04-04,17500.0
CTB,2013-04-05,18000.0
CTB,2013-04-08,18000.0
CTB,2013-04-09,18000.0
CTB,2013-04-10,18000.0
CTB,2013-04-11,18000.0
CTB,2013-04-12,18000.0
CTB,2013-04-15,18000.0
CTB,2013-04-16,18000.0
CTB,2013-04-17,18000.0
CTB,2013-04-18,18000.0
CTB,2013-04-22,18000.0
CTB,2013-04-23,18000.0
CTB,2013-04-24,18000.0
CTB,2013-04-25,18000.0
CTB,2013-04-26,18000.0
CTB,2013-05-02,18000.0
CTB,2013-05-03,18000.0
CTB,2013-05-06,18000.0
CTB,2013-05-07,18000.0
CTB,2013-05-08,18000.0
CTB,2013-05-09,18000.0
CTB,2013-05-10,18000.0
CTB,2013-05-13,18000.0
CTB,2013-05-14,18000.0
CTB,2013-05-15,18000.0
CTB,2013-05-16,18000.0
CTB,2013-05-17,18000.0
CTB,2013-05-20,17000.0
CTB,2013-05-21,16500.0
CTB,2013-05-22,16600.0
CTB,2013-05-23,16600.0
CTB,2013-05-24,16600.0
CTB,2013-05-27,16600.0
CTB,2013-05-28,16600.0
CTB,2013-05-29,16600.0
CTB,2013-05-30,16600.0
CTB,2013-05-31,16600.0
CTB,2013-06-03,16500.0
CTB,2013-06-04,16500.0
CTB,2013-06-05,16500.0
CTB,2013-06-06,16500.0
CTB,2013-06-07,16500.0
CTB,2013-06-10,18000.0
CTB,2013-06-11,18000.0
CTB,2013-06-12,18000.0
CTB,2013-06-13,18000.0
CTB,2013-06-14,17500.0
CTB,2013-06-17,16500.0
CTB,2013-06-18,16500.0
CTB,2013-06-19,16500.0
CTB,2013-06-20,16500.0
CTB,2013-06-21,16500.0
CTB,2013-06-24,16500.0
CTB,2013-06-25,16500.0
CTB,2013-06-26,16500.0
CTB,2013-06-27,16500.0
CTB,2013-06-28,16500.0
CTB,2013-07-01,16500.0
CTB,2013-07-02,16500.0
CTB,2013-07-03,16500.0
CTB,2013-07-04,16500.0
CTB,2013-07-05,16500.0
CTB,2013-07-08,16500.0
CTB,2013-07-09,16500.0
CTB,2013-07-10,16500.0
CTB,2013-07-11,16500.0
CTB,2013-07-12,16500.0
CTB,2013-07-15,16500.0
CTB,2013-07-16,16500.0
CTB,2013-07-17,16500.0
CTB,2013-07-18,16500.0
CTB,2013-07-19,16500.0
CTB,2013-07-22,16500.0
CTB,2013-07-23,18000.0
CTB,2013-07-24,18000.0
CTB,2013-07-25,18000.0
CTB,2013-07-26,18000.0
CTB,2013-07-29,18000.0
CTB,2013-07-30,18000.0
CTB,2013-07-31,18000.0
CTB,2013-08-01,18000.0
CTB,2013-08-02,18000.0
CTB,2013-08-05,18000.0
CTB,2013-08-06,18000.0
CTB,2013-08-07,18000.0
CTB,2013-08-08,16200.0
CTB,2013-08-09,15800.0
CTB,2013-08-12,15800.0
CTB,2013-08-13,15800.0
CTB,2013-08-14,15800.0
CTB,2013-08-15,15800.0
CTB,2013-08-16,15800.0
CTB,2013-08-19,15800.0
CTB,2013-08-20,15800.0
CTB,2013-08-21,15800.0
CTB,2013-08-22,17300.0
CTB,2013-08-23,17300.0
CTB,2013-08-26,17300.0
CTB,2013-08-27,17300.0
CTB,2013-08-28,17300.0
CTB,2013-08-29,17300.0
CTB,2013-08-30,17300.0
CTB,2013-09-03,17300.0
CTB,2013-09-04,17300.0
CTB,2013-09-05,17300.0
CTB,2013-09-06,17300.0
CTB,2013-09-09,15600.0
CTB,2013-09-10,15600.0
CTB,2013-09-11,17000.0
CTB,2013-09-12,17000.0
CTB,2013-09-13,15300.0
CTB,2013-09-16,14700.0
CTB,2013-09-17,14700.0
CTB,2013-09-18,14700.0
CTB,2013-09-19,14700.0
CTB,2013-09-20,14700.0
CTB,2013-09-23,14700.0
CTB,2013-09-24,14700.0
CTB,2013-09-25,14700.0
CTB,2013-09-26,14700.0
CTB,2013-09-27,14700.0
CTB,2013-09-30,14700.0
CTB,2013-10-01,16100.0
CTB,2013-10-02,16100.0
CTB,2013-10-03,16100.0
CTB,2013-10-04,16100.0
CTB,2013-10-07,16100.0
CTB,2013-10-08,16100.0
CTB,2013-10-09,16100.0
CTB,2013-10-10,16100.0
CTB,2013-10-11,16100.0
CTB,2013-10-14,16100.0
CTB,2013-10-15,17700.0
CTB,2013-10-16,17700.0
CTB,2013-10-17,17700.0
CTB,2013-10-18,17700.0
CTB,2013-10-21,17700.0
CTB,2013-10-22,17700.0
CTB,2013-10-23,17700.0
CTB,2013-10-24,17700.0
CTB,2013-10-25,17700.0
CTB,2013-10-28,17700.0
CTB,2013-10-29,17700.0
CTB,2013-10-30,17700.0
CTB,2013-10-31,17700.0
CTB,2013-11-01,17700.0
CTB,2013-11-04,17000.0
CTB,2013-11-05,17000.0
CTB,2013-11-06,17000.0
CTB,2013-11-07,17200.0
CTB,2013-11-08,17200.0
CTB,2013-11-11,17200.0
CTB,2013-11-12,17200.0
CTB,2013-11-13,15500.0
CTB,2013-11-14,17000.0
CTB,2013-11-15,17000.0
CTB,2013-11-18,17000.0
CTB,2013-11-19,17000.0
CTB,2013-11-20,17000.0
CTB,2013-11-21,17000.0
CTB,2013-11-22,17000.0
CTB,2013-11-25,17000.0
CTB,2013-11-26,17200.0
CTB,2013-11-27,17200.0
CTB,2013-11-28,17200.0
CTB,2013-11-29,18900.0
CTB,2013-12-02,18900.0
CTB,2013-12-03,18900.0
CTB,2013-12-04,18900.0
CTB,2013-12-05,18900.0
CTB,2013-12-06,18900.0
CTB,2013-12-09,18900.0
CTB,2013-12-10,18900.0
CTB,2013-12-11,18900.0
CTB,2013-12-12,18900.0
CTB,2013-12-13,18900.0
CTB,2013-12-16,18900.0
CTB,2013-12-17,18900.0
CTB,2013-12-18,18900.0
CTB,2013-12-19,18900.0
CTB,2013-12-20,18900.0
CTB,2013-12-23,18900.0
CTB,2013-12-24,18900.0
CTB,2013-12-25,18900.0
CTB,2013-12-26,18900.0
CTB,2013-12-27,18900.0
CTB,2013-12-30,18900.0
CTB,2013-12-31,20700.0
CTB,2014-01-02,20700.0
CTB,2014-01-03,20700.0
CTB,2014-01-06,20700.0
CTB,2014-01-07,20700.0
CTB,2014-01-08,20700.0
CTB,2014-01-09,20700.0
CTB,2014-01-10,20700.0
CTB,2014-01-13,20700.0
CTB,2014-01-14,20700.0
CTB,2014-01-15,20700.0
CTB,2014-01-16,20700.0
CTB,2014-01-17,20700.0
CTB,2014-01-20,20700.0
CTB,2014-01-21,20700.0
CTB,2014-01-22,20700.0
CTB,2014-01-23,20700.0
CTB,2014-01-24,20700.0
CTB,2014-01-27,20700.0
CTB,2014-02-06,20500.0
CTB,2014-02-07,20500.0
CTB,2014-02-10,21500.0
CTB,2014-02-11,22000.0
CTB,2014-02-12,20100.0
CTB,2014-02-13,20100.0
CTB,2014-02-14,22000.0
CTB,2014-02-17,22000.0
CTB,2014-02-18,22700.0
CTB,2014-02-20,20000.0
CTB,2014-02-21,20000.0
CTB,2014-02-24,21500.0
CTB,2014-02-25,21500.0
CTB,2014-02-26,21500.0
CTB,2014-02-27,21500.0
CTB,2014-02-28,23600.0
CTB,2014-03-03,24000.0
CTB,2014-03-04,24000.0
CTB,2014-03-05,22000.0
CTB,2014-03-06,22000.0
CTB,2014-03-07,22000.0
CTB,2014-03-10,22000.0
CTB,2014-03-11,22000.0
CTB,2014-03-12,22000.0
CTB,2014-03-13,22000.0
CTB,2014-03-14,22000.0
CTB,2014-03-17,22000.0
CTB,2014-03-18,22000.0
CTB,2014-03-19,22000.0
CTB,2014-03-20,22000.0
CTB,2014-03-21,22000.0
CTB,2014-03-24,22000.0
CTB,2014-03-25,22000.0
CTB,2014-03-26,22000.0
CTB,2014-03-27,20000.0
CTB,2014-03-28,20000.0
CTB,2014-03-31,22000.0
CTB,2014-04-01,22000.0
CTB,2014-04-02,22000.0
CTB,2014-04-03,22000.0
CTB,2014-04-04,22000.0
CTB,2014-04-07,24200.0
CTB,2014-04-08,24200.0
CTB,2014-04-10,24200.0
CTB,2014-04-11,24200.0
CTB,2014-04-14,24200.0
CTB,2014-04-15,24200.0
CTB,2014-04-16,24200.0
CTB,2014-04-17,24200.0
CTB,2014-04-18,24200.0
CTB,2014-04-21,24200.0
CTB,2014-04-22,24200.0
CTB,2014-04-23,24200.0
CTB,2014-04-24,24200.0
CTB,2014-04-25,24200.0
CTB,2014-04-28,24200.0
CTB,2014-04-29,24200.0
CTB,2014-05-05,24200.0
CTB,2014-05-06,24200.0
CTB,2014-05-07,24200.0
CTB,2014-05-08,24200.0
CTB,2014-05-09,24200.0
CTB,2014-05-12,26600.0
CTB,2014-05-13,26600.0
CTB,2014-05-14,26600.0
CTB,2014-05-15,24000.0
CTB,2014-05-16,24000.0
CTB,2014-05-19,24000.0
CTB,2014-05-20,24000.0
CTB,2014-05-21,24000.0
