CTS,2009-07-31,26100.0
CTS,2009-08-03,25900.0
CTS,2009-08-04,27200.0
CTS,2009-08-05,27200.0
CTS,2009-08-06,26100.0
CTS,2009-08-07,25400.0
CTS,2009-08-10,26000.0
CTS,2009-08-11,25600.0
CTS,2009-08-12,25500.0
CTS,2009-08-13,25800.0
CTS,2009-08-14,25500.0
CTS,2009-08-17,25000.0
CTS,2009-08-18,24300.0
CTS,2009-08-19,24400.0
CTS,2009-08-20,23900.0
CTS,2009-08-21,25700.0
CTS,2009-08-24,27200.0
CTS,2009-08-25,26500.0
CTS,2009-08-26,26000.0
CTS,2009-08-27,26000.0
CTS,2009-08-28,26300.0
CTS,2009-08-31,26600.0
CTS,2009-09-01,26000.0
CTS,2009-09-03,25800.0
CTS,2009-09-04,25300.0
CTS,2009-09-07,24800.0
CTS,2009-09-08,25500.0
CTS,2009-09-09,25600.0
CTS,2009-09-10,25300.0
CTS,2009-09-11,25200.0
CTS,2009-09-14,24900.0
CTS,2009-09-15,25000.0
CTS,2009-09-16,25200.0
CTS,2009-09-17,24700.0
CTS,2009-09-18,24400.0
CTS,2009-09-21,24700.0
CTS,2009-09-22,25200.0
CTS,2009-09-23,25400.0
CTS,2009-09-24,24800.0
CTS,2009-09-25,25100.0
CTS,2009-09-28,25300.0
CTS,2009-09-29,24800.0
CTS,2009-09-30,24500.0
CTS,2009-10-01,23700.0
CTS,2009-10-02,22800.0
CTS,2009-10-05,22400.0
CTS,2009-10-06,22400.0
CTS,2009-10-07,22500.0
CTS,2009-10-08,22200.0
CTS,2009-10-09,22700.0
CTS,2009-10-12,23100.0
CTS,2009-10-13,22600.0
CTS,2009-10-14,23400.0
CTS,2009-10-15,24500.0
CTS,2009-10-16,24400.0
CTS,2009-10-19,23500.0
CTS,2009-10-20,23600.0
CTS,2009-10-21,23000.0
CTS,2009-10-22,23300.0
CTS,2009-10-23,22900.0
CTS,2009-10-26,22600.0
CTS,2009-10-27,22000.0
CTS,2009-10-28,22000.0
CTS,2009-10-29,20800.0
CTS,2009-10-30,21000.0
CTS,2009-11-02,19800.0
CTS,2009-11-03,18600.0
CTS,2009-11-04,18900.0
CTS,2009-11-05,19600.0
CTS,2009-11-06,19100.0
CTS,2009-11-09,18500.0
CTS,2009-11-10,17900.0
CTS,2009-11-11,18300.0
CTS,2009-11-12,18600.0
CTS,2009-11-13,18300.0
CTS,2009-11-16,18000.0
CTS,2009-11-17,18000.0
CTS,2009-11-18,18100.0
CTS,2009-11-19,18700.0
CTS,2009-11-20,18300.0
CTS,2009-11-23,17700.0
CTS,2009-11-24,17200.0
CTS,2009-11-25,16300.0
CTS,2009-11-26,15300.0
CTS,2009-11-27,15000.0
CTS,2009-11-30,16100.0
CTS,2009-12-01,16800.0
CTS,2009-12-02,16600.0
CTS,2009-12-03,16300.0
CTS,2009-12-04,16300.0
CTS,2009-12-07,16200.0
CTS,2009-12-08,15500.0
CTS,2009-12-09,14400.0
CTS,2009-12-10,14200.0
CTS,2009-12-11,13300.0
CTS,2009-12-14,14400.0
CTS,2009-12-15,13900.0
CTS,2009-12-16,13300.0
CTS,2009-12-17,13400.0
CTS,2009-12-18,14000.0
CTS,2009-12-21,14900.0
CTS,2009-12-22,14800.0
CTS,2009-12-23,15300.0
CTS,2009-12-24,15700.0
CTS,2009-12-25,16500.0
CTS,2009-12-28,15700.0
CTS,2009-12-29,14900.0
CTS,2009-12-30,15400.0
CTS,2009-12-31,15600.0
CTS,2010-01-04,17000.0
CTS,2010-01-05,18000.0
CTS,2010-01-06,17900.0
CTS,2010-01-07,17400.0
CTS,2010-01-08,17500.0
CTS,2010-01-11,16800.0
CTS,2010-01-12,15900.0
CTS,2010-01-13,16400.0
CTS,2010-01-14,16900.0
CTS,2010-01-15,16300.0
CTS,2010-01-18,15400.0
CTS,2010-01-19,15600.0
CTS,2010-01-20,15000.0
CTS,2010-01-21,14500.0
CTS,2010-01-22,14800.0
CTS,2010-01-25,14900.0
CTS,2010-01-26,15700.0
CTS,2010-01-27,14800.0
CTS,2010-01-28,14900.0
CTS,2010-01-29,14700.0
CTS,2010-02-01,14900.0
CTS,2010-02-02,14700.0
CTS,2010-02-03,14800.0
CTS,2010-02-04,14900.0
CTS,2010-02-05,14500.0
CTS,2010-02-08,14400.0
CTS,2010-02-09,14200.0
CTS,2010-02-10,14400.0
CTS,2010-02-11,14600.0
CTS,2010-02-12,14800.0
CTS,2010-02-22,15000.0
CTS,2010-02-23,14600.0
CTS,2010-02-24,14700.0
CTS,2010-02-25,14700.0
CTS,2010-02-26,14600.0
CTS,2010-03-01,14900.0
CTS,2010-03-02,14800.0
CTS,2010-03-03,15500.0
CTS,2010-03-04,15400.0
CTS,2010-03-05,15500.0
CTS,2010-03-08,16400.0
CTS,2010-03-09,16600.0
CTS,2010-03-10,15800.0
CTS,2010-03-11,15800.0
CTS,2010-03-12,15900.0
CTS,2010-03-15,15700.0
CTS,2010-03-16,15200.0
CTS,2010-03-17,15100.0
CTS,2010-03-18,15500.0
CTS,2010-03-19,15200.0
CTS,2010-03-22,15300.0
CTS,2010-03-23,14900.0
CTS,2010-03-24,15100.0
CTS,2010-03-25,14800.0
CTS,2010-03-26,14700.0
CTS,2010-03-29,14400.0
CTS,2010-03-30,14400.0
CTS,2010-03-31,14000.0
CTS,2010-04-01,14300.0
CTS,2010-04-02,14400.0
CTS,2010-04-05,14800.0
CTS,2010-04-06,14400.0
CTS,2010-04-07,14400.0
CTS,2010-04-08,14400.0
CTS,2010-04-09,14400.0
CTS,2010-04-12,14500.0
CTS,2010-04-13,14400.0
CTS,2010-04-14,14500.0
CTS,2010-04-15,14400.0
CTS,2010-04-16,14400.0
CTS,2010-04-19,14100.0
CTS,2010-04-20,14100.0
CTS,2010-04-21,14300.0
CTS,2010-04-22,14900.0
CTS,2010-04-26,14900.0
CTS,2010-04-27,14600.0
CTS,2010-04-28,14400.0
CTS,2010-04-29,14500.0
CTS,2010-05-04,14900.0
CTS,2010-05-05,14600.0
CTS,2010-05-06,15600.0
CTS,2010-05-07,16100.0
CTS,2010-05-10,16700.0
CTS,2010-05-11,15800.0
CTS,2010-05-12,15100.0
CTS,2010-05-13,14700.0
CTS,2010-05-14,14800.0
CTS,2010-05-17,14100.0
CTS,2010-05-18,14000.0
CTS,2010-05-19,13500.0
CTS,2010-05-20,13900.0
CTS,2010-05-21,13200.0
CTS,2010-05-24,14000.0
CTS,2010-05-25,13800.0
CTS,2010-05-26,14100.0
CTS,2010-05-27,13800.0
CTS,2010-05-28,14400.0
CTS,2010-05-31,14000.0
CTS,2010-06-01,14000.0
CTS,2010-06-02,14000.0
CTS,2010-06-03,14100.0
CTS,2010-06-04,13800.0
CTS,2010-06-07,13400.0
CTS,2010-06-08,13500.0
CTS,2010-06-09,13400.0
CTS,2010-06-10,13500.0
CTS,2010-06-11,13500.0
CTS,2010-06-14,13500.0
CTS,2010-06-15,13500.0
CTS,2010-06-16,13700.0
CTS,2010-06-17,13500.0
CTS,2010-06-18,13600.0
CTS,2010-06-21,13700.0
CTS,2010-06-22,13400.0
CTS,2010-06-23,13300.0
CTS,2010-06-24,13400.0
CTS,2010-06-25,13200.0
CTS,2010-06-28,13200.0
CTS,2010-06-29,13300.0
CTS,2010-06-30,13000.0
CTS,2010-07-01,12800.0
CTS,2010-07-02,12800.0
CTS,2010-07-05,12800.0
CTS,2010-07-06,12500.0
CTS,2010-07-07,12700.0
CTS,2010-07-08,12800.0
CTS,2010-07-09,12700.0
CTS,2010-07-12,12800.0
CTS,2010-07-13,13600.0
CTS,2010-07-14,13500.0
CTS,2010-07-15,13100.0
CTS,2010-07-16,13000.0
CTS,2010-07-19,12900.0
CTS,2010-07-20,12800.0
CTS,2010-07-21,12300.0
CTS,2010-07-22,12300.0
CTS,2010-07-23,12300.0
CTS,2010-07-26,12000.0
CTS,2010-07-27,12000.0
CTS,2010-07-28,11700.0
CTS,2010-07-29,11800.0
CTS,2010-07-30,11900.0
CTS,2010-08-02,11700.0
CTS,2010-08-03,11700.0
CTS,2010-08-04,11400.0
CTS,2010-08-05,11200.0
CTS,2010-08-06,11100.0
CTS,2010-08-09,10400.0
CTS,2010-08-10,10200.0
CTS,2010-08-11,10600.0
CTS,2010-08-12,9900.0
CTS,2010-08-13,10000.0
CTS,2010-08-16,10500.0
CTS,2010-08-17,10300.0
CTS,2010-08-18,10100.0
CTS,2010-08-19,9900.0
CTS,2010-08-20,10000.0
CTS,2010-08-23,9800.0
CTS,2010-08-24,9200.0
CTS,2010-08-25,8700.0
CTS,2010-08-26,8900.0
CTS,2010-08-27,8900.0
CTS,2010-08-30,9400.0
CTS,2010-08-31,10000.0
CTS,2010-09-01,9900.0
CTS,2010-09-06,10600.0
CTS,2010-09-07,10300.0
CTS,2010-09-08,9900.0
CTS,2010-09-09,10000.0
CTS,2010-09-10,9600.0
CTS,2010-09-13,9200.0
CTS,2010-09-14,9400.0
CTS,2010-09-15,9300.0
CTS,2010-09-16,9300.0
CTS,2010-09-17,9900.0
CTS,2010-09-20,9700.0
CTS,2010-09-21,9500.0
CTS,2010-09-22,9400.0
CTS,2010-09-23,9400.0
CTS,2010-09-24,9400.0
CTS,2010-09-27,9300.0
CTS,2010-09-28,9500.0
CTS,2010-09-29,9200.0
CTS,2010-09-30,9200.0
CTS,2010-10-01,9000.0
CTS,2010-10-04,8700.0
CTS,2010-10-05,8800.0
CTS,2010-10-06,9100.0
CTS,2010-10-07,8900.0
CTS,2010-10-08,8800.0
CTS,2010-10-11,8700.0
CTS,2010-10-12,8600.0
CTS,2010-10-13,8500.0
CTS,2010-10-14,8600.0
CTS,2010-10-15,8500.0
CTS,2010-10-18,8200.0
CTS,2010-10-19,8100.0
CTS,2010-10-20,7800.0
CTS,2010-10-21,7500.0
CTS,2010-10-22,7600.0
CTS,2010-10-25,7700.0
CTS,2010-10-26,8100.0
CTS,2010-10-27,7700.0
CTS,2010-10-28,7700.0
CTS,2010-10-29,7700.0
CTS,2010-11-01,7600.0
CTS,2010-11-02,7500.0
CTS,2010-11-03,7500.0
CTS,2010-11-04,7700.0
CTS,2010-11-05,8300.0
CTS,2010-11-08,8600.0
CTS,2010-11-09,8100.0
CTS,2010-11-10,8100.0
CTS,2010-11-11,7800.0
CTS,2010-11-12,7800.0
CTS,2010-11-15,7500.0
CTS,2010-11-16,7200.0
CTS,2010-11-17,7300.0
CTS,2010-11-18,7600.0
CTS,2010-11-19,7500.0
CTS,2010-11-22,7300.0
CTS,2010-11-23,7500.0
CTS,2010-11-24,7500.0
CTS,2010-11-25,7600.0
CTS,2010-11-26,7400.0
CTS,2010-11-29,8000.0
CTS,2010-11-30,8400.0
CTS,2010-12-01,8200.0
CTS,2010-12-02,9000.0
CTS,2010-12-03,9400.0
CTS,2010-12-06,10000.0
CTS,2010-12-07,9900.0
CTS,2010-12-08,9500.0
CTS,2010-12-09,9800.0
CTS,2010-12-10,10100.0
CTS,2010-12-13,10700.0
CTS,2010-12-14,10300.0
CTS,2010-12-15,10300.0
CTS,2010-12-16,9800.0
CTS,2010-12-17,10300.0
CTS,2010-12-20,10000.0
CTS,2010-12-21,9900.0
CTS,2010-12-22,9900.0
CTS,2010-12-23,9400.0
CTS,2010-12-24,9500.0
CTS,2010-12-27,9500.0
CTS,2010-12-28,10100.0
CTS,2010-12-29,9900.0
CTS,2010-12-30,9700.0
CTS,2010-12-31,9800.0
CTS,2011-01-04,9800.0
CTS,2011-01-05,9500.0
CTS,2011-01-06,9900.0
CTS,2011-01-07,9500.0
CTS,2011-01-10,9300.0
CTS,2011-01-11,8800.0
CTS,2011-01-12,9200.0
CTS,2011-01-13,9100.0
CTS,2011-01-14,9200.0
CTS,2011-01-17,9300.0
CTS,2011-01-18,9100.0
CTS,2011-01-19,9000.0
CTS,2011-01-20,8800.0
CTS,2011-01-21,8900.0
CTS,2011-01-24,8500.0
CTS,2011-01-25,8500.0
CTS,2011-01-26,8700.0
CTS,2011-01-27,8700.0
CTS,2011-01-28,8800.0
CTS,2011-02-08,9200.0
CTS,2011-02-09,9300.0
CTS,2011-02-10,9300.0
CTS,2011-02-11,9400.0
CTS,2011-02-14,9200.0
CTS,2011-02-15,9100.0
CTS,2011-02-16,9200.0
CTS,2011-02-17,9000.0
CTS,2011-02-18,8700.0
CTS,2011-02-21,8300.0
CTS,2011-02-22,8300.0
CTS,2011-02-23,8600.0
CTS,2011-02-24,8600.0
CTS,2011-02-25,8700.0
CTS,2011-02-28,8400.0
CTS,2011-03-01,8400.0
CTS,2011-03-02,8100.0
CTS,2011-03-03,7700.0
CTS,2011-03-04,8100.0
CTS,2011-03-07,8100.0
CTS,2011-03-08,7600.0
CTS,2011-03-09,7500.0
CTS,2011-03-10,8100.0
CTS,2011-03-11,8500.0
CTS,2011-03-14,8200.0
CTS,2011-03-15,8000.0
CTS,2011-03-16,8100.0
CTS,2011-03-17,8100.0
CTS,2011-03-18,8400.0
CTS,2011-03-21,8300.0
CTS,2011-03-22,8100.0
CTS,2011-03-23,8100.0
CTS,2011-03-24,8100.0
CTS,2011-03-25,8000.0
CTS,2011-03-28,8100.0
CTS,2011-03-29,7800.0
CTS,2011-03-30,7900.0
CTS,2011-03-31,7800.0
CTS,2011-04-01,7600.0
CTS,2011-04-04,7500.0
CTS,2011-04-05,7500.0
CTS,2011-04-06,7700.0
CTS,2011-04-07,7700.0
CTS,2011-04-08,7700.0
CTS,2011-04-13,7600.0
CTS,2011-04-14,7500.0
CTS,2011-04-15,7500.0
CTS,2011-04-18,7200.0
CTS,2011-04-19,7100.0
CTS,2011-04-20,7000.0
CTS,2011-04-21,7100.0
CTS,2011-04-22,7100.0
CTS,2011-04-25,7400.0
CTS,2011-04-26,7100.0
CTS,2011-04-27,6900.0
CTS,2011-04-28,7100.0
CTS,2011-04-29,7100.0
CTS,2011-05-04,6800.0
CTS,2011-05-05,6700.0
CTS,2011-05-06,6900.0
CTS,2011-05-09,6900.0
CTS,2011-05-10,6900.0
CTS,2011-05-11,6900.0
CTS,2011-05-12,6700.0
CTS,2011-05-13,6800.0
CTS,2011-05-16,6400.0
CTS,2011-05-17,6300.0
CTS,2011-05-18,6300.0
CTS,2011-05-19,6300.0
CTS,2011-05-20,6100.0
CTS,2011-05-23,5700.0
CTS,2011-05-24,5500.0
CTS,2011-05-25,5100.0
CTS,2011-05-26,5200.0
CTS,2011-05-27,5300.0
CTS,2011-05-30,5100.0
CTS,2011-05-31,4900.0
CTS,2011-06-01,5300.0
CTS,2011-06-02,5700.0
CTS,2011-06-03,5900.0
CTS,2011-06-06,6200.0
CTS,2011-06-07,6300.0
CTS,2011-06-08,6800.0
CTS,2011-06-09,7200.0
CTS,2011-06-10,7500.0
CTS,2011-06-13,7800.0
CTS,2011-06-14,7300.0
CTS,2011-06-15,6900.0
CTS,2011-06-16,6900.0
CTS,2011-06-17,6700.0
CTS,2011-06-20,6600.0
CTS,2011-06-21,6900.0
CTS,2011-06-22,6400.0
CTS,2011-06-23,6300.0
CTS,2011-06-24,6400.0
CTS,2011-06-27,6300.0
CTS,2011-06-28,6300.0
CTS,2011-06-29,6300.0
CTS,2011-06-30,6200.0
CTS,2011-07-01,5900.0
CTS,2011-07-04,6000.0
CTS,2011-07-05,6300.0
CTS,2011-07-06,6300.0
CTS,2011-07-07,6300.0
CTS,2011-07-08,6200.0
CTS,2011-07-11,5900.0
CTS,2011-07-12,6100.0
CTS,2011-07-13,6100.0
CTS,2011-07-14,6000.0
CTS,2011-07-15,5900.0
CTS,2011-07-18,5900.0
CTS,2011-07-19,5900.0
CTS,2011-07-20,6100.0
CTS,2011-07-21,5900.0
CTS,2011-07-22,5800.0
CTS,2011-07-25,5800.0
CTS,2011-07-26,5900.0
CTS,2011-07-27,6100.0
CTS,2011-07-28,6100.0
CTS,2011-07-29,6100.0
CTS,2011-08-01,5700.0
CTS,2011-08-02,5600.0
CTS,2011-08-03,5700.0
CTS,2011-08-04,5900.0
CTS,2011-08-05,5800.0
CTS,2011-08-08,5700.0
CTS,2011-08-09,5500.0
CTS,2011-08-10,5600.0
CTS,2011-08-11,5400.0
CTS,2011-08-12,5600.0
CTS,2011-08-15,5500.0
CTS,2011-08-16,5600.0
CTS,2011-08-17,5900.0
CTS,2011-08-18,6000.0
CTS,2011-08-19,5900.0
CTS,2011-08-22,6200.0
CTS,2011-08-23,5900.0
CTS,2011-08-24,5900.0
CTS,2011-08-25,5900.0
CTS,2011-08-26,5900.0
CTS,2011-08-29,6300.0
CTS,2011-08-30,6400.0
CTS,2011-08-31,6600.0
CTS,2011-09-01,6900.0
CTS,2011-09-05,6400.0
CTS,2011-09-06,6200.0
CTS,2011-09-07,6600.0
CTS,2011-09-08,6700.0
CTS,2011-09-09,6600.0
CTS,2011-09-12,6800.0
CTS,2011-09-13,6900.0
CTS,2011-09-14,6800.0
CTS,2011-09-15,6700.0
CTS,2011-09-16,6400.0
CTS,2011-09-19,6600.0
CTS,2011-09-20,6300.0
CTS,2011-09-21,6300.0
CTS,2011-09-22,6300.0
CTS,2011-09-23,6200.0
CTS,2011-09-26,6200.0
CTS,2011-09-27,6000.0
CTS,2011-09-28,6100.0
CTS,2011-09-29,5900.0
CTS,2011-09-30,5700.0
CTS,2011-10-03,5600.0
CTS,2011-10-04,5700.0
CTS,2011-10-05,5800.0
CTS,2011-10-06,6100.0
CTS,2011-10-07,5900.0
CTS,2011-10-10,5600.0
CTS,2011-10-11,5600.0
CTS,2011-10-12,5500.0
CTS,2011-10-13,5400.0
CTS,2011-10-14,5400.0
CTS,2011-10-17,5600.0
CTS,2011-10-18,5400.0
CTS,2011-10-19,5600.0
CTS,2011-10-20,5500.0
CTS,2011-10-21,5800.0
CTS,2011-10-24,5700.0
CTS,2011-10-25,5600.0
CTS,2011-10-26,5700.0
CTS,2011-10-27,5500.0
CTS,2011-10-28,5900.0
CTS,2011-10-31,6000.0
CTS,2011-11-01,5700.0
CTS,2011-11-02,5600.0
CTS,2011-11-03,5600.0
CTS,2011-11-04,5500.0
CTS,2011-11-07,5200.0
CTS,2011-11-08,5500.0
CTS,2011-11-09,5400.0
CTS,2011-11-10,5200.0
CTS,2011-11-11,5200.0
CTS,2011-11-14,5100.0
CTS,2011-11-15,5200.0
CTS,2011-11-16,5600.0
CTS,2011-11-17,5300.0
CTS,2011-11-18,5300.0
CTS,2011-11-21,5100.0
CTS,2011-11-22,5100.0
CTS,2011-11-23,5200.0
CTS,2011-11-24,5100.0
CTS,2011-11-25,5100.0
CTS,2011-11-28,5300.0
CTS,2011-11-29,5300.0
CTS,2011-11-30,5200.0
CTS,2011-12-01,5400.0
CTS,2011-12-02,5500.0
CTS,2011-12-05,5700.0
CTS,2011-12-06,5600.0
CTS,2011-12-07,5500.0
CTS,2011-12-08,5500.0
CTS,2011-12-09,5200.0
CTS,2011-12-12,5100.0
CTS,2011-12-13,5100.0
CTS,2011-12-14,4900.0
CTS,2011-12-15,4900.0
CTS,2011-12-16,5000.0
CTS,2011-12-19,5000.0
CTS,2011-12-20,4800.0
CTS,2011-12-21,4700.0
CTS,2011-12-22,4500.0
CTS,2011-12-23,4500.0
CTS,2011-12-26,4300.0
CTS,2011-12-27,4000.0
CTS,2011-12-28,4300.0
CTS,2011-12-29,4200.0
CTS,2011-12-30,4500.0
CTS,2012-01-03,4400.0
CTS,2012-01-04,4200.0
CTS,2012-01-05,4200.0
CTS,2012-01-06,4200.0
CTS,2012-01-09,4300.0
CTS,2012-01-10,4600.0
CTS,2012-01-11,4600.0
CTS,2012-01-12,4500.0
CTS,2012-01-13,4600.0
CTS,2012-01-16,4900.0
CTS,2012-01-17,4700.0
CTS,2012-01-18,5000.0
CTS,2012-01-19,5100.0
CTS,2012-01-20,5100.0
CTS,2012-01-30,5200.0
CTS,2012-01-31,5400.0
CTS,2012-02-01,5200.0
CTS,2012-02-02,5600.0
CTS,2012-02-03,5500.0
CTS,2012-02-06,5300.0
CTS,2012-02-07,5400.0
CTS,2012-02-08,5600.0
CTS,2012-02-09,5200.0
CTS,2012-02-10,5100.0
CTS,2012-02-13,5100.0
CTS,2012-02-14,5100.0
CTS,2012-02-15,5000.0
CTS,2012-02-16,4900.0
CTS,2012-02-17,5200.0
CTS,2012-02-20,5500.0
CTS,2012-02-21,5600.0
CTS,2012-02-22,5800.0
CTS,2012-02-23,6000.0
CTS,2012-02-24,6100.0
CTS,2012-02-27,6200.0
CTS,2012-02-28,5800.0
CTS,2012-02-29,5900.0
CTS,2012-03-01,6100.0
CTS,2012-03-02,6300.0
CTS,2012-03-05,6800.0
CTS,2012-03-06,7200.0
CTS,2012-03-07,7600.0
CTS,2012-03-08,7000.0
CTS,2012-03-09,7100.0
CTS,2012-03-12,6700.0
CTS,2012-03-13,6800.0
CTS,2012-03-14,6900.0
CTS,2012-03-15,7300.0
CTS,2012-03-16,7500.0
CTS,2012-03-19,7500.0
CTS,2012-03-20,7900.0
CTS,2012-03-21,8200.0
CTS,2012-03-22,8300.0
CTS,2012-03-23,8400.0
CTS,2012-03-26,8800.0
CTS,2012-03-27,8300.0
CTS,2012-03-28,8500.0
CTS,2012-03-29,8100.0
CTS,2012-03-30,8100.0
CTS,2012-04-03,8700.0
CTS,2012-04-04,8200.0
CTS,2012-04-05,8500.0
CTS,2012-04-06,8200.0
CTS,2012-04-09,8600.0
CTS,2012-04-10,8400.0
CTS,2012-04-11,8600.0
CTS,2012-04-12,8600.0
CTS,2012-04-13,8800.0
CTS,2012-04-16,9300.0
CTS,2012-04-17,9300.0
CTS,2012-04-18,9300.0
CTS,2012-04-19,8700.0
CTS,2012-04-20,8700.0
CTS,2012-04-23,8700.0
CTS,2012-04-24,8800.0
CTS,2012-04-25,8900.0
CTS,2012-04-26,8600.0
CTS,2012-04-27,8600.0
CTS,2012-05-02,8500.0
CTS,2012-05-03,8600.0
CTS,2012-05-04,8900.0
CTS,2012-05-07,9500.0
CTS,2012-05-08,9100.0
CTS,2012-05-09,9800.0
CTS,2012-05-10,9300.0
CTS,2012-05-11,9200.0
CTS,2012-05-14,8700.0
CTS,2012-05-15,8700.0
CTS,2012-05-16,8700.0
CTS,2012-05-17,8600.0
CTS,2012-05-18,8100.0
CTS,2012-05-21,8600.0
CTS,2012-05-22,8600.0
CTS,2012-05-23,8100.0
CTS,2012-05-24,8200.0
CTS,2012-05-25,8700.0
CTS,2012-05-28,8600.0
CTS,2012-05-29,8300.0
CTS,2012-05-30,8500.0
CTS,2012-05-31,7900.0
CTS,2012-06-01,8200.0
CTS,2012-06-04,8000.0
CTS,2012-06-05,8400.0
CTS,2012-06-06,8500.0
CTS,2012-06-07,8600.0
CTS,2012-06-08,8400.0
CTS,2012-06-11,8500.0
CTS,2012-06-12,8100.0
CTS,2012-06-13,8200.0
CTS,2012-06-14,8200.0
CTS,2012-06-15,8500.0
CTS,2012-06-18,8400.0
CTS,2012-06-19,8300.0
CTS,2012-06-20,8400.0
CTS,2012-06-21,8200.0
CTS,2012-06-22,8200.0
CTS,2012-06-25,8000.0
CTS,2012-06-26,7700.0
CTS,2012-06-27,7400.0
CTS,2012-06-28,7600.0
CTS,2012-06-29,7600.0
CTS,2012-07-02,7500.0
CTS,2012-07-03,7200.0
CTS,2012-07-04,6900.0
CTS,2012-07-05,7300.0
CTS,2012-07-06,7300.0
CTS,2012-07-09,7200.0
CTS,2012-07-10,7100.0
CTS,2012-07-11,7300.0
CTS,2012-07-12,7600.0
CTS,2012-07-13,7700.0
CTS,2012-07-16,7600.0
CTS,2012-07-17,7900.0
CTS,2012-07-18,8100.0
CTS,2012-07-19,8500.0
CTS,2012-07-20,8200.0
CTS,2012-07-23,8100.0
CTS,2012-07-24,7600.0
CTS,2012-07-25,7600.0
CTS,2012-07-26,7600.0
CTS,2012-07-27,7800.0
CTS,2012-07-30,7700.0
CTS,2012-07-31,7600.0
CTS,2012-08-01,7600.0
CTS,2012-08-02,7600.0
CTS,2012-08-03,7500.0
CTS,2012-08-06,7700.0
CTS,2012-08-07,7600.0
CTS,2012-08-08,7600.0
CTS,2012-08-09,7700.0
CTS,2012-08-10,7600.0
CTS,2012-08-13,7600.0
CTS,2012-08-14,7600.0
CTS,2012-08-15,7600.0
CTS,2012-08-16,7600.0
CTS,2012-08-17,7700.0
CTS,2012-08-20,7700.0
CTS,2012-08-21,7300.0
CTS,2012-08-22,6800.0
CTS,2012-08-23,6400.0
CTS,2012-08-24,6700.0
CTS,2012-08-27,6300.0
CTS,2012-08-28,6300.0
CTS,2012-08-29,6600.0
CTS,2012-08-30,6600.0
CTS,2012-08-31,6600.0
CTS,2012-09-04,6600.0
CTS,2012-09-05,6300.0
CTS,2012-09-06,6200.0
CTS,2012-09-07,6300.0
CTS,2012-09-10,5800.0
CTS,2012-09-11,5600.0
CTS,2012-09-12,5600.0
CTS,2012-09-13,5900.0
CTS,2012-09-14,6000.0
CTS,2012-09-17,5900.0
CTS,2012-09-18,5600.0
CTS,2012-09-19,5700.0
CTS,2012-09-20,5800.0
CTS,2012-09-21,5800.0
CTS,2012-09-24,5600.0
CTS,2012-09-25,5600.0
CTS,2012-09-26,5600.0
CTS,2012-09-27,5700.0
CTS,2012-09-28,5600.0
CTS,2012-10-01,5500.0
CTS,2012-10-02,5600.0
CTS,2012-10-03,5600.0
CTS,2012-10-04,5700.0
CTS,2012-10-05,5700.0
CTS,2012-10-08,5900.0
CTS,2012-10-09,5900.0
CTS,2012-10-10,6000.0
CTS,2012-10-11,6400.0
CTS,2012-10-12,6200.0
CTS,2012-10-15,6100.0
CTS,2012-10-16,6500.0
CTS,2012-10-17,6300.0
CTS,2012-10-18,6300.0
CTS,2012-10-19,6100.0
CTS,2012-10-22,6000.0
CTS,2012-10-23,6000.0
CTS,2012-10-24,5900.0
CTS,2012-10-25,5900.0
CTS,2012-10-26,6000.0
CTS,2012-10-29,5800.0
CTS,2012-10-30,5700.0
CTS,2012-10-31,5700.0
CTS,2012-11-01,5800.0
CTS,2012-11-02,5600.0
CTS,2012-11-05,5600.0
CTS,2012-11-06,5600.0
CTS,2012-11-07,5900.0
CTS,2012-11-08,5800.0
CTS,2012-11-09,6000.0
CTS,2012-11-12,6100.0
CTS,2012-11-13,5900.0
CTS,2012-11-14,6000.0
CTS,2012-11-15,5800.0
CTS,2012-11-16,5900.0
CTS,2012-11-19,5900.0
CTS,2012-11-20,5900.0
CTS,2012-11-21,5800.0
CTS,2012-11-22,5800.0
CTS,2012-11-23,5800.0
CTS,2012-11-26,5700.0
CTS,2012-11-27,5600.0
CTS,2012-11-28,5700.0
CTS,2012-11-29,5700.0
CTS,2012-11-30,5600.0
CTS,2012-12-03,5700.0
CTS,2012-12-04,5800.0
CTS,2012-12-05,5900.0
CTS,2012-12-06,5800.0
CTS,2012-12-07,5700.0
CTS,2012-12-10,6100.0
CTS,2012-12-11,5900.0
CTS,2012-12-12,6100.0
CTS,2012-12-13,5900.0
CTS,2012-12-14,5900.0
CTS,2012-12-17,5900.0
CTS,2012-12-18,5800.0
CTS,2012-12-19,6000.0
CTS,2012-12-20,5800.0
CTS,2012-12-21,5800.0
CTS,2012-12-24,6100.0
CTS,2012-12-25,6000.0
CTS,2012-12-26,6400.0
CTS,2012-12-27,6500.0
CTS,2012-12-28,6600.0
CTS,2013-01-02,7100.0
CTS,2013-01-03,6900.0
CTS,2013-01-04,7000.0
CTS,2013-01-07,7000.0
CTS,2013-01-08,7000.0
CTS,2013-01-09,7000.0
CTS,2013-01-10,7300.0
CTS,2013-01-11,7300.0
CTS,2013-01-14,7200.0
CTS,2013-01-15,7700.0
CTS,2013-01-16,7700.0
CTS,2013-01-17,7600.0
CTS,2013-01-18,7300.0
CTS,2013-01-21,7200.0
CTS,2013-01-22,6900.0
CTS,2013-01-23,7000.0
CTS,2013-01-24,7300.0
CTS,2013-01-25,7400.0
CTS,2013-01-28,7500.0
CTS,2013-01-29,7500.0
CTS,2013-01-30,7400.0
CTS,2013-01-31,7200.0
CTS,2013-02-01,7300.0
CTS,2013-02-04,7200.0
CTS,2013-02-05,7100.0
CTS,2013-02-06,7400.0
CTS,2013-02-07,7500.0
CTS,2013-02-08,7500.0
CTS,2013-02-18,7700.0
CTS,2013-02-19,7500.0
CTS,2013-02-20,7600.0
CTS,2013-02-21,7000.0
CTS,2013-02-22,7200.0
CTS,2013-02-25,7200.0
CTS,2013-02-26,6800.0
CTS,2013-02-27,7100.0
CTS,2013-02-28,7000.0
CTS,2013-03-01,6900.0
CTS,2013-03-04,6700.0
CTS,2013-03-05,6600.0
CTS,2013-03-06,6800.0
CTS,2013-03-07,6700.0
CTS,2013-03-08,6800.0
CTS,2013-03-11,7000.0
CTS,2013-03-12,6900.0
CTS,2013-03-13,6800.0
CTS,2013-03-14,6800.0
CTS,2013-03-15,6900.0
CTS,2013-03-18,6900.0
CTS,2013-03-19,6900.0
CTS,2013-03-20,7000.0
CTS,2013-03-21,6900.0
CTS,2013-03-22,6700.0
CTS,2013-03-25,6700.0
CTS,2013-03-26,6800.0
CTS,2013-03-27,6600.0
CTS,2013-03-28,6600.0
CTS,2013-03-29,6600.0
CTS,2013-04-01,6800.0
CTS,2013-04-02,6900.0
CTS,2013-04-03,6800.0
CTS,2013-04-04,6700.0
CTS,2013-04-05,6700.0
CTS,2013-04-08,6800.0
CTS,2013-04-09,6900.0
CTS,2013-04-10,6700.0
CTS,2013-04-11,6700.0
CTS,2013-04-12,6600.0
CTS,2013-04-15,6500.0
CTS,2013-04-16,6600.0
CTS,2013-04-17,6600.0
CTS,2013-04-18,6400.0
CTS,2013-04-22,6300.0
CTS,2013-04-23,6300.0
CTS,2013-04-24,6400.0
CTS,2013-04-25,6400.0
CTS,2013-04-26,6400.0
CTS,2013-05-02,6300.0
CTS,2013-05-03,6400.0
CTS,2013-05-06,6600.0
CTS,2013-05-07,6600.0
CTS,2013-05-08,6400.0
CTS,2013-05-09,6500.0
CTS,2013-05-10,6500.0
CTS,2013-05-13,6600.0
CTS,2013-05-14,6500.0
CTS,2013-05-15,6500.0
CTS,2013-05-16,6500.0
CTS,2013-05-17,6500.0
CTS,2013-05-20,6500.0
CTS,2013-05-21,6600.0
CTS,2013-05-22,6600.0
CTS,2013-05-23,6500.0
CTS,2013-05-24,6600.0
CTS,2013-05-27,6600.0
CTS,2013-05-28,6600.0
CTS,2013-05-29,6700.0
CTS,2013-05-30,6900.0
CTS,2013-05-31,6700.0
CTS,2013-06-03,6700.0
CTS,2013-06-04,6600.0
CTS,2013-06-05,6700.0
CTS,2013-06-06,6600.0
CTS,2013-06-07,6700.0
CTS,2013-06-10,6700.0
CTS,2013-06-11,6700.0
CTS,2013-06-12,6600.0
CTS,2013-06-13,6700.0
CTS,2013-06-14,6700.0
CTS,2013-06-17,6600.0
CTS,2013-06-18,6500.0
CTS,2013-06-19,6500.0
CTS,2013-06-20,6500.0
CTS,2013-06-21,6600.0
CTS,2013-06-24,6400.0
CTS,2013-06-25,6300.0
CTS,2013-06-26,6500.0
CTS,2013-06-27,6500.0
CTS,2013-06-28,6500.0
CTS,2013-07-01,6500.0
CTS,2013-07-02,6600.0
CTS,2013-07-03,6500.0
CTS,2013-07-04,6400.0
CTS,2013-07-05,6400.0
CTS,2013-07-08,6400.0
CTS,2013-07-09,6500.0
CTS,2013-07-10,6500.0
CTS,2013-07-11,6400.0
CTS,2013-07-12,6500.0
CTS,2013-07-15,6600.0
CTS,2013-07-16,6600.0
CTS,2013-07-17,6600.0
CTS,2013-07-18,6600.0
CTS,2013-07-19,6500.0
CTS,2013-07-22,6400.0
CTS,2013-07-23,6200.0
CTS,2013-07-24,6300.0
CTS,2013-07-25,6200.0
CTS,2013-07-26,6300.0
CTS,2013-07-29,6100.0
CTS,2013-07-30,6100.0
CTS,2013-07-31,6200.0
CTS,2013-08-01,6100.0
CTS,2013-08-02,6100.0
CTS,2013-08-05,6200.0
CTS,2013-08-06,6200.0
CTS,2013-08-07,6200.0
CTS,2013-08-08,6200.0
CTS,2013-08-09,6200.0
CTS,2013-08-12,6200.0
CTS,2013-08-13,6200.0
CTS,2013-08-14,6200.0
CTS,2013-08-15,6200.0
CTS,2013-08-16,6100.0
CTS,2013-08-19,6300.0
CTS,2013-08-20,6200.0
CTS,2013-08-21,6200.0
CTS,2013-08-22,6200.0
CTS,2013-08-23,6100.0
CTS,2013-08-26,6100.0
CTS,2013-08-27,5900.0
CTS,2013-08-28,5700.0
CTS,2013-08-29,5700.0
CTS,2013-08-30,5800.0
CTS,2013-09-03,5700.0
CTS,2013-09-04,5700.0
CTS,2013-09-05,5700.0
CTS,2013-09-06,5800.0
CTS,2013-09-09,5600.0
CTS,2013-09-10,6100.0
CTS,2013-09-11,5900.0
CTS,2013-09-12,5900.0
CTS,2013-09-13,5900.0
CTS,2013-09-16,5900.0
CTS,2013-09-17,5900.0
CTS,2013-09-18,5800.0
CTS,2013-09-19,5900.0
CTS,2013-09-20,5900.0
CTS,2013-09-23,6000.0
CTS,2013-09-24,6000.0
CTS,2013-09-25,6000.0
CTS,2013-09-26,6100.0
CTS,2013-09-27,6000.0
CTS,2013-09-30,6100.0
CTS,2013-10-01,6000.0
CTS,2013-10-02,6100.0
CTS,2013-10-03,6100.0
CTS,2013-10-04,6300.0
CTS,2013-10-07,6300.0
CTS,2013-10-08,6100.0
CTS,2013-10-09,6100.0
CTS,2013-10-10,6100.0
CTS,2013-10-11,6100.0
CTS,2013-10-14,6200.0
CTS,2013-10-15,6100.0
CTS,2013-10-16,6100.0
CTS,2013-10-17,6200.0
CTS,2013-10-18,6200.0
CTS,2013-10-21,6400.0
CTS,2013-10-22,6300.0
CTS,2013-10-23,6400.0
CTS,2013-10-24,6300.0
CTS,2013-10-25,6200.0
CTS,2013-10-28,6100.0
CTS,2013-10-29,6200.0
CTS,2013-10-30,6200.0
CTS,2013-10-31,6100.0
CTS,2013-11-01,6300.0
CTS,2013-11-04,6300.0
CTS,2013-11-05,6400.0
CTS,2013-11-06,6500.0
CTS,2013-11-07,6700.0
CTS,2013-11-08,6700.0
CTS,2013-11-11,6700.0
CTS,2013-11-12,6800.0
CTS,2013-11-13,6600.0
CTS,2013-11-14,6700.0
CTS,2013-11-15,6700.0
CTS,2013-11-18,6800.0
CTS,2013-11-19,6800.0
CTS,2013-11-20,6800.0
CTS,2013-11-21,6900.0
CTS,2013-11-22,7000.0
CTS,2013-11-25,7000.0
CTS,2013-11-26,7000.0
CTS,2013-11-27,7000.0
CTS,2013-11-28,7000.0
CTS,2013-11-29,6900.0
CTS,2013-12-02,6900.0
CTS,2013-12-03,6900.0
CTS,2013-12-04,7300.0
CTS,2013-12-05,7200.0
CTS,2013-12-06,7200.0
CTS,2013-12-09,7100.0
CTS,2013-12-10,7100.0
CTS,2013-12-11,6800.0
CTS,2013-12-12,6900.0
CTS,2013-12-13,7000.0
CTS,2013-12-16,6900.0
CTS,2013-12-17,6900.0
CTS,2013-12-18,6900.0
CTS,2013-12-19,7000.0
CTS,2013-12-20,7000.0
CTS,2013-12-23,7100.0
CTS,2013-12-24,7100.0
CTS,2013-12-25,7100.0
CTS,2013-12-26,6900.0
CTS,2013-12-27,6900.0
CTS,2013-12-30,6900.0
CTS,2013-12-31,7000.0
CTS,2014-01-02,7000.0
CTS,2014-01-03,7000.0
CTS,2014-01-06,7000.0
CTS,2014-01-07,7000.0
CTS,2014-01-08,7200.0
CTS,2014-01-09,7500.0
CTS,2014-01-10,7300.0
CTS,2014-01-13,7300.0
CTS,2014-01-14,7300.0
CTS,2014-01-15,7400.0
CTS,2014-01-16,7300.0
CTS,2014-01-17,7300.0
CTS,2014-01-20,7100.0
CTS,2014-01-21,7000.0
CTS,2014-01-22,6900.0
CTS,2014-01-23,7100.0
CTS,2014-01-24,7200.0
CTS,2014-01-27,7100.0
CTS,2014-02-06,7100.0
CTS,2014-02-07,7100.0
CTS,2014-02-10,7200.0
CTS,2014-02-11,7100.0
CTS,2014-02-12,7200.0
CTS,2014-02-13,7600.0
CTS,2014-02-14,8300.0
CTS,2014-02-17,8400.0
CTS,2014-02-18,8200.0
CTS,2014-02-19,8700.0
CTS,2014-02-20,8300.0
CTS,2014-02-21,8300.0
CTS,2014-02-24,8400.0
CTS,2014-02-25,8500.0
CTS,2014-02-26,8400.0
CTS,2014-02-27,8400.0
CTS,2014-02-28,8400.0
CTS,2014-03-03,8100.0
CTS,2014-03-04,8200.0
CTS,2014-03-05,8300.0
CTS,2014-03-06,8400.0
CTS,2014-03-07,8500.0
CTS,2014-03-10,9100.0
CTS,2014-03-11,9100.0
CTS,2014-03-12,8900.0
CTS,2014-03-13,9200.0
CTS,2014-03-14,9400.0
CTS,2014-03-17,10300.0
CTS,2014-03-18,10400.0
CTS,2014-03-19,11000.0
CTS,2014-03-20,10700.0
CTS,2014-03-21,11300.0
CTS,2014-03-24,12400.0
CTS,2014-03-25,12000.0
CTS,2014-03-26,11500.0
CTS,2014-03-27,11700.0
CTS,2014-03-28,11700.0
CTS,2014-03-31,12100.0
CTS,2014-04-01,11400.0
CTS,2014-04-02,11000.0
CTS,2014-04-03,11500.0
CTS,2014-04-04,11200.0
CTS,2014-04-07,11400.0
CTS,2014-04-08,11900.0
CTS,2014-04-10,11900.0
CTS,2014-04-11,11900.0
CTS,2014-04-14,11900.0
CTS,2014-04-15,11300.0
CTS,2014-04-16,10200.0
CTS,2014-04-17,10600.0
CTS,2014-04-18,10000.0
CTS,2014-04-21,9100.0
CTS,2014-04-22,9600.0
CTS,2014-04-23,9400.0
CTS,2014-04-24,9300.0
CTS,2014-04-25,9200.0
CTS,2014-04-28,8900.0
CTS,2014-04-29,8800.0
CTS,2014-05-05,8200.0
CTS,2014-05-06,7700.0
CTS,2014-05-07,8000.0
CTS,2014-05-08,7200.0
CTS,2014-05-09,7800.0
CTS,2014-05-12,7100.0
CTS,2014-05-13,6800.0
CTS,2014-05-14,7400.0
CTS,2014-05-15,7200.0
CTS,2014-05-16,7700.0
CTS,2014-05-19,7900.0
CTS,2014-05-20,8000.0
CTS,2014-05-21,8400.0
