CTX,2012-05-24,10700.0
CTX,2012-05-25,11400.0
CTX,2012-05-28,11400.0
CTX,2012-05-29,11400.0
CTX,2012-05-30,11400.0
CTX,2012-05-31,11000.0
CTX,2012-06-01,10300.0
CTX,2012-06-04,9600.0
CTX,2012-06-05,9000.0
CTX,2012-06-06,8500.0
CTX,2012-06-07,8000.0
CTX,2012-06-08,7400.0
CTX,2012-06-11,7100.0
CTX,2012-06-12,7100.0
CTX,2012-06-13,7100.0
CTX,2012-06-14,7100.0
CTX,2012-06-15,7100.0
CTX,2012-06-18,7100.0
CTX,2012-06-19,7100.0
CTX,2012-06-20,7100.0
CTX,2012-06-21,7100.0
CTX,2012-06-22,7100.0
CTX,2012-06-25,6700.0
CTX,2012-06-26,6500.0
CTX,2012-06-27,6200.0
CTX,2012-06-28,6200.0
CTX,2012-06-29,6300.0
CTX,2012-07-02,6300.0
CTX,2012-07-03,6300.0
CTX,2012-07-04,6100.0
CTX,2012-07-05,6100.0
CTX,2012-07-06,6500.0
CTX,2012-07-09,6100.0
CTX,2012-07-10,5800.0
CTX,2012-07-11,5900.0
CTX,2012-07-12,6300.0
CTX,2012-07-13,6700.0
CTX,2012-07-16,6700.0
CTX,2012-07-17,7100.0
CTX,2012-07-18,7500.0
CTX,2012-07-19,8000.0
CTX,2012-07-20,8000.0
CTX,2012-07-23,7600.0
CTX,2012-07-24,7200.0
CTX,2012-07-25,7200.0
CTX,2012-07-26,7700.0
CTX,2012-07-27,7400.0
CTX,2012-07-30,8100.0
CTX,2012-07-31,7600.0
CTX,2012-08-01,7200.0
CTX,2012-08-02,7100.0
CTX,2012-08-03,7100.0
CTX,2012-08-06,7600.0
CTX,2012-08-07,7600.0
CTX,2012-08-08,7100.0
CTX,2012-08-09,7600.0
CTX,2012-08-10,6500.0
CTX,2012-08-13,6500.0
CTX,2012-08-14,6500.0
CTX,2012-08-15,6900.0
CTX,2012-08-16,6900.0
CTX,2012-08-17,6900.0
CTX,2012-08-20,7300.0
CTX,2012-08-21,7300.0
CTX,2012-08-22,7300.0
CTX,2012-08-23,7300.0
CTX,2012-08-24,7500.0
CTX,2012-08-27,7500.0
CTX,2012-08-28,7500.0
CTX,2012-08-29,7700.0
CTX,2012-08-30,8200.0
CTX,2012-08-31,8200.0
CTX,2012-09-04,8200.0
CTX,2012-09-05,8200.0
CTX,2012-09-06,7600.0
CTX,2012-09-07,7200.0
CTX,2012-09-10,7200.0
CTX,2012-09-11,7200.0
CTX,2012-09-12,7200.0
CTX,2012-09-13,6700.0
CTX,2012-09-14,7000.0
CTX,2012-09-17,6500.0
CTX,2012-09-18,6800.0
CTX,2012-09-19,6800.0
CTX,2012-09-20,6800.0
CTX,2012-09-21,6800.0
CTX,2012-09-24,6300.0
CTX,2012-09-25,6300.0
CTX,2012-09-26,6300.0
CTX,2012-09-27,6000.0
CTX,2012-09-28,5800.0
CTX,2012-10-01,5500.0
CTX,2012-10-02,5200.0
CTX,2012-10-03,4900.0
CTX,2012-10-04,5200.0
CTX,2012-10-05,5400.0
CTX,2012-10-08,5800.0
CTX,2012-10-09,6100.0
CTX,2012-10-10,6400.0
CTX,2012-10-11,6500.0
CTX,2012-10-12,6300.0
CTX,2012-10-15,6500.0
CTX,2012-10-16,6500.0
CTX,2012-10-17,6500.0
CTX,2012-10-18,6100.0
CTX,2012-10-19,5700.0
CTX,2012-10-22,5300.0
CTX,2012-10-23,5300.0
CTX,2012-10-24,5600.0
CTX,2012-10-25,5600.0
CTX,2012-10-26,5600.0
CTX,2012-10-29,5900.0
CTX,2012-10-30,6300.0
CTX,2012-10-31,6300.0
CTX,2012-11-01,6300.0
CTX,2012-11-02,6600.0
CTX,2012-11-05,6600.0
CTX,2012-11-06,6600.0
CTX,2012-11-07,6900.0
CTX,2012-11-08,6400.0
CTX,2012-11-09,6000.0
CTX,2012-11-12,5800.0
CTX,2012-11-13,5800.0
CTX,2012-11-14,5600.0
CTX,2012-11-15,5600.0
CTX,2012-11-16,5900.0
CTX,2012-11-19,5900.0
CTX,2012-11-20,5900.0
CTX,2012-11-21,5900.0
CTX,2012-11-22,6200.0
CTX,2012-11-23,6500.0
CTX,2012-11-26,6100.0
CTX,2012-11-27,6500.0
CTX,2012-11-28,6500.0
CTX,2012-11-29,6500.0
CTX,2012-11-30,6200.0
CTX,2012-12-03,6200.0
CTX,2012-12-04,6200.0
CTX,2012-12-05,6200.0
CTX,2012-12-06,6500.0
CTX,2012-12-07,6900.0
CTX,2012-12-10,7000.0
CTX,2012-12-11,6800.0
CTX,2012-12-12,6800.0
CTX,2012-12-13,7200.0
CTX,2012-12-14,7600.0
CTX,2012-12-17,7100.0
CTX,2012-12-18,6800.0
CTX,2012-12-19,6300.0
CTX,2012-12-20,6800.0
CTX,2012-12-21,7100.0
CTX,2012-12-24,7100.0
CTX,2012-12-25,7300.0
CTX,2012-12-26,7300.0
CTX,2012-12-27,7300.0
CTX,2012-12-28,7300.0
CTX,2013-01-02,7300.0
CTX,2013-01-03,7300.0
CTX,2013-01-04,7300.0
CTX,2013-01-07,7800.0
CTX,2013-01-08,7800.0
CTX,2013-01-09,7800.0
CTX,2013-01-10,7800.0
CTX,2013-01-11,7800.0
CTX,2013-01-14,7200.0
CTX,2013-01-15,7200.0
CTX,2013-01-16,7200.0
CTX,2013-01-17,7200.0
CTX,2013-01-18,6500.0
CTX,2013-01-21,5900.0
CTX,2013-01-22,6400.0
CTX,2013-01-23,7000.0
CTX,2013-01-24,7000.0
CTX,2013-01-25,7000.0
CTX,2013-01-28,7000.0
CTX,2013-01-29,7000.0
CTX,2013-01-30,6400.0
CTX,2013-01-31,6400.0
CTX,2013-02-01,6400.0
CTX,2013-02-04,6400.0
CTX,2013-02-05,6400.0
CTX,2013-02-06,6400.0
CTX,2013-02-07,7000.0
CTX,2013-02-08,7600.0
CTX,2013-02-18,8300.0
CTX,2013-02-19,8300.0
CTX,2013-02-20,8300.0
CTX,2013-02-21,8300.0
CTX,2013-02-22,8300.0
CTX,2013-02-25,8300.0
CTX,2013-02-26,8300.0
CTX,2013-02-27,8300.0
CTX,2013-02-28,8300.0
CTX,2013-03-01,8300.0
CTX,2013-03-04,8300.0
CTX,2013-03-05,8300.0
CTX,2013-03-06,8300.0
CTX,2013-03-07,8300.0
CTX,2013-03-08,7500.0
CTX,2013-03-11,7500.0
CTX,2013-03-12,7500.0
CTX,2013-03-13,7200.0
CTX,2013-03-14,7000.0
CTX,2013-03-15,7600.0
CTX,2013-03-18,7600.0
CTX,2013-03-19,7600.0
CTX,2013-03-20,7600.0
CTX,2013-03-21,7600.0
CTX,2013-03-22,6900.0
CTX,2013-03-25,6900.0
CTX,2013-03-26,6900.0
CTX,2013-03-27,6900.0
CTX,2013-03-28,7500.0
CTX,2013-03-29,7500.0
CTX,2013-04-01,7500.0
CTX,2013-04-02,7500.0
CTX,2013-04-03,7500.0
CTX,2013-04-04,7500.0
CTX,2013-04-05,7500.0
CTX,2013-04-08,7500.0
CTX,2013-04-09,7500.0
CTX,2013-04-10,7500.0
CTX,2013-04-11,7500.0
CTX,2013-04-12,7500.0
CTX,2013-04-15,7500.0
CTX,2013-04-16,7500.0
CTX,2013-04-17,7500.0
CTX,2013-04-18,7500.0
CTX,2013-04-22,7500.0
CTX,2013-04-23,7500.0
CTX,2013-04-24,7500.0
CTX,2013-04-25,7500.0
CTX,2013-04-26,7500.0
CTX,2013-05-02,7500.0
CTX,2013-05-03,7500.0
CTX,2013-05-06,7500.0
CTX,2013-05-07,6800.0
CTX,2013-05-08,6800.0
CTX,2013-05-09,6200.0
CTX,2013-05-10,5600.0
CTX,2013-05-13,5600.0
CTX,2013-05-14,5600.0
CTX,2013-05-15,5600.0
CTX,2013-05-16,5600.0
CTX,2013-05-17,5600.0
CTX,2013-05-20,5600.0
CTX,2013-05-21,5600.0
CTX,2013-05-22,5600.0
CTX,2013-05-23,5600.0
CTX,2013-05-24,5600.0
CTX,2013-05-27,5600.0
CTX,2013-05-28,5600.0
CTX,2013-05-29,5600.0
CTX,2013-05-30,5600.0
CTX,2013-05-31,5600.0
CTX,2013-06-03,5600.0
CTX,2013-06-04,5600.0
CTX,2013-06-05,5600.0
CTX,2013-06-06,5600.0
CTX,2013-06-07,5600.0
CTX,2013-06-10,5600.0
CTX,2013-06-11,5600.0
CTX,2013-06-12,5500.0
CTX,2013-06-13,5500.0
CTX,2013-06-14,5500.0
CTX,2013-06-17,6000.0
CTX,2013-06-18,6000.0
CTX,2013-06-19,6000.0
CTX,2013-06-20,6000.0
CTX,2013-06-21,6000.0
CTX,2013-06-24,6000.0
CTX,2013-06-25,5500.0
CTX,2013-06-26,6000.0
CTX,2013-06-27,6000.0
CTX,2013-06-28,6000.0
CTX,2013-07-01,6500.0
CTX,2013-07-02,7000.0
CTX,2013-07-03,7000.0
CTX,2013-07-04,7000.0
CTX,2013-07-05,7000.0
CTX,2013-07-08,7000.0
CTX,2013-07-09,7000.0
CTX,2013-07-10,7000.0
CTX,2013-07-11,7000.0
CTX,2013-07-12,7000.0
CTX,2013-07-15,7700.0
CTX,2013-07-16,7700.0
CTX,2013-07-17,7700.0
CTX,2013-07-18,7700.0
CTX,2013-07-19,7700.0
CTX,2013-07-22,7700.0
CTX,2013-07-23,7700.0
CTX,2013-07-24,7700.0
CTX,2013-07-25,7700.0
CTX,2013-07-26,7700.0
CTX,2013-07-29,7700.0
CTX,2013-07-30,7700.0
CTX,2013-07-31,7700.0
CTX,2013-08-01,7700.0
CTX,2013-08-02,7700.0
CTX,2013-08-05,7700.0
CTX,2013-08-06,7700.0
CTX,2013-08-07,7700.0
CTX,2013-08-08,8000.0
CTX,2013-08-09,8000.0
CTX,2013-08-12,8000.0
CTX,2013-08-13,8000.0
CTX,2013-08-14,8000.0
CTX,2013-08-15,8000.0
CTX,2013-08-16,8000.0
CTX,2013-08-19,8000.0
CTX,2013-08-20,8000.0
CTX,2013-08-21,8000.0
CTX,2013-08-22,8000.0
CTX,2013-08-23,8000.0
CTX,2013-08-26,8000.0
CTX,2013-08-27,8000.0
CTX,2013-08-28,8000.0
CTX,2013-08-29,8000.0
CTX,2013-08-30,8000.0
CTX,2013-09-03,8000.0
CTX,2013-09-04,8000.0
CTX,2013-09-05,7200.0
CTX,2013-09-06,7200.0
CTX,2013-09-09,7200.0
CTX,2013-09-10,7200.0
CTX,2013-09-11,7200.0
CTX,2013-09-12,7200.0
CTX,2013-09-13,7200.0
CTX,2013-09-16,7200.0
CTX,2013-09-17,7200.0
CTX,2013-09-18,7200.0
CTX,2013-09-19,7200.0
CTX,2013-09-20,7200.0
CTX,2013-09-23,7200.0
CTX,2013-09-24,7200.0
CTX,2013-09-25,7200.0
CTX,2013-09-26,7200.0
CTX,2013-09-27,7200.0
CTX,2013-09-30,7200.0
CTX,2013-10-01,7800.0
CTX,2013-10-02,7800.0
CTX,2013-10-03,7800.0
CTX,2013-10-04,7100.0
CTX,2013-10-07,6400.0
CTX,2013-10-08,6400.0
CTX,2013-10-09,6400.0
CTX,2013-10-10,6400.0
CTX,2013-10-11,6400.0
CTX,2013-10-14,6400.0
CTX,2013-10-15,6400.0
CTX,2013-10-16,7000.0
CTX,2013-10-17,7000.0
CTX,2013-10-18,7000.0
CTX,2013-10-21,7000.0
CTX,2013-10-22,7000.0
CTX,2013-10-23,7000.0
CTX,2013-10-24,7000.0
CTX,2013-10-25,7600.0
CTX,2013-10-28,7600.0
CTX,2013-10-29,7600.0
CTX,2013-10-30,7600.0
CTX,2013-10-31,7600.0
CTX,2013-11-01,7600.0
CTX,2013-11-04,7600.0
CTX,2013-11-05,7600.0
CTX,2013-11-06,8000.0
CTX,2013-11-07,8000.0
CTX,2013-11-08,8000.0
CTX,2013-11-11,8000.0
CTX,2013-11-12,7900.0
CTX,2013-11-13,7900.0
CTX,2013-11-14,7900.0
CTX,2013-11-15,7900.0
CTX,2013-11-18,7900.0
CTX,2013-11-19,7900.0
CTX,2013-11-20,7900.0
CTX,2013-11-21,7900.0
CTX,2013-11-22,7900.0
CTX,2013-11-25,7900.0
CTX,2013-11-26,7900.0
CTX,2013-11-27,7900.0
CTX,2013-11-28,8000.0
CTX,2013-11-29,8000.0
CTX,2013-12-02,8000.0
CTX,2013-12-03,8000.0
CTX,2013-12-04,8000.0
CTX,2013-12-05,8000.0
CTX,2013-12-06,8000.0
CTX,2013-12-09,8000.0
CTX,2013-12-10,8000.0
CTX,2013-12-11,8000.0
CTX,2013-12-12,8000.0
CTX,2013-12-13,8000.0
CTX,2013-12-16,8000.0
CTX,2013-12-17,8000.0
CTX,2013-12-18,8000.0
CTX,2013-12-19,8000.0
CTX,2013-12-20,8000.0
CTX,2013-12-23,8000.0
CTX,2013-12-24,7200.0
CTX,2013-12-25,7200.0
CTX,2013-12-26,7200.0
CTX,2013-12-27,6600.0
CTX,2013-12-30,6600.0
CTX,2013-12-31,7000.0
CTX,2014-01-02,7000.0
CTX,2014-01-03,7000.0
CTX,2014-01-06,7000.0
CTX,2014-01-07,7000.0
CTX,2014-01-08,7000.0
CTX,2014-01-09,7000.0
CTX,2014-01-10,7000.0
CTX,2014-01-13,7000.0
CTX,2014-01-14,7000.0
CTX,2014-01-15,7000.0
CTX,2014-01-16,7000.0
CTX,2014-01-17,7000.0
CTX,2014-01-20,7000.0
CTX,2014-01-21,7000.0
CTX,2014-01-22,7000.0
CTX,2014-01-23,7000.0
CTX,2014-01-24,7300.0
CTX,2014-01-27,7300.0
CTX,2014-02-06,7300.0
CTX,2014-02-07,7300.0
CTX,2014-02-10,7300.0
CTX,2014-02-11,7300.0
CTX,2014-02-12,7300.0
CTX,2014-02-13,7300.0
CTX,2014-02-14,7300.0
CTX,2014-02-17,7300.0
CTX,2014-02-18,8000.0
CTX,2014-02-19,8800.0
CTX,2014-02-20,9600.0
CTX,2014-02-21,10300.0
CTX,2014-02-24,11000.0
CTX,2014-02-25,11800.0
CTX,2014-02-26,11800.0
CTX,2014-02-27,11800.0
CTX,2014-02-28,11800.0
CTX,2014-03-03,11800.0
CTX,2014-03-04,11800.0
CTX,2014-03-05,11800.0
CTX,2014-03-06,11800.0
CTX,2014-03-07,12400.0
CTX,2014-03-10,12400.0
CTX,2014-03-11,11200.0
CTX,2014-03-12,12200.0
CTX,2014-03-13,12200.0
CTX,2014-03-14,12100.0
CTX,2014-03-17,12200.0
CTX,2014-03-18,12200.0
CTX,2014-03-19,13000.0
CTX,2014-03-20,13000.0
CTX,2014-03-21,11700.0
CTX,2014-03-24,11700.0
CTX,2014-03-25,11700.0
CTX,2014-03-26,11700.0
CTX,2014-03-27,10600.0
CTX,2014-03-28,10600.0
CTX,2014-03-31,10600.0
CTX,2014-04-01,10600.0
CTX,2014-04-02,10600.0
CTX,2014-04-03,10600.0
CTX,2014-04-04,11000.0
CTX,2014-04-07,11000.0
CTX,2014-04-08,10000.0
CTX,2014-04-10,9200.0
CTX,2014-04-11,9100.0
CTX,2014-04-14,9100.0
CTX,2014-04-15,8400.0
CTX,2014-04-16,7900.0
CTX,2014-04-17,7900.0
CTX,2014-04-18,8600.0
CTX,2014-04-21,8600.0
CTX,2014-04-22,7800.0
CTX,2014-04-23,8400.0
CTX,2014-04-24,7600.0
CTX,2014-04-25,8300.0
CTX,2014-04-28,8400.0
CTX,2014-04-29,9200.0
CTX,2014-05-05,8600.0
CTX,2014-05-06,8600.0
CTX,2014-05-07,8600.0
CTX,2014-05-08,8000.0
CTX,2014-05-09,8000.0
CTX,2014-05-12,7500.0
CTX,2014-05-13,7500.0
CTX,2014-05-14,8100.0
CTX,2014-05-15,8100.0
CTX,2014-05-16,7600.0
CTX,2014-05-19,8200.0
CTX,2014-05-20,7500.0
CTX,2014-05-21,8200.0
