D11,2011-02-25,39600.0
D11,2011-02-28,37200.0
D11,2011-03-01,35700.0
D11,2011-03-02,36600.0
D11,2011-03-03,34000.0
D11,2011-03-04,31700.0
D11,2011-03-07,29500.0
D11,2011-03-08,27500.0
D11,2011-03-09,25600.0
D11,2011-03-10,27100.0
D11,2011-03-11,23000.0
D11,2011-03-14,25400.0
D11,2011-03-15,24800.0
D11,2011-03-16,26000.0
D11,2011-03-17,25900.0
D11,2011-03-18,26200.0
D11,2011-03-21,27500.0
D11,2011-03-22,27500.0
D11,2011-03-23,26400.0
D11,2011-03-24,26500.0
D11,2011-03-25,23000.0
D11,2011-03-28,22200.0
D11,2011-03-29,22400.0
D11,2011-03-30,24200.0
D11,2011-03-31,23600.0
D11,2011-04-01,23600.0
D11,2011-04-04,23300.0
D11,2011-04-05,21900.0
D11,2011-04-06,24200.0
D11,2011-04-07,24500.0
D11,2011-04-08,22900.0
D11,2011-04-13,22100.0
D11,2011-04-14,21600.0
D11,2011-04-15,22400.0
D11,2011-04-18,23200.0
D11,2011-04-19,22400.0
D11,2011-04-20,23000.0
D11,2011-04-21,23000.0
D11,2011-04-22,24200.0
D11,2011-04-25,23300.0
D11,2011-04-26,23200.0
D11,2011-04-27,23600.0
D11,2011-04-28,23300.0
D11,2011-04-29,23600.0
D11,2011-05-04,22000.0
D11,2011-05-05,22600.0
D11,2011-05-06,22300.0
D11,2011-05-09,20500.0
D11,2011-05-10,20500.0
D11,2011-05-11,20400.0
D11,2011-05-12,20900.0
D11,2011-05-13,19700.0
D11,2011-05-16,20500.0
D11,2011-05-17,19100.0
D11,2011-05-18,17800.0
D11,2011-05-19,17400.0
D11,2011-05-20,17100.0
D11,2011-05-23,17700.0
D11,2011-05-24,19400.0
D11,2011-05-25,18800.0
D11,2011-05-26,17700.0
D11,2011-05-27,16500.0
D11,2011-05-30,15400.0
D11,2011-05-31,14300.0
D11,2011-06-01,15900.0
D11,2011-06-02,15000.0
D11,2011-06-03,14900.0
D11,2011-06-06,15900.0
D11,2011-06-07,15400.0
D11,2011-06-08,15700.0
D11,2011-06-09,14800.0
D11,2011-06-10,15700.0
D11,2011-06-13,15700.0
D11,2011-06-14,15700.0
D11,2011-06-15,15500.0
D11,2011-06-16,15400.0
D11,2011-06-17,16200.0
D11,2011-06-20,15700.0
D11,2011-06-21,16000.0
D11,2011-06-22,15900.0
D11,2011-06-23,15400.0
D11,2011-06-24,15900.0
D11,2011-06-27,16300.0
D11,2011-06-28,15900.0
D11,2011-06-29,16100.0
D11,2011-06-30,15900.0
D11,2011-07-01,15900.0
D11,2011-07-04,16000.0
D11,2011-07-05,16000.0
D11,2011-07-06,16000.0
D11,2011-07-07,14900.0
D11,2011-07-08,15700.0
D11,2011-07-11,15700.0
D11,2011-07-12,15700.0
D11,2011-07-13,16100.0
D11,2011-07-14,15800.0
D11,2011-07-15,15900.0
D11,2011-07-18,15700.0
D11,2011-07-19,16100.0
D11,2011-07-20,15000.0
D11,2011-07-21,14600.0
D11,2011-07-22,15400.0
D11,2011-07-25,16400.0
D11,2011-07-26,15600.0
D11,2011-07-27,15400.0
D11,2011-07-28,15500.0
D11,2011-07-29,16600.0
D11,2011-08-01,16600.0
D11,2011-08-02,16600.0
D11,2011-08-03,15500.0
D11,2011-08-04,15500.0
D11,2011-08-05,15500.0
D11,2011-08-08,15500.0
D11,2011-08-09,15500.0
D11,2011-08-10,15500.0
D11,2011-08-11,16500.0
D11,2011-08-12,16500.0
D11,2011-08-15,16500.0
D11,2011-08-16,15700.0
D11,2011-08-17,15800.0
D11,2011-08-18,14900.0
D11,2011-08-19,15900.0
D11,2011-08-22,15900.0
D11,2011-08-23,16300.0
D11,2011-08-24,16300.0
D11,2011-08-25,16300.0
D11,2011-08-26,15900.0
D11,2011-08-29,15900.0
D11,2011-08-30,16600.0
D11,2011-08-31,16300.0
D11,2011-09-01,17400.0
D11,2011-09-05,16400.0
D11,2011-09-06,16500.0
D11,2011-09-07,16500.0
D11,2011-09-08,17600.0
D11,2011-09-09,18600.0
D11,2011-09-12,19400.0
D11,2011-09-13,20300.0
D11,2011-09-14,20300.0
D11,2011-09-15,18200.0
D11,2011-09-16,18200.0
D11,2011-09-19,18200.0
D11,2011-09-20,18200.0
D11,2011-09-21,18200.0
D11,2011-09-22,18200.0
D11,2011-09-23,18200.0
D11,2011-09-26,17000.0
D11,2011-09-27,17000.0
D11,2011-09-28,17000.0
D11,2011-09-29,18000.0
D11,2011-09-30,19000.0
D11,2011-10-03,19000.0
D11,2011-10-04,19000.0
D11,2011-10-05,19000.0
D11,2011-10-06,19000.0
D11,2011-10-07,19000.0
D11,2011-10-10,19000.0
D11,2011-10-11,19900.0
D11,2011-10-12,19900.0
D11,2011-10-13,19900.0
D11,2011-10-14,18600.0
D11,2011-10-17,18600.0
D11,2011-10-18,18600.0
D11,2011-10-19,17300.0
D11,2011-10-20,17300.0
D11,2011-10-21,17300.0
D11,2011-10-24,16200.0
D11,2011-10-25,15100.0
D11,2011-10-26,14100.0
D11,2011-10-27,13400.0
D11,2011-10-28,13400.0
D11,2011-10-31,12700.0
D11,2011-11-01,12400.0
D11,2011-11-02,12400.0
D11,2011-11-03,12400.0
D11,2011-11-04,11700.0
D11,2011-11-07,12000.0
D11,2011-11-08,11300.0
D11,2011-11-09,10800.0
D11,2011-11-10,10900.0
D11,2011-11-11,10900.0
D11,2011-11-14,10900.0
D11,2011-11-15,10900.0
D11,2011-11-16,11700.0
D11,2011-11-17,11700.0
D11,2011-11-18,11700.0
D11,2011-11-21,10900.0
D11,2011-11-22,11200.0
D11,2011-11-23,11200.0
D11,2011-11-24,11200.0
D11,2011-11-25,11200.0
D11,2011-11-28,11200.0
D11,2011-11-29,11200.0
D11,2011-11-30,11200.0
D11,2011-12-01,11800.0
D11,2011-12-02,11000.0
D11,2011-12-05,10800.0
D11,2011-12-06,11600.0
D11,2011-12-07,12300.0
D11,2011-12-08,12300.0
D11,2011-12-09,12300.0
D11,2011-12-12,12300.0
D11,2011-12-13,12300.0
D11,2011-12-14,12300.0
D11,2011-12-15,12300.0
D11,2011-12-16,11400.0
D11,2011-12-19,12000.0
D11,2011-12-20,11300.0
D11,2011-12-21,10600.0
D11,2011-12-22,11300.0
D11,2011-12-23,10500.0
D11,2011-12-26,10500.0
D11,2011-12-27,9900.0
D11,2011-12-28,9200.0
D11,2011-12-29,9800.0
D11,2011-12-30,9800.0
D11,2012-01-03,10400.0
D11,2012-01-04,11100.0
D11,2012-01-05,11800.0
D11,2012-01-06,11800.0
D11,2012-01-09,11800.0
D11,2012-01-10,11800.0
D11,2012-01-11,11800.0
D11,2012-01-12,11800.0
D11,2012-01-13,11800.0
D11,2012-01-16,11800.0
D11,2012-01-17,11800.0
D11,2012-01-18,11000.0
D11,2012-01-19,10300.0
D11,2012-01-20,9600.0
D11,2012-01-30,10400.0
D11,2012-01-31,11100.0
D11,2012-02-01,11800.0
D11,2012-02-02,12700.0
D11,2012-02-03,13500.0
D11,2012-02-06,13500.0
D11,2012-02-07,13900.0
D11,2012-02-08,14200.0
D11,2012-02-09,14900.0
D11,2012-02-10,15500.0
D11,2012-02-13,14900.0
D11,2012-02-14,15100.0
D11,2012-02-15,14900.0
D11,2012-02-16,14700.0
D11,2012-02-17,15300.0
D11,2012-02-20,15700.0
D11,2012-02-21,15100.0
D11,2012-02-22,15100.0
D11,2012-02-23,15400.0
D11,2012-02-24,15300.0
D11,2012-02-27,16600.0
D11,2012-02-28,15400.0
D11,2012-02-29,15700.0
D11,2012-03-01,16200.0
D11,2012-03-02,17100.0
D11,2012-03-05,17800.0
D11,2012-03-06,17400.0
D11,2012-03-07,17000.0
D11,2012-03-08,15900.0
D11,2012-03-09,16500.0
D11,2012-03-12,15300.0
D11,2012-03-13,15300.0
D11,2012-03-14,14800.0
D11,2012-03-15,16000.0
D11,2012-03-16,15700.0
D11,2012-03-19,15800.0
D11,2012-03-20,15900.0
D11,2012-03-21,16100.0
D11,2012-03-22,16200.0
D11,2012-03-23,16700.0
D11,2012-03-26,17500.0
D11,2012-03-27,16800.0
D11,2012-03-28,17000.0
D11,2012-03-29,16900.0
D11,2012-03-30,16800.0
D11,2012-04-03,17600.0
D11,2012-04-04,16600.0
D11,2012-04-05,16900.0
D11,2012-04-06,16200.0
D11,2012-04-09,16800.0
D11,2012-04-10,17100.0
D11,2012-04-11,17200.0
D11,2012-04-12,17800.0
D11,2012-04-13,18100.0
D11,2012-04-16,18400.0
D11,2012-04-17,19100.0
D11,2012-04-18,20500.0
D11,2012-04-19,20600.0
D11,2012-04-20,20600.0
D11,2012-04-23,19900.0
D11,2012-04-24,20500.0
D11,2012-04-25,20700.0
D11,2012-04-26,19400.0
D11,2012-04-27,20100.0
D11,2012-05-02,19800.0
D11,2012-05-03,19300.0
D11,2012-05-04,19000.0
D11,2012-05-07,19500.0
D11,2012-05-08,19100.0
D11,2012-05-09,19000.0
D11,2012-05-10,19100.0
D11,2012-05-11,17700.0
D11,2012-05-14,17300.0
D11,2012-05-15,16500.0
D11,2012-05-16,16600.0
D11,2012-05-17,15700.0
D11,2012-05-18,15000.0
D11,2012-05-21,16000.0
D11,2012-05-22,16600.0
D11,2012-05-23,16600.0
D11,2012-05-24,15400.0
D11,2012-05-25,16000.0
D11,2012-05-28,16600.0
D11,2012-05-29,16600.0
D11,2012-05-30,17200.0
D11,2012-05-31,16700.0
D11,2012-06-01,16400.0
D11,2012-06-04,16100.0
D11,2012-06-05,16700.0
D11,2012-06-06,17000.0
D11,2012-06-07,17500.0
D11,2012-06-08,16300.0
D11,2012-06-11,16200.0
D11,2012-06-12,15700.0
D11,2012-06-13,16600.0
D11,2012-06-14,15400.0
D11,2012-06-15,16300.0
D11,2012-06-18,17000.0
D11,2012-06-19,15700.0
D11,2012-06-20,15200.0
D11,2012-06-21,15200.0
D11,2012-06-22,15300.0
D11,2012-06-25,15900.0
D11,2012-06-26,14900.0
D11,2012-06-27,14400.0
D11,2012-06-28,14200.0
D11,2012-06-29,13300.0
D11,2012-07-02,14200.0
D11,2012-07-03,14200.0
D11,2012-07-04,14700.0
D11,2012-07-05,14000.0
D11,2012-07-06,13700.0
D11,2012-07-09,14200.0
D11,2012-07-10,13700.0
D11,2012-07-11,13900.0
D11,2012-07-12,13800.0
D11,2012-07-13,14700.0
D11,2012-07-16,15700.0
D11,2012-07-17,16400.0
D11,2012-07-18,15300.0
D11,2012-07-19,16200.0
D11,2012-07-20,15100.0
D11,2012-07-23,14200.0
D11,2012-07-24,14700.0
D11,2012-07-25,14200.0
D11,2012-07-26,14200.0
D11,2012-07-27,14200.0
D11,2012-07-30,14800.0
D11,2012-07-31,14800.0
D11,2012-08-01,13800.0
D11,2012-08-02,13300.0
D11,2012-08-03,13300.0
D11,2012-08-06,13000.0
D11,2012-08-07,12300.0
D11,2012-08-08,13200.0
D11,2012-08-09,14100.0
D11,2012-08-10,14200.0
D11,2012-08-13,13300.0
D11,2012-08-14,12400.0
D11,2012-08-15,13300.0
D11,2012-08-16,13300.0
D11,2012-08-17,13300.0
D11,2012-08-20,13300.0
D11,2012-08-21,12400.0
D11,2012-08-22,13200.0
D11,2012-08-23,12300.0
D11,2012-08-24,11400.0
D11,2012-08-27,10700.0
D11,2012-08-28,9900.0
D11,2012-08-29,9500.0
D11,2012-08-30,10200.0
D11,2012-08-31,10200.0
D11,2012-09-04,9700.0
D11,2012-09-05,9700.0
D11,2012-09-06,9600.0
D11,2012-09-07,9600.0
D11,2012-09-10,8900.0
D11,2012-09-11,9000.0
D11,2012-09-12,8700.0
D11,2012-09-13,9000.0
D11,2012-09-14,9100.0
D11,2012-09-17,9100.0
D11,2012-09-18,9300.0
D11,2012-09-19,9800.0
D11,2012-09-20,10100.0
D11,2012-09-21,10200.0
D11,2012-09-24,10200.0
D11,2012-09-25,10200.0
D11,2012-09-26,10200.0
D11,2012-09-27,9500.0
D11,2012-09-28,10100.0
D11,2012-10-01,9900.0
D11,2012-10-02,9300.0
D11,2012-10-03,8900.0
D11,2012-10-04,8500.0
D11,2012-10-05,8800.0
D11,2012-10-08,9400.0
D11,2012-10-09,8900.0
D11,2012-10-10,8900.0
D11,2012-10-11,9100.0
D11,2012-10-12,9100.0
D11,2012-10-15,9600.0
D11,2012-10-16,9200.0
D11,2012-10-17,9100.0
D11,2012-10-18,8900.0
D11,2012-10-19,8900.0
D11,2012-10-22,8900.0
D11,2012-10-23,8900.0
D11,2012-10-24,8700.0
D11,2012-10-25,8700.0
D11,2012-10-26,9200.0
D11,2012-10-29,9400.0
D11,2012-10-30,9700.0
D11,2012-10-31,10000.0
D11,2012-11-01,10000.0
D11,2012-11-02,10000.0
D11,2012-11-05,10000.0
D11,2012-11-06,10000.0
D11,2012-11-07,9400.0
D11,2012-11-08,9300.0
D11,2012-11-09,8800.0
D11,2012-11-12,8800.0
D11,2012-11-13,8800.0
D11,2012-11-14,8600.0
D11,2012-11-15,8600.0
D11,2012-11-16,8900.0
D11,2012-11-19,9400.0
D11,2012-11-20,9800.0
D11,2012-11-21,9900.0
D11,2012-11-22,9300.0
D11,2012-11-23,9500.0
D11,2012-11-26,8900.0
D11,2012-11-27,8300.0
D11,2012-11-28,8400.0
D11,2012-11-29,8800.0
D11,2012-11-30,8500.0
D11,2012-12-03,8900.0
D11,2012-12-04,8400.0
D11,2012-12-05,8400.0
D11,2012-12-06,8900.0
D11,2012-12-07,9400.0
D11,2012-12-10,9800.0
D11,2012-12-11,10200.0
D11,2012-12-12,9500.0
D11,2012-12-13,9500.0
D11,2012-12-14,9500.0
D11,2012-12-17,9500.0
D11,2012-12-18,9500.0
D11,2012-12-19,9500.0
D11,2012-12-20,9500.0
D11,2012-12-21,9400.0
D11,2012-12-24,9400.0
D11,2012-12-25,9400.0
D11,2012-12-26,9400.0
D11,2012-12-27,9400.0
D11,2012-12-28,9500.0
D11,2013-01-02,9500.0
D11,2013-01-03,9400.0
D11,2013-01-04,9400.0
D11,2013-01-07,9400.0
D11,2013-01-08,9400.0
D11,2013-01-09,9000.0
D11,2013-01-10,9000.0
D11,2013-01-11,9100.0
D11,2013-01-14,9100.0
D11,2013-01-15,9100.0
D11,2013-01-16,9100.0
D11,2013-01-17,10000.0
D11,2013-01-18,10000.0
D11,2013-01-21,10100.0
D11,2013-01-22,10100.0
D11,2013-01-23,10100.0
D11,2013-01-24,10100.0
D11,2013-01-25,10100.0
D11,2013-01-28,10100.0
D11,2013-01-29,9100.0
D11,2013-01-30,9000.0
D11,2013-01-31,9000.0
D11,2013-02-01,8700.0
D11,2013-02-04,9100.0
D11,2013-02-05,9100.0
D11,2013-02-06,9100.0
D11,2013-02-07,9100.0
D11,2013-02-08,9100.0
D11,2013-02-18,9500.0
D11,2013-02-19,9500.0
D11,2013-02-20,9500.0
D11,2013-02-21,9100.0
D11,2013-02-22,9100.0
D11,2013-02-25,9100.0
D11,2013-02-26,8400.0
D11,2013-02-27,8400.0
D11,2013-02-28,8400.0
D11,2013-03-01,9300.0
D11,2013-03-04,10100.0
D11,2013-03-05,10100.0
D11,2013-03-06,9200.0
D11,2013-03-07,8700.0
D11,2013-03-08,8700.0
D11,2013-03-11,9500.0
D11,2013-03-12,10400.0
D11,2013-03-13,11400.0
D11,2013-03-14,12300.0
D11,2013-03-15,11200.0
D11,2013-03-18,11200.0
D11,2013-03-19,11900.0
D11,2013-03-20,12500.0
D11,2013-03-21,13200.0
D11,2013-03-22,12400.0
D11,2013-03-25,11800.0
D11,2013-03-26,11700.0
D11,2013-03-27,11500.0
D11,2013-03-28,11500.0
D11,2013-03-29,11500.0
D11,2013-04-01,11900.0
D11,2013-04-02,11900.0
D11,2013-04-03,11800.0
D11,2013-04-04,11800.0
D11,2013-04-05,12300.0
D11,2013-04-08,11800.0
D11,2013-04-09,12000.0
D11,2013-04-10,12000.0
D11,2013-04-11,12000.0
D11,2013-04-12,12000.0
D11,2013-04-15,11600.0
D11,2013-04-16,12400.0
D11,2013-04-17,12400.0
D11,2013-04-18,13300.0
D11,2013-04-22,13100.0
D11,2013-04-23,12300.0
D11,2013-04-24,12300.0
D11,2013-04-25,11600.0
D11,2013-04-26,11000.0
D11,2013-05-02,11900.0
D11,2013-05-03,11900.0
D11,2013-05-06,12100.0
D11,2013-05-07,11900.0
D11,2013-05-08,11800.0
D11,2013-05-09,11800.0
D11,2013-05-10,11800.0
D11,2013-05-13,11500.0
D11,2013-05-14,11800.0
D11,2013-05-15,11800.0
D11,2013-05-16,11800.0
D11,2013-05-17,11800.0
D11,2013-05-20,11800.0
D11,2013-05-21,10800.0
D11,2013-05-22,11700.0
D11,2013-05-23,11700.0
D11,2013-05-24,12700.0
D11,2013-05-27,11900.0
D11,2013-05-28,11700.0
D11,2013-05-29,11600.0
D11,2013-05-30,12000.0
D11,2013-05-31,12000.0
D11,2013-06-03,11800.0
D11,2013-06-04,11900.0
D11,2013-06-05,11900.0
D11,2013-06-06,12900.0
D11,2013-06-07,11800.0
D11,2013-06-10,11800.0
D11,2013-06-11,12300.0
D11,2013-06-12,12800.0
D11,2013-06-13,12800.0
D11,2013-06-14,13000.0
D11,2013-06-17,13000.0
D11,2013-06-18,12400.0
D11,2013-06-19,12400.0
D11,2013-06-20,13300.0
D11,2013-06-21,13300.0
D11,2013-06-24,13300.0
D11,2013-06-25,12300.0
D11,2013-06-26,12300.0
D11,2013-06-27,12300.0
D11,2013-06-28,12300.0
D11,2013-07-01,12300.0
D11,2013-07-02,12900.0
D11,2013-07-03,12900.0
D11,2013-07-04,12300.0
D11,2013-07-05,12300.0
D11,2013-07-08,12300.0
D11,2013-07-09,12300.0
D11,2013-07-10,12300.0
D11,2013-07-11,12300.0
D11,2013-07-12,12300.0
D11,2013-07-15,12300.0
D11,2013-07-16,12300.0
D11,2013-07-17,12300.0
D11,2013-07-18,12300.0
D11,2013-07-19,12300.0
D11,2013-07-22,12300.0
D11,2013-07-23,12400.0
D11,2013-07-24,12300.0
D11,2013-07-25,12400.0
D11,2013-07-26,12400.0
D11,2013-07-29,12800.0
D11,2013-07-30,12400.0
D11,2013-07-31,12400.0
D11,2013-08-01,12400.0
D11,2013-08-02,12400.0
D11,2013-08-05,12400.0
D11,2013-08-06,12400.0
D11,2013-08-07,12400.0
D11,2013-08-08,12000.0
D11,2013-08-09,12000.0
D11,2013-08-12,12000.0
D11,2013-08-13,12000.0
D11,2013-08-14,13200.0
D11,2013-08-15,13300.0
D11,2013-08-16,13300.0
D11,2013-08-19,12300.0
D11,2013-08-20,12300.0
D11,2013-08-21,12300.0
D11,2013-08-22,12300.0
D11,2013-08-23,12300.0
D11,2013-08-26,12300.0
D11,2013-08-27,12300.0
D11,2013-08-28,12800.0
D11,2013-08-29,12800.0
D11,2013-08-30,12800.0
D11,2013-09-03,12300.0
D11,2013-09-04,12300.0
D11,2013-09-05,12300.0
D11,2013-09-06,12300.0
D11,2013-09-09,12300.0
D11,2013-09-10,12300.0
D11,2013-09-11,12300.0
D11,2013-09-12,12300.0
D11,2013-09-13,12300.0
D11,2013-09-16,12300.0
D11,2013-09-17,12300.0
D11,2013-09-18,12300.0
D11,2013-09-19,12300.0
D11,2013-09-20,12300.0
D11,2013-09-23,12900.0
D11,2013-09-24,12900.0
D11,2013-09-25,12900.0
D11,2013-09-26,13500.0
D11,2013-09-30,13400.0
D11,2013-10-01,13300.0
D11,2013-10-02,13300.0
D11,2013-10-03,13300.0
D11,2013-10-04,13300.0
D11,2013-10-07,13300.0
D11,2013-10-08,12000.0
D11,2013-10-09,13200.0
D11,2013-10-10,14000.0
D11,2013-10-11,12600.0
D11,2013-10-14,12600.0
D11,2013-10-15,12600.0
D11,2013-10-16,12600.0
D11,2013-10-17,12600.0
D11,2013-10-18,12600.0
D11,2013-10-21,12600.0
D11,2013-10-22,12600.0
D11,2013-10-23,12600.0
D11,2013-10-24,12600.0
D11,2013-10-25,12600.0
D11,2013-10-28,12600.0
D11,2013-10-29,11600.0
D11,2013-10-30,11600.0
D11,2013-10-31,11600.0
D11,2013-11-01,11600.0
D11,2013-11-04,11600.0
D11,2013-11-05,11600.0
D11,2013-11-06,11600.0
D11,2013-11-07,11600.0
D11,2013-11-08,11600.0
D11,2013-11-11,11600.0
D11,2013-11-12,11600.0
D11,2013-11-13,11600.0
D11,2013-11-14,11600.0
D11,2013-11-15,11600.0
D11,2013-11-18,12000.0
D11,2013-11-19,11800.0
D11,2013-11-20,11800.0
D11,2013-11-21,11600.0
D11,2013-11-22,11600.0
D11,2013-11-25,11600.0
D11,2013-11-26,11600.0
D11,2013-11-27,11600.0
D11,2013-11-28,11600.0
D11,2013-11-29,11500.0
D11,2013-12-02,11500.0
D11,2013-12-03,11500.0
D11,2013-12-04,12000.0
D11,2013-12-05,12000.0
D11,2013-12-06,12500.0
D11,2013-12-09,12000.0
D11,2013-12-10,12000.0
D11,2013-12-11,11000.0
D11,2013-12-12,11000.0
D11,2013-12-13,11000.0
D11,2013-12-16,11000.0
D11,2013-12-17,11000.0
D11,2013-12-18,11000.0
D11,2013-12-19,11100.0
D11,2013-12-20,11000.0
D11,2013-12-23,12100.0
D11,2013-12-24,12500.0
D11,2013-12-25,12500.0
D11,2013-12-26,12500.0
D11,2013-12-27,12500.0
D11,2013-12-30,12500.0
D11,2013-12-31,12500.0
D11,2014-01-02,12500.0
D11,2014-01-03,12500.0
D11,2014-01-06,12200.0
D11,2014-01-07,12300.0
D11,2014-01-08,12400.0
D11,2014-01-09,12400.0
D11,2014-01-10,12400.0
D11,2014-01-13,12400.0
D11,2014-01-14,12400.0
D11,2014-01-15,12400.0
D11,2014-01-16,12400.0
D11,2014-01-17,12400.0
D11,2014-01-20,12400.0
D11,2014-01-21,12400.0
D11,2014-01-22,12400.0
D11,2014-01-23,12400.0
D11,2014-01-24,12400.0
D11,2014-01-27,12400.0
D11,2014-02-06,12400.0
D11,2014-02-07,12300.0
D11,2014-02-10,12400.0
D11,2014-02-11,12400.0
D11,2014-02-12,12400.0
D11,2014-02-13,12800.0
D11,2014-02-14,12500.0
D11,2014-02-17,12500.0
D11,2014-02-18,12500.0
D11,2014-02-19,12500.0
D11,2014-02-20,12500.0
D11,2014-02-21,12500.0
D11,2014-02-24,12500.0
D11,2014-02-25,12500.0
D11,2014-02-26,12600.0
D11,2014-02-27,12600.0
D11,2014-02-28,12600.0
D11,2014-03-03,12600.0
D11,2014-03-04,13800.0
D11,2014-03-05,14800.0
D11,2014-03-06,14800.0
D11,2014-03-07,14800.0
D11,2014-03-10,14800.0
D11,2014-03-11,14800.0
D11,2014-03-12,14800.0
D11,2014-03-13,14800.0
D11,2014-03-14,14800.0
D11,2014-03-17,14800.0
D11,2014-03-18,14800.0
D11,2014-03-19,14800.0
D11,2014-03-20,13800.0
D11,2014-03-21,13800.0
D11,2014-03-24,13800.0
D11,2014-03-25,13800.0
D11,2014-03-26,13800.0
D11,2014-03-27,13500.0
D11,2014-03-28,13500.0
D11,2014-03-31,13500.0
D11,2014-04-01,12800.0
D11,2014-04-02,13700.0
D11,2014-04-03,13000.0
D11,2014-04-04,13000.0
D11,2014-04-07,13000.0
D11,2014-04-08,12500.0
D11,2014-04-10,12500.0
D11,2014-04-11,12500.0
D11,2014-04-14,12700.0
D11,2014-04-15,12700.0
D11,2014-04-16,12700.0
D11,2014-04-17,12700.0
D11,2014-04-18,12700.0
D11,2014-04-21,13000.0
D11,2014-04-22,13000.0
D11,2014-04-23,13000.0
D11,2014-04-24,13100.0
D11,2014-04-25,13100.0
D11,2014-04-28,13100.0
D11,2014-04-29,12800.0
D11,2014-05-05,12800.0
D11,2014-05-06,13000.0
D11,2014-05-07,13000.0
D11,2014-05-08,12700.0
D11,2014-05-09,12900.0
D11,2014-05-12,12800.0
D11,2014-05-13,12800.0
D11,2014-05-14,13000.0
D11,2014-05-15,12800.0
D11,2014-05-16,12800.0
D11,2014-05-19,12800.0
D11,2014-05-20,12800.0
D11,2014-05-21,12800.0
