DBC,2008-03-18,10900.0
DBC,2008-03-19,11100.0
DBC,2008-03-20,12200.0
DBC,2008-03-21,11000.0
DBC,2008-03-24,10900.0
DBC,2008-03-25,9800.0
DBC,2008-03-26,10300.0
DBC,2008-03-27,10200.0
DBC,2008-03-28,10400.0
DBC,2008-03-31,10500.0
DBC,2008-04-01,10700.0
DBC,2008-04-02,10900.0
DBC,2008-04-03,11200.0
DBC,2008-04-04,11400.0
DBC,2008-04-07,11700.0
DBC,2008-04-08,12000.0
DBC,2008-04-09,11500.0
DBC,2008-04-10,11200.0
DBC,2008-04-11,11200.0
DBC,2008-04-16,11300.0
DBC,2008-04-17,11600.0
DBC,2008-04-18,11900.0
DBC,2008-04-21,11900.0
DBC,2008-04-22,11700.0
DBC,2008-04-23,11400.0
DBC,2008-04-24,11400.0
DBC,2008-04-25,11800.0
DBC,2008-04-28,11900.0
DBC,2008-04-29,12300.0
DBC,2008-05-05,12100.0
DBC,2008-05-06,11900.0
DBC,2008-05-07,11600.0
DBC,2008-05-08,11300.0
DBC,2008-05-09,10900.0
DBC,2008-05-12,10700.0
DBC,2008-05-13,10400.0
DBC,2008-05-14,10100.0
DBC,2008-05-15,9800.0
DBC,2008-05-16,9500.0
DBC,2008-05-19,9300.0
DBC,2008-05-20,9000.0
DBC,2008-05-21,8800.0
DBC,2008-05-22,8500.0
DBC,2008-05-23,8300.0
DBC,2008-05-26,8100.0
DBC,2008-05-27,7900.0
DBC,2008-05-28,7600.0
DBC,2008-05-29,7400.0
DBC,2008-05-30,7200.0
DBC,2008-06-02,7000.0
DBC,2008-06-03,6800.0
DBC,2008-06-04,6600.0
DBC,2008-06-05,6500.0
DBC,2008-06-06,6300.0
DBC,2008-06-09,6100.0
DBC,2008-06-10,6000.0
DBC,2008-06-11,6100.0
DBC,2008-06-12,6100.0
DBC,2008-06-13,6300.0
DBC,2008-06-16,6400.0
DBC,2008-06-17,6600.0
DBC,2008-06-18,6400.0
DBC,2008-06-19,6400.0
DBC,2008-06-20,6100.0
DBC,2008-06-23,6300.0
DBC,2008-06-24,6300.0
DBC,2008-06-25,6500.0
DBC,2008-06-26,6600.0
DBC,2008-06-27,6500.0
DBC,2008-06-30,6400.0
DBC,2008-07-01,6600.0
DBC,2008-07-02,6900.0
DBC,2008-07-03,7100.0
DBC,2008-07-04,7300.0
DBC,2008-07-07,7600.0
DBC,2008-07-08,7800.0
DBC,2008-07-09,7800.0
DBC,2008-07-10,8100.0
DBC,2008-07-11,8400.0
DBC,2008-07-14,8700.0
DBC,2008-07-15,9000.0
DBC,2008-07-16,9400.0
DBC,2008-07-17,9600.0
DBC,2008-07-18,9900.0
DBC,2008-07-21,9500.0
DBC,2008-07-22,9200.0
DBC,2008-07-23,9200.0
DBC,2008-07-24,8600.0
DBC,2008-07-25,8600.0
DBC,2008-07-28,9000.0
DBC,2008-07-29,9300.0
DBC,2008-07-30,9400.0
DBC,2008-07-31,9200.0
DBC,2008-08-01,8900.0
DBC,2008-08-04,8600.0
DBC,2008-08-05,8300.0
DBC,2008-08-06,8600.0
DBC,2008-08-07,8700.0
DBC,2008-08-08,9000.0
DBC,2008-08-11,9200.0
DBC,2008-08-12,9600.0
DBC,2008-08-13,9900.0
DBC,2008-08-14,10200.0
DBC,2008-08-15,10600.0
DBC,2008-08-18,11300.0
DBC,2008-08-19,12100.0
DBC,2008-08-20,11900.0
DBC,2008-08-21,13100.0
DBC,2008-08-22,13600.0
DBC,2008-08-25,14500.0
DBC,2008-08-26,15500.0
DBC,2008-08-27,16600.0
DBC,2008-08-28,15500.0
DBC,2008-08-29,17000.0
DBC,2008-09-03,17200.0
DBC,2008-09-04,18400.0
DBC,2008-09-05,17300.0
DBC,2008-09-08,16600.0
DBC,2008-09-09,15700.0
DBC,2008-09-10,16000.0
DBC,2008-09-11,15000.0
DBC,2008-09-12,14100.0
DBC,2008-09-15,15000.0
DBC,2008-09-16,13600.0
DBC,2008-09-17,12800.0
DBC,2008-09-18,11900.0
DBC,2008-09-19,12700.0
DBC,2008-09-22,13000.0
DBC,2008-09-23,13000.0
DBC,2008-09-24,12900.0
DBC,2008-09-25,14100.0
DBC,2008-09-26,14300.0
DBC,2008-09-29,14000.0
DBC,2008-09-30,13000.0
DBC,2008-10-01,13200.0
DBC,2008-10-02,14100.0
DBC,2008-10-03,15000.0
DBC,2008-10-06,14400.0
DBC,2008-10-07,13400.0
DBC,2008-10-08,12500.0
DBC,2008-10-09,13100.0
DBC,2008-10-10,12000.0
DBC,2008-10-13,12000.0
DBC,2008-10-14,12800.0
DBC,2008-10-15,13600.0
DBC,2008-10-16,12400.0
DBC,2008-10-17,12700.0
DBC,2008-10-20,12500.0
DBC,2008-10-21,13000.0
DBC,2008-10-22,12300.0
DBC,2008-10-23,11600.0
DBC,2008-10-24,10900.0
DBC,2008-10-27,10100.0
DBC,2008-10-28,9500.0
DBC,2008-10-29,10100.0
DBC,2008-10-30,9500.0
DBC,2008-10-31,9600.0
DBC,2008-11-03,9700.0
DBC,2008-11-04,9900.0
DBC,2008-11-05,10400.0
DBC,2008-11-06,11100.0
DBC,2008-11-07,11900.0
DBC,2008-11-10,12700.0
DBC,2008-11-11,12600.0
DBC,2008-11-12,13100.0
DBC,2008-11-13,12900.0
DBC,2008-11-14,13100.0
DBC,2008-11-17,13700.0
DBC,2008-11-18,13400.0
DBC,2008-11-19,12900.0
DBC,2008-11-20,12900.0
DBC,2008-11-21,12500.0
DBC,2008-11-24,12300.0
DBC,2008-11-25,12400.0
DBC,2008-11-26,11500.0
DBC,2008-11-27,10800.0
DBC,2008-11-28,11600.0
DBC,2008-12-01,11200.0
DBC,2008-12-02,11500.0
DBC,2008-12-03,11100.0
DBC,2008-12-04,11500.0
DBC,2008-12-05,11100.0
DBC,2008-12-08,10300.0
DBC,2008-12-09,9700.0
DBC,2008-12-10,9100.0
DBC,2008-12-11,9700.0
DBC,2008-12-12,10200.0
DBC,2008-12-15,10800.0
DBC,2008-12-16,10000.0
DBC,2008-12-17,10300.0
DBC,2008-12-18,10200.0
DBC,2008-12-19,10200.0
DBC,2008-12-22,10100.0
DBC,2008-12-23,9700.0
DBC,2008-12-24,9700.0
DBC,2008-12-25,9600.0
DBC,2008-12-26,9700.0
DBC,2008-12-29,9600.0
DBC,2008-12-30,9500.0
DBC,2008-12-31,9500.0
DBC,2009-01-02,9300.0
DBC,2009-01-05,9200.0
DBC,2009-01-06,9500.0
DBC,2009-01-07,9700.0
DBC,2009-01-08,9500.0
DBC,2009-01-09,9700.0
DBC,2009-01-12,9600.0
DBC,2009-01-13,9400.0
DBC,2009-01-14,9400.0
DBC,2009-01-15,9100.0
DBC,2009-01-16,9200.0
DBC,2009-01-19,9000.0
DBC,2009-01-20,8800.0
DBC,2009-01-21,8600.0
DBC,2009-01-22,8800.0
DBC,2009-01-23,9100.0
DBC,2009-02-02,8800.0
DBC,2009-02-03,8600.0
DBC,2009-02-04,8700.0
DBC,2009-02-05,8200.0
DBC,2009-02-06,8400.0
DBC,2009-02-09,8700.0
DBC,2009-02-10,8400.0
DBC,2009-02-11,8200.0
DBC,2009-02-12,8200.0
DBC,2009-02-13,8200.0
DBC,2009-02-16,8300.0
DBC,2009-02-17,8000.0
DBC,2009-02-18,7800.0
DBC,2009-02-19,7800.0
DBC,2009-02-20,7700.0
DBC,2009-02-23,7200.0
DBC,2009-02-24,6900.0
DBC,2009-02-25,7300.0
DBC,2009-02-26,7200.0
DBC,2009-02-27,7200.0
DBC,2009-03-02,7200.0
DBC,2009-03-03,7100.0
DBC,2009-03-04,7100.0
DBC,2009-03-05,7300.0
DBC,2009-03-06,7500.0
DBC,2009-03-09,7800.0
DBC,2009-03-10,8300.0
DBC,2009-03-11,8500.0
DBC,2009-03-12,8100.0
DBC,2009-03-13,8100.0
DBC,2009-03-16,8300.0
DBC,2009-03-17,8700.0
DBC,2009-03-18,9200.0
DBC,2009-03-19,8800.0
DBC,2009-03-20,8600.0
DBC,2009-03-23,8300.0
DBC,2009-03-24,8800.0
DBC,2009-03-25,8900.0
DBC,2009-03-26,8900.0
DBC,2009-03-27,8600.0
DBC,2009-03-30,8500.0
DBC,2009-03-31,8900.0
DBC,2009-04-01,9200.0
DBC,2009-04-02,9700.0
DBC,2009-04-03,10300.0
DBC,2009-04-07,11000.0
DBC,2009-04-08,10700.0
DBC,2009-04-09,12100.0
DBC,2009-04-10,12600.0
DBC,2009-04-13,13500.0
DBC,2009-04-14,14400.0
DBC,2009-04-15,13600.0
DBC,2009-04-16,14000.0
DBC,2009-04-17,13000.0
DBC,2009-04-20,12400.0
DBC,2009-04-21,11600.0
DBC,2009-04-22,11900.0
DBC,2009-04-23,11100.0
DBC,2009-04-24,10600.0
DBC,2009-04-27,10400.0
DBC,2009-04-28,10300.0
DBC,2009-04-29,10800.0
DBC,2009-05-04,11100.0
DBC,2009-05-05,11900.0
DBC,2009-05-06,12600.0
DBC,2009-05-07,13500.0
DBC,2009-05-08,13700.0
DBC,2009-05-11,12700.0
DBC,2009-05-12,12600.0
DBC,2009-05-13,12100.0
DBC,2009-05-14,12100.0
DBC,2009-05-15,12500.0
DBC,2009-05-18,12600.0
DBC,2009-05-19,13200.0
DBC,2009-05-20,13000.0
DBC,2009-05-21,12800.0
DBC,2009-05-22,12400.0
DBC,2009-05-25,13200.0
DBC,2009-05-26,13700.0
DBC,2009-05-27,13700.0
DBC,2009-05-28,12900.0
DBC,2009-05-29,13000.0
DBC,2009-06-01,13900.0
DBC,2009-06-02,14600.0
DBC,2009-06-03,15600.0
DBC,2009-06-04,16500.0
DBC,2009-06-05,17600.0
DBC,2009-06-08,18800.0
DBC,2009-06-09,17200.0
DBC,2009-06-10,16600.0
DBC,2009-06-11,16800.0
DBC,2009-06-12,16500.0
DBC,2009-06-15,17400.0
DBC,2009-06-16,17200.0
DBC,2009-06-17,17800.0
DBC,2009-06-18,16800.0
DBC,2009-06-19,16100.0
DBC,2009-06-22,15100.0
DBC,2009-06-23,14100.0
DBC,2009-06-24,15200.0
DBC,2009-06-25,15100.0
DBC,2009-06-26,15000.0
DBC,2009-06-29,14700.0
DBC,2009-06-30,14000.0
DBC,2009-07-01,13500.0
DBC,2009-07-02,14300.0
DBC,2009-07-03,15000.0
DBC,2009-07-06,15600.0
DBC,2009-07-07,15700.0
DBC,2009-07-08,15400.0
DBC,2009-07-09,15300.0
DBC,2009-07-10,14900.0
DBC,2009-07-13,14200.0
DBC,2009-07-14,14400.0
DBC,2009-07-15,14500.0
DBC,2009-07-16,14800.0
DBC,2009-07-17,14500.0
DBC,2009-07-20,13900.0
DBC,2009-07-21,14200.0
DBC,2009-07-22,14400.0
DBC,2009-07-23,15300.0
DBC,2009-07-24,16100.0
DBC,2009-07-27,16500.0
DBC,2009-07-28,15700.0
DBC,2009-07-29,15600.0
DBC,2009-07-30,15400.0
DBC,2009-07-31,15700.0
DBC,2009-08-03,15600.0
DBC,2009-08-04,15600.0
DBC,2009-08-05,16500.0
DBC,2009-08-06,16400.0
DBC,2009-08-07,16600.0
DBC,2009-08-10,17100.0
DBC,2009-08-11,17000.0
DBC,2009-08-12,17000.0
DBC,2009-08-13,16900.0
DBC,2009-08-14,17500.0
DBC,2009-08-17,17500.0
DBC,2009-08-18,18100.0
DBC,2009-08-19,18100.0
DBC,2009-08-20,18000.0
DBC,2009-08-21,17700.0
DBC,2009-08-24,17900.0
DBC,2009-08-25,18500.0
DBC,2009-08-26,19600.0
DBC,2009-08-27,19900.0
DBC,2009-08-28,20200.0
DBC,2009-08-31,20300.0
DBC,2009-09-01,19600.0
DBC,2009-09-03,18900.0
DBC,2009-09-04,18800.0
DBC,2009-09-07,18800.0
DBC,2009-09-08,19400.0
DBC,2009-09-09,19300.0
DBC,2009-09-10,19100.0
DBC,2009-09-11,19500.0
DBC,2009-09-14,19500.0
DBC,2009-09-15,19500.0
DBC,2009-09-16,19300.0
DBC,2009-09-17,19600.0
DBC,2009-09-18,19900.0
DBC,2009-09-21,20900.0
DBC,2009-09-22,21700.0
DBC,2009-09-23,21600.0
DBC,2009-09-24,21000.0
DBC,2009-09-25,21200.0
DBC,2009-09-28,21200.0
DBC,2009-09-29,21500.0
DBC,2009-09-30,20700.0
DBC,2009-10-01,21100.0
DBC,2009-10-02,21400.0
DBC,2009-10-05,20700.0
DBC,2009-10-06,20800.0
DBC,2009-10-07,21000.0
DBC,2009-10-08,21200.0
DBC,2009-10-09,22400.0
DBC,2009-10-12,23900.0
DBC,2009-10-13,24700.0
DBC,2009-10-14,24200.0
DBC,2009-10-15,24100.0
DBC,2009-10-16,23500.0
DBC,2009-10-19,23500.0
DBC,2009-10-20,23700.0
DBC,2009-10-21,25100.0
DBC,2009-10-22,26600.0
DBC,2009-10-23,26100.0
DBC,2009-10-26,24900.0
DBC,2009-10-27,23600.0
DBC,2009-10-28,23900.0
DBC,2009-10-29,22900.0
DBC,2009-10-30,23600.0
DBC,2009-11-02,21800.0
DBC,2009-11-03,21300.0
DBC,2009-11-04,21400.0
DBC,2009-11-05,22600.0
DBC,2009-11-06,21700.0
DBC,2009-11-09,20900.0
DBC,2009-11-10,21200.0
DBC,2009-11-11,21700.0
DBC,2009-11-12,22100.0
DBC,2009-11-13,22000.0
DBC,2009-11-16,21500.0
DBC,2009-11-17,21300.0
DBC,2009-11-18,21500.0
DBC,2009-11-19,21500.0
DBC,2009-11-20,21200.0
DBC,2009-11-23,20700.0
DBC,2009-11-24,19900.0
DBC,2009-11-25,18800.0
DBC,2009-11-26,17700.0
DBC,2009-11-27,18500.0
DBC,2009-11-30,19300.0
DBC,2009-12-01,19600.0
DBC,2009-12-02,18800.0
DBC,2009-12-03,18900.0
DBC,2009-12-04,19200.0
DBC,2009-12-07,19000.0
DBC,2009-12-08,18800.0
DBC,2009-12-09,17400.0
DBC,2009-12-10,17600.0
DBC,2009-12-11,17700.0
DBC,2009-12-14,18300.0
DBC,2009-12-15,17800.0
DBC,2009-12-16,16800.0
DBC,2009-12-17,17000.0
DBC,2009-12-18,17800.0
DBC,2009-12-21,19000.0
DBC,2009-12-22,18800.0
DBC,2009-12-23,19000.0
DBC,2009-12-24,19300.0
DBC,2009-12-25,20100.0
DBC,2009-12-28,19500.0
DBC,2009-12-29,19100.0
DBC,2009-12-30,19700.0
DBC,2009-12-31,19400.0
DBC,2010-01-04,21000.0
DBC,2010-01-05,21300.0
DBC,2010-01-06,20700.0
DBC,2010-01-07,20300.0
DBC,2010-01-08,20500.0
DBC,2010-01-11,19900.0
DBC,2010-01-12,18800.0
DBC,2010-01-13,19800.0
DBC,2010-01-14,19900.0
DBC,2010-01-15,19100.0
DBC,2010-01-18,18600.0
DBC,2010-01-19,19300.0
DBC,2010-01-20,18600.0
DBC,2010-01-21,18200.0
DBC,2010-01-22,18300.0
DBC,2010-01-25,18200.0
DBC,2010-01-26,19000.0
DBC,2010-01-27,18100.0
DBC,2010-01-28,17900.0
DBC,2010-01-29,17900.0
DBC,2010-02-01,18200.0
DBC,2010-02-02,19400.0
DBC,2010-02-03,19500.0
DBC,2010-02-04,19700.0
DBC,2010-02-05,19300.0
DBC,2010-02-08,18500.0
DBC,2010-02-09,17900.0
DBC,2010-02-10,18600.0
DBC,2010-02-11,19300.0
DBC,2010-02-12,19200.0
DBC,2010-02-22,19100.0
DBC,2010-02-23,18200.0
DBC,2010-02-24,18800.0
DBC,2010-02-25,18400.0
DBC,2010-02-26,18800.0
DBC,2010-03-01,18900.0
DBC,2010-03-02,18600.0
DBC,2010-03-03,19500.0
DBC,2010-03-04,19500.0
DBC,2010-03-05,19800.0
DBC,2010-03-08,19900.0
DBC,2010-03-09,20300.0
DBC,2010-03-10,20300.0
DBC,2010-03-11,20300.0
DBC,2010-03-12,21800.0
DBC,2010-03-15,22700.0
DBC,2010-03-16,22800.0
DBC,2010-03-17,22300.0
DBC,2010-03-18,23300.0
DBC,2010-03-19,24000.0
DBC,2010-03-22,25400.0
DBC,2010-03-23,25700.0
DBC,2010-03-24,25300.0
DBC,2010-03-25,23800.0
DBC,2010-03-26,25000.0
DBC,2010-03-29,26800.0
DBC,2010-03-30,26200.0
DBC,2010-03-31,25300.0
DBC,2010-04-01,25000.0
DBC,2010-04-02,24400.0
DBC,2010-04-05,25500.0
DBC,2010-04-06,26700.0
DBC,2010-04-07,27100.0
DBC,2010-04-08,26000.0
DBC,2010-04-09,25900.0
DBC,2010-04-12,25600.0
DBC,2010-04-13,25500.0
DBC,2010-04-14,25600.0
DBC,2010-04-15,26000.0
DBC,2010-04-16,25100.0
DBC,2010-04-19,24700.0
DBC,2010-04-20,24200.0
DBC,2010-04-21,25000.0
DBC,2010-04-22,23900.0
DBC,2010-04-26,23800.0
DBC,2010-04-27,24200.0
DBC,2010-04-28,24000.0
DBC,2010-04-29,23800.0
DBC,2010-05-04,24500.0
DBC,2010-05-05,23900.0
DBC,2010-05-06,24000.0
DBC,2010-05-07,23200.0
DBC,2010-05-10,22600.0
DBC,2010-05-11,22600.0
DBC,2010-05-12,21500.0
DBC,2010-05-13,21300.0
DBC,2010-05-14,23000.0
DBC,2010-05-17,24000.0
DBC,2010-05-18,24900.0
DBC,2010-05-19,23500.0
DBC,2010-05-20,23300.0
DBC,2010-05-21,22700.0
DBC,2010-05-24,22300.0
DBC,2010-05-25,21800.0
DBC,2010-05-26,22700.0
DBC,2010-05-27,23400.0
DBC,2010-05-28,24700.0
DBC,2010-05-31,23600.0
DBC,2010-06-01,23800.0
DBC,2010-06-02,24500.0
DBC,2010-06-03,25200.0
DBC,2010-06-04,25200.0
DBC,2010-06-07,23600.0
DBC,2010-06-08,23900.0
DBC,2010-06-09,23600.0
DBC,2010-06-10,24000.0
DBC,2010-06-11,24400.0
DBC,2010-06-14,24900.0
DBC,2010-06-15,25500.0
DBC,2010-06-16,26400.0
DBC,2010-06-17,25600.0
DBC,2010-06-18,27900.0
DBC,2010-06-21,29000.0
DBC,2010-06-22,27800.0
DBC,2010-06-23,29400.0
DBC,2010-06-24,30100.0
DBC,2010-06-25,29200.0
DBC,2010-06-28,29000.0
DBC,2010-06-29,28400.0
DBC,2010-06-30,28200.0
DBC,2010-07-01,29000.0
DBC,2010-07-02,29000.0
DBC,2010-07-05,28800.0
DBC,2010-07-06,28100.0
DBC,2010-07-07,27600.0
DBC,2010-07-08,27400.0
DBC,2010-07-09,28100.0
DBC,2010-07-12,28100.0
DBC,2010-07-13,28600.0
DBC,2010-07-14,28600.0
DBC,2010-07-15,28100.0
DBC,2010-07-16,28600.0
DBC,2010-07-19,28100.0
DBC,2010-07-20,27800.0
DBC,2010-07-21,27400.0
DBC,2010-07-22,27300.0
DBC,2010-07-23,27400.0
DBC,2010-07-26,27100.0
DBC,2010-07-27,27300.0
DBC,2010-07-28,27200.0
DBC,2010-07-29,27200.0
DBC,2010-07-30,27400.0
DBC,2010-08-02,27100.0
DBC,2010-08-03,26900.0
DBC,2010-08-04,26500.0
DBC,2010-08-05,26100.0
DBC,2010-08-06,26000.0
DBC,2010-08-09,24800.0
DBC,2010-08-10,24600.0
DBC,2010-08-11,24700.0
DBC,2010-08-12,22900.0
DBC,2010-08-13,23600.0
DBC,2010-08-16,23900.0
DBC,2010-08-17,23200.0
DBC,2010-08-18,22000.0
DBC,2010-08-19,21800.0
DBC,2010-08-20,21600.0
DBC,2010-08-23,21000.0
DBC,2010-08-24,19900.0
DBC,2010-08-25,18800.0
DBC,2010-08-26,18500.0
DBC,2010-08-27,17600.0
DBC,2010-08-30,18900.0
DBC,2010-08-31,20100.0
DBC,2010-09-01,21200.0
DBC,2010-09-06,22500.0
DBC,2010-09-07,23100.0
DBC,2010-09-08,22200.0
DBC,2010-09-09,23200.0
DBC,2010-09-10,21600.0
DBC,2010-09-13,20700.0
DBC,2010-09-14,21600.0
DBC,2010-09-15,20800.0
DBC,2010-09-16,20800.0
DBC,2010-09-17,22000.0
DBC,2010-09-20,22700.0
DBC,2010-09-21,22400.0
DBC,2010-09-22,22400.0
DBC,2010-09-23,22200.0
DBC,2010-09-24,22000.0
DBC,2010-09-27,22300.0
DBC,2010-09-28,22300.0
DBC,2010-09-29,21500.0
DBC,2010-09-30,21500.0
DBC,2010-10-01,21200.0
DBC,2010-10-04,20200.0
DBC,2010-10-05,20700.0
DBC,2010-10-06,21100.0
DBC,2010-10-07,21000.0
DBC,2010-10-08,20600.0
DBC,2010-10-11,20600.0
DBC,2010-10-12,21400.0
DBC,2010-10-13,21700.0
DBC,2010-10-14,21000.0
DBC,2010-10-15,20700.0
DBC,2010-10-18,20900.0
DBC,2010-10-19,20600.0
DBC,2010-10-20,19400.0
DBC,2010-10-21,19700.0
DBC,2010-10-22,19400.0
DBC,2010-10-25,19800.0
DBC,2010-10-26,20600.0
DBC,2010-10-27,19900.0
DBC,2010-10-28,19700.0
DBC,2010-10-29,20000.0
DBC,2010-11-01,19400.0
DBC,2010-11-02,19200.0
DBC,2010-11-03,18700.0
DBC,2010-11-04,19000.0
DBC,2010-11-05,19500.0
DBC,2010-11-08,19000.0
DBC,2010-11-09,18100.0
DBC,2010-11-10,17800.0
DBC,2010-11-11,16800.0
DBC,2010-11-12,15900.0
DBC,2010-11-15,15100.0
DBC,2010-11-16,14700.0
DBC,2010-11-17,14900.0
DBC,2010-11-18,15700.0
DBC,2010-11-19,14800.0
DBC,2010-11-22,14600.0
DBC,2010-11-23,14900.0
DBC,2010-11-24,14900.0
DBC,2010-11-25,16000.0
DBC,2010-11-26,16600.0
DBC,2010-11-29,17600.0
DBC,2010-11-30,18100.0
DBC,2010-12-01,16800.0
DBC,2010-12-02,16900.0
DBC,2010-12-03,17800.0
DBC,2010-12-06,17600.0
DBC,2010-12-07,16700.0
DBC,2010-12-08,15900.0
DBC,2010-12-09,16100.0
DBC,2010-12-10,17000.0
DBC,2010-12-13,20000.0
DBC,2010-12-14,18400.0
DBC,2010-12-15,18400.0
DBC,2010-12-16,17700.0
DBC,2010-12-17,18500.0
DBC,2010-12-20,18200.0
DBC,2010-12-21,18000.0
DBC,2010-12-22,17900.0
DBC,2010-12-23,17400.0
DBC,2010-12-24,17500.0
DBC,2010-12-27,17400.0
DBC,2010-12-28,18300.0
DBC,2010-12-29,17300.0
DBC,2010-12-30,16800.0
DBC,2010-12-31,16700.0
DBC,2011-01-04,17700.0
DBC,2011-01-05,17300.0
DBC,2011-01-06,17200.0
DBC,2011-01-07,16800.0
DBC,2011-01-10,16200.0
DBC,2011-01-11,16100.0
DBC,2011-01-12,16600.0
DBC,2011-01-13,16500.0
DBC,2011-01-14,16900.0
DBC,2011-01-17,16900.0
DBC,2011-01-18,16700.0
DBC,2011-01-19,16700.0
DBC,2011-01-20,16600.0
DBC,2011-01-21,16300.0
DBC,2011-01-24,16100.0
DBC,2011-01-25,15900.0
DBC,2011-01-26,16700.0
DBC,2011-01-27,17600.0
DBC,2011-01-28,17200.0
DBC,2011-02-08,16900.0
DBC,2011-02-09,16700.0
DBC,2011-02-10,16600.0
DBC,2011-02-11,16600.0
DBC,2011-02-14,16600.0
DBC,2011-02-15,16300.0
DBC,2011-02-16,15700.0
DBC,2011-02-17,15900.0
DBC,2011-02-18,15100.0
DBC,2011-02-21,14200.0
DBC,2011-02-22,13500.0
DBC,2011-02-23,14000.0
DBC,2011-02-24,13500.0
DBC,2011-02-25,14000.0
DBC,2011-02-28,13600.0
DBC,2011-03-01,13600.0
DBC,2011-03-02,12800.0
DBC,2011-03-03,12500.0
DBC,2011-03-04,12900.0
DBC,2011-03-07,13000.0
DBC,2011-03-08,12800.0
DBC,2011-03-09,12200.0
DBC,2011-03-10,13100.0
DBC,2011-03-11,13900.0
DBC,2011-03-14,13100.0
DBC,2011-03-15,13100.0
DBC,2011-03-16,13100.0
DBC,2011-03-17,13300.0
DBC,2011-03-18,13600.0
DBC,2011-03-21,13500.0
DBC,2011-03-22,13100.0
DBC,2011-03-23,13400.0
DBC,2011-03-24,13200.0
DBC,2011-03-25,12900.0
DBC,2011-03-28,13100.0
DBC,2011-03-29,12800.0
DBC,2011-03-30,12700.0
DBC,2011-03-31,12700.0
DBC,2011-04-01,12600.0
DBC,2011-04-04,12700.0
DBC,2011-04-05,12800.0
DBC,2011-04-06,13300.0
DBC,2011-04-07,12900.0
DBC,2011-04-08,13100.0
DBC,2011-04-13,12900.0
DBC,2011-04-14,12900.0
DBC,2011-04-15,12600.0
DBC,2011-04-18,12300.0
DBC,2011-04-19,12100.0
DBC,2011-04-20,11700.0
DBC,2011-04-21,11300.0
DBC,2011-04-22,11400.0
DBC,2011-04-25,12000.0
DBC,2011-04-26,11500.0
DBC,2011-04-27,11500.0
DBC,2011-04-28,11200.0
DBC,2011-04-29,11200.0
DBC,2011-05-04,11200.0
DBC,2011-05-05,10900.0
DBC,2011-05-06,11000.0
DBC,2011-05-09,11200.0
DBC,2011-05-10,10900.0
DBC,2011-05-11,10900.0
DBC,2011-05-12,10900.0
DBC,2011-05-13,10900.0
DBC,2011-05-16,10300.0
DBC,2011-05-17,9800.0
DBC,2011-05-18,9800.0
DBC,2011-05-19,9500.0
DBC,2011-05-20,9900.0
DBC,2011-05-23,9300.0
DBC,2011-05-24,8800.0
DBC,2011-05-25,8300.0
DBC,2011-05-26,8800.0
DBC,2011-05-27,9100.0
DBC,2011-05-30,9300.0
DBC,2011-05-31,9900.0
DBC,2011-06-01,10200.0
DBC,2011-06-02,10900.0
DBC,2011-06-03,11000.0
DBC,2011-06-06,10900.0
DBC,2011-06-07,11500.0
DBC,2011-06-08,11500.0
DBC,2011-06-09,12000.0
DBC,2011-06-10,12300.0
DBC,2011-06-13,12800.0
DBC,2011-06-14,12200.0
DBC,2011-06-15,11600.0
DBC,2011-06-16,11800.0
DBC,2011-06-17,11000.0
DBC,2011-06-20,10900.0
DBC,2011-06-21,11600.0
DBC,2011-06-22,11300.0
DBC,2011-06-23,11400.0
DBC,2011-06-24,11400.0
DBC,2011-06-27,11300.0
DBC,2011-06-28,11000.0
DBC,2011-06-29,11200.0
DBC,2011-06-30,11200.0
DBC,2011-07-01,10700.0
DBC,2011-07-04,10800.0
DBC,2011-07-05,11200.0
DBC,2011-07-06,10900.0
DBC,2011-07-07,10700.0
DBC,2011-07-08,11100.0
DBC,2011-07-11,10700.0
DBC,2011-07-12,10900.0
DBC,2011-07-13,10900.0
DBC,2011-07-14,10700.0
DBC,2011-07-15,10800.0
DBC,2011-07-18,10800.0
DBC,2011-07-19,10600.0
DBC,2011-07-20,10900.0
DBC,2011-07-21,10800.0
DBC,2011-07-22,10700.0
DBC,2011-07-25,10200.0
DBC,2011-07-26,9900.0
DBC,2011-07-27,9900.0
DBC,2011-07-28,9900.0
DBC,2011-07-29,9900.0
DBC,2011-08-01,9800.0
DBC,2011-08-02,9300.0
DBC,2011-08-03,9600.0
DBC,2011-08-04,9900.0
DBC,2011-08-05,9900.0
DBC,2011-08-08,9600.0
DBC,2011-08-09,9200.0
DBC,2011-08-10,9700.0
DBC,2011-08-11,10200.0
DBC,2011-08-12,10100.0
DBC,2011-08-15,10100.0
DBC,2011-08-16,10100.0
DBC,2011-08-17,10800.0
DBC,2011-08-18,10800.0
DBC,2011-08-19,10500.0
DBC,2011-08-22,11200.0
DBC,2011-08-23,11000.0
DBC,2011-08-24,10900.0
DBC,2011-08-25,11200.0
DBC,2011-08-26,10900.0
DBC,2011-08-29,11600.0
DBC,2011-08-30,11600.0
DBC,2011-08-31,11600.0
DBC,2011-09-01,11800.0
DBC,2011-09-05,11400.0
DBC,2011-09-06,11200.0
DBC,2011-09-07,11900.0
DBC,2011-09-08,11900.0
DBC,2011-09-09,11800.0
DBC,2011-09-12,12000.0
DBC,2011-09-13,12100.0
DBC,2011-09-14,11800.0
DBC,2011-09-15,11600.0
DBC,2011-09-16,11300.0
DBC,2011-09-19,11700.0
DBC,2011-09-20,11400.0
DBC,2011-09-21,12100.0
DBC,2011-09-22,12800.0
DBC,2011-09-23,12800.0
DBC,2011-09-26,12300.0
DBC,2011-09-27,12000.0
DBC,2011-09-28,11800.0
DBC,2011-09-29,11400.0
DBC,2011-09-30,11500.0
DBC,2011-10-03,11600.0
DBC,2011-10-04,11600.0
DBC,2011-10-05,11600.0
DBC,2011-10-06,11800.0
DBC,2011-10-07,11500.0
DBC,2011-10-10,11200.0
DBC,2011-10-11,11200.0
DBC,2011-10-12,10900.0
DBC,2011-10-13,10900.0
DBC,2011-10-14,11100.0
DBC,2011-10-17,10900.0
DBC,2011-10-18,10800.0
DBC,2011-10-19,10900.0
DBC,2011-10-20,11600.0
DBC,2011-10-21,12100.0
DBC,2011-10-24,11800.0
DBC,2011-10-25,11400.0
DBC,2011-10-26,11800.0
DBC,2011-10-27,11500.0
DBC,2011-10-28,12300.0
DBC,2011-10-31,12200.0
DBC,2011-11-01,11800.0
DBC,2011-11-02,11700.0
DBC,2011-11-03,11600.0
DBC,2011-11-04,11500.0
DBC,2011-11-07,11300.0
DBC,2011-11-08,11400.0
DBC,2011-11-09,11300.0
DBC,2011-11-10,10900.0
DBC,2011-11-11,10700.0
DBC,2011-11-14,10400.0
DBC,2011-11-15,10900.0
DBC,2011-11-16,10900.0
DBC,2011-11-17,10700.0
DBC,2011-11-18,10500.0
DBC,2011-11-21,10400.0
DBC,2011-11-22,10400.0
DBC,2011-11-23,10800.0
DBC,2011-11-24,10500.0
DBC,2011-11-25,10400.0
DBC,2011-11-28,10700.0
DBC,2011-11-29,10500.0
DBC,2011-11-30,10400.0
DBC,2011-12-01,10700.0
DBC,2011-12-02,11300.0
DBC,2011-12-05,12000.0
DBC,2011-12-06,11700.0
DBC,2011-12-07,11600.0
DBC,2011-12-08,11600.0
DBC,2011-12-09,11400.0
DBC,2011-12-12,11200.0
DBC,2011-12-13,11200.0
DBC,2011-12-14,11200.0
DBC,2011-12-15,11100.0
DBC,2011-12-16,11200.0
DBC,2011-12-19,10900.0
DBC,2011-12-20,10300.0
DBC,2011-12-21,10500.0
DBC,2011-12-22,10300.0
DBC,2011-12-23,10000.0
DBC,2011-12-26,10000.0
DBC,2011-12-27,9700.0
DBC,2011-12-28,10300.0
DBC,2011-12-29,10300.0
DBC,2011-12-30,10500.0
DBC,2012-01-03,10600.0
DBC,2012-01-04,10400.0
DBC,2012-01-05,10300.0
DBC,2012-01-06,10900.0
DBC,2012-01-09,11000.0
DBC,2012-01-10,11700.0
DBC,2012-01-11,12000.0
DBC,2012-01-12,12000.0
DBC,2012-01-13,12300.0
DBC,2012-01-16,12500.0
DBC,2012-01-17,12500.0
DBC,2012-01-18,12600.0
DBC,2012-01-19,12600.0
DBC,2012-01-20,12500.0
DBC,2012-01-30,12500.0
DBC,2012-01-31,13000.0
DBC,2012-02-01,13000.0
DBC,2012-02-02,13800.0
DBC,2012-02-03,13400.0
DBC,2012-02-06,13500.0
DBC,2012-02-07,13500.0
DBC,2012-02-08,13500.0
DBC,2012-02-09,13400.0
DBC,2012-02-10,13000.0
DBC,2012-02-13,12600.0
DBC,2012-02-14,12900.0
DBC,2012-02-15,13000.0
DBC,2012-02-16,13000.0
DBC,2012-02-17,13200.0
DBC,2012-02-20,13800.0
DBC,2012-02-21,13500.0
DBC,2012-02-22,13500.0
DBC,2012-02-23,13900.0
DBC,2012-02-24,13900.0
DBC,2012-02-27,14700.0
DBC,2012-02-28,14300.0
DBC,2012-02-29,14600.0
DBC,2012-03-01,14500.0
DBC,2012-03-02,14600.0
DBC,2012-03-05,15500.0
DBC,2012-03-06,15000.0
DBC,2012-03-07,14800.0
DBC,2012-03-08,14000.0
DBC,2012-03-09,13800.0
DBC,2012-03-12,14000.0
DBC,2012-03-13,14800.0
DBC,2012-03-14,14700.0
DBC,2012-03-15,15100.0
DBC,2012-03-16,15100.0
DBC,2012-03-19,15200.0
DBC,2012-03-20,15300.0
DBC,2012-03-21,15400.0
DBC,2012-03-22,15500.0
DBC,2012-03-23,16000.0
DBC,2012-03-26,16400.0
DBC,2012-03-27,15600.0
DBC,2012-03-28,15800.0
DBC,2012-03-29,16700.0
DBC,2012-03-30,16300.0
DBC,2012-04-03,16700.0
DBC,2012-04-04,16200.0
DBC,2012-04-05,16100.0
DBC,2012-04-06,16000.0
DBC,2012-04-09,17100.0
DBC,2012-04-10,17600.0
DBC,2012-04-11,18600.0
DBC,2012-04-12,18900.0
DBC,2012-04-13,18200.0
DBC,2012-04-16,18800.0
DBC,2012-04-17,19700.0
DBC,2012-04-18,21000.0
DBC,2012-04-19,21000.0
DBC,2012-04-20,20100.0
DBC,2012-04-23,19400.0
DBC,2012-04-24,19200.0
DBC,2012-04-25,19800.0
DBC,2012-04-26,19300.0
DBC,2012-04-27,19300.0
DBC,2012-05-02,19200.0
DBC,2012-05-03,19400.0
DBC,2012-05-04,20400.0
DBC,2012-05-07,21300.0
DBC,2012-05-08,20500.0
DBC,2012-05-09,20900.0
DBC,2012-05-10,20800.0
DBC,2012-05-11,20000.0
DBC,2012-05-14,18700.0
DBC,2012-05-15,18600.0
DBC,2012-05-16,19300.0
DBC,2012-05-17,18800.0
DBC,2012-05-18,18100.0
DBC,2012-05-21,19100.0
DBC,2012-05-22,19100.0
DBC,2012-05-23,19400.0
DBC,2012-05-24,19400.0
DBC,2012-05-25,20000.0
DBC,2012-05-28,19700.0
DBC,2012-05-29,19400.0
DBC,2012-05-30,19400.0
DBC,2012-05-31,18900.0
DBC,2012-06-01,19300.0
DBC,2012-06-04,19300.0
DBC,2012-06-05,19600.0
DBC,2012-06-06,19400.0
DBC,2012-06-07,20000.0
DBC,2012-06-08,19700.0
DBC,2012-06-11,19400.0
DBC,2012-06-12,19300.0
DBC,2012-06-13,19200.0
DBC,2012-06-14,19300.0
DBC,2012-06-15,19500.0
DBC,2012-06-18,19600.0
DBC,2012-06-19,19400.0
DBC,2012-06-20,19400.0
DBC,2012-06-21,19400.0
DBC,2012-06-22,19400.0
DBC,2012-06-25,19000.0
DBC,2012-06-26,19000.0
DBC,2012-06-27,19000.0
DBC,2012-06-28,19100.0
DBC,2012-06-29,19300.0
DBC,2012-07-02,19200.0
DBC,2012-07-03,18800.0
DBC,2012-07-04,18300.0
DBC,2012-07-05,18300.0
DBC,2012-07-06,18500.0
DBC,2012-07-09,17400.0
DBC,2012-07-10,16800.0
DBC,2012-07-11,17200.0
DBC,2012-07-12,17400.0
DBC,2012-07-13,18600.0
DBC,2012-07-16,17800.0
DBC,2012-07-17,18300.0
DBC,2012-07-18,18300.0
DBC,2012-07-19,19200.0
DBC,2012-07-20,18500.0
DBC,2012-07-23,18900.0
DBC,2012-07-24,18300.0
DBC,2012-07-25,18500.0
DBC,2012-07-26,18700.0
DBC,2012-07-27,18600.0
DBC,2012-07-30,18500.0
DBC,2012-07-31,18300.0
DBC,2012-08-01,18000.0
DBC,2012-08-02,18000.0
DBC,2012-08-03,18200.0
DBC,2012-08-06,18800.0
DBC,2012-08-07,18800.0
DBC,2012-08-08,18800.0
DBC,2012-08-09,18900.0
DBC,2012-08-10,18700.0
DBC,2012-08-13,18700.0
DBC,2012-08-14,18700.0
DBC,2012-08-15,18500.0
DBC,2012-08-16,18300.0
DBC,2012-08-17,18300.0
DBC,2012-08-20,18800.0
DBC,2012-08-21,17500.0
DBC,2012-08-22,17500.0
DBC,2012-08-23,16300.0
DBC,2012-08-24,17400.0
DBC,2012-08-27,17000.0
DBC,2012-08-28,18900.0
DBC,2012-08-29,19100.0
DBC,2012-08-30,18700.0
DBC,2012-08-31,18700.0
DBC,2012-09-04,18800.0
DBC,2012-09-05,18400.0
DBC,2012-09-06,18300.0
DBC,2012-09-07,18200.0
DBC,2012-09-10,17700.0
DBC,2012-09-11,18000.0
DBC,2012-09-12,17700.0
DBC,2012-09-13,17900.0
DBC,2012-09-14,18400.0
DBC,2012-09-17,18400.0
DBC,2012-09-18,18100.0
DBC,2012-09-19,18100.0
DBC,2012-09-20,18100.0
DBC,2012-09-21,18200.0
DBC,2012-09-24,18000.0
DBC,2012-09-25,18000.0
DBC,2012-09-26,18400.0
DBC,2012-09-27,18000.0
DBC,2012-09-28,18000.0
DBC,2012-10-01,17900.0
DBC,2012-10-02,17800.0
DBC,2012-10-03,18000.0
DBC,2012-10-04,18200.0
DBC,2012-10-05,18200.0
DBC,2012-10-08,18300.0
DBC,2012-10-09,18300.0
DBC,2012-10-10,18400.0
DBC,2012-10-11,18400.0
DBC,2012-10-12,18400.0
DBC,2012-10-15,18100.0
DBC,2012-10-16,18500.0
DBC,2012-10-17,18500.0
DBC,2012-10-18,18300.0
DBC,2012-10-19,17800.0
DBC,2012-10-22,17700.0
DBC,2012-10-23,17900.0
DBC,2012-10-24,17900.0
DBC,2012-10-25,17800.0
DBC,2012-10-26,17900.0
DBC,2012-10-29,17900.0
DBC,2012-10-30,17800.0
DBC,2012-10-31,18900.0
DBC,2012-11-01,18300.0
DBC,2012-11-02,18000.0
DBC,2012-11-05,17900.0
DBC,2012-11-06,17900.0
DBC,2012-11-07,18400.0
DBC,2012-11-08,18400.0
DBC,2012-11-09,18400.0
DBC,2012-11-12,18400.0
DBC,2012-11-13,18400.0
DBC,2012-11-14,18400.0
DBC,2012-11-15,18900.0
DBC,2012-11-16,18900.0
DBC,2012-11-19,19000.0
DBC,2012-11-20,19300.0
DBC,2012-11-21,20000.0
DBC,2012-11-22,20100.0
DBC,2012-11-23,20500.0
DBC,2012-11-26,19400.0
DBC,2012-11-27,19700.0
DBC,2012-11-28,19600.0
DBC,2012-11-29,19700.0
DBC,2012-11-30,19700.0
DBC,2012-12-03,19900.0
DBC,2012-12-04,19900.0
DBC,2012-12-05,19800.0
DBC,2012-12-06,19300.0
DBC,2012-12-07,19400.0
DBC,2012-12-10,19600.0
DBC,2012-12-11,19600.0
DBC,2012-12-12,19600.0
DBC,2012-12-13,19500.0
DBC,2012-12-14,19400.0
DBC,2012-12-17,19300.0
DBC,2012-12-18,19100.0
DBC,2012-12-19,19300.0
DBC,2012-12-20,19100.0
DBC,2012-12-21,19100.0
DBC,2012-12-24,19200.0
DBC,2012-12-25,19100.0
DBC,2012-12-26,19200.0
DBC,2012-12-27,19200.0
DBC,2012-12-28,19300.0
DBC,2013-01-02,19700.0
DBC,2013-01-03,19100.0
DBC,2013-01-04,19300.0
DBC,2013-01-07,19200.0
DBC,2013-01-08,19500.0
DBC,2013-01-09,19600.0
DBC,2013-01-10,19700.0
DBC,2013-01-11,19600.0
DBC,2013-01-14,19300.0
DBC,2013-01-15,19800.0
DBC,2013-01-16,20300.0
DBC,2013-01-17,19600.0
DBC,2013-01-18,19800.0
DBC,2013-01-21,19300.0
DBC,2013-01-22,19200.0
DBC,2013-01-23,19200.0
DBC,2013-01-24,19700.0
DBC,2013-01-25,20000.0
DBC,2013-01-28,20800.0
DBC,2013-01-29,20500.0
DBC,2013-01-30,21400.0
DBC,2013-01-31,21500.0
DBC,2013-02-01,21800.0
DBC,2013-02-04,20800.0
DBC,2013-02-05,21300.0
DBC,2013-02-06,21200.0
DBC,2013-02-07,21400.0
DBC,2013-02-08,21500.0
DBC,2013-02-18,21300.0
DBC,2013-02-19,21200.0
DBC,2013-02-20,20900.0
DBC,2013-02-21,19600.0
DBC,2013-02-22,20000.0
DBC,2013-02-25,20200.0
DBC,2013-02-26,20200.0
DBC,2013-02-27,20300.0
DBC,2013-02-28,21200.0
DBC,2013-03-01,21100.0
DBC,2013-03-04,20000.0
DBC,2013-03-05,20200.0
DBC,2013-03-06,20200.0
DBC,2013-03-07,20200.0
DBC,2013-03-08,20000.0
DBC,2013-03-11,20100.0
DBC,2013-03-12,20200.0
DBC,2013-03-13,20200.0
DBC,2013-03-14,20200.0
DBC,2013-03-15,20400.0
DBC,2013-03-18,20100.0
DBC,2013-03-19,20000.0
DBC,2013-03-20,20000.0
DBC,2013-03-21,20000.0
DBC,2013-03-22,20000.0
DBC,2013-03-25,20000.0
DBC,2013-03-26,20200.0
DBC,2013-03-27,21600.0
DBC,2013-03-28,21200.0
DBC,2013-03-29,21100.0
DBC,2013-04-01,21100.0
DBC,2013-04-02,21200.0
DBC,2013-04-03,21300.0
DBC,2013-04-04,21000.0
DBC,2013-04-05,21200.0
DBC,2013-04-08,21300.0
DBC,2013-04-09,21400.0
DBC,2013-04-10,21000.0
DBC,2013-04-11,20200.0
DBC,2013-04-12,19400.0
DBC,2013-04-15,19200.0
DBC,2013-04-16,19200.0
DBC,2013-04-17,19200.0
DBC,2013-04-18,18800.0
DBC,2013-04-22,18000.0
DBC,2013-04-23,17800.0
DBC,2013-04-24,17600.0
DBC,2013-04-25,17600.0
DBC,2013-04-26,17400.0
DBC,2013-05-02,17200.0
DBC,2013-05-03,17300.0
DBC,2013-05-06,17700.0
DBC,2013-05-07,17600.0
DBC,2013-05-08,17800.0
DBC,2013-05-09,18400.0
DBC,2013-05-10,18100.0
DBC,2013-05-13,17900.0
DBC,2013-05-14,17600.0
DBC,2013-05-15,17500.0
DBC,2013-05-16,17400.0
DBC,2013-05-17,17200.0
DBC,2013-05-20,17400.0
DBC,2013-05-21,17400.0
DBC,2013-05-22,17500.0
DBC,2013-05-23,17800.0
DBC,2013-05-24,17900.0
DBC,2013-05-27,17900.0
DBC,2013-05-28,17900.0
DBC,2013-05-29,17800.0
DBC,2013-05-30,17900.0
DBC,2013-05-31,18200.0
DBC,2013-06-03,18200.0
DBC,2013-06-04,18100.0
DBC,2013-06-05,18200.0
DBC,2013-06-06,18200.0
DBC,2013-06-07,18200.0
DBC,2013-06-10,18400.0
DBC,2013-06-11,18400.0
DBC,2013-06-12,20100.0
DBC,2013-06-13,20800.0
DBC,2013-06-14,20700.0
DBC,2013-06-17,19500.0
DBC,2013-06-18,19300.0
DBC,2013-06-19,18800.0
DBC,2013-06-20,18800.0
DBC,2013-06-21,18400.0
DBC,2013-06-24,18400.0
DBC,2013-06-25,18200.0
DBC,2013-06-26,18200.0
DBC,2013-06-27,17900.0
DBC,2013-06-28,17900.0
DBC,2013-07-01,17900.0
DBC,2013-07-02,17900.0
DBC,2013-07-03,17500.0
DBC,2013-07-04,17700.0
DBC,2013-07-05,17900.0
DBC,2013-07-08,17300.0
DBC,2013-07-09,17300.0
DBC,2013-07-10,17200.0
DBC,2013-07-11,17500.0
DBC,2013-07-12,18000.0
DBC,2013-07-15,17800.0
DBC,2013-07-16,17800.0
DBC,2013-07-17,17700.0
DBC,2013-07-18,17600.0
DBC,2013-07-19,17500.0
DBC,2013-07-22,17500.0
DBC,2013-07-23,17600.0
DBC,2013-07-24,17400.0
DBC,2013-07-25,17200.0
DBC,2013-07-26,16900.0
DBC,2013-07-29,16900.0
DBC,2013-07-30,18400.0
DBC,2013-07-31,17400.0
DBC,2013-08-01,17500.0
DBC,2013-08-02,16800.0
DBC,2013-08-05,16500.0
DBC,2013-08-06,16500.0
DBC,2013-08-07,16400.0
DBC,2013-08-08,15800.0
DBC,2013-08-09,16400.0
DBC,2013-08-12,15600.0
DBC,2013-08-13,15800.0
DBC,2013-08-14,15500.0
DBC,2013-08-15,16000.0
DBC,2013-08-16,16600.0
DBC,2013-08-19,16600.0
DBC,2013-08-20,16700.0
DBC,2013-08-21,16600.0
DBC,2013-08-22,16800.0
DBC,2013-08-23,16200.0
DBC,2013-08-26,16200.0
DBC,2013-08-27,16100.0
DBC,2013-08-28,16400.0
DBC,2013-08-29,16700.0
DBC,2013-08-30,16700.0
DBC,2013-09-03,16700.0
DBC,2013-09-04,16900.0
DBC,2013-09-05,16900.0
DBC,2013-09-06,16800.0
DBC,2013-09-09,16800.0
DBC,2013-09-10,16800.0
DBC,2013-09-11,16900.0
DBC,2013-09-12,17200.0
DBC,2013-09-13,17200.0
DBC,2013-09-16,17100.0
DBC,2013-09-17,16900.0
DBC,2013-09-18,16000.0
DBC,2013-09-19,16200.0
DBC,2013-09-20,16400.0
DBC,2013-09-23,16400.0
DBC,2013-09-24,16100.0
DBC,2013-09-25,16300.0
DBC,2013-09-26,16100.0
DBC,2013-09-27,15900.0
DBC,2013-09-30,15900.0
DBC,2013-10-01,15700.0
DBC,2013-10-02,16000.0
DBC,2013-10-03,15800.0
DBC,2013-10-04,16000.0
DBC,2013-10-07,16000.0
DBC,2013-10-08,15900.0
DBC,2013-10-09,15900.0
DBC,2013-10-10,15900.0
DBC,2013-10-11,16000.0
DBC,2013-10-14,15900.0
DBC,2013-10-15,15900.0
DBC,2013-10-16,16500.0
DBC,2013-10-17,16200.0
DBC,2013-10-18,16100.0
DBC,2013-10-21,16500.0
DBC,2013-10-22,16300.0
DBC,2013-10-23,16300.0
DBC,2013-10-24,16800.0
DBC,2013-10-25,16500.0
DBC,2013-10-28,16300.0
DBC,2013-10-29,16200.0
DBC,2013-10-30,16300.0
DBC,2013-10-31,16600.0
DBC,2013-11-01,16500.0
DBC,2013-11-04,16300.0
DBC,2013-11-05,16400.0
DBC,2013-11-06,16400.0
DBC,2013-11-07,16600.0
DBC,2013-11-08,17400.0
DBC,2013-11-11,17500.0
DBC,2013-11-12,17100.0
DBC,2013-11-13,17200.0
DBC,2013-11-14,17600.0
DBC,2013-11-15,17900.0
DBC,2013-11-18,18300.0
DBC,2013-11-19,18200.0
DBC,2013-11-20,18100.0
DBC,2013-11-21,17900.0
DBC,2013-11-22,17800.0
DBC,2013-11-25,17800.0
DBC,2013-11-26,17800.0
DBC,2013-11-27,17700.0
DBC,2013-11-28,17600.0
DBC,2013-11-29,17500.0
DBC,2013-12-02,17900.0
DBC,2013-12-03,17900.0
DBC,2013-12-04,18200.0
DBC,2013-12-05,18100.0
DBC,2013-12-06,18500.0
DBC,2013-12-09,18400.0
DBC,2013-12-10,18800.0
DBC,2013-12-11,18500.0
DBC,2013-12-12,18900.0
DBC,2013-12-13,19400.0
DBC,2013-12-16,19300.0
DBC,2013-12-17,19100.0
DBC,2013-12-18,19300.0
DBC,2013-12-19,19300.0
DBC,2013-12-20,19000.0
DBC,2013-12-23,19000.0
DBC,2013-12-24,19400.0
DBC,2013-12-25,19200.0
DBC,2013-12-26,19200.0
DBC,2013-12-27,19300.0
DBC,2013-12-30,19300.0
DBC,2013-12-31,19300.0
DBC,2014-01-02,19300.0
DBC,2014-01-03,19800.0
DBC,2014-01-06,20400.0
DBC,2014-01-07,20300.0
DBC,2014-01-08,20100.0
DBC,2014-01-09,20300.0
DBC,2014-01-10,20000.0
DBC,2014-01-13,20200.0
DBC,2014-01-14,21100.0
DBC,2014-01-15,21700.0
DBC,2014-01-16,22800.0
DBC,2014-01-17,22500.0
DBC,2014-01-20,22300.0
DBC,2014-01-21,23500.0
DBC,2014-01-22,23200.0
DBC,2014-01-23,24000.0
DBC,2014-01-24,23900.0
DBC,2014-01-27,23700.0
DBC,2014-02-06,24000.0
DBC,2014-02-07,23900.0
DBC,2014-02-10,25100.0
DBC,2014-02-11,24500.0
DBC,2014-02-12,24900.0
DBC,2014-02-13,24500.0
DBC,2014-02-14,24500.0
DBC,2014-02-17,24000.0
DBC,2014-02-18,24200.0
DBC,2014-02-19,26600.0
DBC,2014-02-20,25000.0
DBC,2014-02-21,25000.0
DBC,2014-02-24,25300.0
DBC,2014-02-25,25400.0
DBC,2014-02-26,25400.0
DBC,2014-02-27,25100.0
DBC,2014-02-28,24800.0
DBC,2014-03-03,23100.0
DBC,2014-03-04,23000.0
DBC,2014-03-05,23400.0
DBC,2014-03-06,24200.0
DBC,2014-03-07,24200.0
DBC,2014-03-10,24300.0
DBC,2014-03-11,24500.0
DBC,2014-03-12,23900.0
DBC,2014-03-13,23800.0
DBC,2014-03-14,24200.0
DBC,2014-03-17,24700.0
DBC,2014-03-18,24500.0
DBC,2014-03-19,24400.0
DBC,2014-03-20,24200.0
DBC,2014-03-21,24300.0
DBC,2014-03-24,24500.0
DBC,2014-03-25,24500.0
DBC,2014-03-26,23200.0
DBC,2014-03-27,23100.0
DBC,2014-03-28,22900.0
DBC,2014-03-31,23500.0
DBC,2014-04-01,22600.0
DBC,2014-04-02,22600.0
DBC,2014-04-03,23300.0
DBC,2014-04-04,22700.0
DBC,2014-04-07,23500.0
DBC,2014-04-08,24100.0
DBC,2014-04-10,23800.0
DBC,2014-04-11,23700.0
DBC,2014-04-14,23100.0
DBC,2014-04-15,22500.0
DBC,2014-04-16,22100.0
DBC,2014-04-17,22600.0
DBC,2014-04-18,21800.0
DBC,2014-04-21,21500.0
DBC,2014-04-22,22200.0
DBC,2014-04-23,22100.0
DBC,2014-04-24,22200.0
DBC,2014-04-25,22300.0
DBC,2014-04-28,21900.0
DBC,2014-04-29,22200.0
DBC,2014-05-05,21700.0
DBC,2014-05-06,20900.0
DBC,2014-05-07,21000.0
DBC,2014-05-08,18900.0
DBC,2014-05-09,19800.0
DBC,2014-05-12,17900.0
DBC,2014-05-13,18000.0
DBC,2014-05-14,19400.0
DBC,2014-05-15,18800.0
DBC,2014-05-16,19100.0
DBC,2014-05-19,19100.0
DBC,2014-05-20,19100.0
DBC,2014-05-21,19800.0
