DCS,2007-12-17,22100.0
DCS,2007-12-18,21000.0
DCS,2007-12-19,23200.0
DCS,2007-12-20,25500.0
DCS,2007-12-21,28100.0
DCS,2007-12-24,27700.0
DCS,2007-12-25,26100.0
DCS,2007-12-26,25900.0
DCS,2007-12-27,25600.0
DCS,2007-12-28,25900.0
DCS,2008-01-02,24900.0
DCS,2008-01-03,23700.0
DCS,2008-01-04,23400.0
DCS,2008-01-07,21600.0
DCS,2008-01-08,21500.0
DCS,2008-01-09,21000.0
DCS,2008-01-10,22100.0
DCS,2008-01-11,21800.0
DCS,2008-01-14,21000.0
DCS,2008-01-15,19800.0
DCS,2008-01-16,21100.0
DCS,2008-01-17,21000.0
DCS,2008-01-18,21500.0
DCS,2008-01-21,21500.0
DCS,2008-01-22,20200.0
DCS,2008-01-23,20300.0
DCS,2008-01-24,20100.0
DCS,2008-01-25,21000.0
DCS,2008-01-28,21000.0
DCS,2008-01-29,21500.0
DCS,2008-01-30,23400.0
DCS,2008-01-31,22100.0
DCS,2008-02-01,22100.0
DCS,2008-02-12,21500.0
DCS,2008-02-13,21000.0
DCS,2008-02-14,20400.0
DCS,2008-02-15,20000.0
DCS,2008-02-18,18700.0
DCS,2008-02-19,18700.0
DCS,2008-02-20,17100.0
DCS,2008-02-21,15900.0
DCS,2008-02-22,15900.0
DCS,2008-02-25,15500.0
DCS,2008-02-26,13900.0
DCS,2008-02-27,12700.0
DCS,2008-02-28,13000.0
DCS,2008-02-29,12100.0
DCS,2008-03-03,10900.0
DCS,2008-03-04,9900.0
DCS,2008-03-05,9900.0
DCS,2008-03-06,10000.0
DCS,2008-03-07,11000.0
DCS,2008-03-10,11600.0
DCS,2008-03-11,10400.0
DCS,2008-03-12,10500.0
DCS,2008-03-13,10500.0
DCS,2008-03-14,10200.0
DCS,2008-03-17,9400.0
DCS,2008-03-18,8500.0
DCS,2008-03-19,8500.0
DCS,2008-03-20,8500.0
DCS,2008-03-21,8700.0
DCS,2008-03-24,8300.0
DCS,2008-03-25,7900.0
DCS,2008-03-26,8000.0
DCS,2008-03-27,7900.0
DCS,2008-03-28,8000.0
DCS,2008-03-31,8200.0
DCS,2008-04-01,8300.0
DCS,2008-04-02,8400.0
DCS,2008-04-03,8600.0
DCS,2008-04-04,8800.0
DCS,2008-04-07,9000.0
DCS,2008-04-08,8800.0
DCS,2008-04-09,8700.0
DCS,2008-04-10,8400.0
DCS,2008-04-11,8200.0
DCS,2008-04-16,8000.0
DCS,2008-04-17,8200.0
DCS,2008-04-18,8000.0
DCS,2008-04-21,8000.0
DCS,2008-04-22,7900.0
DCS,2008-04-23,8000.0
DCS,2008-04-24,7900.0
DCS,2008-04-25,8100.0
DCS,2008-04-28,8200.0
DCS,2008-04-29,8000.0
DCS,2008-05-05,7800.0
DCS,2008-05-06,7700.0
DCS,2008-05-07,7400.0
DCS,2008-05-08,7400.0
DCS,2008-05-09,7200.0
DCS,2008-05-12,7200.0
DCS,2008-05-13,7100.0
DCS,2008-05-14,6900.0
DCS,2008-05-15,6700.0
DCS,2008-05-16,6600.0
DCS,2008-05-19,6400.0
DCS,2008-05-20,6300.0
DCS,2008-05-21,6300.0
DCS,2008-05-22,6100.0
DCS,2008-05-23,6100.0
DCS,2008-05-26,6100.0
DCS,2008-05-27,6000.0
DCS,2008-05-28,5800.0
DCS,2008-05-29,5600.0
DCS,2008-05-30,5500.0
DCS,2008-06-02,5400.0
DCS,2008-06-03,5300.0
DCS,2008-06-04,5200.0
DCS,2008-06-05,5100.0
DCS,2008-06-06,5000.0
DCS,2008-06-09,4900.0
DCS,2008-06-10,4900.0
DCS,2008-06-11,4900.0
DCS,2008-06-12,4900.0
DCS,2008-06-13,5000.0
DCS,2008-06-16,5100.0
DCS,2008-06-17,5200.0
DCS,2008-06-18,5100.0
DCS,2008-06-19,5000.0
DCS,2008-06-20,4900.0
DCS,2008-06-23,4900.0
DCS,2008-06-24,4700.0
DCS,2008-06-25,4900.0
DCS,2008-06-26,4700.0
DCS,2008-06-27,4800.0
DCS,2008-06-30,4700.0
DCS,2008-07-01,4700.0
DCS,2008-07-02,4900.0
DCS,2008-07-03,5000.0
DCS,2008-07-04,5200.0
DCS,2008-07-07,5300.0
DCS,2008-07-08,5500.0
DCS,2008-07-09,5600.0
DCS,2008-07-10,5800.0
DCS,2008-07-11,6100.0
DCS,2008-07-14,6300.0
DCS,2008-07-15,6500.0
DCS,2008-07-16,6700.0
DCS,2008-07-17,6900.0
DCS,2008-07-18,6800.0
DCS,2008-07-21,6700.0
DCS,2008-07-22,6500.0
DCS,2008-07-23,6200.0
DCS,2008-07-24,6000.0
DCS,2008-07-25,5800.0
DCS,2008-07-28,5600.0
DCS,2008-07-29,5500.0
DCS,2008-07-30,5300.0
DCS,2008-07-31,5300.0
DCS,2008-08-01,5300.0
DCS,2008-08-04,5100.0
DCS,2008-08-05,5300.0
DCS,2008-08-06,5300.0
DCS,2008-08-07,5400.0
DCS,2008-08-08,5600.0
DCS,2008-08-11,5700.0
DCS,2008-08-12,5900.0
DCS,2008-08-13,5900.0
DCS,2008-08-14,6100.0
DCS,2008-08-15,6200.0
DCS,2008-08-18,6600.0
DCS,2008-08-19,6400.0
DCS,2008-08-20,6000.0
DCS,2008-08-21,6300.0
DCS,2008-08-22,6100.0
DCS,2008-08-25,6300.0
DCS,2008-08-26,6700.0
DCS,2008-08-27,7100.0
DCS,2008-08-28,6600.0
DCS,2008-08-29,6600.0
DCS,2008-09-03,6800.0
DCS,2008-09-04,7200.0
DCS,2008-09-05,7600.0
DCS,2008-09-08,8100.0
DCS,2008-09-09,8700.0
DCS,2008-09-10,8200.0
DCS,2008-09-11,8000.0
DCS,2008-09-12,7500.0
DCS,2008-09-15,7400.0
DCS,2008-09-16,6700.0
DCS,2008-09-17,6800.0
DCS,2008-09-18,6000.0
DCS,2008-09-19,6400.0
DCS,2008-09-22,6800.0
DCS,2008-09-23,6800.0
DCS,2008-09-24,6400.0
DCS,2008-09-25,6600.0
DCS,2008-09-26,6800.0
DCS,2008-09-29,6600.0
DCS,2008-09-30,6200.0
DCS,2008-10-01,6200.0
DCS,2008-10-02,6600.0
DCS,2008-10-03,6400.0
DCS,2008-10-06,6000.0
DCS,2008-10-07,5700.0
DCS,2008-10-08,5700.0
DCS,2008-10-09,5800.0
DCS,2008-10-10,5400.0
DCS,2008-10-13,5500.0
DCS,2008-10-14,5700.0
DCS,2008-10-15,6000.0
DCS,2008-10-16,5600.0
DCS,2008-10-17,5800.0
DCS,2008-10-20,5600.0
DCS,2008-10-21,5800.0
DCS,2008-10-22,5800.0
DCS,2008-10-23,5300.0
DCS,2008-10-24,5000.0
DCS,2008-10-27,4800.0
DCS,2008-10-28,4800.0
DCS,2008-10-29,4900.0
DCS,2008-10-30,5000.0
DCS,2008-10-31,4700.0
DCS,2008-11-03,4900.0
DCS,2008-11-04,5300.0
DCS,2008-11-05,5500.0
DCS,2008-11-06,5200.0
DCS,2008-11-07,5000.0
DCS,2008-11-10,5000.0
DCS,2008-11-11,4700.0
DCS,2008-11-12,4900.0
DCS,2008-11-13,5000.0
DCS,2008-11-14,4900.0
DCS,2008-11-17,4700.0
DCS,2008-11-18,4900.0
DCS,2008-11-19,4700.0
DCS,2008-11-20,4500.0
DCS,2008-11-21,4500.0
DCS,2008-11-24,4500.0
DCS,2008-11-25,4500.0
DCS,2008-11-26,4400.0
DCS,2008-11-27,4200.0
DCS,2008-11-28,4500.0
DCS,2008-12-01,4200.0
DCS,2008-12-02,4100.0
DCS,2008-12-03,4200.0
DCS,2008-12-04,4300.0
DCS,2008-12-05,4000.0
DCS,2008-12-08,3800.0
DCS,2008-12-09,3700.0
DCS,2008-12-10,3800.0
DCS,2008-12-11,3600.0
DCS,2008-12-12,3900.0
DCS,2008-12-15,4000.0
DCS,2008-12-16,3700.0
DCS,2008-12-17,3900.0
DCS,2008-12-18,3800.0
DCS,2008-12-19,3800.0
DCS,2008-12-22,4100.0
DCS,2008-12-23,3900.0
DCS,2008-12-24,4200.0
DCS,2008-12-25,4200.0
DCS,2008-12-26,4400.0
DCS,2008-12-29,4600.0
DCS,2008-12-30,4900.0
DCS,2008-12-31,4900.0
DCS,2009-01-02,4900.0
DCS,2009-01-05,4600.0
DCS,2009-01-06,4600.0
DCS,2009-01-07,4500.0
DCS,2009-01-08,4200.0
DCS,2009-01-09,4300.0
DCS,2009-01-12,4300.0
DCS,2009-01-13,4200.0
DCS,2009-01-14,4200.0
DCS,2009-01-15,4100.0
DCS,2009-01-16,4100.0
DCS,2009-01-19,4100.0
DCS,2009-01-20,4100.0
DCS,2009-01-21,4100.0
DCS,2009-01-22,4000.0
DCS,2009-01-23,4200.0
DCS,2009-02-02,4100.0
DCS,2009-02-03,3900.0
DCS,2009-02-04,3900.0
DCS,2009-02-05,3800.0
DCS,2009-02-06,3700.0
DCS,2009-02-09,3800.0
DCS,2009-02-10,3700.0
DCS,2009-02-11,3600.0
DCS,2009-02-12,3500.0
DCS,2009-02-13,3700.0
DCS,2009-02-16,3900.0
DCS,2009-02-17,3700.0
DCS,2009-02-18,3500.0
DCS,2009-02-19,3600.0
DCS,2009-02-20,3600.0
DCS,2009-02-23,3300.0
DCS,2009-02-24,3100.0
DCS,2009-02-25,3300.0
DCS,2009-02-26,3100.0
DCS,2009-02-27,3200.0
DCS,2009-03-02,3200.0
DCS,2009-03-03,3100.0
DCS,2009-03-04,3100.0
DCS,2009-03-05,3100.0
DCS,2009-03-06,3100.0
DCS,2009-03-09,3300.0
DCS,2009-03-10,3400.0
DCS,2009-03-11,3600.0
DCS,2009-03-12,3400.0
DCS,2009-03-13,3300.0
DCS,2009-03-16,3300.0
DCS,2009-03-17,3400.0
DCS,2009-03-18,3600.0
DCS,2009-03-19,3600.0
DCS,2009-03-20,3400.0
DCS,2009-03-23,3300.0
DCS,2009-03-24,3400.0
DCS,2009-03-25,3300.0
DCS,2009-03-26,3300.0
DCS,2009-03-27,3300.0
DCS,2009-03-30,3300.0
DCS,2009-03-31,3300.0
DCS,2009-04-01,3400.0
DCS,2009-04-02,3400.0
DCS,2009-04-03,3400.0
DCS,2009-04-07,3600.0
DCS,2009-04-08,3600.0
DCS,2009-04-09,3800.0
DCS,2009-04-10,3900.0
DCS,2009-04-13,4200.0
DCS,2009-04-14,4400.0
DCS,2009-04-15,4100.0
DCS,2009-04-16,4100.0
DCS,2009-04-17,3900.0
DCS,2009-04-20,3600.0
DCS,2009-04-21,3600.0
DCS,2009-04-22,3600.0
DCS,2009-04-23,3600.0
DCS,2009-04-24,3400.0
DCS,2009-04-27,3500.0
DCS,2009-04-28,3500.0
DCS,2009-04-29,3500.0
DCS,2009-05-04,3600.0
DCS,2009-05-05,3800.0
DCS,2009-05-06,3600.0
DCS,2009-05-07,3600.0
DCS,2009-05-08,3400.0
DCS,2009-05-11,3700.0
DCS,2009-05-12,3900.0
DCS,2009-05-13,4100.0
DCS,2009-05-14,3900.0
DCS,2009-05-15,4100.0
DCS,2009-05-18,3900.0
DCS,2009-05-19,4200.0
DCS,2009-05-20,4400.0
DCS,2009-05-21,4700.0
DCS,2009-05-22,5000.0
DCS,2009-05-25,5300.0
DCS,2009-05-26,5400.0
DCS,2009-05-27,5700.0
DCS,2009-05-28,5500.0
DCS,2009-05-29,5200.0
DCS,2009-06-01,5600.0
DCS,2009-06-02,5900.0
DCS,2009-06-03,6300.0
DCS,2009-06-04,6700.0
DCS,2009-06-05,7100.0
DCS,2009-06-08,7600.0
DCS,2009-06-09,7700.0
DCS,2009-06-10,7400.0
DCS,2009-06-11,7900.0
DCS,2009-06-12,7400.0
DCS,2009-06-15,7200.0
DCS,2009-06-16,6600.0
DCS,2009-06-17,6900.0
DCS,2009-06-18,6800.0
DCS,2009-06-19,6900.0
DCS,2009-06-22,6600.0
DCS,2009-06-23,6200.0
DCS,2009-06-24,6600.0
DCS,2009-06-25,6200.0
DCS,2009-06-26,6200.0
DCS,2009-06-29,6400.0
DCS,2009-06-30,5900.0
DCS,2009-07-01,5600.0
DCS,2009-07-02,5800.0
DCS,2009-07-03,6100.0
DCS,2009-07-06,6300.0
DCS,2009-07-07,6800.0
DCS,2009-07-08,6600.0
DCS,2009-07-09,6400.0
DCS,2009-07-10,6100.0
DCS,2009-07-13,5800.0
DCS,2009-07-14,5800.0
DCS,2009-07-15,6000.0
DCS,2009-07-16,6300.0
DCS,2009-07-17,6000.0
DCS,2009-07-20,5800.0
DCS,2009-07-21,6000.0
DCS,2009-07-22,6000.0
DCS,2009-07-23,6300.0
DCS,2009-07-24,6600.0
DCS,2009-07-27,6600.0
DCS,2009-07-28,6100.0
DCS,2009-07-29,6100.0
DCS,2009-07-30,6100.0
DCS,2009-07-31,6200.0
DCS,2009-08-03,6100.0
DCS,2009-08-04,6100.0
DCS,2009-08-05,6000.0
DCS,2009-08-06,6400.0
DCS,2009-08-07,6800.0
DCS,2009-08-10,6800.0
DCS,2009-08-11,7000.0
DCS,2009-08-12,6400.0
DCS,2009-08-13,6400.0
DCS,2009-08-14,6400.0
DCS,2009-08-17,6300.0
DCS,2009-08-18,6500.0
DCS,2009-08-19,6400.0
DCS,2009-08-20,6300.0
DCS,2009-08-21,6400.0
DCS,2009-08-24,6600.0
DCS,2009-08-25,6500.0
DCS,2009-08-26,6500.0
DCS,2009-08-27,7000.0
DCS,2009-08-28,7300.0
DCS,2009-08-31,7800.0
DCS,2009-09-01,8200.0
DCS,2009-09-03,7900.0
DCS,2009-09-04,7500.0
DCS,2009-09-07,7600.0
DCS,2009-09-08,7600.0
DCS,2009-09-09,7400.0
DCS,2009-09-10,7600.0
DCS,2009-09-11,7600.0
DCS,2009-09-14,8000.0
DCS,2009-09-15,8300.0
DCS,2009-09-16,8100.0
DCS,2009-09-17,7900.0
DCS,2009-09-18,8000.0
DCS,2009-09-21,8000.0
DCS,2009-09-22,8400.0
DCS,2009-09-23,8800.0
DCS,2009-09-24,8800.0
DCS,2009-09-25,9400.0
DCS,2009-09-28,9700.0
DCS,2009-09-29,10400.0
DCS,2009-09-30,11100.0
DCS,2009-10-01,11700.0
DCS,2009-10-02,11100.0
DCS,2009-10-05,11100.0
DCS,2009-10-06,11100.0
DCS,2009-10-07,10900.0
DCS,2009-10-08,11100.0
DCS,2009-10-09,11200.0
DCS,2009-10-12,11600.0
DCS,2009-10-13,12400.0
DCS,2009-10-14,13100.0
DCS,2009-10-15,14000.0
DCS,2009-10-16,14900.0
DCS,2009-10-19,16000.0
DCS,2009-10-20,16600.0
DCS,2009-10-21,16300.0
DCS,2009-10-22,15400.0
DCS,2009-10-23,14400.0
DCS,2009-10-26,14000.0
DCS,2009-10-27,13900.0
DCS,2009-10-28,13800.0
DCS,2009-10-29,12900.0
DCS,2009-10-30,13700.0
DCS,2009-11-02,12800.0
DCS,2009-11-03,13400.0
DCS,2009-11-04,14100.0
DCS,2009-11-05,15100.0
DCS,2009-11-06,14700.0
DCS,2009-11-09,14600.0
DCS,2009-11-10,13600.0
DCS,2009-11-11,14200.0
DCS,2009-11-12,14600.0
DCS,2009-11-13,13700.0
DCS,2009-11-16,13600.0
DCS,2009-11-17,14100.0
DCS,2009-11-18,14600.0
DCS,2009-11-19,14400.0
DCS,2009-11-20,14400.0
DCS,2009-11-23,13400.0
DCS,2009-11-24,13000.0
DCS,2009-11-25,12300.0
DCS,2009-11-26,11700.0
DCS,2009-11-27,12200.0
DCS,2009-11-30,12300.0
DCS,2009-12-01,12000.0
DCS,2009-12-02,12800.0
DCS,2009-12-03,13100.0
DCS,2009-12-04,12600.0
DCS,2009-12-07,12900.0
DCS,2009-12-08,12300.0
DCS,2009-12-09,12000.0
DCS,2009-12-10,12500.0
DCS,2009-12-11,11800.0
DCS,2009-12-14,12300.0
DCS,2009-12-15,11700.0
DCS,2009-12-16,12100.0
DCS,2009-12-17,11300.0
DCS,2009-12-18,11800.0
DCS,2009-12-21,12300.0
DCS,2009-12-22,12400.0
DCS,2009-12-23,12000.0
DCS,2009-12-24,12300.0
DCS,2009-12-25,12500.0
DCS,2009-12-28,12000.0
DCS,2009-12-29,11900.0
DCS,2009-12-30,11700.0
DCS,2009-12-31,11100.0
DCS,2010-01-04,12500.0
DCS,2010-01-05,11700.0
DCS,2010-01-06,11900.0
DCS,2010-01-07,11500.0
DCS,2010-01-08,12100.0
DCS,2010-01-11,12300.0
DCS,2010-01-12,12200.0
DCS,2010-01-13,12300.0
DCS,2010-01-14,12300.0
DCS,2010-01-15,12400.0
DCS,2010-01-18,11600.0
DCS,2010-01-19,11900.0
DCS,2010-01-20,11500.0
DCS,2010-01-21,12200.0
DCS,2010-01-22,11400.0
DCS,2010-01-25,10700.0
DCS,2010-01-26,11100.0
DCS,2010-01-27,10300.0
DCS,2010-01-28,10200.0
DCS,2010-01-29,11000.0
DCS,2010-02-01,11000.0
DCS,2010-02-02,10600.0
DCS,2010-02-03,11300.0
DCS,2010-02-04,10700.0
DCS,2010-02-05,10700.0
DCS,2010-02-08,10100.0
DCS,2010-02-09,10700.0
DCS,2010-02-10,10600.0
DCS,2010-02-11,10800.0
DCS,2010-02-12,11100.0
DCS,2010-02-22,11300.0
DCS,2010-02-23,10700.0
DCS,2010-02-24,10900.0
DCS,2010-02-25,10200.0
DCS,2010-02-26,10600.0
DCS,2010-03-01,10400.0
DCS,2010-03-02,10300.0
DCS,2010-03-03,10100.0
DCS,2010-03-04,10700.0
DCS,2010-03-05,11400.0
DCS,2010-03-08,11800.0
DCS,2010-03-09,12000.0
DCS,2010-03-10,11400.0
DCS,2010-03-11,12200.0
DCS,2010-03-12,13100.0
DCS,2010-03-15,13900.0
DCS,2010-03-16,12800.0
DCS,2010-03-17,12400.0
DCS,2010-03-18,12900.0
DCS,2010-03-19,13200.0
DCS,2010-03-22,14100.0
DCS,2010-03-23,15100.0
DCS,2010-03-24,16000.0
DCS,2010-03-25,16000.0
DCS,2010-03-26,15600.0
DCS,2010-03-29,16500.0
DCS,2010-03-30,17400.0
DCS,2010-03-31,17600.0
DCS,2010-04-01,17100.0
DCS,2010-04-02,16600.0
DCS,2010-04-05,17900.0
DCS,2010-04-06,17500.0
DCS,2010-04-07,19100.0
DCS,2010-04-08,20200.0
DCS,2010-04-09,20900.0
DCS,2010-04-12,22700.0
DCS,2010-04-13,23600.0
DCS,2010-04-14,24100.0
DCS,2010-04-15,25400.0
DCS,2010-04-16,26900.0
DCS,2010-04-19,28800.0
DCS,2010-04-20,30700.0
DCS,2010-04-21,32900.0
DCS,2010-04-22,30600.0
DCS,2010-04-26,29400.0
DCS,2010-04-27,31600.0
DCS,2010-04-28,32900.0
DCS,2010-04-29,33500.0
DCS,2010-05-04,31400.0
DCS,2010-05-05,30000.0
DCS,2010-05-06,31600.0
DCS,2010-05-07,29400.0
DCS,2010-05-10,27500.0
DCS,2010-05-11,25600.0
DCS,2010-05-12,24300.0
DCS,2010-05-13,22700.0
DCS,2010-05-14,23400.0
DCS,2010-05-17,23500.0
DCS,2010-05-18,21800.0
DCS,2010-05-19,20900.0
DCS,2010-05-20,19500.0
DCS,2010-05-21,18200.0
DCS,2010-05-24,17800.0
DCS,2010-05-25,18300.0
DCS,2010-05-26,19500.0
DCS,2010-05-27,20800.0
DCS,2010-05-28,22100.0
DCS,2010-05-31,20700.0
DCS,2010-06-01,19900.0
DCS,2010-06-02,21200.0
DCS,2010-06-03,22500.0
DCS,2010-06-04,21700.0
DCS,2010-06-07,20500.0
DCS,2010-06-08,19700.0
DCS,2010-06-09,19900.0
DCS,2010-06-10,20200.0
DCS,2010-06-11,20900.0
DCS,2010-06-14,22400.0
DCS,2010-06-15,23400.0
DCS,2010-06-16,23700.0
DCS,2010-06-17,22700.0
DCS,2010-06-18,23700.0
DCS,2010-06-21,23800.0
DCS,2010-06-22,23400.0
DCS,2010-06-23,23100.0
DCS,2010-06-24,22700.0
DCS,2010-06-25,21500.0
DCS,2010-06-28,21400.0
DCS,2010-06-29,21900.0
DCS,2010-06-30,20900.0
DCS,2010-07-01,20900.0
DCS,2010-07-02,21000.0
DCS,2010-07-05,21400.0
DCS,2010-07-06,20600.0
DCS,2010-07-07,20400.0
DCS,2010-07-08,20200.0
DCS,2010-07-09,20300.0
DCS,2010-07-12,20500.0
DCS,2010-07-13,21700.0
DCS,2010-07-14,22200.0
DCS,2010-07-15,21600.0
DCS,2010-07-16,21200.0
DCS,2010-07-19,22700.0
DCS,2010-07-20,22900.0
DCS,2010-07-21,22600.0
DCS,2010-07-22,22000.0
DCS,2010-07-23,22100.0
DCS,2010-07-26,21900.0
DCS,2010-07-27,21500.0
DCS,2010-07-28,20800.0
DCS,2010-07-29,20900.0
DCS,2010-07-30,20500.0
DCS,2010-08-02,19900.0
DCS,2010-08-03,18800.0
DCS,2010-08-04,17900.0
DCS,2010-08-05,19300.0
DCS,2010-08-06,19900.0
DCS,2010-08-09,18600.0
DCS,2010-08-10,17500.0
DCS,2010-08-11,18200.0
DCS,2010-08-12,16800.0
DCS,2010-08-13,16300.0
DCS,2010-08-16,17400.0
DCS,2010-08-17,17700.0
DCS,2010-08-18,16900.0
DCS,2010-08-19,16500.0
DCS,2010-08-20,16700.0
DCS,2010-08-23,15800.0
DCS,2010-08-24,14900.0
DCS,2010-08-25,14000.0
DCS,2010-08-26,13400.0
DCS,2010-08-27,12800.0
DCS,2010-08-30,13700.0
DCS,2010-08-31,14500.0
DCS,2010-09-01,15300.0
DCS,2010-09-06,16400.0
DCS,2010-09-07,17500.0
DCS,2010-09-08,18000.0
DCS,2010-09-09,18800.0
DCS,2010-09-10,19600.0
DCS,2010-09-13,18500.0
DCS,2010-09-14,18600.0
DCS,2010-09-15,17000.0
DCS,2010-09-16,16600.0
DCS,2010-09-17,18000.0
DCS,2010-09-20,19200.0
DCS,2010-09-21,19900.0
DCS,2010-09-22,19900.0
DCS,2010-09-23,19000.0
DCS,2010-09-24,19200.0
DCS,2010-09-27,19600.0
DCS,2010-09-28,19600.0
DCS,2010-09-29,18700.0
DCS,2010-09-30,18300.0
DCS,2010-10-01,18000.0
DCS,2010-10-04,16900.0
DCS,2010-10-05,16900.0
DCS,2010-10-06,17600.0
DCS,2010-10-07,17600.0
DCS,2010-10-08,16900.0
DCS,2010-10-11,16400.0
DCS,2010-10-12,16000.0
DCS,2010-10-13,16100.0
DCS,2010-10-14,16100.0
DCS,2010-10-15,15900.0
DCS,2010-10-18,14900.0
DCS,2010-10-19,14300.0
DCS,2010-10-20,13400.0
DCS,2010-10-21,13900.0
DCS,2010-10-22,13600.0
DCS,2010-10-25,14200.0
DCS,2010-10-26,14600.0
DCS,2010-10-27,13900.0
DCS,2010-10-28,13800.0
DCS,2010-10-29,13900.0
DCS,2010-11-01,13400.0
DCS,2010-11-02,13200.0
DCS,2010-11-03,12700.0
DCS,2010-11-04,13000.0
DCS,2010-11-05,13800.0
DCS,2010-11-08,13700.0
DCS,2010-11-09,12900.0
DCS,2010-11-10,13000.0
DCS,2010-11-11,12600.0
DCS,2010-11-12,12000.0
DCS,2010-11-15,11100.0
DCS,2010-11-16,10500.0
DCS,2010-11-17,10700.0
DCS,2010-11-18,11400.0
DCS,2010-11-19,10800.0
DCS,2010-11-22,10600.0
DCS,2010-11-23,11100.0
DCS,2010-11-24,11000.0
DCS,2010-11-25,11800.0
DCS,2010-11-26,12600.0
DCS,2010-11-29,13500.0
DCS,2010-11-30,14100.0
DCS,2010-12-01,14100.0
DCS,2010-12-02,14700.0
DCS,2010-12-03,15300.0
DCS,2010-12-06,15300.0
DCS,2010-12-07,14900.0
DCS,2010-12-08,14000.0
DCS,2010-12-09,14400.0
DCS,2010-12-10,15000.0
DCS,2010-12-13,16000.0
DCS,2010-12-14,15300.0
DCS,2010-12-15,15000.0
DCS,2010-12-16,14000.0
DCS,2010-12-17,14500.0
DCS,2010-12-20,13500.0
DCS,2010-12-21,13000.0
DCS,2010-12-22,12600.0
DCS,2010-12-23,12000.0
DCS,2010-12-24,12800.0
DCS,2010-12-27,13700.0
DCS,2010-12-28,14400.0
DCS,2010-12-29,14300.0
DCS,2010-12-30,13900.0
DCS,2010-12-31,14000.0
DCS,2011-01-04,14200.0
DCS,2011-01-05,13600.0
DCS,2011-01-06,13900.0
DCS,2011-01-07,13800.0
DCS,2011-01-10,13500.0
DCS,2011-01-11,13300.0
DCS,2011-01-12,13600.0
DCS,2011-01-13,14400.0
DCS,2011-01-14,15200.0
DCS,2011-01-17,15500.0
DCS,2011-01-18,15200.0
DCS,2011-01-19,14800.0
DCS,2011-01-20,14500.0
DCS,2011-01-21,14800.0
DCS,2011-01-24,14200.0
DCS,2011-01-25,14200.0
DCS,2011-01-26,14300.0
DCS,2011-01-27,14400.0
DCS,2011-01-28,14300.0
DCS,2011-02-08,14300.0
DCS,2011-02-09,14300.0
DCS,2011-02-10,13900.0
DCS,2011-02-11,13900.0
DCS,2011-02-14,13500.0
DCS,2011-02-15,14200.0
DCS,2011-02-16,14000.0
DCS,2011-02-17,13400.0
DCS,2011-02-18,13200.0
DCS,2011-02-21,12500.0
DCS,2011-02-22,11800.0
DCS,2011-02-23,12500.0
DCS,2011-02-24,12200.0
DCS,2011-02-25,12800.0
DCS,2011-02-28,12000.0
DCS,2011-03-01,11800.0
DCS,2011-03-02,11900.0
DCS,2011-03-03,11500.0
DCS,2011-03-04,12100.0
DCS,2011-03-07,12300.0
DCS,2011-03-08,12100.0
DCS,2011-03-09,11900.0
DCS,2011-03-10,12600.0
DCS,2011-03-11,13200.0
DCS,2011-03-14,12400.0
DCS,2011-03-15,11800.0
DCS,2011-03-16,12100.0
DCS,2011-03-17,12000.0
DCS,2011-03-18,12500.0
DCS,2011-03-21,12100.0
DCS,2011-03-22,11700.0
DCS,2011-03-23,11900.0
DCS,2011-03-24,12100.0
DCS,2011-03-25,11400.0
DCS,2011-03-28,11900.0
DCS,2011-03-29,11700.0
DCS,2011-03-30,11700.0
DCS,2011-03-31,11800.0
DCS,2011-04-01,11600.0
DCS,2011-04-04,11500.0
DCS,2011-04-05,11400.0
DCS,2011-04-06,11000.0
DCS,2011-04-07,11300.0
DCS,2011-04-08,11300.0
DCS,2011-04-13,11100.0
DCS,2011-04-14,10500.0
DCS,2011-04-15,10400.0
DCS,2011-04-18,10200.0
DCS,2011-04-19,10200.0
DCS,2011-04-20,9800.0
DCS,2011-04-21,10100.0
DCS,2011-04-22,9800.0
DCS,2011-04-25,10400.0
DCS,2011-04-26,9600.0
DCS,2011-04-27,10100.0
DCS,2011-04-28,9900.0
DCS,2011-04-29,9900.0
DCS,2011-05-04,9700.0
DCS,2011-05-05,9600.0
DCS,2011-05-06,9600.0
DCS,2011-05-09,9500.0
DCS,2011-05-10,9500.0
DCS,2011-05-11,9500.0
DCS,2011-05-12,9400.0
DCS,2011-05-13,9400.0
DCS,2011-05-16,8700.0
DCS,2011-05-17,8800.0
DCS,2011-05-18,8300.0
DCS,2011-05-19,8500.0
DCS,2011-05-20,8000.0
DCS,2011-05-23,7700.0
DCS,2011-05-24,7300.0
DCS,2011-05-25,7000.0
DCS,2011-05-26,6600.0
DCS,2011-05-27,6600.0
DCS,2011-05-30,6000.0
DCS,2011-05-31,6200.0
DCS,2011-06-01,6400.0
DCS,2011-06-02,6700.0
DCS,2011-06-03,7000.0
DCS,2011-06-06,6900.0
DCS,2011-06-07,7200.0
DCS,2011-06-08,7400.0
DCS,2011-06-09,7800.0
DCS,2011-06-10,8100.0
DCS,2011-06-13,8500.0
DCS,2011-06-14,8600.0
DCS,2011-06-15,8300.0
DCS,2011-06-16,8400.0
DCS,2011-06-17,7700.0
DCS,2011-06-20,7300.0
DCS,2011-06-21,7900.0
DCS,2011-06-22,7700.0
DCS,2011-06-23,7400.0
DCS,2011-06-24,7400.0
DCS,2011-06-27,7900.0
DCS,2011-06-28,7400.0
DCS,2011-06-29,7700.0
DCS,2011-06-30,7500.0
DCS,2011-07-01,7000.0
DCS,2011-07-04,6900.0
DCS,2011-07-05,7200.0
DCS,2011-07-06,7200.0
DCS,2011-07-07,7100.0
DCS,2011-07-08,7100.0
DCS,2011-07-11,6900.0
DCS,2011-07-12,6900.0
DCS,2011-07-13,6800.0
DCS,2011-07-14,6900.0
DCS,2011-07-15,7200.0
DCS,2011-07-18,7000.0
DCS,2011-07-19,7000.0
DCS,2011-07-20,7200.0
DCS,2011-07-21,7100.0
DCS,2011-07-22,7000.0
DCS,2011-07-25,6900.0
DCS,2011-07-26,6900.0
DCS,2011-07-27,6800.0
DCS,2011-07-28,6900.0
DCS,2011-07-29,6700.0
DCS,2011-08-01,6500.0
DCS,2011-08-02,6200.0
DCS,2011-08-03,6200.0
DCS,2011-08-04,6500.0
DCS,2011-08-05,6500.0
DCS,2011-08-08,6300.0
DCS,2011-08-09,5900.0
DCS,2011-08-10,6100.0
DCS,2011-08-11,5800.0
DCS,2011-08-12,5900.0
DCS,2011-08-15,5900.0
DCS,2011-08-16,6000.0
DCS,2011-08-17,6400.0
DCS,2011-08-18,6500.0
DCS,2011-08-19,6400.0
DCS,2011-08-22,6800.0
DCS,2011-08-23,6800.0
DCS,2011-08-24,6500.0
DCS,2011-08-25,6700.0
DCS,2011-08-26,6700.0
DCS,2011-08-29,7000.0
DCS,2011-08-30,7400.0
DCS,2011-08-31,7600.0
DCS,2011-09-01,7800.0
DCS,2011-09-05,7300.0
DCS,2011-09-06,7100.0
DCS,2011-09-07,7500.0
DCS,2011-09-08,7600.0
DCS,2011-09-09,7700.0
DCS,2011-09-12,8100.0
DCS,2011-09-13,8500.0
DCS,2011-09-14,8600.0
DCS,2011-09-15,8400.0
DCS,2011-09-16,8000.0
DCS,2011-09-19,8200.0
DCS,2011-09-20,7900.0
DCS,2011-09-21,8100.0
DCS,2011-09-22,8200.0
DCS,2011-09-23,8300.0
DCS,2011-09-26,8200.0
DCS,2011-09-27,8200.0
DCS,2011-09-28,8000.0
DCS,2011-09-29,7600.0
DCS,2011-09-30,7200.0
DCS,2011-10-03,7000.0
DCS,2011-10-04,7100.0
DCS,2011-10-05,7200.0
DCS,2011-10-06,7600.0
DCS,2011-10-07,7400.0
DCS,2011-10-10,7000.0
DCS,2011-10-11,7200.0
DCS,2011-10-12,6700.0
DCS,2011-10-13,6900.0
DCS,2011-10-14,6800.0
DCS,2011-10-17,6600.0
DCS,2011-10-18,6500.0
DCS,2011-10-19,6600.0
DCS,2011-10-20,6300.0
DCS,2011-10-21,6800.0
DCS,2011-10-24,6700.0
DCS,2011-10-25,6600.0
DCS,2011-10-26,6600.0
DCS,2011-10-27,6600.0
DCS,2011-10-28,7000.0
DCS,2011-10-31,7100.0
DCS,2011-11-01,6800.0
DCS,2011-11-02,6700.0
DCS,2011-11-03,6700.0
DCS,2011-11-04,6600.0
DCS,2011-11-07,6400.0
DCS,2011-11-08,6600.0
DCS,2011-11-09,6400.0
DCS,2011-11-10,6200.0
DCS,2011-11-11,6000.0
DCS,2011-11-14,5900.0
DCS,2011-11-15,6000.0
DCS,2011-11-16,6300.0
DCS,2011-11-17,6000.0
DCS,2011-11-18,5900.0
DCS,2011-11-21,5800.0
DCS,2011-11-22,5800.0
DCS,2011-11-23,5900.0
DCS,2011-11-24,5700.0
DCS,2011-11-25,5400.0
DCS,2011-11-28,5700.0
DCS,2011-11-29,5600.0
DCS,2011-11-30,5600.0
DCS,2011-12-01,5600.0
DCS,2011-12-02,5800.0
DCS,2011-12-05,5900.0
DCS,2011-12-06,6000.0
DCS,2011-12-07,5900.0
DCS,2011-12-08,5800.0
DCS,2011-12-09,5800.0
DCS,2011-12-12,5500.0
DCS,2011-12-13,5300.0
DCS,2011-12-14,5100.0
DCS,2011-12-15,4800.0
DCS,2011-12-16,5000.0
DCS,2011-12-19,4700.0
DCS,2011-12-20,4500.0
DCS,2011-12-21,4400.0
DCS,2011-12-22,4100.0
DCS,2011-12-23,4000.0
DCS,2011-12-26,3700.0
DCS,2011-12-27,3600.0
DCS,2011-12-28,3800.0
DCS,2011-12-29,3500.0
DCS,2011-12-30,3700.0
DCS,2012-01-03,3900.0
DCS,2012-01-04,3800.0
DCS,2012-01-05,3700.0
DCS,2012-01-06,3500.0
DCS,2012-01-09,3600.0
DCS,2012-01-10,3600.0
DCS,2012-01-11,3600.0
DCS,2012-01-12,3400.0
DCS,2012-01-13,3500.0
DCS,2012-01-16,3600.0
DCS,2012-01-17,3600.0
DCS,2012-01-18,3700.0
DCS,2012-01-19,3800.0
DCS,2012-01-20,3900.0
DCS,2012-01-30,4000.0
DCS,2012-01-31,4100.0
DCS,2012-02-01,4300.0
DCS,2012-02-02,4300.0
DCS,2012-02-03,4600.0
DCS,2012-02-06,4900.0
DCS,2012-02-07,5000.0
DCS,2012-02-08,5200.0
DCS,2012-02-09,4800.0
DCS,2012-02-10,4600.0
DCS,2012-02-13,4300.0
DCS,2012-02-14,4600.0
DCS,2012-02-15,4500.0
DCS,2012-02-16,4500.0
DCS,2012-02-17,4700.0
DCS,2012-02-20,4900.0
DCS,2012-02-21,4800.0
DCS,2012-02-22,5200.0
DCS,2012-02-23,5300.0
DCS,2012-02-24,5400.0
DCS,2012-02-27,5700.0
DCS,2012-02-28,5500.0
DCS,2012-02-29,5600.0
DCS,2012-03-01,5400.0
DCS,2012-03-02,5600.0
DCS,2012-03-05,5800.0
DCS,2012-03-06,5700.0
DCS,2012-03-07,5800.0
DCS,2012-03-08,5400.0
DCS,2012-03-09,5200.0
DCS,2012-03-12,4900.0
DCS,2012-03-13,5200.0
DCS,2012-03-14,5000.0
DCS,2012-03-15,5400.0
DCS,2012-03-16,5600.0
DCS,2012-03-19,5400.0
DCS,2012-03-20,5600.0
DCS,2012-03-21,5700.0
DCS,2012-03-22,5800.0
DCS,2012-03-23,6000.0
DCS,2012-03-26,6400.0
DCS,2012-03-27,6200.0
DCS,2012-03-28,6500.0
DCS,2012-03-29,6000.0
DCS,2012-03-30,5600.0
DCS,2012-04-03,5900.0
DCS,2012-04-04,5700.0
DCS,2012-04-05,6000.0
DCS,2012-04-06,6000.0
DCS,2012-04-09,6300.0
DCS,2012-04-10,6200.0
DCS,2012-04-11,6600.0
DCS,2012-04-12,6500.0
DCS,2012-04-13,6300.0
DCS,2012-04-16,6600.0
DCS,2012-04-17,6500.0
DCS,2012-04-18,7000.0
DCS,2012-04-19,7000.0
DCS,2012-04-20,6900.0
DCS,2012-04-23,6700.0
DCS,2012-04-24,6700.0
DCS,2012-04-25,6900.0
DCS,2012-04-26,6600.0
DCS,2012-04-27,6800.0
DCS,2012-05-02,6600.0
DCS,2012-05-03,6600.0
DCS,2012-05-04,7000.0
DCS,2012-05-07,7400.0
DCS,2012-05-08,7400.0
DCS,2012-05-09,7400.0
DCS,2012-05-10,7200.0
DCS,2012-05-11,6800.0
DCS,2012-05-14,6400.0
DCS,2012-05-15,6000.0
DCS,2012-05-16,6400.0
DCS,2012-05-17,6200.0
DCS,2012-05-18,6000.0
DCS,2012-05-21,6300.0
DCS,2012-05-22,6200.0
DCS,2012-05-23,5800.0
DCS,2012-05-24,5700.0
DCS,2012-05-25,5900.0
DCS,2012-05-28,6200.0
DCS,2012-05-29,6100.0
DCS,2012-05-30,6100.0
DCS,2012-05-31,5800.0
DCS,2012-06-01,5800.0
DCS,2012-06-04,5600.0
DCS,2012-06-05,5800.0
DCS,2012-06-06,5900.0
DCS,2012-06-07,6300.0
DCS,2012-06-08,6100.0
DCS,2012-06-11,6300.0
DCS,2012-06-12,5900.0
DCS,2012-06-13,6000.0
DCS,2012-06-14,6000.0
DCS,2012-06-15,6100.0
DCS,2012-06-18,6000.0
DCS,2012-06-19,6000.0
DCS,2012-06-20,6000.0
DCS,2012-06-21,5900.0
DCS,2012-06-22,5800.0
DCS,2012-06-25,5500.0
DCS,2012-06-26,5200.0
DCS,2012-06-27,5100.0
DCS,2012-06-28,5400.0
DCS,2012-06-29,5200.0
DCS,2012-07-02,5000.0
DCS,2012-07-03,4900.0
DCS,2012-07-04,4500.0
DCS,2012-07-05,4800.0
DCS,2012-07-06,4900.0
DCS,2012-07-09,4800.0
DCS,2012-07-10,4600.0
DCS,2012-07-11,4800.0
DCS,2012-07-12,5000.0
DCS,2012-07-13,5300.0
DCS,2012-07-16,5400.0
DCS,2012-07-17,5700.0
DCS,2012-07-18,5600.0
DCS,2012-07-19,5900.0
DCS,2012-07-20,5600.0
DCS,2012-07-23,5500.0
DCS,2012-07-24,5100.0
DCS,2012-07-25,5200.0
DCS,2012-07-26,5200.0
DCS,2012-07-27,5100.0
DCS,2012-07-30,5100.0
DCS,2012-07-31,5000.0
DCS,2012-08-01,5000.0
DCS,2012-08-02,5100.0
DCS,2012-08-03,5000.0
DCS,2012-08-06,5300.0
DCS,2012-08-07,5300.0
DCS,2012-08-08,5500.0
DCS,2012-08-09,5500.0
DCS,2012-08-10,5300.0
DCS,2012-08-13,5200.0
DCS,2012-08-14,5300.0
DCS,2012-08-15,5300.0
DCS,2012-08-16,5200.0
DCS,2012-08-17,5300.0
DCS,2012-08-20,5400.0
DCS,2012-08-21,5000.0
DCS,2012-08-22,4700.0
DCS,2012-08-23,4400.0
DCS,2012-08-24,4500.0
DCS,2012-08-27,4200.0
DCS,2012-08-28,4200.0
DCS,2012-08-29,4400.0
DCS,2012-08-30,4400.0
DCS,2012-08-31,4200.0
DCS,2012-09-04,4400.0
DCS,2012-09-05,4100.0
DCS,2012-09-06,4000.0
DCS,2012-09-07,4100.0
DCS,2012-09-10,3900.0
DCS,2012-09-11,3700.0
DCS,2012-09-12,3600.0
DCS,2012-09-13,3800.0
DCS,2012-09-14,4000.0
DCS,2012-09-17,3900.0
DCS,2012-09-18,3600.0
DCS,2012-09-19,3700.0
DCS,2012-09-20,3700.0
DCS,2012-09-21,3600.0
DCS,2012-09-24,3500.0
DCS,2012-09-25,3600.0
DCS,2012-09-26,3700.0
DCS,2012-09-27,3600.0
DCS,2012-09-28,3500.0
DCS,2012-10-01,3400.0
DCS,2012-10-02,3300.0
DCS,2012-10-03,3400.0
DCS,2012-10-04,3300.0
DCS,2012-10-05,3300.0
DCS,2012-10-08,3500.0
DCS,2012-10-09,3500.0
DCS,2012-10-10,3700.0
DCS,2012-10-11,3800.0
DCS,2012-10-12,3700.0
DCS,2012-10-15,3500.0
DCS,2012-10-16,3700.0
DCS,2012-10-17,3700.0
DCS,2012-10-18,3700.0
DCS,2012-10-19,3600.0
DCS,2012-10-22,3400.0
DCS,2012-10-23,3500.0
DCS,2012-10-24,3500.0
DCS,2012-10-25,3400.0
DCS,2012-10-26,3500.0
DCS,2012-10-29,3400.0
DCS,2012-10-30,3400.0
DCS,2012-10-31,3400.0
DCS,2012-11-01,3400.0
DCS,2012-11-02,3200.0
DCS,2012-11-05,3000.0
DCS,2012-11-06,3100.0
DCS,2012-11-07,3200.0
DCS,2012-11-08,3100.0
DCS,2012-11-09,3100.0
DCS,2012-11-12,3200.0
DCS,2012-11-13,3200.0
DCS,2012-11-14,3200.0
DCS,2012-11-15,3000.0
DCS,2012-11-16,3100.0
DCS,2012-11-19,3000.0
DCS,2012-11-20,3200.0
DCS,2012-11-21,3100.0
DCS,2012-11-22,3100.0
DCS,2012-11-23,3100.0
DCS,2012-11-26,3000.0
DCS,2012-11-27,2900.0
DCS,2012-11-28,3000.0
DCS,2012-11-29,3100.0
DCS,2012-11-30,2900.0
DCS,2012-12-03,3000.0
DCS,2012-12-04,3200.0
DCS,2012-12-05,3100.0
DCS,2012-12-06,3100.0
DCS,2012-12-07,3200.0
DCS,2012-12-10,3300.0
DCS,2012-12-11,3400.0
DCS,2012-12-12,3500.0
DCS,2012-12-13,3500.0
DCS,2012-12-14,3400.0
DCS,2012-12-17,3400.0
DCS,2012-12-18,3300.0
DCS,2012-12-19,3500.0
DCS,2012-12-20,3300.0
DCS,2012-12-21,3300.0
DCS,2012-12-24,3400.0
DCS,2012-12-25,3300.0
DCS,2012-12-26,3400.0
DCS,2012-12-27,3400.0
DCS,2012-12-28,3600.0
DCS,2013-01-02,3800.0
DCS,2013-01-03,4000.0
DCS,2013-01-04,4200.0
DCS,2013-01-07,4000.0
DCS,2013-01-08,3900.0
DCS,2013-01-09,3700.0
DCS,2013-01-10,3900.0
DCS,2013-01-11,3900.0
DCS,2013-01-14,4000.0
DCS,2013-01-15,4200.0
DCS,2013-01-16,4300.0
DCS,2013-01-17,4200.0
DCS,2013-01-18,4200.0
DCS,2013-01-21,4000.0
DCS,2013-01-22,3800.0
DCS,2013-01-23,3700.0
DCS,2013-01-24,4000.0
DCS,2013-01-25,4000.0
DCS,2013-01-28,4100.0
DCS,2013-01-29,4200.0
DCS,2013-01-30,4100.0
DCS,2013-01-31,4000.0
DCS,2013-02-01,4000.0
DCS,2013-02-04,4000.0
DCS,2013-02-05,3900.0
DCS,2013-02-06,4100.0
DCS,2013-02-07,4300.0
DCS,2013-02-08,4300.0
DCS,2013-02-18,4500.0
DCS,2013-02-19,4700.0
DCS,2013-02-20,4800.0
DCS,2013-02-21,4300.0
DCS,2013-02-22,4300.0
DCS,2013-02-25,4300.0
DCS,2013-02-26,3900.0
DCS,2013-02-27,4000.0
DCS,2013-02-28,4000.0
DCS,2013-03-01,4000.0
DCS,2013-03-04,3700.0
DCS,2013-03-05,3800.0
DCS,2013-03-06,4000.0
DCS,2013-03-07,3700.0
DCS,2013-03-08,3800.0
DCS,2013-03-11,4000.0
DCS,2013-03-12,3900.0
DCS,2013-03-13,3800.0
DCS,2013-03-14,3800.0
DCS,2013-03-15,3900.0
DCS,2013-03-18,3700.0
DCS,2013-03-19,3700.0
DCS,2013-03-20,3700.0
DCS,2013-03-21,3700.0
DCS,2013-03-22,3600.0
DCS,2013-03-25,3600.0
DCS,2013-03-26,3500.0
DCS,2013-03-27,3600.0
DCS,2013-03-28,3400.0
DCS,2013-03-29,3400.0
DCS,2013-04-01,3600.0
DCS,2013-04-02,3500.0
DCS,2013-04-03,3600.0
DCS,2013-04-04,3400.0
DCS,2013-04-05,3500.0
DCS,2013-04-08,3400.0
DCS,2013-04-09,3200.0
DCS,2013-04-10,3300.0
DCS,2013-04-11,3300.0
DCS,2013-04-12,3100.0
DCS,2013-04-15,2900.0
DCS,2013-04-16,2800.0
DCS,2013-04-17,2900.0
DCS,2013-04-18,2900.0
DCS,2013-04-22,2800.0
DCS,2013-04-23,3000.0
DCS,2013-04-24,2900.0
DCS,2013-04-25,2800.0
DCS,2013-04-26,3000.0
DCS,2013-05-02,3000.0
DCS,2013-05-03,3000.0
DCS,2013-05-06,3200.0
DCS,2013-05-07,3100.0
DCS,2013-05-08,3000.0
DCS,2013-05-09,3100.0
DCS,2013-05-10,3100.0
DCS,2013-05-13,3100.0
DCS,2013-05-14,3000.0
DCS,2013-05-15,3000.0
DCS,2013-05-16,3000.0
DCS,2013-05-17,2900.0
DCS,2013-05-20,3000.0
DCS,2013-05-21,3100.0
DCS,2013-05-22,3200.0
DCS,2013-05-23,3200.0
DCS,2013-05-24,3100.0
DCS,2013-05-27,3300.0
DCS,2013-05-28,3400.0
DCS,2013-05-29,3400.0
DCS,2013-05-30,3400.0
DCS,2013-05-31,3300.0
DCS,2013-06-03,3500.0
DCS,2013-06-04,3500.0
DCS,2013-06-05,3600.0
DCS,2013-06-06,3500.0
DCS,2013-06-07,3500.0
DCS,2013-06-10,3400.0
DCS,2013-06-11,3400.0
DCS,2013-06-12,3300.0
DCS,2013-06-13,3300.0
DCS,2013-06-14,3400.0
DCS,2013-06-17,3300.0
DCS,2013-06-18,3300.0
DCS,2013-06-19,3200.0
DCS,2013-06-20,3100.0
DCS,2013-06-21,3200.0
DCS,2013-06-24,3000.0
DCS,2013-06-25,3000.0
DCS,2013-06-26,3000.0
DCS,2013-06-27,3100.0
DCS,2013-06-28,3000.0
DCS,2013-07-01,3000.0
DCS,2013-07-02,3100.0
DCS,2013-07-03,3000.0
DCS,2013-07-04,3000.0
DCS,2013-07-05,3100.0
DCS,2013-07-08,3000.0
DCS,2013-07-09,2900.0
DCS,2013-07-10,3000.0
DCS,2013-07-11,3000.0
DCS,2013-07-12,3100.0
DCS,2013-07-15,3000.0
DCS,2013-07-16,3000.0
DCS,2013-07-17,3100.0
DCS,2013-07-18,3000.0
DCS,2013-07-19,2900.0
DCS,2013-07-22,2900.0
DCS,2013-07-23,3000.0
DCS,2013-07-24,2800.0
DCS,2013-07-25,2800.0
DCS,2013-07-26,2800.0
DCS,2013-07-29,2700.0
DCS,2013-07-30,2800.0
DCS,2013-07-31,2700.0
DCS,2013-08-01,2700.0
DCS,2013-08-02,2800.0
DCS,2013-08-05,2700.0
DCS,2013-08-06,2700.0
DCS,2013-08-07,2700.0
DCS,2013-08-08,2800.0
DCS,2013-08-09,2700.0
DCS,2013-08-12,2600.0
DCS,2013-08-13,2600.0
DCS,2013-08-14,2600.0
DCS,2013-08-15,2600.0
DCS,2013-08-16,2800.0
DCS,2013-08-19,2800.0
DCS,2013-08-20,2800.0
DCS,2013-08-21,2700.0
DCS,2013-08-22,2600.0
DCS,2013-08-23,2600.0
DCS,2013-08-26,2700.0
DCS,2013-08-27,2700.0
DCS,2013-08-28,2600.0
DCS,2013-08-29,2600.0
DCS,2013-08-30,2600.0
DCS,2013-09-03,2500.0
DCS,2013-09-04,2400.0
DCS,2013-09-05,2500.0
DCS,2013-09-06,2400.0
DCS,2013-09-09,2300.0
DCS,2013-09-10,2500.0
DCS,2013-09-11,2600.0
DCS,2013-09-12,2500.0
DCS,2013-09-13,2400.0
DCS,2013-09-16,2400.0
DCS,2013-09-17,2400.0
DCS,2013-09-18,2300.0
DCS,2013-09-19,2200.0
DCS,2013-09-20,2400.0
DCS,2013-09-23,2400.0
DCS,2013-09-24,2400.0
DCS,2013-09-25,2500.0
DCS,2013-09-26,2400.0
DCS,2013-09-27,2500.0
DCS,2013-09-30,2500.0
DCS,2013-10-01,2500.0
DCS,2013-10-02,2500.0
DCS,2013-10-03,2500.0
DCS,2013-10-04,2500.0
DCS,2013-10-07,2600.0
DCS,2013-10-08,2500.0
DCS,2013-10-09,2500.0
DCS,2013-10-10,2500.0
DCS,2013-10-11,2500.0
DCS,2013-10-14,2500.0
DCS,2013-10-15,2700.0
DCS,2013-10-16,2900.0
DCS,2013-10-17,3000.0
DCS,2013-10-18,2800.0
DCS,2013-10-21,3000.0
DCS,2013-10-22,2900.0
DCS,2013-10-23,2900.0
DCS,2013-10-24,2800.0
DCS,2013-10-25,2900.0
DCS,2013-10-28,2900.0
DCS,2013-10-29,2900.0
DCS,2013-10-30,2800.0
DCS,2013-10-31,2800.0
DCS,2013-11-01,2900.0
DCS,2013-11-04,3100.0
DCS,2013-11-05,3300.0
DCS,2013-11-06,3300.0
DCS,2013-11-07,3100.0
DCS,2013-11-08,3300.0
DCS,2013-11-11,3300.0
DCS,2013-11-12,3300.0
DCS,2013-11-13,3200.0
DCS,2013-11-14,3300.0
DCS,2013-11-15,3500.0
DCS,2013-11-18,3700.0
DCS,2013-11-19,3800.0
DCS,2013-11-20,4000.0
DCS,2013-11-21,3800.0
DCS,2013-11-22,3900.0
DCS,2013-11-25,3900.0
DCS,2013-11-26,3900.0
DCS,2013-11-27,4000.0
DCS,2013-11-28,3900.0
DCS,2013-11-29,4200.0
DCS,2013-12-02,4200.0
DCS,2013-12-03,4100.0
DCS,2013-12-04,4200.0
DCS,2013-12-05,4200.0
DCS,2013-12-06,4100.0
DCS,2013-12-09,4000.0
DCS,2013-12-10,3900.0
DCS,2013-12-11,3600.0
DCS,2013-12-12,3800.0
DCS,2013-12-13,3800.0
DCS,2013-12-16,3800.0
DCS,2013-12-17,3900.0
DCS,2013-12-18,4000.0
DCS,2013-12-19,4200.0
DCS,2013-12-20,4000.0
DCS,2013-12-23,4100.0
DCS,2013-12-24,4000.0
DCS,2013-12-25,4000.0
DCS,2013-12-26,4000.0
DCS,2013-12-27,3900.0
DCS,2013-12-30,3800.0
DCS,2013-12-31,3900.0
DCS,2014-01-02,3900.0
DCS,2014-01-03,3800.0
DCS,2014-01-06,4000.0
DCS,2014-01-07,4000.0
DCS,2014-01-08,3900.0
DCS,2014-01-09,4100.0
DCS,2014-01-10,4000.0
DCS,2014-01-13,4000.0
DCS,2014-01-14,3900.0
DCS,2014-01-15,3900.0
DCS,2014-01-16,3900.0
DCS,2014-01-17,3800.0
DCS,2014-01-20,3700.0
DCS,2014-01-21,3700.0
DCS,2014-01-22,3900.0
DCS,2014-01-23,3900.0
DCS,2014-01-24,4000.0
DCS,2014-01-27,4100.0
DCS,2014-02-06,4500.0
DCS,2014-02-07,4600.0
DCS,2014-02-10,4800.0
DCS,2014-02-11,4500.0
DCS,2014-02-12,4700.0
DCS,2014-02-13,4700.0
DCS,2014-02-14,4800.0
DCS,2014-02-17,5200.0
DCS,2014-02-18,5300.0
DCS,2014-02-19,5800.0
DCS,2014-02-20,5800.0
DCS,2014-02-21,5600.0
DCS,2014-02-24,6000.0
DCS,2014-02-25,6100.0
DCS,2014-02-26,6000.0
DCS,2014-02-27,5800.0
DCS,2014-02-28,5800.0
DCS,2014-03-03,5400.0
DCS,2014-03-04,5500.0
DCS,2014-03-05,5700.0
DCS,2014-03-06,5900.0
DCS,2014-03-07,6200.0
DCS,2014-03-10,6400.0
DCS,2014-03-11,6300.0
DCS,2014-03-12,6100.0
DCS,2014-03-13,6400.0
DCS,2014-03-14,6300.0
DCS,2014-03-17,6900.0
DCS,2014-03-18,7200.0
DCS,2014-03-19,7400.0
DCS,2014-03-20,7400.0
DCS,2014-03-21,8000.0
DCS,2014-03-24,8500.0
DCS,2014-03-25,8200.0
DCS,2014-03-26,7500.0
DCS,2014-03-27,7900.0
DCS,2014-03-28,7900.0
DCS,2014-03-31,7700.0
DCS,2014-04-01,7100.0
DCS,2014-04-02,6800.0
DCS,2014-04-03,7400.0
DCS,2014-04-04,7400.0
DCS,2014-04-07,7300.0
DCS,2014-04-08,7400.0
DCS,2014-04-10,7100.0
DCS,2014-04-11,7000.0
DCS,2014-04-14,7100.0
DCS,2014-04-15,6400.0
DCS,2014-04-16,5800.0
DCS,2014-04-17,6000.0
DCS,2014-04-18,5500.0
DCS,2014-04-21,5100.0
DCS,2014-04-22,5600.0
DCS,2014-04-23,6000.0
DCS,2014-04-24,5900.0
DCS,2014-04-25,5900.0
DCS,2014-04-28,5600.0
DCS,2014-04-29,5700.0
DCS,2014-05-05,5500.0
DCS,2014-05-06,5500.0
DCS,2014-05-07,5500.0
DCS,2014-05-08,5000.0
DCS,2014-05-09,5100.0
DCS,2014-05-12,4600.0
DCS,2014-05-13,4200.0
DCS,2014-05-14,4600.0
DCS,2014-05-15,4200.0
DCS,2014-05-16,4600.0
DCS,2014-05-19,5000.0
DCS,2014-05-20,5500.0
DCS,2014-05-21,5900.0
