DNP,2006-12-20,22900.0
DNP,2006-12-21,21800.0
DNP,2006-12-22,20800.0
DNP,2006-12-25,21600.0
DNP,2006-12-26,21300.0
DNP,2006-12-27,20800.0
DNP,2006-12-28,19900.0
DNP,2006-12-29,19700.0
DNP,2007-01-02,19300.0
DNP,2007-01-03,18800.0
DNP,2007-01-04,19700.0
DNP,2007-01-05,20300.0
DNP,2007-01-08,19700.0
DNP,2007-01-09,19700.0
DNP,2007-01-10,19300.0
DNP,2007-01-11,19300.0
DNP,2007-01-12,19300.0
DNP,2007-01-15,20200.0
DNP,2007-01-16,21200.0
DNP,2007-01-17,20200.0
DNP,2007-01-18,20100.0
DNP,2007-01-19,20100.0
DNP,2007-01-22,19900.0
DNP,2007-01-23,19700.0
DNP,2007-01-24,19300.0
DNP,2007-01-25,19000.0
DNP,2007-01-26,19300.0
DNP,2007-01-29,19900.0
DNP,2007-01-30,20900.0
DNP,2007-01-31,21800.0
DNP,2007-02-01,22900.0
DNP,2007-02-02,24000.0
DNP,2007-02-05,25000.0
DNP,2007-02-06,24000.0
DNP,2007-02-07,25100.0
DNP,2007-02-08,26100.0
DNP,2007-02-09,25700.0
DNP,2007-02-12,26800.0
DNP,2007-02-13,28100.0
DNP,2007-02-14,29400.0
DNP,2007-02-15,30700.0
DNP,2007-02-26,32200.0
DNP,2007-02-27,33800.0
DNP,2007-02-28,35300.0
DNP,2007-03-01,37000.0
DNP,2007-03-02,38800.0
DNP,2007-03-05,40500.0
DNP,2007-03-06,42500.0
DNP,2007-03-07,44400.0
DNP,2007-03-08,46600.0
DNP,2007-03-09,46600.0
DNP,2007-03-12,44400.0
DNP,2007-03-13,43100.0
DNP,2007-03-14,41200.0
DNP,2007-03-15,39200.0
DNP,2007-03-16,41200.0
DNP,2007-03-19,43100.0
DNP,2007-03-20,41200.0
DNP,2007-03-21,39200.0
DNP,2007-03-22,37700.0
DNP,2007-03-23,37000.0
DNP,2007-03-26,35300.0
DNP,2007-03-27,33500.0
DNP,2007-03-28,32000.0
DNP,2007-03-29,33500.0
DNP,2007-03-30,35100.0
DNP,2007-04-02,33300.0
DNP,2007-04-03,32000.0
DNP,2007-04-04,33100.0
DNP,2007-04-05,33100.0
DNP,2007-04-06,32700.0
DNP,2007-04-09,33500.0
DNP,2007-04-10,32900.0
DNP,2007-04-11,32900.0
DNP,2007-04-12,32000.0
DNP,2007-04-13,30700.0
DNP,2007-04-16,29200.0
DNP,2007-04-17,27900.0
DNP,2007-04-18,29200.0
DNP,2007-04-19,29200.0
DNP,2007-04-20,27900.0
DNP,2007-04-23,27200.0
DNP,2007-04-24,27000.0
DNP,2007-04-25,27900.0
DNP,2007-05-02,27900.0
DNP,2007-05-03,27900.0
DNP,2007-05-04,27400.0
DNP,2007-05-07,28800.0
DNP,2007-05-08,30100.0
DNP,2007-05-09,30100.0
DNP,2007-05-10,28800.0
DNP,2007-05-11,30100.0
DNP,2007-05-14,31400.0
DNP,2007-05-15,32900.0
DNP,2007-05-16,31400.0
DNP,2007-05-17,32200.0
DNP,2007-05-18,33100.0
DNP,2007-05-21,34600.0
DNP,2007-05-22,36200.0
DNP,2007-05-23,37900.0
DNP,2007-05-24,36200.0
DNP,2007-05-25,37900.0
DNP,2007-05-28,36600.0
DNP,2007-05-29,35300.0
DNP,2007-05-30,35300.0
DNP,2007-05-31,36600.0
DNP,2007-06-01,36600.0
DNP,2007-06-04,36200.0
DNP,2007-06-05,34900.0
DNP,2007-06-06,35300.0
DNP,2007-06-07,35300.0
DNP,2007-06-08,35300.0
DNP,2007-06-11,35300.0
DNP,2007-06-12,35300.0
DNP,2007-06-13,34900.0
DNP,2007-06-14,34400.0
DNP,2007-06-15,34400.0
DNP,2007-06-18,34400.0
DNP,2007-06-19,34400.0
DNP,2007-06-20,34200.0
DNP,2007-06-21,33500.0
DNP,2007-06-22,33100.0
DNP,2007-06-25,33800.0
DNP,2007-06-26,33800.0
DNP,2007-06-27,33300.0
DNP,2007-06-28,32200.0
DNP,2007-06-29,32000.0
DNP,2007-07-02,30500.0
DNP,2007-07-03,29000.0
DNP,2007-07-04,30300.0
DNP,2007-07-05,30100.0
DNP,2007-07-06,29600.0
DNP,2007-07-09,29600.0
DNP,2007-07-10,30900.0
DNP,2007-07-11,32500.0
DNP,2007-07-12,31200.0
DNP,2007-07-13,32000.0
DNP,2007-07-16,30900.0
DNP,2007-07-17,31600.0
DNP,2007-07-18,31200.0
DNP,2007-07-19,30900.0
DNP,2007-07-20,31600.0
DNP,2007-07-23,31800.0
DNP,2007-07-24,31600.0
DNP,2007-07-25,31200.0
DNP,2007-07-26,30300.0
DNP,2007-07-27,30500.0
DNP,2007-07-30,29600.0
DNP,2007-07-31,28300.0
DNP,2007-08-01,29600.0
DNP,2007-08-02,28800.0
DNP,2007-08-03,28300.0
DNP,2007-08-06,28300.0
DNP,2007-08-07,28800.0
DNP,2007-08-08,29000.0
DNP,2007-08-09,29200.0
DNP,2007-08-10,29000.0
DNP,2007-08-13,28300.0
DNP,2007-08-14,28800.0
DNP,2007-08-15,28800.0
DNP,2007-08-16,29000.0
DNP,2007-08-17,28500.0
DNP,2007-08-20,28300.0
DNP,2007-08-21,28500.0
DNP,2007-08-22,28300.0
DNP,2007-08-23,28100.0
DNP,2007-08-24,28300.0
DNP,2007-08-27,28500.0
DNP,2007-08-28,28300.0
DNP,2007-08-29,28300.0
DNP,2007-08-30,28300.0
DNP,2007-08-31,29000.0
DNP,2007-09-04,30200.0
DNP,2007-09-05,31500.0
DNP,2007-09-06,30900.0
DNP,2007-09-07,30400.0
DNP,2007-09-10,30700.0
DNP,2007-09-11,31100.0
DNP,2007-09-12,30700.0
DNP,2007-09-13,30400.0
DNP,2007-09-14,30400.0
DNP,2007-09-17,30400.0
DNP,2007-09-18,30200.0
DNP,2007-09-19,30700.0
DNP,2007-09-20,30900.0
DNP,2007-09-21,30700.0
DNP,2007-09-24,31100.0
DNP,2007-09-25,32600.0
DNP,2007-09-26,32200.0
DNP,2007-09-27,32200.0
DNP,2007-09-28,32600.0
DNP,2007-10-01,34200.0
DNP,2007-10-02,33700.0
DNP,2007-10-03,34000.0
DNP,2007-10-04,34000.0
DNP,2007-10-05,34400.0
DNP,2007-10-08,34800.0
DNP,2007-10-09,34400.0
DNP,2007-10-10,35300.0
DNP,2007-10-11,36800.0
DNP,2007-10-12,36200.0
DNP,2007-10-15,37900.0
DNP,2007-10-16,37900.0
DNP,2007-10-17,38400.0
DNP,2007-10-18,37000.0
DNP,2007-10-19,37000.0
DNP,2007-10-22,36600.0
DNP,2007-10-23,35300.0
DNP,2007-10-24,37000.0
DNP,2007-10-25,38800.0
DNP,2007-10-26,39300.0
DNP,2007-10-29,37500.0
DNP,2007-10-30,37000.0
DNP,2007-10-31,36600.0
DNP,2007-11-01,37900.0
DNP,2007-11-02,37300.0
DNP,2007-11-05,37300.0
DNP,2007-11-06,37300.0
DNP,2007-11-07,39000.0
DNP,2007-11-08,39300.0
DNP,2007-11-09,38100.0
DNP,2007-11-12,37300.0
DNP,2007-11-13,36200.0
DNP,2007-11-14,37300.0
DNP,2007-11-15,35900.0
DNP,2007-11-16,36600.0
DNP,2007-11-19,37000.0
DNP,2007-11-20,35900.0
DNP,2007-11-21,35300.0
DNP,2007-11-22,36200.0
DNP,2007-11-23,35700.0
DNP,2007-11-26,34400.0
DNP,2007-11-27,34000.0
DNP,2007-11-28,34600.0
DNP,2007-11-29,34200.0
DNP,2007-11-30,33500.0
DNP,2007-12-03,34000.0
DNP,2007-12-04,33100.0
DNP,2007-12-05,33100.0
DNP,2007-12-06,32600.0
DNP,2007-12-07,34000.0
DNP,2007-12-10,33100.0
DNP,2007-12-11,32400.0
DNP,2007-12-12,32400.0
DNP,2007-12-13,31800.0
DNP,2007-12-14,31300.0
DNP,2007-12-17,31500.0
DNP,2007-12-18,31300.0
DNP,2007-12-19,31800.0
DNP,2007-12-20,31800.0
DNP,2007-12-21,30200.0
DNP,2007-12-24,29500.0
DNP,2007-12-25,29100.0
DNP,2007-12-26,30700.0
DNP,2007-12-27,30100.0
DNP,2007-12-28,30100.0
DNP,2008-01-02,29500.0
DNP,2008-01-03,28300.0
DNP,2008-01-04,26900.0
DNP,2008-01-07,25600.0
DNP,2008-01-08,25600.0
DNP,2008-01-09,24300.0
DNP,2008-01-10,23500.0
DNP,2008-01-11,24500.0
DNP,2008-01-14,23300.0
DNP,2008-01-15,22100.0
DNP,2008-01-16,23200.0
DNP,2008-01-17,23500.0
DNP,2008-01-18,23800.0
DNP,2008-01-21,23500.0
DNP,2008-01-22,22400.0
DNP,2008-01-23,21300.0
DNP,2008-01-24,20300.0
DNP,2008-01-25,20300.0
DNP,2008-01-28,21400.0
DNP,2008-01-29,22400.0
DNP,2008-01-30,23500.0
DNP,2008-01-31,23800.0
DNP,2008-02-01,24700.0
DNP,2008-02-12,24400.0
DNP,2008-02-13,23300.0
DNP,2008-02-14,23300.0
DNP,2008-02-15,22100.0
DNP,2008-02-18,21200.0
DNP,2008-02-19,21700.0
DNP,2008-02-20,20600.0
DNP,2008-02-21,19600.0
DNP,2008-02-22,20300.0
DNP,2008-02-25,20600.0
DNP,2008-02-26,19600.0
DNP,2008-02-27,20400.0
DNP,2008-02-28,19600.0
DNP,2008-02-29,18700.0
DNP,2008-03-03,17800.0
DNP,2008-03-04,16900.0
DNP,2008-03-05,16100.0
DNP,2008-03-06,16900.0
DNP,2008-03-07,17700.0
DNP,2008-03-10,18300.0
DNP,2008-03-11,17400.0
DNP,2008-03-12,16800.0
DNP,2008-03-13,17100.0
DNP,2008-03-14,17100.0
DNP,2008-03-17,16300.0
DNP,2008-03-18,15500.0
DNP,2008-03-19,15800.0
DNP,2008-03-20,15100.0
DNP,2008-03-21,14400.0
DNP,2008-03-24,13700.0
DNP,2008-03-25,13100.0
DNP,2008-03-26,12400.0
DNP,2008-03-27,12500.0
DNP,2008-03-28,12600.0
DNP,2008-03-31,12600.0
DNP,2008-04-01,12700.0
DNP,2008-04-02,12800.0
DNP,2008-04-03,12900.0
DNP,2008-04-04,13100.0
DNP,2008-04-07,13300.0
DNP,2008-04-08,13100.0
DNP,2008-04-09,12800.0
DNP,2008-04-10,12600.0
DNP,2008-04-11,12400.0
DNP,2008-04-16,12200.0
DNP,2008-04-17,12100.0
DNP,2008-04-18,11900.0
DNP,2008-04-21,11700.0
DNP,2008-04-22,11500.0
DNP,2008-04-23,11500.0
DNP,2008-04-24,11300.0
DNP,2008-04-25,11200.0
DNP,2008-04-28,11000.0
DNP,2008-04-29,10800.0
DNP,2008-05-05,10600.0
DNP,2008-05-06,10400.0
DNP,2008-05-07,10200.0
DNP,2008-05-08,10000.0
DNP,2008-05-09,9800.0
DNP,2008-05-12,9600.0
DNP,2008-05-13,9400.0
DNP,2008-05-14,9300.0
DNP,2008-05-15,9200.0
DNP,2008-05-16,9100.0
DNP,2008-05-19,8900.0
DNP,2008-05-20,8800.0
DNP,2008-05-21,8700.0
DNP,2008-05-22,8600.0
DNP,2008-05-23,8400.0
DNP,2008-05-26,8300.0
DNP,2008-05-30,8200.0
DNP,2008-06-02,8200.0
DNP,2008-06-03,8000.0
DNP,2008-06-04,7900.0
DNP,2008-06-05,7800.0
DNP,2008-06-06,7700.0
DNP,2008-06-09,7500.0
DNP,2008-06-10,7500.0
DNP,2008-06-11,7400.0
DNP,2008-06-12,7300.0
DNP,2008-06-13,7400.0
DNP,2008-06-16,7500.0
DNP,2008-06-17,7700.0
DNP,2008-06-18,7500.0
DNP,2008-06-19,7400.0
DNP,2008-06-20,7200.0
DNP,2008-06-23,7000.0
DNP,2008-06-24,6800.0
DNP,2008-06-25,6900.0
DNP,2008-06-26,6700.0
DNP,2008-06-27,6700.0
DNP,2008-06-30,6700.0
DNP,2008-07-01,6900.0
DNP,2008-07-02,7100.0
DNP,2008-07-03,7300.0
DNP,2008-07-04,7500.0
DNP,2008-07-07,7300.0
DNP,2008-07-08,7200.0
DNP,2008-07-09,7200.0
DNP,2008-07-10,7200.0
DNP,2008-07-11,7400.0
DNP,2008-07-14,7500.0
DNP,2008-07-15,7700.0
DNP,2008-07-16,7900.0
DNP,2008-07-17,8100.0
DNP,2008-07-18,7900.0
DNP,2008-07-21,7700.0
DNP,2008-07-22,7500.0
DNP,2008-07-23,7400.0
DNP,2008-07-24,7200.0
DNP,2008-07-25,7000.0
DNP,2008-07-28,6800.0
DNP,2008-07-29,6600.0
DNP,2008-07-30,6400.0
DNP,2008-07-31,6600.0
DNP,2008-08-01,6800.0
DNP,2008-08-04,7000.0
DNP,2008-08-05,6900.0
DNP,2008-08-06,7100.0
DNP,2008-08-07,7200.0
DNP,2008-08-08,7100.0
DNP,2008-08-11,7300.0
DNP,2008-08-12,7300.0
DNP,2008-08-13,7200.0
DNP,2008-08-14,7400.0
DNP,2008-08-15,7500.0
DNP,2008-08-18,7900.0
DNP,2008-08-19,8200.0
DNP,2008-08-20,8100.0
DNP,2008-08-21,8500.0
DNP,2008-08-22,8900.0
DNP,2008-08-25,9300.0
DNP,2008-08-26,9800.0
DNP,2008-08-27,10200.0
DNP,2008-08-28,9800.0
DNP,2008-08-29,10100.0
DNP,2008-09-03,10600.0
DNP,2008-09-04,11200.0
DNP,2008-09-05,11700.0
DNP,2008-09-08,11100.0
DNP,2008-09-09,10600.0
DNP,2008-09-10,10100.0
DNP,2008-09-11,9600.0
DNP,2008-09-12,9200.0
DNP,2008-09-15,8800.0
DNP,2008-09-16,8400.0
DNP,2008-09-17,8000.0
DNP,2008-09-18,7700.0
DNP,2008-09-19,8000.0
DNP,2008-09-22,8400.0
DNP,2008-09-23,8000.0
DNP,2008-09-24,8000.0
DNP,2008-09-25,8400.0
DNP,2008-09-26,8700.0
DNP,2008-09-29,8700.0
DNP,2008-09-30,8400.0
DNP,2008-10-01,8000.0
DNP,2008-10-02,8200.0
DNP,2008-10-03,8100.0
DNP,2008-10-06,7800.0
DNP,2008-10-07,7400.0
DNP,2008-10-08,7400.0
DNP,2008-10-09,7100.0
DNP,2008-10-10,6800.0
DNP,2008-10-13,6700.0
DNP,2008-10-14,7000.0
DNP,2008-10-15,7300.0
DNP,2008-10-16,7300.0
DNP,2008-10-17,7300.0
DNP,2008-10-20,7000.0
DNP,2008-10-21,7400.0
DNP,2008-10-22,7100.0
DNP,2008-10-23,6800.0
DNP,2008-10-24,6500.0
DNP,2008-10-27,6300.0
DNP,2008-10-28,6100.0
DNP,2008-10-29,6300.0
DNP,2008-10-30,6700.0
DNP,2008-10-31,6800.0
DNP,2008-11-03,6700.0
DNP,2008-11-04,7000.0
DNP,2008-11-05,7300.0
DNP,2008-11-06,7000.0
DNP,2008-11-07,6700.0
DNP,2008-11-10,6300.0
DNP,2008-11-11,6100.0
DNP,2008-11-12,6300.0
DNP,2008-11-13,6500.0
DNP,2008-11-14,6500.0
DNP,2008-11-17,6300.0
DNP,2008-11-18,6400.0
DNP,2008-11-19,6300.0
DNP,2008-11-20,6300.0
DNP,2008-11-21,6300.0
DNP,2008-11-24,6500.0
DNP,2008-11-25,6700.0
DNP,2008-11-26,7000.0
DNP,2008-11-27,7400.0
DNP,2008-11-28,7700.0
DNP,2008-12-01,8000.0
DNP,2008-12-02,7600.0
DNP,2008-12-03,7200.0
DNP,2008-12-04,7500.0
DNP,2008-12-05,7200.0
DNP,2008-12-08,6900.0
DNP,2008-12-09,6600.0
DNP,2008-12-10,6300.0
DNP,2008-12-11,6000.0
DNP,2008-12-12,6100.0
DNP,2008-12-15,6100.0
DNP,2008-12-16,6200.0
DNP,2008-12-17,6300.0
DNP,2008-12-18,6500.0
DNP,2008-12-19,6800.0
DNP,2008-12-22,7100.0
DNP,2008-12-23,6800.0
DNP,2008-12-24,6700.0
DNP,2008-12-25,6500.0
DNP,2008-12-26,6500.0
DNP,2008-12-29,6500.0
DNP,2008-12-30,6800.0
DNP,2008-12-31,6800.0
DNP,2009-01-02,6800.0
DNP,2009-01-05,6800.0
DNP,2009-01-06,7000.0
DNP,2009-01-07,7000.0
DNP,2009-01-08,6700.0
DNP,2009-01-09,6900.0
DNP,2009-01-12,6900.0
DNP,2009-01-13,6800.0
DNP,2009-01-14,6800.0
DNP,2009-01-15,6800.0
DNP,2009-01-16,6600.0
DNP,2009-01-19,6600.0
DNP,2009-01-20,6400.0
DNP,2009-01-21,6500.0
DNP,2009-01-22,6700.0
DNP,2009-01-23,6800.0
DNP,2009-02-02,6500.0
DNP,2009-02-03,6300.0
DNP,2009-02-04,6500.0
DNP,2009-02-05,6300.0
DNP,2009-02-06,6500.0
DNP,2009-02-09,6400.0
DNP,2009-02-10,6500.0
DNP,2009-02-11,6500.0
DNP,2009-02-12,6500.0
DNP,2009-02-13,6500.0
DNP,2009-02-16,6500.0
DNP,2009-02-17,6500.0
DNP,2009-02-18,6200.0
DNP,2009-02-19,6100.0
DNP,2009-02-20,5800.0
DNP,2009-02-23,5500.0
DNP,2009-02-24,5300.0
DNP,2009-02-25,5500.0
DNP,2009-02-26,5500.0
DNP,2009-02-27,5500.0
DNP,2009-03-02,5600.0
DNP,2009-03-03,5400.0
DNP,2009-03-04,5600.0
DNP,2009-03-05,5600.0
DNP,2009-03-06,5800.0
DNP,2009-03-09,6000.0
DNP,2009-03-10,6300.0
DNP,2009-03-11,6500.0
DNP,2009-03-12,6500.0
DNP,2009-03-13,6500.0
DNP,2009-03-16,6500.0
DNP,2009-03-17,6500.0
DNP,2009-03-18,6800.0
DNP,2009-03-19,6500.0
DNP,2009-03-20,6300.0
DNP,2009-03-23,6500.0
DNP,2009-03-24,6700.0
DNP,2009-03-25,6700.0
DNP,2009-03-26,6700.0
DNP,2009-03-27,6500.0
DNP,2009-03-30,6400.0
DNP,2009-03-31,6600.0
DNP,2009-04-01,6900.0
DNP,2009-04-02,7200.0
DNP,2009-04-03,7500.0
DNP,2009-04-07,7500.0
DNP,2009-04-08,7100.0
DNP,2009-04-09,7100.0
DNP,2009-04-10,7300.0
DNP,2009-04-13,7700.0
DNP,2009-04-14,8000.0
DNP,2009-04-15,7900.0
DNP,2009-04-16,7900.0
DNP,2009-04-17,7500.0
DNP,2009-04-20,7300.0
DNP,2009-04-21,7300.0
DNP,2009-04-22,7400.0
DNP,2009-04-23,7400.0
DNP,2009-04-24,7500.0
DNP,2009-04-27,7600.0
DNP,2009-04-28,7700.0
DNP,2009-04-29,7900.0
DNP,2009-05-04,8200.0
DNP,2009-05-05,8600.0
DNP,2009-05-06,8500.0
DNP,2009-05-07,8900.0
DNP,2009-05-08,8900.0
DNP,2009-05-11,9400.0
DNP,2009-05-12,9800.0
DNP,2009-05-13,10300.0
DNP,2009-05-14,10800.0
DNP,2009-05-15,11300.0
DNP,2009-05-18,11800.0
DNP,2009-05-19,12400.0
DNP,2009-05-20,12800.0
DNP,2009-05-21,12200.0
DNP,2009-05-22,11600.0
DNP,2009-05-25,12200.0
DNP,2009-05-26,12000.0
DNP,2009-05-27,11400.0
DNP,2009-05-28,10900.0
DNP,2009-05-29,11100.0
DNP,2009-06-01,11600.0
DNP,2009-06-02,12100.0
DNP,2009-06-03,12000.0
DNP,2009-06-04,12200.0
DNP,2009-06-05,12800.0
DNP,2009-06-08,13400.0
DNP,2009-06-09,14000.0
DNP,2009-06-10,13400.0
DNP,2009-06-11,13700.0
DNP,2009-06-12,14400.0
DNP,2009-06-15,15100.0
DNP,2009-06-16,14300.0
DNP,2009-06-17,15000.0
DNP,2009-06-29,13500.0
DNP,2009-06-30,12600.0
DNP,2009-07-01,11700.0
DNP,2009-07-02,11400.0
DNP,2009-07-03,10900.0
DNP,2009-07-06,11400.0
DNP,2009-07-07,12000.0
DNP,2009-07-08,11900.0
DNP,2009-07-09,11500.0
DNP,2009-07-10,11100.0
DNP,2009-07-13,10800.0
DNP,2009-07-14,10300.0
DNP,2009-07-15,10800.0
DNP,2009-07-16,11100.0
DNP,2009-07-17,10900.0
DNP,2009-07-20,10200.0
DNP,2009-07-21,10400.0
DNP,2009-07-22,10400.0
DNP,2009-07-23,11200.0
DNP,2009-07-24,11600.0
DNP,2009-07-27,12400.0
DNP,2009-07-28,12500.0
DNP,2009-07-29,12300.0
DNP,2009-07-30,12100.0
DNP,2009-07-31,11800.0
DNP,2009-08-03,11600.0
DNP,2009-08-04,11600.0
DNP,2009-08-05,11600.0
DNP,2009-08-06,11600.0
DNP,2009-08-07,11300.0
DNP,2009-08-10,11800.0
DNP,2009-08-11,12000.0
DNP,2009-08-12,12600.0
DNP,2009-08-13,12900.0
DNP,2009-08-14,13700.0
DNP,2009-08-17,12800.0
DNP,2009-08-18,12400.0
DNP,2009-08-19,12900.0
DNP,2009-08-20,12900.0
DNP,2009-08-21,12900.0
DNP,2009-08-24,13700.0
DNP,2009-08-25,13100.0
DNP,2009-08-26,13100.0
DNP,2009-08-27,12900.0
DNP,2009-08-28,13600.0
DNP,2009-08-31,13800.0
DNP,2009-09-01,13700.0
DNP,2009-09-03,14700.0
DNP,2009-09-04,14700.0
DNP,2009-09-07,14300.0
DNP,2009-09-08,14900.0
DNP,2009-09-09,15100.0
DNP,2009-09-10,15000.0
DNP,2009-09-11,15100.0
DNP,2009-09-14,15000.0
DNP,2009-09-15,14400.0
DNP,2009-09-16,14200.0
DNP,2009-09-17,14400.0
DNP,2009-09-18,15100.0
DNP,2009-09-21,15700.0
DNP,2009-09-22,16200.0
DNP,2009-09-23,15600.0
DNP,2009-09-24,15300.0
DNP,2009-09-25,15300.0
DNP,2009-09-28,15800.0
DNP,2009-09-29,16600.0
DNP,2009-09-30,17700.0
DNP,2009-10-01,18600.0
DNP,2009-10-02,17700.0
DNP,2009-10-05,17200.0
DNP,2009-10-06,17600.0
DNP,2009-10-07,18500.0
DNP,2009-10-08,19400.0
DNP,2009-10-09,20800.0
DNP,2009-10-12,22200.0
DNP,2009-10-13,21100.0
DNP,2009-10-14,21200.0
DNP,2009-10-15,22300.0
DNP,2009-10-16,21200.0
DNP,2009-10-19,21500.0
DNP,2009-10-20,22400.0
DNP,2009-10-21,21700.0
DNP,2009-10-22,22100.0
DNP,2009-10-23,23000.0
DNP,2009-10-26,22400.0
DNP,2009-10-27,21500.0
DNP,2009-10-28,22900.0
DNP,2009-10-29,23800.0
DNP,2009-10-30,25300.0
DNP,2009-11-02,23800.0
DNP,2009-11-03,22400.0
DNP,2009-11-04,22900.0
DNP,2009-11-05,23500.0
DNP,2009-11-06,22100.0
DNP,2009-11-09,21400.0
DNP,2009-11-10,20100.0
DNP,2009-11-11,21200.0
DNP,2009-11-12,20900.0
DNP,2009-11-13,20900.0
DNP,2009-11-16,20100.0
DNP,2009-11-17,20300.0
DNP,2009-11-18,21200.0
DNP,2009-11-19,21400.0
DNP,2009-11-20,21100.0
DNP,2009-11-23,19800.0
DNP,2009-11-24,19100.0
DNP,2009-11-25,17900.0
DNP,2009-11-26,16800.0
DNP,2009-11-27,16300.0
DNP,2009-11-30,17300.0
DNP,2009-12-01,17900.0
DNP,2009-12-02,16800.0
DNP,2009-12-03,16800.0
DNP,2009-12-04,16200.0
DNP,2009-12-07,16400.0
DNP,2009-12-08,15600.0
DNP,2009-12-09,14500.0
DNP,2009-12-10,14000.0
DNP,2009-12-11,13000.0
DNP,2009-12-14,13800.0
DNP,2009-12-15,13300.0
DNP,2009-12-16,12500.0
DNP,2009-12-17,12400.0
DNP,2009-12-18,12700.0
DNP,2009-12-21,13500.0
DNP,2009-12-22,14200.0
DNP,2009-12-23,15300.0
DNP,2009-12-24,15800.0
DNP,2009-12-25,16600.0
DNP,2009-12-28,16800.0
DNP,2009-12-29,16000.0
DNP,2009-12-30,17400.0
DNP,2009-12-31,17500.0
DNP,2010-01-04,18800.0
DNP,2010-01-05,19600.0
DNP,2010-01-06,18600.0
DNP,2010-01-07,18500.0
DNP,2010-01-08,18300.0
DNP,2010-01-11,17600.0
DNP,2010-01-12,16600.0
DNP,2010-01-13,17100.0
DNP,2010-01-14,17600.0
DNP,2010-01-15,16700.0
DNP,2010-01-18,16200.0
DNP,2010-01-19,16600.0
DNP,2010-01-20,15500.0
DNP,2010-01-21,14600.0
DNP,2010-01-22,14700.0
DNP,2010-01-25,14800.0
DNP,2010-01-26,15800.0
DNP,2010-01-27,14700.0
DNP,2010-01-28,14700.0
DNP,2010-01-29,14700.0
DNP,2010-02-01,14700.0
DNP,2010-02-02,14700.0
DNP,2010-02-03,14800.0
DNP,2010-02-04,15400.0
DNP,2010-02-05,14700.0
DNP,2010-02-08,14400.0
DNP,2010-02-09,14200.0
DNP,2010-02-10,14700.0
DNP,2010-02-11,14700.0
DNP,2010-02-12,15100.0
DNP,2010-02-22,15100.0
DNP,2010-02-23,14300.0
DNP,2010-02-24,15100.0
DNP,2010-02-25,14900.0
DNP,2010-02-26,15000.0
DNP,2010-03-01,15000.0
DNP,2010-03-02,15200.0
DNP,2010-03-03,16000.0
DNP,2010-03-04,16600.0
DNP,2010-03-05,17700.0
DNP,2010-03-08,18500.0
DNP,2010-03-09,17500.0
DNP,2010-03-10,17100.0
DNP,2010-03-11,17200.0
DNP,2010-03-12,17800.0
DNP,2010-03-15,18900.0
DNP,2010-03-16,17800.0
DNP,2010-03-17,17500.0
DNP,2010-03-18,17800.0
DNP,2010-03-19,17400.0
DNP,2010-03-22,16800.0
DNP,2010-03-23,16300.0
DNP,2010-03-24,17000.0
DNP,2010-03-25,16100.0
DNP,2010-03-26,16200.0
DNP,2010-03-29,16400.0
DNP,2010-03-30,15900.0
DNP,2010-03-31,15500.0
DNP,2010-04-01,16000.0
DNP,2010-04-02,16000.0
DNP,2010-04-05,16300.0
DNP,2010-04-06,16200.0
DNP,2010-04-07,17100.0
DNP,2010-04-08,18000.0
DNP,2010-04-09,17500.0
DNP,2010-04-12,17300.0
DNP,2010-04-13,16800.0
DNP,2010-04-14,17000.0
DNP,2010-04-15,17200.0
DNP,2010-04-16,17100.0
DNP,2010-04-19,16800.0
DNP,2010-04-20,17900.0
DNP,2010-04-21,18100.0
DNP,2010-04-22,17500.0
DNP,2010-04-26,17800.0
DNP,2010-04-27,18100.0
DNP,2010-04-28,19200.0
DNP,2010-04-29,19900.0
DNP,2010-05-04,20600.0
DNP,2010-05-05,19600.0
DNP,2010-05-06,20500.0
DNP,2010-05-07,18900.0
DNP,2010-05-10,17700.0
DNP,2010-05-11,17800.0
DNP,2010-05-12,16800.0
DNP,2010-05-13,17700.0
DNP,2010-05-14,17500.0
DNP,2010-05-17,16700.0
DNP,2010-05-18,16800.0
DNP,2010-05-19,16100.0
DNP,2010-05-20,16100.0
DNP,2010-05-21,15100.0
DNP,2010-05-24,15500.0
DNP,2010-05-25,15400.0
DNP,2010-05-26,16300.0
DNP,2010-05-27,15700.0
DNP,2010-05-28,16800.0
DNP,2010-05-31,16100.0
DNP,2010-06-01,16100.0
DNP,2010-06-02,16300.0
DNP,2010-06-03,17100.0
DNP,2010-06-04,17100.0
DNP,2010-06-07,16000.0
DNP,2010-06-08,16300.0
DNP,2010-06-09,16100.0
DNP,2010-06-10,16300.0
DNP,2010-06-11,16200.0
DNP,2010-06-14,16100.0
DNP,2010-06-15,16100.0
DNP,2010-06-16,16100.0
DNP,2010-06-17,16000.0
DNP,2010-06-18,17100.0
DNP,2010-06-21,17600.0
DNP,2010-06-22,16600.0
DNP,2010-06-23,16100.0
DNP,2010-06-24,16300.0
DNP,2010-06-25,16300.0
DNP,2010-06-28,16300.0
DNP,2010-06-29,16600.0
DNP,2010-06-30,16000.0
DNP,2010-07-01,16500.0
DNP,2010-07-02,16100.0
DNP,2010-07-05,16200.0
DNP,2010-07-06,15900.0
DNP,2010-07-07,15800.0
DNP,2010-07-08,15800.0
DNP,2010-07-09,15900.0
DNP,2010-07-12,16000.0
DNP,2010-07-13,16900.0
DNP,2010-07-14,16600.0
DNP,2010-07-15,18100.0
DNP,2010-07-16,19200.0
DNP,2010-07-19,20600.0
DNP,2010-07-20,21700.0
DNP,2010-07-21,20100.0
DNP,2010-07-22,20200.0
DNP,2010-07-23,20500.0
DNP,2010-07-26,19000.0
DNP,2010-07-27,19300.0
DNP,2010-07-28,17100.0
DNP,2010-07-29,18400.0
DNP,2010-07-30,19400.0
DNP,2010-08-02,18200.0
DNP,2010-08-03,17800.0
DNP,2010-08-04,17200.0
DNP,2010-08-05,17800.0
DNP,2010-08-06,17100.0
DNP,2010-08-09,16200.0
DNP,2010-08-10,16300.0
DNP,2010-08-11,16900.0
DNP,2010-08-12,15600.0
DNP,2010-08-13,16300.0
DNP,2010-08-16,16800.0
DNP,2010-08-17,16000.0
DNP,2010-08-18,15300.0
DNP,2010-08-19,15200.0
DNP,2010-08-20,15400.0
DNP,2010-08-23,14900.0
DNP,2010-08-24,14000.0
DNP,2010-08-25,13200.0
DNP,2010-08-26,13600.0
DNP,2010-08-27,13400.0
DNP,2010-08-30,14400.0
DNP,2010-08-31,15100.0
DNP,2010-09-01,15200.0
DNP,2010-09-06,16000.0
DNP,2010-09-07,15500.0
DNP,2010-09-08,14700.0
DNP,2010-09-09,15900.0
DNP,2010-09-10,14500.0
DNP,2010-09-13,13900.0
DNP,2010-09-14,14400.0
DNP,2010-09-15,14100.0
DNP,2010-09-16,14000.0
DNP,2010-09-17,14700.0
DNP,2010-09-20,14700.0
DNP,2010-09-21,14400.0
DNP,2010-09-22,14400.0
DNP,2010-09-23,14200.0
DNP,2010-09-24,14000.0
DNP,2010-09-27,14000.0
DNP,2010-09-28,14100.0
DNP,2010-09-29,14000.0
DNP,2010-09-30,14100.0
DNP,2010-10-01,13600.0
DNP,2010-10-04,12900.0
DNP,2010-10-05,13300.0
DNP,2010-10-06,13600.0
DNP,2010-10-07,13200.0
DNP,2010-10-08,13000.0
DNP,2010-10-11,12900.0
DNP,2010-10-12,12600.0
DNP,2010-10-13,12800.0
DNP,2010-10-14,13100.0
DNP,2010-10-15,12900.0
DNP,2010-10-18,12800.0
DNP,2010-10-19,12400.0
DNP,2010-10-20,11700.0
DNP,2010-10-21,11600.0
DNP,2010-10-22,11500.0
DNP,2010-10-25,12200.0
DNP,2010-10-26,12100.0
DNP,2010-10-27,11700.0
DNP,2010-10-28,12000.0
DNP,2010-10-29,11900.0
DNP,2010-11-01,11500.0
DNP,2010-11-02,11300.0
DNP,2010-11-03,11100.0
DNP,2010-11-04,11300.0
DNP,2010-11-05,11800.0
DNP,2010-11-08,11600.0
DNP,2010-11-09,11000.0
DNP,2010-11-10,10900.0
DNP,2010-11-11,10500.0
DNP,2010-11-12,9900.0
DNP,2010-11-15,9700.0
DNP,2010-11-16,9500.0
DNP,2010-11-17,9900.0
DNP,2010-11-18,10700.0
DNP,2010-11-19,10500.0
DNP,2010-11-22,10000.0
DNP,2010-11-23,10200.0
DNP,2010-11-24,10200.0
DNP,2010-11-25,10900.0
DNP,2010-11-26,10600.0
DNP,2010-11-29,11200.0
DNP,2010-11-30,11600.0
DNP,2010-12-01,10900.0
DNP,2010-12-02,11300.0
DNP,2010-12-03,11700.0
DNP,2010-12-06,12400.0
DNP,2010-12-07,13000.0
DNP,2010-12-08,12200.0
DNP,2010-12-09,12400.0
DNP,2010-12-10,13000.0
DNP,2010-12-13,13700.0
DNP,2010-12-14,12600.0
DNP,2010-12-15,12300.0
DNP,2010-12-16,12000.0
DNP,2010-12-17,12300.0
DNP,2010-12-20,11700.0
DNP,2010-12-21,11500.0
DNP,2010-12-22,11400.0
DNP,2010-12-23,11500.0
DNP,2010-12-24,11200.0
DNP,2010-12-27,11200.0
DNP,2010-12-28,11900.0
DNP,2010-12-29,11400.0
DNP,2010-12-30,11200.0
DNP,2010-12-31,12000.0
DNP,2011-01-04,11400.0
DNP,2011-01-05,11800.0
DNP,2011-01-06,11600.0
DNP,2011-01-07,11100.0
DNP,2011-01-10,10700.0
DNP,2011-01-11,10500.0
DNP,2011-01-12,11000.0
DNP,2011-01-13,10900.0
DNP,2011-01-14,11100.0
DNP,2011-01-17,11100.0
DNP,2011-01-18,10900.0
DNP,2011-01-19,10800.0
DNP,2011-01-20,10800.0
DNP,2011-01-21,10600.0
DNP,2011-01-24,10400.0
DNP,2011-01-25,10500.0
DNP,2011-01-26,10900.0
DNP,2011-01-27,11400.0
DNP,2011-01-28,11300.0
DNP,2011-02-08,11200.0
DNP,2011-02-09,11300.0
DNP,2011-02-10,11300.0
DNP,2011-02-11,11500.0
DNP,2011-02-14,11200.0
DNP,2011-02-15,10800.0
DNP,2011-02-16,10900.0
DNP,2011-02-17,11100.0
DNP,2011-02-18,10500.0
DNP,2011-02-21,9700.0
DNP,2011-02-22,9100.0
DNP,2011-02-23,9500.0
DNP,2011-02-24,9200.0
DNP,2011-02-25,9500.0
DNP,2011-02-28,9500.0
DNP,2011-03-01,9200.0
DNP,2011-03-02,8800.0
DNP,2011-03-03,8800.0
DNP,2011-03-04,8800.0
DNP,2011-03-07,8700.0
DNP,2011-03-08,8600.0
DNP,2011-03-09,8500.0
DNP,2011-03-10,9200.0
DNP,2011-03-11,9300.0
DNP,2011-03-14,8700.0
DNP,2011-03-15,9200.0
DNP,2011-03-16,8800.0
DNP,2011-03-17,8700.0
DNP,2011-03-18,9100.0
DNP,2011-03-21,8700.0
DNP,2011-03-22,8700.0
DNP,2011-03-23,8600.0
DNP,2011-03-24,8700.0
DNP,2011-03-25,8700.0
DNP,2011-03-28,8700.0
DNP,2011-03-29,8700.0
DNP,2011-03-30,8600.0
DNP,2011-03-31,8500.0
DNP,2011-04-01,8700.0
DNP,2011-04-04,8500.0
DNP,2011-04-05,8200.0
DNP,2011-04-06,8200.0
DNP,2011-04-07,8200.0
DNP,2011-04-08,8300.0
DNP,2011-04-13,8300.0
DNP,2011-04-14,7900.0
DNP,2011-04-15,7900.0
DNP,2011-04-18,7700.0
DNP,2011-04-19,7500.0
DNP,2011-04-20,7600.0
DNP,2011-04-21,7800.0
DNP,2011-04-22,7800.0
DNP,2011-04-25,7800.0
DNP,2011-04-26,7400.0
DNP,2011-04-27,7300.0
DNP,2011-04-28,7400.0
DNP,2011-04-29,7500.0
DNP,2011-05-04,7500.0
DNP,2011-05-05,7500.0
DNP,2011-05-06,7200.0
DNP,2011-05-09,7400.0
DNP,2011-05-10,7400.0
DNP,2011-05-11,7100.0
DNP,2011-05-12,7300.0
DNP,2011-05-13,7400.0
DNP,2011-05-16,7300.0
DNP,2011-05-17,7000.0
DNP,2011-05-18,7000.0
DNP,2011-05-19,6900.0
DNP,2011-05-20,6800.0
DNP,2011-05-23,6400.0
DNP,2011-05-24,6300.0
DNP,2011-05-25,5900.0
DNP,2011-05-26,6200.0
DNP,2011-05-27,6400.0
DNP,2011-05-30,6500.0
DNP,2011-05-31,6600.0
DNP,2011-06-01,6900.0
DNP,2011-06-02,7200.0
DNP,2011-06-03,6700.0
DNP,2011-06-06,7000.0
DNP,2011-06-07,7300.0
DNP,2011-06-08,7100.0
DNP,2011-06-09,7100.0
DNP,2011-06-10,7300.0
DNP,2011-06-13,7700.0
DNP,2011-06-14,7400.0
DNP,2011-06-15,7100.0
DNP,2011-06-16,7000.0
DNP,2011-06-17,6800.0
DNP,2011-06-20,6600.0
DNP,2011-06-21,7000.0
DNP,2011-06-22,6900.0
DNP,2011-06-23,6900.0
DNP,2011-06-24,6700.0
DNP,2011-06-27,7100.0
DNP,2011-06-28,7100.0
DNP,2011-06-29,7000.0
DNP,2011-06-30,6500.0
DNP,2011-07-01,6800.0
DNP,2011-07-04,6700.0
DNP,2011-07-05,7100.0
DNP,2011-07-06,7000.0
DNP,2011-07-07,7000.0
DNP,2011-07-08,6700.0
DNP,2011-07-11,6800.0
DNP,2011-07-12,6500.0
DNP,2011-07-13,6500.0
DNP,2011-07-14,6500.0
DNP,2011-07-15,6500.0
DNP,2011-07-18,6500.0
DNP,2011-07-19,6400.0
DNP,2011-07-20,6600.0
DNP,2011-07-21,6600.0
DNP,2011-07-22,6500.0
DNP,2011-07-25,6400.0
DNP,2011-07-26,6800.0
DNP,2011-07-27,6300.0
DNP,2011-07-28,6400.0
DNP,2011-07-29,6400.0
DNP,2011-08-01,6600.0
DNP,2011-08-02,6400.0
DNP,2011-08-03,6300.0
DNP,2011-08-04,6500.0
DNP,2011-08-05,6700.0
DNP,2011-08-08,6400.0
DNP,2011-08-09,6200.0
DNP,2011-08-10,6200.0
DNP,2011-08-11,6100.0
DNP,2011-08-12,6200.0
DNP,2011-08-15,6500.0
DNP,2011-08-16,6500.0
DNP,2011-08-17,6800.0
DNP,2011-08-18,6500.0
DNP,2011-08-19,6300.0
DNP,2011-08-22,6700.0
DNP,2011-08-23,6300.0
DNP,2011-08-24,6400.0
DNP,2011-08-25,6400.0
DNP,2011-08-26,6400.0
DNP,2011-08-29,6700.0
DNP,2011-08-30,6700.0
DNP,2011-08-31,6900.0
DNP,2011-09-01,7000.0
DNP,2011-09-05,7000.0
DNP,2011-09-06,6600.0
DNP,2011-09-07,6900.0
DNP,2011-09-08,7100.0
DNP,2011-09-09,7000.0
DNP,2011-09-12,7200.0
DNP,2011-09-13,7600.0
DNP,2011-09-14,7400.0
DNP,2011-09-15,7300.0
DNP,2011-09-16,7100.0
DNP,2011-09-19,7200.0
DNP,2011-09-20,7500.0
DNP,2011-09-21,7100.0
DNP,2011-09-22,7600.0
DNP,2011-09-23,7500.0
DNP,2011-09-26,7600.0
DNP,2011-09-27,7700.0
DNP,2011-09-28,7600.0
DNP,2011-09-29,7600.0
DNP,2011-09-30,7700.0
DNP,2011-10-03,7800.0
DNP,2011-10-04,7900.0
DNP,2011-10-05,8400.0
DNP,2011-10-06,8900.0
DNP,2011-10-07,9400.0
DNP,2011-10-10,9200.0
DNP,2011-10-11,9200.0
DNP,2011-10-12,9200.0
DNP,2011-10-13,9900.0
DNP,2011-10-14,9900.0
DNP,2011-10-17,10100.0
DNP,2011-10-18,10000.0
DNP,2011-10-19,10700.0
DNP,2011-10-20,11300.0
DNP,2011-10-21,11500.0
DNP,2011-10-24,11600.0
DNP,2011-10-25,11900.0
DNP,2011-10-26,12200.0
DNP,2011-10-27,12500.0
DNP,2011-10-28,11700.0
DNP,2011-10-31,11000.0
DNP,2011-11-01,10700.0
DNP,2011-11-02,10100.0
DNP,2011-11-03,9900.0
DNP,2011-11-04,9800.0
DNP,2011-11-07,9700.0
DNP,2011-11-08,9800.0
DNP,2011-11-09,10000.0
DNP,2011-11-10,9700.0
DNP,2011-11-11,10000.0
DNP,2011-11-14,9700.0
DNP,2011-11-15,10100.0
DNP,2011-11-16,10500.0
DNP,2011-11-17,10600.0
DNP,2011-11-18,10000.0
DNP,2011-11-21,10500.0
DNP,2011-11-22,11200.0
DNP,2011-11-23,11700.0
DNP,2011-11-24,12400.0
DNP,2011-11-25,12900.0
DNP,2011-11-28,13200.0
DNP,2011-11-29,13200.0
DNP,2011-11-30,13800.0
DNP,2011-12-01,14000.0
DNP,2011-12-02,15000.0
DNP,2011-12-05,15000.0
DNP,2011-12-06,15100.0
DNP,2011-12-07,15000.0
DNP,2011-12-08,15200.0
DNP,2011-12-09,15400.0
DNP,2011-12-12,15900.0
DNP,2011-12-13,16700.0
DNP,2011-12-14,17500.0
DNP,2011-12-15,18500.0
DNP,2011-12-16,18700.0
DNP,2011-12-19,18900.0
DNP,2011-12-20,18500.0
DNP,2011-12-21,18500.0
DNP,2011-12-22,17600.0
DNP,2011-12-23,18400.0
DNP,2011-12-26,17600.0
DNP,2011-12-27,16800.0
DNP,2011-12-28,16100.0
DNP,2011-12-29,16300.0
DNP,2011-12-30,16300.0
DNP,2012-01-03,16300.0
DNP,2012-01-04,16400.0
DNP,2012-01-05,16700.0
DNP,2012-01-06,17900.0
DNP,2012-01-09,18900.0
DNP,2012-01-10,19600.0
DNP,2012-01-11,20000.0
DNP,2012-01-12,20300.0
DNP,2012-01-13,19400.0
DNP,2012-01-16,18500.0
DNP,2012-01-17,17400.0
DNP,2012-01-18,16600.0
DNP,2012-01-19,15700.0
DNP,2012-01-20,16800.0
DNP,2012-01-30,15900.0
DNP,2012-01-31,16200.0
DNP,2012-02-01,16100.0
DNP,2012-02-02,16600.0
DNP,2012-02-03,16600.0
DNP,2012-02-06,15900.0
DNP,2012-02-07,15700.0
DNP,2012-02-08,16400.0
DNP,2012-02-09,16200.0
DNP,2012-02-10,16000.0
DNP,2012-02-13,16400.0
DNP,2012-02-14,16100.0
DNP,2012-02-15,16500.0
DNP,2012-02-16,17500.0
DNP,2012-02-17,18500.0
DNP,2012-02-20,19100.0
DNP,2012-02-21,19300.0
DNP,2012-02-22,20800.0
DNP,2012-02-23,19600.0
DNP,2012-02-24,18500.0
DNP,2012-02-27,17700.0
DNP,2012-02-28,16800.0
DNP,2012-02-29,16800.0
DNP,2012-03-01,16700.0
DNP,2012-03-02,16800.0
DNP,2012-03-05,17900.0
DNP,2012-03-06,19100.0
DNP,2012-03-07,17800.0
DNP,2012-03-08,16700.0
DNP,2012-03-09,16700.0
DNP,2012-03-12,15700.0
DNP,2012-03-13,15500.0
DNP,2012-03-14,14700.0
DNP,2012-03-15,15500.0
DNP,2012-03-16,15100.0
DNP,2012-03-19,15700.0
DNP,2012-03-20,15700.0
DNP,2012-03-21,16800.0
DNP,2012-03-22,16100.0
DNP,2012-03-23,15500.0
DNP,2012-03-26,16200.0
DNP,2012-03-27,15700.0
DNP,2012-03-28,15700.0
DNP,2012-03-29,15300.0
DNP,2012-03-30,16200.0
DNP,2012-04-03,16300.0
DNP,2012-04-04,16500.0
DNP,2012-04-05,16400.0
DNP,2012-04-06,16400.0
DNP,2012-04-09,16400.0
DNP,2012-04-10,16400.0
DNP,2012-04-11,16500.0
DNP,2012-04-12,16500.0
DNP,2012-04-13,16500.0
DNP,2012-04-16,17600.0
DNP,2012-04-17,18700.0
DNP,2012-04-18,20000.0
DNP,2012-04-19,21400.0
DNP,2012-04-20,19900.0
DNP,2012-04-23,20000.0
DNP,2012-04-24,20300.0
DNP,2012-04-25,20500.0
DNP,2012-04-26,20700.0
DNP,2012-04-27,20700.0
DNP,2012-05-02,20800.0
DNP,2012-05-03,20600.0
DNP,2012-05-04,20900.0
DNP,2012-05-07,20900.0
DNP,2012-05-08,20900.0
DNP,2012-05-09,20900.0
DNP,2012-05-10,20000.0
DNP,2012-05-11,20900.0
DNP,2012-05-14,20000.0
DNP,2012-05-15,20000.0
DNP,2012-05-16,20000.0
DNP,2012-05-17,19100.0
DNP,2012-05-18,18700.0
DNP,2012-05-21,17700.0
DNP,2012-05-22,16700.0
DNP,2012-05-23,16700.0
DNP,2012-05-24,16700.0
DNP,2012-05-25,16400.0
DNP,2012-05-28,16400.0
DNP,2012-05-29,16400.0
DNP,2012-05-30,16400.0
DNP,2012-05-31,16400.0
DNP,2012-06-01,16400.0
DNP,2012-06-04,16400.0
DNP,2012-06-05,16400.0
DNP,2012-06-06,16400.0
DNP,2012-06-07,16400.0
DNP,2012-06-08,16400.0
DNP,2012-06-11,16400.0
DNP,2012-06-12,16400.0
DNP,2012-06-13,16400.0
DNP,2012-06-14,16400.0
DNP,2012-06-15,16400.0
DNP,2012-06-18,16200.0
DNP,2012-06-19,16200.0
DNP,2012-06-20,15400.0
DNP,2012-06-21,14400.0
DNP,2012-06-22,13500.0
DNP,2012-06-25,13500.0
DNP,2012-06-26,12600.0
DNP,2012-06-27,12600.0
DNP,2012-06-28,12600.0
DNP,2012-06-29,12600.0
DNP,2012-07-02,11700.0
DNP,2012-07-03,11000.0
DNP,2012-07-04,11600.0
DNP,2012-07-05,11600.0
DNP,2012-07-06,12300.0
DNP,2012-07-09,12300.0
DNP,2012-07-10,12300.0
DNP,2012-07-11,12300.0
DNP,2012-07-12,12300.0
DNP,2012-07-13,12300.0
DNP,2012-07-16,12300.0
DNP,2012-07-17,13100.0
DNP,2012-07-18,13100.0
DNP,2012-07-19,13100.0
DNP,2012-07-20,12500.0
DNP,2012-07-23,12500.0
DNP,2012-07-24,12500.0
DNP,2012-07-25,12500.0
DNP,2012-07-26,12500.0
DNP,2012-07-27,12500.0
DNP,2012-07-30,11700.0
DNP,2012-07-31,11700.0
DNP,2012-08-01,11700.0
DNP,2012-08-02,11700.0
DNP,2012-08-03,11700.0
DNP,2012-08-06,11700.0
DNP,2012-08-07,11700.0
DNP,2012-08-08,11700.0
DNP,2012-08-09,11700.0
DNP,2012-08-10,11700.0
DNP,2012-08-13,11700.0
DNP,2012-08-14,11700.0
DNP,2012-08-15,11700.0
DNP,2012-08-16,12400.0
DNP,2012-08-17,12700.0
DNP,2012-08-20,12700.0
DNP,2012-08-21,12700.0
DNP,2012-08-22,12500.0
DNP,2012-08-23,12500.0
DNP,2012-08-24,12000.0
DNP,2012-08-27,12500.0
DNP,2012-08-28,12500.0
DNP,2012-08-29,12500.0
DNP,2012-08-30,12500.0
DNP,2012-08-31,12500.0
DNP,2012-09-04,12500.0
DNP,2012-09-05,12500.0
DNP,2012-09-06,12500.0
DNP,2012-09-07,12500.0
DNP,2012-09-10,12500.0
DNP,2012-09-11,12500.0
DNP,2012-09-12,12500.0
DNP,2012-09-13,12500.0
DNP,2012-09-14,12500.0
DNP,2012-09-17,12500.0
DNP,2012-09-18,12500.0
DNP,2012-09-19,12500.0
DNP,2012-09-20,12500.0
DNP,2012-09-21,12500.0
DNP,2012-09-24,12500.0
DNP,2012-09-25,12500.0
DNP,2012-09-26,12500.0
DNP,2012-09-27,12500.0
DNP,2012-09-28,12500.0
DNP,2012-10-01,12500.0
DNP,2012-10-02,12500.0
DNP,2012-10-03,12500.0
DNP,2012-10-04,12500.0
DNP,2012-10-05,12500.0
DNP,2012-10-08,12500.0
DNP,2012-10-09,12500.0
DNP,2012-10-10,12500.0
DNP,2012-10-11,13400.0
DNP,2012-10-12,14100.0
DNP,2012-10-15,14100.0
DNP,2012-10-16,14100.0
DNP,2012-10-17,14100.0
DNP,2012-10-18,14100.0
DNP,2012-10-19,14100.0
DNP,2012-10-22,14100.0
DNP,2012-10-23,14100.0
DNP,2012-10-24,14100.0
DNP,2012-10-25,14100.0
DNP,2012-10-26,14100.0
DNP,2012-10-29,14100.0
DNP,2012-10-30,14100.0
DNP,2012-10-31,14100.0
DNP,2012-11-01,14100.0
DNP,2012-11-02,14100.0
DNP,2012-11-05,14100.0
DNP,2012-11-06,14100.0
DNP,2012-11-07,14100.0
DNP,2012-11-08,14100.0
DNP,2012-11-09,14100.0
DNP,2012-11-12,14100.0
DNP,2012-11-13,14100.0
DNP,2012-11-14,14100.0
DNP,2012-11-15,14100.0
DNP,2012-11-16,14100.0
DNP,2012-11-19,14100.0
DNP,2012-11-20,14100.0
DNP,2012-11-21,14100.0
DNP,2012-11-22,14100.0
DNP,2012-11-23,14100.0
DNP,2012-11-26,14100.0
DNP,2012-11-27,13100.0
DNP,2012-11-28,12200.0
DNP,2012-11-29,12200.0
DNP,2012-11-30,11500.0
DNP,2012-12-03,10900.0
DNP,2012-12-04,11600.0
DNP,2012-12-05,11800.0
DNP,2012-12-06,12200.0
DNP,2012-12-07,11600.0
DNP,2012-12-10,10900.0
DNP,2012-12-11,10900.0
DNP,2012-12-12,11300.0
DNP,2012-12-13,12000.0
DNP,2012-12-14,12200.0
DNP,2012-12-17,11800.0
DNP,2012-12-18,11600.0
DNP,2012-12-19,11600.0
DNP,2012-12-20,11500.0
DNP,2012-12-21,11200.0
DNP,2012-12-24,11200.0
DNP,2012-12-25,11600.0
DNP,2012-12-26,12000.0
DNP,2012-12-27,12300.0
DNP,2012-12-28,12800.0
DNP,2013-01-02,13700.0
DNP,2013-01-03,14000.0
DNP,2013-01-04,14300.0
DNP,2013-01-07,13800.0
DNP,2013-01-08,13400.0
DNP,2013-01-09,12500.0
DNP,2013-01-10,11900.0
DNP,2013-01-11,11400.0
DNP,2013-01-14,11600.0
DNP,2013-01-15,12700.0
DNP,2013-01-16,13500.0
DNP,2013-01-17,14000.0
DNP,2013-01-18,13900.0
DNP,2013-01-21,13900.0
DNP,2013-01-22,14000.0
DNP,2013-01-23,14000.0
DNP,2013-01-24,14000.0
DNP,2013-01-25,14600.0
DNP,2013-01-28,14800.0
DNP,2013-01-29,14400.0
DNP,2013-01-30,14100.0
DNP,2013-01-31,14200.0
DNP,2013-02-01,14600.0
DNP,2013-02-04,14600.0
DNP,2013-02-05,14600.0
DNP,2013-02-06,14600.0
DNP,2013-02-07,14900.0
DNP,2013-02-08,14900.0
DNP,2013-02-18,14900.0
DNP,2013-02-19,14900.0
DNP,2013-02-20,14800.0
DNP,2013-02-21,14800.0
DNP,2013-02-22,14800.0
DNP,2013-02-25,14800.0
DNP,2013-02-26,14800.0
DNP,2013-02-27,14800.0
DNP,2013-02-28,14800.0
DNP,2013-03-01,14800.0
DNP,2013-03-04,14800.0
DNP,2013-03-05,14800.0
DNP,2013-03-06,14800.0
DNP,2013-03-07,14800.0
DNP,2013-03-08,14800.0
DNP,2013-03-11,14800.0
DNP,2013-03-12,14800.0
DNP,2013-03-13,14800.0
DNP,2013-03-14,14800.0
DNP,2013-03-15,14800.0
DNP,2013-03-18,14800.0
DNP,2013-03-19,14800.0
DNP,2013-03-20,14800.0
DNP,2013-03-21,14800.0
DNP,2013-03-22,14800.0
DNP,2013-03-25,14800.0
DNP,2013-03-26,14800.0
DNP,2013-03-27,14800.0
DNP,2013-03-28,14800.0
DNP,2013-03-29,14900.0
DNP,2013-04-01,14900.0
DNP,2013-04-02,14900.0
DNP,2013-04-03,15000.0
DNP,2013-04-04,15100.0
DNP,2013-04-05,14700.0
DNP,2013-04-08,14900.0
DNP,2013-04-09,15000.0
DNP,2013-04-10,15000.0
DNP,2013-04-11,15400.0
DNP,2013-04-12,15400.0
DNP,2013-04-15,15400.0
DNP,2013-04-16,15500.0
DNP,2013-04-17,15300.0
DNP,2013-04-18,15500.0
DNP,2013-04-22,15500.0
DNP,2013-04-23,15500.0
DNP,2013-04-24,15500.0
DNP,2013-04-25,15500.0
DNP,2013-04-26,15500.0
DNP,2013-05-02,15500.0
DNP,2013-05-03,15500.0
DNP,2013-05-06,15500.0
DNP,2013-05-07,15500.0
DNP,2013-05-08,15500.0
DNP,2013-05-09,15500.0
DNP,2013-05-10,15500.0
DNP,2013-05-13,15500.0
DNP,2013-05-14,15500.0
DNP,2013-05-15,15500.0
DNP,2013-05-16,15500.0
DNP,2013-05-17,15500.0
DNP,2013-05-20,15500.0
DNP,2013-05-21,15500.0
DNP,2013-05-22,15500.0
DNP,2013-05-23,15500.0
DNP,2013-05-24,15500.0
DNP,2013-05-27,15500.0
DNP,2013-05-28,15500.0
DNP,2013-05-29,15500.0
DNP,2013-05-30,15000.0
DNP,2013-05-31,15000.0
DNP,2013-06-03,15000.0
DNP,2013-06-04,15000.0
DNP,2013-06-05,15000.0
DNP,2013-06-06,15000.0
DNP,2013-06-07,15000.0
DNP,2013-06-10,15000.0
DNP,2013-06-11,15000.0
DNP,2013-06-12,15000.0
DNP,2013-06-13,15000.0
DNP,2013-06-14,15000.0
DNP,2013-06-17,15000.0
DNP,2013-06-18,15000.0
DNP,2013-06-19,15000.0
DNP,2013-06-20,15000.0
DNP,2013-06-21,15000.0
DNP,2013-06-24,15000.0
DNP,2013-06-25,15000.0
DNP,2013-06-26,15000.0
DNP,2013-06-27,15000.0
DNP,2013-06-28,15000.0
DNP,2013-07-01,15000.0
DNP,2013-07-02,15000.0
DNP,2013-07-03,15000.0
DNP,2013-07-04,15000.0
DNP,2013-07-05,15000.0
DNP,2013-07-08,15000.0
DNP,2013-07-09,15000.0
DNP,2013-07-10,15000.0
DNP,2013-07-11,15000.0
DNP,2013-07-12,15000.0
DNP,2013-07-15,15000.0
DNP,2013-07-16,15000.0
DNP,2013-07-17,15000.0
DNP,2013-07-18,15000.0
DNP,2013-07-19,15000.0
DNP,2013-07-22,15000.0
DNP,2013-07-23,15000.0
DNP,2013-07-24,15000.0
DNP,2013-07-25,15000.0
DNP,2013-07-26,15000.0
DNP,2013-07-29,15000.0
DNP,2013-07-30,15000.0
DNP,2013-07-31,15000.0
DNP,2013-08-01,15000.0
DNP,2013-08-02,15000.0
DNP,2013-08-05,15000.0
DNP,2013-08-06,15000.0
DNP,2013-08-07,15000.0
DNP,2013-08-08,15000.0
DNP,2013-08-09,15000.0
DNP,2013-08-12,15000.0
DNP,2013-08-13,15000.0
DNP,2013-08-14,15000.0
DNP,2013-08-15,15000.0
DNP,2013-08-16,15000.0
DNP,2013-08-19,15000.0
DNP,2013-08-20,15000.0
DNP,2013-08-21,15000.0
DNP,2013-08-22,15000.0
DNP,2013-08-23,15000.0
DNP,2013-08-26,15000.0
DNP,2013-08-27,15000.0
DNP,2013-08-28,15000.0
DNP,2013-08-29,15000.0
DNP,2013-08-30,15000.0
DNP,2013-09-03,15000.0
DNP,2013-09-04,15000.0
DNP,2013-09-05,15000.0
DNP,2013-09-06,15000.0
DNP,2013-09-09,15000.0
DNP,2013-09-10,15000.0
DNP,2013-09-11,15000.0
DNP,2013-09-12,15000.0
DNP,2013-09-13,15000.0
DNP,2013-09-16,15000.0
DNP,2013-09-17,15000.0
DNP,2013-09-18,15000.0
DNP,2013-09-19,15000.0
DNP,2013-09-20,15000.0
DNP,2013-09-23,15000.0
DNP,2013-09-24,15000.0
DNP,2013-09-25,13500.0
DNP,2013-09-26,14800.0
DNP,2013-09-27,14800.0
DNP,2013-09-30,15000.0
DNP,2013-10-01,15000.0
DNP,2013-10-02,15000.0
DNP,2013-10-03,15000.0
DNP,2013-10-04,15000.0
DNP,2013-10-07,15000.0
DNP,2013-10-08,15000.0
DNP,2013-10-09,15000.0
DNP,2013-10-10,15000.0
DNP,2013-10-11,15000.0
DNP,2013-10-14,15000.0
DNP,2013-10-15,15000.0
DNP,2013-10-16,15000.0
DNP,2013-10-17,15000.0
DNP,2013-10-18,15000.0
DNP,2013-10-21,15000.0
DNP,2013-10-22,15000.0
DNP,2013-10-23,15000.0
DNP,2013-10-24,15000.0
DNP,2013-10-25,15000.0
DNP,2013-10-28,15000.0
DNP,2013-10-29,15000.0
DNP,2013-10-30,15000.0
DNP,2013-10-31,15000.0
DNP,2013-11-01,15000.0
DNP,2013-11-04,15000.0
DNP,2013-11-05,15000.0
DNP,2013-11-06,15000.0
DNP,2013-11-07,15000.0
DNP,2013-11-08,15000.0
DNP,2013-11-11,15000.0
DNP,2013-11-12,15000.0
DNP,2013-11-13,15000.0
DNP,2013-11-14,15000.0
DNP,2013-11-15,15000.0
DNP,2013-11-18,15000.0
DNP,2013-11-19,15000.0
DNP,2013-11-20,15000.0
DNP,2013-11-21,15000.0
DNP,2013-11-22,14900.0
DNP,2013-11-25,14900.0
DNP,2013-11-26,14900.0
DNP,2013-11-27,14900.0
DNP,2013-11-28,13500.0
DNP,2013-11-29,14500.0
DNP,2013-12-02,14500.0
DNP,2013-12-03,14500.0
DNP,2013-12-04,14500.0
DNP,2013-12-05,14500.0
DNP,2013-12-06,15000.0
DNP,2013-12-09,15000.0
DNP,2013-12-10,13700.0
DNP,2013-12-11,13700.0
DNP,2013-12-12,13700.0
DNP,2013-12-13,13700.0
DNP,2013-12-16,13700.0
DNP,2013-12-17,15000.0
DNP,2013-12-18,15000.0
DNP,2013-12-19,14000.0
DNP,2013-12-20,14000.0
DNP,2013-12-23,13500.0
DNP,2013-12-24,14800.0
DNP,2013-12-25,14800.0
DNP,2013-12-26,15300.0
DNP,2013-12-27,15300.0
DNP,2013-12-30,15500.0
DNP,2013-12-31,15500.0
DNP,2014-01-02,15400.0
DNP,2014-01-03,15400.0
DNP,2014-01-06,15400.0
DNP,2014-01-07,15400.0
DNP,2014-01-08,15400.0
DNP,2014-01-09,15400.0
DNP,2014-01-10,15200.0
DNP,2014-01-13,15200.0
DNP,2014-01-14,15500.0
DNP,2014-01-15,15500.0
DNP,2014-01-16,15500.0
DNP,2014-01-17,15500.0
DNP,2014-01-20,15500.0
DNP,2014-01-21,15500.0
DNP,2014-01-22,15400.0
DNP,2014-01-23,15400.0
DNP,2014-01-24,15400.0
DNP,2014-01-27,15400.0
DNP,2014-02-06,15400.0
DNP,2014-02-07,15400.0
DNP,2014-02-10,15400.0
DNP,2014-02-11,15400.0
DNP,2014-02-12,15400.0
DNP,2014-02-13,15400.0
DNP,2014-02-14,15400.0
DNP,2014-02-17,15400.0
DNP,2014-02-18,15400.0
DNP,2014-02-19,15400.0
DNP,2014-02-20,16900.0
DNP,2014-02-21,18500.0
DNP,2014-02-24,16700.0
DNP,2014-02-25,18300.0
DNP,2014-02-26,18300.0
DNP,2014-02-27,20100.0
DNP,2014-02-28,22100.0
DNP,2014-03-03,22100.0
DNP,2014-03-04,22100.0
DNP,2014-03-05,23000.0
DNP,2014-03-06,22000.0
DNP,2014-03-07,22000.0
DNP,2014-03-10,22000.0
DNP,2014-03-11,22000.0
DNP,2014-03-12,22000.0
DNP,2014-03-13,20000.0
DNP,2014-03-14,20000.0
DNP,2014-03-17,21000.0
DNP,2014-03-18,21000.0
DNP,2014-03-19,23100.0
DNP,2014-03-20,23000.0
DNP,2014-03-21,23000.0
DNP,2014-03-24,22300.0
DNP,2014-03-25,22300.0
DNP,2014-03-26,20100.0
DNP,2014-03-27,22100.0
DNP,2014-03-28,22100.0
DNP,2014-03-31,22100.0
DNP,2014-04-01,22100.0
DNP,2014-04-02,22100.0
DNP,2014-04-03,22100.0
DNP,2014-04-04,22100.0
DNP,2014-04-07,22100.0
DNP,2014-04-08,22100.0
DNP,2014-04-10,22100.0
DNP,2014-04-11,22100.0
DNP,2014-04-14,22100.0
DNP,2014-04-15,22100.0
DNP,2014-04-16,22100.0
DNP,2014-04-17,22100.0
DNP,2014-04-18,22100.0
DNP,2014-04-21,22100.0
DNP,2014-04-22,22100.0
DNP,2014-04-23,22100.0
DNP,2014-04-24,22100.0
DNP,2014-04-25,22100.0
DNP,2014-04-28,22100.0
DNP,2014-04-29,19900.0
DNP,2014-05-05,18000.0
DNP,2014-05-06,16200.0
DNP,2014-05-07,16200.0
DNP,2014-05-08,16200.0
DNP,2014-05-09,14600.0
DNP,2014-05-12,13300.0
DNP,2014-05-13,14600.0
DNP,2014-05-14,16000.0
DNP,2014-05-15,17600.0
DNP,2014-05-16,16000.0
DNP,2014-05-19,16000.0
DNP,2014-05-20,14500.0
DNP,2014-05-21,14500.0
