DPC,2001-11-28,20800.0
DPC,2001-11-30,20300.0
DPC,2001-12-03,20000.0
DPC,2001-12-05,20000.0
DPC,2001-12-07,19600.0
DPC,2001-12-10,19600.0
DPC,2001-12-12,19300.0
DPC,2001-12-14,18900.0
DPC,2001-12-17,18600.0
DPC,2001-12-19,18200.0
DPC,2001-12-24,17500.0
DPC,2001-12-26,17200.0
DPC,2001-12-28,17100.0
DPC,2001-12-31,16800.0
DPC,2002-01-02,16800.0
DPC,2002-01-04,16500.0
DPC,2002-01-07,16200.0
DPC,2002-01-09,16000.0
DPC,2002-01-11,15700.0
DPC,2002-01-14,15400.0
DPC,2002-01-16,15100.0
DPC,2002-01-21,14500.0
DPC,2002-01-23,14300.0
DPC,2002-01-25,13900.0
DPC,2002-01-28,14200.0
DPC,2002-01-30,14200.0
DPC,2002-02-01,13900.0
DPC,2002-02-04,13700.0
DPC,2002-02-06,13500.0
DPC,2002-02-08,13500.0
DPC,2002-02-18,13200.0
DPC,2002-02-20,13000.0
DPC,2002-02-22,12800.0
DPC,2002-02-25,12500.0
DPC,2002-02-27,12300.0
DPC,2002-03-01,12000.0
DPC,2002-03-04,11800.0
DPC,2002-03-05,11600.0
DPC,2002-03-06,11400.0
DPC,2002-03-07,11300.0
DPC,2002-03-08,11100.0
DPC,2002-03-11,10900.0
DPC,2002-03-12,11100.0
DPC,2002-03-13,11300.0
DPC,2002-03-14,11400.0
DPC,2002-03-15,11600.0
DPC,2002-03-18,11600.0
DPC,2002-03-19,11400.0
DPC,2002-03-20,11600.0
DPC,2002-03-22,11700.0
DPC,2002-03-25,11700.0
DPC,2002-03-26,11900.0
DPC,2002-03-28,12300.0
DPC,2002-03-29,12600.0
DPC,2002-04-01,12800.0
DPC,2002-04-02,12800.0
DPC,2002-04-03,12600.0
DPC,2002-04-04,12300.0
DPC,2002-04-05,12100.0
DPC,2002-04-08,12100.0
DPC,2002-04-09,12300.0
DPC,2002-04-10,12300.0
DPC,2002-04-11,12300.0
DPC,2002-04-12,12200.0
DPC,2002-04-15,12000.0
DPC,2002-04-16,11700.0
DPC,2002-04-17,11600.0
DPC,2002-04-18,11700.0
DPC,2002-04-19,11900.0
DPC,2002-04-22,11900.0
DPC,2002-04-23,12000.0
DPC,2002-04-24,12000.0
DPC,2002-04-25,12200.0
DPC,2002-04-26,12000.0
DPC,2002-05-02,12300.0
DPC,2002-05-03,12300.0
DPC,2002-05-06,12300.0
DPC,2002-05-07,12100.0
DPC,2002-05-08,11900.0
DPC,2002-05-09,11900.0
DPC,2002-05-10,11900.0
DPC,2002-05-13,11800.0
DPC,2002-05-14,11700.0
DPC,2002-05-15,11700.0
DPC,2002-05-16,11600.0
DPC,2002-05-17,11500.0
DPC,2002-05-20,11500.0
DPC,2002-05-21,11700.0
DPC,2002-05-22,11600.0
DPC,2002-05-23,11600.0
DPC,2002-05-24,11700.0
DPC,2002-05-27,11700.0
DPC,2002-05-28,11500.0
DPC,2002-05-29,11300.0
DPC,2002-05-30,11300.0
DPC,2002-05-31,11400.0
DPC,2002-06-03,11600.0
DPC,2002-06-04,11400.0
DPC,2002-06-05,11400.0
DPC,2002-06-06,11600.0
DPC,2002-06-07,11400.0
DPC,2002-06-10,11400.0
DPC,2002-06-11,11500.0
DPC,2002-06-12,11300.0
DPC,2002-06-13,11200.0
DPC,2002-06-14,11000.0
DPC,2002-06-17,10900.0
DPC,2002-06-18,10700.0
DPC,2002-06-19,10500.0
DPC,2002-06-20,10300.0
DPC,2002-06-21,10500.0
DPC,2002-06-24,10700.0
DPC,2002-06-25,10800.0
DPC,2002-06-26,10600.0
DPC,2002-06-27,10600.0
DPC,2002-06-28,10400.0
DPC,2002-07-01,10300.0
DPC,2002-07-02,10100.0
DPC,2002-07-03,10100.0
DPC,2002-07-04,10100.0
DPC,2002-07-05,10200.0
DPC,2002-07-08,10100.0
DPC,2002-07-09,10000.0
DPC,2002-07-10,9800.0
DPC,2002-07-11,9700.0
DPC,2002-07-12,9700.0
DPC,2002-07-15,9500.0
DPC,2002-07-16,9500.0
DPC,2002-07-17,9300.0
DPC,2002-07-18,9100.0
DPC,2002-07-19,9000.0
DPC,2002-07-22,9100.0
DPC,2002-07-23,9300.0
DPC,2002-07-24,9400.0
DPC,2002-07-25,9300.0
DPC,2002-07-26,9400.0
DPC,2002-07-29,9500.0
DPC,2002-07-30,9600.0
DPC,2002-07-31,9600.0
DPC,2002-08-01,9600.0
DPC,2002-08-02,9800.0
DPC,2002-08-05,10000.0
DPC,2002-08-06,10000.0
DPC,2002-08-07,10000.0
DPC,2002-08-08,10000.0
DPC,2002-08-09,10000.0
DPC,2002-08-12,10000.0
DPC,2002-08-13,9800.0
DPC,2002-08-14,9800.0
DPC,2002-08-15,9800.0
DPC,2002-08-16,10000.0
DPC,2002-08-19,10000.0
DPC,2002-08-20,10000.0
DPC,2002-08-21,10000.0
DPC,2002-08-22,9700.0
DPC,2002-08-23,9700.0
DPC,2002-08-26,9500.0
DPC,2002-08-27,9500.0
DPC,2002-08-28,9500.0
DPC,2002-08-29,9500.0
DPC,2002-08-30,9500.0
DPC,2002-09-03,9700.0
DPC,2002-09-04,9500.0
DPC,2002-09-05,9600.0
DPC,2002-09-06,9600.0
DPC,2002-09-09,9600.0
DPC,2002-09-10,9500.0
DPC,2002-09-11,9500.0
DPC,2002-09-12,9600.0
DPC,2002-09-13,9600.0
DPC,2002-09-16,9600.0
DPC,2002-09-17,9600.0
DPC,2002-09-18,9600.0
DPC,2002-09-19,9500.0
DPC,2002-09-20,9500.0
DPC,2002-09-23,9500.0
DPC,2002-09-24,9500.0
DPC,2002-09-25,9300.0
DPC,2002-09-26,9500.0
DPC,2002-09-27,9300.0
DPC,2002-09-30,9400.0
DPC,2002-10-01,9400.0
DPC,2002-10-02,9400.0
DPC,2002-10-03,9400.0
DPC,2002-10-04,9400.0
DPC,2002-10-07,9500.0
DPC,2002-10-08,9500.0
DPC,2002-10-09,9500.0
DPC,2002-10-10,9500.0
DPC,2002-10-11,9500.0
DPC,2002-10-14,9300.0
DPC,2002-10-15,9300.0
DPC,2002-10-16,9300.0
DPC,2002-10-17,9200.0
DPC,2002-10-18,9100.0
DPC,2002-10-21,9100.0
DPC,2002-10-22,9100.0
DPC,2002-10-23,9100.0
DPC,2002-10-24,9100.0
DPC,2002-10-25,9300.0
DPC,2002-10-28,9100.0
DPC,2002-10-29,9100.0
DPC,2002-10-30,8800.0
DPC,2002-10-31,9100.0
DPC,2002-11-01,8900.0
DPC,2002-11-04,8700.0
DPC,2002-11-05,9000.0
DPC,2002-11-06,9100.0
DPC,2002-11-07,9000.0
DPC,2002-11-08,9000.0
DPC,2002-11-11,9000.0
DPC,2002-11-12,9000.0
DPC,2002-11-13,9000.0
DPC,2002-11-14,8800.0
DPC,2002-11-15,8600.0
DPC,2002-11-18,8600.0
DPC,2002-11-19,8800.0
DPC,2002-11-20,9000.0
DPC,2002-11-21,8900.0
DPC,2002-11-22,8900.0
DPC,2002-11-25,8900.0
DPC,2002-11-26,8700.0
DPC,2002-11-27,8700.0
DPC,2002-11-28,8700.0
DPC,2002-11-29,8800.0
DPC,2002-12-02,8800.0
DPC,2002-12-03,9100.0
DPC,2002-12-04,9300.0
DPC,2002-12-05,9100.0
DPC,2002-12-06,9100.0
DPC,2002-12-09,9200.0
DPC,2002-12-10,9000.0
DPC,2002-12-11,9100.0
DPC,2002-12-12,9100.0
DPC,2002-12-13,9100.0
DPC,2002-12-16,9200.0
DPC,2002-12-17,9100.0
DPC,2002-12-18,9400.0
DPC,2002-12-19,9100.0
DPC,2002-12-20,9100.0
DPC,2002-12-23,9100.0
DPC,2002-12-24,9000.0
DPC,2002-12-25,9000.0
DPC,2002-12-26,9000.0
DPC,2002-12-27,8900.0
DPC,2002-12-30,9000.0
DPC,2002-12-31,8900.0
DPC,2003-01-02,9100.0
DPC,2003-01-03,9100.0
DPC,2003-01-06,8900.0
DPC,2003-01-07,9000.0
DPC,2003-01-08,9000.0
DPC,2003-01-09,9100.0
DPC,2003-01-10,9000.0
DPC,2003-01-13,9000.0
DPC,2003-01-14,8900.0
DPC,2003-01-15,8900.0
DPC,2003-01-16,8800.0
DPC,2003-01-17,8800.0
DPC,2003-01-20,8800.0
DPC,2003-01-21,9200.0
DPC,2003-01-22,9200.0
DPC,2003-01-23,8900.0
DPC,2003-01-24,8800.0
DPC,2003-01-27,8800.0
DPC,2003-01-28,8900.0
DPC,2003-02-10,9100.0
DPC,2003-02-11,8800.0
DPC,2003-02-12,8200.0
DPC,2003-02-13,8300.0
DPC,2003-02-14,8300.0
DPC,2003-02-17,8300.0
DPC,2003-02-18,8300.0
DPC,2003-02-19,8200.0
DPC,2003-02-20,8200.0
DPC,2003-02-21,8300.0
DPC,2003-02-24,8300.0
DPC,2003-02-25,8100.0
DPC,2003-02-26,8100.0
DPC,2003-02-27,8100.0
DPC,2003-02-28,7900.0
DPC,2003-03-03,8000.0
DPC,2003-03-04,8000.0
DPC,2003-03-05,8000.0
DPC,2003-03-06,8000.0
DPC,2003-03-07,8100.0
DPC,2003-03-10,8000.0
DPC,2003-03-11,8100.0
DPC,2003-03-12,8100.0
DPC,2003-03-13,8100.0
DPC,2003-03-14,8000.0
DPC,2003-03-17,7900.0
DPC,2003-03-18,7800.0
DPC,2003-03-19,7600.0
DPC,2003-03-20,7500.0
DPC,2003-03-21,7200.0
DPC,2003-03-24,7300.0
DPC,2003-03-25,7300.0
DPC,2003-03-26,7300.0
DPC,2003-03-27,7100.0
DPC,2003-03-28,7100.0
DPC,2003-03-31,6800.0
DPC,2003-04-01,6500.0
DPC,2003-04-02,6800.0
DPC,2003-04-03,7100.0
DPC,2003-04-04,7400.0
DPC,2003-04-07,7500.0
DPC,2003-04-08,7500.0
DPC,2003-04-09,7500.0
DPC,2003-04-10,7500.0
DPC,2003-04-11,7500.0
DPC,2003-04-14,7400.0
DPC,2003-04-15,7100.0
DPC,2003-04-16,7100.0
DPC,2003-04-17,7100.0
DPC,2003-04-18,7200.0
DPC,2003-04-21,7200.0
DPC,2003-04-22,7100.0
DPC,2003-04-23,7200.0
DPC,2003-04-24,7200.0
DPC,2003-04-25,7200.0
DPC,2003-04-28,7100.0
DPC,2003-04-29,7300.0
DPC,2003-05-05,7300.0
DPC,2003-05-06,7100.0
DPC,2003-05-07,7200.0
DPC,2003-05-08,7200.0
DPC,2003-05-09,7300.0
DPC,2003-05-12,7400.0
DPC,2003-05-13,7300.0
DPC,2003-05-14,7100.0
DPC,2003-05-15,7400.0
DPC,2003-05-19,7400.0
DPC,2003-05-20,7100.0
DPC,2003-05-21,7100.0
DPC,2003-05-22,7000.0
DPC,2003-05-23,7000.0
DPC,2003-05-26,6900.0
DPC,2003-05-27,6900.0
DPC,2003-05-28,6800.0
DPC,2003-05-29,6900.0
DPC,2003-05-30,6800.0
DPC,2003-06-02,6800.0
DPC,2003-06-03,6800.0
DPC,2003-06-04,7100.0
DPC,2003-06-05,7100.0
DPC,2003-06-06,7100.0
DPC,2003-06-09,6800.0
DPC,2003-06-10,6800.0
DPC,2003-06-11,6800.0
DPC,2003-06-12,6800.0
DPC,2003-06-13,6700.0
DPC,2003-06-16,6700.0
DPC,2003-06-17,6600.0
DPC,2003-06-18,6600.0
DPC,2003-06-19,6600.0
DPC,2003-06-20,6400.0
DPC,2003-06-23,6500.0
DPC,2003-06-24,6400.0
DPC,2003-06-25,6500.0
DPC,2003-06-26,6500.0
DPC,2003-06-27,6500.0
DPC,2003-06-30,6500.0
DPC,2003-07-01,6400.0
DPC,2003-07-02,6400.0
DPC,2003-07-03,6300.0
DPC,2003-07-04,6100.0
DPC,2003-07-07,6300.0
DPC,2003-07-08,6300.0
DPC,2003-07-09,6300.0
DPC,2003-07-10,6200.0
DPC,2003-07-11,6300.0
DPC,2003-07-14,6300.0
DPC,2003-07-15,6500.0
DPC,2003-07-16,6300.0
DPC,2003-07-17,6400.0
DPC,2003-07-18,6300.0
DPC,2003-07-21,6300.0
DPC,2003-07-22,6300.0
DPC,2003-07-23,6300.0
DPC,2003-07-24,6300.0
DPC,2003-07-25,6300.0
DPC,2003-07-28,6300.0
DPC,2003-07-29,6200.0
DPC,2003-07-30,6200.0
DPC,2003-07-31,6000.0
DPC,2003-08-01,6000.0
DPC,2003-08-04,5900.0
DPC,2003-08-05,5900.0
DPC,2003-08-06,5900.0
DPC,2003-08-07,5900.0
DPC,2003-08-08,5900.0
DPC,2003-08-11,5900.0
DPC,2003-08-12,5900.0
DPC,2003-08-13,5900.0
DPC,2003-08-14,5900.0
DPC,2003-08-15,5900.0
DPC,2003-08-18,5900.0
DPC,2003-08-19,5900.0
DPC,2003-08-20,5900.0
DPC,2003-08-21,5800.0
DPC,2003-08-22,5800.0
DPC,2003-08-25,5900.0
DPC,2003-08-26,5900.0
DPC,2003-08-27,5900.0
DPC,2003-08-28,5900.0
DPC,2003-08-29,5900.0
DPC,2003-09-03,5800.0
DPC,2003-09-04,6000.0
DPC,2003-09-05,6000.0
DPC,2003-09-08,5800.0
DPC,2003-09-09,6000.0
DPC,2003-09-10,5800.0
DPC,2003-09-11,5800.0
DPC,2003-09-12,5600.0
DPC,2003-09-15,5700.0
DPC,2003-09-16,5700.0
DPC,2003-09-17,5700.0
DPC,2003-09-18,5700.0
DPC,2003-09-19,5800.0
DPC,2003-09-22,5900.0
DPC,2003-09-23,5900.0
DPC,2003-09-24,6000.0
DPC,2003-09-25,6000.0
DPC,2003-09-26,5700.0
DPC,2003-09-29,5700.0
DPC,2003-09-30,5700.0
DPC,2003-10-01,5900.0
DPC,2003-10-02,5700.0
DPC,2003-10-03,5500.0
DPC,2003-10-06,5500.0
DPC,2003-10-07,5500.0
DPC,2003-10-08,5500.0
DPC,2003-10-09,5500.0
DPC,2003-10-10,5500.0
DPC,2003-10-13,5300.0
DPC,2003-10-14,5300.0
DPC,2003-10-15,5000.0
DPC,2003-10-16,5000.0
DPC,2003-10-17,4900.0
DPC,2003-10-20,4700.0
DPC,2003-10-21,4500.0
DPC,2003-10-22,4400.0
DPC,2003-10-23,4400.0
DPC,2003-10-24,4300.0
DPC,2003-10-27,4300.0
DPC,2003-10-28,4300.0
DPC,2003-10-29,4500.0
DPC,2003-10-30,4500.0
DPC,2003-10-31,4600.0
DPC,2003-11-03,4700.0
DPC,2003-11-04,4700.0
DPC,2003-11-05,4700.0
DPC,2003-11-06,4700.0
DPC,2003-11-07,4700.0
DPC,2003-11-10,4600.0
DPC,2003-11-11,4600.0
DPC,2003-11-12,4600.0
DPC,2003-11-13,4800.0
DPC,2003-11-14,5000.0
DPC,2003-11-17,5300.0
DPC,2003-11-18,5000.0
DPC,2003-11-19,5000.0
DPC,2003-11-20,5200.0
DPC,2003-11-21,5500.0
DPC,2003-11-24,5700.0
DPC,2003-11-25,5900.0
DPC,2003-11-26,5900.0
DPC,2003-11-27,5900.0
DPC,2003-11-28,6100.0
DPC,2003-12-01,6200.0
DPC,2003-12-02,6100.0
DPC,2003-12-03,6000.0
DPC,2003-12-04,5900.0
DPC,2003-12-05,5900.0
DPC,2003-12-08,5900.0
DPC,2003-12-09,5900.0
DPC,2003-12-10,5900.0
DPC,2003-12-11,5900.0
DPC,2003-12-12,5900.0
DPC,2003-12-15,5900.0
DPC,2003-12-16,6100.0
DPC,2003-12-17,6100.0
DPC,2003-12-18,6200.0
DPC,2003-12-19,6100.0
DPC,2003-12-22,6000.0
DPC,2003-12-23,5900.0
DPC,2003-12-24,6000.0
DPC,2003-12-25,6000.0
DPC,2003-12-26,6000.0
DPC,2003-12-29,6000.0
DPC,2003-12-30,6000.0
DPC,2003-12-31,6000.0
DPC,2004-01-05,6000.0
DPC,2004-01-06,6000.0
DPC,2004-01-07,6200.0
DPC,2004-01-08,6200.0
DPC,2004-01-09,6200.0
DPC,2004-01-12,6200.0
DPC,2004-01-13,6200.0
DPC,2004-01-14,6200.0
DPC,2004-01-15,6200.0
DPC,2004-01-16,6300.0
DPC,2004-01-27,6600.0
DPC,2004-01-28,6900.0
DPC,2004-01-29,7200.0
DPC,2004-01-30,7500.0
DPC,2004-02-02,7200.0
DPC,2004-02-03,6800.0
DPC,2004-02-04,7100.0
DPC,2004-02-05,7400.0
DPC,2004-02-06,7100.0
DPC,2004-02-09,6900.0
DPC,2004-02-10,6900.0
DPC,2004-02-11,7000.0
DPC,2004-02-12,7000.0
DPC,2004-02-13,7000.0
DPC,2004-02-16,7000.0
DPC,2004-02-17,6900.0
DPC,2004-02-18,6900.0
DPC,2004-02-19,6900.0
DPC,2004-02-20,7000.0
DPC,2004-02-23,7300.0
DPC,2004-02-24,7300.0
DPC,2004-02-25,7100.0
DPC,2004-02-26,6900.0
DPC,2004-02-27,7200.0
DPC,2004-03-01,7600.0
DPC,2004-03-02,7400.0
DPC,2004-03-03,7400.0
DPC,2004-03-04,7400.0
DPC,2004-03-05,7400.0
DPC,2004-03-08,7400.0
DPC,2004-03-09,7200.0
DPC,2004-03-10,7100.0
DPC,2004-03-11,7400.0
DPC,2004-03-12,7100.0
DPC,2004-03-15,7100.0
DPC,2004-03-16,7100.0
DPC,2004-03-17,7000.0
DPC,2004-03-18,7100.0
DPC,2004-03-19,7100.0
DPC,2004-03-22,7100.0
DPC,2004-03-23,6800.0
DPC,2004-03-24,6800.0
DPC,2004-03-25,7000.0
DPC,2004-03-26,7100.0
DPC,2004-03-29,7100.0
DPC,2004-03-30,7100.0
DPC,2004-03-31,7100.0
DPC,2004-04-01,7100.0
DPC,2004-04-02,7000.0
DPC,2004-04-05,7000.0
DPC,2004-04-06,7000.0
DPC,2004-04-07,7000.0
DPC,2004-04-08,7000.0
DPC,2004-04-09,7000.0
DPC,2004-04-12,7000.0
DPC,2004-04-13,7000.0
DPC,2004-04-14,6800.0
DPC,2004-04-15,6800.0
DPC,2004-04-16,6800.0
DPC,2004-04-19,6800.0
DPC,2004-04-20,6800.0
DPC,2004-04-21,6800.0
DPC,2004-04-22,6800.0
DPC,2004-04-23,6800.0
DPC,2004-04-26,6800.0
DPC,2004-04-27,6500.0
DPC,2004-04-28,6500.0
DPC,2004-04-29,6500.0
DPC,2004-05-04,6500.0
DPC,2004-05-05,6400.0
DPC,2004-05-06,6500.0
DPC,2004-05-07,6200.0
DPC,2004-05-10,6200.0
DPC,2004-05-11,6200.0
DPC,2004-05-12,6200.0
DPC,2004-05-13,6200.0
DPC,2004-05-14,6100.0
DPC,2004-05-17,6100.0
DPC,2004-05-18,6000.0
DPC,2004-05-19,6000.0
DPC,2004-05-20,6000.0
DPC,2004-05-21,6000.0
DPC,2004-05-24,6100.0
DPC,2004-05-25,6200.0
DPC,2004-05-26,6100.0
DPC,2004-05-27,6000.0
DPC,2004-05-28,6000.0
DPC,2004-05-31,6100.0
DPC,2004-06-01,6100.0
DPC,2004-06-02,6100.0
DPC,2004-06-03,6000.0
DPC,2004-06-04,6000.0
DPC,2004-06-07,6000.0
DPC,2004-06-08,6000.0
DPC,2004-06-09,6000.0
DPC,2004-06-10,6000.0
DPC,2004-06-11,6000.0
DPC,2004-06-14,6000.0
DPC,2004-06-15,6000.0
DPC,2004-06-16,6000.0
DPC,2004-06-17,6000.0
DPC,2004-06-18,6000.0
DPC,2004-06-21,5900.0
DPC,2004-06-22,5900.0
DPC,2004-06-23,6000.0
DPC,2004-06-24,6000.0
DPC,2004-06-25,6000.0
DPC,2004-06-28,6000.0
DPC,2004-06-29,6000.0
DPC,2004-06-30,6000.0
DPC,2004-07-01,6000.0
DPC,2004-07-02,6000.0
DPC,2004-07-05,5800.0
DPC,2004-07-06,6000.0
DPC,2004-07-07,5900.0
DPC,2004-07-08,5900.0
DPC,2004-07-09,5900.0
DPC,2004-07-12,5900.0
DPC,2004-07-13,5900.0
DPC,2004-07-14,6000.0
DPC,2004-07-15,5900.0
DPC,2004-07-16,6000.0
DPC,2004-07-19,5800.0
DPC,2004-07-20,5800.0
DPC,2004-07-21,5800.0
DPC,2004-07-22,5900.0
DPC,2004-07-23,5900.0
DPC,2004-07-26,5900.0
DPC,2004-07-27,5900.0
DPC,2004-07-28,5900.0
DPC,2004-07-29,5900.0
DPC,2004-07-30,5900.0
DPC,2004-08-02,5900.0
DPC,2004-08-03,5900.0
DPC,2004-08-04,5900.0
DPC,2004-08-05,5900.0
DPC,2004-08-06,5600.0
DPC,2004-08-09,5500.0
DPC,2004-08-10,5300.0
DPC,2004-08-11,5300.0
DPC,2004-08-12,5300.0
DPC,2004-08-13,5600.0
DPC,2004-08-16,5800.0
DPC,2004-08-17,5600.0
DPC,2004-08-18,5600.0
DPC,2004-08-19,5600.0
DPC,2004-08-20,5800.0
DPC,2004-08-23,5700.0
DPC,2004-08-24,5700.0
DPC,2004-08-25,5700.0
DPC,2004-08-26,5900.0
DPC,2004-08-27,5900.0
DPC,2004-08-30,5800.0
DPC,2004-08-31,5800.0
DPC,2004-09-01,5800.0
DPC,2004-09-06,5700.0
DPC,2004-09-07,5600.0
DPC,2004-09-08,5600.0
DPC,2004-09-09,5800.0
DPC,2004-09-10,5600.0
DPC,2004-09-13,5700.0
DPC,2004-09-14,5700.0
DPC,2004-09-15,5800.0
DPC,2004-09-16,5700.0
DPC,2004-09-17,5700.0
DPC,2004-09-20,5800.0
DPC,2004-09-21,5800.0
DPC,2004-09-22,5800.0
DPC,2004-09-23,5600.0
DPC,2004-09-24,5700.0
DPC,2004-09-27,5600.0
DPC,2004-09-28,5600.0
DPC,2004-09-29,5600.0
DPC,2004-09-30,5600.0
DPC,2004-10-01,5600.0
DPC,2004-10-04,5500.0
DPC,2004-10-05,5500.0
DPC,2004-10-06,5600.0
DPC,2004-10-07,5600.0
DPC,2004-10-08,5600.0
DPC,2004-10-11,5600.0
DPC,2004-10-12,5600.0
DPC,2004-10-13,5600.0
DPC,2004-10-14,5600.0
DPC,2004-10-15,5700.0
DPC,2004-10-18,5600.0
DPC,2004-10-19,5500.0
DPC,2004-10-20,5500.0
DPC,2004-10-21,5500.0
DPC,2004-10-22,5600.0
DPC,2004-10-25,5600.0
DPC,2004-10-26,5600.0
DPC,2004-10-27,5600.0
DPC,2004-10-28,5600.0
DPC,2004-10-29,5600.0
DPC,2004-11-01,5500.0
DPC,2004-11-02,5600.0
DPC,2004-11-03,5500.0
DPC,2004-11-04,5600.0
DPC,2004-11-05,5500.0
DPC,2004-11-08,5500.0
DPC,2004-11-09,5300.0
DPC,2004-11-10,5400.0
DPC,2004-11-11,5400.0
DPC,2004-11-12,5400.0
DPC,2004-11-15,5300.0
DPC,2004-11-16,5600.0
DPC,2004-11-17,5600.0
DPC,2004-11-18,5500.0
DPC,2004-11-19,5500.0
DPC,2004-11-22,5300.0
DPC,2004-11-23,5300.0
DPC,2004-11-24,5300.0
DPC,2004-11-25,5100.0
DPC,2004-11-26,5200.0
DPC,2004-11-29,5300.0
DPC,2004-11-30,5500.0
DPC,2004-12-01,5500.0
DPC,2004-12-02,5500.0
DPC,2004-12-03,5300.0
DPC,2004-12-06,5300.0
DPC,2004-12-07,5400.0
DPC,2004-12-08,5300.0
DPC,2004-12-09,5100.0
DPC,2004-12-10,5300.0
DPC,2004-12-13,5300.0
DPC,2004-12-14,5300.0
DPC,2004-12-15,5300.0
DPC,2004-12-16,5400.0
DPC,2004-12-17,5300.0
DPC,2004-12-20,5200.0
DPC,2004-12-21,5300.0
DPC,2004-12-22,5300.0
DPC,2004-12-23,5300.0
DPC,2004-12-24,5300.0
DPC,2004-12-27,5300.0
DPC,2004-12-28,5300.0
DPC,2004-12-29,5400.0
DPC,2004-12-30,5300.0
DPC,2004-12-31,5300.0
DPC,2005-01-04,5300.0
DPC,2005-01-05,5200.0
DPC,2005-01-06,5200.0
DPC,2005-01-07,5200.0
DPC,2005-01-10,5100.0
DPC,2005-01-11,5300.0
DPC,2005-01-12,5200.0
DPC,2005-01-13,5200.0
DPC,2005-01-14,5300.0
DPC,2005-01-17,5300.0
DPC,2005-01-18,5300.0
DPC,2005-01-19,5300.0
DPC,2005-01-20,5100.0
DPC,2005-01-21,5300.0
DPC,2005-01-24,5200.0
DPC,2005-01-25,5200.0
DPC,2005-01-26,5200.0
DPC,2005-01-27,5200.0
DPC,2005-01-28,5200.0
DPC,2005-01-31,5200.0
DPC,2005-02-01,5200.0
DPC,2005-02-02,5300.0
DPC,2005-02-03,5300.0
DPC,2005-02-04,5300.0
DPC,2005-02-14,5300.0
DPC,2005-02-15,5300.0
DPC,2005-02-16,5400.0
DPC,2005-02-17,5300.0
DPC,2005-02-18,5300.0
DPC,2005-02-21,5300.0
DPC,2005-02-22,5300.0
DPC,2005-02-23,5300.0
DPC,2005-02-24,5300.0
DPC,2005-02-25,5300.0
DPC,2005-02-28,5200.0
DPC,2005-03-01,5200.0
DPC,2005-03-02,5200.0
DPC,2005-03-03,5200.0
DPC,2005-03-04,5200.0
DPC,2005-03-07,5300.0
DPC,2005-03-08,5300.0
DPC,2005-03-09,5300.0
DPC,2005-03-10,5300.0
DPC,2005-03-11,5300.0
DPC,2005-03-14,5300.0
DPC,2005-03-15,5300.0
DPC,2005-03-16,5300.0
DPC,2005-03-17,5200.0
DPC,2005-03-18,5500.0
DPC,2005-03-21,5700.0
DPC,2005-03-22,5800.0
DPC,2005-03-23,5800.0
DPC,2005-03-24,5800.0
DPC,2005-03-25,5700.0
DPC,2005-03-28,5700.0
DPC,2005-03-29,5600.0
DPC,2005-03-30,5600.0
DPC,2005-03-31,5500.0
DPC,2005-04-01,5500.0
DPC,2005-04-04,5500.0
DPC,2005-04-05,5500.0
DPC,2005-04-06,5500.0
DPC,2005-04-07,5500.0
DPC,2005-04-08,5300.0
DPC,2005-04-11,5300.0
DPC,2005-04-12,5300.0
DPC,2005-04-13,5500.0
DPC,2005-04-14,5300.0
DPC,2005-04-15,5500.0
DPC,2005-04-18,5500.0
DPC,2005-04-19,5500.0
DPC,2005-04-20,5500.0
DPC,2005-04-21,5500.0
DPC,2005-04-22,5500.0
DPC,2005-04-25,5300.0
DPC,2005-04-26,5300.0
DPC,2005-04-27,5300.0
DPC,2005-04-28,5300.0
DPC,2005-04-29,5500.0
DPC,2005-05-04,5500.0
DPC,2005-05-05,5500.0
DPC,2005-05-06,5500.0
DPC,2005-05-09,5500.0
DPC,2005-05-10,5500.0
DPC,2005-05-11,5200.0
DPC,2005-05-12,5300.0
DPC,2005-05-13,5300.0
DPC,2005-05-16,5300.0
DPC,2005-05-17,5300.0
DPC,2005-05-18,5300.0
DPC,2005-05-19,5300.0
DPC,2005-05-20,5000.0
DPC,2005-05-23,5300.0
DPC,2005-05-24,5500.0
DPC,2005-05-25,5300.0
DPC,2005-05-26,5200.0
DPC,2005-05-27,5300.0
DPC,2005-05-30,5300.0
DPC,2005-05-31,5500.0
DPC,2005-06-01,5500.0
DPC,2005-06-02,5200.0
DPC,2005-06-03,5200.0
DPC,2005-06-06,5200.0
DPC,2005-06-07,5200.0
DPC,2005-06-08,5200.0
DPC,2005-06-09,5300.0
DPC,2005-06-10,5500.0
DPC,2005-06-13,5300.0
DPC,2005-06-14,5500.0
DPC,2005-06-15,5300.0
DPC,2005-06-16,5500.0
DPC,2005-06-17,5300.0
DPC,2005-06-20,5300.0
DPC,2005-06-21,5300.0
DPC,2005-06-22,5300.0
DPC,2005-06-23,5300.0
DPC,2005-06-24,5400.0
DPC,2005-06-27,5200.0
DPC,2005-06-28,5200.0
DPC,2005-06-29,5300.0
DPC,2005-06-30,5300.0
DPC,2005-07-01,5300.0
DPC,2005-07-04,5300.0
DPC,2005-07-05,5300.0
DPC,2005-07-06,5200.0
DPC,2005-07-07,5200.0
DPC,2005-07-08,5200.0
DPC,2005-07-11,5200.0
DPC,2005-07-12,5200.0
DPC,2005-07-13,5200.0
DPC,2005-07-14,5300.0
DPC,2005-07-15,5300.0
DPC,2005-07-18,5200.0
DPC,2005-07-19,5300.0
DPC,2005-07-20,5300.0
DPC,2005-07-21,5600.0
DPC,2005-07-22,5800.0
DPC,2005-07-25,6000.0
DPC,2005-07-26,6300.0
DPC,2005-07-27,6300.0
DPC,2005-07-28,6000.0
DPC,2005-07-29,5800.0
DPC,2005-08-01,5900.0
DPC,2005-08-02,6000.0
DPC,2005-08-03,6100.0
DPC,2005-08-04,6000.0
DPC,2005-08-05,5900.0
DPC,2005-08-08,5900.0
DPC,2005-08-09,5900.0
DPC,2005-08-10,5900.0
DPC,2005-08-11,5900.0
DPC,2005-08-12,5900.0
DPC,2005-08-15,5800.0
DPC,2005-08-16,5800.0
DPC,2005-08-17,5800.0
DPC,2005-08-18,5800.0
DPC,2005-08-19,5800.0
DPC,2005-08-22,5800.0
DPC,2005-08-23,5800.0
DPC,2005-08-24,5800.0
DPC,2005-08-25,5800.0
DPC,2005-08-26,5800.0
DPC,2005-08-29,5900.0
DPC,2005-08-30,5800.0
DPC,2005-08-31,5800.0
DPC,2005-09-01,5800.0
DPC,2005-09-05,5800.0
DPC,2005-09-06,5900.0
DPC,2005-09-07,5900.0
DPC,2005-09-08,5900.0
DPC,2005-09-09,5900.0
DPC,2005-09-12,5800.0
DPC,2005-09-13,5800.0
DPC,2005-09-14,5900.0
DPC,2005-09-15,5800.0
DPC,2005-09-16,5900.0
DPC,2005-09-19,5900.0
DPC,2005-09-20,6100.0
DPC,2005-09-21,6100.0
DPC,2005-09-22,6100.0
DPC,2005-09-23,5900.0
DPC,2005-09-26,5800.0
DPC,2005-09-27,5800.0
DPC,2005-09-28,5800.0
DPC,2005-09-29,5800.0
DPC,2005-09-30,6000.0
DPC,2005-10-03,6000.0
DPC,2005-10-04,5900.0
DPC,2005-10-05,5900.0
DPC,2005-10-06,5900.0
DPC,2005-10-07,6000.0
DPC,2005-10-10,5900.0
DPC,2005-10-11,5900.0
DPC,2005-10-12,5900.0
DPC,2005-10-13,6000.0
DPC,2005-10-14,5800.0
DPC,2005-10-17,5900.0
DPC,2005-10-18,5900.0
DPC,2005-10-19,6200.0
DPC,2005-10-20,6500.0
DPC,2005-10-21,6800.0
DPC,2005-10-24,7100.0
DPC,2005-10-25,7200.0
DPC,2005-10-26,7100.0
DPC,2005-10-27,7000.0
DPC,2005-10-28,7100.0
DPC,2005-10-31,7100.0
DPC,2005-11-01,7000.0
DPC,2005-11-02,7100.0
DPC,2005-11-03,7100.0
DPC,2005-11-04,7100.0
DPC,2005-11-07,7100.0
DPC,2005-11-08,7100.0
DPC,2005-11-09,7100.0
DPC,2005-11-10,7200.0
DPC,2005-11-11,7400.0
DPC,2005-11-14,7800.0
DPC,2005-11-15,8100.0
DPC,2005-11-16,7800.0
DPC,2005-11-17,8100.0
DPC,2005-11-18,7900.0
DPC,2005-11-21,8100.0
DPC,2005-11-22,7900.0
DPC,2005-11-23,7800.0
DPC,2005-11-24,7700.0
DPC,2005-11-25,7800.0
DPC,2005-11-28,7800.0
DPC,2005-11-29,7800.0
DPC,2005-11-30,8000.0
DPC,2005-12-01,7800.0
DPC,2005-12-02,7800.0
DPC,2005-12-05,7800.0
DPC,2005-12-06,7800.0
DPC,2005-12-07,7700.0
DPC,2005-12-08,7700.0
DPC,2005-12-09,7700.0
DPC,2005-12-12,7700.0
DPC,2005-12-13,7600.0
DPC,2005-12-14,7500.0
DPC,2005-12-15,7500.0
DPC,2005-12-16,7500.0
DPC,2005-12-19,7500.0
DPC,2005-12-20,7500.0
DPC,2005-12-21,7400.0
DPC,2005-12-22,7400.0
DPC,2005-12-23,7200.0
DPC,2005-12-26,7100.0
DPC,2005-12-27,7200.0
DPC,2005-12-28,7200.0
DPC,2005-12-29,7100.0
DPC,2005-12-30,7200.0
DPC,2006-01-03,7400.0
DPC,2006-01-04,7400.0
DPC,2006-01-05,7300.0
DPC,2006-01-06,7400.0
DPC,2006-01-09,7300.0
DPC,2006-01-10,7200.0
DPC,2006-01-11,7200.0
DPC,2006-01-12,7200.0
DPC,2006-01-13,7200.0
DPC,2006-01-17,7200.0
DPC,2006-01-18,7200.0
DPC,2006-01-19,7300.0
DPC,2006-01-20,7200.0
DPC,2006-01-23,7400.0
DPC,2006-01-24,7400.0
DPC,2006-01-25,7700.0
DPC,2006-01-26,7900.0
DPC,2006-01-27,7900.0
DPC,2006-02-06,7900.0
DPC,2006-02-07,7500.0
DPC,2006-02-08,7700.0
DPC,2006-02-09,7900.0
DPC,2006-02-10,7900.0
DPC,2006-02-13,8000.0
DPC,2006-02-14,8000.0
DPC,2006-02-15,8100.0
DPC,2006-02-16,8300.0
DPC,2006-02-17,8400.0
DPC,2006-02-20,8400.0
DPC,2006-02-21,8400.0
DPC,2006-02-22,8100.0
DPC,2006-02-23,8100.0
DPC,2006-02-24,8200.0
DPC,2006-02-27,8300.0
DPC,2006-02-28,8300.0
DPC,2006-03-01,8300.0
DPC,2006-03-02,8400.0
DPC,2006-03-03,8400.0
DPC,2006-03-06,8400.0
DPC,2006-03-07,8600.0
DPC,2006-03-08,8800.0
DPC,2006-03-09,9100.0
DPC,2006-03-10,9600.0
DPC,2006-03-13,10000.0
DPC,2006-03-14,10000.0
DPC,2006-03-15,9600.0
DPC,2006-03-16,9700.0
DPC,2006-03-17,10100.0
DPC,2006-03-20,10600.0
DPC,2006-03-21,11100.0
DPC,2006-03-22,11600.0
DPC,2006-03-23,11400.0
DPC,2006-03-24,10900.0
DPC,2006-03-27,11000.0
DPC,2006-03-28,11600.0
DPC,2006-03-29,11700.0
DPC,2006-03-30,11800.0
DPC,2006-03-31,12200.0
DPC,2006-04-03,12700.0
DPC,2006-04-04,12200.0
DPC,2006-04-05,11600.0
DPC,2006-04-06,12200.0
DPC,2006-04-07,12700.0
DPC,2006-04-10,13300.0
DPC,2006-04-11,14000.0
DPC,2006-04-12,14600.0
DPC,2006-04-13,15300.0
DPC,2006-04-14,16100.0
DPC,2006-04-17,16800.0
DPC,2006-04-18,17600.0
DPC,2006-04-19,18500.0
DPC,2006-04-20,19400.0
DPC,2006-04-21,20300.0
DPC,2006-04-24,21300.0
DPC,2006-04-25,22300.0
DPC,2006-04-26,23400.0
DPC,2006-04-27,24000.0
DPC,2006-04-28,22900.0
DPC,2006-05-03,21800.0
DPC,2006-05-04,20800.0
DPC,2006-05-05,19800.0
DPC,2006-05-08,18800.0
DPC,2006-05-09,17900.0
DPC,2006-05-10,17000.0
DPC,2006-05-11,16200.0
DPC,2006-05-12,17000.0
DPC,2006-05-15,17800.0
DPC,2006-05-16,17000.0
DPC,2006-05-17,16900.0
DPC,2006-05-18,16100.0
DPC,2006-05-19,15300.0
DPC,2006-05-22,14600.0
DPC,2006-05-23,13800.0
DPC,2006-05-24,13200.0
DPC,2006-05-25,13300.0
DPC,2006-05-26,12900.0
DPC,2006-05-29,12900.0
DPC,2006-05-30,12300.0
DPC,2006-05-31,11800.0
DPC,2006-06-01,11200.0
DPC,2006-06-02,11700.0
DPC,2006-06-05,12300.0
DPC,2006-06-06,12900.0
DPC,2006-06-07,12700.0
DPC,2006-06-08,12700.0
DPC,2006-06-09,12700.0
DPC,2006-06-12,12500.0
DPC,2006-06-13,12300.0
DPC,2006-06-14,12700.0
DPC,2006-06-15,12300.0
DPC,2006-06-16,12000.0
DPC,2006-06-19,12000.0
DPC,2006-06-20,11900.0
DPC,2006-06-21,11400.0
DPC,2006-06-22,11900.0
DPC,2006-06-23,11800.0
DPC,2006-06-26,11700.0
DPC,2006-06-27,11800.0
DPC,2006-06-28,12000.0
DPC,2006-06-29,12100.0
DPC,2006-06-30,12200.0
DPC,2006-07-03,11800.0
DPC,2006-07-04,11800.0
DPC,2006-07-05,12000.0
DPC,2006-07-06,12000.0
DPC,2006-07-07,12000.0
DPC,2006-07-10,12000.0
DPC,2006-07-11,11800.0
DPC,2006-07-12,11800.0
DPC,2006-07-13,11600.0
DPC,2006-07-14,11600.0
DPC,2006-07-17,11400.0
DPC,2006-07-18,11100.0
DPC,2006-07-19,10800.0
DPC,2006-07-20,10800.0
DPC,2006-07-21,10400.0
DPC,2006-07-24,10300.0
DPC,2006-07-25,10100.0
DPC,2006-07-26,10100.0
DPC,2006-07-27,10100.0
DPC,2006-07-28,10300.0
DPC,2006-07-31,10100.0
DPC,2006-08-01,9600.0
DPC,2006-08-02,9700.0
DPC,2006-08-03,10200.0
DPC,2006-08-04,10700.0
DPC,2006-08-07,10100.0
DPC,2006-08-08,10100.0
DPC,2006-08-09,10200.0
DPC,2006-08-10,10200.0
DPC,2006-08-11,10400.0
DPC,2006-08-14,10900.0
DPC,2006-08-15,10700.0
DPC,2006-08-16,11200.0
DPC,2006-08-17,11700.0
DPC,2006-08-18,12000.0
DPC,2006-08-21,12000.0
DPC,2006-08-22,11700.0
DPC,2006-08-23,11800.0
DPC,2006-08-24,11800.0
DPC,2006-08-25,11800.0
DPC,2006-08-28,11900.0
DPC,2006-08-29,12000.0
DPC,2006-08-30,12200.0
DPC,2006-08-31,12200.0
DPC,2006-09-01,12300.0
DPC,2006-09-05,12900.0
DPC,2006-09-06,12900.0
DPC,2006-09-07,12900.0
DPC,2006-09-08,13500.0
DPC,2006-09-11,14100.0
DPC,2006-09-12,14200.0
DPC,2006-09-13,14300.0
DPC,2006-09-14,14000.0
DPC,2006-09-15,13300.0
DPC,2006-09-18,14000.0
DPC,2006-09-19,14600.0
DPC,2006-09-20,14600.0
DPC,2006-09-21,14100.0
DPC,2006-09-22,14300.0
DPC,2006-09-25,14300.0
DPC,2006-09-26,14300.0
DPC,2006-09-27,14300.0
DPC,2006-09-28,14200.0
DPC,2006-09-29,13900.0
DPC,2006-10-02,13900.0
DPC,2006-10-03,13900.0
DPC,2006-10-04,13700.0
DPC,2006-10-05,13400.0
DPC,2006-10-06,13600.0
DPC,2006-10-09,13600.0
DPC,2006-10-10,13100.0
DPC,2006-10-11,13600.0
DPC,2006-10-12,13600.0
DPC,2006-10-13,13500.0
DPC,2006-10-16,13500.0
DPC,2006-10-17,13000.0
DPC,2006-10-18,12500.0
DPC,2006-10-19,12800.0
DPC,2006-10-20,12800.0
DPC,2006-10-23,12700.0
DPC,2006-10-24,12400.0
DPC,2006-10-25,12500.0
DPC,2006-10-26,12700.0
DPC,2006-10-27,12600.0
DPC,2006-10-30,12000.0
DPC,2006-10-31,11900.0
DPC,2006-11-01,12400.0
DPC,2006-11-02,12500.0
DPC,2006-11-03,12300.0
DPC,2006-11-06,12300.0
DPC,2006-11-07,12300.0
DPC,2006-11-08,12300.0
DPC,2006-11-09,12300.0
DPC,2006-11-10,12300.0
DPC,2006-11-13,12100.0
DPC,2006-11-14,12000.0
DPC,2006-11-15,12100.0
DPC,2006-11-16,12000.0
DPC,2006-11-17,12000.0
DPC,2006-11-20,12000.0
DPC,2006-11-21,11700.0
DPC,2006-11-22,11700.0
DPC,2006-11-23,11800.0
DPC,2006-11-24,12400.0
DPC,2006-11-27,12400.0
DPC,2006-11-28,12000.0
DPC,2006-11-29,12000.0
DPC,2006-11-30,11800.0
DPC,2006-12-01,11800.0
DPC,2006-12-04,11700.0
DPC,2006-12-05,11700.0
DPC,2006-12-06,11400.0
DPC,2006-12-07,11200.0
DPC,2006-12-08,11300.0
DPC,2006-12-11,11700.0
DPC,2006-12-12,12300.0
DPC,2006-12-13,12900.0
DPC,2006-12-14,13500.0
DPC,2006-12-15,14100.0
DPC,2006-12-18,14800.0
DPC,2006-12-19,15500.0
DPC,2006-12-20,16200.0
DPC,2006-12-21,16900.0
DPC,2006-12-22,16800.0
DPC,2006-12-25,17000.0
DPC,2006-12-26,17800.0
DPC,2006-12-27,18700.0
DPC,2006-12-28,19600.0
DPC,2006-12-29,20500.0
DPC,2007-01-02,19600.0
DPC,2007-01-03,18800.0
DPC,2007-01-04,19500.0
DPC,2007-01-05,19500.0
DPC,2007-01-08,18600.0
DPC,2007-01-09,18600.0
DPC,2007-01-10,19500.0
DPC,2007-01-11,20500.0
DPC,2007-01-12,21400.0
DPC,2007-01-15,22500.0
DPC,2007-01-16,23600.0
DPC,2007-01-17,24800.0
DPC,2007-01-18,26000.0
DPC,2007-01-19,27300.0
DPC,2007-01-22,28600.0
DPC,2007-01-23,30000.0
DPC,2007-01-24,31500.0
DPC,2007-01-25,33000.0
DPC,2007-01-26,34300.0
DPC,2007-01-29,33000.0
DPC,2007-01-30,32700.0
DPC,2007-01-31,32000.0
DPC,2007-02-01,30400.0
DPC,2007-02-02,28900.0
DPC,2007-02-05,27500.0
DPC,2007-02-06,28900.0
DPC,2007-02-07,30200.0
DPC,2007-02-08,31700.0
DPC,2007-02-09,30100.0
DPC,2007-02-12,30100.0
DPC,2007-02-13,31600.0
DPC,2007-02-14,32300.0
DPC,2007-02-15,32700.0
DPC,2007-02-26,34000.0
DPC,2007-02-27,34000.0
DPC,2007-02-28,32300.0
DPC,2007-03-01,32000.0
DPC,2007-03-02,33300.0
DPC,2007-03-05,33300.0
DPC,2007-03-06,32700.0
DPC,2007-03-07,32700.0
DPC,2007-03-08,34000.0
DPC,2007-03-09,35700.0
DPC,2007-03-12,37300.0
DPC,2007-03-13,39000.0
DPC,2007-03-14,37300.0
DPC,2007-03-15,35700.0
DPC,2007-03-16,34000.0
DPC,2007-03-19,35700.0
DPC,2007-03-20,35700.0
DPC,2007-03-21,34000.0
DPC,2007-03-22,32700.0
DPC,2007-03-23,32600.0
DPC,2007-03-26,31000.0
DPC,2007-03-27,29500.0
DPC,2007-03-28,28000.0
DPC,2007-03-29,29400.0
DPC,2007-03-30,30900.0
DPC,2007-04-02,29300.0
DPC,2007-04-03,27900.0
DPC,2007-04-04,29200.0
DPC,2007-04-05,28000.0
DPC,2007-04-06,26700.0
DPC,2007-04-09,26700.0
DPC,2007-04-10,27000.0
DPC,2007-04-11,27500.0
DPC,2007-04-12,26200.0
DPC,2007-04-13,24900.0
DPC,2007-04-16,23700.0
DPC,2007-04-17,22600.0
DPC,2007-04-18,23100.0
DPC,2007-04-19,23100.0
DPC,2007-04-20,22000.0
DPC,2007-04-23,20900.0
DPC,2007-04-24,20000.0
DPC,2007-04-25,20000.0
DPC,2007-05-02,20000.0
DPC,2007-05-03,20000.0
DPC,2007-05-04,20000.0
DPC,2007-05-07,20700.0
DPC,2007-05-08,21700.0
DPC,2007-05-09,21700.0
DPC,2007-05-10,21000.0
DPC,2007-05-11,21000.0
DPC,2007-05-14,22000.0
DPC,2007-05-15,22700.0
DPC,2007-05-16,22000.0
DPC,2007-05-17,21700.0
DPC,2007-05-18,22300.0
DPC,2007-05-21,22000.0
DPC,2007-05-22,22300.0
DPC,2007-05-23,23400.0
DPC,2007-05-24,23300.0
DPC,2007-05-25,22800.0
DPC,2007-05-28,22800.0
DPC,2007-05-29,22300.0
DPC,2007-05-30,21700.0
DPC,2007-05-31,22700.0
DPC,2007-06-01,22700.0
DPC,2007-06-04,22700.0
DPC,2007-06-05,22000.0
DPC,2007-06-06,23100.0
DPC,2007-06-07,24200.0
DPC,2007-06-08,25400.0
DPC,2007-06-11,26700.0
DPC,2007-06-12,28000.0
DPC,2007-06-13,26600.0
DPC,2007-06-14,25300.0
DPC,2007-06-15,24700.0
DPC,2007-06-18,25000.0
DPC,2007-06-19,25000.0
DPC,2007-06-20,25000.0
DPC,2007-06-21,24500.0
DPC,2007-06-22,24000.0
DPC,2007-06-25,23300.0
DPC,2007-06-26,23300.0
DPC,2007-06-27,22700.0
DPC,2007-06-28,22700.0
DPC,2007-06-29,22700.0
DPC,2007-07-02,21500.0
DPC,2007-07-03,21200.0
DPC,2007-07-04,22000.0
DPC,2007-07-05,22300.0
DPC,2007-07-06,22300.0
DPC,2007-07-09,22300.0
DPC,2007-07-10,22700.0
DPC,2007-07-11,22300.0
DPC,2007-07-12,22300.0
DPC,2007-07-13,22700.0
DPC,2007-07-16,21900.0
DPC,2007-07-17,22000.0
DPC,2007-07-18,22000.0
DPC,2007-07-19,22700.0
DPC,2007-07-20,22800.0
DPC,2007-07-23,23700.0
DPC,2007-07-24,22700.0
DPC,2007-07-25,22100.0
DPC,2007-07-26,22000.0
DPC,2007-07-27,21700.0
DPC,2007-07-30,20900.0
DPC,2007-07-31,19900.0
DPC,2007-08-01,20900.0
DPC,2007-08-02,20000.0
DPC,2007-08-03,19500.0
DPC,2007-08-06,19000.0
DPC,2007-08-07,19300.0
DPC,2007-08-08,19700.0
DPC,2007-08-09,19800.0
DPC,2007-08-10,19100.0
DPC,2007-08-13,19000.0
DPC,2007-08-14,19300.0
DPC,2007-08-15,19300.0
DPC,2007-08-16,19900.0
DPC,2007-08-17,20000.0
DPC,2007-08-20,20000.0
DPC,2007-08-21,20300.0
DPC,2007-08-22,20000.0
DPC,2007-08-23,19100.0
DPC,2007-08-24,19100.0
DPC,2007-08-27,19500.0
DPC,2007-08-28,19000.0
DPC,2007-08-29,19000.0
DPC,2007-08-30,19000.0
DPC,2007-08-31,19000.0
DPC,2007-09-04,19900.0
DPC,2007-09-05,20900.0
DPC,2007-09-06,21900.0
DPC,2007-09-07,22900.0
DPC,2007-09-10,22100.0
DPC,2007-09-11,22100.0
DPC,2007-09-12,22100.0
DPC,2007-09-13,22000.0
DPC,2007-09-14,22000.0
DPC,2007-09-17,21000.0
DPC,2007-09-18,21000.0
DPC,2007-09-19,21100.0
DPC,2007-09-20,21400.0
DPC,2007-09-21,21300.0
DPC,2007-09-24,21300.0
DPC,2007-09-25,22300.0
DPC,2007-09-26,22500.0
DPC,2007-09-27,23200.0
DPC,2007-09-28,23200.0
DPC,2007-10-01,23300.0
DPC,2007-10-02,22700.0
DPC,2007-10-03,22600.0
DPC,2007-10-04,22500.0
DPC,2007-10-05,22200.0
DPC,2007-10-08,23300.0
DPC,2007-10-09,24000.0
DPC,2007-10-10,24700.0
DPC,2007-10-11,23700.0
DPC,2007-10-12,23300.0
DPC,2007-10-15,23900.0
DPC,2007-10-16,25100.0
DPC,2007-10-17,26300.0
DPC,2007-10-18,25000.0
DPC,2007-10-19,25300.0
DPC,2007-10-22,26300.0
DPC,2007-10-23,27600.0
DPC,2007-10-24,28900.0
DPC,2007-10-25,30300.0
DPC,2007-10-26,31800.0
DPC,2007-10-29,30300.0
DPC,2007-10-30,31700.0
DPC,2007-10-31,31900.0
DPC,2007-11-01,31000.0
DPC,2007-11-02,29500.0
DPC,2007-11-05,28000.0
DPC,2007-11-06,26900.0
DPC,2007-11-07,27900.0
DPC,2007-11-08,27900.0
DPC,2007-11-09,26500.0
DPC,2007-11-12,25300.0
DPC,2007-11-13,24100.0
DPC,2007-11-14,25300.0
DPC,2007-11-15,25700.0
DPC,2007-11-16,25300.0
DPC,2007-11-19,25300.0
DPC,2007-11-20,25300.0
DPC,2007-11-21,24700.0
DPC,2007-11-22,24700.0
DPC,2007-11-23,24700.0
DPC,2007-11-26,25000.0
DPC,2007-11-27,25700.0
DPC,2007-11-28,25800.0
DPC,2007-11-29,24800.0
DPC,2007-11-30,26000.0
DPC,2007-12-03,27300.0
DPC,2007-12-04,28600.0
DPC,2007-12-05,28600.0
DPC,2007-12-06,27300.0
DPC,2007-12-07,27700.0
DPC,2007-12-10,27200.0
DPC,2007-12-11,26000.0
DPC,2007-12-12,26700.0
DPC,2007-12-13,26000.0
DPC,2007-12-14,26000.0
DPC,2007-12-17,25000.0
DPC,2007-12-18,25000.0
DPC,2007-12-19,26200.0
DPC,2007-12-20,25100.0
DPC,2007-12-21,26300.0
DPC,2007-12-24,26700.0
DPC,2007-12-25,26700.0
DPC,2007-12-26,26500.0
DPC,2007-12-27,26000.0
DPC,2007-12-28,26000.0
DPC,2008-01-02,25500.0
DPC,2008-01-03,25500.0
DPC,2008-01-04,25300.0
DPC,2008-01-07,24700.0
DPC,2008-01-08,25900.0
DPC,2008-01-09,25700.0
DPC,2008-01-10,24400.0
DPC,2008-01-11,24500.0
DPC,2008-01-14,23300.0
DPC,2008-01-15,22200.0
DPC,2008-01-16,23300.0
DPC,2008-01-17,23700.0
DPC,2008-01-18,22700.0
DPC,2008-01-21,23300.0
DPC,2008-01-22,22700.0
DPC,2008-01-23,22000.0
DPC,2008-01-24,21300.0
DPC,2008-01-25,22000.0
DPC,2008-01-28,21700.0
DPC,2008-01-29,22000.0
DPC,2008-01-30,23100.0
DPC,2008-01-31,23100.0
DPC,2008-02-01,24000.0
DPC,2008-02-12,24700.0
DPC,2008-02-13,24300.0
DPC,2008-02-14,24300.0
DPC,2008-02-15,23300.0
DPC,2008-02-18,23300.0
DPC,2008-02-19,22700.0
DPC,2008-02-20,21500.0
DPC,2008-02-21,20500.0
DPC,2008-02-22,19500.0
DPC,2008-02-25,20200.0
DPC,2008-02-26,19200.0
DPC,2008-02-27,18700.0
DPC,2008-02-28,18700.0
DPC,2008-02-29,18000.0
DPC,2008-03-03,17100.0
DPC,2008-03-04,16300.0
DPC,2008-03-05,15500.0
DPC,2008-03-06,16300.0
DPC,2008-03-07,17100.0
DPC,2008-03-10,17400.0
DPC,2008-03-11,16700.0
DPC,2008-03-12,17300.0
DPC,2008-03-13,17000.0
DPC,2008-03-14,16300.0
DPC,2008-03-17,15500.0
DPC,2008-03-18,14700.0
DPC,2008-03-19,14000.0
DPC,2008-03-20,13300.0
DPC,2008-03-21,12700.0
DPC,2008-03-24,12100.0
DPC,2008-03-25,11500.0
DPC,2008-03-26,11900.0
DPC,2008-03-27,11900.0
DPC,2008-03-28,12000.0
DPC,2008-03-31,12100.0
DPC,2008-04-01,12100.0
DPC,2008-04-02,12200.0
DPC,2008-04-03,12300.0
DPC,2008-04-04,12300.0
DPC,2008-04-07,12500.0
DPC,2008-04-08,12500.0
DPC,2008-04-09,12300.0
DPC,2008-04-10,12100.0
DPC,2008-04-11,11900.0
DPC,2008-04-16,11700.0
DPC,2008-04-17,11900.0
DPC,2008-04-18,11900.0
DPC,2008-04-21,11700.0
DPC,2008-04-22,11500.0
DPC,2008-04-23,11300.0
DPC,2008-04-24,11300.0
DPC,2008-04-25,11300.0
DPC,2008-04-28,11500.0
DPC,2008-04-29,11700.0
DPC,2008-05-05,11700.0
DPC,2008-05-06,11500.0
DPC,2008-05-07,11300.0
DPC,2008-05-08,11100.0
DPC,2008-05-09,10900.0
DPC,2008-05-12,10700.0
DPC,2008-05-13,10500.0
DPC,2008-05-14,10300.0
DPC,2008-05-15,10100.0
DPC,2008-05-16,9900.0
DPC,2008-05-19,10100.0
DPC,2008-05-20,10100.0
DPC,2008-05-21,9900.0
DPC,2008-05-22,9700.0
DPC,2008-05-23,9700.0
DPC,2008-05-26,9600.0
DPC,2008-05-30,9500.0
DPC,2008-06-02,9300.0
DPC,2008-06-03,9200.0
DPC,2008-06-04,9200.0
DPC,2008-06-05,9100.0
DPC,2008-06-06,8900.0
DPC,2008-06-09,8800.0
DPC,2008-06-10,8700.0
DPC,2008-06-11,8800.0
DPC,2008-06-12,8900.0
DPC,2008-06-13,9100.0
DPC,2008-06-16,9200.0
DPC,2008-06-17,9300.0
DPC,2008-06-18,9200.0
DPC,2008-06-19,8900.0
DPC,2008-06-20,8700.0
DPC,2008-06-23,8900.0
DPC,2008-06-24,9000.0
DPC,2008-06-25,9300.0
DPC,2008-06-26,9000.0
DPC,2008-06-27,9100.0
DPC,2008-06-30,8900.0
DPC,2008-07-01,9100.0
DPC,2008-07-02,9200.0
DPC,2008-07-03,9200.0
DPC,2008-07-04,9500.0
DPC,2008-07-07,9500.0
DPC,2008-07-08,9500.0
DPC,2008-07-09,9700.0
DPC,2008-07-10,9400.0
DPC,2008-07-11,9700.0
DPC,2008-07-14,9900.0
DPC,2008-07-15,10200.0
DPC,2008-07-16,10300.0
DPC,2008-07-17,10600.0
DPC,2008-07-18,10300.0
DPC,2008-07-21,10300.0
DPC,2008-07-22,10100.0
DPC,2008-07-23,9800.0
DPC,2008-07-24,9500.0
DPC,2008-07-25,9300.0
DPC,2008-07-28,9000.0
DPC,2008-07-29,8700.0
DPC,2008-07-30,8500.0
DPC,2008-07-31,8400.0
DPC,2008-08-01,8300.0
DPC,2008-08-04,8500.0
DPC,2008-08-05,8700.0
DPC,2008-08-06,8500.0
DPC,2008-08-07,8700.0
DPC,2008-08-08,8800.0
DPC,2008-08-11,9000.0
DPC,2008-08-12,9300.0
DPC,2008-08-13,9300.0
DPC,2008-08-14,9600.0
DPC,2008-08-15,9900.0
DPC,2008-08-18,10300.0
DPC,2008-08-19,10300.0
DPC,2008-08-20,9800.0
DPC,2008-08-21,9700.0
DPC,2008-08-22,10000.0
DPC,2008-08-25,10500.0
DPC,2008-08-26,10900.0
DPC,2008-08-27,11500.0
DPC,2008-08-28,10900.0
DPC,2008-08-29,10400.0
DPC,2008-09-03,10900.0
DPC,2008-09-04,11200.0
DPC,2008-09-05,11000.0
DPC,2008-09-08,10500.0
DPC,2008-09-09,10300.0
DPC,2008-09-10,10600.0
DPC,2008-09-11,10100.0
DPC,2008-09-12,10100.0
DPC,2008-09-15,9700.0
DPC,2008-09-16,9500.0
DPC,2008-09-17,9100.0
DPC,2008-09-18,8700.0
DPC,2008-09-19,9100.0
DPC,2008-09-22,9500.0
DPC,2008-09-23,9900.0
DPC,2008-09-24,9500.0
DPC,2008-09-25,9700.0
DPC,2008-09-26,10000.0
DPC,2008-09-29,10300.0
DPC,2008-09-30,9800.0
DPC,2008-10-01,10100.0
DPC,2008-10-02,9700.0
DPC,2008-10-03,9300.0
DPC,2008-10-06,9300.0
DPC,2008-10-07,9300.0
DPC,2008-10-08,8900.0
DPC,2008-10-09,9300.0
DPC,2008-10-10,8900.0
DPC,2008-10-13,8900.0
DPC,2008-10-14,9300.0
DPC,2008-10-15,9300.0
DPC,2008-10-16,9300.0
DPC,2008-10-17,8900.0
DPC,2008-10-20,8500.0
DPC,2008-10-21,8500.0
DPC,2008-10-22,8300.0
DPC,2008-10-23,8300.0
DPC,2008-10-24,8300.0
DPC,2008-10-27,7900.0
DPC,2008-10-28,7600.0
DPC,2008-10-29,7900.0
DPC,2008-10-30,7600.0
DPC,2008-10-31,7600.0
DPC,2008-11-03,7700.0
DPC,2008-11-04,8000.0
DPC,2008-11-05,8300.0
DPC,2008-11-06,7900.0
DPC,2008-11-07,8300.0
DPC,2008-11-10,8500.0
DPC,2008-11-11,8100.0
DPC,2008-11-12,8100.0
DPC,2008-11-13,8100.0
DPC,2008-11-14,7700.0
DPC,2008-11-17,7500.0
DPC,2008-11-18,7100.0
DPC,2008-11-19,7300.0
DPC,2008-11-20,7300.0
DPC,2008-11-21,7300.0
DPC,2008-11-24,7300.0
DPC,2008-11-25,7000.0
DPC,2008-11-26,6700.0
DPC,2008-11-27,6700.0
DPC,2008-11-28,7000.0
DPC,2008-12-01,7300.0
DPC,2008-12-02,7300.0
DPC,2008-12-03,7300.0
DPC,2008-12-04,7600.0
DPC,2008-12-05,7600.0
DPC,2008-12-08,7300.0
DPC,2008-12-09,6900.0
DPC,2008-12-10,6600.0
DPC,2008-12-11,6300.0
DPC,2008-12-12,6300.0
DPC,2008-12-15,6100.0
DPC,2008-12-16,6300.0
DPC,2008-12-17,6600.0
DPC,2008-12-18,6600.0
DPC,2008-12-19,6600.0
DPC,2008-12-22,6600.0
DPC,2008-12-23,6300.0
DPC,2008-12-24,6100.0
DPC,2008-12-25,6100.0
DPC,2008-12-26,6400.0
DPC,2008-12-29,6700.0
DPC,2008-12-30,6900.0
DPC,2008-12-31,6600.0
DPC,2009-01-02,6600.0
DPC,2009-01-05,6900.0
DPC,2009-01-06,7100.0
DPC,2009-01-07,7100.0
DPC,2009-01-08,6700.0
DPC,2009-01-09,6700.0
DPC,2009-01-12,7000.0
DPC,2009-01-13,6900.0
DPC,2009-01-14,6600.0
DPC,2009-01-15,6600.0
DPC,2009-01-16,6600.0
DPC,2009-01-19,6600.0
DPC,2009-01-20,6300.0
DPC,2009-01-21,6300.0
DPC,2009-01-22,6100.0
DPC,2009-01-23,6300.0
DPC,2009-02-02,6300.0
DPC,2009-02-03,6300.0
DPC,2009-02-04,6300.0
DPC,2009-02-05,6300.0
DPC,2009-02-06,6600.0
DPC,2009-02-09,6600.0
DPC,2009-02-10,6300.0
DPC,2009-02-11,6600.0
DPC,2009-02-12,6600.0
DPC,2009-02-13,6300.0
DPC,2009-02-16,6200.0
DPC,2009-02-17,5900.0
DPC,2009-02-18,6100.0
DPC,2009-02-19,5900.0
DPC,2009-02-20,6000.0
DPC,2009-02-23,5800.0
DPC,2009-02-24,5500.0
DPC,2009-02-25,5700.0
DPC,2009-02-26,5700.0
DPC,2009-02-27,5400.0
DPC,2009-03-02,5400.0
DPC,2009-03-03,5700.0
DPC,2009-03-04,5900.0
DPC,2009-03-05,6200.0
DPC,2009-03-06,6300.0
DPC,2009-03-09,6300.0
DPC,2009-03-10,6500.0
DPC,2009-03-11,6800.0
DPC,2009-03-12,6500.0
DPC,2009-03-13,6300.0
DPC,2009-03-16,6600.0
DPC,2009-03-17,6900.0
DPC,2009-03-18,7100.0
DPC,2009-03-19,6800.0
DPC,2009-03-20,6800.0
DPC,2009-03-23,6500.0
DPC,2009-03-24,6700.0
DPC,2009-03-25,6500.0
DPC,2009-03-26,6500.0
DPC,2009-03-27,6400.0
DPC,2009-03-30,6500.0
DPC,2009-03-31,6400.0
DPC,2009-04-01,6300.0
DPC,2009-04-02,6600.0
DPC,2009-04-03,6900.0
DPC,2009-04-07,7200.0
DPC,2009-04-08,7000.0
DPC,2009-04-09,7000.0
DPC,2009-04-10,7300.0
DPC,2009-04-13,7700.0
DPC,2009-04-14,8000.0
DPC,2009-04-15,8400.0
DPC,2009-04-16,8800.0
DPC,2009-04-17,9200.0
DPC,2009-04-20,8800.0
DPC,2009-04-21,8400.0
DPC,2009-04-22,8300.0
DPC,2009-04-23,7900.0
DPC,2009-04-24,7600.0
DPC,2009-04-27,7900.0
DPC,2009-04-28,8300.0
DPC,2009-04-29,8600.0
DPC,2009-05-04,8900.0
DPC,2009-05-05,9200.0
DPC,2009-05-06,8900.0
DPC,2009-05-07,9100.0
DPC,2009-05-08,8900.0
DPC,2009-05-11,9400.0
DPC,2009-05-12,9800.0
DPC,2009-05-13,10200.0
DPC,2009-05-14,10700.0
DPC,2009-05-15,11300.0
DPC,2009-05-18,11800.0
DPC,2009-05-19,12300.0
DPC,2009-05-20,12400.0
DPC,2009-05-21,12300.0
DPC,2009-05-22,11800.0
DPC,2009-05-25,12100.0
DPC,2009-05-26,12100.0
DPC,2009-05-27,12000.0
DPC,2009-05-28,11800.0
DPC,2009-05-29,11500.0
DPC,2009-06-01,12000.0
DPC,2009-06-10,12700.0
DPC,2009-06-11,13600.0
DPC,2009-06-12,14500.0
DPC,2009-06-15,15500.0
DPC,2009-06-16,14400.0
DPC,2009-06-17,15900.0
DPC,2009-06-18,15300.0
DPC,2009-06-19,15500.0
DPC,2009-06-22,14400.0
DPC,2009-06-23,13500.0
DPC,2009-06-24,14400.0
DPC,2009-06-25,14300.0
DPC,2009-06-26,13300.0
DPC,2009-06-29,13100.0
DPC,2009-06-30,12300.0
DPC,2009-07-01,12300.0
DPC,2009-07-02,12500.0
DPC,2009-07-03,11500.0
DPC,2009-07-06,11800.0
DPC,2009-07-07,12600.0
DPC,2009-07-08,12300.0
DPC,2009-07-09,12600.0
DPC,2009-07-10,12300.0
DPC,2009-07-13,12300.0
DPC,2009-07-14,12300.0
DPC,2009-07-15,12600.0
DPC,2009-07-16,12600.0
DPC,2009-07-17,11900.0
DPC,2009-07-20,12300.0
DPC,2009-07-21,11800.0
DPC,2009-07-22,11800.0
DPC,2009-07-23,12400.0
DPC,2009-07-24,12900.0
DPC,2009-07-27,13300.0
DPC,2009-07-28,13600.0
DPC,2009-07-29,12900.0
DPC,2009-07-30,13000.0
DPC,2009-07-31,12900.0
DPC,2009-08-03,12700.0
DPC,2009-08-04,13000.0
DPC,2009-08-05,12300.0
DPC,2009-08-06,12300.0
DPC,2009-08-07,11900.0
DPC,2009-08-10,12100.0
DPC,2009-08-11,12100.0
DPC,2009-08-12,11700.0
DPC,2009-08-13,12300.0
DPC,2009-08-14,12400.0
DPC,2009-08-17,12700.0
DPC,2009-08-18,12800.0
DPC,2009-08-19,13300.0
DPC,2009-08-20,12400.0
DPC,2009-08-21,12000.0
DPC,2009-08-24,13000.0
DPC,2009-08-25,13200.0
DPC,2009-08-26,12900.0
DPC,2009-08-27,13000.0
DPC,2009-08-28,12900.0
DPC,2009-08-31,12300.0
DPC,2009-09-01,13100.0
DPC,2009-09-03,13800.0
DPC,2009-09-04,14400.0
DPC,2009-09-07,15400.0
DPC,2009-09-08,16400.0
DPC,2009-09-09,17500.0
DPC,2009-09-10,18500.0
DPC,2009-09-11,19000.0
DPC,2009-09-14,17700.0
DPC,2009-09-15,16800.0
DPC,2009-09-16,16900.0
DPC,2009-09-17,16400.0
DPC,2009-09-18,16800.0
DPC,2009-09-21,17200.0
DPC,2009-09-22,17000.0
DPC,2009-09-23,16700.0
DPC,2009-09-24,17000.0
DPC,2009-09-25,17000.0
DPC,2009-09-28,16200.0
DPC,2009-09-29,17300.0
DPC,2009-09-30,17300.0
DPC,2009-10-01,18500.0
DPC,2009-10-02,19800.0
DPC,2009-10-05,20600.0
DPC,2009-10-06,21900.0
DPC,2009-10-07,21300.0
DPC,2009-10-08,20300.0
DPC,2009-10-09,21600.0
DPC,2009-10-12,22300.0
DPC,2009-10-13,21600.0
DPC,2009-10-14,21300.0
DPC,2009-10-15,21600.0
DPC,2009-10-16,20600.0
DPC,2009-10-19,20200.0
DPC,2009-10-20,20300.0
DPC,2009-10-21,19800.0
DPC,2009-10-22,20300.0
DPC,2009-10-23,20600.0
DPC,2009-10-26,21300.0
DPC,2009-10-27,20000.0
DPC,2009-10-28,19800.0
DPC,2009-10-29,20200.0
DPC,2009-10-30,20100.0
DPC,2009-11-02,20100.0
DPC,2009-11-03,18900.0
DPC,2009-11-04,19100.0
DPC,2009-11-05,19800.0
DPC,2009-11-06,19800.0
DPC,2009-11-09,18700.0
DPC,2009-11-10,19000.0
DPC,2009-11-11,19600.0
DPC,2009-11-12,19700.0
DPC,2009-11-13,19800.0
DPC,2009-11-16,18400.0
DPC,2009-11-17,18400.0
DPC,2009-11-18,19500.0
DPC,2009-11-19,19100.0
DPC,2009-11-20,19400.0
DPC,2009-11-23,18200.0
DPC,2009-11-24,18000.0
DPC,2009-11-25,16900.0
DPC,2009-11-26,15900.0
DPC,2009-11-27,14900.0
DPC,2009-11-30,16000.0
DPC,2009-12-01,15900.0
DPC,2009-12-02,16200.0
DPC,2009-12-03,15500.0
DPC,2009-12-04,15900.0
DPC,2009-12-07,14600.0
DPC,2009-12-08,13700.0
DPC,2009-12-09,12800.0
DPC,2009-12-10,12000.0
DPC,2009-12-11,11700.0
DPC,2009-12-14,12500.0
DPC,2009-12-15,12900.0
DPC,2009-12-16,11700.0
DPC,2009-12-17,12400.0
DPC,2009-12-18,12000.0
DPC,2009-12-21,12800.0
DPC,2009-12-22,12600.0
DPC,2009-12-23,14000.0
DPC,2009-12-24,14800.0
DPC,2009-12-25,15500.0
DPC,2009-12-28,14800.0
DPC,2009-12-29,15300.0
DPC,2009-12-30,15600.0
DPC,2009-12-31,15900.0
DPC,2010-01-04,17100.0
DPC,2010-01-05,17200.0
DPC,2010-01-06,17700.0
DPC,2010-01-07,16200.0
DPC,2010-01-08,15600.0
DPC,2010-01-11,15400.0
DPC,2010-01-12,14500.0
DPC,2010-01-13,15100.0
DPC,2010-01-14,15100.0
DPC,2010-01-15,15700.0
DPC,2010-01-18,14600.0
DPC,2010-01-19,15100.0
DPC,2010-01-20,14300.0
DPC,2010-01-21,13700.0
DPC,2010-01-22,13600.0
DPC,2010-01-25,13700.0
DPC,2010-01-26,14400.0
DPC,2010-01-27,14400.0
DPC,2010-01-28,13600.0
DPC,2010-01-29,13700.0
DPC,2010-02-01,13300.0
DPC,2010-02-02,13300.0
DPC,2010-02-03,13300.0
DPC,2010-02-04,13600.0
DPC,2010-02-05,13000.0
DPC,2010-02-08,13100.0
DPC,2010-02-09,13100.0
DPC,2010-02-10,13200.0
DPC,2010-02-11,13300.0
DPC,2010-02-12,13600.0
DPC,2010-02-22,13700.0
DPC,2010-02-23,13700.0
DPC,2010-02-24,13300.0
DPC,2010-02-25,13400.0
DPC,2010-02-26,13300.0
DPC,2010-03-01,13300.0
DPC,2010-03-02,13300.0
DPC,2010-03-03,14100.0
DPC,2010-03-04,14900.0
DPC,2010-03-05,15700.0
DPC,2010-03-08,16400.0
DPC,2010-03-09,16600.0
DPC,2010-03-10,15700.0
DPC,2010-03-11,16000.0
DPC,2010-03-12,16000.0
DPC,2010-03-15,16900.0
DPC,2010-03-16,15700.0
DPC,2010-03-17,15500.0
DPC,2010-03-18,15100.0
DPC,2010-03-19,15100.0
DPC,2010-03-22,14800.0
DPC,2010-03-23,14600.0
DPC,2010-03-24,14900.0
DPC,2010-03-25,14500.0
DPC,2010-03-26,14400.0
DPC,2010-03-29,15400.0
DPC,2010-03-30,14900.0
DPC,2010-03-31,14800.0
DPC,2010-04-01,15000.0
DPC,2010-04-02,13900.0
DPC,2010-04-05,14100.0
DPC,2010-04-06,14100.0
DPC,2010-04-07,14900.0
DPC,2010-04-08,15400.0
DPC,2010-04-09,15100.0
DPC,2010-04-12,14500.0
DPC,2010-04-13,14400.0
DPC,2010-04-14,14400.0
DPC,2010-04-15,14800.0
DPC,2010-04-16,14700.0
DPC,2010-04-19,14400.0
DPC,2010-04-20,15300.0
DPC,2010-04-21,15400.0
DPC,2010-04-22,15500.0
DPC,2010-04-26,16400.0
DPC,2010-04-27,17400.0
DPC,2010-04-28,18500.0
DPC,2010-04-29,19100.0
DPC,2010-05-04,18200.0
DPC,2010-05-05,17700.0
DPC,2010-05-06,18800.0
DPC,2010-05-07,17700.0
DPC,2010-05-10,17000.0
DPC,2010-05-11,17000.0
DPC,2010-05-12,16000.0
DPC,2010-05-13,16200.0
DPC,2010-05-14,16300.0
DPC,2010-05-17,15900.0
DPC,2010-05-18,15400.0
DPC,2010-05-19,14600.0
DPC,2010-05-20,15100.0
DPC,2010-05-21,13900.0
DPC,2010-05-24,14900.0
DPC,2010-05-25,14600.0
DPC,2010-05-26,15300.0
DPC,2010-05-27,15000.0
DPC,2010-05-28,15900.0
DPC,2010-05-31,15900.0
DPC,2010-06-01,16200.0
DPC,2010-06-02,16500.0
DPC,2010-06-03,17400.0
DPC,2010-06-04,17300.0
DPC,2010-06-07,16600.0
DPC,2010-06-08,17100.0
DPC,2010-06-09,17000.0
DPC,2010-06-10,16900.0
DPC,2010-06-11,17000.0
DPC,2010-06-14,16900.0
DPC,2010-06-15,17200.0
DPC,2010-06-16,17200.0
DPC,2010-06-17,17100.0
DPC,2010-06-18,17000.0
DPC,2010-06-21,17300.0
DPC,2010-06-22,16700.0
DPC,2010-06-23,17100.0
DPC,2010-06-24,17000.0
DPC,2010-06-25,16700.0
DPC,2010-06-28,16700.0
DPC,2010-06-29,16600.0
DPC,2010-06-30,16300.0
DPC,2010-07-01,16300.0
DPC,2010-07-02,16700.0
DPC,2010-07-05,17300.0
DPC,2010-07-06,17200.0
DPC,2010-07-07,17000.0
DPC,2010-07-08,17100.0
DPC,2010-07-09,17000.0
DPC,2010-07-12,17100.0
DPC,2010-07-13,17600.0
DPC,2010-07-14,18800.0
DPC,2010-07-15,20000.0
DPC,2010-07-16,21400.0
DPC,2010-07-19,22200.0
DPC,2010-07-20,20500.0
DPC,2010-07-21,19200.0
DPC,2010-07-22,19000.0
DPC,2010-07-23,19800.0
DPC,2010-07-26,18800.0
DPC,2010-07-27,18300.0
DPC,2010-07-28,18800.0
DPC,2010-07-29,18600.0
DPC,2010-07-30,18800.0
DPC,2010-08-02,17600.0
DPC,2010-08-03,17600.0
DPC,2010-08-04,17000.0
DPC,2010-08-05,17800.0
DPC,2010-08-06,17700.0
DPC,2010-08-09,16600.0
DPC,2010-08-10,16600.0
DPC,2010-08-11,16700.0
DPC,2010-08-12,15800.0
DPC,2010-08-13,15600.0
DPC,2010-08-16,16700.0
DPC,2010-08-17,17800.0
DPC,2010-08-18,17100.0
DPC,2010-08-19,17000.0
DPC,2010-08-20,16800.0
DPC,2010-08-23,16400.0
DPC,2010-08-24,16000.0
DPC,2010-08-25,15100.0
DPC,2010-08-26,14400.0
DPC,2010-08-27,14700.0
DPC,2010-08-30,15700.0
DPC,2010-08-31,15900.0
DPC,2010-09-01,16600.0
DPC,2010-09-06,17000.0
DPC,2010-09-07,17800.0
DPC,2010-09-08,16600.0
DPC,2010-09-09,16400.0
DPC,2010-09-10,15700.0
DPC,2010-09-13,15100.0
DPC,2010-09-14,16100.0
DPC,2010-09-15,16000.0
DPC,2010-09-16,16600.0
DPC,2010-09-17,17400.0
DPC,2010-09-20,17300.0
DPC,2010-09-21,16500.0
DPC,2010-09-22,16500.0
DPC,2010-09-23,15700.0
DPC,2010-09-24,16000.0
DPC,2010-09-27,16700.0
DPC,2010-09-28,17500.0
DPC,2010-09-29,16300.0
DPC,2010-09-30,15400.0
DPC,2010-10-01,15400.0
DPC,2010-10-04,14800.0
DPC,2010-10-05,14900.0
DPC,2010-10-06,15900.0
DPC,2010-10-07,16700.0
DPC,2010-10-08,15600.0
DPC,2010-10-11,14800.0
DPC,2010-10-12,16200.0
DPC,2010-10-13,16200.0
DPC,2010-10-14,15100.0
DPC,2010-10-15,14400.0
DPC,2010-10-18,14400.0
DPC,2010-10-19,15400.0
DPC,2010-10-20,13800.0
DPC,2010-10-21,14100.0
DPC,2010-10-22,14100.0
DPC,2010-10-25,14100.0
DPC,2010-10-26,14100.0
DPC,2010-10-27,14300.0
DPC,2010-10-28,14200.0
DPC,2010-10-29,14200.0
DPC,2010-11-01,14200.0
DPC,2010-11-02,14200.0
DPC,2010-11-03,13400.0
DPC,2010-11-04,12400.0
DPC,2010-11-05,13200.0
DPC,2010-11-08,12900.0
DPC,2010-11-09,12900.0
DPC,2010-11-10,12700.0
DPC,2010-11-11,12500.0
DPC,2010-11-12,12000.0
DPC,2010-11-15,11200.0
DPC,2010-11-16,11800.0
DPC,2010-11-17,11800.0
DPC,2010-11-18,11800.0
DPC,2010-11-19,11600.0
DPC,2010-11-22,11400.0
DPC,2010-11-23,11800.0
DPC,2010-11-24,12000.0
DPC,2010-11-25,12400.0
DPC,2010-11-26,12300.0
DPC,2010-11-29,13000.0
DPC,2010-11-30,12900.0
DPC,2010-12-01,12600.0
DPC,2010-12-02,12500.0
DPC,2010-12-03,12700.0
DPC,2010-12-06,13500.0
DPC,2010-12-07,13500.0
DPC,2010-12-08,12800.0
DPC,2010-12-09,12800.0
DPC,2010-12-10,13300.0
DPC,2010-12-13,14100.0
DPC,2010-12-14,13700.0
DPC,2010-12-15,13700.0
DPC,2010-12-16,13000.0
DPC,2010-12-17,14000.0
DPC,2010-12-20,13100.0
DPC,2010-12-21,13800.0
DPC,2010-12-22,13800.0
DPC,2010-12-23,13100.0
DPC,2010-12-24,13100.0
DPC,2010-12-27,13400.0
DPC,2010-12-28,13800.0
DPC,2010-12-29,13700.0
DPC,2010-12-30,13500.0
DPC,2010-12-31,13500.0
DPC,2011-01-04,13500.0
DPC,2011-01-05,13300.0
DPC,2011-01-06,13300.0
DPC,2011-01-07,13300.0
DPC,2011-01-10,13200.0
DPC,2011-01-11,13200.0
DPC,2011-01-12,12900.0
DPC,2011-01-13,13400.0
DPC,2011-01-14,13300.0
DPC,2011-01-17,13400.0
DPC,2011-01-18,13200.0
DPC,2011-01-19,13200.0
DPC,2011-01-20,13200.0
DPC,2011-01-21,13400.0
DPC,2011-01-24,13400.0
DPC,2011-01-25,13400.0
DPC,2011-01-26,13300.0
DPC,2011-01-27,13700.0
DPC,2011-01-28,13700.0
DPC,2011-02-08,13200.0
DPC,2011-02-09,13200.0
DPC,2011-02-10,13200.0
DPC,2011-02-11,13200.0
DPC,2011-02-14,13200.0
DPC,2011-02-15,13200.0
DPC,2011-02-16,12900.0
DPC,2011-02-17,12900.0
DPC,2011-02-18,12200.0
DPC,2011-02-21,12500.0
DPC,2011-02-22,11500.0
DPC,2011-02-23,11800.0
DPC,2011-02-24,11400.0
DPC,2011-02-25,12200.0
DPC,2011-02-28,13000.0
DPC,2011-03-01,13100.0
DPC,2011-03-02,12500.0
DPC,2011-03-03,13200.0
DPC,2011-03-04,13200.0
DPC,2011-03-07,13200.0
DPC,2011-03-08,12200.0
DPC,2011-03-09,12800.0
DPC,2011-03-10,13200.0
DPC,2011-03-11,12700.0
DPC,2011-03-14,12000.0
DPC,2011-03-15,11900.0
DPC,2011-03-16,12100.0
DPC,2011-03-17,12200.0
DPC,2011-03-18,12300.0
DPC,2011-03-21,11900.0
DPC,2011-03-22,12100.0
DPC,2011-03-23,12100.0
DPC,2011-03-24,11900.0
DPC,2011-03-25,12000.0
DPC,2011-03-28,12100.0
DPC,2011-03-29,12100.0
DPC,2011-03-30,11900.0
DPC,2011-03-31,11900.0
DPC,2011-04-01,11900.0
DPC,2011-04-04,12000.0
DPC,2011-04-05,12000.0
DPC,2011-04-06,12000.0
DPC,2011-04-07,11400.0
DPC,2011-04-08,11400.0
DPC,2011-04-13,11300.0
DPC,2011-04-14,11500.0
DPC,2011-04-15,11800.0
DPC,2011-04-18,11000.0
DPC,2011-04-19,11200.0
DPC,2011-04-20,11200.0
DPC,2011-04-21,11200.0
DPC,2011-04-22,11000.0
DPC,2011-04-25,10900.0
DPC,2011-04-26,10900.0
DPC,2011-04-27,10500.0
DPC,2011-04-28,10500.0
DPC,2011-04-29,10600.0
DPC,2011-05-04,10600.0
DPC,2011-05-05,10600.0
DPC,2011-05-06,11200.0
DPC,2011-05-09,11200.0
DPC,2011-05-10,11000.0
DPC,2011-05-11,11000.0
DPC,2011-05-12,11000.0
DPC,2011-05-13,10600.0
DPC,2011-05-16,10900.0
DPC,2011-05-17,10600.0
DPC,2011-05-18,10600.0
DPC,2011-05-19,11200.0
DPC,2011-05-20,10600.0
DPC,2011-05-23,10200.0
DPC,2011-05-24,9800.0
DPC,2011-05-25,9300.0
DPC,2011-05-26,8900.0
DPC,2011-05-27,9400.0
DPC,2011-05-30,9400.0
DPC,2011-05-31,9800.0
DPC,2011-06-01,10200.0
DPC,2011-06-02,10900.0
DPC,2011-06-03,11400.0
DPC,2011-06-06,11400.0
DPC,2011-06-07,11900.0
DPC,2011-06-08,11900.0
DPC,2011-06-09,12100.0
DPC,2011-06-10,12100.0
DPC,2011-06-13,11300.0
DPC,2011-06-14,10600.0
DPC,2011-06-15,10600.0
DPC,2011-06-16,10000.0
DPC,2011-06-17,9400.0
DPC,2011-06-20,8900.0
DPC,2011-06-21,9500.0
DPC,2011-06-22,10100.0
DPC,2011-06-23,10100.0
DPC,2011-06-24,10600.0
DPC,2011-06-27,10900.0
DPC,2011-06-28,11200.0
DPC,2011-06-29,10600.0
DPC,2011-06-30,10000.0
DPC,2011-07-01,10600.0
DPC,2011-07-04,10600.0
DPC,2011-07-05,11200.0
DPC,2011-07-06,11900.0
DPC,2011-07-07,11900.0
DPC,2011-07-08,11900.0
DPC,2011-07-11,11200.0
DPC,2011-07-12,11200.0
DPC,2011-07-13,11100.0
DPC,2011-07-14,11100.0
DPC,2011-07-15,11800.0
DPC,2011-07-18,11800.0
DPC,2011-07-19,11800.0
DPC,2011-07-20,11700.0
DPC,2011-07-21,11700.0
DPC,2011-07-22,11700.0
DPC,2011-07-25,11100.0
DPC,2011-07-26,11200.0
DPC,2011-07-27,11200.0
DPC,2011-07-28,11200.0
DPC,2011-07-29,11200.0
DPC,2011-08-01,11400.0
DPC,2011-08-02,11400.0
DPC,2011-08-03,11400.0
DPC,2011-08-04,11400.0
DPC,2011-08-05,11400.0
DPC,2011-08-08,11400.0
DPC,2011-08-09,10600.0
DPC,2011-08-10,10200.0
DPC,2011-08-11,10400.0
DPC,2011-08-12,10400.0
DPC,2011-08-15,10400.0
DPC,2011-08-16,10400.0
DPC,2011-08-17,11100.0
DPC,2011-08-18,11100.0
DPC,2011-08-19,10700.0
DPC,2011-08-22,10600.0
DPC,2011-08-23,10600.0
DPC,2011-08-24,10600.0
DPC,2011-08-25,10600.0
DPC,2011-08-26,10600.0
DPC,2011-08-29,10600.0
DPC,2011-08-30,10100.0
DPC,2011-08-31,10800.0
DPC,2011-09-01,10800.0
DPC,2011-09-05,10800.0
DPC,2011-09-06,10800.0
DPC,2011-09-07,11500.0
DPC,2011-09-08,10700.0
DPC,2011-09-09,11400.0
DPC,2011-09-12,11400.0
DPC,2011-09-13,11400.0
DPC,2011-09-14,11400.0
DPC,2011-09-15,11400.0
DPC,2011-09-16,10900.0
DPC,2011-09-19,10900.0
DPC,2011-09-20,10900.0
DPC,2011-09-21,10900.0
DPC,2011-09-22,10600.0
DPC,2011-09-23,9900.0
DPC,2011-09-26,10000.0
DPC,2011-09-27,10000.0
DPC,2011-09-28,10000.0
DPC,2011-09-29,10600.0
DPC,2011-09-30,9400.0
DPC,2011-10-03,9400.0
DPC,2011-10-04,9400.0
DPC,2011-10-05,10000.0
DPC,2011-10-06,9700.0
DPC,2011-10-07,9600.0
DPC,2011-10-10,9700.0
DPC,2011-10-11,9400.0
DPC,2011-10-12,8800.0
DPC,2011-10-13,9400.0
DPC,2011-10-14,9400.0
DPC,2011-10-17,9400.0
DPC,2011-10-18,8900.0
DPC,2011-10-19,8900.0
DPC,2011-10-20,8900.0
DPC,2011-10-21,9300.0
DPC,2011-10-24,9400.0
DPC,2011-10-25,9000.0
DPC,2011-10-26,9000.0
DPC,2011-10-27,9400.0
DPC,2011-10-28,8900.0
DPC,2011-10-31,8900.0
DPC,2011-11-01,8500.0
DPC,2011-11-02,8000.0
DPC,2011-11-03,8000.0
DPC,2011-11-04,8500.0
DPC,2011-11-07,7900.0
DPC,2011-11-08,8100.0
DPC,2011-11-09,7900.0
DPC,2011-11-10,7800.0
DPC,2011-11-11,7800.0
DPC,2011-11-14,7900.0
DPC,2011-11-15,8400.0
DPC,2011-11-16,8500.0
DPC,2011-11-17,8500.0
DPC,2011-11-18,9100.0
DPC,2011-11-21,9100.0
DPC,2011-11-22,9700.0
DPC,2011-11-23,9500.0
DPC,2011-11-24,8900.0
DPC,2011-11-25,9500.0
DPC,2011-11-28,9600.0
DPC,2011-11-29,9300.0
DPC,2011-11-30,9500.0
DPC,2011-12-01,9700.0
DPC,2011-12-02,9100.0
DPC,2011-12-05,9500.0
DPC,2011-12-06,9100.0
DPC,2011-12-07,9100.0
DPC,2011-12-08,9400.0
DPC,2011-12-09,9400.0
DPC,2011-12-12,8900.0
DPC,2011-12-13,8900.0
DPC,2011-12-14,8900.0
DPC,2011-12-15,8900.0
DPC,2011-12-16,8900.0
DPC,2011-12-19,8500.0
DPC,2011-12-20,8700.0
DPC,2011-12-21,8700.0
DPC,2011-12-22,8700.0
DPC,2011-12-23,8200.0
DPC,2011-12-26,8200.0
DPC,2011-12-27,8300.0
DPC,2011-12-28,8700.0
DPC,2011-12-29,8700.0
DPC,2011-12-30,8100.0
DPC,2012-01-03,8300.0
DPC,2012-01-04,8700.0
DPC,2012-01-05,9100.0
DPC,2012-01-06,8500.0
DPC,2012-01-09,8500.0
DPC,2012-01-10,8500.0
DPC,2012-01-11,8500.0
DPC,2012-01-12,8900.0
DPC,2012-01-13,8800.0
DPC,2012-01-16,8800.0
DPC,2012-01-17,8800.0
DPC,2012-01-18,8800.0
DPC,2012-01-19,8800.0
DPC,2012-01-20,8800.0
DPC,2012-01-30,8900.0
DPC,2012-01-31,9100.0
DPC,2012-02-01,9100.0
DPC,2012-02-02,9700.0
DPC,2012-02-03,9700.0
DPC,2012-02-06,9400.0
DPC,2012-02-07,9400.0
DPC,2012-02-08,9400.0
DPC,2012-02-09,9400.0
DPC,2012-02-10,9400.0
DPC,2012-02-13,8800.0
DPC,2012-02-14,8800.0
DPC,2012-02-15,8800.0
DPC,2012-02-16,8800.0
DPC,2012-02-17,8800.0
DPC,2012-02-20,8800.0
DPC,2012-02-21,8800.0
DPC,2012-02-22,8800.0
DPC,2012-02-23,8900.0
DPC,2012-02-24,9500.0
DPC,2012-02-27,10100.0
DPC,2012-02-28,10000.0
DPC,2012-02-29,9500.0
DPC,2012-03-01,10000.0
DPC,2012-03-02,10000.0
DPC,2012-03-05,10700.0
DPC,2012-03-06,11400.0
DPC,2012-03-07,11400.0
DPC,2012-03-08,11400.0
DPC,2012-03-09,11300.0
DPC,2012-03-12,11200.0
DPC,2012-03-13,11700.0
DPC,2012-03-14,11100.0
DPC,2012-03-15,11100.0
DPC,2012-03-16,11100.0
DPC,2012-03-19,11800.0
DPC,2012-03-20,11900.0
DPC,2012-03-21,11900.0
DPC,2012-03-22,11900.0
DPC,2012-03-23,12100.0
DPC,2012-03-26,12800.0
DPC,2012-03-27,12800.0
DPC,2012-03-28,11900.0
DPC,2012-03-29,11900.0
DPC,2012-03-30,11900.0
DPC,2012-04-03,12600.0
DPC,2012-04-04,12700.0
DPC,2012-04-05,12300.0
DPC,2012-04-06,12300.0
DPC,2012-04-09,12300.0
DPC,2012-04-10,11500.0
DPC,2012-04-11,11300.0
DPC,2012-04-12,11500.0
DPC,2012-04-13,11500.0
DPC,2012-04-16,11700.0
DPC,2012-04-17,11900.0
DPC,2012-04-18,11900.0
DPC,2012-04-19,11200.0
DPC,2012-04-20,11200.0
DPC,2012-04-23,11700.0
DPC,2012-04-24,11700.0
DPC,2012-04-25,11500.0
DPC,2012-04-26,11500.0
DPC,2012-04-27,11000.0
DPC,2012-05-02,11000.0
DPC,2012-05-03,11200.0
DPC,2012-05-04,12000.0
DPC,2012-05-07,12400.0
DPC,2012-05-08,12400.0
DPC,2012-05-09,12400.0
DPC,2012-05-10,11600.0
DPC,2012-05-11,12100.0
DPC,2012-05-14,11600.0
DPC,2012-05-15,11600.0
DPC,2012-05-16,11600.0
DPC,2012-05-17,11600.0
DPC,2012-05-18,11600.0
DPC,2012-05-21,11900.0
DPC,2012-05-22,11900.0
DPC,2012-05-23,11600.0
DPC,2012-05-24,11600.0
DPC,2012-05-25,11500.0
DPC,2012-05-28,11400.0
DPC,2012-05-29,11400.0
DPC,2012-05-30,11400.0
DPC,2012-05-31,10600.0
DPC,2012-06-01,10600.0
DPC,2012-06-04,10600.0
DPC,2012-06-05,10600.0
DPC,2012-06-06,10600.0
DPC,2012-06-07,11300.0
DPC,2012-06-08,11300.0
DPC,2012-06-11,10600.0
DPC,2012-06-12,10600.0
DPC,2012-06-13,10600.0
DPC,2012-06-14,10600.0
DPC,2012-06-15,11300.0
DPC,2012-06-18,11300.0
DPC,2012-06-19,11300.0
DPC,2012-06-20,11100.0
DPC,2012-06-21,11100.0
DPC,2012-06-22,11100.0
DPC,2012-06-25,10500.0
DPC,2012-06-26,10500.0
DPC,2012-06-27,10500.0
DPC,2012-06-28,10500.0
DPC,2012-06-29,10500.0
DPC,2012-07-02,10500.0
DPC,2012-07-03,9900.0
DPC,2012-07-04,10200.0
DPC,2012-07-05,10900.0
DPC,2012-07-06,11600.0
DPC,2012-07-09,10800.0
DPC,2012-07-10,10300.0
DPC,2012-07-11,9700.0
DPC,2012-07-12,9700.0
DPC,2012-07-13,10300.0
DPC,2012-07-16,10300.0
DPC,2012-07-17,10300.0
DPC,2012-07-18,10300.0
DPC,2012-07-19,10300.0
DPC,2012-07-20,10300.0
DPC,2012-07-23,10300.0
DPC,2012-07-24,10300.0
DPC,2012-07-25,9800.0
DPC,2012-07-26,9900.0
DPC,2012-07-27,9900.0
DPC,2012-07-30,9900.0
DPC,2012-07-31,10600.0
DPC,2012-08-01,11100.0
DPC,2012-08-02,11800.0
DPC,2012-08-03,12200.0
DPC,2012-08-06,12700.0
DPC,2012-08-07,13000.0
DPC,2012-08-08,13100.0
DPC,2012-08-09,12200.0
DPC,2012-08-10,12200.0
DPC,2012-08-13,12200.0
DPC,2012-08-14,12200.0
DPC,2012-08-15,11300.0
DPC,2012-08-16,10900.0
DPC,2012-08-17,10400.0
DPC,2012-08-20,10400.0
DPC,2012-08-21,10400.0
DPC,2012-08-22,9700.0
DPC,2012-08-23,9400.0
DPC,2012-08-24,10100.0
DPC,2012-08-27,9400.0
DPC,2012-08-28,9400.0
DPC,2012-08-29,10100.0
DPC,2012-08-30,10100.0
DPC,2012-08-31,10100.0
DPC,2012-09-04,10100.0
DPC,2012-09-05,10100.0
DPC,2012-09-06,10100.0
DPC,2012-09-07,10100.0
DPC,2012-09-10,10100.0
DPC,2012-09-11,9400.0
DPC,2012-09-12,9400.0
DPC,2012-09-13,9400.0
DPC,2012-09-14,9400.0
DPC,2012-09-17,10100.0
DPC,2012-09-18,9600.0
DPC,2012-09-19,9600.0
DPC,2012-09-20,9600.0
DPC,2012-09-21,9600.0
DPC,2012-09-24,9600.0
DPC,2012-09-25,10300.0
DPC,2012-09-26,10300.0
DPC,2012-09-27,10300.0
DPC,2012-09-28,10400.0
DPC,2012-10-01,11000.0
DPC,2012-10-02,11000.0
DPC,2012-10-03,11800.0
DPC,2012-10-04,11800.0
DPC,2012-10-05,11800.0
DPC,2012-10-08,12300.0
DPC,2012-10-09,12300.0
DPC,2012-10-10,12300.0
DPC,2012-10-11,12300.0
DPC,2012-10-12,12300.0
DPC,2012-10-15,12500.0
DPC,2012-10-16,12200.0
DPC,2012-10-17,12200.0
DPC,2012-10-18,11300.0
DPC,2012-10-19,10600.0
DPC,2012-10-22,10600.0
DPC,2012-10-23,10600.0
DPC,2012-10-24,10600.0
DPC,2012-10-25,10600.0
DPC,2012-10-26,10600.0
DPC,2012-10-29,10600.0
DPC,2012-10-30,10600.0
DPC,2012-10-31,10600.0
DPC,2012-11-01,11100.0
DPC,2012-11-02,11900.0
DPC,2012-11-05,12700.0
DPC,2012-11-06,12700.0
DPC,2012-11-07,12700.0
DPC,2012-11-08,12700.0
DPC,2012-11-09,11800.0
DPC,2012-11-12,11000.0
DPC,2012-11-13,10800.0
DPC,2012-11-14,10800.0
DPC,2012-11-15,10800.0
DPC,2012-11-16,10800.0
DPC,2012-11-19,10800.0
DPC,2012-11-20,10800.0
DPC,2012-11-21,10800.0
DPC,2012-11-22,10800.0
DPC,2012-11-23,10800.0
DPC,2012-11-26,10800.0
DPC,2012-11-27,10800.0
DPC,2012-11-28,10800.0
DPC,2012-11-29,10100.0
DPC,2012-11-30,10800.0
DPC,2012-12-03,10800.0
DPC,2012-12-04,11400.0
DPC,2012-12-05,11400.0
DPC,2012-12-06,11400.0
DPC,2012-12-07,11400.0
DPC,2012-12-10,10800.0
DPC,2012-12-11,10200.0
DPC,2012-12-12,10200.0
DPC,2012-12-13,10900.0
DPC,2012-12-14,10900.0
DPC,2012-12-17,10100.0
DPC,2012-12-18,10100.0
DPC,2012-12-19,10800.0
DPC,2012-12-20,10800.0
DPC,2012-12-21,10800.0
DPC,2012-12-24,10800.0
DPC,2012-12-25,11400.0
DPC,2012-12-26,12200.0
DPC,2012-12-27,12200.0
DPC,2012-12-28,13000.0
DPC,2013-01-02,13800.0
DPC,2013-01-03,14700.0
DPC,2013-01-04,14000.0
DPC,2013-01-07,14200.0
DPC,2013-01-08,13700.0
DPC,2013-01-09,13200.0
DPC,2013-01-10,13200.0
DPC,2013-01-11,13200.0
DPC,2013-01-14,13200.0
DPC,2013-01-15,13000.0
DPC,2013-01-16,12000.0
DPC,2013-01-17,12000.0
DPC,2013-01-18,13100.0
DPC,2013-01-21,11900.0
DPC,2013-01-22,10900.0
DPC,2013-01-23,10900.0
DPC,2013-01-24,11900.0
DPC,2013-01-25,10800.0
DPC,2013-01-28,11800.0
DPC,2013-01-29,11800.0
DPC,2013-01-30,10700.0
DPC,2013-01-31,10700.0
DPC,2013-02-01,9900.0
DPC,2013-02-04,9500.0
DPC,2013-02-05,9500.0
DPC,2013-02-06,10500.0
DPC,2013-02-07,11500.0
DPC,2013-02-08,11500.0
DPC,2013-02-18,11500.0
DPC,2013-02-19,11500.0
DPC,2013-02-20,11300.0
DPC,2013-02-21,10400.0
DPC,2013-02-22,10400.0
DPC,2013-02-25,10400.0
DPC,2013-02-26,10400.0
DPC,2013-02-27,11300.0
DPC,2013-02-28,11300.0
DPC,2013-03-01,11300.0
DPC,2013-03-04,11100.0
DPC,2013-03-05,11100.0
DPC,2013-03-06,11100.0
DPC,2013-03-07,11100.0
DPC,2013-03-08,11100.0
DPC,2013-03-11,12100.0
DPC,2013-03-12,11000.0
DPC,2013-03-13,10400.0
DPC,2013-03-14,10400.0
DPC,2013-03-15,10400.0
DPC,2013-03-18,10400.0
DPC,2013-03-19,10400.0
DPC,2013-03-20,10400.0
DPC,2013-03-21,10400.0
DPC,2013-03-22,10400.0
DPC,2013-03-25,10600.0
DPC,2013-03-26,10900.0
DPC,2013-03-27,10900.0
DPC,2013-03-28,11100.0
DPC,2013-03-29,11100.0
DPC,2013-04-01,11100.0
DPC,2013-04-02,11100.0
DPC,2013-04-03,11100.0
DPC,2013-04-04,11100.0
DPC,2013-04-05,11100.0
DPC,2013-04-08,11100.0
DPC,2013-04-09,11100.0
DPC,2013-04-10,11100.0
DPC,2013-04-11,11100.0
DPC,2013-04-12,10200.0
DPC,2013-04-15,10200.0
DPC,2013-04-16,10200.0
DPC,2013-04-17,10300.0
DPC,2013-04-18,10300.0
DPC,2013-04-22,9900.0
DPC,2013-04-23,9900.0
DPC,2013-04-24,10900.0
DPC,2013-04-25,10900.0
DPC,2013-04-26,10900.0
DPC,2013-05-02,9900.0
DPC,2013-05-03,10400.0
DPC,2013-05-06,10400.0
DPC,2013-05-07,10400.0
DPC,2013-05-08,10400.0
DPC,2013-05-09,10400.0
DPC,2013-05-10,11000.0
DPC,2013-05-13,10100.0
DPC,2013-05-14,10400.0
DPC,2013-05-15,10200.0
DPC,2013-05-16,10100.0
DPC,2013-05-17,10200.0
DPC,2013-05-20,10200.0
DPC,2013-05-21,10400.0
DPC,2013-05-22,10400.0
DPC,2013-05-23,10400.0
DPC,2013-05-24,10400.0
DPC,2013-05-27,10700.0
DPC,2013-05-28,10900.0
DPC,2013-05-29,11000.0
DPC,2013-05-30,12000.0
DPC,2013-05-31,11600.0
DPC,2013-06-03,12000.0
DPC,2013-06-04,12300.0
DPC,2013-06-05,13500.0
DPC,2013-06-06,14300.0
DPC,2013-06-07,15700.0
DPC,2013-06-10,16100.0
DPC,2013-06-11,16100.0
DPC,2013-06-12,16500.0
DPC,2013-06-13,17500.0
DPC,2013-06-14,17000.0
DPC,2013-06-17,17000.0
DPC,2013-06-18,17800.0
DPC,2013-06-19,16500.0
DPC,2013-06-20,17200.0
DPC,2013-06-21,15500.0
DPC,2013-06-24,15500.0
DPC,2013-06-25,16800.0
DPC,2013-06-26,16800.0
DPC,2013-06-27,16800.0
DPC,2013-06-28,16800.0
DPC,2013-07-01,16800.0
DPC,2013-07-02,16800.0
DPC,2013-07-03,16900.0
DPC,2013-07-04,16900.0
DPC,2013-07-05,18500.0
DPC,2013-07-08,19600.0
DPC,2013-07-09,20300.0
DPC,2013-07-10,20300.0
DPC,2013-07-11,20600.0
DPC,2013-07-12,20400.0
DPC,2013-07-15,18400.0
DPC,2013-07-16,18400.0
DPC,2013-07-17,16600.0
DPC,2013-07-18,17100.0
DPC,2013-07-19,17200.0
DPC,2013-07-22,17300.0
DPC,2013-07-23,17300.0
DPC,2013-07-24,16500.0
DPC,2013-07-25,16300.0
DPC,2013-07-26,17800.0
DPC,2013-07-29,17800.0
DPC,2013-07-30,16100.0
DPC,2013-07-31,17500.0
DPC,2013-08-01,16100.0
DPC,2013-08-02,17100.0
DPC,2013-08-05,16100.0
DPC,2013-08-06,17200.0
DPC,2013-08-07,15800.0
DPC,2013-08-08,17300.0
DPC,2013-08-09,17300.0
DPC,2013-08-12,15800.0
DPC,2013-08-13,17300.0
DPC,2013-08-14,18800.0
DPC,2013-08-15,17300.0
DPC,2013-08-16,18500.0
DPC,2013-08-19,17000.0
DPC,2013-08-20,17900.0
DPC,2013-08-21,16500.0
DPC,2013-08-22,17000.0
DPC,2013-08-23,18700.0
DPC,2013-08-26,18700.0
DPC,2013-08-27,18700.0
DPC,2013-08-28,17000.0
DPC,2013-08-29,18300.0
DPC,2013-08-30,18300.0
DPC,2013-09-03,18300.0
DPC,2013-09-04,16800.0
DPC,2013-09-05,16800.0
DPC,2013-09-06,18000.0
DPC,2013-09-09,18000.0
DPC,2013-09-10,18000.0
DPC,2013-09-11,18000.0
DPC,2013-09-12,18000.0
DPC,2013-09-13,18000.0
DPC,2013-09-16,18000.0
DPC,2013-09-17,18000.0
DPC,2013-09-18,16200.0
DPC,2013-09-19,16200.0
DPC,2013-09-20,16700.0
DPC,2013-09-23,16800.0
DPC,2013-09-24,17000.0
DPC,2013-09-25,17100.0
DPC,2013-09-26,18000.0
DPC,2013-09-27,19700.0
DPC,2013-09-30,19700.0
DPC,2013-10-01,17800.0
DPC,2013-10-02,18300.0
DPC,2013-10-03,17200.0
DPC,2013-10-04,17100.0
DPC,2013-10-07,17100.0
DPC,2013-10-08,17000.0
DPC,2013-10-09,17600.0
DPC,2013-10-10,17600.0
DPC,2013-10-11,17500.0
DPC,2013-10-14,17500.0
DPC,2013-10-15,17600.0
DPC,2013-10-16,17600.0
DPC,2013-10-17,17600.0
DPC,2013-10-18,16900.0
DPC,2013-10-21,15500.0
DPC,2013-10-22,16900.0
DPC,2013-10-23,16900.0
DPC,2013-10-24,16000.0
DPC,2013-10-25,16000.0
DPC,2013-10-28,15800.0
DPC,2013-10-29,15800.0
DPC,2013-10-30,14500.0
DPC,2013-10-31,14500.0
DPC,2013-11-01,15100.0
DPC,2013-11-04,15100.0
DPC,2013-11-05,15500.0
DPC,2013-11-06,15500.0
DPC,2013-11-07,15500.0
DPC,2013-11-08,14000.0
DPC,2013-11-11,14000.0
DPC,2013-11-12,14100.0
DPC,2013-11-13,13600.0
DPC,2013-11-14,13600.0
DPC,2013-11-15,14800.0
DPC,2013-11-18,14800.0
DPC,2013-11-19,14800.0
DPC,2013-11-20,14800.0
DPC,2013-11-21,14800.0
DPC,2013-11-22,14800.0
DPC,2013-11-25,14600.0
DPC,2013-11-26,14200.0
DPC,2013-11-27,14200.0
DPC,2013-11-28,14200.0
DPC,2013-11-29,14200.0
DPC,2013-12-02,14200.0
DPC,2013-12-03,14200.0
DPC,2013-12-04,14200.0
DPC,2013-12-05,14200.0
DPC,2013-12-06,14200.0
DPC,2013-12-09,14200.0
DPC,2013-12-10,14200.0
DPC,2013-12-11,14200.0
DPC,2013-12-12,14300.0
DPC,2013-12-13,14800.0
DPC,2013-12-16,14800.0
DPC,2013-12-17,14800.0
DPC,2013-12-18,14800.0
DPC,2013-12-19,14800.0
DPC,2013-12-20,14800.0
DPC,2013-12-23,14800.0
DPC,2013-12-24,14000.0
DPC,2013-12-25,13900.0
DPC,2013-12-26,13900.0
DPC,2013-12-27,13400.0
DPC,2013-12-30,13400.0
DPC,2013-12-31,13400.0
DPC,2014-01-02,13400.0
DPC,2014-01-03,13400.0
DPC,2014-01-06,13400.0
DPC,2014-01-07,13400.0
DPC,2014-01-08,13400.0
DPC,2014-01-09,13400.0
DPC,2014-01-10,14700.0
DPC,2014-01-13,14700.0
DPC,2014-01-14,14700.0
DPC,2014-01-15,14700.0
DPC,2014-01-16,14700.0
DPC,2014-01-17,14700.0
DPC,2014-01-20,14700.0
DPC,2014-01-21,14700.0
DPC,2014-01-22,14700.0
DPC,2014-01-23,14700.0
DPC,2014-01-24,14700.0
DPC,2014-01-27,13300.0
DPC,2014-02-06,13300.0
DPC,2014-02-07,13300.0
DPC,2014-02-10,13300.0
DPC,2014-02-11,13300.0
DPC,2014-02-12,14000.0
DPC,2014-02-13,14000.0
DPC,2014-02-14,13000.0
DPC,2014-02-17,14000.0
DPC,2014-02-18,14000.0
DPC,2014-02-19,14000.0
DPC,2014-02-20,14000.0
DPC,2014-02-21,14000.0
DPC,2014-02-24,14000.0
DPC,2014-02-25,14000.0
DPC,2014-02-26,14000.0
DPC,2014-02-27,14000.0
DPC,2014-02-28,14000.0
DPC,2014-03-03,14000.0
DPC,2014-03-04,14100.0
DPC,2014-03-05,14100.0
DPC,2014-03-06,14100.0
DPC,2014-03-07,14100.0
DPC,2014-03-10,15500.0
DPC,2014-03-11,15500.0
DPC,2014-03-12,15500.0
DPC,2014-03-13,15500.0
DPC,2014-03-14,15500.0
DPC,2014-03-17,15500.0
DPC,2014-03-18,14100.0
DPC,2014-03-19,15500.0
DPC,2014-03-20,14500.0
DPC,2014-03-21,15000.0
DPC,2014-03-24,14000.0
DPC,2014-03-25,12800.0
DPC,2014-03-26,12800.0
DPC,2014-03-27,12700.0
DPC,2014-03-28,12700.0
DPC,2014-03-31,12700.0
DPC,2014-04-01,12700.0
DPC,2014-04-02,12700.0
DPC,2014-04-03,12700.0
DPC,2014-04-04,12500.0
DPC,2014-04-07,12500.0
DPC,2014-04-08,12700.0
DPC,2014-04-10,12500.0
DPC,2014-04-11,12300.0
DPC,2014-04-14,12400.0
DPC,2014-04-15,12000.0
DPC,2014-04-16,12000.0
DPC,2014-04-17,12000.0
DPC,2014-04-18,13100.0
DPC,2014-04-21,12500.0
DPC,2014-04-22,12500.0
DPC,2014-04-23,12500.0
DPC,2014-04-24,12500.0
DPC,2014-04-25,12000.0
DPC,2014-04-28,12600.0
DPC,2014-04-29,12600.0
DPC,2014-05-05,13200.0
DPC,2014-05-06,11900.0
DPC,2014-05-07,12800.0
DPC,2014-05-08,11600.0
DPC,2014-05-09,10600.0
DPC,2014-05-12,11600.0
DPC,2014-05-13,12600.0
DPC,2014-05-14,12600.0
DPC,2014-05-15,12600.0
DPC,2014-05-16,12600.0
DPC,2014-05-19,12600.0
DPC,2014-05-20,12600.0
DPC,2014-05-21,12600.0
