HCC,2007-12-24,12900.0
HCC,2007-12-25,12900.0
HCC,2007-12-26,12500.0
HCC,2007-12-27,11800.0
HCC,2007-12-28,11600.0
HCC,2008-01-02,11000.0
HCC,2008-01-03,11000.0
HCC,2008-01-04,9900.0
HCC,2008-01-07,10600.0
HCC,2008-01-08,9900.0
HCC,2008-01-09,9800.0
HCC,2008-01-10,9900.0
HCC,2008-01-11,9000.0
HCC,2008-01-14,9900.0
HCC,2008-01-15,9900.0
HCC,2008-01-16,10300.0
HCC,2008-01-17,10000.0
HCC,2008-01-18,10300.0
HCC,2008-01-21,10300.0
HCC,2008-01-22,10300.0
HCC,2008-01-23,9200.0
HCC,2008-01-24,8400.0
HCC,2008-01-25,8800.0
HCC,2008-01-28,9400.0
HCC,2008-01-29,10000.0
HCC,2008-01-30,9400.0
HCC,2008-01-31,8800.0
HCC,2008-02-01,8600.0
HCC,2008-02-12,7900.0
HCC,2008-02-13,7700.0
HCC,2008-02-14,8500.0
HCC,2008-02-15,8400.0
HCC,2008-02-18,8700.0
HCC,2008-02-19,8300.0
HCC,2008-02-20,7900.0
HCC,2008-02-21,7400.0
HCC,2008-02-22,6700.0
HCC,2008-02-25,7100.0
HCC,2008-02-26,6500.0
HCC,2008-02-27,6700.0
HCC,2008-02-28,6600.0
HCC,2008-02-29,6600.0
HCC,2008-03-03,6600.0
HCC,2008-03-04,6000.0
HCC,2008-03-05,6000.0
HCC,2008-03-06,6600.0
HCC,2008-03-07,7200.0
HCC,2008-03-10,6800.0
HCC,2008-03-11,7100.0
HCC,2008-03-12,6300.0
HCC,2008-03-13,5800.0
HCC,2008-03-14,5300.0
HCC,2008-03-17,4800.0
HCC,2008-03-18,4400.0
HCC,2008-03-19,4100.0
HCC,2008-03-20,4100.0
HCC,2008-03-21,4400.0
HCC,2008-03-24,3900.0
HCC,2008-03-25,3500.0
HCC,2008-03-26,3800.0
HCC,2008-03-27,3900.0
HCC,2008-03-28,4000.0
HCC,2008-03-31,4000.0
HCC,2008-04-01,4100.0
HCC,2008-04-02,4100.0
HCC,2008-04-03,4200.0
HCC,2008-04-04,4200.0
HCC,2008-04-07,4400.0
HCC,2008-04-08,4400.0
HCC,2008-04-09,4300.0
HCC,2008-04-10,4300.0
HCC,2008-04-11,4200.0
HCC,2008-04-16,4100.0
HCC,2008-04-17,4200.0
HCC,2008-04-18,4300.0
HCC,2008-04-21,4300.0
HCC,2008-04-22,4300.0
HCC,2008-04-23,4200.0
HCC,2008-04-24,4100.0
HCC,2008-04-25,4300.0
HCC,2008-04-28,4300.0
HCC,2008-04-29,4100.0
HCC,2008-05-05,4100.0
HCC,2008-05-06,4000.0
HCC,2008-05-07,3900.0
HCC,2008-05-08,3800.0
HCC,2008-05-09,3700.0
HCC,2008-05-12,3600.0
HCC,2008-05-13,3500.0
HCC,2008-05-14,3400.0
HCC,2008-05-15,3300.0
HCC,2008-05-16,3300.0
HCC,2008-05-19,3200.0
HCC,2008-05-20,3200.0
HCC,2008-05-21,3100.0
HCC,2008-05-22,3000.0
HCC,2008-05-23,2900.0
HCC,2008-05-26,2900.0
HCC,2008-05-27,2800.0
HCC,2008-05-28,2800.0
HCC,2008-05-29,2800.0
HCC,2008-05-30,2800.0
HCC,2008-06-02,2800.0
HCC,2008-06-03,2700.0
HCC,2008-06-04,2600.0
HCC,2008-06-05,2600.0
HCC,2008-06-06,2500.0
HCC,2008-06-09,2600.0
HCC,2008-06-10,2600.0
HCC,2008-06-11,2700.0
HCC,2008-06-12,2800.0
HCC,2008-06-13,2800.0
HCC,2008-06-16,2900.0
HCC,2008-06-17,3000.0
HCC,2008-06-18,3000.0
HCC,2008-06-19,2900.0
HCC,2008-06-20,2900.0
HCC,2008-06-23,3000.0
HCC,2008-06-24,2900.0
HCC,2008-06-25,3100.0
HCC,2008-06-26,2900.0
HCC,2008-06-27,3000.0
HCC,2008-06-30,3000.0
HCC,2008-07-01,3100.0
HCC,2008-07-02,3100.0
HCC,2008-07-03,3300.0
HCC,2008-07-04,3300.0
HCC,2008-07-07,3300.0
HCC,2008-07-08,3300.0
HCC,2008-07-09,3200.0
HCC,2008-07-10,3200.0
HCC,2008-07-11,3300.0
HCC,2008-07-14,3300.0
HCC,2008-07-15,3400.0
HCC,2008-07-16,3300.0
HCC,2008-07-17,3400.0
HCC,2008-07-18,3300.0
HCC,2008-07-21,3300.0
HCC,2008-07-22,3200.0
HCC,2008-07-23,3100.0
HCC,2008-07-24,3000.0
HCC,2008-07-25,2900.0
HCC,2008-07-28,3000.0
HCC,2008-07-29,3100.0
HCC,2008-07-30,3200.0
HCC,2008-07-31,3300.0
HCC,2008-08-01,3400.0
HCC,2008-08-04,3500.0
HCC,2008-08-05,3600.0
HCC,2008-08-06,3700.0
HCC,2008-08-07,3800.0
HCC,2008-08-08,3900.0
HCC,2008-08-11,4100.0
HCC,2008-08-12,4200.0
HCC,2008-08-13,4400.0
HCC,2008-08-14,4600.0
HCC,2008-08-15,4700.0
HCC,2008-08-18,5000.0
HCC,2008-08-19,4800.0
HCC,2008-08-20,4400.0
HCC,2008-08-21,4600.0
HCC,2008-08-22,4100.0
HCC,2008-08-25,4600.0
HCC,2008-08-26,4900.0
HCC,2008-08-27,5200.0
HCC,2008-08-28,4900.0
HCC,2008-08-29,4900.0
HCC,2008-09-03,5000.0
HCC,2008-09-04,5400.0
HCC,2008-09-05,5700.0
HCC,2008-09-08,6100.0
HCC,2008-09-09,6500.0
HCC,2008-09-10,6000.0
HCC,2008-09-11,5700.0
HCC,2008-09-12,5400.0
HCC,2008-09-15,5000.0
HCC,2008-09-16,4700.0
HCC,2008-09-17,4900.0
HCC,2008-09-18,4500.0
HCC,2008-09-19,4700.0
HCC,2008-09-22,5000.0
HCC,2008-09-23,4700.0
HCC,2008-09-24,4600.0
HCC,2008-09-25,4700.0
HCC,2008-09-26,4900.0
HCC,2008-09-29,4600.0
HCC,2008-09-30,4700.0
HCC,2008-10-01,4400.0
HCC,2008-10-02,4600.0
HCC,2008-10-03,4600.0
HCC,2008-10-06,4300.0
HCC,2008-10-07,4000.0
HCC,2008-10-08,3700.0
HCC,2008-10-09,3900.0
HCC,2008-10-10,3700.0
HCC,2008-10-13,3400.0
HCC,2008-10-14,3700.0
HCC,2008-10-15,3900.0
HCC,2008-10-16,3700.0
HCC,2008-10-17,3800.0
HCC,2008-10-20,3900.0
HCC,2008-10-21,4200.0
HCC,2008-10-22,4300.0
HCC,2008-10-23,3900.0
HCC,2008-10-24,3800.0
HCC,2008-10-27,3500.0
HCC,2008-10-28,3700.0
HCC,2008-10-29,3900.0
HCC,2008-10-30,3900.0
HCC,2008-10-31,4000.0
HCC,2008-11-03,4000.0
HCC,2008-11-04,4100.0
HCC,2008-11-05,4300.0
HCC,2008-11-06,4000.0
HCC,2008-11-07,3800.0
HCC,2008-11-10,3600.0
HCC,2008-11-11,3400.0
HCC,2008-11-12,3700.0
HCC,2008-11-13,3400.0
HCC,2008-11-14,3600.0
HCC,2008-11-17,3600.0
HCC,2008-11-18,3400.0
HCC,2008-11-19,3500.0
HCC,2008-11-20,3200.0
HCC,2008-11-21,3000.0
HCC,2008-11-24,2900.0
HCC,2008-11-25,3200.0
HCC,2008-11-26,3100.0
HCC,2008-11-27,2900.0
HCC,2008-11-28,3100.0
HCC,2008-12-01,3000.0
HCC,2008-12-02,2900.0
HCC,2008-12-03,3100.0
HCC,2008-12-04,3000.0
HCC,2008-12-05,2900.0
HCC,2008-12-08,2700.0
HCC,2008-12-09,2800.0
HCC,2008-12-10,2600.0
HCC,2008-12-11,2600.0
HCC,2008-12-12,2800.0
HCC,2008-12-15,2800.0
HCC,2008-12-16,2700.0
HCC,2008-12-17,2600.0
HCC,2008-12-18,2800.0
HCC,2008-12-19,2900.0
HCC,2008-12-22,3100.0
HCC,2008-12-23,3000.0
HCC,2008-12-24,3400.0
HCC,2008-12-25,3500.0
HCC,2008-12-26,3400.0
HCC,2008-12-29,3500.0
HCC,2008-12-30,3400.0
HCC,2008-12-31,3200.0
HCC,2009-01-02,3400.0
HCC,2009-01-05,3400.0
HCC,2009-01-06,3600.0
HCC,2009-01-07,3700.0
HCC,2009-01-08,3400.0
HCC,2009-01-09,3600.0
HCC,2009-01-12,3600.0
HCC,2009-01-13,3400.0
HCC,2009-01-14,3600.0
HCC,2009-01-15,3400.0
HCC,2009-01-16,3500.0
HCC,2009-01-19,3300.0
HCC,2009-01-20,3400.0
HCC,2009-01-21,3400.0
HCC,2009-01-22,3400.0
HCC,2009-01-23,3400.0
HCC,2009-02-02,3400.0
HCC,2009-02-03,3300.0
HCC,2009-02-04,3400.0
HCC,2009-02-05,3400.0
HCC,2009-02-06,3500.0
HCC,2009-02-09,3400.0
HCC,2009-02-10,3500.0
HCC,2009-02-11,3400.0
HCC,2009-02-12,3400.0
HCC,2009-02-13,3400.0
HCC,2009-02-16,3300.0
HCC,2009-02-17,3300.0
HCC,2009-02-18,3100.0
HCC,2009-02-19,3100.0
HCC,2009-02-20,3100.0
HCC,2009-02-23,3200.0
HCC,2009-02-24,3400.0
HCC,2009-02-25,3300.0
HCC,2009-02-26,3300.0
HCC,2009-02-27,3300.0
HCC,2009-03-02,3400.0
HCC,2009-03-03,3200.0
HCC,2009-03-04,3200.0
HCC,2009-03-05,3200.0
HCC,2009-03-06,3200.0
HCC,2009-03-09,3300.0
HCC,2009-03-10,3200.0
HCC,2009-03-11,3300.0
HCC,2009-03-12,3100.0
HCC,2009-03-13,3200.0
HCC,2009-03-16,3200.0
HCC,2009-03-17,3200.0
HCC,2009-03-18,3200.0
HCC,2009-03-19,3100.0
HCC,2009-03-20,3000.0
HCC,2009-03-23,3100.0
HCC,2009-03-24,3100.0
HCC,2009-03-25,3200.0
HCC,2009-03-26,3300.0
HCC,2009-03-27,3300.0
HCC,2009-03-30,3200.0
HCC,2009-03-31,3200.0
HCC,2009-04-01,3200.0
HCC,2009-04-02,3200.0
HCC,2009-04-03,3400.0
HCC,2009-04-07,3700.0
HCC,2009-04-08,3700.0
HCC,2009-04-09,3600.0
HCC,2009-04-10,3700.0
HCC,2009-04-13,3900.0
HCC,2009-04-14,3900.0
HCC,2009-04-15,3900.0
HCC,2009-04-16,4000.0
HCC,2009-04-17,4000.0
HCC,2009-04-20,3500.0
HCC,2009-04-21,3500.0
HCC,2009-04-22,3700.0
HCC,2009-04-23,3900.0
HCC,2009-04-24,3700.0
HCC,2009-04-27,3600.0
HCC,2009-04-28,3700.0
HCC,2009-04-29,3800.0
HCC,2009-05-04,4000.0
HCC,2009-05-05,4300.0
HCC,2009-05-06,4500.0
HCC,2009-05-07,4400.0
HCC,2009-05-08,4500.0
HCC,2009-05-11,4800.0
HCC,2009-05-12,4900.0
HCC,2009-05-13,4800.0
HCC,2009-05-14,4800.0
HCC,2009-05-15,4700.0
HCC,2009-05-18,4600.0
HCC,2009-05-19,4600.0
HCC,2009-05-20,4700.0
HCC,2009-05-21,4700.0
HCC,2009-05-22,4700.0
HCC,2009-05-25,4900.0
HCC,2009-05-26,5100.0
HCC,2009-05-27,5300.0
HCC,2009-05-28,4900.0
HCC,2009-05-29,4700.0
HCC,2009-06-01,4900.0
HCC,2009-06-02,4800.0
HCC,2009-06-03,4800.0
HCC,2009-06-04,4800.0
HCC,2009-06-05,5100.0
HCC,2009-06-08,5400.0
HCC,2009-06-09,5700.0
HCC,2009-06-10,5300.0
HCC,2009-06-11,5700.0
HCC,2009-06-12,5500.0
HCC,2009-06-15,5400.0
HCC,2009-06-16,5000.0
HCC,2009-06-17,5400.0
HCC,2009-06-18,5100.0
HCC,2009-06-19,4800.0
HCC,2009-06-22,4600.0
HCC,2009-06-23,4300.0
HCC,2009-06-24,4600.0
HCC,2009-06-25,4700.0
HCC,2009-06-26,4700.0
HCC,2009-06-29,4600.0
HCC,2009-06-30,4400.0
HCC,2009-07-01,4300.0
HCC,2009-07-02,4300.0
HCC,2009-07-03,4300.0
HCC,2009-07-06,4600.0
HCC,2009-07-07,4700.0
HCC,2009-07-08,4800.0
HCC,2009-07-09,4600.0
HCC,2009-07-10,4500.0
HCC,2009-07-13,4300.0
HCC,2009-07-14,4200.0
HCC,2009-07-15,4100.0
HCC,2009-07-16,4400.0
HCC,2009-07-17,4200.0
HCC,2009-07-20,4300.0
HCC,2009-07-21,4500.0
HCC,2009-07-22,4500.0
HCC,2009-07-23,4600.0
HCC,2009-07-24,4800.0
HCC,2009-07-27,4700.0
HCC,2009-07-28,4500.0
HCC,2009-07-29,4700.0
HCC,2009-07-30,4600.0
HCC,2009-07-31,4700.0
HCC,2009-08-03,4700.0
HCC,2009-08-04,4700.0
HCC,2009-08-05,4700.0
HCC,2009-08-06,4700.0
HCC,2009-08-07,4700.0
HCC,2009-08-10,4900.0
HCC,2009-08-11,4900.0
HCC,2009-08-12,4900.0
HCC,2009-08-13,4800.0
HCC,2009-08-14,5000.0
HCC,2009-08-17,5000.0
HCC,2009-08-18,4800.0
HCC,2009-08-19,4900.0
HCC,2009-08-20,5000.0
HCC,2009-08-21,5000.0
HCC,2009-08-24,5000.0
HCC,2009-08-25,5100.0
HCC,2009-08-26,5100.0
HCC,2009-08-27,5100.0
HCC,2009-08-28,5300.0
HCC,2009-08-31,5500.0
HCC,2009-09-01,5300.0
HCC,2009-09-03,5200.0
HCC,2009-09-04,5100.0
HCC,2009-09-07,4900.0
HCC,2009-09-08,5200.0
HCC,2009-09-09,5100.0
HCC,2009-09-10,5200.0
HCC,2009-09-11,5300.0
HCC,2009-09-14,5600.0
HCC,2009-09-15,5500.0
HCC,2009-09-16,5900.0
HCC,2009-09-17,6100.0
HCC,2009-09-18,6200.0
HCC,2009-09-21,6100.0
HCC,2009-09-22,6100.0
HCC,2009-09-23,5900.0
HCC,2009-09-24,5900.0
HCC,2009-09-25,5900.0
HCC,2009-09-28,6000.0
HCC,2009-09-29,6300.0
HCC,2009-09-30,6700.0
HCC,2009-10-01,6800.0
HCC,2009-10-02,6500.0
HCC,2009-10-05,6500.0
HCC,2009-10-06,6800.0
HCC,2009-10-07,7000.0
HCC,2009-10-08,7300.0
HCC,2009-10-09,7600.0
HCC,2009-10-12,8100.0
HCC,2009-10-13,8700.0
HCC,2009-10-14,9000.0
HCC,2009-10-15,9300.0
HCC,2009-10-16,8700.0
HCC,2009-10-19,8200.0
HCC,2009-10-20,8900.0
HCC,2009-10-21,9500.0
HCC,2009-10-22,10100.0
HCC,2009-10-23,10300.0
HCC,2009-10-26,10200.0
HCC,2009-10-27,10400.0
HCC,2009-10-28,10100.0
HCC,2009-10-29,9400.0
HCC,2009-10-30,9800.0
HCC,2009-11-02,9000.0
HCC,2009-11-03,8400.0
HCC,2009-11-04,8000.0
HCC,2009-11-05,8500.0
HCC,2009-11-06,8700.0
HCC,2009-11-09,8900.0
HCC,2009-11-10,8700.0
HCC,2009-11-11,8700.0
HCC,2009-11-12,9100.0
HCC,2009-11-13,9100.0
HCC,2009-11-16,8500.0
HCC,2009-11-17,9100.0
HCC,2009-11-18,9000.0
HCC,2009-11-19,9100.0
HCC,2009-11-20,8900.0
HCC,2009-11-23,8300.0
HCC,2009-11-24,8800.0
HCC,2009-11-25,8200.0
HCC,2009-11-26,7600.0
HCC,2009-11-27,8000.0
HCC,2009-11-30,7700.0
HCC,2009-12-01,8200.0
HCC,2009-12-02,7600.0
HCC,2009-12-03,8100.0
HCC,2009-12-04,8300.0
HCC,2009-12-07,7700.0
HCC,2009-12-08,7500.0
HCC,2009-12-09,7200.0
HCC,2009-12-10,7200.0
HCC,2009-12-11,6700.0
HCC,2009-12-14,7100.0
HCC,2009-12-15,7100.0
HCC,2009-12-16,7100.0
HCC,2009-12-17,6600.0
HCC,2009-12-18,6700.0
HCC,2009-12-21,7200.0
HCC,2009-12-22,7300.0
HCC,2009-12-23,7300.0
HCC,2009-12-24,7400.0
HCC,2009-12-25,7700.0
HCC,2009-12-28,7100.0
HCC,2009-12-29,7500.0
HCC,2009-12-30,7500.0
HCC,2009-12-31,7500.0
HCC,2010-01-04,7700.0
HCC,2010-01-05,7900.0
HCC,2010-01-06,8100.0
HCC,2010-01-07,8600.0
HCC,2010-01-08,8300.0
HCC,2010-01-11,8800.0
HCC,2010-01-12,8800.0
HCC,2010-01-13,8200.0
HCC,2010-01-14,8200.0
HCC,2010-01-15,7600.0
HCC,2010-01-18,7200.0
HCC,2010-01-19,7600.0
HCC,2010-01-20,8100.0
HCC,2010-01-21,7500.0
HCC,2010-01-22,7600.0
HCC,2010-01-25,7700.0
HCC,2010-01-26,7900.0
HCC,2010-01-27,8200.0
HCC,2010-01-28,8100.0
HCC,2010-01-29,8100.0
HCC,2010-02-01,8000.0
HCC,2010-02-02,7800.0
HCC,2010-02-03,8100.0
HCC,2010-02-04,8200.0
HCC,2010-02-05,7700.0
HCC,2010-02-08,7300.0
HCC,2010-02-09,7400.0
HCC,2010-02-10,7700.0
HCC,2010-02-11,7200.0
HCC,2010-02-12,7700.0
HCC,2010-02-22,8100.0
HCC,2010-02-23,8300.0
HCC,2010-02-24,8600.0
HCC,2010-02-25,9100.0
HCC,2010-02-26,9300.0
HCC,2010-03-01,9500.0
HCC,2010-03-02,9500.0
HCC,2010-03-03,9500.0
HCC,2010-03-04,9500.0
HCC,2010-03-05,8900.0
HCC,2010-03-08,9000.0
HCC,2010-03-09,8800.0
HCC,2010-03-10,8300.0
HCC,2010-03-11,8600.0
HCC,2010-03-12,8200.0
HCC,2010-03-15,8400.0
HCC,2010-03-16,8700.0
HCC,2010-03-17,8600.0
HCC,2010-03-18,8600.0
HCC,2010-03-19,8600.0
HCC,2010-03-22,8900.0
HCC,2010-03-23,9100.0
HCC,2010-03-24,9100.0
HCC,2010-03-25,8500.0
HCC,2010-03-26,8700.0
HCC,2010-03-29,8100.0
HCC,2010-03-30,8600.0
HCC,2010-03-31,8200.0
HCC,2010-04-01,8500.0
HCC,2010-04-02,8500.0
HCC,2010-04-05,8300.0
HCC,2010-04-06,8600.0
HCC,2010-04-07,9000.0
HCC,2010-04-08,9000.0
HCC,2010-04-09,8500.0
HCC,2010-04-12,8600.0
HCC,2010-04-13,8700.0
HCC,2010-04-14,8600.0
HCC,2010-04-15,8800.0
HCC,2010-04-16,9400.0
HCC,2010-04-19,9800.0
HCC,2010-04-20,10500.0
HCC,2010-04-21,11200.0
HCC,2010-04-22,12000.0
HCC,2010-04-26,12800.0
HCC,2010-04-27,12200.0
HCC,2010-04-28,12300.0
HCC,2010-04-29,12600.0
HCC,2010-05-04,12600.0
HCC,2010-05-05,13500.0
HCC,2010-05-06,14300.0
HCC,2010-05-07,15200.0
HCC,2010-05-10,15800.0
HCC,2010-05-11,14800.0
HCC,2010-05-12,16100.0
HCC,2010-05-13,15000.0
HCC,2010-05-14,15000.0
HCC,2010-05-17,13200.0
HCC,2010-05-18,12500.0
HCC,2010-05-19,11700.0
HCC,2010-05-20,12500.0
HCC,2010-05-21,12700.0
HCC,2010-05-24,13700.0
HCC,2010-05-25,13600.0
HCC,2010-05-26,13400.0
HCC,2010-05-27,13400.0
HCC,2010-05-28,12800.0
HCC,2010-05-31,13400.0
HCC,2010-06-01,12500.0
HCC,2010-06-02,11700.0
HCC,2010-06-03,11800.0
HCC,2010-06-04,11400.0
HCC,2010-06-07,10700.0
HCC,2010-06-08,10000.0
HCC,2010-06-09,10000.0
HCC,2010-06-10,10600.0
HCC,2010-06-11,10800.0
HCC,2010-06-14,10800.0
HCC,2010-06-15,10700.0
HCC,2010-06-16,11400.0
HCC,2010-06-17,12200.0
HCC,2010-06-18,12200.0
HCC,2010-06-21,12300.0
HCC,2010-06-22,12200.0
HCC,2010-06-23,12000.0
HCC,2010-06-24,12000.0
HCC,2010-06-25,12100.0
HCC,2010-06-28,11800.0
HCC,2010-06-29,11800.0
HCC,2010-06-30,12600.0
HCC,2010-07-01,12300.0
HCC,2010-07-02,13100.0
HCC,2010-07-05,12700.0
HCC,2010-07-06,12000.0
HCC,2010-07-07,12200.0
HCC,2010-07-08,12200.0
HCC,2010-07-09,12400.0
HCC,2010-07-12,12500.0
HCC,2010-07-13,12600.0
HCC,2010-07-14,12700.0
HCC,2010-07-15,12700.0
HCC,2010-07-16,12500.0
HCC,2010-07-19,12300.0
HCC,2010-07-20,12300.0
HCC,2010-07-21,12300.0
HCC,2010-07-22,12300.0
HCC,2010-07-23,12300.0
HCC,2010-07-26,12500.0
HCC,2010-07-27,12800.0
HCC,2010-07-28,12200.0
HCC,2010-07-29,12200.0
HCC,2010-07-30,11500.0
HCC,2010-08-02,10900.0
HCC,2010-08-03,11700.0
HCC,2010-08-04,11700.0
HCC,2010-08-05,11800.0
HCC,2010-08-06,11500.0
HCC,2010-08-09,11300.0
HCC,2010-08-10,10500.0
HCC,2010-08-11,11200.0
HCC,2010-08-12,11800.0
HCC,2010-08-13,12600.0
HCC,2010-08-16,12600.0
HCC,2010-08-17,12600.0
HCC,2010-08-18,12600.0
HCC,2010-08-19,13200.0
HCC,2010-08-20,13600.0
HCC,2010-08-23,12600.0
HCC,2010-08-24,12200.0
HCC,2010-08-25,12200.0
HCC,2010-08-26,11200.0
HCC,2010-08-27,11700.0
HCC,2010-08-30,12400.0
HCC,2010-08-31,12400.0
HCC,2010-09-01,12800.0
HCC,2010-09-06,13300.0
HCC,2010-09-07,13400.0
HCC,2010-09-08,12600.0
HCC,2010-09-09,13000.0
HCC,2010-09-10,12300.0
HCC,2010-09-13,12600.0
HCC,2010-09-14,13000.0
HCC,2010-09-15,12500.0
HCC,2010-09-16,12800.0
HCC,2010-09-17,13300.0
HCC,2010-09-20,14000.0
HCC,2010-09-21,13400.0
HCC,2010-09-22,13400.0
HCC,2010-09-23,13400.0
HCC,2010-09-24,13400.0
HCC,2010-09-27,13300.0
HCC,2010-09-28,13500.0
HCC,2010-09-29,13300.0
HCC,2010-09-30,13600.0
HCC,2010-10-01,13400.0
HCC,2010-10-04,13300.0
HCC,2010-10-05,13500.0
HCC,2010-10-06,14000.0
HCC,2010-10-07,13900.0
HCC,2010-10-08,14100.0
HCC,2010-10-11,14500.0
HCC,2010-10-12,14600.0
HCC,2010-10-13,15300.0
HCC,2010-10-14,16000.0
HCC,2010-10-15,15600.0
HCC,2010-10-18,15400.0
HCC,2010-10-19,14100.0
HCC,2010-10-20,13400.0
HCC,2010-10-21,12900.0
HCC,2010-10-22,13300.0
HCC,2010-10-25,13800.0
HCC,2010-10-26,13800.0
HCC,2010-10-27,12900.0
HCC,2010-10-28,13000.0
HCC,2010-10-29,13100.0
HCC,2010-11-01,13000.0
HCC,2010-11-02,13200.0
HCC,2010-11-03,13400.0
HCC,2010-11-04,13600.0
HCC,2010-11-05,13600.0
HCC,2010-11-08,14100.0
HCC,2010-11-09,13800.0
HCC,2010-11-10,13500.0
HCC,2010-11-11,13700.0
HCC,2010-11-12,13600.0
HCC,2010-11-15,12700.0
HCC,2010-11-16,11800.0
HCC,2010-11-17,13600.0
HCC,2010-11-18,14700.0
HCC,2010-11-19,14500.0
HCC,2010-11-22,14500.0
HCC,2010-11-23,14400.0
HCC,2010-11-24,14400.0
HCC,2010-11-25,14600.0
HCC,2010-11-26,15000.0
HCC,2010-11-29,14800.0
HCC,2010-11-30,14800.0
HCC,2010-12-01,14600.0
HCC,2010-12-02,14800.0
HCC,2010-12-03,15200.0
HCC,2010-12-06,15800.0
HCC,2010-12-07,15700.0
HCC,2010-12-08,15600.0
HCC,2010-12-09,15800.0
HCC,2010-12-10,16400.0
HCC,2010-12-13,17000.0
HCC,2010-12-14,17300.0
HCC,2010-12-15,17100.0
HCC,2010-12-16,17100.0
HCC,2010-12-17,17700.0
HCC,2010-12-20,17600.0
HCC,2010-12-21,17700.0
HCC,2010-12-22,17800.0
HCC,2010-12-23,17900.0
HCC,2010-12-24,17600.0
HCC,2010-12-27,17700.0
HCC,2010-12-28,18000.0
HCC,2010-12-29,18100.0
HCC,2010-12-30,17400.0
HCC,2010-12-31,17900.0
HCC,2011-01-04,17800.0
HCC,2011-01-05,18100.0
HCC,2011-01-06,18100.0
HCC,2011-01-07,17900.0
HCC,2011-01-10,17900.0
HCC,2011-01-11,17700.0
HCC,2011-01-12,16700.0
HCC,2011-01-13,17400.0
HCC,2011-01-14,17400.0
HCC,2011-01-17,17800.0
HCC,2011-01-18,18000.0
HCC,2011-01-19,18000.0
HCC,2011-01-20,18100.0
HCC,2011-01-21,18100.0
HCC,2011-01-24,18100.0
HCC,2011-01-25,18100.0
HCC,2011-01-26,18000.0
HCC,2011-01-27,19000.0
HCC,2011-01-28,19100.0
HCC,2011-02-08,19100.0
HCC,2011-02-09,19200.0
HCC,2011-02-10,19200.0
HCC,2011-02-11,19200.0
HCC,2011-02-14,18500.0
HCC,2011-02-15,19500.0
HCC,2011-02-16,19500.0
HCC,2011-02-17,18700.0
HCC,2011-02-18,18700.0
HCC,2011-02-21,18700.0
HCC,2011-02-22,18800.0
HCC,2011-02-23,20000.0
HCC,2011-02-24,19700.0
HCC,2011-02-25,19700.0
HCC,2011-02-28,18300.0
HCC,2011-03-01,17100.0
HCC,2011-03-02,17100.0
HCC,2011-03-03,17100.0
HCC,2011-03-04,17100.0
HCC,2011-03-07,17100.0
HCC,2011-03-08,15900.0
HCC,2011-03-09,15900.0
HCC,2011-03-10,15900.0
HCC,2011-03-11,14800.0
HCC,2011-03-14,13800.0
HCC,2011-03-15,14700.0
HCC,2011-03-16,15300.0
HCC,2011-03-17,15200.0
HCC,2011-03-18,14000.0
HCC,2011-03-21,15200.0
HCC,2011-03-22,15300.0
HCC,2011-03-23,15200.0
HCC,2011-03-24,14800.0
HCC,2011-03-25,14900.0
HCC,2011-03-28,15000.0
HCC,2011-03-29,14800.0
HCC,2011-03-30,14800.0
HCC,2011-03-31,14600.0
HCC,2011-04-01,14700.0
HCC,2011-04-04,14800.0
HCC,2011-04-05,14000.0
HCC,2011-04-06,14200.0
HCC,2011-04-07,14200.0
HCC,2011-04-08,14900.0
HCC,2011-04-13,14800.0
HCC,2011-04-14,15300.0
HCC,2011-04-15,15300.0
HCC,2011-04-18,15300.0
HCC,2011-04-19,15200.0
HCC,2011-04-20,15200.0
HCC,2011-04-21,14200.0
HCC,2011-04-22,15000.0
HCC,2011-04-25,15700.0
HCC,2011-04-26,16100.0
HCC,2011-04-27,16100.0
HCC,2011-04-28,15000.0
HCC,2011-04-29,15000.0
HCC,2011-05-04,15000.0
HCC,2011-05-05,15000.0
HCC,2011-05-06,15000.0
HCC,2011-05-09,15500.0
HCC,2011-05-10,15200.0
HCC,2011-05-11,15200.0
HCC,2011-05-12,14600.0
HCC,2011-05-13,15200.0
HCC,2011-05-16,15800.0
HCC,2011-05-17,14700.0
HCC,2011-05-18,15800.0
HCC,2011-05-19,15800.0
HCC,2011-05-20,15800.0
HCC,2011-05-23,16200.0
HCC,2011-05-24,16200.0
HCC,2011-05-25,16200.0
HCC,2011-05-26,16500.0
HCC,2011-05-27,16500.0
HCC,2011-05-30,16500.0
HCC,2011-05-31,16500.0
HCC,2011-06-01,16500.0
HCC,2011-06-02,15300.0
HCC,2011-06-03,16200.0
HCC,2011-06-06,16200.0
HCC,2011-06-07,15100.0
HCC,2011-06-08,15100.0
HCC,2011-06-09,15100.0
HCC,2011-06-10,15100.0
HCC,2011-06-13,15100.0
HCC,2011-06-14,15100.0
HCC,2011-06-15,15300.0
HCC,2011-06-16,15600.0
HCC,2011-06-17,15600.0
HCC,2011-06-20,14600.0
HCC,2011-06-21,15900.0
HCC,2011-06-22,15900.0
HCC,2011-06-23,15900.0
HCC,2011-06-24,15900.0
HCC,2011-06-27,15900.0
HCC,2011-06-28,15900.0
HCC,2011-06-29,15900.0
HCC,2011-06-30,15900.0
HCC,2011-07-01,15900.0
HCC,2011-07-04,14800.0
HCC,2011-07-05,15900.0
HCC,2011-07-06,15900.0
HCC,2011-07-07,15900.0
HCC,2011-07-08,15900.0
HCC,2011-07-11,15900.0
HCC,2011-07-12,15900.0
HCC,2011-07-13,15900.0
HCC,2011-07-14,15900.0
HCC,2011-07-15,15900.0
HCC,2011-07-18,14800.0
HCC,2011-07-19,13800.0
HCC,2011-07-20,15600.0
HCC,2011-07-21,15600.0
HCC,2011-07-22,15600.0
HCC,2011-07-25,15600.0
HCC,2011-07-26,15600.0
HCC,2011-07-27,15600.0
HCC,2011-07-28,14600.0
HCC,2011-07-29,14600.0
HCC,2011-08-01,13600.0
HCC,2011-08-02,14700.0
HCC,2011-08-03,13700.0
HCC,2011-08-04,13700.0
HCC,2011-08-05,12700.0
HCC,2011-08-08,13600.0
HCC,2011-08-09,13600.0
HCC,2011-08-10,13600.0
HCC,2011-08-11,13600.0
HCC,2011-08-12,14300.0
HCC,2011-08-15,14300.0
HCC,2011-08-16,14300.0
HCC,2011-08-17,14300.0
HCC,2011-08-18,14300.0
HCC,2011-08-19,13300.0
HCC,2011-08-22,13300.0
HCC,2011-08-23,13300.0
HCC,2011-08-24,13300.0
HCC,2011-08-25,13300.0
HCC,2011-08-26,13300.0
HCC,2011-08-29,12400.0
HCC,2011-08-30,11500.0
HCC,2011-08-31,11200.0
HCC,2011-09-01,10400.0
HCC,2011-09-05,11400.0
HCC,2011-09-06,11400.0
HCC,2011-09-07,12100.0
HCC,2011-09-08,12600.0
HCC,2011-09-09,12600.0
HCC,2011-09-12,12400.0
HCC,2011-09-13,12000.0
HCC,2011-09-14,11400.0
HCC,2011-09-15,10400.0
HCC,2011-09-16,10700.0
HCC,2011-09-19,10900.0
HCC,2011-09-20,11000.0
HCC,2011-09-21,11200.0
HCC,2011-09-22,11400.0
HCC,2011-09-23,10700.0
HCC,2011-09-26,10100.0
HCC,2011-09-27,10800.0
HCC,2011-09-28,10300.0
HCC,2011-09-29,9700.0
HCC,2011-09-30,9500.0
HCC,2011-10-03,8900.0
HCC,2011-10-04,8400.0
HCC,2011-10-05,8500.0
HCC,2011-10-06,9400.0
HCC,2011-10-07,9400.0
HCC,2011-10-10,8800.0
HCC,2011-10-11,8900.0
HCC,2011-10-12,8500.0
HCC,2011-10-13,8000.0
HCC,2011-10-14,8500.0
HCC,2011-10-17,8200.0
HCC,2011-10-18,8200.0
HCC,2011-10-19,8200.0
HCC,2011-10-20,8100.0
HCC,2011-10-21,8100.0
HCC,2011-10-24,8100.0
HCC,2011-10-25,8200.0
HCC,2011-10-26,8200.0
HCC,2011-10-27,7700.0
HCC,2011-10-28,7900.0
HCC,2011-10-31,7500.0
HCC,2011-11-01,7400.0
HCC,2011-11-02,7700.0
HCC,2011-11-03,7600.0
HCC,2011-11-04,7800.0
HCC,2011-11-07,7700.0
HCC,2011-11-08,7500.0
HCC,2011-11-09,8000.0
HCC,2011-11-10,7500.0
HCC,2011-11-11,7000.0
HCC,2011-11-14,7200.0
HCC,2011-11-15,7200.0
HCC,2011-11-16,7500.0
HCC,2011-11-17,7100.0
HCC,2011-11-18,6600.0
HCC,2011-11-21,6400.0
HCC,2011-11-22,5900.0
HCC,2011-11-23,6200.0
HCC,2011-11-24,6000.0
HCC,2011-11-25,6600.0
HCC,2011-11-28,7100.0
HCC,2011-11-29,7400.0
HCC,2011-11-30,7400.0
HCC,2011-12-01,7400.0
HCC,2011-12-02,7200.0
HCC,2011-12-05,7500.0
HCC,2011-12-06,8000.0
HCC,2011-12-07,8000.0
HCC,2011-12-08,7500.0
HCC,2011-12-09,7500.0
HCC,2011-12-12,7000.0
HCC,2011-12-13,6600.0
HCC,2011-12-14,6200.0
HCC,2011-12-15,5800.0
HCC,2011-12-16,5500.0
HCC,2011-12-19,5100.0
HCC,2011-12-20,5200.0
HCC,2011-12-21,4800.0
HCC,2011-12-22,4700.0
HCC,2011-12-23,4800.0
HCC,2011-12-26,4600.0
HCC,2011-12-27,4300.0
HCC,2011-12-28,4500.0
HCC,2011-12-29,4000.0
HCC,2011-12-30,4000.0
HCC,2012-01-03,4000.0
HCC,2012-01-04,4000.0
HCC,2012-01-05,4200.0
HCC,2012-01-06,4300.0
HCC,2012-01-09,4700.0
HCC,2012-01-10,4700.0
HCC,2012-01-11,4600.0
HCC,2012-01-12,4700.0
HCC,2012-01-13,4800.0
HCC,2012-01-16,5000.0
HCC,2012-01-17,5300.0
HCC,2012-01-18,5700.0
HCC,2012-01-19,5900.0
HCC,2012-01-20,5800.0
HCC,2012-01-30,6200.0
HCC,2012-01-31,6600.0
HCC,2012-02-01,6800.0
HCC,2012-02-02,6800.0
HCC,2012-02-03,6400.0
HCC,2012-02-06,6400.0
HCC,2012-02-07,6200.0
HCC,2012-02-08,6600.0
HCC,2012-02-09,6400.0
HCC,2012-02-10,6400.0
HCC,2012-02-13,6300.0
HCC,2012-02-14,6100.0
HCC,2012-02-15,6000.0
HCC,2012-02-16,6000.0
HCC,2012-02-17,6100.0
HCC,2012-02-20,6400.0
HCC,2012-02-21,6400.0
HCC,2012-02-22,6400.0
HCC,2012-02-23,6700.0
HCC,2012-02-24,6900.0
HCC,2012-02-27,7200.0
HCC,2012-02-28,7300.0
HCC,2012-02-29,7100.0
HCC,2012-03-01,7100.0
HCC,2012-03-02,7200.0
HCC,2012-03-05,7600.0
HCC,2012-03-06,7400.0
HCC,2012-03-07,7200.0
HCC,2012-03-08,7200.0
HCC,2012-03-09,7200.0
HCC,2012-03-12,7200.0
HCC,2012-03-13,7500.0
HCC,2012-03-14,7100.0
HCC,2012-03-15,7200.0
HCC,2012-03-16,7200.0
HCC,2012-03-19,7200.0
HCC,2012-03-20,7200.0
HCC,2012-03-21,7300.0
HCC,2012-03-22,7100.0
HCC,2012-03-23,7200.0
HCC,2012-03-26,7600.0
HCC,2012-03-27,7300.0
HCC,2012-03-28,7500.0
HCC,2012-03-29,7200.0
HCC,2012-03-30,7200.0
HCC,2012-04-03,7600.0
HCC,2012-04-04,7600.0
HCC,2012-04-05,7500.0
HCC,2012-04-06,7600.0
HCC,2012-04-09,8100.0
HCC,2012-04-10,7800.0
HCC,2012-04-11,8300.0
HCC,2012-04-12,8100.0
HCC,2012-04-13,8700.0
HCC,2012-04-16,9200.0
HCC,2012-04-17,9100.0
HCC,2012-04-18,9700.0
HCC,2012-04-19,9600.0
HCC,2012-04-20,10100.0
HCC,2012-04-23,9600.0
HCC,2012-04-24,9200.0
HCC,2012-04-25,9800.0
HCC,2012-04-26,9500.0
HCC,2012-04-27,9600.0
HCC,2012-05-02,10200.0
HCC,2012-05-03,10200.0
HCC,2012-05-04,10400.0
HCC,2012-05-07,10600.0
HCC,2012-05-08,10700.0
HCC,2012-05-09,10800.0
HCC,2012-05-10,10100.0
HCC,2012-05-11,10200.0
HCC,2012-05-14,9500.0
HCC,2012-05-15,10200.0
HCC,2012-05-16,10200.0
HCC,2012-05-17,9500.0
HCC,2012-05-18,8800.0
HCC,2012-05-21,9400.0
HCC,2012-05-22,8800.0
HCC,2012-05-23,8400.0
HCC,2012-05-24,8000.0
HCC,2012-05-25,8500.0
HCC,2012-05-28,8700.0
HCC,2012-05-29,8700.0
HCC,2012-05-30,9200.0
HCC,2012-05-31,8700.0
HCC,2012-06-01,8700.0
HCC,2012-06-04,8700.0
HCC,2012-06-05,9200.0
HCC,2012-06-06,9600.0
HCC,2012-06-07,9800.0
HCC,2012-06-08,9800.0
HCC,2012-06-11,9500.0
HCC,2012-06-12,9100.0
HCC,2012-06-13,9100.0
HCC,2012-06-14,9100.0
HCC,2012-06-15,9400.0
HCC,2012-06-18,9400.0
HCC,2012-06-19,9400.0
HCC,2012-06-20,9600.0
HCC,2012-06-21,9600.0
HCC,2012-06-22,9600.0
HCC,2012-06-25,9600.0
HCC,2012-06-26,9600.0
HCC,2012-06-27,9700.0
HCC,2012-06-28,9700.0
HCC,2012-06-29,9700.0
HCC,2012-07-02,9200.0
HCC,2012-07-03,9000.0
HCC,2012-07-04,9000.0
HCC,2012-07-05,8700.0
HCC,2012-07-06,8800.0
HCC,2012-07-09,8800.0
HCC,2012-07-10,8800.0
HCC,2012-07-11,9300.0
HCC,2012-07-12,8800.0
HCC,2012-07-13,9300.0
HCC,2012-07-16,9300.0
HCC,2012-07-17,9300.0
HCC,2012-07-18,9300.0
HCC,2012-07-19,9300.0
HCC,2012-07-20,9300.0
HCC,2012-07-23,9300.0
HCC,2012-07-24,9300.0
HCC,2012-07-25,9300.0
HCC,2012-07-26,8700.0
HCC,2012-07-27,8700.0
HCC,2012-07-30,8700.0
HCC,2012-07-31,8700.0
HCC,2012-08-01,8700.0
HCC,2012-08-02,8700.0
HCC,2012-08-03,8700.0
HCC,2012-08-06,8700.0
HCC,2012-08-07,9000.0
HCC,2012-08-08,9000.0
HCC,2012-08-09,9000.0
HCC,2012-08-10,9000.0
HCC,2012-08-13,8700.0
HCC,2012-08-14,8400.0
HCC,2012-08-15,8300.0
HCC,2012-08-16,8300.0
HCC,2012-08-17,8300.0
HCC,2012-08-20,8500.0
HCC,2012-08-21,8500.0
HCC,2012-08-22,8000.0
HCC,2012-08-23,7400.0
HCC,2012-08-24,7600.0
HCC,2012-08-27,7600.0
HCC,2012-08-28,7600.0
HCC,2012-08-29,7600.0
HCC,2012-08-30,7900.0
HCC,2012-08-31,7900.0
HCC,2012-09-04,7900.0
HCC,2012-09-05,7700.0
HCC,2012-09-06,7700.0
HCC,2012-09-07,7700.0
HCC,2012-09-10,7600.0
HCC,2012-09-11,7600.0
HCC,2012-09-12,7500.0
HCC,2012-09-13,7500.0
HCC,2012-09-14,7600.0
HCC,2012-09-17,7600.0
HCC,2012-09-18,7600.0
HCC,2012-09-19,7600.0
HCC,2012-09-20,7500.0
HCC,2012-09-21,7400.0
HCC,2012-09-24,7500.0
HCC,2012-09-25,7500.0
HCC,2012-09-26,7500.0
HCC,2012-09-27,7500.0
HCC,2012-09-28,7500.0
HCC,2012-10-01,7400.0
HCC,2012-10-02,7400.0
HCC,2012-10-03,7600.0
HCC,2012-10-04,7600.0
HCC,2012-10-05,7600.0
HCC,2012-10-08,7600.0
HCC,2012-10-09,7600.0
HCC,2012-10-10,7600.0
HCC,2012-10-11,7600.0
HCC,2012-10-12,7600.0
HCC,2012-10-15,7600.0
HCC,2012-10-16,7700.0
HCC,2012-10-17,7700.0
HCC,2012-10-18,7700.0
HCC,2012-10-19,7800.0
HCC,2012-10-22,7800.0
HCC,2012-10-23,7900.0
HCC,2012-10-24,7800.0
HCC,2012-10-25,7700.0
HCC,2012-10-26,7800.0
HCC,2012-10-29,8000.0
HCC,2012-10-30,8000.0
HCC,2012-10-31,8000.0
HCC,2012-11-01,8500.0
HCC,2012-11-02,9100.0
HCC,2012-11-05,9700.0
HCC,2012-11-06,9700.0
HCC,2012-11-07,9500.0
HCC,2012-11-08,9500.0
HCC,2012-11-09,9400.0
HCC,2012-11-12,9500.0
HCC,2012-11-13,9300.0
HCC,2012-11-14,9300.0
HCC,2012-11-15,9800.0
HCC,2012-11-16,9200.0
HCC,2012-11-19,9100.0
HCC,2012-11-20,9100.0
HCC,2012-11-21,8800.0
HCC,2012-11-22,8800.0
HCC,2012-11-23,8400.0
HCC,2012-11-26,8600.0
HCC,2012-11-27,8600.0
HCC,2012-11-28,9200.0
HCC,2012-11-29,9700.0
HCC,2012-11-30,9500.0
HCC,2012-12-03,9500.0
HCC,2012-12-04,9800.0
HCC,2012-12-05,9900.0
HCC,2012-12-06,9500.0
HCC,2012-12-07,9500.0
HCC,2012-12-10,9800.0
HCC,2012-12-11,9700.0
HCC,2012-12-12,9700.0
HCC,2012-12-13,9700.0
HCC,2012-12-14,9600.0
HCC,2012-12-17,9800.0
HCC,2012-12-18,10000.0
HCC,2012-12-19,10000.0
HCC,2012-12-20,10000.0
HCC,2012-12-21,10000.0
HCC,2012-12-24,10000.0
HCC,2012-12-25,10000.0
HCC,2012-12-26,10400.0
HCC,2012-12-27,11000.0
HCC,2012-12-28,10400.0
HCC,2013-01-02,10600.0
HCC,2013-01-03,10600.0
HCC,2013-01-04,10700.0
HCC,2013-01-07,10900.0
HCC,2013-01-08,11100.0
HCC,2013-01-09,11100.0
HCC,2013-01-10,11000.0
HCC,2013-01-11,10600.0
HCC,2013-01-14,10900.0
HCC,2013-01-15,10900.0
HCC,2013-01-16,11000.0
HCC,2013-01-17,11000.0
HCC,2013-01-18,10900.0
HCC,2013-01-21,10500.0
HCC,2013-01-22,10400.0
HCC,2013-01-23,10800.0
HCC,2013-01-24,10800.0
HCC,2013-01-25,10400.0
HCC,2013-01-28,11000.0
HCC,2013-01-29,10800.0
HCC,2013-01-30,10800.0
HCC,2013-01-31,10800.0
HCC,2013-02-01,10800.0
HCC,2013-02-04,11200.0
HCC,2013-02-05,11600.0
HCC,2013-02-06,11100.0
HCC,2013-02-07,11100.0
HCC,2013-02-08,11100.0
HCC,2013-02-18,11100.0
HCC,2013-02-19,11700.0
HCC,2013-02-20,11500.0
HCC,2013-02-21,11500.0
HCC,2013-02-22,11600.0
HCC,2013-02-25,11800.0
HCC,2013-02-26,11400.0
HCC,2013-02-27,11300.0
HCC,2013-02-28,11600.0
HCC,2013-03-01,11400.0
HCC,2013-03-04,11400.0
HCC,2013-03-05,11400.0
HCC,2013-03-06,11400.0
HCC,2013-03-07,11400.0
HCC,2013-03-08,11400.0
HCC,2013-03-11,11600.0
HCC,2013-03-12,11400.0
HCC,2013-03-13,11900.0
HCC,2013-03-14,11800.0
HCC,2013-03-15,11700.0
HCC,2013-03-18,11500.0
HCC,2013-03-19,11600.0
HCC,2013-03-20,11500.0
HCC,2013-03-21,11400.0
HCC,2013-03-22,11200.0
HCC,2013-03-25,11800.0
HCC,2013-03-26,11400.0
HCC,2013-03-27,11200.0
HCC,2013-03-28,11800.0
HCC,2013-03-29,11800.0
HCC,2013-04-01,12700.0
HCC,2013-04-02,12100.0
HCC,2013-04-03,12700.0
HCC,2013-04-04,12100.0
HCC,2013-04-05,12200.0
HCC,2013-04-08,12200.0
HCC,2013-04-09,12100.0
HCC,2013-04-10,12100.0
HCC,2013-04-11,12100.0
HCC,2013-04-12,11700.0
HCC,2013-04-15,11600.0
HCC,2013-04-16,11900.0
HCC,2013-04-17,12200.0
HCC,2013-04-18,12200.0
HCC,2013-04-22,11400.0
HCC,2013-04-23,11000.0
HCC,2013-04-24,11400.0
HCC,2013-04-25,11400.0
HCC,2013-04-26,11200.0
HCC,2013-05-02,11700.0
HCC,2013-05-03,11700.0
HCC,2013-05-06,11400.0
HCC,2013-05-07,11300.0
HCC,2013-05-08,11300.0
HCC,2013-05-09,11200.0
HCC,2013-05-10,11100.0
HCC,2013-05-13,11000.0
HCC,2013-05-14,10900.0
HCC,2013-05-15,10900.0
HCC,2013-05-16,11100.0
HCC,2013-05-17,11100.0
HCC,2013-05-20,11000.0
HCC,2013-05-21,11000.0
HCC,2013-05-22,11000.0
HCC,2013-05-23,11400.0
HCC,2013-05-24,11200.0
HCC,2013-05-27,11700.0
HCC,2013-05-28,11400.0
HCC,2013-05-29,11400.0
HCC,2013-05-30,11200.0
HCC,2013-05-31,11600.0
HCC,2013-06-03,11600.0
HCC,2013-06-04,11400.0
HCC,2013-06-05,11400.0
HCC,2013-06-06,11400.0
HCC,2013-06-07,11400.0
HCC,2013-06-10,11300.0
HCC,2013-06-11,11000.0
HCC,2013-06-12,11600.0
HCC,2013-06-13,11800.0
HCC,2013-06-14,11700.0
HCC,2013-06-17,11200.0
HCC,2013-06-18,11400.0
HCC,2013-06-19,11400.0
HCC,2013-06-20,11800.0
HCC,2013-06-21,11500.0
HCC,2013-06-24,11500.0
HCC,2013-06-25,11400.0
HCC,2013-06-26,11400.0
HCC,2013-06-27,11400.0
HCC,2013-06-28,11400.0
HCC,2013-07-01,11400.0
HCC,2013-07-02,11400.0
HCC,2013-07-03,11400.0
HCC,2013-07-04,11400.0
HCC,2013-07-05,11400.0
HCC,2013-07-08,11300.0
HCC,2013-07-09,11200.0
HCC,2013-07-10,11100.0
HCC,2013-07-11,11100.0
HCC,2013-07-12,11200.0
HCC,2013-07-15,11100.0
HCC,2013-07-16,11000.0
HCC,2013-07-17,11000.0
HCC,2013-07-18,11000.0
HCC,2013-07-19,11200.0
HCC,2013-07-22,11200.0
HCC,2013-07-23,11000.0
HCC,2013-07-24,11000.0
HCC,2013-07-25,11600.0
HCC,2013-07-26,11300.0
HCC,2013-07-29,10600.0
HCC,2013-07-30,10900.0
HCC,2013-07-31,11300.0
HCC,2013-08-01,11300.0
HCC,2013-08-02,11500.0
HCC,2013-08-05,10300.0
HCC,2013-08-06,9900.0
HCC,2013-08-07,10000.0
HCC,2013-08-08,10000.0
HCC,2013-08-09,9900.0
HCC,2013-08-12,10300.0
HCC,2013-08-13,10200.0
HCC,2013-08-14,9500.0
HCC,2013-08-15,9800.0
HCC,2013-08-16,10000.0
HCC,2013-08-19,9500.0
HCC,2013-08-20,9500.0
HCC,2013-08-21,9500.0
HCC,2013-08-22,9500.0
HCC,2013-08-23,9500.0
HCC,2013-08-26,9500.0
HCC,2013-08-27,9500.0
HCC,2013-08-28,9300.0
HCC,2013-08-29,9400.0
HCC,2013-08-30,9900.0
HCC,2013-09-03,9300.0
HCC,2013-09-04,9500.0
HCC,2013-09-05,9500.0
HCC,2013-09-06,9700.0
HCC,2013-09-09,9700.0
HCC,2013-09-10,9900.0
HCC,2013-09-11,9900.0
HCC,2013-09-12,9700.0
HCC,2013-09-13,9700.0
HCC,2013-09-16,9700.0
HCC,2013-09-17,9700.0
HCC,2013-09-18,9700.0
HCC,2013-09-19,9700.0
HCC,2013-09-20,9700.0
HCC,2013-09-23,10100.0
HCC,2013-09-24,10000.0
HCC,2013-09-25,10000.0
HCC,2013-09-26,9600.0
HCC,2013-09-27,9500.0
HCC,2013-09-30,9500.0
HCC,2013-10-01,9500.0
HCC,2013-10-02,9500.0
HCC,2013-10-03,9600.0
HCC,2013-10-04,9500.0
HCC,2013-10-07,9500.0
HCC,2013-10-08,9500.0
HCC,2013-10-09,9300.0
HCC,2013-10-10,9800.0
HCC,2013-10-11,9900.0
HCC,2013-10-14,9900.0
HCC,2013-10-15,9900.0
HCC,2013-10-16,9100.0
HCC,2013-10-17,9700.0
HCC,2013-10-18,9700.0
HCC,2013-10-21,9700.0
HCC,2013-10-22,9300.0
HCC,2013-10-23,9300.0
HCC,2013-10-24,9300.0
HCC,2013-10-25,9300.0
HCC,2013-10-28,9300.0
HCC,2013-10-29,9600.0
HCC,2013-10-30,9600.0
HCC,2013-10-31,8800.0
HCC,2013-11-01,9600.0
HCC,2013-11-04,9400.0
HCC,2013-11-05,9400.0
HCC,2013-11-06,9300.0
HCC,2013-11-07,9000.0
HCC,2013-11-08,9000.0
HCC,2013-11-11,9300.0
HCC,2013-11-12,9000.0
HCC,2013-11-13,9000.0
HCC,2013-11-14,9200.0
HCC,2013-11-15,9200.0
HCC,2013-11-18,8900.0
HCC,2013-11-19,9100.0
HCC,2013-11-20,9000.0
HCC,2013-11-21,9000.0
HCC,2013-11-22,9500.0
HCC,2013-11-25,9200.0
HCC,2013-11-26,9200.0
HCC,2013-11-27,9000.0
HCC,2013-11-28,9000.0
HCC,2013-11-29,9000.0
HCC,2013-12-02,9300.0
HCC,2013-12-03,8900.0
HCC,2013-12-04,9200.0
HCC,2013-12-05,9000.0
HCC,2013-12-06,9000.0
HCC,2013-12-09,9100.0
HCC,2013-12-10,8800.0
HCC,2013-12-11,8600.0
HCC,2013-12-12,8600.0
HCC,2013-12-13,8500.0
HCC,2013-12-16,8500.0
HCC,2013-12-17,8600.0
HCC,2013-12-18,8700.0
HCC,2013-12-19,8800.0
HCC,2013-12-20,8800.0
HCC,2013-12-23,8600.0
HCC,2013-12-24,9000.0
HCC,2013-12-25,9000.0
HCC,2013-12-26,9000.0
HCC,2013-12-27,9000.0
HCC,2013-12-30,8600.0
HCC,2013-12-31,8700.0
HCC,2014-01-02,9000.0
HCC,2014-01-03,9000.0
HCC,2014-01-06,9000.0
HCC,2014-01-07,9200.0
HCC,2014-01-08,9000.0
HCC,2014-01-09,9000.0
HCC,2014-01-10,9000.0
HCC,2014-01-13,9000.0
HCC,2014-01-14,9200.0
HCC,2014-01-15,9000.0
HCC,2014-01-16,9000.0
HCC,2014-01-17,9000.0
HCC,2014-01-20,9000.0
HCC,2014-01-21,9000.0
HCC,2014-01-22,8900.0
HCC,2014-01-23,9000.0
HCC,2014-01-24,9200.0
HCC,2014-01-27,9200.0
HCC,2014-02-06,9300.0
HCC,2014-02-07,9200.0
HCC,2014-02-10,9200.0
HCC,2014-02-11,9200.0
HCC,2014-02-12,8900.0
HCC,2014-02-13,9300.0
HCC,2014-02-14,9700.0
HCC,2014-02-17,9500.0
HCC,2014-02-18,9400.0
HCC,2014-02-19,9700.0
HCC,2014-02-20,9500.0
HCC,2014-02-21,9900.0
HCC,2014-02-24,10100.0
HCC,2014-02-25,10300.0
HCC,2014-02-26,10300.0
HCC,2014-02-27,10600.0
HCC,2014-02-28,10600.0
HCC,2014-03-03,11000.0
HCC,2014-03-04,11200.0
HCC,2014-03-05,11900.0
HCC,2014-03-06,12400.0
HCC,2014-03-07,12400.0
HCC,2014-03-10,11200.0
HCC,2014-03-11,10900.0
HCC,2014-03-12,10800.0
HCC,2014-03-13,10900.0
HCC,2014-03-14,10800.0
HCC,2014-03-17,10800.0
HCC,2014-03-18,11400.0
HCC,2014-03-19,11000.0
HCC,2014-03-20,10800.0
HCC,2014-03-21,10900.0
HCC,2014-03-24,11500.0
HCC,2014-03-25,10700.0
HCC,2014-03-26,11100.0
HCC,2014-03-27,11100.0
HCC,2014-03-28,11100.0
HCC,2014-03-31,11100.0
HCC,2014-04-01,11100.0
HCC,2014-04-02,10900.0
HCC,2014-04-03,10900.0
HCC,2014-04-04,9900.0
HCC,2014-04-07,10500.0
HCC,2014-04-08,10900.0
HCC,2014-04-10,10900.0
HCC,2014-04-11,10900.0
HCC,2014-04-14,10900.0
HCC,2014-04-15,10900.0
HCC,2014-04-16,10900.0
HCC,2014-04-17,11000.0
HCC,2014-04-18,9900.0
HCC,2014-04-21,9000.0
HCC,2014-04-22,9900.0
HCC,2014-04-23,10600.0
HCC,2014-04-24,10600.0
HCC,2014-04-25,10600.0
HCC,2014-04-28,10600.0
HCC,2014-04-29,10600.0
HCC,2014-05-05,10600.0
HCC,2014-05-06,10900.0
HCC,2014-05-07,10900.0
HCC,2014-05-08,9900.0
HCC,2014-05-09,10700.0
HCC,2014-05-12,10700.0
HCC,2014-05-13,10700.0
HCC,2014-05-14,10700.0
HCC,2014-05-15,10700.0
HCC,2014-05-16,10700.0
HCC,2014-05-19,11400.0
HCC,2014-05-20,11400.0
HCC,2014-05-21,11400.0
