HNXINDEX,2005-07-18,99.48
HNXINDEX,2005-07-20,95.57
HNXINDEX,2005-07-22,97.46
HNXINDEX,2005-07-25,96.51
HNXINDEX,2005-07-27,98.0
HNXINDEX,2005-07-29,99.2
HNXINDEX,2005-08-01,108.17
HNXINDEX,2005-08-03,101.24
HNXINDEX,2005-08-05,102.63
HNXINDEX,2005-08-08,102.35
HNXINDEX,2005-08-10,99.51
HNXINDEX,2005-08-12,99.56
HNXINDEX,2005-08-15,98.88
HNXINDEX,2005-08-17,102.54
HNXINDEX,2005-08-19,101.67
HNXINDEX,2005-08-22,98.39
HNXINDEX,2005-08-24,101.83
HNXINDEX,2005-08-26,100.61
HNXINDEX,2005-08-29,99.91
HNXINDEX,2005-08-31,98.6
HNXINDEX,2005-09-05,97.97
HNXINDEX,2005-09-07,99.24
HNXINDEX,2005-09-09,100.5
HNXINDEX,2005-09-12,109.04
HNXINDEX,2005-09-14,100.34
HNXINDEX,2005-09-16,100.3
HNXINDEX,2005-09-19,101.63
HNXINDEX,2005-09-21,101.44
HNXINDEX,2005-09-23,100.02
HNXINDEX,2005-09-26,99.86
HNXINDEX,2005-09-28,98.44
HNXINDEX,2005-09-30,99.06
HNXINDEX,2005-10-03,90.39
HNXINDEX,2005-10-05,98.22
HNXINDEX,2005-10-07,99.5
HNXINDEX,2005-10-10,98.33
HNXINDEX,2005-10-12,96.92
HNXINDEX,2005-10-14,97.95
HNXINDEX,2005-10-17,99.26
HNXINDEX,2005-10-19,98.89
HNXINDEX,2005-10-21,98.73
HNXINDEX,2005-10-24,108.48
HNXINDEX,2005-10-26,97.05
HNXINDEX,2005-10-28,98.24
HNXINDEX,2005-10-31,98.88
HNXINDEX,2005-11-02,99.01
HNXINDEX,2005-11-04,98.43
HNXINDEX,2005-11-07,98.46
HNXINDEX,2005-11-09,97.66
HNXINDEX,2005-11-11,97.66
HNXINDEX,2005-11-14,97.72
HNXINDEX,2005-11-16,97.73
HNXINDEX,2005-11-18,96.45
HNXINDEX,2005-11-21,96.42
HNXINDEX,2005-11-23,96.42
HNXINDEX,2005-11-25,96.34
HNXINDEX,2005-11-28,96.32
HNXINDEX,2005-11-30,93.14
HNXINDEX,2005-12-02,92.98
HNXINDEX,2005-12-05,92.35
HNXINDEX,2005-12-07,92.35
HNXINDEX,2005-12-09,91.4
HNXINDEX,2005-12-12,91.24
HNXINDEX,2005-12-14,90.34
HNXINDEX,2005-12-16,90.25
HNXINDEX,2005-12-19,90.08
HNXINDEX,2005-12-21,89.93
HNXINDEX,2005-12-23,95.46
HNXINDEX,2005-12-26,91.5
HNXINDEX,2005-12-28,91.5
HNXINDEX,2005-12-30,96.24
HNXINDEX,2006-01-04,91.3
HNXINDEX,2006-01-06,90.93
HNXINDEX,2006-01-09,90.79
HNXINDEX,2006-01-11,90.79
HNXINDEX,2006-01-13,90.55
HNXINDEX,2006-01-16,93.52
HNXINDEX,2006-01-18,93.67
HNXINDEX,2006-01-20,93.58
HNXINDEX,2006-01-23,93.58
HNXINDEX,2006-01-25,94.06
HNXINDEX,2006-02-06,95.72
HNXINDEX,2006-02-08,96.31
HNXINDEX,2006-02-10,97.55
HNXINDEX,2006-02-13,97.44
HNXINDEX,2006-02-15,98.33
HNXINDEX,2006-02-17,97.14
HNXINDEX,2006-02-20,97.22
HNXINDEX,2006-02-22,94.56
HNXINDEX,2006-02-24,94.43
HNXINDEX,2006-02-27,98.84
HNXINDEX,2006-03-01,105.16
HNXINDEX,2006-03-03,112.09
HNXINDEX,2006-03-06,122.61
HNXINDEX,2006-03-08,131.07001
HNXINDEX,2006-03-10,133.22
HNXINDEX,2006-03-13,135.45
HNXINDEX,2006-03-15,139.96001
HNXINDEX,2006-03-17,143.96001
HNXINDEX,2006-03-20,145.82001
HNXINDEX,2006-03-22,150.59
HNXINDEX,2006-03-24,155.87
HNXINDEX,2006-03-27,163.58
HNXINDEX,2006-03-29,169.78999
HNXINDEX,2006-03-31,178.87
HNXINDEX,2006-04-03,187.96001
HNXINDEX,2006-04-05,184.75
HNXINDEX,2006-04-07,179.72
HNXINDEX,2006-04-10,170.56
HNXINDEX,2006-04-12,159.75999
HNXINDEX,2006-04-14,171.92
HNXINDEX,2006-04-17,182.89
HNXINDEX,2006-04-19,193.81
HNXINDEX,2006-04-21,201.56
HNXINDEX,2006-04-24,207.5
HNXINDEX,2006-04-26,224.14999
HNXINDEX,2006-04-28,222.83
HNXINDEX,2006-05-03,227.45
HNXINDEX,2006-05-05,233.89999
HNXINDEX,2006-05-08,237.09
HNXINDEX,2006-05-10,218.39
HNXINDEX,2006-05-12,240.71001
HNXINDEX,2006-05-15,250.53999
HNXINDEX,2006-05-17,247.58
HNXINDEX,2006-05-19,238.11
HNXINDEX,2006-05-22,231.53999
HNXINDEX,2006-05-24,224.78
HNXINDEX,2006-05-25,217.23
HNXINDEX,2006-05-26,217.23
HNXINDEX,2006-05-31,192.92
HNXINDEX,2006-06-01,205.11
HNXINDEX,2006-06-02,215.98
HNXINDEX,2006-06-05,219.2
HNXINDEX,2006-06-06,213.61
HNXINDEX,2006-06-07,208.50999
HNXINDEX,2006-06-08,211.47
HNXINDEX,2006-06-09,207.95
HNXINDEX,2006-06-12,201.92999
HNXINDEX,2006-06-13,200.24001
HNXINDEX,2006-06-14,201.25
HNXINDEX,2006-06-15,201.78999
HNXINDEX,2006-06-16,197.57001
HNXINDEX,2006-06-19,195.77
HNXINDEX,2006-06-20,190.03
HNXINDEX,2006-06-21,177.64999
HNXINDEX,2006-06-22,195.74001
HNXINDEX,2006-06-23,189.83
HNXINDEX,2006-06-26,186.63
HNXINDEX,2006-06-27,185.36
HNXINDEX,2006-06-28,186.24001
HNXINDEX,2006-06-29,186.72
HNXINDEX,2006-06-30,190.67999
HNXINDEX,2006-07-03,187.96001
HNXINDEX,2006-07-04,185.07001
HNXINDEX,2006-07-05,183.73
HNXINDEX,2006-07-06,185.42
HNXINDEX,2006-07-07,185.92
HNXINDEX,2006-07-10,184.62
HNXINDEX,2006-07-11,183.66
HNXINDEX,2006-07-12,183.39
HNXINDEX,2006-07-13,182.87
HNXINDEX,2006-07-14,185.38
HNXINDEX,2006-07-17,184.82001
HNXINDEX,2006-07-18,183.17
HNXINDEX,2006-07-19,179.25999
HNXINDEX,2006-07-20,178.64
HNXINDEX,2006-07-21,179.52
HNXINDEX,2006-07-24,175.75999
HNXINDEX,2006-07-25,165.3
HNXINDEX,2006-07-26,165.10001
HNXINDEX,2006-07-27,173.24001
HNXINDEX,2006-07-28,174.12
HNXINDEX,2006-07-31,170.14
HNXINDEX,2006-08-01,170.64
HNXINDEX,2006-08-02,168.71001
HNXINDEX,2006-08-03,173.7
HNXINDEX,2006-08-04,178.67999
HNXINDEX,2006-08-07,177.63
HNXINDEX,2006-08-08,177.64999
HNXINDEX,2006-08-09,178.64
HNXINDEX,2006-08-10,178.16
HNXINDEX,2006-08-11,179.45
HNXINDEX,2006-08-14,188.72
HNXINDEX,2006-08-15,184.39999
HNXINDEX,2006-08-16,189.16
HNXINDEX,2006-08-17,197.78
HNXINDEX,2006-08-18,198.89
HNXINDEX,2006-08-21,196.86
HNXINDEX,2006-08-22,190.50999
HNXINDEX,2006-08-23,190.98
HNXINDEX,2006-08-24,190.85001
HNXINDEX,2006-08-25,193.14
HNXINDEX,2006-08-28,192.56
HNXINDEX,2006-08-29,193.85001
HNXINDEX,2006-08-30,193.09
HNXINDEX,2006-08-31,193.12
HNXINDEX,2006-09-01,194.24001
HNXINDEX,2006-09-05,198.77
HNXINDEX,2006-09-06,197.77
HNXINDEX,2006-09-07,196.72
HNXINDEX,2006-09-08,198.75999
HNXINDEX,2006-09-11,198.74001
HNXINDEX,2006-09-12,196.46001
HNXINDEX,2006-09-13,197.52
HNXINDEX,2006-09-14,197.19
HNXINDEX,2006-09-15,195.28
HNXINDEX,2006-09-18,196.14999
HNXINDEX,2006-09-19,195.83
HNXINDEX,2006-09-20,195.83
HNXINDEX,2006-09-21,195.0
HNXINDEX,2006-09-22,194.02
HNXINDEX,2006-09-25,194.03999
HNXINDEX,2006-09-26,194.39
HNXINDEX,2006-09-27,194.82001
HNXINDEX,2006-09-28,194.45
HNXINDEX,2006-09-29,194.49001
HNXINDEX,2006-10-02,194.39
HNXINDEX,2006-10-03,194.64999
HNXINDEX,2006-10-04,194.17
HNXINDEX,2006-10-05,194.83
HNXINDEX,2006-10-06,195.02
HNXINDEX,2006-10-09,195.03999
HNXINDEX,2006-10-10,193.89
HNXINDEX,2006-10-11,194.41
HNXINDEX,2006-10-12,194.03
HNXINDEX,2006-10-13,193.78
HNXINDEX,2006-10-16,192.53999
HNXINDEX,2006-10-17,191.99001
HNXINDEX,2006-10-18,191.78
HNXINDEX,2006-10-19,192.05
HNXINDEX,2006-10-20,192.14
HNXINDEX,2006-10-23,191.91
HNXINDEX,2006-10-24,191.3
HNXINDEX,2006-10-25,191.41
HNXINDEX,2006-10-26,191.28999
HNXINDEX,2006-10-27,192.13
HNXINDEX,2006-10-30,192.41
HNXINDEX,2006-10-31,191.56
HNXINDEX,2006-11-01,191.78999
HNXINDEX,2006-11-02,192.37
HNXINDEX,2006-11-03,192.2
HNXINDEX,2006-11-06,193.5
HNXINDEX,2006-11-07,195.63
HNXINDEX,2006-11-08,200.21001
HNXINDEX,2006-11-09,201.38
HNXINDEX,2006-11-10,198.60001
HNXINDEX,2006-11-13,196.27
HNXINDEX,2006-11-14,195.83
HNXINDEX,2006-11-15,194.74001
HNXINDEX,2006-11-16,192.95
HNXINDEX,2006-11-17,195.83
HNXINDEX,2006-11-20,197.17
HNXINDEX,2006-11-21,202.94
HNXINDEX,2006-11-22,209.94
HNXINDEX,2006-11-23,224.03
HNXINDEX,2006-11-24,237.45
HNXINDEX,2006-11-27,226.75
HNXINDEX,2006-11-28,226.07001
HNXINDEX,2006-11-29,221.8
HNXINDEX,2006-11-30,223.78999
HNXINDEX,2006-12-01,221.92
HNXINDEX,2006-12-04,219.64
HNXINDEX,2006-12-05,214.96001
HNXINDEX,2006-12-06,214.77
HNXINDEX,2006-12-07,220.53999
HNXINDEX,2006-12-08,224.85001
HNXINDEX,2006-12-11,229.72
HNXINDEX,2006-12-12,228.33
HNXINDEX,2006-12-13,232.34
HNXINDEX,2006-12-14,240.23
HNXINDEX,2006-12-15,245.39999
HNXINDEX,2006-12-18,252.59
HNXINDEX,2006-12-19,257.39999
HNXINDEX,2006-12-20,258.78
HNXINDEX,2006-12-21,251.08
HNXINDEX,2006-12-22,236.73
HNXINDEX,2006-12-25,232.46001
HNXINDEX,2006-12-26,237.03999
HNXINDEX,2006-12-27,241.47
HNXINDEX,2006-12-28,243.42999
HNXINDEX,2006-12-29,242.89
HNXINDEX,2007-01-02,241.92
HNXINDEX,2007-01-03,246.37
HNXINDEX,2007-01-04,258.04999
HNXINDEX,2007-01-05,265.62
HNXINDEX,2007-01-08,266.57001
HNXINDEX,2007-01-09,279.12
HNXINDEX,2007-01-10,291.20001
HNXINDEX,2007-01-11,301.04001
HNXINDEX,2007-01-12,309.28
HNXINDEX,2007-01-15,323.23999
HNXINDEX,2007-01-16,322.79999
HNXINDEX,2007-01-17,311.23999
HNXINDEX,2007-01-18,315.95999
HNXINDEX,2007-01-19,321.59
HNXINDEX,2007-01-22,318.94
HNXINDEX,2007-01-23,324.85001
HNXINDEX,2007-01-24,326.23001
HNXINDEX,2007-01-25,316.60999
HNXINDEX,2007-01-26,317.66
HNXINDEX,2007-01-29,324.23999
HNXINDEX,2007-01-30,337.29001
HNXINDEX,2007-01-31,348.51999
HNXINDEX,2007-02-01,347.41
HNXINDEX,2007-02-02,346.76001
HNXINDEX,2007-02-05,344.32001
HNXINDEX,2007-02-06,342.62
HNXINDEX,2007-02-07,346.42001
HNXINDEX,2007-02-08,340.26001
HNXINDEX,2007-02-09,340.53
HNXINDEX,2007-02-12,346.97
HNXINDEX,2007-02-13,354.63
HNXINDEX,2007-02-14,365.17001
HNXINDEX,2007-02-15,377.59
HNXINDEX,2007-02-26,409.23001
HNXINDEX,2007-02-27,433.82999
HNXINDEX,2007-02-28,430.34
HNXINDEX,2007-03-01,424.67999
HNXINDEX,2007-03-02,418.88
HNXINDEX,2007-03-05,435.57999
HNXINDEX,2007-03-06,440.51999
HNXINDEX,2007-03-07,445.79999
HNXINDEX,2007-03-08,450.76999
HNXINDEX,2007-03-09,454.81
HNXINDEX,2007-03-12,454.75
HNXINDEX,2007-03-13,446.95001
HNXINDEX,2007-03-14,431.76999
HNXINDEX,2007-03-15,421.32999
HNXINDEX,2007-03-16,448.39001
HNXINDEX,2007-03-19,459.35999
HNXINDEX,2007-03-20,446.10999
HNXINDEX,2007-03-21,442.97
HNXINDEX,2007-03-22,437.26999
HNXINDEX,2007-03-23,430.10001
HNXINDEX,2007-03-26,397.98999
HNXINDEX,2007-03-27,371.94
HNXINDEX,2007-03-28,405.17999
HNXINDEX,2007-03-29,407.5
HNXINDEX,2007-03-30,404.07999
HNXINDEX,2007-04-02,391.76999
HNXINDEX,2007-04-03,385.22
HNXINDEX,2007-04-04,400.51001
HNXINDEX,2007-04-05,393.01999
HNXINDEX,2007-04-06,398.67999
HNXINDEX,2007-04-09,400.94
HNXINDEX,2007-04-10,405.17001
HNXINDEX,2007-04-11,404.81
HNXINDEX,2007-04-12,394.13
HNXINDEX,2007-04-13,392.09
HNXINDEX,2007-04-16,366.17999
HNXINDEX,2007-04-17,365.54999
HNXINDEX,2007-04-18,385.57001
HNXINDEX,2007-04-19,374.39001
HNXINDEX,2007-04-20,365.56
HNXINDEX,2007-04-23,321.44
HNXINDEX,2007-04-24,319.51001
HNXINDEX,2007-04-25,332.79001
HNXINDEX,2007-05-02,329.23999
HNXINDEX,2007-05-03,323.48999
HNXINDEX,2007-05-04,319.37
HNXINDEX,2007-05-07,327.14999
HNXINDEX,2007-05-08,331.20001
HNXINDEX,2007-05-09,334.16
HNXINDEX,2007-05-10,331.07001
HNXINDEX,2007-05-11,335.48001
HNXINDEX,2007-05-14,338.09
HNXINDEX,2007-05-15,337.10001
HNXINDEX,2007-05-16,334.57999
HNXINDEX,2007-05-17,337.14999
HNXINDEX,2007-05-18,337.87
HNXINDEX,2007-05-21,340.37
HNXINDEX,2007-05-22,347.29001
HNXINDEX,2007-05-23,348.32001
HNXINDEX,2007-05-24,343.85999
HNXINDEX,2007-05-25,346.67001
HNXINDEX,2007-05-28,343.14001
HNXINDEX,2007-05-29,340.75
HNXINDEX,2007-05-30,335.84
HNXINDEX,2007-05-31,337.26999
HNXINDEX,2007-06-01,336.32001
HNXINDEX,2007-06-04,330.32999
HNXINDEX,2007-06-05,327.48001
HNXINDEX,2007-06-06,328.81
HNXINDEX,2007-06-07,328.75
HNXINDEX,2007-06-08,327.64999
HNXINDEX,2007-06-11,322.31
HNXINDEX,2007-06-12,317.98001
HNXINDEX,2007-06-13,313.04001
HNXINDEX,2007-06-14,315.87
HNXINDEX,2007-06-15,313.47
HNXINDEX,2007-06-18,315.20001
HNXINDEX,2007-06-19,313.14001
HNXINDEX,2007-06-20,309.89001
HNXINDEX,2007-06-21,302.85999
HNXINDEX,2007-06-22,299.76999
HNXINDEX,2007-06-25,295.92001
HNXINDEX,2007-06-26,295.39999
HNXINDEX,2007-06-27,293.14001
HNXINDEX,2007-06-28,288.89999
HNXINDEX,2007-06-29,284.70001
HNXINDEX,2007-07-02,256.29999
HNXINDEX,2007-07-03,252.61
HNXINDEX,2007-07-04,267.92001
HNXINDEX,2007-07-05,263.53
HNXINDEX,2007-07-06,268.13
HNXINDEX,2007-07-09,270.73999
HNXINDEX,2007-07-10,282.04001
HNXINDEX,2007-07-11,282.45999
HNXINDEX,2007-07-12,273.67001
HNXINDEX,2007-07-13,277.37
HNXINDEX,2007-07-16,270.59
HNXINDEX,2007-07-17,272.25
HNXINDEX,2007-07-18,269.84
HNXINDEX,2007-07-19,268.04999
HNXINDEX,2007-07-20,267.42001
HNXINDEX,2007-07-23,267.06
HNXINDEX,2007-07-24,264.88
HNXINDEX,2007-07-25,263.23999
HNXINDEX,2007-07-26,259.45999
HNXINDEX,2007-07-27,258.84
HNXINDEX,2007-07-30,255.2
HNXINDEX,2007-07-31,253.57001
HNXINDEX,2007-08-01,260.0
HNXINDEX,2007-08-02,258.51999
HNXINDEX,2007-08-03,255.95
HNXINDEX,2007-08-06,254.47
HNXINDEX,2007-08-07,256.10999
HNXINDEX,2007-08-08,254.75
HNXINDEX,2007-08-09,259.06
HNXINDEX,2007-08-10,257.34
HNXINDEX,2007-08-13,254.48
HNXINDEX,2007-08-14,254.24001
HNXINDEX,2007-08-15,254.05
HNXINDEX,2007-08-16,252.35001
HNXINDEX,2007-08-17,249.39999
HNXINDEX,2007-08-20,248.83
HNXINDEX,2007-08-21,248.8
HNXINDEX,2007-08-22,246.47
HNXINDEX,2007-08-23,247.37
HNXINDEX,2007-08-24,250.14999
HNXINDEX,2007-08-27,250.3
HNXINDEX,2007-08-28,250.69
HNXINDEX,2007-08-29,250.48
HNXINDEX,2007-08-30,251.28
HNXINDEX,2007-08-31,252.55
HNXINDEX,2007-09-04,256.14001
HNXINDEX,2007-09-05,253.72
HNXINDEX,2007-09-06,254.57001
HNXINDEX,2007-09-07,256.64999
HNXINDEX,2007-09-10,256.82999
HNXINDEX,2007-09-11,257.60001
HNXINDEX,2007-09-12,259.03
HNXINDEX,2007-09-13,259.16
HNXINDEX,2007-09-14,259.48001
HNXINDEX,2007-09-17,261.81
HNXINDEX,2007-09-18,268.67001
HNXINDEX,2007-09-19,276.63
HNXINDEX,2007-09-20,273.60001
HNXINDEX,2007-09-21,272.48999
HNXINDEX,2007-09-24,281.26999
HNXINDEX,2007-09-25,290.28
HNXINDEX,2007-09-26,291.98999
HNXINDEX,2007-09-27,295.32001
HNXINDEX,2007-09-28,309.73999
HNXINDEX,2007-10-01,334.48999
HNXINDEX,2007-10-02,343.03
HNXINDEX,2007-10-03,345.54001
HNXINDEX,2007-10-04,349.48001
HNXINDEX,2007-10-05,345.10999
HNXINDEX,2007-10-08,343.67001
HNXINDEX,2007-10-09,349.64001
HNXINDEX,2007-10-10,356.13
HNXINDEX,2007-10-11,357.78
HNXINDEX,2007-10-12,362.26999
HNXINDEX,2007-10-15,370.85001
HNXINDEX,2007-10-16,379.16
HNXINDEX,2007-10-17,372.60001
HNXINDEX,2007-10-18,364.85001
HNXINDEX,2007-10-19,376.82999
HNXINDEX,2007-10-22,374.28
HNXINDEX,2007-10-23,369.29001
HNXINDEX,2007-10-24,377.32999
HNXINDEX,2007-10-25,379.70001
HNXINDEX,2007-10-26,381.45001
HNXINDEX,2007-10-29,374.95999
HNXINDEX,2007-10-30,371.42001
HNXINDEX,2007-10-31,379.20999
HNXINDEX,2007-11-01,393.59
HNXINDEX,2007-11-02,382.92999
HNXINDEX,2007-11-05,371.60001
HNXINDEX,2007-11-06,365.85001
HNXINDEX,2007-11-07,367.54999
HNXINDEX,2007-11-08,362.85001
HNXINDEX,2007-11-09,356.57999
HNXINDEX,2007-11-12,341.79001
HNXINDEX,2007-11-13,317.64999
HNXINDEX,2007-11-14,349.64999
HNXINDEX,2007-11-15,343.44
HNXINDEX,2007-11-16,342.72
HNXINDEX,2007-11-19,344.98001
HNXINDEX,2007-11-20,340.12
HNXINDEX,2007-11-21,335.88
HNXINDEX,2007-11-22,338.17001
HNXINDEX,2007-11-23,338.98999
HNXINDEX,2007-11-26,343.17001
HNXINDEX,2007-11-27,340.48001
HNXINDEX,2007-11-28,339.92999
HNXINDEX,2007-11-29,342.32999
HNXINDEX,2007-11-30,341.10001
HNXINDEX,2007-12-03,345.14999
HNXINDEX,2007-12-04,349.5
HNXINDEX,2007-12-05,346.26001
HNXINDEX,2007-12-06,344.37
HNXINDEX,2007-12-07,344.07999
HNXINDEX,2007-12-10,335.85001
HNXINDEX,2007-12-11,329.91
HNXINDEX,2007-12-12,328.64001
HNXINDEX,2007-12-13,326.0
HNXINDEX,2007-12-14,324.88
HNXINDEX,2007-12-17,318.48001
HNXINDEX,2007-12-18,318.95001
HNXINDEX,2007-12-19,331.04999
HNXINDEX,2007-12-20,327.23999
HNXINDEX,2007-12-21,333.98999
HNXINDEX,2007-12-24,331.57001
HNXINDEX,2007-12-25,325.64001
HNXINDEX,2007-12-26,323.53
HNXINDEX,2007-12-27,317.95999
HNXINDEX,2007-12-28,323.54999
HNXINDEX,2008-01-02,322.34
HNXINDEX,2008-01-03,314.54001
HNXINDEX,2008-01-04,310.45001
HNXINDEX,2008-01-07,297.59
HNXINDEX,2008-01-08,298.92999
HNXINDEX,2008-01-09,294.67999
HNXINDEX,2008-01-10,290.79001
HNXINDEX,2008-01-11,289.60001
HNXINDEX,2008-01-14,275.67999
HNXINDEX,2008-01-15,265.79999
HNXINDEX,2008-01-16,285.63
HNXINDEX,2008-01-17,282.89999
HNXINDEX,2008-01-18,288.03
HNXINDEX,2008-01-21,284.48999
HNXINDEX,2008-01-22,279.29999
HNXINDEX,2008-01-23,271.67999
HNXINDEX,2008-01-24,270.35999
HNXINDEX,2008-01-25,271.76001
HNXINDEX,2008-01-28,271.76001
HNXINDEX,2008-01-29,278.60001
HNXINDEX,2008-01-30,296.67001
HNXINDEX,2008-01-31,294.13
HNXINDEX,2008-02-01,298.20001
HNXINDEX,2008-02-12,290.10999
HNXINDEX,2008-02-13,283.91
HNXINDEX,2008-02-14,285.22
HNXINDEX,2008-02-15,282.07999
HNXINDEX,2008-02-18,269.70001
HNXINDEX,2008-02-19,268.19
HNXINDEX,2008-02-20,257.17001
HNXINDEX,2008-02-21,237.89
HNXINDEX,2008-02-22,239.02
HNXINDEX,2008-02-25,246.84
HNXINDEX,2008-02-26,229.56
HNXINDEX,2008-02-27,232.33
HNXINDEX,2008-02-28,232.38
HNXINDEX,2008-02-29,228.24001
HNXINDEX,2008-03-03,214.12
HNXINDEX,2008-03-04,199.03999
HNXINDEX,2008-03-05,191.38
HNXINDEX,2008-03-06,206.49001
HNXINDEX,2008-03-07,225.55
HNXINDEX,2008-03-10,233.11
HNXINDEX,2008-03-11,219.49001
HNXINDEX,2008-03-12,225.41
HNXINDEX,2008-03-13,227.50999
HNXINDEX,2008-03-14,224.69
HNXINDEX,2008-03-17,210.16
HNXINDEX,2008-03-18,195.8
HNXINDEX,2008-03-19,197.78
HNXINDEX,2008-03-20,196.17
HNXINDEX,2008-03-21,191.92
HNXINDEX,2008-03-24,178.56
HNXINDEX,2008-03-25,166.57001
HNXINDEX,2008-03-26,175.31
HNXINDEX,2008-03-27,175.88
HNXINDEX,2008-03-28,178.58
HNXINDEX,2008-03-31,181.42999
HNXINDEX,2008-04-01,184.41
HNXINDEX,2008-04-02,187.69
HNXINDEX,2008-04-03,190.32001
HNXINDEX,2008-04-04,193.28999
HNXINDEX,2008-04-07,198.33
HNXINDEX,2008-04-08,197.55
HNXINDEX,2008-04-09,193.21001
HNXINDEX,2008-04-10,189.03999
HNXINDEX,2008-04-11,185.62
HNXINDEX,2008-04-16,180.95
HNXINDEX,2008-04-17,184.74001
HNXINDEX,2008-04-18,179.77
HNXINDEX,2008-04-21,177.33
HNXINDEX,2008-04-22,174.25999
HNXINDEX,2008-04-23,170.39999
HNXINDEX,2008-04-24,168.07001
HNXINDEX,2008-04-25,168.95
HNXINDEX,2008-04-28,171.11
HNXINDEX,2008-04-29,169.11
HNXINDEX,2008-05-05,167.05
HNXINDEX,2008-05-06,163.89
HNXINDEX,2008-05-07,160.61
HNXINDEX,2008-05-08,157.42
HNXINDEX,2008-05-09,154.23
HNXINDEX,2008-05-12,151.27
HNXINDEX,2008-05-13,147.86
HNXINDEX,2008-05-14,144.85001
HNXINDEX,2008-05-15,142.09
HNXINDEX,2008-05-16,139.74001
HNXINDEX,2008-05-19,137.74001
HNXINDEX,2008-05-20,135.21001
HNXINDEX,2008-05-21,132.75
HNXINDEX,2008-05-22,130.35001
HNXINDEX,2008-05-23,127.93
HNXINDEX,2008-05-26,125.46
HNXINDEX,2008-05-27,123.17
HNXINDEX,2008-05-28,121.28
HNXINDEX,2008-05-29,120.72
HNXINDEX,2008-05-30,119.31
HNXINDEX,2008-06-02,117.63
HNXINDEX,2008-06-03,115.71
HNXINDEX,2008-06-04,113.6
HNXINDEX,2008-06-05,111.65
HNXINDEX,2008-06-06,109.86
HNXINDEX,2008-06-09,108.46
HNXINDEX,2008-06-10,107.76
HNXINDEX,2008-06-11,108.54
HNXINDEX,2008-06-12,109.47
HNXINDEX,2008-06-13,111.09
HNXINDEX,2008-06-16,113.81
HNXINDEX,2008-06-17,115.95
HNXINDEX,2008-06-18,113.94
HNXINDEX,2008-06-19,112.6
HNXINDEX,2008-06-20,110.4
HNXINDEX,2008-06-23,110.48
HNXINDEX,2008-06-24,109.88
HNXINDEX,2008-06-25,112.06
HNXINDEX,2008-06-26,111.92
HNXINDEX,2008-06-27,112.68
HNXINDEX,2008-06-30,112.67
HNXINDEX,2008-07-01,114.99
HNXINDEX,2008-07-02,118.78
HNXINDEX,2008-07-03,122.07
HNXINDEX,2008-07-04,125.55
HNXINDEX,2008-07-07,124.78
HNXINDEX,2008-07-08,125.13
HNXINDEX,2008-07-09,125.92
HNXINDEX,2008-07-10,129.16
HNXINDEX,2008-07-11,133.0
HNXINDEX,2008-07-14,137.27
HNXINDEX,2008-07-15,142.83
HNXINDEX,2008-07-16,147.74001
HNXINDEX,2008-07-17,151.03999
HNXINDEX,2008-07-18,149.67999
HNXINDEX,2008-07-21,148.28
HNXINDEX,2008-07-22,145.69
HNXINDEX,2008-07-23,143.48
HNXINDEX,2008-07-24,141.34
HNXINDEX,2008-07-25,140.85001
HNXINDEX,2008-07-28,144.59
HNXINDEX,2008-07-29,143.10001
HNXINDEX,2008-07-30,145.46001
HNXINDEX,2008-07-31,143.32001
HNXINDEX,2008-08-01,140.45
HNXINDEX,2008-08-04,136.5
HNXINDEX,2008-08-05,133.53
HNXINDEX,2008-08-06,134.71001
HNXINDEX,2008-08-07,133.45
HNXINDEX,2008-08-08,135.32001
HNXINDEX,2008-08-11,137.02
HNXINDEX,2008-08-12,139.53999
HNXINDEX,2008-08-13,142.64
HNXINDEX,2008-08-14,146.57001
HNXINDEX,2008-08-15,151.64999
HNXINDEX,2008-08-18,157.92999
HNXINDEX,2008-08-19,159.50999
HNXINDEX,2008-08-20,156.78
HNXINDEX,2008-08-21,162.96001
HNXINDEX,2008-08-22,164.28
HNXINDEX,2008-08-25,173.41
HNXINDEX,2008-08-26,184.67
HNXINDEX,2008-08-27,190.06
HNXINDEX,2008-08-28,185.14999
HNXINDEX,2008-08-29,192.42999
HNXINDEX,2008-09-03,194.3
HNXINDEX,2008-09-04,194.87
HNXINDEX,2008-09-05,189.14
HNXINDEX,2008-09-08,182.37
HNXINDEX,2008-09-09,176.85001
HNXINDEX,2008-09-10,175.19
HNXINDEX,2008-09-11,169.28999
HNXINDEX,2008-09-12,160.62
HNXINDEX,2008-09-15,162.89999
HNXINDEX,2008-09-16,155.08
HNXINDEX,2008-09-17,144.74001
HNXINDEX,2008-09-18,136.08
HNXINDEX,2008-09-19,145.74001
HNXINDEX,2008-09-22,150.44
HNXINDEX,2008-09-23,152.62
HNXINDEX,2008-09-24,151.47
HNXINDEX,2008-09-25,157.03999
HNXINDEX,2008-09-26,160.31
HNXINDEX,2008-09-29,157.98
HNXINDEX,2008-09-30,148.55
HNXINDEX,2008-10-01,149.7
HNXINDEX,2008-10-02,152.96001
HNXINDEX,2008-10-03,152.02
HNXINDEX,2008-10-06,143.38
HNXINDEX,2008-10-07,134.98
HNXINDEX,2008-10-08,127.53
HNXINDEX,2008-10-09,129.28
HNXINDEX,2008-10-10,119.87
HNXINDEX,2008-10-13,119.34
HNXINDEX,2008-10-14,128.37
HNXINDEX,2008-10-15,132.12
HNXINDEX,2008-10-16,124.28
HNXINDEX,2008-10-17,125.32
HNXINDEX,2008-10-20,123.1
HNXINDEX,2008-10-21,126.81
HNXINDEX,2008-10-22,123.05
HNXINDEX,2008-10-23,115.34
HNXINDEX,2008-10-24,111.58
HNXINDEX,2008-10-27,105.19
HNXINDEX,2008-10-28,105.05
HNXINDEX,2008-10-29,107.44
HNXINDEX,2008-10-30,111.94
HNXINDEX,2008-10-31,114.88
HNXINDEX,2008-11-03,112.88
HNXINDEX,2008-11-04,118.64
HNXINDEX,2008-11-05,125.23
HNXINDEX,2008-11-06,122.12
HNXINDEX,2008-11-07,116.36
HNXINDEX,2008-11-10,118.35
HNXINDEX,2008-11-11,112.31
HNXINDEX,2008-11-12,113.01
HNXINDEX,2008-11-13,110.64
HNXINDEX,2008-11-14,113.07
HNXINDEX,2008-11-17,110.35
HNXINDEX,2008-11-18,111.38
HNXINDEX,2008-11-19,110.9
HNXINDEX,2008-11-20,106.49
HNXINDEX,2008-11-21,103.9
HNXINDEX,2008-11-24,104.51
HNXINDEX,2008-11-25,105.24
HNXINDEX,2008-11-26,99.56
HNXINDEX,2008-11-27,97.61
HNXINDEX,2008-11-28,104.2
HNXINDEX,2008-12-01,103.97
HNXINDEX,2008-12-02,103.48
HNXINDEX,2008-12-03,104.16
HNXINDEX,2008-12-04,106.62
HNXINDEX,2008-12-05,103.54
HNXINDEX,2008-12-08,100.11
HNXINDEX,2008-12-09,103.11
HNXINDEX,2008-12-10,100.25
HNXINDEX,2008-12-11,101.88
HNXINDEX,2008-12-12,105.9
HNXINDEX,2008-12-15,110.3
HNXINDEX,2008-12-16,106.57
HNXINDEX,2008-12-17,107.44
HNXINDEX,2008-12-18,108.22
HNXINDEX,2008-12-19,107.72
HNXINDEX,2008-12-22,107.85
HNXINDEX,2008-12-23,105.25
HNXINDEX,2008-12-24,104.35
HNXINDEX,2008-12-25,104.97
HNXINDEX,2008-12-26,105.62
HNXINDEX,2008-12-29,105.5
HNXINDEX,2008-12-30,105.44
HNXINDEX,2008-12-31,105.12
HNXINDEX,2009-01-02,104.47
HNXINDEX,2009-01-05,103.78
HNXINDEX,2009-01-06,105.53
HNXINDEX,2009-01-07,107.03
HNXINDEX,2009-01-08,105.67
HNXINDEX,2009-01-09,106.17
HNXINDEX,2009-01-12,105.71
HNXINDEX,2009-01-13,104.23
HNXINDEX,2009-01-14,104.0
HNXINDEX,2009-01-15,103.11
HNXINDEX,2009-01-16,102.84
HNXINDEX,2009-01-19,101.95
HNXINDEX,2009-01-20,100.69
HNXINDEX,2009-01-21,99.75
HNXINDEX,2009-01-22,100.31
HNXINDEX,2009-01-23,99.93
HNXINDEX,2009-02-02,98.64
HNXINDEX,2009-02-03,94.5
HNXINDEX,2009-02-04,93.82
HNXINDEX,2009-02-05,90.21
HNXINDEX,2009-02-06,92.66
HNXINDEX,2009-02-09,95.44
HNXINDEX,2009-02-10,93.02
HNXINDEX,2009-02-11,91.3
HNXINDEX,2009-02-12,91.38
HNXINDEX,2009-02-13,90.94
HNXINDEX,2009-02-16,90.03
HNXINDEX,2009-02-17,88.01
HNXINDEX,2009-02-18,84.62
HNXINDEX,2009-02-19,85.27
HNXINDEX,2009-02-20,84.2
HNXINDEX,2009-02-23,80.26
HNXINDEX,2009-02-24,78.06
HNXINDEX,2009-02-25,81.93
HNXINDEX,2009-02-26,82.1
HNXINDEX,2009-02-27,83.96
HNXINDEX,2009-03-02,83.6
HNXINDEX,2009-03-03,81.76
HNXINDEX,2009-03-04,82.5
HNXINDEX,2009-03-05,84.77
HNXINDEX,2009-03-06,84.59
HNXINDEX,2009-03-09,85.53
HNXINDEX,2009-03-10,87.5
HNXINDEX,2009-03-11,90.46
HNXINDEX,2009-03-12,87.47
HNXINDEX,2009-03-13,88.67
HNXINDEX,2009-03-16,90.25
HNXINDEX,2009-03-17,93.57
HNXINDEX,2009-03-18,98.14
HNXINDEX,2009-03-19,96.3
HNXINDEX,2009-03-20,95.57
HNXINDEX,2009-03-23,93.14
HNXINDEX,2009-03-24,98.7
HNXINDEX,2009-03-25,98.39
HNXINDEX,2009-03-26,100.0
HNXINDEX,2009-03-27,98.57
HNXINDEX,2009-03-30,97.35
HNXINDEX,2009-03-31,98.37
HNXINDEX,2009-04-01,100.83
HNXINDEX,2009-04-02,102.66
HNXINDEX,2009-04-03,108.85
HNXINDEX,2009-04-07,114.3
HNXINDEX,2009-04-08,108.93
HNXINDEX,2009-04-09,111.49
HNXINDEX,2009-04-10,118.58
HNXINDEX,2009-04-13,126.4
HNXINDEX,2009-04-14,130.94
HNXINDEX,2009-04-15,127.89
HNXINDEX,2009-04-16,129.45
HNXINDEX,2009-04-17,122.56
HNXINDEX,2009-04-20,116.34
HNXINDEX,2009-04-21,110.73
HNXINDEX,2009-04-22,115.31
HNXINDEX,2009-04-23,113.61
HNXINDEX,2009-04-24,110.2
HNXINDEX,2009-04-27,109.32
HNXINDEX,2009-04-28,111.95
HNXINDEX,2009-04-29,115.0
HNXINDEX,2009-05-04,121.49
HNXINDEX,2009-05-05,127.59
HNXINDEX,2009-05-06,124.4
HNXINDEX,2009-05-07,132.07001
HNXINDEX,2009-05-08,131.23
HNXINDEX,2009-05-11,130.64
HNXINDEX,2009-05-12,132.75
HNXINDEX,2009-05-13,131.17
HNXINDEX,2009-05-14,130.24001
HNXINDEX,2009-05-15,136.16
HNXINDEX,2009-05-18,136.75
HNXINDEX,2009-05-19,142.05
HNXINDEX,2009-05-20,142.66
HNXINDEX,2009-05-21,142.5
HNXINDEX,2009-05-22,141.36
HNXINDEX,2009-05-25,148.63
HNXINDEX,2009-05-26,150.17999
HNXINDEX,2009-05-27,148.28
HNXINDEX,2009-05-28,142.3
HNXINDEX,2009-05-29,144.13
HNXINDEX,2009-06-01,149.56
HNXINDEX,2009-06-02,154.56
HNXINDEX,2009-06-03,154.86
HNXINDEX,2009-06-04,159.39999
HNXINDEX,2009-06-05,169.52
HNXINDEX,2009-06-08,181.03999
HNXINDEX,2009-06-09,186.17
HNXINDEX,2009-06-10,179.73
HNXINDEX,2009-06-11,186.24001
HNXINDEX,2009-06-12,182.92
HNXINDEX,2009-06-15,175.8
HNXINDEX,2009-06-16,165.03
HNXINDEX,2009-06-17,167.02
HNXINDEX,2009-06-18,168.53999
HNXINDEX,2009-06-19,167.86
HNXINDEX,2009-06-22,158.66
HNXINDEX,2009-06-23,149.23
HNXINDEX,2009-06-24,157.63
HNXINDEX,2009-06-25,154.36
HNXINDEX,2009-06-26,155.74001
HNXINDEX,2009-06-29,153.8
HNXINDEX,2009-06-30,149.03999
HNXINDEX,2009-07-01,142.5
HNXINDEX,2009-07-02,146.0
HNXINDEX,2009-07-03,145.75999
HNXINDEX,2009-07-06,152.14
HNXINDEX,2009-07-07,150.67999
HNXINDEX,2009-07-08,149.25999
HNXINDEX,2009-07-09,148.38
HNXINDEX,2009-07-10,146.37
HNXINDEX,2009-07-13,141.61
HNXINDEX,2009-07-14,140.67999
HNXINDEX,2009-07-15,142.89999
HNXINDEX,2009-07-16,145.85001
HNXINDEX,2009-07-17,144.17
HNXINDEX,2009-07-20,138.55
HNXINDEX,2009-07-21,140.37
HNXINDEX,2009-07-22,139.82001
HNXINDEX,2009-07-23,147.55
HNXINDEX,2009-07-24,154.62
HNXINDEX,2009-07-27,161.05
HNXINDEX,2009-07-28,154.78999
HNXINDEX,2009-07-29,152.14
HNXINDEX,2009-07-30,148.91
HNXINDEX,2009-07-31,153.91
HNXINDEX,2009-08-03,150.89999
HNXINDEX,2009-08-04,153.00999
HNXINDEX,2009-08-05,153.92999
HNXINDEX,2009-08-06,152.92
HNXINDEX,2009-08-07,151.7
HNXINDEX,2009-08-10,154.73
HNXINDEX,2009-08-11,156.0
HNXINDEX,2009-08-12,156.38
HNXINDEX,2009-08-13,157.95
HNXINDEX,2009-08-14,157.17999
HNXINDEX,2009-08-17,155.82001
HNXINDEX,2009-08-18,156.41
HNXINDEX,2009-08-19,158.95
HNXINDEX,2009-08-20,160.47
HNXINDEX,2009-08-21,161.98
HNXINDEX,2009-08-24,164.56
HNXINDEX,2009-08-25,163.63
HNXINDEX,2009-08-26,164.39
HNXINDEX,2009-08-27,164.13
HNXINDEX,2009-08-28,167.64
HNXINDEX,2009-08-31,172.17
HNXINDEX,2009-09-01,172.2
HNXINDEX,2009-09-03,169.74001
HNXINDEX,2009-09-04,166.92
HNXINDEX,2009-09-07,164.73
HNXINDEX,2009-09-08,167.83
HNXINDEX,2009-09-09,167.02
HNXINDEX,2009-09-10,167.34
HNXINDEX,2009-09-11,169.17999
HNXINDEX,2009-09-14,171.83
HNXINDEX,2009-09-15,173.28
HNXINDEX,2009-09-16,174.87
HNXINDEX,2009-09-17,174.67999
HNXINDEX,2009-09-18,176.46001
HNXINDEX,2009-09-21,177.82001
HNXINDEX,2009-09-22,179.63
HNXINDEX,2009-09-23,181.08
HNXINDEX,2009-09-24,180.77
HNXINDEX,2009-09-25,183.47
HNXINDEX,2009-09-28,184.42999
HNXINDEX,2009-09-29,185.08
HNXINDEX,2009-09-30,184.28999
HNXINDEX,2009-10-01,181.39
HNXINDEX,2009-10-02,177.27
HNXINDEX,2009-10-05,175.39
HNXINDEX,2009-10-06,176.87
HNXINDEX,2009-10-07,181.00999
HNXINDEX,2009-10-08,184.42999
HNXINDEX,2009-10-09,189.64999
HNXINDEX,2009-10-12,196.7
HNXINDEX,2009-10-13,197.49001
HNXINDEX,2009-10-14,205.36
HNXINDEX,2009-10-15,211.50999
HNXINDEX,2009-10-16,206.82001
HNXINDEX,2009-10-19,210.06
HNXINDEX,2009-10-20,214.87
HNXINDEX,2009-10-21,217.74001
HNXINDEX,2009-10-22,218.38
HNXINDEX,2009-10-23,214.27
HNXINDEX,2009-10-26,209.77
HNXINDEX,2009-10-27,204.44
HNXINDEX,2009-10-28,203.50999
HNXINDEX,2009-10-29,196.14
HNXINDEX,2009-10-30,199.38
HNXINDEX,2009-11-02,188.02
HNXINDEX,2009-11-03,183.05
HNXINDEX,2009-11-04,184.99001
HNXINDEX,2009-11-05,190.27
HNXINDEX,2009-11-06,189.14
HNXINDEX,2009-11-09,181.81
HNXINDEX,2009-11-10,177.34
HNXINDEX,2009-11-11,182.59
HNXINDEX,2009-11-12,184.37
HNXINDEX,2009-11-13,183.64
HNXINDEX,2009-11-16,183.17
HNXINDEX,2009-11-17,182.67
HNXINDEX,2009-11-18,185.17
HNXINDEX,2009-11-19,185.67999
HNXINDEX,2009-11-20,184.78999
HNXINDEX,2009-11-23,179.13
HNXINDEX,2009-11-24,175.2
HNXINDEX,2009-11-25,164.87
HNXINDEX,2009-11-26,155.19
HNXINDEX,2009-11-27,155.41
HNXINDEX,2009-11-30,161.85001
HNXINDEX,2009-12-01,168.69
HNXINDEX,2009-12-02,160.02
HNXINDEX,2009-12-03,159.0
HNXINDEX,2009-12-04,159.39
HNXINDEX,2009-12-07,160.09
HNXINDEX,2009-12-08,155.39
HNXINDEX,2009-12-09,147.91
HNXINDEX,2009-12-10,144.53
HNXINDEX,2009-12-11,139.99001
HNXINDEX,2009-12-14,146.95
HNXINDEX,2009-12-15,143.61
HNXINDEX,2009-12-16,137.53999
HNXINDEX,2009-12-17,138.23
HNXINDEX,2009-12-18,143.25999
HNXINDEX,2009-12-21,150.34
HNXINDEX,2009-12-22,149.50999
HNXINDEX,2009-12-23,153.25999
HNXINDEX,2009-12-24,156.98
HNXINDEX,2009-12-25,161.97
HNXINDEX,2009-12-28,161.78
HNXINDEX,2009-12-29,160.11
HNXINDEX,2009-12-30,164.87
HNXINDEX,2009-12-31,168.17
HNXINDEX,2010-01-04,179.84
HNXINDEX,2010-01-05,183.25999
HNXINDEX,2010-01-06,179.56
HNXINDEX,2010-01-07,177.95
HNXINDEX,2010-01-08,179.75999
HNXINDEX,2010-01-11,177.03
HNXINDEX,2010-01-12,170.57001
HNXINDEX,2010-01-13,174.34
HNXINDEX,2010-01-14,175.69
HNXINDEX,2010-01-15,171.37
HNXINDEX,2010-01-18,164.53999
HNXINDEX,2010-01-19,165.89999
HNXINDEX,2010-01-20,161.05
HNXINDEX,2010-01-21,157.64
HNXINDEX,2010-01-22,157.58
HNXINDEX,2010-01-25,157.32001
HNXINDEX,2010-01-26,165.46001
HNXINDEX,2010-01-27,160.89999
HNXINDEX,2010-01-28,159.32001
HNXINDEX,2010-01-29,160.35001
HNXINDEX,2010-02-01,161.23
HNXINDEX,2010-02-02,160.91
HNXINDEX,2010-02-03,161.92
HNXINDEX,2010-02-04,164.69
HNXINDEX,2010-02-05,161.84
HNXINDEX,2010-02-08,161.37
HNXINDEX,2010-02-09,158.61
HNXINDEX,2010-02-10,160.98
HNXINDEX,2010-02-11,163.25
HNXINDEX,2010-02-12,164.66
HNXINDEX,2010-02-22,165.60001
HNXINDEX,2010-02-23,161.56
HNXINDEX,2010-02-24,162.77
HNXINDEX,2010-02-25,162.32001
HNXINDEX,2010-02-26,162.42999
HNXINDEX,2010-03-01,166.28
HNXINDEX,2010-03-02,165.41
HNXINDEX,2010-03-03,170.22
HNXINDEX,2010-03-04,168.36
HNXINDEX,2010-03-05,170.16
HNXINDEX,2010-03-08,171.23
HNXINDEX,2010-03-09,172.7
HNXINDEX,2010-03-10,172.09
HNXINDEX,2010-03-11,171.53999
HNXINDEX,2010-03-12,173.45
HNXINDEX,2010-03-15,173.32001
HNXINDEX,2010-03-16,168.67
HNXINDEX,2010-03-17,168.22
HNXINDEX,2010-03-18,170.59
HNXINDEX,2010-03-19,169.85001
HNXINDEX,2010-03-22,168.39999
HNXINDEX,2010-03-23,166.97
HNXINDEX,2010-03-24,168.23
HNXINDEX,2010-03-25,163.67999
HNXINDEX,2010-03-26,163.75999
HNXINDEX,2010-03-29,163.75
HNXINDEX,2010-03-30,162.37
HNXINDEX,2010-03-31,160.55
HNXINDEX,2010-04-01,163.82001
HNXINDEX,2010-04-02,164.11
HNXINDEX,2010-04-05,167.17999
HNXINDEX,2010-04-06,166.72
HNXINDEX,2010-04-07,168.2
HNXINDEX,2010-04-08,170.62
HNXINDEX,2010-04-09,170.83
HNXINDEX,2010-04-12,171.23
HNXINDEX,2010-04-13,168.57001
HNXINDEX,2010-04-14,169.06
HNXINDEX,2010-04-15,171.86
HNXINDEX,2010-04-16,172.60001
HNXINDEX,2010-04-19,173.03999
HNXINDEX,2010-04-20,173.94
HNXINDEX,2010-04-21,177.86
HNXINDEX,2010-04-22,178.33
HNXINDEX,2010-04-26,175.98
HNXINDEX,2010-04-27,176.05
HNXINDEX,2010-04-28,176.56
HNXINDEX,2010-04-29,179.69
HNXINDEX,2010-05-04,184.31
HNXINDEX,2010-05-05,183.21001
HNXINDEX,2010-05-06,187.22
HNXINDEX,2010-05-07,184.38
HNXINDEX,2010-05-10,181.7
HNXINDEX,2010-05-11,182.42999
HNXINDEX,2010-05-12,174.74001
HNXINDEX,2010-05-13,173.16
HNXINDEX,2010-05-14,172.71001
HNXINDEX,2010-05-17,169.61
HNXINDEX,2010-05-18,167.02
HNXINDEX,2010-05-19,160.50999
HNXINDEX,2010-05-20,163.36
HNXINDEX,2010-05-21,152.69
HNXINDEX,2010-05-24,156.41
HNXINDEX,2010-05-25,155.89999
HNXINDEX,2010-05-26,159.48
HNXINDEX,2010-05-27,159.83
HNXINDEX,2010-05-28,166.71001
HNXINDEX,2010-05-31,163.60001
HNXINDEX,2010-06-01,162.91
HNXINDEX,2010-06-02,162.14999
HNXINDEX,2010-06-03,163.36
HNXINDEX,2010-06-04,161.67999
HNXINDEX,2010-06-07,154.8
HNXINDEX,2010-06-08,157.49001
HNXINDEX,2010-06-09,156.61
HNXINDEX,2010-06-10,157.06
HNXINDEX,2010-06-11,158.23
HNXINDEX,2010-06-14,159.75999
HNXINDEX,2010-06-15,160.45
HNXINDEX,2010-06-16,163.63
HNXINDEX,2010-06-17,162.25
HNXINDEX,2010-06-18,163.35001
HNXINDEX,2010-06-21,164.00999
HNXINDEX,2010-06-22,161.92
HNXINDEX,2010-06-23,162.86
HNXINDEX,2010-06-24,162.98
HNXINDEX,2010-06-25,160.39999
HNXINDEX,2010-06-28,161.14999
HNXINDEX,2010-06-29,161.33
HNXINDEX,2010-06-30,158.81
HNXINDEX,2010-07-01,157.98
HNXINDEX,2010-07-02,158.39
HNXINDEX,2010-07-05,158.28
HNXINDEX,2010-07-06,155.8
HNXINDEX,2010-07-07,155.09
HNXINDEX,2010-07-08,155.58
HNXINDEX,2010-07-09,156.21001
HNXINDEX,2010-07-12,157.57001
HNXINDEX,2010-07-13,161.89999
HNXINDEX,2010-07-14,162.42
HNXINDEX,2010-07-15,160.71001
HNXINDEX,2010-07-16,161.12
HNXINDEX,2010-07-19,160.37
HNXINDEX,2010-07-20,160.14999
HNXINDEX,2010-07-21,158.97
HNXINDEX,2010-07-22,157.67999
HNXINDEX,2010-07-23,157.99001
HNXINDEX,2010-07-26,155.7
HNXINDEX,2010-07-27,154.92
HNXINDEX,2010-07-28,152.38
HNXINDEX,2010-07-29,152.99001
HNXINDEX,2010-07-30,153.33
HNXINDEX,2010-08-02,151.38
HNXINDEX,2010-08-03,150.48
HNXINDEX,2010-08-04,147.86
HNXINDEX,2010-08-05,147.45
HNXINDEX,2010-08-06,146.14
HNXINDEX,2010-08-09,141.89999
HNXINDEX,2010-08-10,137.85001
HNXINDEX,2010-08-11,139.12
HNXINDEX,2010-08-12,132.03
HNXINDEX,2010-08-13,134.97
HNXINDEX,2010-08-16,140.11
HNXINDEX,2010-08-17,136.19
HNXINDEX,2010-08-18,132.62
HNXINDEX,2010-08-19,132.25
HNXINDEX,2010-08-20,131.41
HNXINDEX,2010-08-23,129.09
HNXINDEX,2010-08-24,124.4
HNXINDEX,2010-08-25,118.81
HNXINDEX,2010-08-26,119.53
HNXINDEX,2010-08-27,118.28
HNXINDEX,2010-08-30,124.88
HNXINDEX,2010-08-31,128.39999
HNXINDEX,2010-09-01,131.66
HNXINDEX,2010-09-06,136.8
HNXINDEX,2010-09-07,135.64999
HNXINDEX,2010-09-08,132.59
HNXINDEX,2010-09-09,136.24001
HNXINDEX,2010-09-10,131.14999
HNXINDEX,2010-09-13,128.22
HNXINDEX,2010-09-14,129.92999
HNXINDEX,2010-09-15,127.21
HNXINDEX,2010-09-16,128.39999
HNXINDEX,2010-09-17,132.85001
HNXINDEX,2010-09-20,133.31
HNXINDEX,2010-09-21,131.57001
HNXINDEX,2010-09-22,131.53
HNXINDEX,2010-09-23,129.83
HNXINDEX,2010-09-24,129.63
HNXINDEX,2010-09-27,129.92999
HNXINDEX,2010-09-28,130.17
HNXINDEX,2010-09-29,127.41
HNXINDEX,2010-09-30,127.29
HNXINDEX,2010-10-01,125.81
HNXINDEX,2010-10-04,120.92
HNXINDEX,2010-10-05,122.02
HNXINDEX,2010-10-06,124.84
HNXINDEX,2010-10-07,122.62
HNXINDEX,2010-10-08,121.69
HNXINDEX,2010-10-11,121.26
HNXINDEX,2010-10-12,119.81
HNXINDEX,2010-10-13,120.39
HNXINDEX,2010-10-14,120.45
HNXINDEX,2010-10-15,119.69
HNXINDEX,2010-10-18,118.89
HNXINDEX,2010-10-19,116.56
HNXINDEX,2010-10-20,112.28
HNXINDEX,2010-10-21,112.55
HNXINDEX,2010-10-22,111.32
HNXINDEX,2010-10-25,111.77
HNXINDEX,2010-10-26,114.91
HNXINDEX,2010-10-27,112.53
HNXINDEX,2010-10-28,111.51
HNXINDEX,2010-10-29,112.86
HNXINDEX,2010-11-01,111.08
HNXINDEX,2010-11-02,109.99
HNXINDEX,2010-11-03,109.11
HNXINDEX,2010-11-04,109.71
HNXINDEX,2010-11-05,112.8
HNXINDEX,2010-11-08,109.73
HNXINDEX,2010-11-09,106.83
HNXINDEX,2010-11-10,107.18
HNXINDEX,2010-11-11,104.79
HNXINDEX,2010-11-12,101.62
HNXINDEX,2010-11-15,98.48
HNXINDEX,2010-11-16,97.44
HNXINDEX,2010-11-17,97.73
HNXINDEX,2010-11-18,100.59
HNXINDEX,2010-11-19,99.1
HNXINDEX,2010-11-22,97.86
HNXINDEX,2010-11-23,99.05
HNXINDEX,2010-11-24,99.02
HNXINDEX,2010-11-25,102.07
HNXINDEX,2010-11-26,101.57
HNXINDEX,2010-11-29,105.22
HNXINDEX,2010-11-30,108.43
HNXINDEX,2010-12-01,106.7
HNXINDEX,2010-12-02,111.93
HNXINDEX,2010-12-03,116.66
HNXINDEX,2010-12-06,117.07
HNXINDEX,2010-12-07,114.19
HNXINDEX,2010-12-08,110.5
HNXINDEX,2010-12-09,112.13
HNXINDEX,2010-12-10,116.39
HNXINDEX,2010-12-13,121.76
HNXINDEX,2010-12-14,119.61
HNXINDEX,2010-12-15,120.6
HNXINDEX,2010-12-16,115.43
HNXINDEX,2010-12-17,119.7
HNXINDEX,2010-12-20,116.7
HNXINDEX,2010-12-21,115.0
HNXINDEX,2010-12-22,113.73
HNXINDEX,2010-12-23,111.22
HNXINDEX,2010-12-24,111.19
HNXINDEX,2010-12-27,111.43
HNXINDEX,2010-12-28,114.81
HNXINDEX,2010-12-29,112.93
HNXINDEX,2010-12-30,112.64
HNXINDEX,2010-12-31,114.24
HNXINDEX,2011-01-04,113.4
HNXINDEX,2011-01-05,111.16
HNXINDEX,2011-01-06,111.44
HNXINDEX,2011-01-07,110.04
HNXINDEX,2011-01-10,107.47
HNXINDEX,2011-01-11,104.76
HNXINDEX,2011-01-12,106.3
HNXINDEX,2011-01-13,107.42
HNXINDEX,2011-01-14,108.05
HNXINDEX,2011-01-17,109.02
HNXINDEX,2011-01-18,107.46
HNXINDEX,2011-01-19,107.27
HNXINDEX,2011-01-20,107.02
HNXINDEX,2011-01-21,107.87
HNXINDEX,2011-01-24,106.22
HNXINDEX,2011-01-25,105.3
HNXINDEX,2011-01-26,105.76
HNXINDEX,2011-01-27,106.62
HNXINDEX,2011-01-28,106.63
HNXINDEX,2011-02-08,107.66
HNXINDEX,2011-02-09,108.39
HNXINDEX,2011-02-10,107.67
HNXINDEX,2011-02-11,107.81
HNXINDEX,2011-02-14,107.38
HNXINDEX,2011-02-15,106.65
HNXINDEX,2011-02-16,105.49
HNXINDEX,2011-02-17,103.97
HNXINDEX,2011-02-18,102.31
HNXINDEX,2011-02-21,96.58
HNXINDEX,2011-02-22,95.46
HNXINDEX,2011-02-23,96.95
HNXINDEX,2011-02-24,95.64
HNXINDEX,2011-02-25,97.36
HNXINDEX,2011-02-28,95.92
HNXINDEX,2011-03-01,95.16
HNXINDEX,2011-03-02,91.17
HNXINDEX,2011-03-03,90.12
HNXINDEX,2011-03-04,90.93
HNXINDEX,2011-03-07,90.65
HNXINDEX,2011-03-08,90.05
HNXINDEX,2011-03-09,88.45
HNXINDEX,2011-03-10,92.31
HNXINDEX,2011-03-11,94.85
HNXINDEX,2011-03-14,91.92
HNXINDEX,2011-03-15,91.04
HNXINDEX,2011-03-16,91.98
HNXINDEX,2011-03-17,92.38
HNXINDEX,2011-03-18,95.21
HNXINDEX,2011-03-21,94.84
HNXINDEX,2011-03-22,93.17
HNXINDEX,2011-03-23,94.11
HNXINDEX,2011-03-24,93.28
HNXINDEX,2011-03-25,92.82
HNXINDEX,2011-03-28,93.07
HNXINDEX,2011-03-29,91.94
HNXINDEX,2011-03-30,91.48
HNXINDEX,2011-03-31,91.47
HNXINDEX,2011-04-01,91.05
HNXINDEX,2011-04-04,90.1
HNXINDEX,2011-04-05,90.56
HNXINDEX,2011-04-06,91.83
HNXINDEX,2011-04-07,90.72
HNXINDEX,2011-04-08,90.26
HNXINDEX,2011-04-13,89.42
HNXINDEX,2011-04-14,89.07
HNXINDEX,2011-04-15,87.98
HNXINDEX,2011-04-18,86.49
HNXINDEX,2011-04-19,86.16
HNXINDEX,2011-04-20,86.0
HNXINDEX,2011-04-21,84.21
HNXINDEX,2011-04-22,83.92
HNXINDEX,2011-04-25,85.27
HNXINDEX,2011-04-26,83.74
HNXINDEX,2011-04-27,83.79
HNXINDEX,2011-04-28,83.27
HNXINDEX,2011-04-29,83.58
HNXINDEX,2011-05-04,83.19
HNXINDEX,2011-05-05,82.1
HNXINDEX,2011-05-06,82.69
HNXINDEX,2011-05-09,83.28
HNXINDEX,2011-05-10,82.94
HNXINDEX,2011-05-11,82.71
HNXINDEX,2011-05-12,82.33
HNXINDEX,2011-05-13,82.0
HNXINDEX,2011-05-16,80.98
HNXINDEX,2011-05-17,79.56
HNXINDEX,2011-05-18,78.86
HNXINDEX,2011-05-19,78.24
HNXINDEX,2011-05-20,76.98
HNXINDEX,2011-05-23,74.5
HNXINDEX,2011-05-24,71.88
HNXINDEX,2011-05-25,69.01
HNXINDEX,2011-05-26,70.34
HNXINDEX,2011-05-27,70.83
HNXINDEX,2011-05-30,69.61
HNXINDEX,2011-05-31,69.48
HNXINDEX,2011-06-01,71.73
HNXINDEX,2011-06-02,74.05
HNXINDEX,2011-06-03,73.87
HNXINDEX,2011-06-06,73.6
HNXINDEX,2011-06-07,76.09
HNXINDEX,2011-06-08,75.63
HNXINDEX,2011-06-09,77.39
HNXINDEX,2011-06-10,79.1
HNXINDEX,2011-06-13,80.87
HNXINDEX,2011-06-14,79.51
HNXINDEX,2011-06-15,77.74
HNXINDEX,2011-06-16,78.68
HNXINDEX,2011-06-17,76.63
HNXINDEX,2011-06-20,75.33
HNXINDEX,2011-06-21,77.05
HNXINDEX,2011-06-22,76.41
HNXINDEX,2011-06-23,75.26
HNXINDEX,2011-06-24,75.78
HNXINDEX,2011-06-27,75.63
HNXINDEX,2011-06-28,74.71
HNXINDEX,2011-06-29,74.85
HNXINDEX,2011-06-30,74.35
HNXINDEX,2011-07-01,72.76
HNXINDEX,2011-07-04,73.01
HNXINDEX,2011-07-05,74.31
HNXINDEX,2011-07-06,73.44
HNXINDEX,2011-07-07,73.04
HNXINDEX,2011-07-08,72.84
HNXINDEX,2011-07-11,71.94
HNXINDEX,2011-07-12,72.28
HNXINDEX,2011-07-13,71.95
HNXINDEX,2011-07-14,71.88
HNXINDEX,2011-07-15,71.54
HNXINDEX,2011-07-18,71.02
HNXINDEX,2011-07-19,70.74
HNXINDEX,2011-07-20,71.69
HNXINDEX,2011-07-21,71.35
HNXINDEX,2011-07-22,70.88
HNXINDEX,2011-07-25,70.23
HNXINDEX,2011-07-26,69.91
HNXINDEX,2011-07-27,69.92
HNXINDEX,2011-07-28,69.95
HNXINDEX,2011-07-29,69.55
HNXINDEX,2011-08-01,68.6
HNXINDEX,2011-08-02,67.35
HNXINDEX,2011-08-03,67.45
HNXINDEX,2011-08-04,68.83
HNXINDEX,2011-08-05,68.54
HNXINDEX,2011-08-08,67.32
HNXINDEX,2011-08-09,65.63
HNXINDEX,2011-08-10,66.62
HNXINDEX,2011-08-11,65.82
HNXINDEX,2011-08-12,66.02
HNXINDEX,2011-08-15,65.78
HNXINDEX,2011-08-16,65.83
HNXINDEX,2011-08-17,67.41
HNXINDEX,2011-08-18,68.31
HNXINDEX,2011-08-19,67.53
HNXINDEX,2011-08-22,69.92
HNXINDEX,2011-08-23,69.43
HNXINDEX,2011-08-24,69.08
HNXINDEX,2011-08-25,69.75
HNXINDEX,2011-08-26,69.25
HNXINDEX,2011-08-29,71.33
HNXINDEX,2011-08-30,72.56
HNXINDEX,2011-08-31,73.19
HNXINDEX,2011-09-01,75.36
HNXINDEX,2011-09-05,75.11
HNXINDEX,2011-09-06,73.77
HNXINDEX,2011-09-07,76.75
HNXINDEX,2011-09-08,76.94
HNXINDEX,2011-09-09,76.78
HNXINDEX,2011-09-12,78.53
HNXINDEX,2011-09-13,79.25
HNXINDEX,2011-09-14,77.33
HNXINDEX,2011-09-15,76.37
HNXINDEX,2011-09-16,74.88
HNXINDEX,2011-09-19,76.01
HNXINDEX,2011-09-20,74.38
HNXINDEX,2011-09-21,74.6
HNXINDEX,2011-09-22,75.44
HNXINDEX,2011-09-23,74.58
HNXINDEX,2011-09-26,73.4
HNXINDEX,2011-09-27,73.34
HNXINDEX,2011-09-28,73.58
HNXINDEX,2011-09-29,72.09
HNXINDEX,2011-09-30,71.34
HNXINDEX,2011-10-03,70.38
HNXINDEX,2011-10-04,70.46
HNXINDEX,2011-10-05,70.34
HNXINDEX,2011-10-06,72.1
HNXINDEX,2011-10-07,71.5
HNXINDEX,2011-10-10,70.46
HNXINDEX,2011-10-11,70.93
HNXINDEX,2011-10-12,69.48
HNXINDEX,2011-10-13,69.11
HNXINDEX,2011-10-14,69.19
HNXINDEX,2011-10-17,68.46
HNXINDEX,2011-10-18,67.81
HNXINDEX,2011-10-19,67.93
HNXINDEX,2011-10-20,67.72
HNXINDEX,2011-10-21,69.13
HNXINDEX,2011-10-24,68.43
HNXINDEX,2011-10-25,67.72
HNXINDEX,2011-10-26,67.97
HNXINDEX,2011-10-27,67.78
HNXINDEX,2011-10-28,69.94
HNXINDEX,2011-10-31,70.21
HNXINDEX,2011-11-01,68.52
HNXINDEX,2011-11-02,67.14
HNXINDEX,2011-11-03,66.43
HNXINDEX,2011-11-04,65.97
HNXINDEX,2011-11-07,65.02
HNXINDEX,2011-11-08,65.13
HNXINDEX,2011-11-09,64.6
HNXINDEX,2011-11-10,63.82
HNXINDEX,2011-11-11,63.6
HNXINDEX,2011-11-14,62.45
HNXINDEX,2011-11-15,63.06
HNXINDEX,2011-11-16,64.14
HNXINDEX,2011-11-17,62.88
HNXINDEX,2011-11-18,62.18
HNXINDEX,2011-11-21,61.68
HNXINDEX,2011-11-22,61.74
HNXINDEX,2011-11-23,62.1
HNXINDEX,2011-11-24,61.27
HNXINDEX,2011-11-25,61.15
HNXINDEX,2011-11-28,61.91
HNXINDEX,2011-11-29,61.38
HNXINDEX,2011-11-30,60.47
HNXINDEX,2011-12-01,61.18
HNXINDEX,2011-12-02,61.68
HNXINDEX,2011-12-05,63.47
HNXINDEX,2011-12-06,62.78
HNXINDEX,2011-12-07,62.51
HNXINDEX,2011-12-08,62.59
HNXINDEX,2011-12-09,61.73
HNXINDEX,2011-12-12,61.36
HNXINDEX,2011-12-13,60.62
HNXINDEX,2011-12-14,59.64
HNXINDEX,2011-12-15,58.9
HNXINDEX,2011-12-16,59.83
HNXINDEX,2011-12-19,60.19
HNXINDEX,2011-12-20,59.33
HNXINDEX,2011-12-21,59.79
HNXINDEX,2011-12-22,58.42
HNXINDEX,2011-12-23,58.0
HNXINDEX,2011-12-26,57.17
HNXINDEX,2011-12-27,56.7
HNXINDEX,2011-12-28,58.15
HNXINDEX,2011-12-29,57.61
HNXINDEX,2011-12-30,58.74
HNXINDEX,2012-01-03,56.79
HNXINDEX,2012-01-04,56.43
HNXINDEX,2012-01-05,55.89
HNXINDEX,2012-01-06,55.43
HNXINDEX,2012-01-09,55.27
HNXINDEX,2012-01-10,56.15
HNXINDEX,2012-01-11,55.88
HNXINDEX,2012-01-12,55.81
HNXINDEX,2012-01-13,56.27
HNXINDEX,2012-01-16,57.0
HNXINDEX,2012-01-17,56.55
HNXINDEX,2012-01-18,57.22
HNXINDEX,2012-01-19,58.41
HNXINDEX,2012-01-20,58.44
HNXINDEX,2012-01-30,59.34
HNXINDEX,2012-01-31,60.59
HNXINDEX,2012-02-01,60.47
HNXINDEX,2012-02-02,62.57
HNXINDEX,2012-02-03,61.85
HNXINDEX,2012-02-06,61.49
HNXINDEX,2012-02-07,62.53
HNXINDEX,2012-02-08,63.74
HNXINDEX,2012-02-09,63.82
HNXINDEX,2012-02-10,62.69
HNXINDEX,2012-02-13,61.04
HNXINDEX,2012-02-14,61.54
HNXINDEX,2012-02-15,60.21
HNXINDEX,2012-02-16,60.58
HNXINDEX,2012-02-17,61.79
HNXINDEX,2012-02-20,64.27
HNXINDEX,2012-02-21,63.89
HNXINDEX,2012-02-22,65.7
HNXINDEX,2012-02-23,66.78
HNXINDEX,2012-02-24,67.07
HNXINDEX,2012-02-27,69.16
HNXINDEX,2012-02-28,67.09
HNXINDEX,2012-02-29,68.68
HNXINDEX,2012-03-01,69.58
HNXINDEX,2012-03-02,71.72
HNXINDEX,2012-03-05,75.78
HNXINDEX,2012-03-06,75.2
HNXINDEX,2012-03-07,75.03
HNXINDEX,2012-03-08,71.83
HNXINDEX,2012-03-09,71.56
HNXINDEX,2012-03-12,69.26
HNXINDEX,2012-03-13,70.54
HNXINDEX,2012-03-14,69.28
HNXINDEX,2012-03-15,72.19
HNXINDEX,2012-03-16,72.76
HNXINDEX,2012-03-19,72.9
HNXINDEX,2012-03-20,74.39
HNXINDEX,2012-03-21,75.66
HNXINDEX,2012-03-22,76.11
HNXINDEX,2012-03-23,77.57
HNXINDEX,2012-03-26,77.72
HNXINDEX,2012-03-27,74.95
HNXINDEX,2012-03-28,75.53
HNXINDEX,2012-03-29,73.2
HNXINDEX,2012-03-30,72.2
HNXINDEX,2012-04-03,74.49
HNXINDEX,2012-04-04,73.25
HNXINDEX,2012-04-05,74.82
HNXINDEX,2012-04-06,74.69
HNXINDEX,2012-04-09,76.28
HNXINDEX,2012-04-10,75.41
HNXINDEX,2012-04-11,77.51
HNXINDEX,2012-04-12,78.54
HNXINDEX,2012-04-13,78.38
HNXINDEX,2012-04-16,80.37
HNXINDEX,2012-04-17,79.91
HNXINDEX,2012-04-18,79.33
HNXINDEX,2012-04-19,77.5
HNXINDEX,2012-04-20,77.75
HNXINDEX,2012-04-23,77.81
HNXINDEX,2012-04-24,78.57
HNXINDEX,2012-04-25,79.55
HNXINDEX,2012-04-26,78.74
HNXINDEX,2012-04-27,79.86
HNXINDEX,2012-05-02,79.35
HNXINDEX,2012-05-03,79.69
HNXINDEX,2012-05-04,81.27
HNXINDEX,2012-05-07,83.79
HNXINDEX,2012-05-08,83.64
HNXINDEX,2012-05-09,83.76
HNXINDEX,2012-05-10,83.23
HNXINDEX,2012-05-11,81.58
HNXINDEX,2012-05-14,78.84
HNXINDEX,2012-05-15,76.81
HNXINDEX,2012-05-16,77.55
HNXINDEX,2012-05-17,76.15
HNXINDEX,2012-05-18,73.81
HNXINDEX,2012-05-21,76.84
HNXINDEX,2012-05-22,76.46
HNXINDEX,2012-05-23,73.61
HNXINDEX,2012-05-24,73.66
HNXINDEX,2012-05-25,76.06
HNXINDEX,2012-05-28,75.6
HNXINDEX,2012-05-29,75.3
HNXINDEX,2012-05-30,75.62
HNXINDEX,2012-05-31,74.07
HNXINDEX,2012-06-01,74.36
HNXINDEX,2012-06-04,72.51
HNXINDEX,2012-06-05,73.58
HNXINDEX,2012-06-06,73.78
HNXINDEX,2012-06-07,75.87
HNXINDEX,2012-06-08,75.08
HNXINDEX,2012-06-11,75.8
HNXINDEX,2012-06-12,74.6
HNXINDEX,2012-06-13,74.76
HNXINDEX,2012-06-14,74.24
HNXINDEX,2012-06-15,74.84
HNXINDEX,2012-06-18,74.9
HNXINDEX,2012-06-19,74.08
HNXINDEX,2012-06-20,74.36
HNXINDEX,2012-06-21,73.9
HNXINDEX,2012-06-22,73.31
HNXINDEX,2012-06-25,71.8
HNXINDEX,2012-06-26,71.11
HNXINDEX,2012-06-27,70.7
HNXINDEX,2012-06-28,71.36
HNXINDEX,2012-06-29,71.07
HNXINDEX,2012-07-02,70.09
HNXINDEX,2012-07-03,69.21
HNXINDEX,2012-07-04,68.08
HNXINDEX,2012-07-05,69.81
HNXINDEX,2012-07-06,69.67
HNXINDEX,2012-07-09,68.2
HNXINDEX,2012-07-10,67.89
HNXINDEX,2012-07-11,68.59
HNXINDEX,2012-07-12,69.32
HNXINDEX,2012-07-13,70.57
HNXINDEX,2012-07-16,69.78
HNXINDEX,2012-07-17,71.4
HNXINDEX,2012-07-18,71.03
HNXINDEX,2012-07-19,72.93
HNXINDEX,2012-07-20,72.19
HNXINDEX,2012-07-23,71.46
HNXINDEX,2012-07-24,69.84
HNXINDEX,2012-07-25,69.68
HNXINDEX,2012-07-26,70.09
HNXINDEX,2012-07-27,69.35
HNXINDEX,2012-07-30,69.45
HNXINDEX,2012-07-31,69.19
HNXINDEX,2012-08-01,68.7
HNXINDEX,2012-08-02,68.98
HNXINDEX,2012-08-03,68.91
HNXINDEX,2012-08-06,70.45
HNXINDEX,2012-08-07,69.58
HNXINDEX,2012-08-08,70.48
HNXINDEX,2012-08-09,70.79
HNXINDEX,2012-08-10,70.34
HNXINDEX,2012-08-13,69.96
HNXINDEX,2012-08-14,70.32
HNXINDEX,2012-08-15,70.15
HNXINDEX,2012-08-16,69.94
HNXINDEX,2012-08-17,70.35
HNXINDEX,2012-08-20,70.65
HNXINDEX,2012-08-21,66.95
HNXINDEX,2012-08-22,64.65
HNXINDEX,2012-08-23,61.23
HNXINDEX,2012-08-24,63.11
HNXINDEX,2012-08-27,60.31
HNXINDEX,2012-08-28,59.73
HNXINDEX,2012-08-29,61.88
HNXINDEX,2012-08-30,61.92
HNXINDEX,2012-08-31,61.43
HNXINDEX,2012-09-04,61.65
HNXINDEX,2012-09-05,60.92
HNXINDEX,2012-09-06,60.32
HNXINDEX,2012-09-07,60.39
HNXINDEX,2012-09-10,58.07
HNXINDEX,2012-09-11,57.52
HNXINDEX,2012-09-12,57.42
HNXINDEX,2012-09-13,58.11
HNXINDEX,2012-09-14,59.23
HNXINDEX,2012-09-17,58.7
HNXINDEX,2012-09-18,56.48
HNXINDEX,2012-09-19,56.07
HNXINDEX,2012-09-20,55.42
HNXINDEX,2012-09-21,56.71
HNXINDEX,2012-09-24,56.46
HNXINDEX,2012-09-25,56.22
HNXINDEX,2012-09-26,56.29
HNXINDEX,2012-09-27,55.9
HNXINDEX,2012-09-28,55.47
HNXINDEX,2012-10-01,54.27
HNXINDEX,2012-10-02,53.94
HNXINDEX,2012-10-03,54.19
HNXINDEX,2012-10-04,54.17
HNXINDEX,2012-10-05,54.34
HNXINDEX,2012-10-08,55.21
HNXINDEX,2012-10-09,55.43
HNXINDEX,2012-10-10,55.51
HNXINDEX,2012-10-11,55.84
HNXINDEX,2012-10-12,55.44
HNXINDEX,2012-10-15,54.94
HNXINDEX,2012-10-16,56.28
HNXINDEX,2012-10-17,55.93
HNXINDEX,2012-10-18,55.82
HNXINDEX,2012-10-19,54.74
HNXINDEX,2012-10-22,54.35
HNXINDEX,2012-10-23,54.56
HNXINDEX,2012-10-24,54.25
HNXINDEX,2012-10-25,53.88
HNXINDEX,2012-10-26,53.79
HNXINDEX,2012-10-29,53.64
HNXINDEX,2012-10-30,53.13
HNXINDEX,2012-10-31,53.02
HNXINDEX,2012-11-01,52.66
HNXINDEX,2012-11-02,51.06
HNXINDEX,2012-11-05,50.75
HNXINDEX,2012-11-06,50.66
HNXINDEX,2012-11-07,51.58
HNXINDEX,2012-11-08,51.08
HNXINDEX,2012-11-09,51.58
HNXINDEX,2012-11-12,52.52
HNXINDEX,2012-11-13,52.39
HNXINDEX,2012-11-14,52.3
HNXINDEX,2012-11-15,51.69
HNXINDEX,2012-11-16,51.81
HNXINDEX,2012-11-19,51.45
HNXINDEX,2012-11-20,51.9
HNXINDEX,2012-11-21,51.41
HNXINDEX,2012-11-22,51.58
HNXINDEX,2012-11-23,51.23
HNXINDEX,2012-11-26,50.96
HNXINDEX,2012-11-27,50.96
HNXINDEX,2012-11-28,51.0
HNXINDEX,2012-11-29,51.1
HNXINDEX,2012-11-30,51.05
HNXINDEX,2012-12-03,51.04
HNXINDEX,2012-12-04,51.49
HNXINDEX,2012-12-05,52.1
HNXINDEX,2012-12-06,51.78
HNXINDEX,2012-12-07,51.66
HNXINDEX,2012-12-10,52.71
HNXINDEX,2012-12-11,52.72
HNXINDEX,2012-12-12,53.86
HNXINDEX,2012-12-13,54.08
HNXINDEX,2012-12-14,54.44
HNXINDEX,2012-12-17,54.47
HNXINDEX,2012-12-18,53.96
HNXINDEX,2012-12-19,54.93
HNXINDEX,2012-12-20,54.32
HNXINDEX,2012-12-21,54.05
HNXINDEX,2012-12-24,55.0
HNXINDEX,2012-12-25,55.04
HNXINDEX,2012-12-26,55.92
HNXINDEX,2012-12-27,56.15
HNXINDEX,2012-12-28,57.09
HNXINDEX,2013-01-02,59.11
HNXINDEX,2013-01-03,58.09
HNXINDEX,2013-01-04,59.21
HNXINDEX,2013-01-07,59.0
HNXINDEX,2013-01-08,59.95
HNXINDEX,2013-01-09,59.61
HNXINDEX,2013-01-10,60.53
HNXINDEX,2013-01-11,60.55
HNXINDEX,2013-01-14,60.62
HNXINDEX,2013-01-15,62.19
HNXINDEX,2013-01-16,62.71
HNXINDEX,2013-01-17,62.33
HNXINDEX,2013-01-18,62.05
HNXINDEX,2013-01-21,61.16
HNXINDEX,2013-01-22,59.49
HNXINDEX,2013-01-23,59.57
HNXINDEX,2013-01-24,61.17
HNXINDEX,2013-01-25,61.61
HNXINDEX,2013-01-28,62.52
HNXINDEX,2013-01-29,62.99
HNXINDEX,2013-01-30,63.35
HNXINDEX,2013-01-31,62.62
HNXINDEX,2013-02-01,62.99
HNXINDEX,2013-02-04,62.93
HNXINDEX,2013-02-05,62.77
HNXINDEX,2013-02-06,64.13
HNXINDEX,2013-02-07,65.02
HNXINDEX,2013-02-08,66.21
HNXINDEX,2013-02-18,66.74
HNXINDEX,2013-02-19,66.25
HNXINDEX,2013-02-20,67.0
HNXINDEX,2013-02-21,63.45
HNXINDEX,2013-02-22,64.12
HNXINDEX,2013-02-25,64.19
HNXINDEX,2013-02-26,62.01
HNXINDEX,2013-02-27,62.61
HNXINDEX,2013-02-28,62.56
HNXINDEX,2013-03-01,62.78
HNXINDEX,2013-03-04,60.69
HNXINDEX,2013-03-05,59.3
HNXINDEX,2013-03-06,60.82
HNXINDEX,2013-03-07,60.15
HNXINDEX,2013-03-08,61.0
HNXINDEX,2013-03-11,62.05
HNXINDEX,2013-03-12,62.22
HNXINDEX,2013-03-13,61.43
HNXINDEX,2013-03-14,61.81
HNXINDEX,2013-03-15,62.06
HNXINDEX,2013-03-18,61.26
HNXINDEX,2013-03-19,61.09
HNXINDEX,2013-03-20,61.54
HNXINDEX,2013-03-21,61.49
HNXINDEX,2013-03-22,60.93
HNXINDEX,2013-03-25,61.12
HNXINDEX,2013-03-26,60.85
HNXINDEX,2013-03-27,60.62
HNXINDEX,2013-03-28,60.31
HNXINDEX,2013-03-29,60.25
HNXINDEX,2013-04-01,61.51
HNXINDEX,2013-04-02,61.09
HNXINDEX,2013-04-03,61.38
HNXINDEX,2013-04-04,60.53
HNXINDEX,2013-04-05,61.0
HNXINDEX,2013-04-08,61.36
HNXINDEX,2013-04-09,61.37
HNXINDEX,2013-04-10,60.33
HNXINDEX,2013-04-11,61.08
HNXINDEX,2013-04-12,60.23
HNXINDEX,2013-04-15,58.87
HNXINDEX,2013-04-16,59.19
HNXINDEX,2013-04-17,58.95
HNXINDEX,2013-04-18,58.36
HNXINDEX,2013-04-22,57.61
HNXINDEX,2013-04-23,58.22
HNXINDEX,2013-04-24,58.27
HNXINDEX,2013-04-25,58.69
HNXINDEX,2013-04-26,58.36
HNXINDEX,2013-05-02,58.3
HNXINDEX,2013-05-03,59.06
HNXINDEX,2013-05-06,60.74
HNXINDEX,2013-05-07,60.54
HNXINDEX,2013-05-08,60.08
HNXINDEX,2013-05-09,60.64
HNXINDEX,2013-05-10,60.48
HNXINDEX,2013-05-13,60.66
HNXINDEX,2013-05-14,59.89
HNXINDEX,2013-05-15,60.5
HNXINDEX,2013-05-16,60.94
HNXINDEX,2013-05-17,60.45
HNXINDEX,2013-05-20,61.04
HNXINDEX,2013-05-21,61.63
HNXINDEX,2013-05-22,62.59
HNXINDEX,2013-05-23,62.08
HNXINDEX,2013-05-24,62.61
HNXINDEX,2013-05-27,63.53
HNXINDEX,2013-05-28,64.07
HNXINDEX,2013-05-29,64.46
HNXINDEX,2013-05-30,65.14
HNXINDEX,2013-05-31,64.62
HNXINDEX,2013-06-03,64.89
HNXINDEX,2013-06-04,63.79
HNXINDEX,2013-06-05,64.54
HNXINDEX,2013-06-06,65.33
HNXINDEX,2013-06-07,65.58
HNXINDEX,2013-06-10,65.6
HNXINDEX,2013-06-11,65.49
HNXINDEX,2013-06-12,65.32
HNXINDEX,2013-06-13,65.64
HNXINDEX,2013-06-14,65.63
HNXINDEX,2013-06-17,64.82
HNXINDEX,2013-06-18,64.99
HNXINDEX,2013-06-19,65.02
HNXINDEX,2013-06-20,64.53
HNXINDEX,2013-06-21,64.26
HNXINDEX,2013-06-24,63.55
HNXINDEX,2013-06-25,62.0
HNXINDEX,2013-06-26,62.24
HNXINDEX,2013-06-27,62.85
HNXINDEX,2013-06-28,62.76
HNXINDEX,2013-07-01,62.49
HNXINDEX,2013-07-02,63.2
HNXINDEX,2013-07-03,63.07
HNXINDEX,2013-07-04,63.07
HNXINDEX,2013-07-05,62.69
HNXINDEX,2013-07-08,62.34
HNXINDEX,2013-07-09,62.58
HNXINDEX,2013-07-10,62.43
HNXINDEX,2013-07-11,62.34
HNXINDEX,2013-07-12,63.12
HNXINDEX,2013-07-15,63.03
HNXINDEX,2013-07-16,63.0
HNXINDEX,2013-07-17,63.25
HNXINDEX,2013-07-18,62.97
HNXINDEX,2013-07-19,63.16
HNXINDEX,2013-07-22,62.8
HNXINDEX,2013-07-23,62.99
HNXINDEX,2013-07-24,62.19
HNXINDEX,2013-07-25,61.52
HNXINDEX,2013-07-26,61.33
HNXINDEX,2013-07-29,60.78
HNXINDEX,2013-07-30,61.59
HNXINDEX,2013-07-31,61.49
HNXINDEX,2013-08-01,61.62
HNXINDEX,2013-08-02,62.2
HNXINDEX,2013-08-05,61.89
HNXINDEX,2013-08-06,62.21
HNXINDEX,2013-08-07,62.17
HNXINDEX,2013-08-08,61.81
HNXINDEX,2013-08-09,61.7
HNXINDEX,2013-08-12,61.44
HNXINDEX,2013-08-13,61.22
HNXINDEX,2013-08-14,61.69
HNXINDEX,2013-08-15,62.33
HNXINDEX,2013-08-16,62.25
HNXINDEX,2013-08-19,62.93
HNXINDEX,2013-08-20,62.65
HNXINDEX,2013-08-21,62.38
HNXINDEX,2013-08-22,61.85
HNXINDEX,2013-08-23,61.42
HNXINDEX,2013-08-26,61.79
HNXINDEX,2013-08-27,61.41
HNXINDEX,2013-08-28,60.68
HNXINDEX,2013-08-29,60.36
HNXINDEX,2013-08-30,61.19
HNXINDEX,2013-09-03,60.65
HNXINDEX,2013-09-04,60.2
HNXINDEX,2013-09-05,60.62
HNXINDEX,2013-09-06,60.45
HNXINDEX,2013-09-09,59.67
HNXINDEX,2013-09-10,60.04
HNXINDEX,2013-09-11,60.19
HNXINDEX,2013-09-12,60.02
HNXINDEX,2013-09-13,60.18
HNXINDEX,2013-09-16,60.03
HNXINDEX,2013-09-17,59.53
HNXINDEX,2013-09-18,58.73
HNXINDEX,2013-09-19,58.99
HNXINDEX,2013-09-20,59.17
HNXINDEX,2013-09-23,59.63
HNXINDEX,2013-09-24,59.81
HNXINDEX,2013-09-25,60.26
HNXINDEX,2013-09-26,60.32
HNXINDEX,2013-09-27,60.4
HNXINDEX,2013-09-30,60.95
HNXINDEX,2013-10-01,60.93
HNXINDEX,2013-10-02,61.05
HNXINDEX,2013-10-03,61.0
HNXINDEX,2013-10-04,60.94
HNXINDEX,2013-10-07,61.39
HNXINDEX,2013-10-08,61.23
HNXINDEX,2013-10-09,61.16
HNXINDEX,2013-10-10,60.73
HNXINDEX,2013-10-11,60.63
HNXINDEX,2013-10-14,60.5
HNXINDEX,2013-10-15,60.76
HNXINDEX,2013-10-16,61.12
HNXINDEX,2013-10-17,61.36
HNXINDEX,2013-10-18,61.52
HNXINDEX,2013-10-21,61.93
HNXINDEX,2013-10-22,61.66
HNXINDEX,2013-10-23,62.13
HNXINDEX,2013-10-24,61.89
HNXINDEX,2013-10-25,61.82
HNXINDEX,2013-10-28,61.41
HNXINDEX,2013-10-29,61.5
HNXINDEX,2013-10-30,61.58
HNXINDEX,2013-10-31,61.64
HNXINDEX,2013-11-01,62.08
HNXINDEX,2013-11-04,62.43
HNXINDEX,2013-11-05,62.91
HNXINDEX,2013-11-06,63.28
HNXINDEX,2013-11-07,63.15
HNXINDEX,2013-11-08,63.29
HNXINDEX,2013-11-11,64.06
HNXINDEX,2013-11-12,63.85
HNXINDEX,2013-11-13,63.65
HNXINDEX,2013-11-14,63.7
HNXINDEX,2013-11-15,63.93
HNXINDEX,2013-11-18,64.39
HNXINDEX,2013-11-19,64.36
HNXINDEX,2013-11-20,64.62
HNXINDEX,2013-11-21,64.38
HNXINDEX,2013-11-22,64.59
HNXINDEX,2013-11-25,64.83
HNXINDEX,2013-11-26,64.9
HNXINDEX,2013-11-27,65.19
HNXINDEX,2013-11-28,65.28
HNXINDEX,2013-11-29,65.19
HNXINDEX,2013-12-02,65.13
HNXINDEX,2013-12-03,65.64
HNXINDEX,2013-12-04,66.12
HNXINDEX,2013-12-05,66.07
HNXINDEX,2013-12-06,66.09
HNXINDEX,2013-12-09,66.12
HNXINDEX,2013-12-10,66.14
HNXINDEX,2013-12-11,65.57
HNXINDEX,2013-12-12,65.97
HNXINDEX,2013-12-13,66.22
HNXINDEX,2013-12-16,66.49
HNXINDEX,2013-12-17,66.86
HNXINDEX,2013-12-18,66.95
HNXINDEX,2013-12-19,67.62
HNXINDEX,2013-12-20,67.5
HNXINDEX,2013-12-23,68.3
HNXINDEX,2013-12-24,68.12
HNXINDEX,2013-12-25,68.21
HNXINDEX,2013-12-26,68.1
HNXINDEX,2013-12-27,67.93
HNXINDEX,2013-12-30,66.95
HNXINDEX,2013-12-31,67.84
HNXINDEX,2014-01-02,67.93
HNXINDEX,2014-01-03,67.97
HNXINDEX,2014-01-06,68.82
HNXINDEX,2014-01-07,69.47
HNXINDEX,2014-01-08,69.99
HNXINDEX,2014-01-09,71.16
HNXINDEX,2014-01-10,70.76
HNXINDEX,2014-01-13,71.05
HNXINDEX,2014-01-14,71.69
HNXINDEX,2014-01-15,72.7
HNXINDEX,2014-01-16,73.07
HNXINDEX,2014-01-17,72.79
HNXINDEX,2014-01-20,72.5
HNXINDEX,2014-01-21,73.56
HNXINDEX,2014-01-22,73.42
HNXINDEX,2014-01-23,73.44
HNXINDEX,2014-01-24,73.66
HNXINDEX,2014-01-27,74.22
HNXINDEX,2014-02-06,75.05
HNXINDEX,2014-02-07,74.78
HNXINDEX,2014-02-10,75.56
HNXINDEX,2014-02-11,75.55
HNXINDEX,2014-02-12,76.75
HNXINDEX,2014-02-13,77.7
HNXINDEX,2014-02-14,78.76
HNXINDEX,2014-02-17,79.64
HNXINDEX,2014-02-18,81.04
HNXINDEX,2014-02-19,82.33
HNXINDEX,2014-02-20,79.51
HNXINDEX,2014-02-21,80.17
HNXINDEX,2014-02-24,81.66
HNXINDEX,2014-02-25,82.25
HNXINDEX,2014-02-26,82.79
HNXINDEX,2014-02-27,82.63
HNXINDEX,2014-02-28,83.12
HNXINDEX,2014-03-03,80.46
HNXINDEX,2014-03-04,80.35
HNXINDEX,2014-03-05,81.2
HNXINDEX,2014-03-06,81.81
HNXINDEX,2014-03-07,82.16
HNXINDEX,2014-03-10,82.8
HNXINDEX,2014-03-11,83.64
HNXINDEX,2014-03-12,83.17
HNXINDEX,2014-03-13,84.15
HNXINDEX,2014-03-14,84.43
HNXINDEX,2014-03-17,86.31
HNXINDEX,2014-03-18,87.6
HNXINDEX,2014-03-19,89.68
HNXINDEX,2014-03-20,89.7
HNXINDEX,2014-03-21,90.36
HNXINDEX,2014-03-24,92.99
HNXINDEX,2014-03-25,91.12
HNXINDEX,2014-03-26,89.79
HNXINDEX,2014-03-27,89.55
HNXINDEX,2014-03-28,90.04
HNXINDEX,2014-03-31,89.44
HNXINDEX,2014-04-01,86.49
HNXINDEX,2014-04-02,85.68
HNXINDEX,2014-04-03,87.62
HNXINDEX,2014-04-04,86.76
HNXINDEX,2014-04-07,87.32
HNXINDEX,2014-04-08,87.82
HNXINDEX,2014-04-10,87.64
HNXINDEX,2014-04-11,87.49
HNXINDEX,2014-04-14,86.79
HNXINDEX,2014-04-15,84.34
HNXINDEX,2014-04-16,82.62
HNXINDEX,2014-04-17,83.6
HNXINDEX,2014-04-18,80.58
HNXINDEX,2014-04-21,78.87
HNXINDEX,2014-04-22,80.86
HNXINDEX,2014-04-23,79.9
HNXINDEX,2014-04-24,80.0
HNXINDEX,2014-04-25,80.58
HNXINDEX,2014-04-28,79.65
HNXINDEX,2014-04-29,79.88
HNXINDEX,2014-05-05,77.36
HNXINDEX,2014-05-06,76.55
HNXINDEX,2014-05-07,76.56
HNXINDEX,2014-05-08,71.66
HNXINDEX,2014-05-09,74.19
HNXINDEX,2014-05-12,70.69
HNXINDEX,2014-05-13,69.39
HNXINDEX,2014-05-14,71.87
HNXINDEX,2014-05-15,70.7
HNXINDEX,2014-05-16,72.31
HNXINDEX,2014-05-19,72.64
HNXINDEX,2014-05-20,73.73
HNXINDEX,2014-05-21,75.57
