IVS,2011-08-01,6700.0
IVS,2011-08-02,6300.0
IVS,2011-08-03,6000.0
IVS,2011-08-04,5600.0
IVS,2011-08-05,5500.0
IVS,2011-08-08,5400.0
IVS,2011-08-09,4900.0
IVS,2011-08-10,4700.0
IVS,2011-08-11,4400.0
IVS,2011-08-12,4200.0
IVS,2011-08-15,4100.0
IVS,2011-08-16,4100.0
IVS,2011-08-17,4100.0
IVS,2011-08-18,4100.0
IVS,2011-08-19,4000.0
IVS,2011-08-22,4000.0
IVS,2011-08-23,4200.0
IVS,2011-08-24,4300.0
IVS,2011-08-25,4200.0
IVS,2011-08-26,4600.0
IVS,2011-08-29,4800.0
IVS,2011-08-30,5100.0
IVS,2011-08-31,5400.0
IVS,2011-09-01,5700.0
IVS,2011-09-05,6100.0
IVS,2011-09-06,6100.0
IVS,2011-09-07,6300.0
IVS,2011-09-08,6200.0
IVS,2011-09-09,6200.0
IVS,2011-09-12,6200.0
IVS,2011-09-13,6200.0
IVS,2011-09-14,6300.0
IVS,2011-09-15,6200.0
IVS,2011-09-16,6100.0
IVS,2011-09-19,6200.0
IVS,2011-09-20,6500.0
IVS,2011-09-21,6700.0
IVS,2011-09-22,7200.0
IVS,2011-09-23,7600.0
IVS,2011-09-26,7100.0
IVS,2011-09-27,7300.0
IVS,2011-09-28,7300.0
IVS,2011-09-29,6900.0
IVS,2011-09-30,7200.0
IVS,2011-10-03,6800.0
IVS,2011-10-04,6600.0
IVS,2011-10-05,6300.0
IVS,2011-10-06,6400.0
IVS,2011-10-07,6200.0
IVS,2011-10-10,6200.0
IVS,2011-10-11,5900.0
IVS,2011-10-12,5900.0
IVS,2011-10-13,5500.0
IVS,2011-10-14,5400.0
IVS,2011-10-17,5800.0
IVS,2011-10-18,5400.0
IVS,2011-10-19,5500.0
IVS,2011-10-20,5800.0
IVS,2011-10-21,5600.0
IVS,2011-10-24,5300.0
IVS,2011-10-25,5000.0
IVS,2011-10-26,4700.0
IVS,2011-10-27,5000.0
IVS,2011-10-28,5300.0
IVS,2011-10-31,5300.0
IVS,2011-11-01,5200.0
IVS,2011-11-02,5300.0
IVS,2011-11-03,5300.0
IVS,2011-11-04,5000.0
IVS,2011-11-07,5000.0
IVS,2011-11-08,4900.0
IVS,2011-11-09,4800.0
IVS,2011-11-10,4500.0
IVS,2011-11-11,4500.0
IVS,2011-11-14,4300.0
IVS,2011-11-15,4400.0
IVS,2011-11-16,4500.0
IVS,2011-11-17,4600.0
IVS,2011-11-18,4400.0
IVS,2011-11-21,4100.0
IVS,2011-11-22,4100.0
IVS,2011-11-23,4300.0
IVS,2011-11-24,4200.0
IVS,2011-11-25,4100.0
IVS,2011-11-28,3900.0
IVS,2011-11-29,4000.0
IVS,2011-11-30,4200.0
IVS,2011-12-01,4300.0
IVS,2011-12-02,4800.0
IVS,2011-12-05,5100.0
IVS,2011-12-06,5300.0
IVS,2011-12-07,5000.0
IVS,2011-12-08,4900.0
IVS,2011-12-09,4600.0
IVS,2011-12-12,4400.0
IVS,2011-12-13,4200.0
IVS,2011-12-14,4000.0
IVS,2011-12-15,4300.0
IVS,2011-12-16,4300.0
IVS,2011-12-19,4200.0
IVS,2011-12-20,4800.0
IVS,2011-12-21,5000.0
IVS,2011-12-22,4600.0
IVS,2011-12-23,4700.0
IVS,2011-12-26,4400.0
IVS,2011-12-27,4500.0
IVS,2011-12-28,4200.0
IVS,2011-12-29,4300.0
IVS,2011-12-30,4900.0
IVS,2012-01-03,4500.0
IVS,2012-01-04,4200.0
IVS,2012-01-05,4200.0
IVS,2012-01-06,4200.0
IVS,2012-01-09,4300.0
IVS,2012-01-10,4000.0
IVS,2012-01-11,4000.0
IVS,2012-01-12,4100.0
IVS,2012-01-13,3900.0
IVS,2012-01-16,4000.0
IVS,2012-01-17,4200.0
IVS,2012-01-18,4200.0
IVS,2012-01-19,4200.0
IVS,2012-01-20,4400.0
IVS,2012-01-30,4600.0
IVS,2012-01-31,4500.0
IVS,2012-02-01,4100.0
IVS,2012-02-02,4200.0
IVS,2012-02-03,4500.0
IVS,2012-02-06,4600.0
IVS,2012-02-07,4500.0
IVS,2012-02-08,4900.0
IVS,2012-02-09,4600.0
IVS,2012-02-10,4600.0
IVS,2012-02-13,4500.0
IVS,2012-02-14,4500.0
IVS,2012-02-15,4200.0
IVS,2012-02-16,4400.0
IVS,2012-02-17,4800.0
IVS,2012-02-20,5000.0
IVS,2012-02-21,5000.0
IVS,2012-02-22,5300.0
IVS,2012-02-23,5400.0
IVS,2012-02-24,5500.0
IVS,2012-02-27,6100.0
IVS,2012-02-28,5800.0
IVS,2012-02-29,5900.0
IVS,2012-03-01,6600.0
IVS,2012-03-02,6400.0
IVS,2012-03-05,7300.0
IVS,2012-03-06,7000.0
IVS,2012-03-07,7600.0
IVS,2012-03-08,7000.0
IVS,2012-03-09,6800.0
IVS,2012-03-12,6700.0
IVS,2012-03-13,6800.0
IVS,2012-03-14,6400.0
IVS,2012-03-15,6900.0
IVS,2012-03-16,7000.0
IVS,2012-03-19,7100.0
IVS,2012-03-20,7100.0
IVS,2012-03-21,7100.0
IVS,2012-03-22,6900.0
IVS,2012-03-23,6900.0
IVS,2012-03-26,7000.0
IVS,2012-03-27,6600.0
IVS,2012-03-28,6200.0
IVS,2012-03-29,5900.0
IVS,2012-03-30,5800.0
IVS,2012-04-03,6100.0
IVS,2012-04-04,5900.0
IVS,2012-04-05,6200.0
IVS,2012-04-06,6200.0
IVS,2012-04-09,6300.0
IVS,2012-04-10,6200.0
IVS,2012-04-11,6600.0
IVS,2012-04-12,6800.0
IVS,2012-04-13,6800.0
IVS,2012-04-16,6900.0
IVS,2012-04-17,6700.0
IVS,2012-04-18,6700.0
IVS,2012-04-19,6400.0
IVS,2012-04-20,6400.0
IVS,2012-04-23,6800.0
IVS,2012-04-24,7200.0
IVS,2012-04-25,7700.0
IVS,2012-04-26,8000.0
IVS,2012-04-27,7500.0
IVS,2012-05-02,7100.0
IVS,2012-05-03,7500.0
IVS,2012-05-04,7600.0
IVS,2012-05-07,7800.0
IVS,2012-05-08,7700.0
IVS,2012-05-09,7700.0
IVS,2012-05-10,7700.0
IVS,2012-05-11,7400.0
IVS,2012-05-14,6900.0
IVS,2012-05-15,6700.0
IVS,2012-05-16,6600.0
IVS,2012-05-17,6800.0
IVS,2012-05-18,6500.0
IVS,2012-05-21,6800.0
IVS,2012-05-22,6900.0
IVS,2012-05-23,6400.0
IVS,2012-05-24,6400.0
IVS,2012-05-25,6500.0
IVS,2012-05-28,6700.0
IVS,2012-05-29,6600.0
IVS,2012-05-30,6500.0
IVS,2012-05-31,6400.0
IVS,2012-06-01,6300.0
IVS,2012-06-04,6100.0
IVS,2012-06-05,6500.0
IVS,2012-06-06,6600.0
IVS,2012-06-07,6600.0
IVS,2012-06-08,6500.0
IVS,2012-06-11,6700.0
IVS,2012-06-12,6500.0
IVS,2012-06-13,6500.0
IVS,2012-06-14,6500.0
IVS,2012-06-15,6500.0
IVS,2012-06-18,6500.0
IVS,2012-06-19,6400.0
IVS,2012-06-20,6400.0
IVS,2012-06-21,6400.0
IVS,2012-06-22,6000.0
IVS,2012-06-25,5700.0
IVS,2012-06-26,5500.0
IVS,2012-06-27,5800.0
IVS,2012-06-28,5900.0
IVS,2012-06-29,5900.0
IVS,2012-07-02,5500.0
IVS,2012-07-03,5200.0
IVS,2012-07-04,5100.0
IVS,2012-07-05,5400.0
IVS,2012-07-06,5300.0
IVS,2012-07-09,5300.0
IVS,2012-07-10,5200.0
IVS,2012-07-11,5200.0
IVS,2012-07-12,5200.0
IVS,2012-07-13,5300.0
IVS,2012-07-16,5200.0
IVS,2012-07-17,5400.0
IVS,2012-07-18,5400.0
IVS,2012-07-19,5700.0
IVS,2012-07-20,5800.0
IVS,2012-07-23,5400.0
IVS,2012-07-24,5100.0
IVS,2012-07-25,4900.0
IVS,2012-07-26,4900.0
IVS,2012-07-27,4900.0
IVS,2012-07-30,4900.0
IVS,2012-07-31,5000.0
IVS,2012-08-01,5000.0
IVS,2012-08-02,4900.0
IVS,2012-08-03,4900.0
IVS,2012-08-06,5200.0
IVS,2012-08-07,5000.0
IVS,2012-08-08,5100.0
IVS,2012-08-09,5100.0
IVS,2012-08-10,5000.0
IVS,2012-08-13,4900.0
IVS,2012-08-14,5000.0
IVS,2012-08-15,5000.0
IVS,2012-08-16,4900.0
IVS,2012-08-17,5000.0
IVS,2012-08-20,5000.0
IVS,2012-08-21,4700.0
IVS,2012-08-22,4400.0
IVS,2012-08-23,4100.0
IVS,2012-08-24,4300.0
IVS,2012-08-27,4000.0
IVS,2012-08-28,4100.0
IVS,2012-08-29,4300.0
IVS,2012-08-30,4200.0
IVS,2012-08-31,4100.0
IVS,2012-09-04,4000.0
IVS,2012-09-05,4000.0
IVS,2012-09-06,4000.0
IVS,2012-09-07,4000.0
IVS,2012-09-10,4000.0
IVS,2012-09-11,4000.0
IVS,2012-09-12,4000.0
IVS,2012-09-13,4000.0
IVS,2012-09-14,4100.0
IVS,2012-09-17,4100.0
IVS,2012-09-18,4100.0
IVS,2012-09-19,4100.0
IVS,2012-09-20,4000.0
IVS,2012-09-21,4100.0
IVS,2012-09-24,4000.0
IVS,2012-09-25,4000.0
IVS,2012-09-26,4100.0
IVS,2012-09-27,4000.0
IVS,2012-09-28,4000.0
IVS,2012-10-01,4000.0
IVS,2012-10-02,4000.0
IVS,2012-10-03,4000.0
IVS,2012-10-04,4000.0
IVS,2012-10-05,4100.0
IVS,2012-10-08,4100.0
IVS,2012-10-09,4100.0
IVS,2012-10-10,4100.0
IVS,2012-10-11,4200.0
IVS,2012-10-12,4000.0
IVS,2012-10-15,4000.0
IVS,2012-10-16,4200.0
IVS,2012-10-17,4200.0
IVS,2012-10-18,4300.0
IVS,2012-10-19,4300.0
IVS,2012-10-22,4300.0
IVS,2012-10-23,4300.0
IVS,2012-10-24,4300.0
IVS,2012-10-25,4200.0
IVS,2012-10-26,4200.0
IVS,2012-10-29,4200.0
IVS,2012-10-30,4200.0
IVS,2012-10-31,4200.0
IVS,2012-11-01,4200.0
IVS,2012-11-02,4000.0
IVS,2012-11-05,3900.0
IVS,2012-11-06,3900.0
IVS,2012-11-07,3900.0
IVS,2012-11-08,3800.0
IVS,2012-11-09,3800.0
IVS,2012-11-12,3900.0
IVS,2012-11-13,4000.0
IVS,2012-11-14,4000.0
IVS,2012-11-15,4000.0
IVS,2012-11-16,4100.0
IVS,2012-11-19,3900.0
IVS,2012-11-20,3900.0
IVS,2012-11-21,3900.0
IVS,2012-11-22,3900.0
IVS,2012-11-23,3800.0
IVS,2012-11-26,3800.0
IVS,2012-11-27,3700.0
IVS,2012-11-28,3600.0
IVS,2012-11-29,3600.0
IVS,2012-11-30,3700.0
IVS,2012-12-03,3700.0
IVS,2012-12-04,3800.0
IVS,2012-12-05,3900.0
IVS,2012-12-06,3900.0
IVS,2012-12-07,3800.0
IVS,2012-12-10,3900.0
IVS,2012-12-11,3800.0
IVS,2012-12-12,4000.0
IVS,2012-12-13,3900.0
IVS,2012-12-14,3800.0
IVS,2012-12-17,3800.0
IVS,2012-12-18,3900.0
IVS,2012-12-19,4100.0
IVS,2012-12-20,4300.0
IVS,2012-12-21,4300.0
IVS,2012-12-24,4400.0
IVS,2012-12-25,4500.0
IVS,2012-12-26,4700.0
IVS,2012-12-27,4900.0
IVS,2012-12-28,5100.0
IVS,2013-01-02,5400.0
IVS,2013-01-03,5200.0
IVS,2013-01-04,5500.0
IVS,2013-01-07,5300.0
IVS,2013-01-08,5400.0
IVS,2013-01-09,5200.0
IVS,2013-01-10,5100.0
IVS,2013-01-11,5000.0
IVS,2013-01-14,4900.0
IVS,2013-01-15,5000.0
IVS,2013-01-16,5000.0
IVS,2013-01-17,4900.0
IVS,2013-01-18,5300.0
IVS,2013-01-21,5200.0
IVS,2013-01-22,4900.0
IVS,2013-01-23,4900.0
IVS,2013-01-24,5000.0
IVS,2013-01-25,5300.0
IVS,2013-01-28,5300.0
IVS,2013-01-29,5400.0
IVS,2013-01-30,5400.0
IVS,2013-01-31,5500.0
IVS,2013-02-01,5300.0
IVS,2013-02-04,5500.0
IVS,2013-02-05,5300.0
IVS,2013-02-06,5500.0
IVS,2013-02-07,6000.0
IVS,2013-02-08,6600.0
IVS,2013-02-18,6400.0
IVS,2013-02-19,6500.0
IVS,2013-02-20,6300.0
IVS,2013-02-21,6300.0
IVS,2013-02-22,6700.0
IVS,2013-02-25,6700.0
IVS,2013-02-26,6200.0
IVS,2013-02-27,6300.0
IVS,2013-02-28,6600.0
IVS,2013-03-01,6600.0
IVS,2013-03-04,6000.0
IVS,2013-03-05,5900.0
IVS,2013-03-06,6400.0
IVS,2013-03-07,6100.0
IVS,2013-03-08,6100.0
IVS,2013-03-11,6200.0
IVS,2013-03-12,5800.0
IVS,2013-03-13,5600.0
IVS,2013-03-14,5800.0
IVS,2013-03-15,5700.0
IVS,2013-03-18,5700.0
IVS,2013-03-19,5500.0
IVS,2013-03-20,5700.0
IVS,2013-03-21,5600.0
IVS,2013-03-22,5500.0
IVS,2013-03-25,5200.0
IVS,2013-03-26,5100.0
IVS,2013-03-27,5100.0
IVS,2013-03-28,5100.0
IVS,2013-03-29,4900.0
IVS,2013-04-01,5200.0
IVS,2013-04-02,5100.0
IVS,2013-04-03,5100.0
IVS,2013-04-04,5000.0
IVS,2013-04-05,5100.0
IVS,2013-04-08,5100.0
IVS,2013-04-09,5200.0
IVS,2013-04-10,5000.0
IVS,2013-04-11,5000.0
IVS,2013-04-12,4900.0
IVS,2013-04-15,4800.0
IVS,2013-04-16,4900.0
IVS,2013-04-17,5000.0
IVS,2013-04-18,5000.0
IVS,2013-04-22,4900.0
IVS,2013-04-23,5000.0
IVS,2013-04-24,5000.0
IVS,2013-04-25,5000.0
IVS,2013-04-26,5000.0
IVS,2013-05-02,4900.0
IVS,2013-05-03,4900.0
IVS,2013-05-06,5100.0
IVS,2013-05-07,5000.0
IVS,2013-05-08,5000.0
IVS,2013-05-09,5000.0
IVS,2013-05-10,5000.0
IVS,2013-05-13,5000.0
IVS,2013-05-14,5000.0
IVS,2013-05-15,5000.0
IVS,2013-05-16,5000.0
IVS,2013-05-17,5000.0
IVS,2013-05-20,5000.0
IVS,2013-05-21,4900.0
IVS,2013-05-22,5000.0
IVS,2013-05-23,5000.0
IVS,2013-05-24,5000.0
IVS,2013-05-27,5100.0
IVS,2013-05-28,5000.0
IVS,2013-05-29,5100.0
IVS,2013-05-30,5100.0
IVS,2013-05-31,5200.0
IVS,2013-06-03,5300.0
IVS,2013-06-04,5200.0
IVS,2013-06-05,5200.0
IVS,2013-06-06,5300.0
IVS,2013-06-07,5200.0
IVS,2013-06-10,5200.0
IVS,2013-06-11,5200.0
IVS,2013-06-12,5100.0
IVS,2013-06-13,5100.0
IVS,2013-06-14,5100.0
IVS,2013-06-17,5000.0
IVS,2013-06-18,4900.0
IVS,2013-06-19,4900.0
IVS,2013-06-20,4800.0
IVS,2013-06-21,4800.0
IVS,2013-06-24,4600.0
IVS,2013-06-25,4600.0
IVS,2013-06-26,4500.0
IVS,2013-06-27,4400.0
IVS,2013-06-28,4500.0
IVS,2013-07-01,4400.0
IVS,2013-07-02,4400.0
IVS,2013-07-03,4300.0
IVS,2013-07-04,4400.0
IVS,2013-07-05,4400.0
IVS,2013-07-08,4400.0
IVS,2013-07-09,4500.0
IVS,2013-07-10,4300.0
IVS,2013-07-11,4400.0
IVS,2013-07-12,4500.0
IVS,2013-07-15,4500.0
IVS,2013-07-16,4500.0
IVS,2013-07-17,4500.0
IVS,2013-07-18,4500.0
IVS,2013-07-19,4400.0
IVS,2013-07-22,4400.0
IVS,2013-07-23,4400.0
IVS,2013-07-24,4300.0
IVS,2013-07-25,4300.0
IVS,2013-07-26,4200.0
IVS,2013-07-29,4000.0
IVS,2013-07-30,4000.0
IVS,2013-07-31,4000.0
IVS,2013-08-01,4000.0
IVS,2013-08-02,4000.0
IVS,2013-08-05,4000.0
IVS,2013-08-06,4000.0
IVS,2013-08-07,4000.0
IVS,2013-08-08,3900.0
IVS,2013-08-09,3900.0
IVS,2013-08-12,3900.0
IVS,2013-08-13,3900.0
IVS,2013-08-14,3900.0
IVS,2013-08-15,3900.0
IVS,2013-08-16,3900.0
IVS,2013-08-19,4000.0
IVS,2013-08-20,3900.0
IVS,2013-08-21,4000.0
IVS,2013-08-22,3900.0
IVS,2013-08-23,3900.0
IVS,2013-08-26,4000.0
IVS,2013-08-27,4000.0
IVS,2013-08-28,3800.0
IVS,2013-08-29,3700.0
IVS,2013-08-30,3900.0
IVS,2013-09-03,3800.0
IVS,2013-09-04,3700.0
IVS,2013-09-05,3800.0
IVS,2013-09-06,3800.0
IVS,2013-09-09,3800.0
IVS,2013-09-10,3800.0
IVS,2013-09-11,3800.0
IVS,2013-09-12,3800.0
IVS,2013-09-13,3800.0
IVS,2013-09-16,3800.0
IVS,2013-09-17,3800.0
IVS,2013-09-18,3800.0
IVS,2013-09-19,3800.0
IVS,2013-09-20,3800.0
IVS,2013-09-23,3800.0
IVS,2013-09-24,3800.0
IVS,2013-09-25,4000.0
IVS,2013-09-26,4000.0
IVS,2013-09-27,3900.0
IVS,2013-09-30,4000.0
IVS,2013-10-01,4000.0
IVS,2013-10-02,4000.0
IVS,2013-10-03,4000.0
IVS,2013-10-04,3900.0
IVS,2013-10-07,3900.0
IVS,2013-10-08,3900.0
IVS,2013-10-09,3900.0
IVS,2013-10-10,3900.0
IVS,2013-10-11,3900.0
IVS,2013-10-14,3900.0
IVS,2013-10-15,3900.0
IVS,2013-10-16,3900.0
IVS,2013-10-17,4200.0
IVS,2013-10-18,4200.0
IVS,2013-10-21,4300.0
IVS,2013-10-22,4000.0
IVS,2013-10-23,4000.0
IVS,2013-10-24,3900.0
IVS,2013-10-25,3900.0
IVS,2013-10-28,3900.0
IVS,2013-10-29,3900.0
IVS,2013-10-30,3900.0
IVS,2013-10-31,3900.0
IVS,2013-11-01,3900.0
IVS,2013-11-04,4000.0
IVS,2013-11-05,4000.0
IVS,2013-11-06,4000.0
IVS,2013-11-07,4200.0
IVS,2013-11-08,4100.0
IVS,2013-11-11,4200.0
IVS,2013-11-12,4200.0
IVS,2013-11-13,4100.0
IVS,2013-11-14,4100.0
IVS,2013-11-15,4200.0
IVS,2013-11-18,4400.0
IVS,2013-11-19,4500.0
IVS,2013-11-20,4600.0
IVS,2013-11-21,4600.0
IVS,2013-11-22,4600.0
IVS,2013-11-25,4600.0
IVS,2013-11-26,4600.0
IVS,2013-11-27,4600.0
IVS,2013-11-28,4600.0
IVS,2013-11-29,4500.0
IVS,2013-12-02,4500.0
IVS,2013-12-03,4600.0
IVS,2013-12-04,5000.0
IVS,2013-12-05,5100.0
IVS,2013-12-06,5200.0
IVS,2013-12-09,5200.0
IVS,2013-12-10,5100.0
IVS,2013-12-11,5000.0
IVS,2013-12-12,5200.0
IVS,2013-12-13,5300.0
IVS,2013-12-16,5300.0
IVS,2013-12-17,5300.0
IVS,2013-12-18,5300.0
IVS,2013-12-19,5400.0
IVS,2013-12-20,5400.0
IVS,2013-12-23,5800.0
IVS,2013-12-24,5800.0
IVS,2013-12-25,5900.0
IVS,2013-12-26,6000.0
IVS,2013-12-27,5800.0
IVS,2013-12-30,5700.0
IVS,2013-12-31,5800.0
IVS,2014-01-02,5800.0
IVS,2014-01-03,5800.0
IVS,2014-01-06,5900.0
IVS,2014-01-07,6000.0
IVS,2014-01-08,6000.0
IVS,2014-01-09,6200.0
IVS,2014-01-10,6300.0
IVS,2014-01-13,6300.0
IVS,2014-01-14,6300.0
IVS,2014-01-15,6300.0
IVS,2014-01-16,6300.0
IVS,2014-01-17,6300.0
IVS,2014-01-20,6100.0
IVS,2014-01-21,6100.0
IVS,2014-01-22,6000.0
IVS,2014-01-23,6100.0
IVS,2014-01-24,6100.0
IVS,2014-01-27,6100.0
IVS,2014-02-06,6200.0
IVS,2014-02-07,6200.0
IVS,2014-02-10,6200.0
IVS,2014-02-11,6300.0
IVS,2014-02-12,6500.0
IVS,2014-02-13,6700.0
IVS,2014-02-14,7000.0
IVS,2014-02-17,7200.0
IVS,2014-02-18,7200.0
IVS,2014-02-19,7200.0
IVS,2014-02-20,7000.0
IVS,2014-02-21,7100.0
IVS,2014-02-24,7200.0
IVS,2014-02-25,7200.0
IVS,2014-02-26,7100.0
IVS,2014-02-27,7000.0
IVS,2014-02-28,7000.0
IVS,2014-03-03,6900.0
IVS,2014-03-04,6900.0
IVS,2014-03-05,7100.0
IVS,2014-03-06,7200.0
IVS,2014-03-07,7200.0
IVS,2014-03-10,7500.0
IVS,2014-03-11,7700.0
IVS,2014-03-12,7800.0
IVS,2014-03-13,8300.0
IVS,2014-03-14,8600.0
IVS,2014-03-17,9400.0
IVS,2014-03-18,9500.0
IVS,2014-03-19,10400.0
IVS,2014-03-20,11400.0
IVS,2014-03-21,11600.0
IVS,2014-03-24,11600.0
IVS,2014-03-25,11200.0
IVS,2014-03-26,10100.0
IVS,2014-03-27,10100.0
IVS,2014-03-28,10300.0
IVS,2014-03-31,10300.0
IVS,2014-04-01,9900.0
IVS,2014-04-02,9500.0
IVS,2014-04-03,10000.0
IVS,2014-04-04,10000.0
IVS,2014-04-07,10400.0
IVS,2014-04-08,10400.0
IVS,2014-04-10,10400.0
IVS,2014-04-11,9900.0
IVS,2014-04-14,9500.0
IVS,2014-04-15,9200.0
IVS,2014-04-16,8600.0
IVS,2014-04-17,9300.0
IVS,2014-04-18,8800.0
IVS,2014-04-21,8700.0
IVS,2014-04-22,9300.0
IVS,2014-04-23,9300.0
IVS,2014-04-24,9300.0
IVS,2014-04-25,9300.0
IVS,2014-04-28,9200.0
IVS,2014-04-29,9200.0
IVS,2014-05-05,8600.0
IVS,2014-05-06,8100.0
IVS,2014-05-07,8100.0
IVS,2014-05-08,7300.0
IVS,2014-05-09,7500.0
IVS,2014-05-12,6900.0
IVS,2014-05-13,6500.0
IVS,2014-05-14,7100.0
IVS,2014-05-15,7000.0
IVS,2014-05-16,7100.0
IVS,2014-05-19,6800.0
IVS,2014-05-20,7000.0
IVS,2014-05-21,7700.0
