KHB,2010-05-19,26500.0
KHB,2010-05-20,25300.0
KHB,2010-05-21,23500.0
KHB,2010-05-24,21900.0
KHB,2010-05-25,23400.0
KHB,2010-05-26,23400.0
KHB,2010-05-27,24600.0
KHB,2010-05-28,26300.0
KHB,2010-05-31,28100.0
KHB,2010-06-01,28400.0
KHB,2010-06-02,26600.0
KHB,2010-06-03,29700.0
KHB,2010-06-04,29600.0
KHB,2010-06-07,29300.0
KHB,2010-06-08,29100.0
KHB,2010-06-09,28400.0
KHB,2010-06-10,27500.0
KHB,2010-06-11,27900.0
KHB,2010-06-14,30300.0
KHB,2010-06-15,31200.0
KHB,2010-06-16,33400.0
KHB,2010-06-17,33900.0
KHB,2010-06-18,32900.0
KHB,2010-06-21,31000.0
KHB,2010-06-22,29400.0
KHB,2010-06-23,29100.0
KHB,2010-06-24,29100.0
KHB,2010-06-25,30800.0
KHB,2010-06-28,29200.0
KHB,2010-06-29,28800.0
KHB,2010-06-30,27900.0
KHB,2010-07-01,27500.0
KHB,2010-07-02,27000.0
KHB,2010-07-05,26500.0
KHB,2010-07-06,27200.0
KHB,2010-07-07,26200.0
KHB,2010-07-08,25400.0
KHB,2010-07-09,25400.0
KHB,2010-07-12,26100.0
KHB,2010-07-13,28400.0
KHB,2010-07-14,29300.0
KHB,2010-07-15,27700.0
KHB,2010-07-16,26600.0
KHB,2010-07-19,26100.0
KHB,2010-07-20,26700.0
KHB,2010-07-21,25200.0
KHB,2010-07-22,24700.0
KHB,2010-07-23,25400.0
KHB,2010-07-26,24300.0
KHB,2010-07-27,24400.0
KHB,2010-07-28,22700.0
KHB,2010-07-29,24600.0
KHB,2010-07-30,26300.0
KHB,2010-08-02,25200.0
KHB,2010-08-03,25200.0
KHB,2010-08-04,24300.0
KHB,2010-08-05,24300.0
KHB,2010-08-06,25000.0
KHB,2010-08-09,25500.0
KHB,2010-08-10,23800.0
KHB,2010-08-11,23000.0
KHB,2010-08-12,22300.0
KHB,2010-08-13,21300.0
KHB,2010-08-16,23200.0
KHB,2010-08-17,24300.0
KHB,2010-08-18,23200.0
KHB,2010-08-19,23400.0
KHB,2010-08-20,22800.0
KHB,2010-08-23,23800.0
KHB,2010-08-24,22100.0
KHB,2010-08-25,20900.0
KHB,2010-08-26,20900.0
KHB,2010-08-27,20900.0
KHB,2010-08-30,22200.0
KHB,2010-08-31,22100.0
KHB,2010-09-01,22900.0
KHB,2010-09-06,22900.0
KHB,2010-09-07,23300.0
KHB,2010-09-08,21900.0
KHB,2010-09-09,20700.0
KHB,2010-09-10,20600.0
KHB,2010-09-13,19200.0
KHB,2010-09-14,18800.0
KHB,2010-09-15,18100.0
KHB,2010-09-16,19700.0
KHB,2010-09-17,20500.0
KHB,2010-09-20,22000.0
KHB,2010-09-21,23500.0
KHB,2010-09-22,24500.0
KHB,2010-09-23,23800.0
KHB,2010-09-24,24800.0
KHB,2010-09-27,24900.0
KHB,2010-09-28,25200.0
KHB,2010-09-29,24900.0
KHB,2010-09-30,25400.0
KHB,2010-10-01,27100.0
KHB,2010-10-04,28900.0
KHB,2010-10-05,29700.0
KHB,2010-10-06,31900.0
KHB,2010-10-07,30700.0
KHB,2010-10-08,29200.0
KHB,2010-10-11,30000.0
KHB,2010-10-12,30300.0
KHB,2010-10-13,32600.0
KHB,2010-10-14,33000.0
KHB,2010-10-15,34800.0
KHB,2010-10-18,35500.0
KHB,2010-10-19,36300.0
KHB,2010-10-20,34700.0
KHB,2010-10-21,36000.0
KHB,2010-10-22,34500.0
KHB,2010-10-25,34500.0
KHB,2010-10-26,35400.0
KHB,2010-10-27,33500.0
KHB,2010-10-28,31900.0
KHB,2010-10-29,31200.0
KHB,2010-11-01,29900.0
KHB,2010-11-02,29600.0
KHB,2010-11-03,31000.0
KHB,2010-11-04,31500.0
KHB,2010-11-05,33500.0
KHB,2010-11-08,33500.0
KHB,2010-11-09,32100.0
KHB,2010-11-10,31100.0
KHB,2010-11-11,30900.0
KHB,2010-11-12,30000.0
KHB,2010-11-15,28800.0
KHB,2010-11-16,30200.0
KHB,2010-11-17,30700.0
KHB,2010-11-18,32000.0
KHB,2010-11-19,32400.0
KHB,2010-11-22,31300.0
KHB,2010-11-23,32600.0
KHB,2010-11-24,32400.0
KHB,2010-11-25,32400.0
KHB,2010-11-26,31700.0
KHB,2010-11-29,31600.0
KHB,2010-11-30,32100.0
KHB,2010-12-01,32600.0
KHB,2010-12-02,33500.0
KHB,2010-12-03,33500.0
KHB,2010-12-06,33500.0
KHB,2010-12-07,33100.0
KHB,2010-12-08,33400.0
KHB,2010-12-09,33000.0
KHB,2010-12-10,32600.0
KHB,2010-12-13,32900.0
KHB,2010-12-14,33400.0
KHB,2010-12-15,32800.0
KHB,2010-12-16,33500.0
KHB,2010-12-17,34500.0
KHB,2010-12-20,35000.0
KHB,2010-12-21,35300.0
KHB,2010-12-22,35000.0
KHB,2010-12-23,35000.0
KHB,2010-12-24,34600.0
KHB,2010-12-27,34400.0
KHB,2010-12-28,33100.0
KHB,2010-12-29,33700.0
KHB,2010-12-30,33700.0
KHB,2010-12-31,31500.0
KHB,2011-01-04,31200.0
KHB,2011-01-05,30200.0
KHB,2011-01-06,31200.0
KHB,2011-01-07,31100.0
KHB,2011-01-10,29400.0
KHB,2011-01-11,30500.0
KHB,2011-01-12,30800.0
KHB,2011-01-13,30300.0
KHB,2011-01-14,30200.0
KHB,2011-01-17,30400.0
KHB,2011-01-18,29600.0
KHB,2011-01-19,27800.0
KHB,2011-01-20,27800.0
KHB,2011-01-21,27900.0
KHB,2011-01-24,27300.0
KHB,2011-01-25,26400.0
KHB,2011-01-26,27600.0
KHB,2011-01-27,28700.0
KHB,2011-01-28,28300.0
KHB,2011-02-08,27300.0
KHB,2011-02-09,27300.0
KHB,2011-02-10,28000.0
KHB,2011-02-11,27100.0
KHB,2011-02-14,26500.0
KHB,2011-02-15,27800.0
KHB,2011-02-16,25900.0
KHB,2011-02-17,25100.0
KHB,2011-02-18,25600.0
KHB,2011-02-21,23900.0
KHB,2011-02-22,22300.0
KHB,2011-02-23,21300.0
KHB,2011-02-24,19400.0
KHB,2011-02-25,19500.0
KHB,2011-02-28,19800.0
KHB,2011-03-01,19600.0
KHB,2011-03-02,18100.0
KHB,2011-03-03,17400.0
KHB,2011-03-04,17900.0
KHB,2011-03-07,17700.0
KHB,2011-03-08,17600.0
KHB,2011-03-09,17100.0
KHB,2011-03-10,18500.0
KHB,2011-03-11,19000.0
KHB,2011-03-14,19000.0
KHB,2011-03-15,18700.0
KHB,2011-03-16,18400.0
KHB,2011-03-17,18600.0
KHB,2011-03-18,19000.0
KHB,2011-03-21,19000.0
KHB,2011-03-22,18400.0
KHB,2011-03-23,18600.0
KHB,2011-03-24,19700.0
KHB,2011-03-25,19100.0
KHB,2011-03-28,19000.0
KHB,2011-03-29,18500.0
KHB,2011-03-30,17700.0
KHB,2011-03-31,18000.0
KHB,2011-04-01,17700.0
KHB,2011-04-04,17600.0
KHB,2011-04-05,17900.0
KHB,2011-04-06,18700.0
KHB,2011-04-07,18200.0
KHB,2011-04-08,17900.0
KHB,2011-04-13,17100.0
KHB,2011-04-14,17200.0
KHB,2011-04-15,16900.0
KHB,2011-04-18,16000.0
KHB,2011-04-19,16500.0
KHB,2011-04-20,16500.0
KHB,2011-04-21,16000.0
KHB,2011-04-22,16100.0
KHB,2011-04-25,17800.0
KHB,2011-04-26,17700.0
KHB,2011-04-27,17500.0
KHB,2011-04-28,17600.0
KHB,2011-04-29,17300.0
KHB,2011-05-04,17500.0
KHB,2011-05-05,17400.0
KHB,2011-05-06,17300.0
KHB,2011-05-09,17600.0
KHB,2011-05-10,17600.0
KHB,2011-05-11,17400.0
KHB,2011-05-12,17100.0
KHB,2011-05-13,16700.0
KHB,2011-05-16,16800.0
KHB,2011-05-17,16500.0
KHB,2011-05-18,16300.0
KHB,2011-05-19,16500.0
KHB,2011-05-20,15900.0
KHB,2011-05-23,15800.0
KHB,2011-05-24,14100.0
KHB,2011-05-25,13500.0
KHB,2011-05-26,13900.0
KHB,2011-05-27,14300.0
KHB,2011-05-30,13300.0
KHB,2011-05-31,12000.0
KHB,2011-06-01,12900.0
KHB,2011-06-02,13500.0
KHB,2011-06-03,13400.0
KHB,2011-06-06,13600.0
KHB,2011-06-07,13100.0
KHB,2011-06-08,13000.0
KHB,2011-06-09,13400.0
KHB,2011-06-10,14100.0
KHB,2011-06-13,13900.0
KHB,2011-06-14,13300.0
KHB,2011-06-15,13000.0
KHB,2011-06-16,12200.0
KHB,2011-06-17,11800.0
KHB,2011-06-20,11200.0
KHB,2011-06-21,11800.0
KHB,2011-06-22,12200.0
KHB,2011-06-23,11500.0
KHB,2011-06-24,11600.0
KHB,2011-06-27,11200.0
KHB,2011-06-28,11200.0
KHB,2011-06-29,11000.0
KHB,2011-06-30,11100.0
KHB,2011-07-01,10800.0
KHB,2011-07-04,11000.0
KHB,2011-07-05,11300.0
KHB,2011-07-06,11000.0
KHB,2011-07-07,11000.0
KHB,2011-07-08,10800.0
KHB,2011-07-11,10800.0
KHB,2011-07-12,10400.0
KHB,2011-07-13,10500.0
KHB,2011-07-14,10900.0
KHB,2011-07-15,10800.0
KHB,2011-07-18,11000.0
KHB,2011-07-19,11000.0
KHB,2011-07-20,10900.0
KHB,2011-07-21,10900.0
KHB,2011-07-22,10800.0
KHB,2011-07-25,10800.0
KHB,2011-07-26,10600.0
KHB,2011-07-27,11000.0
KHB,2011-07-28,10300.0
KHB,2011-07-29,11100.0
KHB,2011-08-01,11100.0
KHB,2011-08-02,10400.0
KHB,2011-08-03,10600.0
KHB,2011-08-04,10600.0
KHB,2011-08-05,10200.0
KHB,2011-08-08,10400.0
KHB,2011-08-09,10600.0
KHB,2011-08-10,11500.0
KHB,2011-08-11,11600.0
KHB,2011-08-12,11300.0
KHB,2011-08-15,10900.0
KHB,2011-08-16,10500.0
KHB,2011-08-17,11100.0
KHB,2011-08-18,11200.0
KHB,2011-08-19,11400.0
KHB,2011-08-22,11500.0
KHB,2011-08-23,11500.0
KHB,2011-08-24,11000.0
KHB,2011-08-25,11500.0
KHB,2011-08-26,11400.0
KHB,2011-08-29,11200.0
KHB,2011-08-30,11300.0
KHB,2011-08-31,10900.0
KHB,2011-09-01,11500.0
KHB,2011-09-05,12100.0
KHB,2011-09-06,12800.0
KHB,2011-09-07,13200.0
KHB,2011-09-08,13000.0
KHB,2011-09-09,14100.0
KHB,2011-09-12,14400.0
KHB,2011-09-13,13900.0
KHB,2011-09-14,13100.0
KHB,2011-09-15,12700.0
KHB,2011-09-16,12600.0
KHB,2011-09-19,12900.0
KHB,2011-09-20,12700.0
KHB,2011-09-21,13100.0
KHB,2011-09-22,13400.0
KHB,2011-09-23,12600.0
KHB,2011-09-26,12500.0
KHB,2011-09-27,12800.0
KHB,2011-09-28,13300.0
KHB,2011-09-29,13400.0
KHB,2011-09-30,12700.0
KHB,2011-10-03,12400.0
KHB,2011-10-04,11900.0
KHB,2011-10-05,12400.0
KHB,2011-10-06,13000.0
KHB,2011-10-07,12500.0
KHB,2011-10-10,12800.0
KHB,2011-10-11,12800.0
KHB,2011-10-12,12600.0
KHB,2011-10-13,12000.0
KHB,2011-10-14,12000.0
KHB,2011-10-17,12000.0
KHB,2011-10-18,11400.0
KHB,2011-10-19,11400.0
KHB,2011-10-20,11400.0
KHB,2011-10-21,11600.0
KHB,2011-10-24,11400.0
KHB,2011-10-25,11000.0
KHB,2011-10-26,10700.0
KHB,2011-10-27,10600.0
KHB,2011-10-28,11400.0
KHB,2011-10-31,11100.0
KHB,2011-11-01,10900.0
KHB,2011-11-02,10500.0
KHB,2011-11-03,9900.0
KHB,2011-11-04,9400.0
KHB,2011-11-07,9200.0
KHB,2011-11-08,9400.0
KHB,2011-11-09,9300.0
KHB,2011-11-10,9000.0
KHB,2011-11-11,8800.0
KHB,2011-11-14,8200.0
KHB,2011-11-15,8800.0
KHB,2011-11-16,9300.0
KHB,2011-11-17,8900.0
KHB,2011-11-18,9400.0
KHB,2011-11-21,9900.0
KHB,2011-11-22,9600.0
KHB,2011-11-23,9800.0
KHB,2011-11-24,9700.0
KHB,2011-11-25,9500.0
KHB,2011-11-28,9700.0
KHB,2011-11-29,9400.0
KHB,2011-11-30,9200.0
KHB,2011-12-01,9500.0
KHB,2011-12-02,8800.0
KHB,2011-12-05,9200.0
KHB,2011-12-06,9200.0
KHB,2011-12-07,9200.0
KHB,2011-12-08,8500.0
KHB,2011-12-09,8100.0
KHB,2011-12-12,8500.0
KHB,2011-12-13,8300.0
KHB,2011-12-14,7800.0
KHB,2011-12-15,7700.0
KHB,2011-12-16,8000.0
KHB,2011-12-19,7700.0
KHB,2011-12-20,7400.0
KHB,2011-12-21,7400.0
KHB,2011-12-22,7100.0
KHB,2011-12-23,7700.0
KHB,2011-12-26,7100.0
KHB,2011-12-27,7300.0
KHB,2011-12-28,6800.0
KHB,2011-12-29,6400.0
KHB,2011-12-30,6200.0
KHB,2012-01-03,5800.0
KHB,2012-01-04,5400.0
KHB,2012-01-05,5100.0
KHB,2012-01-06,4800.0
KHB,2012-01-09,4600.0
KHB,2012-01-10,4800.0
KHB,2012-01-11,4600.0
KHB,2012-01-12,4500.0
KHB,2012-01-13,4400.0
KHB,2012-01-16,4400.0
KHB,2012-01-17,4300.0
KHB,2012-01-18,4400.0
KHB,2012-01-19,4600.0
KHB,2012-01-20,4900.0
KHB,2012-01-30,5200.0
KHB,2012-01-31,5500.0
KHB,2012-02-01,5300.0
KHB,2012-02-02,5600.0
KHB,2012-02-03,5800.0
KHB,2012-02-06,5500.0
KHB,2012-02-07,5300.0
KHB,2012-02-08,5500.0
KHB,2012-02-09,5600.0
KHB,2012-02-10,5300.0
KHB,2012-02-13,5100.0
KHB,2012-02-14,5100.0
KHB,2012-02-15,5100.0
KHB,2012-02-16,5100.0
KHB,2012-02-17,5400.0
KHB,2012-02-20,5700.0
KHB,2012-02-21,5800.0
KHB,2012-02-22,6300.0
KHB,2012-02-23,6600.0
KHB,2012-02-24,7000.0
KHB,2012-02-27,7400.0
KHB,2012-02-28,7600.0
KHB,2012-02-29,7800.0
KHB,2012-03-01,7500.0
KHB,2012-03-02,7900.0
KHB,2012-03-05,8200.0
KHB,2012-03-06,8000.0
KHB,2012-03-07,7700.0
KHB,2012-03-08,7200.0
KHB,2012-03-09,6800.0
KHB,2012-03-12,6700.0
KHB,2012-03-13,7000.0
KHB,2012-03-14,6900.0
KHB,2012-03-15,7400.0
KHB,2012-03-16,7500.0
KHB,2012-03-19,7200.0
KHB,2012-03-20,7500.0
KHB,2012-03-21,7600.0
KHB,2012-03-22,7600.0
KHB,2012-03-23,8100.0
KHB,2012-03-26,8500.0
KHB,2012-03-27,8100.0
KHB,2012-03-28,8500.0
KHB,2012-03-29,8000.0
KHB,2012-03-30,7500.0
KHB,2012-04-03,8000.0
KHB,2012-04-04,7600.0
KHB,2012-04-05,7700.0
KHB,2012-04-06,7600.0
KHB,2012-04-09,8100.0
KHB,2012-04-10,8000.0
KHB,2012-04-11,8200.0
KHB,2012-04-12,7800.0
KHB,2012-04-13,7800.0
KHB,2012-04-16,8200.0
KHB,2012-04-17,8700.0
KHB,2012-04-18,9300.0
KHB,2012-04-19,9600.0
KHB,2012-04-20,9100.0
KHB,2012-04-23,9100.0
KHB,2012-04-24,9100.0
KHB,2012-04-25,9100.0
KHB,2012-04-26,9100.0
KHB,2012-04-27,8500.0
KHB,2012-05-02,8500.0
KHB,2012-05-03,8500.0
KHB,2012-05-04,8000.0
KHB,2012-05-07,8000.0
KHB,2012-05-08,8000.0
KHB,2012-05-09,8000.0
KHB,2012-05-10,8000.0
KHB,2012-05-11,7500.0
KHB,2012-05-14,7500.0
KHB,2012-05-15,7500.0
KHB,2012-05-16,7500.0
KHB,2012-05-17,7500.0
KHB,2012-05-18,7000.0
KHB,2012-05-21,7000.0
KHB,2012-05-22,7000.0
KHB,2012-05-23,7000.0
KHB,2012-05-24,7000.0
KHB,2012-05-25,6600.0
KHB,2012-05-28,6600.0
KHB,2012-05-29,6600.0
KHB,2012-05-30,6600.0
KHB,2012-05-31,6600.0
KHB,2012-06-01,6200.0
KHB,2012-06-04,6200.0
KHB,2012-06-05,6200.0
KHB,2012-06-06,6200.0
KHB,2012-06-07,6200.0
KHB,2012-06-08,6000.0
KHB,2012-06-11,6000.0
KHB,2012-06-12,6000.0
KHB,2012-06-13,6000.0
KHB,2012-06-14,6000.0
KHB,2012-06-15,5700.0
KHB,2012-06-18,5700.0
KHB,2012-06-19,5700.0
KHB,2012-06-20,5700.0
KHB,2012-06-21,5700.0
KHB,2012-06-22,5400.0
KHB,2012-06-25,5400.0
KHB,2012-06-26,5400.0
KHB,2012-06-27,5400.0
KHB,2012-06-28,5400.0
KHB,2012-06-29,5100.0
KHB,2012-07-02,5100.0
KHB,2012-07-03,5100.0
KHB,2012-07-04,5100.0
KHB,2012-07-05,5100.0
KHB,2012-07-06,4800.0
KHB,2012-07-09,4800.0
KHB,2012-07-10,4800.0
KHB,2012-07-11,4800.0
KHB,2012-07-12,4800.0
KHB,2012-07-13,4500.0
KHB,2012-07-16,4500.0
KHB,2012-07-17,4500.0
KHB,2012-07-18,4500.0
KHB,2012-07-19,4500.0
KHB,2012-07-20,4300.0
KHB,2012-07-23,4300.0
KHB,2012-07-24,4300.0
KHB,2012-07-25,4300.0
KHB,2012-07-26,4300.0
KHB,2012-07-27,4600.0
KHB,2012-07-30,4900.0
KHB,2012-07-31,5200.0
KHB,2012-08-01,5500.0
KHB,2012-08-02,5800.0
KHB,2012-08-03,5600.0
KHB,2012-08-06,5700.0
KHB,2012-08-07,5800.0
KHB,2012-08-08,6000.0
KHB,2012-08-09,5900.0
KHB,2012-08-10,5700.0
KHB,2012-08-13,5400.0
KHB,2012-08-14,5700.0
KHB,2012-08-15,5400.0
KHB,2012-08-16,5600.0
KHB,2012-08-17,5600.0
KHB,2012-08-20,5300.0
KHB,2012-08-21,5100.0
KHB,2012-08-22,4800.0
KHB,2012-08-23,4500.0
KHB,2012-08-24,4200.0
KHB,2012-08-27,4000.0
KHB,2012-08-28,4000.0
KHB,2012-08-29,4200.0
KHB,2012-08-30,4000.0
KHB,2012-08-31,3900.0
KHB,2012-09-04,4100.0
KHB,2012-09-05,3900.0
KHB,2012-09-06,3800.0
KHB,2012-09-07,3600.0
KHB,2012-09-10,3300.0
KHB,2012-09-11,3100.0
KHB,2012-09-12,3000.0
KHB,2012-09-13,3100.0
KHB,2012-09-14,3300.0
KHB,2012-09-17,3500.0
KHB,2012-09-18,3300.0
KHB,2012-09-19,3400.0
KHB,2012-09-20,3100.0
KHB,2012-09-21,3200.0
KHB,2012-09-24,3200.0
KHB,2012-09-25,3100.0
KHB,2012-09-26,3200.0
KHB,2012-09-27,3100.0
KHB,2012-09-28,3000.0
KHB,2012-10-01,2900.0
KHB,2012-10-02,2800.0
KHB,2012-10-03,2900.0
KHB,2012-10-04,3000.0
KHB,2012-10-05,3100.0
KHB,2012-10-08,3100.0
KHB,2012-10-09,3100.0
KHB,2012-10-10,3300.0
KHB,2012-10-11,3400.0
KHB,2012-10-12,3300.0
KHB,2012-10-15,3200.0
KHB,2012-10-16,3400.0
KHB,2012-10-17,3400.0
KHB,2012-10-18,3300.0
KHB,2012-10-19,3200.0
KHB,2012-10-22,3200.0
KHB,2012-10-23,3200.0
KHB,2012-10-24,3100.0
KHB,2012-10-25,3100.0
KHB,2012-10-26,3100.0
KHB,2012-10-29,3100.0
KHB,2012-10-30,3200.0
KHB,2012-10-31,3100.0
KHB,2012-11-01,3000.0
KHB,2012-11-02,2800.0
KHB,2012-11-05,2800.0
KHB,2012-11-06,2800.0
KHB,2012-11-07,2900.0
KHB,2012-11-08,2900.0
KHB,2012-11-09,2900.0
KHB,2012-11-12,3000.0
KHB,2012-11-13,2900.0
KHB,2012-11-14,2900.0
KHB,2012-11-15,2700.0
KHB,2012-11-16,2800.0
KHB,2012-11-19,2700.0
KHB,2012-11-20,2800.0
KHB,2012-11-21,2800.0
KHB,2012-11-22,2800.0
KHB,2012-11-23,2700.0
KHB,2012-11-26,2700.0
KHB,2012-11-27,2800.0
KHB,2012-11-28,2800.0
KHB,2012-11-29,2900.0
KHB,2012-11-30,2800.0
KHB,2012-12-03,2700.0
KHB,2012-12-04,2800.0
KHB,2012-12-05,2900.0
KHB,2012-12-06,3100.0
KHB,2012-12-07,3300.0
KHB,2012-12-10,3500.0
KHB,2012-12-11,3700.0
KHB,2012-12-12,3800.0
KHB,2012-12-13,3700.0
KHB,2012-12-14,3500.0
KHB,2012-12-17,3500.0
KHB,2012-12-18,3700.0
KHB,2012-12-19,3500.0
KHB,2012-12-20,3500.0
KHB,2012-12-21,3600.0
KHB,2012-12-24,3600.0
KHB,2012-12-25,3600.0
KHB,2012-12-26,3700.0
KHB,2012-12-27,3700.0
KHB,2012-12-28,3800.0
KHB,2013-01-02,4000.0
KHB,2013-01-03,3800.0
KHB,2013-01-04,4000.0
KHB,2013-01-07,3900.0
KHB,2013-01-08,3800.0
KHB,2013-01-09,3600.0
KHB,2013-01-10,3700.0
KHB,2013-01-11,3600.0
KHB,2013-01-14,3600.0
KHB,2013-01-15,3900.0
KHB,2013-01-16,4000.0
KHB,2013-01-17,3800.0
KHB,2013-01-18,3700.0
KHB,2013-01-21,3600.0
KHB,2013-01-22,3500.0
KHB,2013-01-23,3400.0
KHB,2013-01-24,3600.0
KHB,2013-01-25,3500.0
KHB,2013-01-28,3500.0
KHB,2013-01-29,3400.0
KHB,2013-01-30,3700.0
KHB,2013-01-31,3800.0
KHB,2013-02-01,3600.0
KHB,2013-02-04,3600.0
KHB,2013-02-05,3500.0
KHB,2013-02-06,3600.0
KHB,2013-02-07,3700.0
KHB,2013-02-08,3800.0
KHB,2013-02-18,3900.0
KHB,2013-02-19,3800.0
KHB,2013-02-20,4000.0
KHB,2013-02-21,4300.0
KHB,2013-02-22,4700.0
KHB,2013-02-25,4400.0
KHB,2013-02-26,4000.0
KHB,2013-02-27,4200.0
KHB,2013-02-28,3900.0
KHB,2013-03-01,4000.0
KHB,2013-03-04,3600.0
KHB,2013-03-05,3600.0
KHB,2013-03-06,3900.0
KHB,2013-03-07,3800.0
KHB,2013-03-08,4000.0
KHB,2013-03-11,4100.0
KHB,2013-03-12,3900.0
KHB,2013-03-13,3700.0
KHB,2013-03-14,4000.0
KHB,2013-03-15,4000.0
KHB,2013-03-18,3700.0
KHB,2013-03-19,3800.0
KHB,2013-03-20,3700.0
KHB,2013-03-21,3800.0
KHB,2013-03-22,3700.0
KHB,2013-03-25,3700.0
KHB,2013-03-26,3700.0
KHB,2013-03-27,3600.0
KHB,2013-03-28,3500.0
KHB,2013-03-29,3400.0
KHB,2013-04-01,3600.0
KHB,2013-04-02,3400.0
KHB,2013-04-03,3600.0
KHB,2013-04-04,3500.0
KHB,2013-04-05,3500.0
KHB,2013-04-08,3400.0
KHB,2013-04-09,3300.0
KHB,2013-04-10,3200.0
KHB,2013-04-11,3300.0
KHB,2013-04-12,3100.0
KHB,2013-04-15,3100.0
KHB,2013-04-16,3000.0
KHB,2013-04-17,2800.0
KHB,2013-04-18,2800.0
KHB,2013-04-22,2800.0
KHB,2013-04-23,2800.0
KHB,2013-04-24,2900.0
KHB,2013-04-25,2700.0
KHB,2013-04-26,2900.0
KHB,2013-05-02,2900.0
KHB,2013-05-03,2900.0
KHB,2013-05-06,3100.0
KHB,2013-05-07,3000.0
KHB,2013-05-08,2900.0
KHB,2013-05-09,3000.0
KHB,2013-05-10,2800.0
KHB,2013-05-13,2900.0
KHB,2013-05-14,2900.0
KHB,2013-05-15,2900.0
KHB,2013-05-16,2800.0
KHB,2013-05-17,2800.0
KHB,2013-05-20,2900.0
KHB,2013-05-21,2900.0
KHB,2013-05-22,2900.0
KHB,2013-05-23,2900.0
KHB,2013-05-24,2900.0
KHB,2013-05-27,3000.0
KHB,2013-05-28,3100.0
KHB,2013-05-29,3100.0
KHB,2013-05-30,3200.0
KHB,2013-05-31,3100.0
KHB,2013-06-03,3100.0
KHB,2013-06-04,3000.0
KHB,2013-06-05,3100.0
KHB,2013-06-06,3200.0
KHB,2013-06-07,3200.0
KHB,2013-06-10,3100.0
KHB,2013-06-11,3200.0
KHB,2013-06-12,3000.0
KHB,2013-06-13,3200.0
KHB,2013-06-14,3100.0
KHB,2013-06-17,3300.0
KHB,2013-06-18,3300.0
KHB,2013-06-19,3200.0
KHB,2013-06-20,3100.0
KHB,2013-06-21,3100.0
KHB,2013-06-24,3000.0
KHB,2013-06-25,2900.0
KHB,2013-06-26,2900.0
KHB,2013-06-27,3000.0
KHB,2013-06-28,2900.0
KHB,2013-07-01,2800.0
KHB,2013-07-02,3000.0
KHB,2013-07-03,2800.0
KHB,2013-07-04,3000.0
KHB,2013-07-05,3000.0
KHB,2013-07-08,3000.0
KHB,2013-07-09,3000.0
KHB,2013-07-10,3000.0
KHB,2013-07-11,2900.0
KHB,2013-07-12,3000.0
KHB,2013-07-15,3000.0
KHB,2013-07-16,3000.0
KHB,2013-07-17,3000.0
KHB,2013-07-18,3000.0
KHB,2013-07-19,3000.0
KHB,2013-07-22,2900.0
KHB,2013-07-23,2900.0
KHB,2013-07-24,2900.0
KHB,2013-07-25,2900.0
KHB,2013-07-26,2900.0
KHB,2013-07-29,2800.0
KHB,2013-07-30,2700.0
KHB,2013-07-31,2700.0
KHB,2013-08-01,2800.0
KHB,2013-08-02,2800.0
KHB,2013-08-05,2800.0
KHB,2013-08-06,2800.0
KHB,2013-08-07,2800.0
KHB,2013-08-08,2800.0
KHB,2013-08-09,2700.0
KHB,2013-08-12,2700.0
KHB,2013-08-13,2700.0
KHB,2013-08-14,2700.0
KHB,2013-08-15,2600.0
KHB,2013-08-16,2600.0
KHB,2013-08-19,2600.0
KHB,2013-08-20,2600.0
KHB,2013-08-21,2500.0
KHB,2013-08-22,2300.0
KHB,2013-08-23,2200.0
KHB,2013-08-26,2400.0
KHB,2013-08-27,2300.0
KHB,2013-08-28,2200.0
KHB,2013-08-29,2100.0
KHB,2013-08-30,2300.0
KHB,2013-09-03,2200.0
KHB,2013-09-04,2400.0
KHB,2013-09-05,2400.0
KHB,2013-09-06,2300.0
KHB,2013-09-09,2200.0
KHB,2013-09-10,2200.0
KHB,2013-09-11,2300.0
KHB,2013-09-12,2300.0
KHB,2013-09-13,2200.0
KHB,2013-09-16,2200.0
KHB,2013-09-17,2000.0
KHB,2013-09-18,2100.0
KHB,2013-09-19,2100.0
KHB,2013-09-20,2100.0
KHB,2013-09-23,2100.0
KHB,2013-09-24,2100.0
KHB,2013-09-25,2100.0
KHB,2013-09-26,2000.0
KHB,2013-09-27,2100.0
KHB,2013-09-30,2200.0
KHB,2013-10-01,2100.0
KHB,2013-10-02,2200.0
KHB,2013-10-03,2100.0
KHB,2013-10-04,2100.0
KHB,2013-10-07,2200.0
KHB,2013-10-08,2200.0
KHB,2013-10-09,2200.0
KHB,2013-10-10,2100.0
KHB,2013-10-11,2100.0
KHB,2013-10-14,2100.0
KHB,2013-10-15,2000.0
KHB,2013-10-16,2200.0
KHB,2013-10-17,2200.0
KHB,2013-10-18,2200.0
KHB,2013-10-21,2300.0
KHB,2013-10-22,2200.0
KHB,2013-10-23,2300.0
KHB,2013-10-24,2300.0
KHB,2013-10-25,2300.0
KHB,2013-10-28,2500.0
KHB,2013-10-29,2500.0
KHB,2013-10-30,2500.0
KHB,2013-10-31,2500.0
KHB,2013-11-01,2500.0
KHB,2013-11-04,2600.0
KHB,2013-11-05,2700.0
KHB,2013-11-06,2700.0
KHB,2013-11-07,2900.0
KHB,2013-11-08,2800.0
KHB,2013-11-11,2800.0
KHB,2013-11-12,2700.0
KHB,2013-11-13,2500.0
KHB,2013-11-14,2700.0
KHB,2013-11-15,2700.0
KHB,2013-11-18,2800.0
KHB,2013-11-19,2900.0
KHB,2013-11-20,3100.0
KHB,2013-11-21,3200.0
KHB,2013-11-22,3200.0
KHB,2013-11-25,3200.0
KHB,2013-11-26,3500.0
KHB,2013-11-27,3800.0
KHB,2013-11-28,4100.0
KHB,2013-11-29,3700.0
KHB,2013-12-02,3600.0
KHB,2013-12-03,3600.0
KHB,2013-12-04,3600.0
KHB,2013-12-05,3600.0
KHB,2013-12-06,3600.0
KHB,2013-12-09,3500.0
KHB,2013-12-10,3300.0
KHB,2013-12-11,3000.0
KHB,2013-12-12,3100.0
KHB,2013-12-13,3200.0
KHB,2013-12-16,3300.0
KHB,2013-12-17,3200.0
KHB,2013-12-18,3200.0
KHB,2013-12-19,3200.0
KHB,2013-12-20,3200.0
KHB,2013-12-23,3400.0
KHB,2013-12-24,3200.0
KHB,2013-12-25,3300.0
KHB,2013-12-26,3300.0
KHB,2013-12-27,3300.0
KHB,2013-12-30,3200.0
KHB,2013-12-31,3100.0
KHB,2014-01-02,3200.0
KHB,2014-01-03,3200.0
KHB,2014-01-06,3200.0
KHB,2014-01-07,3100.0
KHB,2014-01-08,3000.0
KHB,2014-01-09,3300.0
KHB,2014-01-10,3400.0
KHB,2014-01-13,3300.0
KHB,2014-01-14,3100.0
KHB,2014-01-15,3200.0
KHB,2014-01-16,3200.0
KHB,2014-01-17,3200.0
KHB,2014-01-20,3000.0
KHB,2014-01-21,3000.0
KHB,2014-01-22,2900.0
KHB,2014-01-23,3000.0
KHB,2014-01-24,3000.0
KHB,2014-01-27,3000.0
KHB,2014-02-06,3200.0
KHB,2014-02-07,3000.0
KHB,2014-02-10,3200.0
KHB,2014-02-11,3200.0
KHB,2014-02-12,3100.0
KHB,2014-02-13,3200.0
KHB,2014-02-14,3400.0
KHB,2014-02-17,3200.0
KHB,2014-02-18,3300.0
KHB,2014-02-19,3400.0
KHB,2014-02-20,3200.0
KHB,2014-02-21,3200.0
KHB,2014-02-24,3300.0
KHB,2014-02-25,3300.0
KHB,2014-02-26,3300.0
KHB,2014-02-27,3400.0
KHB,2014-02-28,3600.0
KHB,2014-03-03,3300.0
KHB,2014-03-04,3300.0
KHB,2014-03-05,3400.0
KHB,2014-03-06,3300.0
KHB,2014-03-07,3500.0
KHB,2014-03-10,3800.0
KHB,2014-03-11,3700.0
KHB,2014-03-12,3700.0
KHB,2014-03-13,3600.0
KHB,2014-03-14,3800.0
KHB,2014-03-17,4100.0
KHB,2014-03-18,4500.0
KHB,2014-03-19,4900.0
KHB,2014-03-20,5300.0
KHB,2014-03-21,5800.0
KHB,2014-03-24,6100.0
KHB,2014-03-25,5700.0
KHB,2014-03-26,5200.0
KHB,2014-03-27,5000.0
KHB,2014-03-28,5100.0
KHB,2014-03-31,4800.0
KHB,2014-04-01,4400.0
KHB,2014-04-02,4000.0
KHB,2014-04-03,4400.0
KHB,2014-04-04,4700.0
KHB,2014-04-07,4700.0
KHB,2014-04-08,4700.0
KHB,2014-04-10,4500.0
KHB,2014-04-11,4300.0
KHB,2014-04-14,4100.0
KHB,2014-04-15,4100.0
KHB,2014-04-16,3900.0
KHB,2014-04-17,4100.0
KHB,2014-04-18,3700.0
KHB,2014-04-21,3600.0
KHB,2014-04-22,3900.0
KHB,2014-04-23,4100.0
KHB,2014-04-24,4000.0
KHB,2014-04-25,3900.0
KHB,2014-04-28,3900.0
KHB,2014-04-29,3900.0
KHB,2014-05-05,3600.0
KHB,2014-05-06,3300.0
KHB,2014-05-07,3200.0
KHB,2014-05-08,2900.0
KHB,2014-05-09,3100.0
KHB,2014-05-12,2800.0
KHB,2014-05-13,2800.0
KHB,2014-05-14,3000.0
KHB,2014-05-15,3000.0
KHB,2014-05-16,3100.0
KHB,2014-05-19,3300.0
KHB,2014-05-20,3600.0
KHB,2014-05-21,3800.0
