L18,2008-04-23,10100.0
L18,2008-04-24,10000.0
L18,2008-04-25,9700.0
L18,2008-04-28,9500.0
L18,2008-04-29,9200.0
L18,2008-05-05,9100.0
L18,2008-05-06,8900.0
L18,2008-05-07,8600.0
L18,2008-05-08,8400.0
L18,2008-05-09,8100.0
L18,2008-05-12,7900.0
L18,2008-05-13,7700.0
L18,2008-05-14,7500.0
L18,2008-05-15,7300.0
L18,2008-05-16,7100.0
L18,2008-05-19,6900.0
L18,2008-05-20,6700.0
L18,2008-05-21,6500.0
L18,2008-05-22,6400.0
L18,2008-05-23,6200.0
L18,2008-05-26,6100.0
L18,2008-05-27,5900.0
L18,2008-05-28,5800.0
L18,2008-05-29,5700.0
L18,2008-05-30,5800.0
L18,2008-06-02,5900.0
L18,2008-06-03,5900.0
L18,2008-06-04,5700.0
L18,2008-06-05,5600.0
L18,2008-06-06,5400.0
L18,2008-06-09,5300.0
L18,2008-06-10,5600.0
L18,2008-06-11,5600.0
L18,2008-06-12,5800.0
L18,2008-06-13,5900.0
L18,2008-06-16,6100.0
L18,2008-06-17,6200.0
L18,2008-06-18,6100.0
L18,2008-06-19,6000.0
L18,2008-06-20,5800.0
L18,2008-06-23,6000.0
L18,2008-06-24,6000.0
L18,2008-06-25,6000.0
L18,2008-06-26,6200.0
L18,2008-06-27,6200.0
L18,2008-06-30,6200.0
L18,2008-07-01,6300.0
L18,2008-07-02,6600.0
L18,2008-07-03,6800.0
L18,2008-07-04,7000.0
L18,2008-07-07,6800.0
L18,2008-07-08,6900.0
L18,2008-07-09,6800.0
L18,2008-07-10,7100.0
L18,2008-07-11,7300.0
L18,2008-07-14,7500.0
L18,2008-07-15,7700.0
L18,2008-07-16,8000.0
L18,2008-07-17,8200.0
L18,2008-07-18,7900.0
L18,2008-07-21,7800.0
L18,2008-07-22,7500.0
L18,2008-07-23,7200.0
L18,2008-07-24,6900.0
L18,2008-07-25,6700.0
L18,2008-07-28,6400.0
L18,2008-07-29,6200.0
L18,2008-07-30,6300.0
L18,2008-07-31,6100.0
L18,2008-08-01,5900.0
L18,2008-08-04,5800.0
L18,2008-08-05,5600.0
L18,2008-08-06,5800.0
L18,2008-08-07,5900.0
L18,2008-08-08,6100.0
L18,2008-08-11,6300.0
L18,2008-08-12,6500.0
L18,2008-08-13,6300.0
L18,2008-08-14,6500.0
L18,2008-08-15,6600.0
L18,2008-08-18,6600.0
L18,2008-08-19,6200.0
L18,2008-08-20,6000.0
L18,2008-08-21,6400.0
L18,2008-08-22,6300.0
L18,2008-08-25,6900.0
L18,2008-08-26,7300.0
L18,2008-08-27,7500.0
L18,2008-08-28,7200.0
L18,2008-08-29,7900.0
L18,2008-09-03,7900.0
L18,2008-09-04,8400.0
L18,2008-09-05,9000.0
L18,2008-09-08,9600.0
L18,2008-09-09,10000.0
L18,2008-09-10,9300.0
L18,2008-09-11,8900.0
L18,2008-09-12,8300.0
L18,2008-09-15,7800.0
L18,2008-09-16,7400.0
L18,2008-09-17,7000.0
L18,2008-09-18,6500.0
L18,2008-09-19,7000.0
L18,2008-09-22,7200.0
L18,2008-09-23,7200.0
L18,2008-09-24,6800.0
L18,2008-09-25,6800.0
L18,2008-09-26,7400.0
L18,2008-09-29,7000.0
L18,2008-09-30,7000.0
L18,2008-10-01,7000.0
L18,2008-10-02,7300.0
L18,2008-10-03,7200.0
L18,2008-10-06,6800.0
L18,2008-10-07,6300.0
L18,2008-10-08,6400.0
L18,2008-10-09,6500.0
L18,2008-10-10,6100.0
L18,2008-10-13,6100.0
L18,2008-10-14,6300.0
L18,2008-10-15,6500.0
L18,2008-10-16,6200.0
L18,2008-10-17,6300.0
L18,2008-10-20,6400.0
L18,2008-10-21,6500.0
L18,2008-10-22,6000.0
L18,2008-10-23,5900.0
L18,2008-10-24,5700.0
L18,2008-10-27,5400.0
L18,2008-10-28,5400.0
L18,2008-10-29,5600.0
L18,2008-10-30,5900.0
L18,2008-10-31,5800.0
L18,2008-11-03,5400.0
L18,2008-11-04,5800.0
L18,2008-11-05,6200.0
L18,2008-11-06,6200.0
L18,2008-11-07,5800.0
L18,2008-11-10,5700.0
L18,2008-11-11,5600.0
L18,2008-11-12,5500.0
L18,2008-11-13,5600.0
L18,2008-11-14,5700.0
L18,2008-11-17,5500.0
L18,2008-11-18,5800.0
L18,2008-11-19,5300.0
L18,2008-11-20,5400.0
L18,2008-11-21,5300.0
L18,2008-11-24,5100.0
L18,2008-11-25,5300.0
L18,2008-11-26,5300.0
L18,2008-11-27,5100.0
L18,2008-11-28,5400.0
L18,2008-12-01,5200.0
L18,2008-12-02,5100.0
L18,2008-12-03,5100.0
L18,2008-12-04,4900.0
L18,2008-12-05,5200.0
L18,2008-12-08,5000.0
L18,2008-12-09,4800.0
L18,2008-12-10,4600.0
L18,2008-12-11,4500.0
L18,2008-12-12,4700.0
L18,2008-12-15,4900.0
L18,2008-12-16,4800.0
L18,2008-12-17,5100.0
L18,2008-12-18,4900.0
L18,2008-12-19,4700.0
L18,2008-12-22,5000.0
L18,2008-12-23,5000.0
L18,2008-12-24,5000.0
L18,2008-12-25,5100.0
L18,2008-12-26,5200.0
L18,2008-12-29,5200.0
L18,2008-12-30,5300.0
L18,2008-12-31,5400.0
L18,2009-01-02,5500.0
L18,2009-01-05,5500.0
L18,2009-01-06,5500.0
L18,2009-01-07,5700.0
L18,2009-01-08,5300.0
L18,2009-01-09,5700.0
L18,2009-01-12,5500.0
L18,2009-01-13,5600.0
L18,2009-01-14,5300.0
L18,2009-01-15,5300.0
L18,2009-01-16,5100.0
L18,2009-01-19,5000.0
L18,2009-01-20,5000.0
L18,2009-01-21,5300.0
L18,2009-01-22,5600.0
L18,2009-01-23,5400.0
L18,2009-02-02,5300.0
L18,2009-02-03,5300.0
L18,2009-02-04,5000.0
L18,2009-02-05,5000.0
L18,2009-02-06,5300.0
L18,2009-02-09,5300.0
L18,2009-02-10,5200.0
L18,2009-02-11,5200.0
L18,2009-02-12,5200.0
L18,2009-02-13,5300.0
L18,2009-02-16,5500.0
L18,2009-02-17,5700.0
L18,2009-02-18,6100.0
L18,2009-02-19,6100.0
L18,2009-02-20,6000.0
L18,2009-02-23,5900.0
L18,2009-02-24,5900.0
L18,2009-02-25,5900.0
L18,2009-02-26,5800.0
L18,2009-02-27,6000.0
L18,2009-03-02,6100.0
L18,2009-03-03,5700.0
L18,2009-03-04,5800.0
L18,2009-03-05,5900.0
L18,2009-03-06,5600.0
L18,2009-03-09,5600.0
L18,2009-03-10,5800.0
L18,2009-03-11,5800.0
L18,2009-03-12,5400.0
L18,2009-03-13,5800.0
L18,2009-03-16,5700.0
L18,2009-03-17,5700.0
L18,2009-03-18,5900.0
L18,2009-03-19,5900.0
L18,2009-03-20,5800.0
L18,2009-03-23,5800.0
L18,2009-03-24,6200.0
L18,2009-03-25,6200.0
L18,2009-03-26,6300.0
L18,2009-03-27,6300.0
L18,2009-03-30,6300.0
L18,2009-03-31,6000.0
L18,2009-04-01,6200.0
L18,2009-04-02,6200.0
L18,2009-04-03,6500.0
L18,2009-04-07,6800.0
L18,2009-04-08,6500.0
L18,2009-04-09,6900.0
L18,2009-04-10,7300.0
L18,2009-04-13,7700.0
L18,2009-04-14,8100.0
L18,2009-04-15,7700.0
L18,2009-04-16,7600.0
L18,2009-04-17,7100.0
L18,2009-04-20,6700.0
L18,2009-04-21,6500.0
L18,2009-04-22,6700.0
L18,2009-04-23,6500.0
L18,2009-04-24,6500.0
L18,2009-04-27,6600.0
L18,2009-04-28,6600.0
L18,2009-04-29,6600.0
L18,2009-05-04,7000.0
L18,2009-05-05,7200.0
L18,2009-05-06,6900.0
L18,2009-05-07,7000.0
L18,2009-05-08,6800.0
L18,2009-05-11,6700.0
L18,2009-05-12,7000.0
L18,2009-05-13,7000.0
L18,2009-05-14,7000.0
L18,2009-05-15,7600.0
L18,2009-05-18,7700.0
L18,2009-05-19,8100.0
L18,2009-05-20,8600.0
L18,2009-05-21,9200.0
L18,2009-05-22,9300.0
L18,2009-05-25,9900.0
L18,2009-05-26,10500.0
L18,2009-05-27,11100.0
L18,2009-05-28,10300.0
L18,2009-05-29,10600.0
L18,2009-06-01,11000.0
L18,2009-06-02,10800.0
L18,2009-06-03,10400.0
L18,2009-06-04,11200.0
L18,2009-06-05,11600.0
L18,2009-06-08,12500.0
L18,2009-06-09,13100.0
L18,2009-06-10,13000.0
L18,2009-06-11,13000.0
L18,2009-06-12,12300.0
L18,2009-06-15,11500.0
L18,2009-06-16,11000.0
L18,2009-06-17,11600.0
L18,2009-06-18,12200.0
L18,2009-06-19,13000.0
L18,2009-06-22,12100.0
L18,2009-06-23,11300.0
L18,2009-06-24,12100.0
L18,2009-06-25,11200.0
L18,2009-06-26,11500.0
L18,2009-06-29,11000.0
L18,2009-06-30,10700.0
L18,2009-07-01,10100.0
L18,2009-07-02,10500.0
L18,2009-07-03,10400.0
L18,2009-07-06,10900.0
L18,2009-07-07,10400.0
L18,2009-07-08,10400.0
L18,2009-07-09,10400.0
L18,2009-07-10,10400.0
L18,2009-07-13,10600.0
L18,2009-07-14,10000.0
L18,2009-07-15,10300.0
L18,2009-07-16,10400.0
L18,2009-07-17,10200.0
L18,2009-07-20,9500.0
L18,2009-07-21,9700.0
L18,2009-07-22,9700.0
L18,2009-07-23,10100.0
L18,2009-07-24,10700.0
L18,2009-07-27,10700.0
L18,2009-07-28,10200.0
L18,2009-07-29,10200.0
L18,2009-07-30,9700.0
L18,2009-07-31,10000.0
L18,2009-08-03,9800.0
L18,2009-08-04,10500.0
L18,2009-08-05,11200.0
L18,2009-08-06,11900.0
L18,2009-08-07,11500.0
L18,2009-08-10,11000.0
L18,2009-08-11,11000.0
L18,2009-08-12,10800.0
L18,2009-08-13,10700.0
L18,2009-08-14,10800.0
L18,2009-08-17,10700.0
L18,2009-08-18,10700.0
L18,2009-08-19,11000.0
L18,2009-08-20,10700.0
L18,2009-08-21,10700.0
L18,2009-08-24,10700.0
L18,2009-08-25,10700.0
L18,2009-08-26,10900.0
L18,2009-08-27,11400.0
L18,2009-08-28,11900.0
L18,2009-08-31,12500.0
L18,2009-09-01,13300.0
L18,2009-09-03,13600.0
L18,2009-09-04,12700.0
L18,2009-09-07,12300.0
L18,2009-09-08,12900.0
L18,2009-09-09,12400.0
L18,2009-09-10,13100.0
L18,2009-09-11,12800.0
L18,2009-09-14,13900.0
L18,2009-09-15,14400.0
L18,2009-09-16,15300.0
L18,2009-09-17,16400.0
L18,2009-09-18,16600.0
L18,2009-09-21,16100.0
L18,2009-09-22,17200.0
L18,2009-09-23,17300.0
L18,2009-09-24,17200.0
L18,2009-09-25,17300.0
L18,2009-09-28,16700.0
L18,2009-09-29,16400.0
L18,2009-09-30,16400.0
L18,2009-10-01,16400.0
L18,2009-10-02,16100.0
L18,2009-10-05,16400.0
L18,2009-10-06,17300.0
L18,2009-10-07,18300.0
L18,2009-10-08,19600.0
L18,2009-10-09,20700.0
L18,2009-10-12,22100.0
L18,2009-10-13,21600.0
L18,2009-10-14,21300.0
L18,2009-10-15,23300.0
L18,2009-10-16,21600.0
L18,2009-10-19,21600.0
L18,2009-10-20,22600.0
L18,2009-10-21,23600.0
L18,2009-10-22,21300.0
L18,2009-10-23,20000.0
L18,2009-10-26,18900.0
L18,2009-10-27,18700.0
L18,2009-10-28,18900.0
L18,2009-10-29,17600.0
L18,2009-10-30,18900.0
L18,2009-11-02,17500.0
L18,2009-11-03,16300.0
L18,2009-11-04,17200.0
L18,2009-11-05,17900.0
L18,2009-11-06,18500.0
L18,2009-11-09,18700.0
L18,2009-11-10,18500.0
L18,2009-11-11,19000.0
L18,2009-11-12,20100.0
L18,2009-11-13,20500.0
L18,2009-11-16,21500.0
L18,2009-11-17,20800.0
L18,2009-11-18,21000.0
L18,2009-11-19,21100.0
L18,2009-11-20,20800.0
L18,2009-11-23,19300.0
L18,2009-11-24,18700.0
L18,2009-11-25,17400.0
L18,2009-11-26,16300.0
L18,2009-11-27,16600.0
L18,2009-11-30,17400.0
L18,2009-12-01,18200.0
L18,2009-12-02,17000.0
L18,2009-12-03,17100.0
L18,2009-12-04,16900.0
L18,2009-12-07,17000.0
L18,2009-12-08,16300.0
L18,2009-12-09,15600.0
L18,2009-12-10,15600.0
L18,2009-12-11,14500.0
L18,2009-12-14,15500.0
L18,2009-12-15,15600.0
L18,2009-12-16,14700.0
L18,2009-12-17,13800.0
L18,2009-12-18,14700.0
L18,2009-12-21,15700.0
L18,2009-12-22,16400.0
L18,2009-12-23,15800.0
L18,2009-12-24,17000.0
L18,2009-12-25,17400.0
L18,2009-12-28,17900.0
L18,2009-12-29,16700.0
L18,2009-12-30,16600.0
L18,2009-12-31,16700.0
L18,2010-01-04,18200.0
L18,2010-01-05,18100.0
L18,2010-01-06,17400.0
L18,2010-01-07,17000.0
L18,2010-01-08,16400.0
L18,2010-01-11,15800.0
L18,2010-01-12,15900.0
L18,2010-01-13,16700.0
L18,2010-01-14,16500.0
L18,2010-01-15,16100.0
L18,2010-01-18,15200.0
L18,2010-01-19,15900.0
L18,2010-01-20,15900.0
L18,2010-01-21,14900.0
L18,2010-01-22,15600.0
L18,2010-01-25,14900.0
L18,2010-01-26,15900.0
L18,2010-01-27,14800.0
L18,2010-01-28,15300.0
L18,2010-01-29,15500.0
L18,2010-02-01,15300.0
L18,2010-02-02,14400.0
L18,2010-02-03,14500.0
L18,2010-02-04,15500.0
L18,2010-02-05,15600.0
L18,2010-02-08,15500.0
L18,2010-02-09,15000.0
L18,2010-02-10,15900.0
L18,2010-02-11,15600.0
L18,2010-02-12,16600.0
L18,2010-02-22,16300.0
L18,2010-02-23,15600.0
L18,2010-02-24,16400.0
L18,2010-02-25,16700.0
L18,2010-02-26,16500.0
L18,2010-03-01,15900.0
L18,2010-03-02,15900.0
L18,2010-03-03,16500.0
L18,2010-03-04,16800.0
L18,2010-03-05,16800.0
L18,2010-03-08,17500.0
L18,2010-03-09,18000.0
L18,2010-03-10,17900.0
L18,2010-03-11,17200.0
L18,2010-03-12,17200.0
L18,2010-03-15,17300.0
L18,2010-03-16,16600.0
L18,2010-03-17,15900.0
L18,2010-03-18,16500.0
L18,2010-03-19,16100.0
L18,2010-03-22,17200.0
L18,2010-03-23,17200.0
L18,2010-03-24,16400.0
L18,2010-03-25,16400.0
L18,2010-03-26,16000.0
L18,2010-03-29,15800.0
L18,2010-03-30,15700.0
L18,2010-03-31,15500.0
L18,2010-04-01,15900.0
L18,2010-04-02,16200.0
L18,2010-04-05,17100.0
L18,2010-04-06,16500.0
L18,2010-04-07,16600.0
L18,2010-04-08,17700.0
L18,2010-04-09,18200.0
L18,2010-04-12,19300.0
L18,2010-04-13,18000.0
L18,2010-04-14,18800.0
L18,2010-04-15,18600.0
L18,2010-04-16,19900.0
L18,2010-04-19,20800.0
L18,2010-04-20,21600.0
L18,2010-04-21,23100.0
L18,2010-04-22,22100.0
L18,2010-04-26,21900.0
L18,2010-04-27,21100.0
L18,2010-04-28,21200.0
L18,2010-04-29,21100.0
L18,2010-05-04,22300.0
L18,2010-05-05,23200.0
L18,2010-05-06,23300.0
L18,2010-05-07,23200.0
L18,2010-05-10,23200.0
L18,2010-05-11,22300.0
L18,2010-05-12,22000.0
L18,2010-05-13,20500.0
L18,2010-05-14,20500.0
L18,2010-05-17,21400.0
L18,2010-05-18,21600.0
L18,2010-05-19,20400.0
L18,2010-05-20,19900.0
L18,2010-05-21,18600.0
L18,2010-05-24,19200.0
L18,2010-05-25,17700.0
L18,2010-05-26,18900.0
L18,2010-05-27,19400.0
L18,2010-05-28,20800.0
L18,2010-05-31,19600.0
L18,2010-06-01,19100.0
L18,2010-06-02,19100.0
L18,2010-06-03,19600.0
L18,2010-06-04,19800.0
L18,2010-06-07,18500.0
L18,2010-06-08,18900.0
L18,2010-06-09,18800.0
L18,2010-06-10,19300.0
L18,2010-06-11,20300.0
L18,2010-06-14,20800.0
L18,2010-06-15,20500.0
L18,2010-06-16,20800.0
L18,2010-06-17,20200.0
L18,2010-06-18,20500.0
L18,2010-06-21,20900.0
L18,2010-06-22,20300.0
L18,2010-06-23,21800.0
L18,2010-06-24,23000.0
L18,2010-06-25,22200.0
L18,2010-06-28,22900.0
L18,2010-06-29,22200.0
L18,2010-06-30,21500.0
L18,2010-07-01,21500.0
L18,2010-07-02,21900.0
L18,2010-07-05,21600.0
L18,2010-07-06,21300.0
L18,2010-07-07,21300.0
L18,2010-07-08,21600.0
L18,2010-07-09,21400.0
L18,2010-07-12,21400.0
L18,2010-07-13,21600.0
L18,2010-07-14,21600.0
L18,2010-07-15,21400.0
L18,2010-07-16,21200.0
L18,2010-07-19,22100.0
L18,2010-07-20,22300.0
L18,2010-07-21,21900.0
L18,2010-07-22,22400.0
L18,2010-07-23,22900.0
L18,2010-07-26,21900.0
L18,2010-07-27,22300.0
L18,2010-07-28,21900.0
L18,2010-07-29,22200.0
L18,2010-07-30,23100.0
L18,2010-08-02,22200.0
L18,2010-08-03,21500.0
L18,2010-08-04,21200.0
L18,2010-08-05,22500.0
L18,2010-08-06,22600.0
L18,2010-08-09,21900.0
L18,2010-08-10,21500.0
L18,2010-08-11,22500.0
L18,2010-08-12,20900.0
L18,2010-08-13,22200.0
L18,2010-08-16,22900.0
L18,2010-08-17,22500.0
L18,2010-08-18,21200.0
L18,2010-08-19,20800.0
L18,2010-08-20,22200.0
L18,2010-08-23,21600.0
L18,2010-08-24,21200.0
L18,2010-08-25,22200.0
L18,2010-08-26,20700.0
L18,2010-08-27,21200.0
L18,2010-08-30,21800.0
L18,2010-08-31,21500.0
L18,2010-09-01,22100.0
L18,2010-09-06,22300.0
L18,2010-09-07,22200.0
L18,2010-09-08,21900.0
L18,2010-09-09,22900.0
L18,2010-09-10,22200.0
L18,2010-09-13,21300.0
L18,2010-09-14,22300.0
L18,2010-09-15,21700.0
L18,2010-09-16,22500.0
L18,2010-09-17,23100.0
L18,2010-09-20,22900.0
L18,2010-09-21,22100.0
L18,2010-09-22,21900.0
L18,2010-09-23,21200.0
L18,2010-09-24,21900.0
L18,2010-09-27,21000.0
L18,2010-09-28,22100.0
L18,2010-09-29,20900.0
L18,2010-09-30,21400.0
L18,2010-10-01,21600.0
L18,2010-10-04,20800.0
L18,2010-10-05,20100.0
L18,2010-10-06,20500.0
L18,2010-10-07,20100.0
L18,2010-10-08,20400.0
L18,2010-10-11,19800.0
L18,2010-10-12,20300.0
L18,2010-10-13,20400.0
L18,2010-10-14,20000.0
L18,2010-10-15,19000.0
L18,2010-10-18,21100.0
L18,2010-10-19,20000.0
L18,2010-10-20,19700.0
L18,2010-10-21,18600.0
L18,2010-10-22,17800.0
L18,2010-10-25,17700.0
L18,2010-10-26,17300.0
L18,2010-10-27,16200.0
L18,2010-10-28,16600.0
L18,2010-10-29,16800.0
L18,2010-11-01,16600.0
L18,2010-11-02,16600.0
L18,2010-11-03,15500.0
L18,2010-11-04,16000.0
L18,2010-11-05,16400.0
L18,2010-11-08,16600.0
L18,2010-11-09,15800.0
L18,2010-11-10,15900.0
L18,2010-11-11,15300.0
L18,2010-11-12,15300.0
L18,2010-11-15,14500.0
L18,2010-11-16,14800.0
L18,2010-11-17,13900.0
L18,2010-11-18,15500.0
L18,2010-11-19,15500.0
L18,2010-11-22,14900.0
L18,2010-11-23,15100.0
L18,2010-11-24,15300.0
L18,2010-11-25,16300.0
L18,2010-11-26,16200.0
L18,2010-11-29,16900.0
L18,2010-11-30,17700.0
L18,2010-12-01,16600.0
L18,2010-12-02,18200.0
L18,2010-12-03,18900.0
L18,2010-12-06,18400.0
L18,2010-12-07,18200.0
L18,2010-12-08,17500.0
L18,2010-12-09,19400.0
L18,2010-12-10,19900.0
L18,2010-12-13,21100.0
L18,2010-12-14,19600.0
L18,2010-12-15,19800.0
L18,2010-12-16,19200.0
L18,2010-12-17,19300.0
L18,2010-12-20,18200.0
L18,2010-12-21,18000.0
L18,2010-12-22,18200.0
L18,2010-12-23,17900.0
L18,2010-12-24,18900.0
L18,2010-12-27,19400.0
L18,2010-12-28,18500.0
L18,2010-12-29,19800.0
L18,2010-12-30,18500.0
L18,2010-12-31,17900.0
L18,2011-01-04,18200.0
L18,2011-01-05,18500.0
L18,2011-01-06,18000.0
L18,2011-01-07,17700.0
L18,2011-01-10,18500.0
L18,2011-01-11,18100.0
L18,2011-01-12,18200.0
L18,2011-01-13,17400.0
L18,2011-01-14,17700.0
L18,2011-01-17,17700.0
L18,2011-01-18,17700.0
L18,2011-01-19,17300.0
L18,2011-01-20,17900.0
L18,2011-01-21,17400.0
L18,2011-01-24,18000.0
L18,2011-01-25,16900.0
L18,2011-01-26,17600.0
L18,2011-01-27,17300.0
L18,2011-01-28,18200.0
L18,2011-02-08,19100.0
L18,2011-02-09,18400.0
L18,2011-02-10,19300.0
L18,2011-02-11,18900.0
L18,2011-02-14,18400.0
L18,2011-02-15,18400.0
L18,2011-02-16,18700.0
L18,2011-02-17,19900.0
L18,2011-02-18,18400.0
L18,2011-02-21,18700.0
L18,2011-02-22,17500.0
L18,2011-02-23,17300.0
L18,2011-02-24,16700.0
L18,2011-02-25,16300.0
L18,2011-02-28,16300.0
L18,2011-03-01,16600.0
L18,2011-03-02,15500.0
L18,2011-03-03,14900.0
L18,2011-03-04,13900.0
L18,2011-03-07,13500.0
L18,2011-03-08,13300.0
L18,2011-03-09,13400.0
L18,2011-03-10,13900.0
L18,2011-03-11,14800.0
L18,2011-03-14,13700.0
L18,2011-03-15,13700.0
L18,2011-03-16,14000.0
L18,2011-03-17,13700.0
L18,2011-03-18,14400.0
L18,2011-03-21,15300.0
L18,2011-03-22,16300.0
L18,2011-03-23,17400.0
L18,2011-03-24,18500.0
L18,2011-03-25,19300.0
L18,2011-03-28,18400.0
L18,2011-03-29,17000.0
L18,2011-03-30,18200.0
L18,2011-03-31,16200.0
L18,2011-04-01,16800.0
L18,2011-04-04,16900.0
L18,2011-04-05,16000.0
L18,2011-04-06,16700.0
L18,2011-04-07,16500.0
L18,2011-04-08,15800.0
L18,2011-04-13,15500.0
L18,2011-04-14,15500.0
L18,2011-04-15,15200.0
L18,2011-04-18,14500.0
L18,2011-04-19,16100.0
L18,2011-04-20,15200.0
L18,2011-04-21,14900.0
L18,2011-04-22,15100.0
L18,2011-04-25,15200.0
L18,2011-04-26,14500.0
L18,2011-04-27,13900.0
L18,2011-04-28,13500.0
L18,2011-04-29,14400.0
L18,2011-05-04,14000.0
L18,2011-05-05,14700.0
L18,2011-05-06,15100.0
L18,2011-05-09,14400.0
L18,2011-05-10,14000.0
L18,2011-05-11,13500.0
L18,2011-05-12,13200.0
L18,2011-05-13,13400.0
L18,2011-05-16,13500.0
L18,2011-05-17,13300.0
L18,2011-05-18,12900.0
L18,2011-05-19,12300.0
L18,2011-05-20,13200.0
L18,2011-05-23,13100.0
L18,2011-05-24,12200.0
L18,2011-05-25,12100.0
L18,2011-05-26,12400.0
L18,2011-05-27,12700.0
L18,2011-05-30,12800.0
L18,2011-05-31,11200.0
L18,2011-06-01,11800.0
L18,2011-06-02,12200.0
L18,2011-06-03,11300.0
L18,2011-06-06,11600.0
L18,2011-06-07,11400.0
L18,2011-06-08,11900.0
L18,2011-06-09,11800.0
L18,2011-06-10,12300.0
L18,2011-06-13,12900.0
L18,2011-06-14,13400.0
L18,2011-06-15,12800.0
L18,2011-06-16,13000.0
L18,2011-06-17,12300.0
L18,2011-06-20,11900.0
L18,2011-06-21,12100.0
L18,2011-06-22,11200.0
L18,2011-06-23,10900.0
L18,2011-06-24,11600.0
L18,2011-06-27,11700.0
L18,2011-06-28,11200.0
L18,2011-06-29,10900.0
L18,2011-06-30,10700.0
L18,2011-07-01,10800.0
L18,2011-07-04,10700.0
L18,2011-07-05,10100.0
L18,2011-07-06,9600.0
L18,2011-07-07,9100.0
L18,2011-07-08,9600.0
L18,2011-07-11,9500.0
L18,2011-07-12,8900.0
L18,2011-07-13,8300.0
L18,2011-07-14,8200.0
L18,2011-07-15,8600.0
L18,2011-07-18,8100.0
L18,2011-07-19,8300.0
L18,2011-07-20,8400.0
L18,2011-07-21,8000.0
L18,2011-07-22,8000.0
L18,2011-07-25,8300.0
L18,2011-07-26,8400.0
L18,2011-07-27,8200.0
L18,2011-07-28,8300.0
L18,2011-07-29,8100.0
L18,2011-08-01,8000.0
L18,2011-08-02,8100.0
L18,2011-08-03,8000.0
L18,2011-08-04,8500.0
L18,2011-08-05,8300.0
L18,2011-08-08,8000.0
L18,2011-08-09,7700.0
L18,2011-08-10,7900.0
L18,2011-08-11,8000.0
L18,2011-08-12,7700.0
L18,2011-08-15,7800.0
L18,2011-08-16,7700.0
L18,2011-08-17,8300.0
L18,2011-08-18,8300.0
L18,2011-08-19,8200.0
L18,2011-08-22,8600.0
L18,2011-08-23,8500.0
L18,2011-08-24,8600.0
L18,2011-08-25,8100.0
L18,2011-08-26,8400.0
L18,2011-08-29,8600.0
L18,2011-08-30,9000.0
L18,2011-08-31,8700.0
L18,2011-09-01,8600.0
L18,2011-09-05,8500.0
L18,2011-09-06,8500.0
L18,2011-09-07,8600.0
L18,2011-09-08,8900.0
L18,2011-09-09,8900.0
L18,2011-09-12,9100.0
L18,2011-09-13,9600.0
L18,2011-09-14,8900.0
L18,2011-09-15,8700.0
L18,2011-09-16,8300.0
L18,2011-09-19,8600.0
L18,2011-09-20,8800.0
L18,2011-09-21,8800.0
L18,2011-09-22,8900.0
L18,2011-09-23,8900.0
L18,2011-09-26,8900.0
L18,2011-09-27,8300.0
L18,2011-09-28,8800.0
L18,2011-09-29,8200.0
L18,2011-09-30,7700.0
L18,2011-10-03,8000.0
L18,2011-10-04,8100.0
L18,2011-10-05,8100.0
L18,2011-10-06,8100.0
L18,2011-10-07,8600.0
L18,2011-10-10,8300.0
L18,2011-10-11,8400.0
L18,2011-10-12,8400.0
L18,2011-10-13,8900.0
L18,2011-10-14,9400.0
L18,2011-10-17,9900.0
L18,2011-10-18,10300.0
L18,2011-10-19,9900.0
L18,2011-10-20,9900.0
L18,2011-10-21,9200.0
L18,2011-10-24,8600.0
L18,2011-10-25,8400.0
L18,2011-10-26,8600.0
L18,2011-10-27,7200.0
L18,2011-10-28,7600.0
L18,2011-10-31,7900.0
L18,2011-11-01,8400.0
L18,2011-11-02,8900.0
L18,2011-11-03,9200.0
L18,2011-11-04,8900.0
L18,2011-11-07,9200.0
L18,2011-11-08,9700.0
L18,2011-11-09,9100.0
L18,2011-11-10,8600.0
L18,2011-11-11,8200.0
L18,2011-11-14,7700.0
L18,2011-11-15,8000.0
L18,2011-11-16,8000.0
L18,2011-11-17,7700.0
L18,2011-11-18,8200.0
L18,2011-11-21,8700.0
L18,2011-11-22,8100.0
L18,2011-11-23,9600.0
L18,2011-11-24,8900.0
L18,2011-11-25,8300.0
L18,2011-11-28,7800.0
L18,2011-11-29,7900.0
L18,2011-11-30,7800.0
L18,2011-12-01,7600.0
L18,2011-12-02,7200.0
L18,2011-12-05,7700.0
L18,2011-12-06,8200.0
L18,2011-12-07,8700.0
L18,2011-12-08,8700.0
L18,2011-12-09,8300.0
L18,2011-12-12,8100.0
L18,2011-12-13,8000.0
L18,2011-12-14,7500.0
L18,2011-12-15,7100.0
L18,2011-12-16,6900.0
L18,2011-12-19,6900.0
L18,2011-12-20,7100.0
L18,2011-12-21,7200.0
L18,2011-12-22,6900.0
L18,2011-12-23,7300.0
L18,2011-12-26,7500.0
L18,2011-12-27,6900.0
L18,2011-12-28,6500.0
L18,2011-12-29,6600.0
L18,2011-12-30,6400.0
L18,2012-01-03,6300.0
L18,2012-01-04,6400.0
L18,2012-01-05,6600.0
L18,2012-01-06,6500.0
L18,2012-01-09,6600.0
L18,2012-01-10,6600.0
L18,2012-01-11,6600.0
L18,2012-01-12,6600.0
L18,2012-01-13,6600.0
L18,2012-01-16,6700.0
L18,2012-01-17,6800.0
L18,2012-01-18,6900.0
L18,2012-01-19,6900.0
L18,2012-01-20,6900.0
L18,2012-01-30,7400.0
L18,2012-01-31,7400.0
L18,2012-02-01,7500.0
L18,2012-02-02,7500.0
L18,2012-02-03,7000.0
L18,2012-02-06,7000.0
L18,2012-02-07,7500.0
L18,2012-02-08,8000.0
L18,2012-02-09,8500.0
L18,2012-02-10,8800.0
L18,2012-02-13,8100.0
L18,2012-02-14,8600.0
L18,2012-02-15,8200.0
L18,2012-02-16,8300.0
L18,2012-02-17,8600.0
L18,2012-02-20,9200.0
L18,2012-02-21,9100.0
L18,2012-02-22,9200.0
L18,2012-02-23,9100.0
L18,2012-02-24,8600.0
L18,2012-02-27,8700.0
L18,2012-02-28,8100.0
L18,2012-02-29,8300.0
L18,2012-03-01,7900.0
L18,2012-03-02,8300.0
L18,2012-03-05,8600.0
L18,2012-03-06,8700.0
L18,2012-03-07,8600.0
L18,2012-03-08,8300.0
L18,2012-03-09,8000.0
L18,2012-03-12,7800.0
L18,2012-03-13,8000.0
L18,2012-03-14,7800.0
L18,2012-03-15,8000.0
L18,2012-03-16,8000.0
L18,2012-03-19,8000.0
L18,2012-03-20,8000.0
L18,2012-03-21,8500.0
L18,2012-03-22,8400.0
L18,2012-03-23,8800.0
L18,2012-03-26,8800.0
L18,2012-03-27,9400.0
L18,2012-03-28,9400.0
L18,2012-03-29,9100.0
L18,2012-03-30,9400.0
L18,2012-04-03,9100.0
L18,2012-04-04,9100.0
L18,2012-04-05,8600.0
L18,2012-04-06,8700.0
L18,2012-04-09,9100.0
L18,2012-04-10,9100.0
L18,2012-04-11,9200.0
L18,2012-04-12,9500.0
L18,2012-04-13,9300.0
L18,2012-04-16,9700.0
L18,2012-04-17,9100.0
L18,2012-04-18,9500.0
L18,2012-04-19,9100.0
L18,2012-04-20,9500.0
L18,2012-04-23,9800.0
L18,2012-04-24,9500.0
L18,2012-04-25,9600.0
L18,2012-04-26,9700.0
L18,2012-04-27,10000.0
L18,2012-05-02,10600.0
L18,2012-05-03,11000.0
L18,2012-05-04,11200.0
L18,2012-05-07,12000.0
L18,2012-05-08,11200.0
L18,2012-05-09,12000.0
L18,2012-05-10,11900.0
L18,2012-05-11,11200.0
L18,2012-05-14,11100.0
L18,2012-05-15,10500.0
L18,2012-05-16,10600.0
L18,2012-05-17,10000.0
L18,2012-05-18,10500.0
L18,2012-05-21,11200.0
L18,2012-05-22,10300.0
L18,2012-05-23,9700.0
L18,2012-05-24,10100.0
L18,2012-05-25,10400.0
L18,2012-05-28,9800.0
L18,2012-05-29,10300.0
L18,2012-05-30,10300.0
L18,2012-05-31,10300.0
L18,2012-06-01,9700.0
L18,2012-06-04,9300.0
L18,2012-06-05,9300.0
L18,2012-06-06,8800.0
L18,2012-06-07,9100.0
L18,2012-06-08,9100.0
L18,2012-06-11,8800.0
L18,2012-06-12,8600.0
L18,2012-06-13,8900.0
L18,2012-06-14,8900.0
L18,2012-06-15,8900.0
L18,2012-06-18,9000.0
L18,2012-06-19,8900.0
L18,2012-06-20,8900.0
L18,2012-06-21,8900.0
L18,2012-06-22,8600.0
L18,2012-06-25,8400.0
L18,2012-06-26,8400.0
L18,2012-06-27,8400.0
L18,2012-06-28,8500.0
L18,2012-06-29,8600.0
L18,2012-07-02,8600.0
L18,2012-07-03,8500.0
L18,2012-07-04,8400.0
L18,2012-07-05,8500.0
L18,2012-07-06,8600.0
L18,2012-07-09,8400.0
L18,2012-07-10,8400.0
L18,2012-07-11,8500.0
L18,2012-07-12,8500.0
L18,2012-07-13,8700.0
L18,2012-07-16,8600.0
L18,2012-07-17,8600.0
L18,2012-07-18,8600.0
L18,2012-07-19,8600.0
L18,2012-07-20,8700.0
L18,2012-07-23,8500.0
L18,2012-07-24,8400.0
L18,2012-07-25,8400.0
L18,2012-07-26,8400.0
L18,2012-07-27,8400.0
L18,2012-07-30,8400.0
L18,2012-07-31,8700.0
L18,2012-08-01,8700.0
L18,2012-08-02,8700.0
L18,2012-08-03,8700.0
L18,2012-08-06,8700.0
L18,2012-08-07,8700.0
L18,2012-08-08,8400.0
L18,2012-08-09,8700.0
L18,2012-08-10,9000.0
L18,2012-08-13,8600.0
L18,2012-08-14,8600.0
L18,2012-08-15,8400.0
L18,2012-08-16,8300.0
L18,2012-08-17,8400.0
L18,2012-08-20,8400.0
L18,2012-08-21,7800.0
L18,2012-08-22,7600.0
L18,2012-08-23,7100.0
L18,2012-08-24,7500.0
L18,2012-08-27,7800.0
L18,2012-08-28,7800.0
L18,2012-08-29,7800.0
L18,2012-08-30,8300.0
L18,2012-08-31,8300.0
L18,2012-09-04,8300.0
L18,2012-09-05,8300.0
L18,2012-09-06,8300.0
L18,2012-09-07,8300.0
L18,2012-09-10,7800.0
L18,2012-09-11,7300.0
L18,2012-09-12,7300.0
L18,2012-09-13,7300.0
L18,2012-09-14,7700.0
L18,2012-09-17,8200.0
L18,2012-09-18,8100.0
L18,2012-09-19,7600.0
L18,2012-09-20,7600.0
L18,2012-09-21,7600.0
L18,2012-09-24,7900.0
L18,2012-09-25,7900.0
L18,2012-09-26,8200.0
L18,2012-09-27,8200.0
L18,2012-09-28,8200.0
L18,2012-10-01,8200.0
L18,2012-10-02,7700.0
L18,2012-10-03,7700.0
L18,2012-10-04,7200.0
L18,2012-10-05,7300.0
L18,2012-10-08,7300.0
L18,2012-10-09,7700.0
L18,2012-10-10,7700.0
L18,2012-10-11,7700.0
L18,2012-10-12,7700.0
L18,2012-10-15,7700.0
L18,2012-10-16,8200.0
L18,2012-10-17,8700.0
L18,2012-10-18,8700.0
L18,2012-10-19,8100.0
L18,2012-10-22,8100.0
L18,2012-10-23,8100.0
L18,2012-10-24,8100.0
L18,2012-10-25,8100.0
L18,2012-10-26,8100.0
L18,2012-10-29,8100.0
L18,2012-10-30,8100.0
L18,2012-10-31,7600.0
L18,2012-11-01,7600.0
L18,2012-11-02,7400.0
L18,2012-11-05,7400.0
L18,2012-11-06,7400.0
L18,2012-11-07,7400.0
L18,2012-11-08,7400.0
L18,2012-11-09,7600.0
L18,2012-11-12,7600.0
L18,2012-11-13,7600.0
L18,2012-11-14,7600.0
L18,2012-11-15,7600.0
L18,2012-11-16,7800.0
L18,2012-11-19,7800.0
L18,2012-11-20,7800.0
L18,2012-11-21,7800.0
L18,2012-11-22,7800.0
L18,2012-11-23,7800.0
L18,2012-11-26,7800.0
L18,2012-11-27,7800.0
L18,2012-11-28,7800.0
L18,2012-11-29,7800.0
L18,2012-11-30,7800.0
L18,2012-12-03,7600.0
L18,2012-12-04,7600.0
L18,2012-12-05,7600.0
L18,2012-12-06,8100.0
L18,2012-12-07,8400.0
L18,2012-12-10,8400.0
L18,2012-12-11,9000.0
L18,2012-12-12,8400.0
L18,2012-12-13,7800.0
L18,2012-12-14,8300.0
L18,2012-12-17,8300.0
L18,2012-12-18,8400.0
L18,2012-12-19,8000.0
L18,2012-12-20,8000.0
L18,2012-12-21,8000.0
L18,2012-12-24,8000.0
L18,2012-12-25,8000.0
L18,2012-12-26,8000.0
L18,2012-12-27,8200.0
L18,2012-12-28,8300.0
L18,2013-01-02,8500.0
L18,2013-01-03,8500.0
L18,2013-01-04,8500.0
L18,2013-01-07,8700.0
L18,2013-01-08,8600.0
L18,2013-01-09,8200.0
L18,2013-01-10,8200.0
L18,2013-01-11,8200.0
L18,2013-01-14,8200.0
L18,2013-01-15,7700.0
L18,2013-01-16,8400.0
L18,2013-01-17,8400.0
L18,2013-01-18,8400.0
L18,2013-01-21,8400.0
L18,2013-01-22,8000.0
L18,2013-01-23,8000.0
L18,2013-01-24,8000.0
L18,2013-01-25,8000.0
L18,2013-01-28,7700.0
L18,2013-01-29,7900.0
L18,2013-01-30,8000.0
L18,2013-01-31,8700.0
L18,2013-02-01,8300.0
L18,2013-02-04,8300.0
L18,2013-02-05,8300.0
L18,2013-02-06,8300.0
L18,2013-02-07,8300.0
L18,2013-02-08,8500.0
L18,2013-02-18,8500.0
L18,2013-02-19,8600.0
L18,2013-02-20,8600.0
L18,2013-02-21,8700.0
L18,2013-02-22,8400.0
L18,2013-02-25,8400.0
L18,2013-02-26,8400.0
L18,2013-02-27,8400.0
L18,2013-02-28,8400.0
L18,2013-03-01,8300.0
L18,2013-03-04,8300.0
L18,2013-03-05,8300.0
L18,2013-03-06,8300.0
L18,2013-03-07,8300.0
L18,2013-03-08,8200.0
L18,2013-03-11,8200.0
L18,2013-03-12,8400.0
L18,2013-03-13,8400.0
L18,2013-03-14,8400.0
L18,2013-03-15,8400.0
L18,2013-03-18,8400.0
L18,2013-03-19,8000.0
L18,2013-03-20,8000.0
L18,2013-03-21,8200.0
L18,2013-03-22,8200.0
L18,2013-03-25,8200.0
L18,2013-03-26,8200.0
L18,2013-03-27,8200.0
L18,2013-03-28,8200.0
L18,2013-03-29,8100.0
L18,2013-04-01,8100.0
L18,2013-04-02,8100.0
L18,2013-04-03,8000.0
L18,2013-04-04,8000.0
L18,2013-04-05,8000.0
L18,2013-04-08,8000.0
L18,2013-04-09,8000.0
L18,2013-04-10,8000.0
L18,2013-04-11,8600.0
L18,2013-04-12,8600.0
L18,2013-04-15,8400.0
L18,2013-04-16,8200.0
L18,2013-04-17,8200.0
L18,2013-04-18,8000.0
L18,2013-04-22,8000.0
L18,2013-04-23,8300.0
L18,2013-04-24,8200.0
L18,2013-04-25,8200.0
L18,2013-04-26,8200.0
L18,2013-05-02,8300.0
L18,2013-05-03,8300.0
L18,2013-05-06,8300.0
L18,2013-05-07,8300.0
L18,2013-05-08,8300.0
L18,2013-05-09,8200.0
L18,2013-05-10,8200.0
L18,2013-05-13,7400.0
L18,2013-05-14,8100.0
L18,2013-05-15,8400.0
L18,2013-05-16,8400.0
L18,2013-05-17,8400.0
L18,2013-05-20,8400.0
L18,2013-05-21,8400.0
L18,2013-05-22,8400.0
L18,2013-05-23,8400.0
L18,2013-05-24,8400.0
L18,2013-05-27,8600.0
L18,2013-05-28,8600.0
L18,2013-05-29,8600.0
L18,2013-05-30,8800.0
L18,2013-05-31,8800.0
L18,2013-06-03,8800.0
L18,2013-06-04,9000.0
L18,2013-06-05,9000.0
L18,2013-06-06,9000.0
L18,2013-06-07,9000.0
L18,2013-06-10,9000.0
L18,2013-06-11,9000.0
L18,2013-06-12,9000.0
L18,2013-06-13,9000.0
L18,2013-06-14,9500.0
L18,2013-06-17,9500.0
L18,2013-06-18,9500.0
L18,2013-06-19,9500.0
L18,2013-06-20,10400.0
L18,2013-06-21,10400.0
L18,2013-06-24,10400.0
L18,2013-06-25,10400.0
L18,2013-06-26,10400.0
L18,2013-06-27,10400.0
L18,2013-06-28,10400.0
L18,2013-07-01,10400.0
L18,2013-07-02,10400.0
L18,2013-07-03,9400.0
L18,2013-07-04,8500.0
L18,2013-07-05,9300.0
L18,2013-07-08,9300.0
L18,2013-07-09,9900.0
L18,2013-07-10,9900.0
L18,2013-07-11,9900.0
L18,2013-07-12,9900.0
L18,2013-07-15,9900.0
L18,2013-07-16,9900.0
L18,2013-07-17,9900.0
L18,2013-07-18,9900.0
L18,2013-07-19,9000.0
L18,2013-07-22,9000.0
L18,2013-07-23,9000.0
L18,2013-07-24,8200.0
L18,2013-07-25,8200.0
L18,2013-07-26,7500.0
L18,2013-07-29,7500.0
L18,2013-07-30,7500.0
L18,2013-07-31,7500.0
L18,2013-08-01,7500.0
L18,2013-08-02,7500.0
L18,2013-08-05,7500.0
L18,2013-08-06,7500.0
L18,2013-08-07,7500.0
L18,2013-08-08,7500.0
L18,2013-08-09,6800.0
L18,2013-08-12,7000.0
L18,2013-08-13,7000.0
L18,2013-08-14,7000.0
L18,2013-08-15,6300.0
L18,2013-08-16,6300.0
L18,2013-08-19,6300.0
L18,2013-08-20,6300.0
L18,2013-08-21,6300.0
L18,2013-08-22,6900.0
L18,2013-08-23,7500.0
L18,2013-08-26,7500.0
L18,2013-08-27,7500.0
L18,2013-08-28,7500.0
L18,2013-08-29,7500.0
L18,2013-08-30,7500.0
L18,2013-09-03,7500.0
L18,2013-09-04,7400.0
L18,2013-09-05,7800.0
L18,2013-09-06,7800.0
L18,2013-09-09,7800.0
L18,2013-09-10,7800.0
L18,2013-09-11,7800.0
L18,2013-09-12,7800.0
L18,2013-09-13,7800.0
L18,2013-09-16,7500.0
L18,2013-09-17,7500.0
L18,2013-09-18,7500.0
L18,2013-09-19,7500.0
L18,2013-09-20,7800.0
L18,2013-09-23,7800.0
L18,2013-09-24,7800.0
L18,2013-09-25,7800.0
L18,2013-09-26,7500.0
L18,2013-09-27,8000.0
L18,2013-09-30,8000.0
L18,2013-10-01,8000.0
L18,2013-10-02,8000.0
L18,2013-10-03,8000.0
L18,2013-10-04,8000.0
L18,2013-10-07,8000.0
L18,2013-10-08,8000.0
L18,2013-10-09,8000.0
L18,2013-10-10,8000.0
L18,2013-10-11,8000.0
L18,2013-10-14,7600.0
L18,2013-10-15,7600.0
L18,2013-10-16,7600.0
L18,2013-10-17,7200.0
L18,2013-10-18,7900.0
L18,2013-10-21,8200.0
L18,2013-10-22,8200.0
L18,2013-10-23,7400.0
L18,2013-10-24,7400.0
L18,2013-10-25,7400.0
L18,2013-10-28,7800.0
L18,2013-10-29,7800.0
L18,2013-10-30,7800.0
L18,2013-10-31,7800.0
L18,2013-11-01,7800.0
L18,2013-11-04,7800.0
L18,2013-11-05,7800.0
L18,2013-11-06,8200.0
L18,2013-11-07,8200.0
L18,2013-11-08,8200.0
L18,2013-11-11,8200.0
L18,2013-11-12,8200.0
L18,2013-11-13,8200.0
L18,2013-11-14,8200.0
L18,2013-11-15,8200.0
L18,2013-11-18,8200.0
L18,2013-11-19,8000.0
L18,2013-11-20,8700.0
L18,2013-11-21,8700.0
L18,2013-11-22,8500.0
L18,2013-11-25,8700.0
L18,2013-11-26,8500.0
L18,2013-11-27,8500.0
L18,2013-11-28,8500.0
L18,2013-11-29,8400.0
L18,2013-12-02,8400.0
L18,2013-12-03,8200.0
L18,2013-12-04,8200.0
L18,2013-12-05,8200.0
L18,2013-12-06,8600.0
L18,2013-12-09,8400.0
L18,2013-12-10,8400.0
L18,2013-12-11,8400.0
L18,2013-12-12,8400.0
L18,2013-12-13,8500.0
L18,2013-12-16,8500.0
L18,2013-12-17,8500.0
L18,2013-12-18,8500.0
L18,2013-12-19,9300.0
L18,2013-12-20,9500.0
L18,2013-12-23,10400.0
L18,2013-12-24,11200.0
L18,2013-12-25,10200.0
L18,2013-12-26,10200.0
L18,2013-12-27,10200.0
L18,2013-12-30,9200.0
L18,2013-12-31,9600.0
L18,2014-01-02,9600.0
L18,2014-01-03,9600.0
L18,2014-01-06,10000.0
L18,2014-01-07,10000.0
L18,2014-01-08,10000.0
L18,2014-01-09,10000.0
L18,2014-01-10,10000.0
L18,2014-01-13,10000.0
L18,2014-01-14,10000.0
L18,2014-01-15,9800.0
L18,2014-01-16,9500.0
L18,2014-01-17,10400.0
L18,2014-01-20,11100.0
L18,2014-01-21,11100.0
L18,2014-01-22,11200.0
L18,2014-01-23,11300.0
L18,2014-01-24,11300.0
L18,2014-01-27,11500.0
L18,2014-02-06,12000.0
L18,2014-02-07,11700.0
L18,2014-02-10,12000.0
L18,2014-02-11,11900.0
L18,2014-02-12,12000.0
L18,2014-02-13,12000.0
L18,2014-02-14,11900.0
L18,2014-02-17,12400.0
L18,2014-02-18,12500.0
L18,2014-02-19,12500.0
L18,2014-02-21,11300.0
L18,2014-02-24,11300.0
L18,2014-02-25,11000.0
L18,2014-02-26,11000.0
L18,2014-02-27,11000.0
L18,2014-02-28,10600.0
L18,2014-03-03,9900.0
L18,2014-03-04,9900.0
L18,2014-03-05,10500.0
L18,2014-03-06,9900.0
L18,2014-03-07,9900.0
L18,2014-03-10,10500.0
L18,2014-03-11,10300.0
L18,2014-03-12,10500.0
L18,2014-03-13,10500.0
L18,2014-03-14,9800.0
L18,2014-03-17,10300.0
L18,2014-03-18,10600.0
L18,2014-03-19,10600.0
L18,2014-03-20,11200.0
L18,2014-03-21,10800.0
L18,2014-03-24,11100.0
L18,2014-03-25,11900.0
L18,2014-03-26,11800.0
L18,2014-03-27,10800.0
L18,2014-03-28,11300.0
L18,2014-03-31,10900.0
L18,2014-04-01,10200.0
L18,2014-04-02,10000.0
L18,2014-04-03,10400.0
L18,2014-04-04,10000.0
L18,2014-04-07,10400.0
L18,2014-04-08,10000.0
L18,2014-04-10,10000.0
L18,2014-04-11,10000.0
L18,2014-04-14,10400.0
L18,2014-04-15,10400.0
L18,2014-04-16,9700.0
L18,2014-04-17,9700.0
L18,2014-04-18,9700.0
L18,2014-04-21,9700.0
L18,2014-04-22,10300.0
L18,2014-04-23,10000.0
L18,2014-04-24,10000.0
L18,2014-04-25,10000.0
L18,2014-04-28,10000.0
L18,2014-04-29,10000.0
L18,2014-05-05,10400.0
L18,2014-05-06,10000.0
L18,2014-05-07,10000.0
L18,2014-05-08,9000.0
L18,2014-05-09,9500.0
L18,2014-05-12,8600.0
L18,2014-05-13,8600.0
L18,2014-05-14,8400.0
L18,2014-05-15,9100.0
L18,2014-05-16,9100.0
L18,2014-05-19,9100.0
L18,2014-05-20,8900.0
L18,2014-05-21,8900.0
