LHC,2010-01-13,30000.0
LHC,2010-01-14,29500.0
LHC,2010-01-15,31500.0
LHC,2010-01-18,31500.0
LHC,2010-01-19,30900.0
LHC,2010-01-20,29000.0
LHC,2010-01-21,28400.0
LHC,2010-01-22,30000.0
LHC,2010-01-25,29800.0
LHC,2010-01-26,31400.0
LHC,2010-01-27,30200.0
LHC,2010-01-28,28100.0
LHC,2010-01-29,27300.0
LHC,2010-02-01,27300.0
LHC,2010-02-02,28300.0
LHC,2010-02-03,27600.0
LHC,2010-02-04,27100.0
LHC,2010-02-05,25900.0
LHC,2010-02-08,25500.0
LHC,2010-02-09,23500.0
LHC,2010-02-10,25400.0
LHC,2010-02-11,25300.0
LHC,2010-02-12,26900.0
LHC,2010-02-22,26600.0
LHC,2010-02-23,25800.0
LHC,2010-02-24,27500.0
LHC,2010-02-25,27900.0
LHC,2010-02-26,27400.0
LHC,2010-03-01,27400.0
LHC,2010-03-02,26600.0
LHC,2010-03-03,27400.0
LHC,2010-03-04,26900.0
LHC,2010-03-05,27400.0
LHC,2010-03-08,28700.0
LHC,2010-03-09,28500.0
LHC,2010-03-10,28300.0
LHC,2010-03-11,27700.0
LHC,2010-03-12,27900.0
LHC,2010-03-15,29400.0
LHC,2010-03-16,27400.0
LHC,2010-03-17,28500.0
LHC,2010-03-18,29400.0
LHC,2010-03-19,27900.0
LHC,2010-03-22,27700.0
LHC,2010-03-23,28200.0
LHC,2010-03-24,27400.0
LHC,2010-03-25,29500.0
LHC,2010-03-26,29800.0
LHC,2010-03-29,31500.0
LHC,2010-03-30,32200.0
LHC,2010-03-31,31100.0
LHC,2010-04-01,33300.0
LHC,2010-04-02,33900.0
LHC,2010-04-05,35700.0
LHC,2010-04-06,33200.0
LHC,2010-04-07,33800.0
LHC,2010-04-08,32800.0
LHC,2010-04-09,33200.0
LHC,2010-04-12,31800.0
LHC,2010-04-13,31000.0
LHC,2010-04-14,31200.0
LHC,2010-04-15,31700.0
LHC,2010-04-16,30900.0
LHC,2010-04-19,30500.0
LHC,2010-04-20,32600.0
LHC,2010-04-21,34500.0
LHC,2010-04-22,32100.0
LHC,2010-04-26,31500.0
LHC,2010-04-27,33900.0
LHC,2010-04-28,34300.0
LHC,2010-04-29,33800.0
LHC,2010-05-04,33700.0
LHC,2010-05-05,32800.0
LHC,2010-05-06,32500.0
LHC,2010-05-07,32000.0
LHC,2010-05-10,30800.0
LHC,2010-05-11,30900.0
LHC,2010-05-12,30300.0
LHC,2010-05-13,30300.0
LHC,2010-05-14,30500.0
LHC,2010-05-17,29000.0
LHC,2010-05-18,28000.0
LHC,2010-05-19,26900.0
LHC,2010-05-20,27500.0
LHC,2010-05-21,26100.0
LHC,2010-05-24,26900.0
LHC,2010-05-25,26600.0
LHC,2010-05-26,27900.0
LHC,2010-05-27,27900.0
LHC,2010-05-28,29300.0
LHC,2010-05-31,30100.0
LHC,2010-06-01,28900.0
LHC,2010-06-02,28400.0
LHC,2010-06-03,26900.0
LHC,2010-06-04,27900.0
LHC,2010-06-07,26600.0
LHC,2010-06-08,26900.0
LHC,2010-06-09,26600.0
LHC,2010-06-10,26900.0
LHC,2010-06-11,28000.0
LHC,2010-06-14,27900.0
LHC,2010-06-15,27700.0
LHC,2010-06-16,28400.0
LHC,2010-06-17,28400.0
LHC,2010-06-18,28500.0
LHC,2010-06-21,28600.0
LHC,2010-06-22,27700.0
LHC,2010-06-23,27400.0
LHC,2010-06-24,27500.0
LHC,2010-06-25,27300.0
LHC,2010-06-28,27800.0
LHC,2010-06-29,27800.0
LHC,2010-06-30,27200.0
LHC,2010-07-01,27800.0
LHC,2010-07-02,28000.0
LHC,2010-07-05,27900.0
LHC,2010-07-06,27500.0
LHC,2010-07-07,27700.0
LHC,2010-07-08,27400.0
LHC,2010-07-09,27400.0
LHC,2010-07-12,27500.0
LHC,2010-07-13,27900.0
LHC,2010-07-14,28200.0
LHC,2010-07-15,27500.0
LHC,2010-07-16,28200.0
LHC,2010-07-19,28100.0
LHC,2010-07-20,27400.0
LHC,2010-07-21,27400.0
LHC,2010-07-22,27700.0
LHC,2010-07-23,27400.0
LHC,2010-07-26,27400.0
LHC,2010-07-27,26300.0
LHC,2010-07-28,26400.0
LHC,2010-07-29,26000.0
LHC,2010-07-30,26200.0
LHC,2010-08-02,26200.0
LHC,2010-08-03,26700.0
LHC,2010-08-04,26600.0
LHC,2010-08-05,26500.0
LHC,2010-08-06,26800.0
LHC,2010-08-09,26300.0
LHC,2010-08-10,25200.0
LHC,2010-08-11,25800.0
LHC,2010-08-12,23800.0
LHC,2010-08-13,24300.0
LHC,2010-08-16,24900.0
LHC,2010-08-17,25200.0
LHC,2010-08-18,24100.0
LHC,2010-08-19,23400.0
LHC,2010-08-20,23000.0
LHC,2010-08-23,22300.0
LHC,2010-08-24,21600.0
LHC,2010-08-25,20200.0
LHC,2010-08-26,20700.0
LHC,2010-08-27,20700.0
LHC,2010-08-30,22100.0
LHC,2010-08-31,23400.0
LHC,2010-09-01,23300.0
LHC,2010-09-06,24600.0
LHC,2010-09-07,22900.0
LHC,2010-09-08,23200.0
LHC,2010-09-09,23000.0
LHC,2010-09-10,21700.0
LHC,2010-09-13,21600.0
LHC,2010-09-14,22300.0
LHC,2010-09-15,21900.0
LHC,2010-09-16,21900.0
LHC,2010-09-17,22200.0
LHC,2010-09-20,22500.0
LHC,2010-09-21,21900.0
LHC,2010-09-22,22000.0
LHC,2010-09-23,21600.0
LHC,2010-09-24,21600.0
LHC,2010-09-27,21700.0
LHC,2010-09-28,22000.0
LHC,2010-09-29,21800.0
LHC,2010-09-30,21700.0
LHC,2010-10-01,21800.0
LHC,2010-10-04,20200.0
LHC,2010-10-05,20500.0
LHC,2010-10-06,21200.0
LHC,2010-10-07,21300.0
LHC,2010-10-08,20200.0
LHC,2010-10-11,19100.0
LHC,2010-10-12,18800.0
LHC,2010-10-13,19600.0
LHC,2010-10-14,19800.0
LHC,2010-10-15,19900.0
LHC,2010-10-18,21100.0
LHC,2010-10-19,20800.0
LHC,2010-10-20,19900.0
LHC,2010-10-21,20200.0
LHC,2010-10-22,20300.0
LHC,2010-10-25,20300.0
LHC,2010-10-26,20200.0
LHC,2010-10-27,20200.0
LHC,2010-10-28,19600.0
LHC,2010-10-29,20700.0
LHC,2010-11-01,19400.0
LHC,2010-11-02,18500.0
LHC,2010-11-03,18600.0
LHC,2010-11-04,18500.0
LHC,2010-11-05,19100.0
LHC,2010-11-08,19100.0
LHC,2010-11-09,18500.0
LHC,2010-11-10,18800.0
LHC,2010-11-11,18800.0
LHC,2010-11-12,18200.0
LHC,2010-11-15,17100.0
LHC,2010-11-16,16000.0
LHC,2010-11-17,17100.0
LHC,2010-11-18,17900.0
LHC,2010-11-19,16800.0
LHC,2010-11-22,15900.0
LHC,2010-11-23,15900.0
LHC,2010-11-24,16100.0
LHC,2010-11-25,16400.0
LHC,2010-11-26,16800.0
LHC,2010-11-29,17400.0
LHC,2010-11-30,18000.0
LHC,2010-12-01,16800.0
LHC,2010-12-02,17900.0
LHC,2010-12-03,18800.0
LHC,2010-12-06,18400.0
LHC,2010-12-07,17900.0
LHC,2010-12-08,17100.0
LHC,2010-12-09,17800.0
LHC,2010-12-10,18400.0
LHC,2010-12-13,18900.0
LHC,2010-12-14,17700.0
LHC,2010-12-15,17400.0
LHC,2010-12-16,16300.0
LHC,2010-12-17,17400.0
LHC,2010-12-20,17400.0
LHC,2010-12-21,18200.0
LHC,2010-12-22,17400.0
LHC,2010-12-23,17300.0
LHC,2010-12-24,17700.0
LHC,2010-12-27,16900.0
LHC,2010-12-28,17600.0
LHC,2010-12-29,17100.0
LHC,2010-12-30,17300.0
LHC,2010-12-31,16800.0
LHC,2011-01-04,17400.0
LHC,2011-01-05,17100.0
LHC,2011-01-06,16800.0
LHC,2011-01-07,16800.0
LHC,2011-01-10,16500.0
LHC,2011-01-11,16300.0
LHC,2011-01-12,16300.0
LHC,2011-01-13,16400.0
LHC,2011-01-14,17400.0
LHC,2011-01-17,17700.0
LHC,2011-01-18,17100.0
LHC,2011-01-19,17000.0
LHC,2011-01-20,17000.0
LHC,2011-01-21,16300.0
LHC,2011-01-24,16300.0
LHC,2011-01-25,16300.0
LHC,2011-01-26,16800.0
LHC,2011-01-27,16800.0
LHC,2011-01-28,17800.0
LHC,2011-02-08,16700.0
LHC,2011-02-09,16800.0
LHC,2011-02-10,16900.0
LHC,2011-02-11,18300.0
LHC,2011-02-14,18000.0
LHC,2011-02-15,17900.0
LHC,2011-02-16,17400.0
LHC,2011-02-17,17300.0
LHC,2011-02-18,16800.0
LHC,2011-02-21,16000.0
LHC,2011-02-22,15400.0
LHC,2011-02-23,15900.0
LHC,2011-02-24,15900.0
LHC,2011-02-25,16300.0
LHC,2011-02-28,16100.0
LHC,2011-03-01,16300.0
LHC,2011-03-02,15700.0
LHC,2011-03-03,15800.0
LHC,2011-03-04,16700.0
LHC,2011-03-07,16600.0
LHC,2011-03-08,16800.0
LHC,2011-03-09,16000.0
LHC,2011-03-10,16500.0
LHC,2011-03-11,15600.0
LHC,2011-03-14,15600.0
LHC,2011-03-15,15300.0
LHC,2011-03-16,15500.0
LHC,2011-03-17,15300.0
LHC,2011-03-18,15600.0
LHC,2011-03-21,15500.0
LHC,2011-03-22,15200.0
LHC,2011-03-23,15200.0
LHC,2011-03-24,15300.0
LHC,2011-03-25,15000.0
LHC,2011-03-28,15000.0
LHC,2011-03-29,14600.0
LHC,2011-03-30,14600.0
LHC,2011-03-31,14600.0
LHC,2011-04-01,14700.0
LHC,2011-04-04,14600.0
LHC,2011-04-05,14600.0
LHC,2011-04-06,14900.0
LHC,2011-04-07,14300.0
LHC,2011-04-08,14300.0
LHC,2011-04-13,14300.0
LHC,2011-04-14,14300.0
LHC,2011-04-15,13800.0
LHC,2011-04-18,14000.0
LHC,2011-04-19,13700.0
LHC,2011-04-20,14000.0
LHC,2011-04-21,14000.0
LHC,2011-04-22,13800.0
LHC,2011-04-25,13800.0
LHC,2011-04-26,13400.0
LHC,2011-04-27,13500.0
LHC,2011-04-28,13800.0
LHC,2011-04-29,13700.0
LHC,2011-05-04,13700.0
LHC,2011-05-05,13700.0
LHC,2011-05-06,13800.0
LHC,2011-05-09,13800.0
LHC,2011-05-10,13700.0
LHC,2011-05-11,13700.0
LHC,2011-05-12,13700.0
LHC,2011-05-13,13700.0
LHC,2011-05-16,13200.0
LHC,2011-05-17,13100.0
LHC,2011-05-18,13300.0
LHC,2011-05-19,13100.0
LHC,2011-05-20,13100.0
LHC,2011-05-23,12500.0
LHC,2011-05-24,12500.0
LHC,2011-05-25,11800.0
LHC,2011-05-26,11400.0
LHC,2011-05-27,11800.0
LHC,2011-05-30,12200.0
LHC,2011-05-31,12200.0
LHC,2011-06-01,12700.0
LHC,2011-06-02,13500.0
LHC,2011-06-03,13700.0
LHC,2011-06-06,14600.0
LHC,2011-06-07,15200.0
LHC,2011-06-08,14200.0
LHC,2011-06-09,14200.0
LHC,2011-06-10,14600.0
LHC,2011-06-13,14600.0
LHC,2011-06-14,14700.0
LHC,2011-06-15,14800.0
LHC,2011-06-16,14800.0
LHC,2011-06-17,14800.0
LHC,2011-06-20,14800.0
LHC,2011-06-21,14800.0
LHC,2011-06-22,15000.0
LHC,2011-06-23,15000.0
LHC,2011-06-24,15400.0
LHC,2011-06-27,15700.0
LHC,2011-06-28,15700.0
LHC,2011-06-29,15800.0
LHC,2011-06-30,16300.0
LHC,2011-07-01,16300.0
LHC,2011-07-04,16200.0
LHC,2011-07-05,16800.0
LHC,2011-07-06,16100.0
LHC,2011-07-07,16800.0
LHC,2011-07-08,16200.0
LHC,2011-07-11,16200.0
LHC,2011-07-12,16100.0
LHC,2011-07-13,16100.0
LHC,2011-07-14,16100.0
LHC,2011-07-15,15600.0
LHC,2011-07-18,15600.0
LHC,2011-07-19,15600.0
LHC,2011-07-20,15600.0
LHC,2011-07-21,15600.0
LHC,2011-07-22,15600.0
LHC,2011-07-25,15600.0
LHC,2011-07-26,15600.0
LHC,2011-07-27,15600.0
LHC,2011-07-28,15600.0
LHC,2011-07-29,14600.0
LHC,2011-08-01,14600.0
LHC,2011-08-02,13700.0
LHC,2011-08-03,13700.0
LHC,2011-08-04,13700.0
LHC,2011-08-05,13200.0
LHC,2011-08-08,13200.0
LHC,2011-08-09,12300.0
LHC,2011-08-10,12300.0
LHC,2011-08-11,13100.0
LHC,2011-08-12,14000.0
LHC,2011-08-15,14300.0
LHC,2011-08-16,15000.0
LHC,2011-08-17,15000.0
LHC,2011-08-18,15500.0
LHC,2011-08-19,15000.0
LHC,2011-08-22,14300.0
LHC,2011-08-23,14600.0
LHC,2011-08-24,14600.0
LHC,2011-08-25,14600.0
LHC,2011-08-26,14600.0
LHC,2011-08-29,14600.0
LHC,2011-08-30,14300.0
LHC,2011-08-31,14300.0
LHC,2011-09-01,14600.0
LHC,2011-09-05,14600.0
LHC,2011-09-06,14600.0
LHC,2011-09-07,14600.0
LHC,2011-09-08,14500.0
LHC,2011-09-09,14600.0
LHC,2011-09-12,14300.0
LHC,2011-09-13,15000.0
LHC,2011-09-14,15000.0
LHC,2011-09-15,15400.0
LHC,2011-09-16,14300.0
LHC,2011-09-19,14300.0
LHC,2011-09-20,14300.0
LHC,2011-09-21,14300.0
LHC,2011-09-22,13400.0
LHC,2011-09-23,13400.0
LHC,2011-09-26,13400.0
LHC,2011-09-27,13700.0
LHC,2011-09-28,13700.0
LHC,2011-09-29,13700.0
LHC,2011-09-30,13700.0
LHC,2011-10-03,13700.0
LHC,2011-10-04,13700.0
LHC,2011-10-05,13700.0
LHC,2011-10-06,13700.0
LHC,2011-10-07,13700.0
LHC,2011-10-10,13700.0
LHC,2011-10-11,13700.0
LHC,2011-10-12,13700.0
LHC,2011-10-13,13400.0
LHC,2011-10-14,13400.0
LHC,2011-10-17,12800.0
LHC,2011-10-18,12800.0
LHC,2011-10-19,12500.0
LHC,2011-10-20,12500.0
LHC,2011-10-21,12500.0
LHC,2011-10-24,11900.0
LHC,2011-10-25,11900.0
LHC,2011-10-26,11900.0
LHC,2011-10-27,11900.0
LHC,2011-10-28,12700.0
LHC,2011-10-31,13600.0
LHC,2011-11-01,13600.0
LHC,2011-11-02,13600.0
LHC,2011-11-03,12700.0
LHC,2011-11-04,12700.0
LHC,2011-11-07,13400.0
LHC,2011-11-08,13700.0
LHC,2011-11-09,13700.0
LHC,2011-11-10,13800.0
LHC,2011-11-11,13800.0
LHC,2011-11-14,13900.0
LHC,2011-11-15,13900.0
LHC,2011-11-16,13900.0
LHC,2011-11-17,13900.0
LHC,2011-11-18,13900.0
LHC,2011-11-21,13900.0
LHC,2011-11-22,13900.0
LHC,2011-11-23,13900.0
LHC,2011-11-24,13900.0
LHC,2011-11-25,13900.0
LHC,2011-11-28,14600.0
LHC,2011-11-29,14600.0
LHC,2011-11-30,14200.0
LHC,2011-12-01,14200.0
LHC,2011-12-02,14300.0
LHC,2011-12-05,13300.0
LHC,2011-12-06,13500.0
LHC,2011-12-07,13500.0
LHC,2011-12-08,13500.0
LHC,2011-12-09,13100.0
LHC,2011-12-12,13700.0
LHC,2011-12-13,12500.0
LHC,2011-12-14,12700.0
LHC,2011-12-15,12700.0
LHC,2011-12-16,13600.0
LHC,2011-12-19,13600.0
LHC,2011-12-20,13600.0
LHC,2011-12-21,13600.0
LHC,2011-12-22,13600.0
LHC,2011-12-23,13600.0
LHC,2011-12-26,13600.0
LHC,2011-12-27,13600.0
LHC,2011-12-28,13600.0
LHC,2011-12-29,12600.0
LHC,2011-12-30,13500.0
LHC,2012-01-03,13500.0
LHC,2012-01-04,13600.0
LHC,2012-01-05,13500.0
LHC,2012-01-06,13600.0
LHC,2012-01-09,13600.0
LHC,2012-01-10,13600.0
LHC,2012-01-11,14200.0
LHC,2012-01-12,13700.0
LHC,2012-01-13,13700.0
LHC,2012-01-16,13600.0
LHC,2012-01-17,13600.0
LHC,2012-01-18,13600.0
LHC,2012-01-19,13600.0
LHC,2012-01-20,13800.0
LHC,2012-01-30,14700.0
LHC,2012-01-31,14200.0
LHC,2012-02-01,14000.0
LHC,2012-02-02,14800.0
LHC,2012-02-03,14800.0
LHC,2012-02-06,15600.0
LHC,2012-02-07,14600.0
LHC,2012-02-08,14900.0
LHC,2012-02-09,15600.0
LHC,2012-02-10,14900.0
LHC,2012-02-13,15300.0
LHC,2012-02-14,15300.0
LHC,2012-02-15,15300.0
LHC,2012-02-16,14900.0
LHC,2012-02-17,15600.0
LHC,2012-02-20,16000.0
LHC,2012-02-21,16000.0
LHC,2012-02-22,16300.0
LHC,2012-02-23,16800.0
LHC,2012-02-24,16900.0
LHC,2012-02-27,17100.0
LHC,2012-02-28,16700.0
LHC,2012-02-29,17700.0
LHC,2012-03-01,18100.0
LHC,2012-03-02,17800.0
LHC,2012-03-05,19000.0
LHC,2012-03-06,19600.0
LHC,2012-03-07,19600.0
LHC,2012-03-08,18900.0
LHC,2012-03-09,18900.0
LHC,2012-03-12,18900.0
LHC,2012-03-13,17700.0
LHC,2012-03-14,17100.0
LHC,2012-03-15,18400.0
LHC,2012-03-16,17700.0
LHC,2012-03-19,17700.0
LHC,2012-03-20,18100.0
LHC,2012-03-21,17700.0
LHC,2012-03-22,17700.0
LHC,2012-03-23,17400.0
LHC,2012-03-26,17800.0
LHC,2012-03-27,17800.0
LHC,2012-03-28,18100.0
LHC,2012-03-29,17300.0
LHC,2012-03-30,18500.0
LHC,2012-04-03,18900.0
LHC,2012-04-04,19200.0
LHC,2012-04-05,19200.0
LHC,2012-04-06,19200.0
LHC,2012-04-09,19200.0
LHC,2012-04-10,19200.0
LHC,2012-04-11,19600.0
LHC,2012-04-12,19600.0
LHC,2012-04-13,19600.0
LHC,2012-04-16,19600.0
LHC,2012-04-17,19600.0
LHC,2012-04-18,19500.0
LHC,2012-04-19,18900.0
LHC,2012-04-20,18900.0
LHC,2012-04-23,19600.0
LHC,2012-04-24,19200.0
LHC,2012-04-25,19600.0
LHC,2012-04-26,19600.0
LHC,2012-04-27,19500.0
LHC,2012-05-02,20000.0
LHC,2012-05-03,20400.0
LHC,2012-05-04,20800.0
LHC,2012-05-07,22200.0
LHC,2012-05-08,20800.0
LHC,2012-05-09,20800.0
LHC,2012-05-10,21900.0
LHC,2012-05-11,20400.0
LHC,2012-05-14,19000.0
LHC,2012-05-15,20300.0
LHC,2012-05-16,21400.0
LHC,2012-05-17,21400.0
LHC,2012-05-18,21100.0
LHC,2012-05-21,21800.0
LHC,2012-05-22,20300.0
LHC,2012-05-23,19200.0
LHC,2012-05-24,18500.0
LHC,2012-05-25,19600.0
LHC,2012-05-28,19600.0
LHC,2012-05-29,19600.0
LHC,2012-05-30,19300.0
LHC,2012-05-31,18900.0
LHC,2012-06-01,19900.0
LHC,2012-06-04,19900.0
LHC,2012-06-05,20400.0
LHC,2012-06-06,20300.0
LHC,2012-06-07,20300.0
LHC,2012-06-08,20000.0
LHC,2012-06-11,20000.0
LHC,2012-06-12,20000.0
LHC,2012-06-13,20000.0
LHC,2012-06-14,20000.0
LHC,2012-06-15,20000.0
LHC,2012-06-18,20000.0
LHC,2012-06-19,20400.0
LHC,2012-06-20,19800.0
LHC,2012-06-21,19700.0
LHC,2012-06-22,20000.0
LHC,2012-06-25,19600.0
LHC,2012-06-26,19600.0
LHC,2012-06-27,20400.0
LHC,2012-06-28,20400.0
LHC,2012-06-29,20400.0
LHC,2012-07-02,20300.0
LHC,2012-07-03,20300.0
LHC,2012-07-04,19000.0
LHC,2012-07-05,18500.0
LHC,2012-07-06,18900.0
LHC,2012-07-09,18900.0
LHC,2012-07-10,18900.0
LHC,2012-07-11,18900.0
LHC,2012-07-12,18900.0
LHC,2012-07-13,20000.0
LHC,2012-07-16,20000.0
LHC,2012-07-17,20000.0
LHC,2012-07-18,19800.0
LHC,2012-07-19,19600.0
LHC,2012-07-20,19800.0
LHC,2012-07-23,19800.0
LHC,2012-07-24,19800.0
LHC,2012-07-25,19800.0
LHC,2012-07-26,19800.0
LHC,2012-07-27,19100.0
LHC,2012-07-30,19100.0
LHC,2012-07-31,20000.0
LHC,2012-08-01,20000.0
LHC,2012-08-02,20000.0
LHC,2012-08-03,19200.0
LHC,2012-08-06,19200.0
LHC,2012-08-07,19200.0
LHC,2012-08-08,19600.0
LHC,2012-08-09,19500.0
LHC,2012-08-10,19200.0
LHC,2012-08-13,19200.0
LHC,2012-08-14,19200.0
LHC,2012-08-15,19200.0
LHC,2012-08-16,18900.0
LHC,2012-08-17,18900.0
LHC,2012-08-20,18900.0
LHC,2012-08-21,18100.0
LHC,2012-08-22,18500.0
LHC,2012-08-23,17300.0
LHC,2012-08-24,18100.0
LHC,2012-08-27,17500.0
LHC,2012-08-28,17700.0
LHC,2012-08-29,18500.0
LHC,2012-08-30,18500.0
LHC,2012-08-31,18200.0
LHC,2012-09-04,18200.0
LHC,2012-09-05,18500.0
LHC,2012-09-06,18500.0
LHC,2012-09-07,19100.0
LHC,2012-09-10,19100.0
LHC,2012-09-11,19100.0
LHC,2012-09-12,19100.0
LHC,2012-09-13,19100.0
LHC,2012-09-14,18500.0
LHC,2012-09-17,19200.0
LHC,2012-09-18,19200.0
LHC,2012-09-19,19200.0
LHC,2012-09-20,19300.0
LHC,2012-09-21,19300.0
LHC,2012-09-24,19000.0
LHC,2012-09-25,19100.0
LHC,2012-09-26,19100.0
LHC,2012-09-27,19100.0
LHC,2012-09-28,19100.0
LHC,2012-10-01,19100.0
LHC,2012-10-02,19600.0
LHC,2012-10-03,19600.0
LHC,2012-10-04,19600.0
LHC,2012-10-05,19300.0
LHC,2012-10-08,20400.0
LHC,2012-10-09,20400.0
LHC,2012-10-10,19000.0
LHC,2012-10-11,18300.0
LHC,2012-10-12,19400.0
LHC,2012-10-15,19400.0
LHC,2012-10-16,19400.0
LHC,2012-10-17,19200.0
LHC,2012-10-18,19200.0
LHC,2012-10-19,20400.0
LHC,2012-10-22,20000.0
LHC,2012-10-23,20600.0
LHC,2012-10-24,20300.0
LHC,2012-10-25,20600.0
LHC,2012-10-26,20700.0
LHC,2012-10-29,20700.0
LHC,2012-10-30,20700.0
LHC,2012-10-31,20600.0
LHC,2012-11-01,20600.0
LHC,2012-11-02,20000.0
LHC,2012-11-05,20000.0
LHC,2012-11-06,20000.0
LHC,2012-11-07,20000.0
LHC,2012-11-08,20700.0
LHC,2012-11-09,20500.0
LHC,2012-11-12,20500.0
LHC,2012-11-13,20500.0
LHC,2012-11-14,20500.0
LHC,2012-11-15,20500.0
LHC,2012-11-16,20500.0
LHC,2012-11-19,20500.0
LHC,2012-11-20,20500.0
LHC,2012-11-21,20500.0
LHC,2012-11-22,20500.0
LHC,2012-11-23,20500.0
LHC,2012-11-26,20000.0
LHC,2012-11-27,20200.0
LHC,2012-11-28,20200.0
LHC,2012-11-29,20200.0
LHC,2012-11-30,20800.0
LHC,2012-12-03,21800.0
LHC,2012-12-04,20700.0
LHC,2012-12-05,21300.0
LHC,2012-12-06,21800.0
LHC,2012-12-07,21800.0
LHC,2012-12-10,21800.0
LHC,2012-12-11,21900.0
LHC,2012-12-12,21800.0
LHC,2012-12-13,21800.0
LHC,2012-12-14,21800.0
LHC,2012-12-17,22000.0
LHC,2012-12-18,21900.0
LHC,2012-12-19,21800.0
LHC,2012-12-20,21800.0
LHC,2012-12-21,21900.0
LHC,2012-12-24,22200.0
LHC,2012-12-25,21800.0
LHC,2012-12-26,22200.0
LHC,2012-12-27,22200.0
LHC,2012-12-28,21900.0
LHC,2013-01-02,22600.0
LHC,2013-01-03,22600.0
LHC,2013-01-04,22600.0
LHC,2013-01-07,23500.0
LHC,2013-01-08,23900.0
LHC,2013-01-09,24200.0
LHC,2013-01-10,24200.0
LHC,2013-01-11,24200.0
LHC,2013-01-14,23500.0
LHC,2013-01-15,23500.0
LHC,2013-01-16,24400.0
LHC,2013-01-17,24400.0
LHC,2013-01-18,24400.0
LHC,2013-01-21,24400.0
LHC,2013-01-22,24400.0
LHC,2013-01-23,25100.0
LHC,2013-01-24,26100.0
LHC,2013-01-25,26600.0
LHC,2013-01-28,27800.0
LHC,2013-01-29,27800.0
LHC,2013-01-30,28700.0
LHC,2013-01-31,27800.0
LHC,2013-02-01,27800.0
LHC,2013-02-04,26700.0
LHC,2013-02-05,26100.0
LHC,2013-02-06,26600.0
LHC,2013-02-07,26500.0
LHC,2013-02-08,27000.0
LHC,2013-02-18,27400.0
LHC,2013-02-19,27400.0
LHC,2013-02-20,28400.0
LHC,2013-02-21,28600.0
LHC,2013-02-22,28500.0
LHC,2013-02-25,28500.0
LHC,2013-02-26,28700.0
LHC,2013-02-27,28700.0
LHC,2013-02-28,29000.0
LHC,2013-03-01,29000.0
LHC,2013-03-04,29800.0
LHC,2013-03-05,29600.0
LHC,2013-03-06,30300.0
LHC,2013-03-07,30900.0
LHC,2013-03-08,33100.0
LHC,2013-03-11,36400.0
LHC,2013-03-12,36400.0
LHC,2013-03-13,34000.0
LHC,2013-03-14,34800.0
LHC,2013-03-15,34100.0
LHC,2013-03-18,33100.0
LHC,2013-03-19,33100.0
LHC,2013-03-20,35000.0
LHC,2013-03-21,35500.0
LHC,2013-03-22,36400.0
LHC,2013-03-25,34800.0
LHC,2013-03-26,35100.0
LHC,2013-03-27,35300.0
LHC,2013-03-28,35200.0
LHC,2013-03-29,35200.0
LHC,2013-04-01,34500.0
LHC,2013-04-02,35200.0
LHC,2013-04-03,34500.0
LHC,2013-04-04,34400.0
LHC,2013-04-05,34500.0
LHC,2013-04-08,34700.0
LHC,2013-04-09,34800.0
LHC,2013-04-10,34300.0
LHC,2013-04-11,34400.0
LHC,2013-04-12,33900.0
LHC,2013-04-15,33400.0
LHC,2013-04-16,34300.0
LHC,2013-04-17,33200.0
LHC,2013-04-18,32500.0
LHC,2013-04-22,32500.0
LHC,2013-04-23,33300.0
LHC,2013-04-24,33900.0
LHC,2013-04-25,35300.0
LHC,2013-04-26,35100.0
LHC,2013-05-02,34300.0
LHC,2013-05-03,33200.0
LHC,2013-05-06,34300.0
LHC,2013-05-07,33400.0
LHC,2013-05-08,34600.0
LHC,2013-05-09,36600.0
LHC,2013-05-10,36000.0
LHC,2013-05-13,36000.0
LHC,2013-05-14,35800.0
LHC,2013-05-15,35200.0
LHC,2013-05-16,36000.0
LHC,2013-05-17,36000.0
LHC,2013-05-20,35200.0
LHC,2013-05-21,35200.0
LHC,2013-05-22,34500.0
LHC,2013-05-23,34300.0
LHC,2013-05-24,32400.0
LHC,2013-05-27,34100.0
LHC,2013-05-28,34200.0
LHC,2013-05-29,33600.0
LHC,2013-05-30,33900.0
LHC,2013-05-31,34100.0
LHC,2013-06-03,33800.0
LHC,2013-06-04,33800.0
LHC,2013-06-05,34500.0
LHC,2013-06-06,35200.0
LHC,2013-06-07,35600.0
LHC,2013-06-10,35700.0
LHC,2013-06-11,37400.0
LHC,2013-06-12,37600.0
LHC,2013-06-13,40000.0
LHC,2013-06-14,39300.0
LHC,2013-06-17,37200.0
LHC,2013-06-18,37100.0
LHC,2013-06-19,37700.0
LHC,2013-06-20,38100.0
LHC,2013-06-21,37200.0
LHC,2013-06-24,37200.0
LHC,2013-06-25,37600.0
LHC,2013-06-26,37600.0
LHC,2013-06-27,37900.0
LHC,2013-06-28,37500.0
LHC,2013-07-01,37500.0
LHC,2013-07-02,37500.0
LHC,2013-07-03,38100.0
LHC,2013-07-04,38200.0
LHC,2013-07-05,37100.0
LHC,2013-07-08,36800.0
LHC,2013-07-09,36900.0
LHC,2013-07-10,37800.0
LHC,2013-07-11,38100.0
LHC,2013-07-12,38600.0
LHC,2013-07-15,38800.0
LHC,2013-07-16,39000.0
LHC,2013-07-17,39400.0
LHC,2013-07-18,39600.0
LHC,2013-07-19,39600.0
LHC,2013-07-22,39700.0
LHC,2013-07-23,39500.0
LHC,2013-07-24,39000.0
LHC,2013-07-25,41900.0
LHC,2013-07-26,41900.0
LHC,2013-07-29,39500.0
LHC,2013-07-30,38100.0
LHC,2013-07-31,39500.0
LHC,2013-08-01,39500.0
LHC,2013-08-02,39000.0
LHC,2013-08-05,38800.0
LHC,2013-08-06,37800.0
LHC,2013-08-07,38600.0
LHC,2013-08-08,38800.0
LHC,2013-08-09,39800.0
LHC,2013-08-12,39500.0
LHC,2013-08-13,43400.0
LHC,2013-08-14,46900.0
LHC,2013-08-15,45300.0
LHC,2013-08-16,45300.0
LHC,2013-08-19,47100.0
LHC,2013-08-20,46500.0
LHC,2013-08-21,46200.0
LHC,2013-08-22,45400.0
LHC,2013-08-23,47100.0
LHC,2013-08-26,46500.0
LHC,2013-08-27,46500.0
LHC,2013-08-28,45200.0
LHC,2013-08-29,44700.0
LHC,2013-08-30,44500.0
LHC,2013-09-03,44300.0
LHC,2013-09-04,44500.0
LHC,2013-09-05,44500.0
LHC,2013-09-06,44400.0
LHC,2013-09-09,43000.0
LHC,2013-09-10,44100.0
LHC,2013-09-11,43400.0
LHC,2013-09-12,44300.0
LHC,2013-09-13,44700.0
LHC,2013-09-16,45500.0
LHC,2013-09-17,45000.0
LHC,2013-09-18,44700.0
LHC,2013-09-19,47300.0
LHC,2013-09-20,45900.0
LHC,2013-09-23,45300.0
LHC,2013-09-24,45700.0
LHC,2013-09-25,46000.0
LHC,2013-09-26,46100.0
LHC,2013-09-27,46400.0
LHC,2013-09-30,46400.0
LHC,2013-10-01,47100.0
LHC,2013-10-02,48100.0
LHC,2013-10-03,48600.0
LHC,2013-10-04,50000.0
LHC,2013-10-07,50600.0
LHC,2013-10-08,49500.0
LHC,2013-10-09,49100.0
LHC,2013-10-10,49400.0
LHC,2013-10-11,49500.0
LHC,2013-10-14,49500.0
LHC,2013-10-15,49500.0
LHC,2013-10-16,50500.0
LHC,2013-10-17,50600.0
LHC,2013-10-18,50800.0
LHC,2013-10-21,50200.0
LHC,2013-10-22,50800.0
LHC,2013-10-23,50800.0
LHC,2013-10-24,50700.0
LHC,2013-10-25,49500.0
LHC,2013-10-28,49800.0
LHC,2013-10-29,50000.0
LHC,2013-10-30,50200.0
LHC,2013-10-31,50000.0
LHC,2013-11-01,51900.0
LHC,2013-11-04,51600.0
LHC,2013-11-05,51800.0
LHC,2013-11-06,51800.0
LHC,2013-11-07,52100.0
LHC,2013-11-08,53200.0
LHC,2013-11-11,56400.0
LHC,2013-11-12,56000.0
LHC,2013-11-13,54800.0
LHC,2013-11-14,54400.0
LHC,2013-11-15,54900.0
LHC,2013-11-18,54900.0
LHC,2013-11-19,55900.0
LHC,2013-11-20,56200.0
LHC,2013-11-21,55300.0
LHC,2013-11-22,55000.0
LHC,2013-11-25,54900.0
LHC,2013-11-26,54600.0
LHC,2013-11-27,54600.0
LHC,2013-11-28,54300.0
LHC,2013-11-29,54400.0
LHC,2013-12-02,54400.0
LHC,2013-12-03,54800.0
LHC,2013-12-04,55500.0
LHC,2013-12-05,55000.0
LHC,2013-12-06,55000.0
LHC,2013-12-09,55100.0
LHC,2013-12-10,54500.0
LHC,2013-12-11,54100.0
LHC,2013-12-12,54900.0
LHC,2013-12-13,55000.0
LHC,2013-12-16,54800.0
LHC,2013-12-17,54900.0
LHC,2013-12-18,54500.0
LHC,2013-12-19,54500.0
LHC,2013-12-20,54300.0
LHC,2013-12-23,54800.0
LHC,2013-12-24,54800.0
LHC,2013-12-25,54800.0
LHC,2013-12-26,55000.0
LHC,2013-12-27,55000.0
LHC,2013-12-30,54700.0
LHC,2013-12-31,55000.0
LHC,2014-01-02,55000.0
LHC,2014-01-03,55000.0
LHC,2014-01-06,55100.0
LHC,2014-01-07,55600.0
LHC,2014-01-08,56000.0
LHC,2014-01-09,58600.0
LHC,2014-01-10,58800.0
LHC,2014-01-13,59100.0
LHC,2014-01-14,60100.0
LHC,2014-01-15,60300.0
LHC,2014-01-16,60400.0
LHC,2014-01-17,60000.0
LHC,2014-01-20,59300.0
LHC,2014-01-21,59300.0
LHC,2014-01-22,58600.0
LHC,2014-01-23,58200.0
LHC,2014-01-24,58500.0
LHC,2014-01-27,58600.0
LHC,2014-02-06,58200.0
LHC,2014-02-07,60000.0
LHC,2014-02-10,60100.0
LHC,2014-02-11,59000.0
LHC,2014-02-12,60400.0
LHC,2014-02-13,59800.0
LHC,2014-02-14,61000.0
LHC,2014-02-17,64100.0
LHC,2014-02-18,63500.0
LHC,2014-02-19,66700.0
LHC,2014-02-20,64400.0
LHC,2014-02-21,65000.0
LHC,2014-02-24,64800.0
LHC,2014-02-25,64900.0
LHC,2014-02-26,64700.0
LHC,2014-02-27,64300.0
LHC,2014-02-28,63600.0
LHC,2014-03-03,64000.0
LHC,2014-03-04,65200.0
LHC,2014-03-05,65000.0
LHC,2014-03-06,64600.0
LHC,2014-03-07,68000.0
LHC,2014-03-10,71000.0
LHC,2014-03-11,70000.0
LHC,2014-03-12,69000.0
LHC,2014-03-13,70000.0
LHC,2014-03-14,69400.0
LHC,2014-03-17,68600.0
LHC,2014-03-19,66000.0
LHC,2014-03-20,66300.0
LHC,2014-03-21,66300.0
LHC,2014-03-24,67000.0
LHC,2014-03-25,66000.0
LHC,2014-03-26,65100.0
LHC,2014-03-27,64700.0
LHC,2014-03-28,65900.0
LHC,2014-03-31,65700.0
LHC,2014-04-01,66000.0
LHC,2014-04-02,65000.0
LHC,2014-04-03,66800.0
LHC,2014-04-04,66500.0
LHC,2014-04-07,65500.0
LHC,2014-04-08,66000.0
LHC,2014-04-10,67000.0
LHC,2014-04-11,66700.0
LHC,2014-04-14,68000.0
LHC,2014-04-15,67000.0
LHC,2014-04-16,66400.0
LHC,2014-04-17,66500.0
LHC,2014-04-18,65100.0
LHC,2014-04-21,65100.0
LHC,2014-04-22,65000.0
LHC,2014-04-23,65000.0
LHC,2014-04-24,64900.0
LHC,2014-04-25,63900.0
LHC,2014-04-28,62400.0
LHC,2014-04-29,63100.0
LHC,2014-05-05,62000.0
LHC,2014-05-06,61000.0
LHC,2014-05-07,59500.0
LHC,2014-05-08,53600.0
LHC,2014-05-09,53900.0
LHC,2014-05-12,52600.0
LHC,2014-05-13,52600.0
LHC,2014-05-14,56000.0
LHC,2014-05-15,52700.0
LHC,2014-05-16,55400.0
LHC,2014-05-19,57700.0
LHC,2014-05-20,57500.0
LHC,2014-05-21,58500.0
