LTC,2006-12-14,8200.0
LTC,2006-12-15,8200.0
LTC,2006-12-18,8200.0
LTC,2006-12-19,8300.0
LTC,2006-12-20,8300.0
LTC,2006-12-21,8600.0
LTC,2006-12-22,8600.0
LTC,2006-12-25,8600.0
LTC,2006-12-26,8600.0
LTC,2006-12-27,8400.0
LTC,2006-12-28,8400.0
LTC,2006-12-29,8400.0
LTC,2007-01-02,7700.0
LTC,2007-01-03,7600.0
LTC,2007-01-04,7600.0
LTC,2007-01-05,7600.0
LTC,2007-01-08,7600.0
LTC,2007-01-09,7700.0
LTC,2007-01-10,7700.0
LTC,2007-01-11,7300.0
LTC,2007-01-12,7400.0
LTC,2007-01-15,7400.0
LTC,2007-01-16,7100.0
LTC,2007-01-17,7300.0
LTC,2007-01-18,7300.0
LTC,2007-01-19,7100.0
LTC,2007-01-22,7100.0
LTC,2007-01-23,7100.0
LTC,2007-01-24,6600.0
LTC,2007-01-25,6600.0
LTC,2007-01-26,6600.0
LTC,2007-01-29,6800.0
LTC,2007-01-30,6800.0
LTC,2007-01-31,6800.0
LTC,2007-02-01,7000.0
LTC,2007-02-02,7300.0
LTC,2007-02-05,7900.0
LTC,2007-02-06,8600.0
LTC,2007-02-07,9400.0
LTC,2007-02-08,10300.0
LTC,2007-02-09,11200.0
LTC,2007-02-12,11000.0
LTC,2007-02-13,11000.0
LTC,2007-02-14,10900.0
LTC,2007-02-15,10900.0
LTC,2007-02-26,11500.0
LTC,2007-02-27,12300.0
LTC,2007-02-28,13300.0
LTC,2007-03-01,12700.0
LTC,2007-03-02,12400.0
LTC,2007-03-05,13300.0
LTC,2007-03-06,13800.0
LTC,2007-03-07,14000.0
LTC,2007-03-08,15100.0
LTC,2007-03-09,15800.0
LTC,2007-03-12,15600.0
LTC,2007-03-13,16600.0
LTC,2007-03-14,16200.0
LTC,2007-03-15,18700.0
LTC,2007-03-16,20000.0
LTC,2007-03-19,21500.0
LTC,2007-03-20,21600.0
LTC,2007-03-21,21700.0
LTC,2007-03-22,20800.0
LTC,2007-03-23,20200.0
LTC,2007-03-26,22500.0
LTC,2007-03-27,22500.0
LTC,2007-03-28,23100.0
LTC,2007-03-29,23100.0
LTC,2007-03-30,24400.0
LTC,2007-04-02,24000.0
LTC,2007-04-03,24600.0
LTC,2007-04-04,26400.0
LTC,2007-04-05,26400.0
LTC,2007-04-06,26400.0
LTC,2007-04-09,25400.0
LTC,2007-04-10,23600.0
LTC,2007-04-11,22200.0
LTC,2007-04-12,20300.0
LTC,2007-04-13,18400.0
LTC,2007-04-16,16900.0
LTC,2007-04-17,15200.0
LTC,2007-04-18,14000.0
LTC,2007-04-19,15200.0
LTC,2007-04-20,16700.0
LTC,2007-04-23,16700.0
LTC,2007-04-24,17700.0
LTC,2007-04-25,17700.0
LTC,2007-05-02,17200.0
LTC,2007-05-03,16700.0
LTC,2007-05-04,16400.0
LTC,2007-05-07,16500.0
LTC,2007-05-08,16900.0
LTC,2007-05-09,16100.0
LTC,2007-05-10,17700.0
LTC,2007-05-11,16200.0
LTC,2007-05-14,16900.0
LTC,2007-05-15,16100.0
LTC,2007-05-16,16100.0
LTC,2007-05-17,16100.0
LTC,2007-05-18,15400.0
LTC,2007-05-21,15400.0
LTC,2007-05-22,16500.0
LTC,2007-05-23,17000.0
LTC,2007-05-24,16100.0
LTC,2007-05-25,17000.0
LTC,2007-05-28,16900.0
LTC,2007-05-29,16700.0
LTC,2007-05-30,16700.0
LTC,2007-05-31,16100.0
LTC,2007-06-01,16100.0
LTC,2007-06-04,16100.0
LTC,2007-06-05,14800.0
LTC,2007-06-06,16400.0
LTC,2007-06-07,15900.0
LTC,2007-06-08,16100.0
LTC,2007-06-11,16200.0
LTC,2007-06-12,15300.0
LTC,2007-06-13,14800.0
LTC,2007-06-14,15400.0
LTC,2007-06-15,15400.0
LTC,2007-06-18,16100.0
LTC,2007-06-19,16100.0
LTC,2007-06-20,16100.0
LTC,2007-06-21,15800.0
LTC,2007-06-22,15700.0
LTC,2007-06-25,16100.0
LTC,2007-06-26,16100.0
LTC,2007-06-27,15600.0
LTC,2007-06-28,15600.0
LTC,2007-06-29,15400.0
LTC,2007-07-02,15400.0
LTC,2007-07-03,14500.0
LTC,2007-07-04,14300.0
LTC,2007-07-05,14500.0
LTC,2007-07-06,14300.0
LTC,2007-07-09,14300.0
LTC,2007-07-10,14200.0
LTC,2007-07-11,15100.0
LTC,2007-07-12,15200.0
LTC,2007-07-13,15400.0
LTC,2007-07-16,15400.0
LTC,2007-07-17,14600.0
LTC,2007-07-18,14900.0
LTC,2007-07-19,14500.0
LTC,2007-07-20,15300.0
LTC,2007-07-23,15400.0
LTC,2007-07-24,14800.0
LTC,2007-07-25,14800.0
LTC,2007-07-26,14600.0
LTC,2007-07-27,14200.0
LTC,2007-07-30,12900.0
LTC,2007-07-31,12900.0
LTC,2007-08-01,12500.0
LTC,2007-08-02,12700.0
LTC,2007-08-03,11700.0
LTC,2007-08-06,11300.0
LTC,2007-08-07,10600.0
LTC,2007-08-08,10600.0
LTC,2007-08-09,11400.0
LTC,2007-08-10,11500.0
LTC,2007-08-13,11600.0
LTC,2007-08-14,11700.0
LTC,2007-08-15,11500.0
LTC,2007-08-16,11700.0
LTC,2007-08-17,11600.0
LTC,2007-08-20,11600.0
LTC,2007-08-21,11300.0
LTC,2007-08-22,11400.0
LTC,2007-08-23,11300.0
LTC,2007-08-24,11300.0
LTC,2007-08-27,11300.0
LTC,2007-08-28,11500.0
LTC,2007-08-29,11300.0
LTC,2007-08-30,11300.0
LTC,2007-08-31,11100.0
LTC,2007-09-04,11100.0
LTC,2007-09-05,11100.0
LTC,2007-09-06,11300.0
LTC,2007-09-07,11500.0
LTC,2007-09-10,11600.0
LTC,2007-09-11,11800.0
LTC,2007-09-12,12200.0
LTC,2007-09-13,12300.0
LTC,2007-09-14,12300.0
LTC,2007-09-17,11900.0
LTC,2007-09-18,11900.0
LTC,2007-09-19,11900.0
LTC,2007-09-20,12500.0
LTC,2007-09-21,12900.0
LTC,2007-09-24,13200.0
LTC,2007-09-25,13500.0
LTC,2007-09-26,14200.0
LTC,2007-09-27,14800.0
LTC,2007-09-28,16100.0
LTC,2007-10-01,17500.0
LTC,2007-10-02,18600.0
LTC,2007-10-03,18000.0
LTC,2007-10-04,17700.0
LTC,2007-10-05,17000.0
LTC,2007-10-08,16700.0
LTC,2007-10-09,16700.0
LTC,2007-10-10,16900.0
LTC,2007-10-11,17000.0
LTC,2007-10-12,16700.0
LTC,2007-10-15,18600.0
LTC,2007-10-16,20100.0
LTC,2007-10-17,22100.0
LTC,2007-10-18,21200.0
LTC,2007-10-19,21700.0
LTC,2007-10-22,21900.0
LTC,2007-10-23,21600.0
LTC,2007-10-24,21600.0
LTC,2007-10-25,22100.0
LTC,2007-10-26,23600.0
LTC,2007-10-29,25400.0
LTC,2007-10-30,25400.0
LTC,2007-10-31,24100.0
LTC,2007-11-01,23500.0
LTC,2007-11-02,23800.0
LTC,2007-11-05,22500.0
LTC,2007-11-06,23000.0
LTC,2007-11-07,23000.0
LTC,2007-11-08,22800.0
LTC,2007-11-09,22100.0
LTC,2007-11-12,21900.0
LTC,2007-11-13,19700.0
LTC,2007-11-14,21700.0
LTC,2007-11-15,20100.0
LTC,2007-11-16,19800.0
LTC,2007-11-19,19300.0
LTC,2007-11-20,19300.0
LTC,2007-11-21,19000.0
LTC,2007-11-22,19100.0
LTC,2007-11-23,18500.0
LTC,2007-11-26,19100.0
LTC,2007-11-27,18900.0
LTC,2007-11-28,19000.0
LTC,2007-11-29,19900.0
LTC,2007-11-30,19500.0
LTC,2007-12-03,21400.0
LTC,2007-12-04,22700.0
LTC,2007-12-05,23300.0
LTC,2007-12-06,22500.0
LTC,2007-12-07,22500.0
LTC,2007-12-10,21200.0
LTC,2007-12-11,20800.0
LTC,2007-12-12,21800.0
LTC,2007-12-13,20600.0
LTC,2007-12-14,20800.0
LTC,2007-12-17,20600.0
LTC,2007-12-18,20800.0
LTC,2007-12-19,20900.0
LTC,2007-12-20,20600.0
LTC,2007-12-21,20400.0
LTC,2007-12-24,21000.0
LTC,2007-12-25,20300.0
LTC,2007-12-26,19900.0
LTC,2007-12-27,21000.0
LTC,2007-12-28,20500.0
LTC,2008-01-02,21500.0
LTC,2008-01-03,20200.0
LTC,2008-01-04,19300.0
LTC,2008-01-07,19000.0
LTC,2008-01-08,18800.0
LTC,2008-01-09,17900.0
LTC,2008-01-10,17700.0
LTC,2008-01-11,18100.0
LTC,2008-01-14,16800.0
LTC,2008-01-15,15200.0
LTC,2008-01-16,16800.0
LTC,2008-01-17,16800.0
LTC,2008-01-18,17900.0
LTC,2008-01-21,17500.0
LTC,2008-01-22,17000.0
LTC,2008-01-23,15700.0
LTC,2008-01-24,15200.0
LTC,2008-01-25,15700.0
LTC,2008-01-28,16500.0
LTC,2008-01-29,17000.0
LTC,2008-01-30,18500.0
LTC,2008-01-31,19500.0
LTC,2008-02-01,19700.0
LTC,2008-02-12,18400.0
LTC,2008-02-13,18800.0
LTC,2008-02-14,19200.0
LTC,2008-02-15,18100.0
LTC,2008-02-18,17000.0
LTC,2008-02-19,15700.0
LTC,2008-02-20,14800.0
LTC,2008-02-21,14100.0
LTC,2008-02-22,14300.0
LTC,2008-02-25,14900.0
LTC,2008-02-26,13700.0
LTC,2008-02-27,15700.0
LTC,2008-02-28,15000.0
LTC,2008-02-29,14300.0
LTC,2008-03-03,13000.0
LTC,2008-03-04,12100.0
LTC,2008-03-05,11200.0
LTC,2008-03-06,12000.0
LTC,2008-03-07,12700.0
LTC,2008-03-10,13700.0
LTC,2008-03-11,13000.0
LTC,2008-03-12,13400.0
LTC,2008-03-13,13700.0
LTC,2008-03-14,12500.0
LTC,2008-03-17,11600.0
LTC,2008-03-18,10500.0
LTC,2008-03-19,10500.0
LTC,2008-03-20,11000.0
LTC,2008-03-21,10300.0
LTC,2008-03-24,9700.0
LTC,2008-03-25,8500.0
LTC,2008-03-26,9700.0
LTC,2008-03-27,9800.0
LTC,2008-03-28,9900.0
LTC,2008-03-31,10100.0
LTC,2008-04-01,10300.0
LTC,2008-04-02,10500.0
LTC,2008-04-03,10700.0
LTC,2008-04-04,10800.0
LTC,2008-04-07,11200.0
LTC,2008-04-08,10900.0
LTC,2008-04-09,10900.0
LTC,2008-04-10,10800.0
LTC,2008-04-11,10800.0
LTC,2008-04-16,10500.0
LTC,2008-04-17,10700.0
LTC,2008-04-18,10200.0
LTC,2008-04-21,9900.0
LTC,2008-04-22,9700.0
LTC,2008-04-23,9500.0
LTC,2008-04-24,9700.0
LTC,2008-04-25,9600.0
LTC,2008-04-28,9500.0
LTC,2008-04-29,9300.0
LTC,2008-05-05,9100.0
LTC,2008-05-06,9500.0
LTC,2008-05-07,9300.0
LTC,2008-05-08,9200.0
LTC,2008-05-09,9400.0
LTC,2008-05-12,9200.0
LTC,2008-05-13,9000.0
LTC,2008-05-14,8700.0
LTC,2008-05-15,8700.0
LTC,2008-05-16,8500.0
LTC,2008-05-19,8200.0
LTC,2008-05-20,8500.0
LTC,2008-05-21,8700.0
LTC,2008-05-22,8700.0
LTC,2008-05-23,8500.0
LTC,2008-05-26,8700.0
LTC,2008-05-27,8700.0
LTC,2008-05-28,8500.0
LTC,2008-05-29,8500.0
LTC,2008-05-30,8500.0
LTC,2008-06-02,8500.0
LTC,2008-06-03,8500.0
LTC,2008-06-04,8200.0
LTC,2008-06-05,8200.0
LTC,2008-06-06,8200.0
LTC,2008-06-09,8200.0
LTC,2008-06-10,8200.0
LTC,2008-06-11,8000.0
LTC,2008-06-12,7800.0
LTC,2008-06-13,7600.0
LTC,2008-06-16,7800.0
LTC,2008-06-17,7800.0
LTC,2008-06-18,8000.0
LTC,2008-06-19,8000.0
LTC,2008-06-20,7700.0
LTC,2008-06-23,7400.0
LTC,2008-06-24,7200.0
LTC,2008-06-25,6900.0
LTC,2008-06-26,6600.0
LTC,2008-06-27,6600.0
LTC,2008-06-30,6400.0
LTC,2008-07-01,6400.0
LTC,2008-07-02,6400.0
LTC,2008-07-03,6700.0
LTC,2008-07-04,6900.0
LTC,2008-07-07,6600.0
LTC,2008-07-08,6600.0
LTC,2008-07-09,6400.0
LTC,2008-07-10,6200.0
LTC,2008-07-11,6500.0
LTC,2008-07-14,6700.0
LTC,2008-07-15,7000.0
LTC,2008-07-16,7000.0
LTC,2008-07-17,7300.0
LTC,2008-07-18,7100.0
LTC,2008-07-21,6900.0
LTC,2008-07-22,6600.0
LTC,2008-07-23,6400.0
LTC,2008-07-24,6100.0
LTC,2008-07-25,5900.0
LTC,2008-07-28,6000.0
LTC,2008-07-29,5700.0
LTC,2008-07-30,5600.0
LTC,2008-07-31,5600.0
LTC,2008-08-01,5600.0
LTC,2008-08-04,5300.0
LTC,2008-08-05,5200.0
LTC,2008-08-06,5300.0
LTC,2008-08-07,5300.0
LTC,2008-08-08,5300.0
LTC,2008-08-11,5500.0
LTC,2008-08-12,5600.0
LTC,2008-08-13,5400.0
LTC,2008-08-14,5600.0
LTC,2008-08-15,5800.0
LTC,2008-08-18,6200.0
LTC,2008-08-19,5800.0
LTC,2008-08-20,5500.0
LTC,2008-08-21,5800.0
LTC,2008-08-22,6000.0
LTC,2008-08-25,6300.0
LTC,2008-08-26,6700.0
LTC,2008-08-27,6700.0
LTC,2008-08-28,6900.0
LTC,2008-08-29,6200.0
LTC,2008-09-03,6700.0
LTC,2008-09-04,7000.0
LTC,2008-09-05,7400.0
LTC,2008-09-08,7600.0
LTC,2008-09-09,7800.0
LTC,2008-09-10,7600.0
LTC,2008-09-11,7100.0
LTC,2008-09-12,6700.0
LTC,2008-09-15,6500.0
LTC,2008-09-16,6200.0
LTC,2008-09-17,5900.0
LTC,2008-09-18,5500.0
LTC,2008-09-19,5800.0
LTC,2008-09-22,6200.0
LTC,2008-09-23,6500.0
LTC,2008-09-24,6500.0
LTC,2008-09-25,6400.0
LTC,2008-09-26,6300.0
LTC,2008-09-29,6300.0
LTC,2008-09-30,6000.0
LTC,2008-10-01,5600.0
LTC,2008-10-02,6000.0
LTC,2008-10-03,6300.0
LTC,2008-10-06,5900.0
LTC,2008-10-07,6300.0
LTC,2008-10-08,5500.0
LTC,2008-10-09,5500.0
LTC,2008-10-10,5200.0
LTC,2008-10-13,5600.0
LTC,2008-10-14,5900.0
LTC,2008-10-15,6300.0
LTC,2008-10-16,5800.0
LTC,2008-10-17,6000.0
LTC,2008-10-20,5500.0
LTC,2008-10-21,5200.0
LTC,2008-10-22,5700.0
LTC,2008-10-23,5400.0
LTC,2008-10-24,5400.0
LTC,2008-10-27,4900.0
LTC,2008-10-28,4900.0
LTC,2008-10-29,5200.0
LTC,2008-10-30,5300.0
LTC,2008-10-31,5400.0
LTC,2008-11-03,5200.0
LTC,2008-11-04,5400.0
LTC,2008-11-05,5600.0
LTC,2008-11-06,5300.0
LTC,2008-11-07,5000.0
LTC,2008-11-10,4800.0
LTC,2008-11-11,5000.0
LTC,2008-11-12,5300.0
LTC,2008-11-13,5000.0
LTC,2008-11-14,5200.0
LTC,2008-11-17,4800.0
LTC,2008-11-18,5000.0
LTC,2008-11-19,5300.0
LTC,2008-11-20,5000.0
LTC,2008-11-21,5300.0
LTC,2008-11-24,5300.0
LTC,2008-11-25,5400.0
LTC,2008-11-26,5200.0
LTC,2008-11-27,5300.0
LTC,2008-11-28,5600.0
LTC,2008-12-01,5400.0
LTC,2008-12-02,5300.0
LTC,2008-12-03,4800.0
LTC,2008-12-04,5100.0
LTC,2008-12-05,5300.0
LTC,2008-12-08,5000.0
LTC,2008-12-09,5300.0
LTC,2008-12-10,5100.0
LTC,2008-12-11,5200.0
LTC,2008-12-12,4800.0
LTC,2008-12-15,4900.0
LTC,2008-12-16,5000.0
LTC,2008-12-17,5000.0
LTC,2008-12-18,4700.0
LTC,2008-12-19,4700.0
LTC,2008-12-22,4600.0
LTC,2008-12-23,4400.0
LTC,2008-12-24,4200.0
LTC,2008-12-25,4200.0
LTC,2008-12-26,4200.0
LTC,2008-12-29,4400.0
LTC,2008-12-30,4700.0
LTC,2008-12-31,4900.0
LTC,2009-01-02,4900.0
LTC,2009-01-05,4900.0
LTC,2009-01-06,4600.0
LTC,2009-01-07,5000.0
LTC,2009-01-08,5100.0
LTC,2009-01-09,5200.0
LTC,2009-01-12,5200.0
LTC,2009-01-13,5200.0
LTC,2009-01-14,5300.0
LTC,2009-01-15,5200.0
LTC,2009-01-16,5300.0
LTC,2009-01-19,5200.0
LTC,2009-01-20,5100.0
LTC,2009-01-21,5200.0
LTC,2009-01-22,5100.0
LTC,2009-01-23,5300.0
LTC,2009-02-02,5300.0
LTC,2009-02-03,5100.0
LTC,2009-02-04,5100.0
LTC,2009-02-05,5100.0
LTC,2009-02-06,4800.0
LTC,2009-02-09,5100.0
LTC,2009-02-10,5100.0
LTC,2009-02-11,5100.0
LTC,2009-02-12,5100.0
LTC,2009-02-13,5200.0
LTC,2009-02-16,5100.0
LTC,2009-02-17,5200.0
LTC,2009-02-18,5200.0
LTC,2009-02-19,5100.0
LTC,2009-02-20,5000.0
LTC,2009-02-23,4700.0
LTC,2009-02-24,4800.0
LTC,2009-02-25,4900.0
LTC,2009-02-26,4900.0
LTC,2009-02-27,4700.0
LTC,2009-03-02,5000.0
LTC,2009-03-03,4700.0
LTC,2009-03-04,5000.0
LTC,2009-03-05,5300.0
LTC,2009-03-06,5100.0
LTC,2009-03-09,5000.0
LTC,2009-03-10,5000.0
LTC,2009-03-11,5300.0
LTC,2009-03-12,5000.0
LTC,2009-03-13,5200.0
LTC,2009-03-16,5300.0
LTC,2009-03-17,5600.0
LTC,2009-03-18,5900.0
LTC,2009-03-19,5900.0
LTC,2009-03-20,6000.0
LTC,2009-03-23,5900.0
LTC,2009-03-24,5800.0
LTC,2009-03-25,6000.0
LTC,2009-03-26,6000.0
LTC,2009-03-27,6200.0
LTC,2009-03-30,6000.0
LTC,2009-03-31,6100.0
LTC,2009-04-01,6300.0
LTC,2009-04-02,6300.0
LTC,2009-04-03,6400.0
LTC,2009-04-07,6400.0
LTC,2009-04-08,6000.0
LTC,2009-04-09,6200.0
LTC,2009-04-10,6600.0
LTC,2009-04-13,7000.0
LTC,2009-04-14,7100.0
LTC,2009-04-15,6700.0
LTC,2009-04-16,6700.0
LTC,2009-04-17,6400.0
LTC,2009-04-20,6000.0
LTC,2009-04-21,6000.0
LTC,2009-04-22,6200.0
LTC,2009-04-23,6400.0
LTC,2009-04-24,6000.0
LTC,2009-04-27,6200.0
LTC,2009-04-28,5800.0
LTC,2009-04-29,6200.0
LTC,2009-05-04,6400.0
LTC,2009-05-05,6400.0
LTC,2009-05-06,6300.0
LTC,2009-05-07,6700.0
LTC,2009-05-08,6500.0
LTC,2009-05-11,6500.0
LTC,2009-05-12,6600.0
LTC,2009-05-13,7000.0
LTC,2009-05-14,7200.0
LTC,2009-05-15,7500.0
LTC,2009-05-18,8000.0
LTC,2009-05-19,8100.0
LTC,2009-05-20,8000.0
LTC,2009-05-21,8600.0
LTC,2009-05-22,8500.0
LTC,2009-05-25,9000.0
LTC,2009-05-26,9700.0
LTC,2009-05-27,9900.0
LTC,2009-05-28,9200.0
LTC,2009-05-29,10400.0
LTC,2009-06-01,9300.0
LTC,2009-06-02,10600.0
LTC,2009-06-03,11500.0
LTC,2009-06-04,12300.0
LTC,2009-06-05,13100.0
LTC,2009-06-08,14000.0
LTC,2009-06-09,13000.0
LTC,2009-06-10,12500.0
LTC,2009-06-11,11900.0
LTC,2009-06-12,11100.0
LTC,2009-06-15,10600.0
LTC,2009-06-16,10100.0
LTC,2009-06-17,9800.0
LTC,2009-06-18,10100.0
LTC,2009-06-19,10100.0
LTC,2009-06-22,9700.0
LTC,2009-06-23,9000.0
LTC,2009-06-24,9700.0
LTC,2009-06-25,9000.0
LTC,2009-06-26,8900.0
LTC,2009-06-29,8700.0
LTC,2009-06-30,8100.0
LTC,2009-07-01,7600.0
LTC,2009-07-02,8100.0
LTC,2009-07-03,8500.0
LTC,2009-07-06,9000.0
LTC,2009-07-07,8300.0
LTC,2009-07-08,8300.0
LTC,2009-07-09,8500.0
LTC,2009-07-10,8300.0
LTC,2009-07-13,8200.0
LTC,2009-07-14,8200.0
LTC,2009-07-15,8300.0
LTC,2009-07-16,8400.0
LTC,2009-07-17,8300.0
LTC,2009-07-20,8300.0
LTC,2009-07-21,8100.0
LTC,2009-07-22,8300.0
LTC,2009-07-23,8700.0
LTC,2009-07-24,9000.0
LTC,2009-07-27,8700.0
LTC,2009-07-28,8100.0
LTC,2009-07-29,8200.0
LTC,2009-07-30,8300.0
LTC,2009-07-31,8200.0
LTC,2009-08-03,8000.0
LTC,2009-08-04,8100.0
LTC,2009-08-05,8100.0
LTC,2009-08-06,8300.0
LTC,2009-08-07,8300.0
LTC,2009-08-10,8200.0
LTC,2009-08-11,7900.0
LTC,2009-08-12,8200.0
LTC,2009-08-13,8300.0
LTC,2009-08-14,8500.0
LTC,2009-08-17,8900.0
LTC,2009-08-18,8900.0
LTC,2009-08-19,9600.0
LTC,2009-08-20,9500.0
LTC,2009-08-21,9100.0
LTC,2009-08-24,9100.0
LTC,2009-08-25,8800.0
LTC,2009-08-26,8900.0
LTC,2009-08-27,8700.0
LTC,2009-08-28,9100.0
LTC,2009-08-31,9400.0
LTC,2009-09-01,9200.0
LTC,2009-09-03,9500.0
LTC,2009-09-04,10000.0
LTC,2009-09-07,9700.0
LTC,2009-09-08,10000.0
LTC,2009-09-09,9900.0
LTC,2009-09-10,10600.0
LTC,2009-09-11,10900.0
LTC,2009-09-14,11600.0
LTC,2009-09-15,12200.0
LTC,2009-09-16,11700.0
LTC,2009-09-17,11100.0
LTC,2009-09-18,11300.0
LTC,2009-09-21,11800.0
LTC,2009-09-22,11300.0
LTC,2009-09-23,11400.0
LTC,2009-09-24,11200.0
LTC,2009-09-25,11400.0
LTC,2009-09-28,11400.0
LTC,2009-09-29,11400.0
LTC,2009-09-30,11500.0
LTC,2009-10-01,11400.0
LTC,2009-10-02,10900.0
LTC,2009-10-05,10400.0
LTC,2009-10-06,10500.0
LTC,2009-10-07,11200.0
LTC,2009-10-08,11100.0
LTC,2009-10-09,11600.0
LTC,2009-10-12,12400.0
LTC,2009-10-13,12900.0
LTC,2009-10-14,13500.0
LTC,2009-10-15,14400.0
LTC,2009-10-16,15400.0
LTC,2009-10-19,15500.0
LTC,2009-10-20,14800.0
LTC,2009-10-21,14700.0
LTC,2009-10-22,15000.0
LTC,2009-10-23,13900.0
LTC,2009-10-26,13700.0
LTC,2009-10-27,13700.0
LTC,2009-10-28,13900.0
LTC,2009-10-29,13400.0
LTC,2009-10-30,14000.0
LTC,2009-11-02,12800.0
LTC,2009-11-03,12200.0
LTC,2009-11-04,12500.0
LTC,2009-11-05,13100.0
LTC,2009-11-06,13400.0
LTC,2009-11-09,12700.0
LTC,2009-11-10,12200.0
LTC,2009-11-11,12200.0
LTC,2009-11-12,12400.0
LTC,2009-11-13,11900.0
LTC,2009-11-16,12000.0
LTC,2009-11-17,12500.0
LTC,2009-11-18,13200.0
LTC,2009-11-19,12700.0
LTC,2009-11-20,12500.0
LTC,2009-11-23,12600.0
LTC,2009-11-24,11700.0
LTC,2009-11-25,11100.0
LTC,2009-11-26,11200.0
LTC,2009-11-27,10400.0
LTC,2009-11-30,11200.0
LTC,2009-12-01,11200.0
LTC,2009-12-02,10900.0
LTC,2009-12-03,10200.0
LTC,2009-12-04,10600.0
LTC,2009-12-07,10400.0
LTC,2009-12-08,10300.0
LTC,2009-12-09,9700.0
LTC,2009-12-10,9900.0
LTC,2009-12-11,9000.0
LTC,2009-12-14,9700.0
LTC,2009-12-15,9200.0
LTC,2009-12-16,8800.0
LTC,2009-12-17,8900.0
LTC,2009-12-18,9300.0
LTC,2009-12-21,9900.0
LTC,2009-12-22,9900.0
LTC,2009-12-23,9600.0
LTC,2009-12-24,9800.0
LTC,2009-12-25,10300.0
LTC,2009-12-28,10200.0
LTC,2009-12-29,9900.0
LTC,2009-12-30,9900.0
LTC,2009-12-31,9600.0
LTC,2010-01-04,10900.0
LTC,2010-01-05,11300.0
LTC,2010-01-06,11300.0
LTC,2010-01-07,11000.0
LTC,2010-01-08,11800.0
LTC,2010-01-11,11400.0
LTC,2010-01-12,10600.0
LTC,2010-01-13,10900.0
LTC,2010-01-14,10700.0
LTC,2010-01-15,10500.0
LTC,2010-01-18,11000.0
LTC,2010-01-19,11100.0
LTC,2010-01-20,11100.0
LTC,2010-01-21,10400.0
LTC,2010-01-22,10900.0
LTC,2010-01-25,11600.0
LTC,2010-01-26,12300.0
LTC,2010-01-27,11900.0
LTC,2010-01-28,11100.0
LTC,2010-01-29,11300.0
LTC,2010-02-01,10900.0
LTC,2010-02-02,10200.0
LTC,2010-02-03,10600.0
LTC,2010-02-04,11100.0
LTC,2010-02-05,11000.0
LTC,2010-02-08,10600.0
LTC,2010-02-09,11400.0
LTC,2010-02-10,10900.0
LTC,2010-02-11,11100.0
LTC,2010-02-12,10400.0
LTC,2010-02-22,10600.0
LTC,2010-02-23,10200.0
LTC,2010-02-24,10300.0
LTC,2010-02-25,10500.0
LTC,2010-02-26,10500.0
LTC,2010-03-01,10400.0
LTC,2010-03-02,10700.0
LTC,2010-03-03,10100.0
LTC,2010-03-04,10100.0
LTC,2010-03-05,10600.0
LTC,2010-03-08,10400.0
LTC,2010-03-09,10500.0
LTC,2010-03-10,10500.0
LTC,2010-03-11,10300.0
LTC,2010-03-12,10600.0
LTC,2010-03-15,10900.0
LTC,2010-03-16,10900.0
LTC,2010-03-17,10600.0
LTC,2010-03-18,11100.0
LTC,2010-03-19,10700.0
LTC,2010-03-22,10200.0
LTC,2010-03-23,10400.0
LTC,2010-03-24,10400.0
LTC,2010-03-25,10200.0
LTC,2010-03-26,10100.0
LTC,2010-03-29,10200.0
LTC,2010-03-30,10300.0
LTC,2010-03-31,10000.0
LTC,2010-04-01,10100.0
LTC,2010-04-02,10600.0
LTC,2010-04-05,10300.0
LTC,2010-04-06,10100.0
LTC,2010-04-07,10300.0
LTC,2010-04-08,10800.0
LTC,2010-04-09,10600.0
LTC,2010-04-12,11300.0
LTC,2010-04-13,12000.0
LTC,2010-04-14,12600.0
LTC,2010-04-15,13200.0
LTC,2010-04-16,13900.0
LTC,2010-04-19,14600.0
LTC,2010-04-20,14800.0
LTC,2010-04-21,16400.0
LTC,2010-04-22,16500.0
LTC,2010-04-26,17600.0
LTC,2010-04-27,18700.0
LTC,2010-04-28,18700.0
LTC,2010-04-29,19900.0
LTC,2010-05-04,19700.0
LTC,2010-05-05,20800.0
LTC,2010-05-06,22100.0
LTC,2010-05-07,22600.0
LTC,2010-05-10,20800.0
LTC,2010-05-11,19500.0
LTC,2010-05-12,19000.0
LTC,2010-05-13,18600.0
LTC,2010-05-14,19700.0
LTC,2010-05-17,19200.0
LTC,2010-05-18,18200.0
LTC,2010-05-19,17900.0
LTC,2010-05-20,19200.0
LTC,2010-05-21,17300.0
LTC,2010-05-24,17700.0
LTC,2010-05-25,17000.0
LTC,2010-05-26,18600.0
LTC,2010-05-27,19100.0
LTC,2010-05-28,19300.0
LTC,2010-05-31,18700.0
LTC,2010-06-01,20700.0
LTC,2010-06-02,21300.0
LTC,2010-06-03,22600.0
LTC,2010-06-04,24100.0
LTC,2010-06-07,22400.0
LTC,2010-06-08,21200.0
LTC,2010-06-09,21300.0
LTC,2010-06-10,20800.0
LTC,2010-06-11,21100.0
LTC,2010-06-14,20900.0
LTC,2010-06-15,20100.0
LTC,2010-06-16,21700.0
LTC,2010-06-17,21500.0
LTC,2010-06-18,20800.0
LTC,2010-06-21,20400.0
LTC,2010-06-22,22400.0
LTC,2010-06-23,23600.0
LTC,2010-06-24,25000.0
LTC,2010-06-25,26500.0
LTC,2010-06-28,28300.0
LTC,2010-06-29,30300.0
LTC,2010-06-30,32200.0
LTC,2010-07-01,33800.0
LTC,2010-07-02,33800.0
LTC,2010-07-05,33500.0
LTC,2010-07-06,35200.0
LTC,2010-07-07,34300.0
LTC,2010-07-08,35300.0
LTC,2010-07-09,31700.0
LTC,2010-07-12,33800.0
LTC,2010-07-13,35000.0
LTC,2010-07-14,37400.0
LTC,2010-07-15,35800.0
LTC,2010-07-16,34300.0
LTC,2010-07-19,32800.0
LTC,2010-07-20,32500.0
LTC,2010-07-21,35100.0
LTC,2010-07-22,36600.0
LTC,2010-07-23,36600.0
LTC,2010-07-26,32800.0
LTC,2010-07-27,31100.0
LTC,2010-07-28,28900.0
LTC,2010-07-29,28800.0
LTC,2010-07-30,29800.0
LTC,2010-08-02,28200.0
LTC,2010-08-03,28600.0
LTC,2010-08-04,27500.0
LTC,2010-08-05,27800.0
LTC,2010-08-06,28600.0
LTC,2010-08-09,28400.0
LTC,2010-08-10,27800.0
LTC,2010-08-11,29100.0
LTC,2010-08-12,28800.0
LTC,2010-08-13,30300.0
LTC,2010-08-16,32000.0
LTC,2010-08-17,29800.0
LTC,2010-08-18,28600.0
LTC,2010-08-19,28300.0
LTC,2010-08-20,27700.0
LTC,2010-08-23,28000.0
LTC,2010-08-24,27500.0
LTC,2010-08-25,26800.0
LTC,2010-08-26,26500.0
LTC,2010-08-27,26100.0
LTC,2010-08-30,27400.0
LTC,2010-08-31,25500.0
LTC,2010-09-01,27900.0
LTC,2010-09-06,29000.0
LTC,2010-09-07,31100.0
LTC,2010-09-08,32700.0
LTC,2010-09-09,29800.0
LTC,2010-09-10,32700.0
LTC,2010-09-13,34700.0
LTC,2010-09-14,34400.0
LTC,2010-09-15,36800.0
LTC,2010-09-16,37000.0
LTC,2010-09-17,39200.0
LTC,2010-09-20,39000.0
LTC,2010-09-21,43900.0
LTC,2010-09-22,45500.0
LTC,2010-09-23,44900.0
LTC,2010-09-24,48000.0
LTC,2010-09-27,43700.0
LTC,2010-09-28,42800.0
LTC,2010-09-29,39800.0
LTC,2010-09-30,37100.0
LTC,2010-10-01,34500.0
LTC,2010-10-04,32600.0
LTC,2010-10-05,30400.0
LTC,2010-10-06,33600.0
LTC,2010-10-07,29600.0
LTC,2010-10-08,28400.0
LTC,2010-10-11,26400.0
LTC,2010-10-12,24600.0
LTC,2010-10-13,22900.0
LTC,2010-10-14,21300.0
LTC,2010-10-15,19900.0
LTC,2010-10-18,18500.0
LTC,2010-10-19,17300.0
LTC,2010-10-20,16100.0
LTC,2010-10-21,15000.0
LTC,2010-10-22,14800.0
LTC,2010-10-25,13800.0
LTC,2010-10-26,14400.0
LTC,2010-10-27,15400.0
LTC,2010-10-28,14800.0
LTC,2010-10-29,14300.0
LTC,2010-11-01,13600.0
LTC,2010-11-02,12900.0
LTC,2010-11-03,12000.0
LTC,2010-11-04,12400.0
LTC,2010-11-05,12600.0
LTC,2010-11-08,13000.0
LTC,2010-11-09,12500.0
LTC,2010-11-10,12500.0
LTC,2010-11-11,11600.0
LTC,2010-11-12,11000.0
LTC,2010-11-15,10200.0
LTC,2010-11-16,9800.0
LTC,2010-11-17,10000.0
LTC,2010-11-18,10700.0
LTC,2010-11-19,10100.0
LTC,2010-11-22,10100.0
LTC,2010-11-23,10400.0
LTC,2010-11-24,11100.0
LTC,2010-11-25,11700.0
LTC,2010-11-26,12500.0
LTC,2010-11-29,13300.0
LTC,2010-11-30,14200.0
LTC,2010-12-01,15200.0
LTC,2010-12-02,16300.0
LTC,2010-12-03,17100.0
LTC,2010-12-06,16600.0
LTC,2010-12-07,16300.0
LTC,2010-12-08,15200.0
LTC,2010-12-09,15500.0
LTC,2010-12-10,15700.0
LTC,2010-12-13,16800.0
LTC,2010-12-14,15600.0
LTC,2010-12-15,14900.0
LTC,2010-12-16,14100.0
LTC,2010-12-17,15100.0
LTC,2010-12-20,14900.0
LTC,2010-12-21,14300.0
LTC,2010-12-22,13600.0
LTC,2010-12-23,13500.0
LTC,2010-12-24,14000.0
LTC,2010-12-27,14200.0
LTC,2010-12-28,15200.0
LTC,2010-12-29,14000.0
LTC,2010-12-30,13900.0
LTC,2010-12-31,14400.0
LTC,2011-01-04,14300.0
LTC,2011-01-05,13900.0
LTC,2011-01-06,14000.0
LTC,2011-01-07,14300.0
LTC,2011-01-10,13700.0
LTC,2011-01-11,13000.0
LTC,2011-01-12,13100.0
LTC,2011-01-13,13200.0
LTC,2011-01-14,13300.0
LTC,2011-01-17,13700.0
LTC,2011-01-18,13000.0
LTC,2011-01-19,13000.0
LTC,2011-01-20,13300.0
LTC,2011-01-21,13400.0
LTC,2011-01-24,12400.0
LTC,2011-01-25,12200.0
LTC,2011-01-26,12400.0
LTC,2011-01-27,12400.0
LTC,2011-01-28,13200.0
LTC,2011-02-08,13700.0
LTC,2011-02-09,13700.0
LTC,2011-02-10,13300.0
LTC,2011-02-11,14300.0
LTC,2011-02-14,13700.0
LTC,2011-02-15,14300.0
LTC,2011-02-16,13800.0
LTC,2011-02-17,13100.0
LTC,2011-02-18,12200.0
LTC,2011-02-21,11600.0
LTC,2011-02-22,10800.0
LTC,2011-02-23,10900.0
LTC,2011-02-24,10200.0
LTC,2011-02-25,10800.0
LTC,2011-02-28,11400.0
LTC,2011-03-01,11500.0
LTC,2011-03-02,10500.0
LTC,2011-03-03,11000.0
LTC,2011-03-04,11000.0
LTC,2011-03-07,10500.0
LTC,2011-03-08,10600.0
LTC,2011-03-09,10800.0
LTC,2011-03-10,11900.0
LTC,2011-03-11,11600.0
LTC,2011-03-14,11300.0
LTC,2011-03-15,10500.0
LTC,2011-03-16,10100.0
LTC,2011-03-17,10500.0
LTC,2011-03-18,10800.0
LTC,2011-03-21,10400.0
LTC,2011-03-22,10300.0
LTC,2011-03-23,10500.0
LTC,2011-03-24,10200.0
LTC,2011-03-25,10100.0
LTC,2011-03-28,9900.0
LTC,2011-03-29,9700.0
LTC,2011-03-30,9400.0
LTC,2011-03-31,9900.0
LTC,2011-04-01,10600.0
LTC,2011-04-04,10300.0
LTC,2011-04-05,10000.0
LTC,2011-04-06,10000.0
LTC,2011-04-07,10200.0
LTC,2011-04-08,10000.0
LTC,2011-04-13,9700.0
LTC,2011-04-14,9300.0
LTC,2011-04-15,8800.0
LTC,2011-04-18,8400.0
LTC,2011-04-19,8300.0
LTC,2011-04-20,7900.0
LTC,2011-04-21,7700.0
LTC,2011-04-22,7200.0
LTC,2011-04-25,7800.0
LTC,2011-04-26,7500.0
LTC,2011-04-27,7300.0
LTC,2011-04-28,7800.0
LTC,2011-04-29,8200.0
LTC,2011-05-04,8200.0
LTC,2011-05-05,8000.0
LTC,2011-05-06,8300.0
LTC,2011-05-09,8400.0
LTC,2011-05-10,8100.0
LTC,2011-05-11,8100.0
LTC,2011-05-12,7600.0
LTC,2011-05-13,7600.0
LTC,2011-05-16,7700.0
LTC,2011-05-17,7200.0
LTC,2011-05-18,7300.0
LTC,2011-05-19,7200.0
LTC,2011-05-20,6800.0
LTC,2011-05-23,6300.0
LTC,2011-05-24,5900.0
LTC,2011-05-25,5500.0
LTC,2011-05-26,5400.0
LTC,2011-05-27,5600.0
LTC,2011-05-30,5300.0
LTC,2011-05-31,5500.0
LTC,2011-06-01,5800.0
LTC,2011-06-02,6100.0
LTC,2011-06-03,6200.0
LTC,2011-06-06,6300.0
LTC,2011-06-07,6600.0
LTC,2011-06-08,6200.0
LTC,2011-06-09,6400.0
LTC,2011-06-10,6800.0
LTC,2011-06-13,7200.0
LTC,2011-06-14,7200.0
LTC,2011-06-15,7100.0
LTC,2011-06-16,6600.0
LTC,2011-06-17,6300.0
LTC,2011-06-20,6100.0
LTC,2011-06-21,6300.0
LTC,2011-06-22,6100.0
LTC,2011-06-23,6000.0
LTC,2011-06-24,6000.0
LTC,2011-06-27,5900.0
LTC,2011-06-28,5700.0
LTC,2011-06-29,5900.0
LTC,2011-06-30,5700.0
LTC,2011-07-01,5500.0
LTC,2011-07-04,5700.0
LTC,2011-07-05,5900.0
LTC,2011-07-06,5700.0
LTC,2011-07-07,5700.0
LTC,2011-07-08,5300.0
LTC,2011-07-11,5400.0
LTC,2011-07-12,5500.0
LTC,2011-07-13,5300.0
LTC,2011-07-14,5200.0
LTC,2011-07-15,5300.0
LTC,2011-07-18,5200.0
LTC,2011-07-19,5100.0
LTC,2011-07-20,5200.0
LTC,2011-07-21,5400.0
LTC,2011-07-22,5500.0
LTC,2011-07-25,5100.0
LTC,2011-07-26,5200.0
LTC,2011-07-27,5300.0
LTC,2011-07-28,5100.0
LTC,2011-07-29,5000.0
LTC,2011-08-01,5000.0
LTC,2011-08-02,4800.0
LTC,2011-08-03,4600.0
LTC,2011-08-04,4700.0
LTC,2011-08-05,5000.0
LTC,2011-08-08,5000.0
LTC,2011-08-09,4800.0
LTC,2011-08-10,5100.0
LTC,2011-08-11,4900.0
LTC,2011-08-12,5000.0
LTC,2011-08-15,5000.0
LTC,2011-08-16,5100.0
LTC,2011-08-17,5100.0
LTC,2011-08-18,5100.0
LTC,2011-08-19,5000.0
LTC,2011-08-22,5300.0
LTC,2011-08-23,5300.0
LTC,2011-08-24,5000.0
LTC,2011-08-25,5300.0
LTC,2011-08-26,5000.0
LTC,2011-08-29,5300.0
LTC,2011-08-30,5400.0
LTC,2011-08-31,5600.0
LTC,2011-09-01,5800.0
LTC,2011-09-05,5400.0
LTC,2011-09-06,5400.0
LTC,2011-09-07,5700.0
LTC,2011-09-08,6000.0
LTC,2011-09-09,6500.0
LTC,2011-09-12,6800.0
LTC,2011-09-13,7200.0
LTC,2011-09-14,7700.0
LTC,2011-09-15,8200.0
LTC,2011-09-16,8400.0
LTC,2011-09-19,8700.0
LTC,2011-09-20,8100.0
LTC,2011-09-21,7700.0
LTC,2011-09-22,7300.0
LTC,2011-09-23,7800.0
LTC,2011-09-26,7400.0
LTC,2011-09-27,7200.0
LTC,2011-09-28,7200.0
LTC,2011-09-29,6900.0
LTC,2011-09-30,6400.0
LTC,2011-10-03,6100.0
LTC,2011-10-04,6100.0
LTC,2011-10-05,6300.0
LTC,2011-10-06,6500.0
LTC,2011-10-07,6300.0
LTC,2011-10-10,6100.0
LTC,2011-10-11,6200.0
LTC,2011-10-12,5800.0
LTC,2011-10-13,5600.0
LTC,2011-10-14,5800.0
LTC,2011-10-17,5300.0
LTC,2011-10-18,5300.0
LTC,2011-10-19,5600.0
LTC,2011-10-20,5700.0
LTC,2011-10-21,6100.0
LTC,2011-10-24,5900.0
LTC,2011-10-25,5700.0
LTC,2011-10-26,5700.0
LTC,2011-10-27,5700.0
LTC,2011-10-28,6100.0
LTC,2011-10-31,6400.0
LTC,2011-11-01,6100.0
LTC,2011-11-02,5700.0
LTC,2011-11-03,5600.0
LTC,2011-11-04,5700.0
LTC,2011-11-07,5500.0
LTC,2011-11-08,5500.0
LTC,2011-11-09,5600.0
LTC,2011-11-10,5300.0
LTC,2011-11-11,5300.0
LTC,2011-11-14,5300.0
LTC,2011-11-15,5300.0
LTC,2011-11-16,5600.0
LTC,2011-11-17,5100.0
LTC,2011-11-18,4900.0
LTC,2011-11-21,4600.0
LTC,2011-11-22,4400.0
LTC,2011-11-23,4700.0
LTC,2011-11-24,4700.0
LTC,2011-11-25,4800.0
LTC,2011-11-28,5000.0
LTC,2011-11-29,4900.0
LTC,2011-11-30,4800.0
LTC,2011-12-01,4700.0
LTC,2011-12-02,4900.0
LTC,2011-12-05,5200.0
LTC,2011-12-06,5300.0
LTC,2011-12-07,5100.0
LTC,2011-12-08,4900.0
LTC,2011-12-09,4800.0
LTC,2011-12-12,4600.0
LTC,2011-12-13,4600.0
LTC,2011-12-14,4400.0
LTC,2011-12-15,4300.0
LTC,2011-12-16,4400.0
LTC,2011-12-19,4500.0
LTC,2011-12-20,4200.0
LTC,2011-12-21,4300.0
LTC,2011-12-22,4200.0
LTC,2011-12-23,4200.0
LTC,2011-12-26,3900.0
LTC,2011-12-27,3800.0
LTC,2011-12-28,4000.0
LTC,2011-12-29,4200.0
LTC,2011-12-30,4300.0
LTC,2012-01-03,4100.0
LTC,2012-01-04,4200.0
LTC,2012-01-05,4300.0
LTC,2012-01-06,4200.0
LTC,2012-01-09,4200.0
LTC,2012-01-10,4200.0
LTC,2012-01-11,4200.0
LTC,2012-01-12,4200.0
LTC,2012-01-13,4200.0
LTC,2012-01-16,4300.0
LTC,2012-01-17,4100.0
LTC,2012-01-18,4300.0
LTC,2012-01-19,4600.0
LTC,2012-01-20,4600.0
LTC,2012-01-30,4600.0
LTC,2012-01-31,4600.0
LTC,2012-02-01,4600.0
LTC,2012-02-02,4900.0
LTC,2012-02-03,4700.0
LTC,2012-02-06,4600.0
LTC,2012-02-07,4300.0
LTC,2012-02-08,4500.0
LTC,2012-02-09,4400.0
LTC,2012-02-10,4200.0
LTC,2012-02-13,4000.0
LTC,2012-02-14,4100.0
LTC,2012-02-15,3800.0
LTC,2012-02-16,3900.0
LTC,2012-02-17,4100.0
LTC,2012-02-20,4200.0
LTC,2012-02-21,4300.0
LTC,2012-02-22,4500.0
LTC,2012-02-23,4700.0
LTC,2012-02-24,4900.0
LTC,2012-02-27,5200.0
LTC,2012-02-28,4800.0
LTC,2012-02-29,4700.0
LTC,2012-03-01,4600.0
LTC,2012-03-02,4700.0
LTC,2012-03-05,5000.0
LTC,2012-03-06,5300.0
LTC,2012-03-07,5500.0
LTC,2012-03-08,5100.0
LTC,2012-03-09,5300.0
LTC,2012-03-12,4600.0
LTC,2012-03-13,4700.0
LTC,2012-03-14,4600.0
LTC,2012-03-15,5000.0
LTC,2012-03-16,5000.0
LTC,2012-03-19,5300.0
LTC,2012-03-20,5600.0
LTC,2012-03-21,5800.0
LTC,2012-03-22,6000.0
LTC,2012-03-23,5700.0
LTC,2012-03-26,6100.0
LTC,2012-03-27,5700.0
LTC,2012-03-28,5800.0
LTC,2012-03-29,5800.0
LTC,2012-03-30,5300.0
LTC,2012-04-03,5500.0
LTC,2012-04-04,5200.0
LTC,2012-04-05,5500.0
LTC,2012-04-06,5200.0
LTC,2012-04-09,5600.0
LTC,2012-04-10,5300.0
LTC,2012-04-11,5500.0
LTC,2012-04-12,5700.0
LTC,2012-04-13,5500.0
LTC,2012-04-16,5600.0
LTC,2012-04-17,5500.0
LTC,2012-04-18,5300.0
LTC,2012-04-19,5100.0
LTC,2012-04-20,5100.0
LTC,2012-04-23,5100.0
LTC,2012-04-24,5000.0
LTC,2012-04-25,5300.0
LTC,2012-04-26,5300.0
LTC,2012-04-27,5600.0
LTC,2012-05-02,5900.0
LTC,2012-05-03,6100.0
LTC,2012-05-04,6100.0
LTC,2012-05-07,6400.0
LTC,2012-05-08,6200.0
LTC,2012-05-09,6100.0
LTC,2012-05-10,6100.0
LTC,2012-05-11,6400.0
LTC,2012-05-14,6800.0
LTC,2012-05-15,6600.0
LTC,2012-05-16,6400.0
LTC,2012-05-17,5900.0
LTC,2012-05-18,5500.0
LTC,2012-05-21,5700.0
LTC,2012-05-22,5600.0
LTC,2012-05-23,5300.0
LTC,2012-05-24,5000.0
LTC,2012-05-25,5300.0
LTC,2012-05-28,5400.0
LTC,2012-05-29,5200.0
LTC,2012-05-30,5300.0
LTC,2012-05-31,5100.0
LTC,2012-06-01,5100.0
LTC,2012-06-04,4900.0
LTC,2012-06-05,5200.0
LTC,2012-06-06,5300.0
LTC,2012-06-07,5600.0
LTC,2012-06-08,5300.0
LTC,2012-06-11,5300.0
LTC,2012-06-12,5000.0
LTC,2012-06-13,5000.0
LTC,2012-06-14,5200.0
LTC,2012-06-15,5100.0
LTC,2012-06-18,5100.0
LTC,2012-06-19,5000.0
LTC,2012-06-20,5000.0
LTC,2012-06-21,4900.0
LTC,2012-06-22,4800.0
LTC,2012-06-25,4900.0
LTC,2012-06-26,4800.0
LTC,2012-06-27,5000.0
LTC,2012-06-28,5000.0
LTC,2012-06-29,5000.0
LTC,2012-07-02,5100.0
LTC,2012-07-03,4900.0
LTC,2012-07-04,4400.0
LTC,2012-07-05,4600.0
LTC,2012-07-06,4700.0
LTC,2012-07-09,4500.0
LTC,2012-07-10,4600.0
LTC,2012-07-11,4600.0
LTC,2012-07-12,4500.0
LTC,2012-07-13,4700.0
LTC,2012-07-16,4700.0
LTC,2012-07-17,4700.0
LTC,2012-07-18,4600.0
LTC,2012-07-19,5000.0
LTC,2012-07-20,4700.0
LTC,2012-07-23,4600.0
LTC,2012-07-24,4300.0
LTC,2012-07-25,4300.0
LTC,2012-07-26,4600.0
LTC,2012-07-27,4600.0
LTC,2012-07-30,4400.0
LTC,2012-07-31,4500.0
LTC,2012-08-01,4700.0
LTC,2012-08-02,4600.0
LTC,2012-08-03,4600.0
LTC,2012-08-06,4600.0
LTC,2012-08-07,4500.0
LTC,2012-08-08,4500.0
LTC,2012-08-09,4200.0
LTC,2012-08-10,4400.0
LTC,2012-08-13,4300.0
LTC,2012-08-14,4200.0
LTC,2012-08-15,4000.0
LTC,2012-08-16,4200.0
LTC,2012-08-17,4200.0
LTC,2012-08-20,4100.0
LTC,2012-08-21,3900.0
LTC,2012-08-22,3900.0
LTC,2012-08-23,3600.0
LTC,2012-08-24,3500.0
LTC,2012-08-27,3400.0
LTC,2012-08-28,3600.0
LTC,2012-08-29,3500.0
LTC,2012-08-30,3500.0
LTC,2012-08-31,3800.0
LTC,2012-09-04,3800.0
LTC,2012-09-05,3800.0
LTC,2012-09-06,3500.0
LTC,2012-09-07,3400.0
LTC,2012-09-10,3100.0
LTC,2012-09-11,3100.0
LTC,2012-09-12,3100.0
LTC,2012-09-13,3000.0
LTC,2012-09-14,3100.0
LTC,2012-09-17,3300.0
LTC,2012-09-18,3300.0
LTC,2012-09-19,3200.0
LTC,2012-09-20,3400.0
LTC,2012-09-21,3500.0
LTC,2012-09-24,3500.0
LTC,2012-09-25,3500.0
LTC,2012-09-26,3600.0
LTC,2012-09-27,3700.0
LTC,2012-09-28,3300.0
LTC,2012-10-01,3500.0
LTC,2012-10-02,3500.0
LTC,2012-10-03,3200.0
LTC,2012-10-04,3400.0
LTC,2012-10-05,3500.0
LTC,2012-10-08,3500.0
LTC,2012-10-09,3300.0
LTC,2012-10-10,3400.0
LTC,2012-10-11,3500.0
LTC,2012-10-12,3600.0
LTC,2012-10-15,3900.0
LTC,2012-10-16,3900.0
LTC,2012-10-17,3700.0
LTC,2012-10-18,3500.0
LTC,2012-10-19,3600.0
LTC,2012-10-22,3600.0
LTC,2012-10-23,3600.0
LTC,2012-10-24,3500.0
LTC,2012-10-25,3500.0
LTC,2012-10-26,3500.0
LTC,2012-10-29,3500.0
LTC,2012-10-30,3500.0
LTC,2012-10-31,3500.0
LTC,2012-11-01,3500.0
LTC,2012-11-02,3700.0
LTC,2012-11-05,3700.0
LTC,2012-11-06,3700.0
LTC,2012-11-07,3700.0
LTC,2012-11-08,3700.0
LTC,2012-11-09,3500.0
LTC,2012-11-12,3200.0
LTC,2012-11-13,3400.0
LTC,2012-11-14,3600.0
LTC,2012-11-15,3500.0
LTC,2012-11-16,3600.0
LTC,2012-11-19,3600.0
LTC,2012-11-20,3700.0
LTC,2012-11-21,3800.0
LTC,2012-11-22,3800.0
LTC,2012-11-23,3500.0
LTC,2012-11-26,3500.0
LTC,2012-11-27,3500.0
LTC,2012-11-28,3500.0
LTC,2012-11-29,3500.0
LTC,2012-11-30,3500.0
LTC,2012-12-03,3500.0
LTC,2012-12-04,3500.0
LTC,2012-12-05,3500.0
LTC,2012-12-06,3500.0
LTC,2012-12-07,3700.0
LTC,2012-12-10,3600.0
LTC,2012-12-11,3500.0
LTC,2012-12-12,3500.0
LTC,2012-12-13,3400.0
LTC,2012-12-14,3500.0
LTC,2012-12-17,3500.0
LTC,2012-12-18,3700.0
LTC,2012-12-19,3700.0
LTC,2012-12-20,3500.0
LTC,2012-12-21,3500.0
LTC,2012-12-24,3500.0
LTC,2012-12-25,3300.0
LTC,2012-12-26,3500.0
LTC,2012-12-27,3600.0
LTC,2012-12-28,3600.0
LTC,2013-01-02,3900.0
LTC,2013-01-03,3800.0
LTC,2013-01-04,3800.0
LTC,2013-01-07,3800.0
LTC,2013-01-08,4000.0
LTC,2013-01-09,4100.0
LTC,2013-01-10,4200.0
LTC,2013-01-11,4200.0
LTC,2013-01-14,4100.0
LTC,2013-01-15,4200.0
LTC,2013-01-16,4200.0
LTC,2013-01-17,4200.0
LTC,2013-01-18,4200.0
LTC,2013-01-21,4200.0
LTC,2013-01-22,4200.0
LTC,2013-01-23,4200.0
LTC,2013-01-24,4100.0
LTC,2013-01-25,4400.0
LTC,2013-01-28,4200.0
LTC,2013-01-29,3700.0
LTC,2013-01-30,3900.0
LTC,2013-01-31,3900.0
LTC,2013-02-01,3900.0
LTC,2013-02-04,3900.0
LTC,2013-02-05,4000.0
LTC,2013-02-06,4200.0
LTC,2013-02-07,4100.0
LTC,2013-02-08,4200.0
LTC,2013-02-18,4200.0
LTC,2013-02-19,4000.0
LTC,2013-02-20,3900.0
LTC,2013-02-21,3900.0
LTC,2013-02-22,4100.0
LTC,2013-02-25,3900.0
LTC,2013-02-26,3900.0
LTC,2013-02-27,3900.0
LTC,2013-02-28,3800.0
LTC,2013-03-01,3800.0
LTC,2013-03-04,3900.0
LTC,2013-03-05,3900.0
LTC,2013-03-06,3800.0
LTC,2013-03-07,3500.0
LTC,2013-03-08,3900.0
LTC,2013-03-11,3900.0
LTC,2013-03-12,3500.0
LTC,2013-03-13,3900.0
LTC,2013-03-14,3600.0
LTC,2013-03-15,3700.0
LTC,2013-03-18,3600.0
LTC,2013-03-19,3600.0
LTC,2013-03-20,3600.0
LTC,2013-03-21,3600.0
LTC,2013-03-22,3300.0
LTC,2013-03-25,3500.0
LTC,2013-03-26,3500.0
LTC,2013-03-27,3500.0
LTC,2013-03-28,3800.0
LTC,2013-03-29,4100.0
LTC,2013-04-01,4500.0
LTC,2013-04-02,4600.0
LTC,2013-04-03,4600.0
LTC,2013-04-04,4500.0
LTC,2013-04-05,4500.0
LTC,2013-04-08,4300.0
LTC,2013-04-09,4600.0
LTC,2013-04-10,4500.0
LTC,2013-04-11,4500.0
LTC,2013-04-12,4300.0
LTC,2013-04-15,4500.0
LTC,2013-04-16,4300.0
LTC,2013-04-17,4400.0
LTC,2013-04-18,4500.0
LTC,2013-04-22,4400.0
LTC,2013-04-23,4500.0
LTC,2013-04-24,4500.0
LTC,2013-04-25,4300.0
LTC,2013-04-26,4100.0
LTC,2013-05-02,4300.0
LTC,2013-05-03,4400.0
LTC,2013-05-06,4600.0
LTC,2013-05-07,4500.0
LTC,2013-05-08,4200.0
LTC,2013-05-09,4500.0
LTC,2013-05-10,4400.0
LTC,2013-05-13,4300.0
LTC,2013-05-14,4300.0
LTC,2013-05-15,4400.0
LTC,2013-05-16,4300.0
LTC,2013-05-17,4100.0
LTC,2013-05-20,4300.0
LTC,2013-05-21,4300.0
LTC,2013-05-22,4300.0
LTC,2013-05-23,4300.0
LTC,2013-05-24,4400.0
LTC,2013-05-27,4300.0
LTC,2013-05-28,4300.0
LTC,2013-05-29,4600.0
LTC,2013-05-30,4700.0
LTC,2013-05-31,5100.0
LTC,2013-06-03,4800.0
LTC,2013-06-04,4900.0
LTC,2013-06-05,5100.0
LTC,2013-06-06,4900.0
LTC,2013-06-07,5400.0
LTC,2013-06-10,5100.0
LTC,2013-06-11,5100.0
LTC,2013-06-12,5200.0
LTC,2013-06-13,5200.0
LTC,2013-06-14,5100.0
LTC,2013-06-17,5300.0
LTC,2013-06-18,5500.0
LTC,2013-06-19,5400.0
LTC,2013-06-20,5400.0
LTC,2013-06-21,5400.0
LTC,2013-06-24,5300.0
LTC,2013-06-25,5200.0
LTC,2013-06-26,5200.0
LTC,2013-06-27,5300.0
LTC,2013-06-28,5100.0
LTC,2013-07-01,5300.0
LTC,2013-07-02,5300.0
LTC,2013-07-03,5500.0
LTC,2013-07-04,5500.0
LTC,2013-07-05,5600.0
LTC,2013-07-08,5500.0
LTC,2013-07-09,5400.0
LTC,2013-07-10,5500.0
LTC,2013-07-11,5500.0
LTC,2013-07-12,5500.0
LTC,2013-07-15,5500.0
LTC,2013-07-16,5400.0
LTC,2013-07-17,5400.0
LTC,2013-07-18,5400.0
LTC,2013-07-19,5400.0
LTC,2013-07-22,5600.0
LTC,2013-07-23,5300.0
LTC,2013-07-24,5300.0
LTC,2013-07-25,5300.0
LTC,2013-07-26,5100.0
LTC,2013-07-29,5200.0
LTC,2013-07-30,5200.0
LTC,2013-07-31,5200.0
LTC,2013-08-01,5500.0
LTC,2013-08-02,5500.0
LTC,2013-08-05,5300.0
LTC,2013-08-06,5300.0
LTC,2013-08-07,5300.0
LTC,2013-08-08,5300.0
LTC,2013-08-09,5300.0
LTC,2013-08-12,5300.0
LTC,2013-08-13,5300.0
LTC,2013-08-14,5300.0
LTC,2013-08-15,5200.0
LTC,2013-08-16,5200.0
LTC,2013-08-19,5400.0
LTC,2013-08-20,5400.0
LTC,2013-08-21,5100.0
LTC,2013-08-22,5300.0
LTC,2013-08-23,5500.0
LTC,2013-08-26,5500.0
LTC,2013-08-27,4900.0
LTC,2013-08-28,5000.0
LTC,2013-08-29,5000.0
LTC,2013-08-30,5300.0
LTC,2013-09-03,5300.0
LTC,2013-09-04,5000.0
LTC,2013-09-05,5000.0
LTC,2013-09-06,4800.0
LTC,2013-09-09,5300.0
LTC,2013-09-10,5300.0
LTC,2013-09-11,5500.0
LTC,2013-09-12,5800.0
LTC,2013-09-13,5800.0
LTC,2013-09-16,6200.0
LTC,2013-09-17,6200.0
LTC,2013-09-18,6200.0
LTC,2013-09-19,6700.0
LTC,2013-09-20,6100.0
LTC,2013-09-23,6600.0
LTC,2013-09-24,6000.0
LTC,2013-09-25,5600.0
LTC,2013-09-26,5700.0
LTC,2013-09-27,5600.0
LTC,2013-09-30,5700.0
LTC,2013-10-01,5700.0
LTC,2013-10-02,5800.0
LTC,2013-10-03,6100.0
LTC,2013-10-04,6000.0
LTC,2013-10-07,6300.0
LTC,2013-10-08,6300.0
LTC,2013-10-09,6300.0
LTC,2013-10-10,5600.0
LTC,2013-10-11,5200.0
LTC,2013-10-14,5600.0
LTC,2013-10-15,5600.0
LTC,2013-10-16,5600.0
LTC,2013-10-17,5600.0
LTC,2013-10-18,5100.0
LTC,2013-10-21,5400.0
LTC,2013-10-22,5400.0
LTC,2013-10-23,5600.0
LTC,2013-10-24,5200.0
LTC,2013-10-25,5300.0
LTC,2013-10-28,5300.0
LTC,2013-10-29,5200.0
LTC,2013-10-30,5200.0
LTC,2013-10-31,5200.0
LTC,2013-11-01,5200.0
LTC,2013-11-04,5300.0
LTC,2013-11-05,5400.0
LTC,2013-11-06,5700.0
LTC,2013-11-07,6300.0
LTC,2013-11-08,5600.0
LTC,2013-11-11,5600.0
LTC,2013-11-12,5600.0
LTC,2013-11-13,5400.0
LTC,2013-11-14,5600.0
LTC,2013-11-15,5600.0
LTC,2013-11-18,5800.0
LTC,2013-11-19,6100.0
LTC,2013-11-20,6600.0
LTC,2013-11-21,6600.0
LTC,2013-11-22,7100.0
LTC,2013-11-25,6500.0
LTC,2013-11-26,6800.0
LTC,2013-11-27,6700.0
LTC,2013-11-28,6500.0
LTC,2013-11-29,6500.0
LTC,2013-12-02,6500.0
LTC,2013-12-03,6200.0
LTC,2013-12-04,6000.0
LTC,2013-12-05,5900.0
LTC,2013-12-06,6100.0
LTC,2013-12-09,5900.0
LTC,2013-12-10,5900.0
LTC,2013-12-11,5900.0
LTC,2013-12-12,5900.0
LTC,2013-12-13,5800.0
LTC,2013-12-16,5800.0
LTC,2013-12-17,5900.0
LTC,2013-12-18,6000.0
LTC,2013-12-19,6200.0
LTC,2013-12-20,6300.0
LTC,2013-12-23,6300.0
LTC,2013-12-24,6300.0
LTC,2013-12-25,6300.0
LTC,2013-12-26,6200.0
LTC,2013-12-27,6200.0
LTC,2013-12-30,6000.0
LTC,2013-12-31,6000.0
LTC,2014-01-02,6000.0
LTC,2014-01-03,6200.0
LTC,2014-01-06,6100.0
LTC,2014-01-07,6300.0
LTC,2014-01-08,6300.0
LTC,2014-01-09,6300.0
LTC,2014-01-10,6200.0
LTC,2014-01-13,6200.0
LTC,2014-01-14,6100.0
LTC,2014-01-15,6100.0
LTC,2014-01-16,6100.0
LTC,2014-01-17,6100.0
LTC,2014-01-20,6300.0
LTC,2014-01-21,6200.0
LTC,2014-01-22,6200.0
LTC,2014-01-23,6200.0
LTC,2014-01-24,6100.0
LTC,2014-01-27,6100.0
LTC,2014-02-06,6300.0
LTC,2014-02-07,6200.0
LTC,2014-02-10,6400.0
LTC,2014-02-11,6700.0
LTC,2014-02-12,6400.0
LTC,2014-02-13,6500.0
LTC,2014-02-14,7200.0
LTC,2014-02-17,7200.0
LTC,2014-02-18,7600.0
LTC,2014-02-19,8100.0
LTC,2014-02-20,7400.0
LTC,2014-02-21,7400.0
LTC,2014-02-24,7500.0
LTC,2014-02-25,7700.0
LTC,2014-02-26,8400.0
LTC,2014-02-27,9200.0
LTC,2014-02-28,9600.0
LTC,2014-03-03,9000.0
LTC,2014-03-04,9000.0
LTC,2014-03-05,9100.0
LTC,2014-03-06,9200.0
LTC,2014-03-07,9100.0
LTC,2014-03-10,9100.0
LTC,2014-03-11,9000.0
LTC,2014-03-12,8900.0
LTC,2014-03-13,9000.0
LTC,2014-03-14,8900.0
LTC,2014-03-17,8900.0
LTC,2014-03-18,9000.0
LTC,2014-03-19,9100.0
LTC,2014-03-20,10000.0
LTC,2014-03-21,10100.0
LTC,2014-03-24,11100.0
LTC,2014-03-25,11300.0
LTC,2014-03-26,10700.0
LTC,2014-03-27,10900.0
LTC,2014-03-28,11000.0
LTC,2014-03-31,10800.0
LTC,2014-04-01,10400.0
LTC,2014-04-02,9900.0
LTC,2014-04-03,10200.0
LTC,2014-04-04,9900.0
LTC,2014-04-07,9900.0
LTC,2014-04-08,10300.0
LTC,2014-04-10,10300.0
LTC,2014-04-11,10400.0
LTC,2014-04-14,10200.0
LTC,2014-04-15,9700.0
LTC,2014-04-16,9500.0
LTC,2014-04-17,9800.0
LTC,2014-04-18,9300.0
LTC,2014-04-21,8700.0
LTC,2014-04-22,9200.0
LTC,2014-04-23,9600.0
LTC,2014-04-24,9600.0
LTC,2014-04-25,9400.0
LTC,2014-04-28,9400.0
LTC,2014-04-29,9600.0
LTC,2014-05-05,9200.0
LTC,2014-05-06,9000.0
LTC,2014-05-07,8700.0
LTC,2014-05-08,8500.0
LTC,2014-05-09,8900.0
LTC,2014-05-12,8100.0
LTC,2014-05-13,7600.0
LTC,2014-05-14,8100.0
LTC,2014-05-15,8000.0
LTC,2014-05-16,8000.0
LTC,2014-05-19,8300.0
LTC,2014-05-20,8300.0
LTC,2014-05-21,8400.0
