MCC,2010-04-26,21100.0
MCC,2010-04-27,22100.0
MCC,2010-04-28,21400.0
MCC,2010-04-29,22100.0
MCC,2010-05-04,21800.0
MCC,2010-05-05,22300.0
MCC,2010-05-06,22400.0
MCC,2010-05-07,22400.0
MCC,2010-05-10,22000.0
MCC,2010-05-11,21000.0
MCC,2010-05-12,21400.0
MCC,2010-05-13,20700.0
MCC,2010-05-14,22100.0
MCC,2010-05-17,20700.0
MCC,2010-05-18,21100.0
MCC,2010-05-19,19700.0
MCC,2010-05-20,21400.0
MCC,2010-05-21,19600.0
MCC,2010-05-24,17900.0
MCC,2010-05-25,16700.0
MCC,2010-05-26,17900.0
MCC,2010-05-27,18900.0
MCC,2010-05-28,19600.0
MCC,2010-05-31,19100.0
MCC,2010-06-01,19500.0
MCC,2010-06-02,19500.0
MCC,2010-06-03,20200.0
MCC,2010-06-04,19000.0
MCC,2010-06-07,17700.0
MCC,2010-06-08,19000.0
MCC,2010-06-09,18900.0
MCC,2010-06-10,18800.0
MCC,2010-06-11,17600.0
MCC,2010-06-14,18800.0
MCC,2010-06-15,18900.0
MCC,2010-06-16,18200.0
MCC,2010-06-17,18300.0
MCC,2010-06-18,18200.0
MCC,2010-06-21,18200.0
MCC,2010-06-22,18900.0
MCC,2010-06-23,18800.0
MCC,2010-06-24,17800.0
MCC,2010-06-25,17500.0
MCC,2010-06-28,17500.0
MCC,2010-06-29,18200.0
MCC,2010-06-30,17500.0
MCC,2010-07-01,17000.0
MCC,2010-07-02,16900.0
MCC,2010-07-05,17000.0
MCC,2010-07-06,16800.0
MCC,2010-07-07,18200.0
MCC,2010-07-08,16900.0
MCC,2010-07-09,17500.0
MCC,2010-07-12,16900.0
MCC,2010-07-13,16900.0
MCC,2010-07-14,16900.0
MCC,2010-07-15,16800.0
MCC,2010-07-16,17500.0
MCC,2010-07-19,16900.0
MCC,2010-07-20,17200.0
MCC,2010-07-21,16900.0
MCC,2010-07-22,16800.0
MCC,2010-07-23,17500.0
MCC,2010-07-26,16700.0
MCC,2010-07-27,15500.0
MCC,2010-07-28,15600.0
MCC,2010-07-29,16600.0
MCC,2010-07-30,16800.0
MCC,2010-08-02,17200.0
MCC,2010-08-03,16100.0
MCC,2010-08-04,16100.0
MCC,2010-08-05,16200.0
MCC,2010-08-06,16800.0
MCC,2010-08-09,15700.0
MCC,2010-08-10,14800.0
MCC,2010-08-11,15300.0
MCC,2010-08-12,15300.0
MCC,2010-08-13,15300.0
MCC,2010-08-16,16400.0
MCC,2010-08-17,17000.0
MCC,2010-08-18,15800.0
MCC,2010-08-19,16200.0
MCC,2010-08-20,16100.0
MCC,2010-08-23,15800.0
MCC,2010-08-24,16100.0
MCC,2010-08-25,16000.0
MCC,2010-08-26,16000.0
MCC,2010-08-27,16300.0
MCC,2010-08-30,16000.0
MCC,2010-08-31,16000.0
MCC,2010-09-01,16000.0
MCC,2010-09-06,17100.0
MCC,2010-09-07,17800.0
MCC,2010-09-08,17400.0
MCC,2010-09-09,17800.0
MCC,2010-09-10,17800.0
MCC,2010-09-13,17900.0
MCC,2010-09-14,18200.0
MCC,2010-09-15,18200.0
MCC,2010-09-16,18200.0
MCC,2010-09-17,18200.0
MCC,2010-09-20,18300.0
MCC,2010-09-21,18200.0
MCC,2010-09-22,17800.0
MCC,2010-09-23,18200.0
MCC,2010-09-24,18200.0
MCC,2010-09-27,18200.0
MCC,2010-09-28,18200.0
MCC,2010-09-29,18200.0
MCC,2010-09-30,17400.0
MCC,2010-10-01,18200.0
MCC,2010-10-04,18200.0
MCC,2010-10-05,18200.0
MCC,2010-10-06,18200.0
MCC,2010-10-07,17800.0
MCC,2010-10-08,17600.0
MCC,2010-10-11,17400.0
MCC,2010-10-12,17400.0
MCC,2010-10-13,17400.0
MCC,2010-10-14,17400.0
MCC,2010-10-15,17800.0
MCC,2010-10-18,17400.0
MCC,2010-10-19,17400.0
MCC,2010-10-20,17400.0
MCC,2010-10-21,17400.0
MCC,2010-10-22,17400.0
MCC,2010-10-25,17400.0
MCC,2010-10-26,18500.0
MCC,2010-10-27,17400.0
MCC,2010-10-28,17400.0
MCC,2010-10-29,17400.0
MCC,2010-11-01,17600.0
MCC,2010-11-02,17600.0
MCC,2010-11-03,17600.0
MCC,2010-11-04,18500.0
MCC,2010-11-05,18200.0
MCC,2010-11-08,18200.0
MCC,2010-11-09,17400.0
MCC,2010-11-10,17400.0
MCC,2010-11-11,17100.0
MCC,2010-11-12,18000.0
MCC,2010-11-15,18000.0
MCC,2010-11-16,18100.0
MCC,2010-11-17,18200.0
MCC,2010-11-18,18200.0
MCC,2010-11-19,18300.0
MCC,2010-11-22,18100.0
MCC,2010-11-23,18100.0
MCC,2010-11-24,17400.0
MCC,2010-11-25,18000.0
MCC,2010-11-26,18100.0
MCC,2010-11-29,18200.0
MCC,2010-11-30,18200.0
MCC,2010-12-01,17400.0
MCC,2010-12-02,17400.0
MCC,2010-12-03,17400.0
MCC,2010-12-06,16300.0
MCC,2010-12-07,17400.0
MCC,2010-12-08,17400.0
MCC,2010-12-09,17400.0
MCC,2010-12-10,17400.0
MCC,2010-12-13,17400.0
MCC,2010-12-14,17800.0
MCC,2010-12-15,17800.0
MCC,2010-12-16,17800.0
MCC,2010-12-17,17800.0
MCC,2010-12-20,17800.0
MCC,2010-12-21,17800.0
MCC,2010-12-22,17600.0
MCC,2010-12-23,17400.0
MCC,2010-12-24,18100.0
MCC,2010-12-27,18100.0
MCC,2010-12-28,18100.0
MCC,2010-12-29,18100.0
MCC,2010-12-30,18800.0
MCC,2010-12-31,18800.0
MCC,2011-01-04,18200.0
MCC,2011-01-05,18200.0
MCC,2011-01-06,18200.0
MCC,2011-01-07,18200.0
MCC,2011-01-10,18200.0
MCC,2011-01-11,18200.0
MCC,2011-01-12,18100.0
MCC,2011-01-13,18100.0
MCC,2011-01-14,18100.0
MCC,2011-01-17,18100.0
MCC,2011-01-18,18000.0
MCC,2011-01-19,18000.0
MCC,2011-01-20,18000.0
MCC,2011-01-21,17400.0
MCC,2011-01-24,17600.0
MCC,2011-01-25,17600.0
MCC,2011-01-26,17600.0
MCC,2011-01-27,16700.0
MCC,2011-01-28,16700.0
MCC,2011-02-08,17800.0
MCC,2011-02-09,17800.0
MCC,2011-02-10,17800.0
MCC,2011-02-11,17800.0
MCC,2011-02-14,17800.0
MCC,2011-02-15,17800.0
MCC,2011-02-16,17800.0
MCC,2011-02-17,17900.0
MCC,2011-02-18,17900.0
MCC,2011-02-21,17900.0
MCC,2011-02-22,17900.0
MCC,2011-02-23,17900.0
MCC,2011-02-24,17900.0
MCC,2011-02-25,17900.0
MCC,2011-02-28,17800.0
MCC,2011-03-01,17800.0
MCC,2011-03-02,17800.0
MCC,2011-03-03,17400.0
MCC,2011-03-04,17400.0
MCC,2011-03-07,17400.0
MCC,2011-03-08,17400.0
MCC,2011-03-09,16200.0
MCC,2011-03-10,16200.0
MCC,2011-03-11,16300.0
MCC,2011-03-14,16300.0
MCC,2011-03-15,16700.0
MCC,2011-03-16,16700.0
MCC,2011-03-17,16700.0
MCC,2011-03-18,15500.0
MCC,2011-03-21,15500.0
MCC,2011-03-22,15500.0
MCC,2011-03-23,15500.0
MCC,2011-03-24,15100.0
MCC,2011-03-25,15100.0
MCC,2011-03-28,15100.0
MCC,2011-03-29,15100.0
MCC,2011-03-30,15100.0
MCC,2011-03-31,15100.0
MCC,2011-04-01,15100.0
MCC,2011-04-04,15100.0
MCC,2011-04-05,15100.0
MCC,2011-04-06,15100.0
MCC,2011-04-07,15100.0
MCC,2011-04-08,15100.0
MCC,2011-04-13,15100.0
MCC,2011-04-14,15100.0
MCC,2011-04-15,15100.0
MCC,2011-04-18,15100.0
MCC,2011-04-19,15100.0
MCC,2011-04-20,15100.0
MCC,2011-04-21,15100.0
MCC,2011-04-22,15100.0
MCC,2011-04-25,15100.0
MCC,2011-04-26,15100.0
MCC,2011-04-27,15100.0
MCC,2011-04-28,15100.0
MCC,2011-04-29,15100.0
MCC,2011-05-04,15100.0
MCC,2011-05-05,15100.0
MCC,2011-05-06,15100.0
MCC,2011-05-09,15100.0
MCC,2011-05-10,15100.0
MCC,2011-05-11,15100.0
MCC,2011-05-12,15100.0
MCC,2011-05-13,15100.0
MCC,2011-05-16,15100.0
MCC,2011-05-17,15100.0
MCC,2011-05-18,15100.0
MCC,2011-05-19,15100.0
MCC,2011-05-20,15100.0
MCC,2011-05-23,15100.0
MCC,2011-05-24,15100.0
MCC,2011-05-25,15100.0
MCC,2011-05-26,15100.0
MCC,2011-05-27,15100.0
MCC,2011-05-30,15100.0
MCC,2011-05-31,15100.0
MCC,2011-06-01,15100.0
MCC,2011-06-02,15100.0
MCC,2011-06-03,14200.0
MCC,2011-06-06,14200.0
MCC,2011-06-07,14200.0
MCC,2011-06-08,14200.0
MCC,2011-06-09,13600.0
MCC,2011-06-10,13100.0
MCC,2011-06-13,13900.0
MCC,2011-06-14,14800.0
MCC,2011-06-15,14800.0
MCC,2011-06-16,15600.0
MCC,2011-06-17,16600.0
MCC,2011-06-20,16600.0
MCC,2011-06-21,15600.0
MCC,2011-06-22,15900.0
MCC,2011-06-23,16700.0
MCC,2011-06-24,16700.0
MCC,2011-06-27,16700.0
MCC,2011-06-28,16700.0
MCC,2011-06-29,16700.0
MCC,2011-06-30,16700.0
MCC,2011-07-01,16700.0
MCC,2011-07-04,15600.0
MCC,2011-07-05,14500.0
MCC,2011-07-06,13600.0
MCC,2011-07-07,12600.0
MCC,2011-07-08,11800.0
MCC,2011-07-11,11100.0
MCC,2011-07-12,10300.0
MCC,2011-07-13,9600.0
MCC,2011-07-14,9000.0
MCC,2011-07-15,8400.0
MCC,2011-07-18,9000.0
MCC,2011-07-19,9600.0
MCC,2011-07-20,10200.0
MCC,2011-07-21,10900.0
MCC,2011-07-22,11600.0
MCC,2011-07-25,10800.0
MCC,2011-07-26,10500.0
MCC,2011-07-27,10500.0
MCC,2011-07-28,10300.0
MCC,2011-07-29,10600.0
MCC,2011-08-01,10600.0
MCC,2011-08-02,10600.0
MCC,2011-08-03,11200.0
MCC,2011-08-04,11200.0
MCC,2011-08-05,11200.0
MCC,2011-08-08,11200.0
MCC,2011-08-09,10500.0
MCC,2011-08-10,9800.0
MCC,2011-08-11,9800.0
MCC,2011-08-12,9500.0
MCC,2011-08-15,10000.0
MCC,2011-08-16,10600.0
MCC,2011-08-17,11300.0
MCC,2011-08-18,11400.0
MCC,2011-08-19,11400.0
MCC,2011-08-22,11400.0
MCC,2011-08-23,12000.0
MCC,2011-08-24,12000.0
MCC,2011-08-25,12000.0
MCC,2011-08-26,12000.0
MCC,2011-08-29,12000.0
MCC,2011-08-30,11500.0
MCC,2011-08-31,10900.0
MCC,2011-09-01,10900.0
MCC,2011-09-05,10900.0
MCC,2011-09-06,10300.0
MCC,2011-09-07,9600.0
MCC,2011-09-08,9700.0
MCC,2011-09-09,9200.0
MCC,2011-09-12,9200.0
MCC,2011-09-13,9200.0
MCC,2011-09-14,9800.0
MCC,2011-09-15,10100.0
MCC,2011-09-16,10100.0
MCC,2011-09-19,10100.0
MCC,2011-09-20,10100.0
MCC,2011-09-21,10100.0
MCC,2011-09-22,10500.0
MCC,2011-09-23,10500.0
MCC,2011-09-26,10700.0
MCC,2011-09-27,10700.0
MCC,2011-09-28,10600.0
MCC,2011-09-29,10500.0
MCC,2011-09-30,10500.0
MCC,2011-10-03,10500.0
MCC,2011-10-04,10000.0
MCC,2011-10-05,10000.0
MCC,2011-10-06,10000.0
MCC,2011-10-07,10000.0
MCC,2011-10-10,10000.0
MCC,2011-10-11,10400.0
MCC,2011-10-12,10400.0
MCC,2011-10-13,10400.0
MCC,2011-10-14,10800.0
MCC,2011-10-17,10300.0
MCC,2011-10-18,10300.0
MCC,2011-10-19,10300.0
MCC,2011-10-20,10300.0
MCC,2011-10-21,10600.0
MCC,2011-10-24,10300.0
MCC,2011-10-25,10100.0
MCC,2011-10-26,10100.0
MCC,2011-10-27,9900.0
MCC,2011-10-28,10200.0
MCC,2011-10-31,10300.0
MCC,2011-11-01,10300.0
MCC,2011-11-02,10700.0
MCC,2011-11-03,10700.0
MCC,2011-11-04,10700.0
MCC,2011-11-07,10700.0
MCC,2011-11-08,10700.0
MCC,2011-11-09,10700.0
MCC,2011-11-10,10700.0
MCC,2011-11-11,10700.0
MCC,2011-11-14,10700.0
MCC,2011-11-15,10700.0
MCC,2011-11-16,11400.0
MCC,2011-11-17,11100.0
MCC,2011-11-18,11100.0
MCC,2011-11-21,11400.0
MCC,2011-11-22,11400.0
MCC,2011-11-23,11400.0
MCC,2011-11-24,11400.0
MCC,2011-11-25,11400.0
MCC,2011-11-28,11400.0
MCC,2011-11-29,11400.0
MCC,2011-11-30,11400.0
MCC,2011-12-01,11400.0
MCC,2011-12-02,11400.0
MCC,2011-12-05,11400.0
MCC,2011-12-06,11400.0
MCC,2011-12-07,11400.0
MCC,2011-12-08,11400.0
MCC,2011-12-09,11400.0
MCC,2011-12-12,11400.0
MCC,2011-12-13,11400.0
MCC,2011-12-14,11200.0
MCC,2011-12-15,11000.0
MCC,2011-12-16,11100.0
MCC,2011-12-19,11200.0
MCC,2011-12-20,11200.0
MCC,2011-12-21,11200.0
MCC,2011-12-22,11200.0
MCC,2011-12-23,11200.0
MCC,2011-12-26,11900.0
MCC,2011-12-27,12700.0
MCC,2011-12-28,13300.0
MCC,2011-12-29,13800.0
MCC,2011-12-30,14300.0
MCC,2012-01-03,14300.0
MCC,2012-01-04,14300.0
MCC,2012-01-05,14300.0
MCC,2012-01-06,14300.0
MCC,2012-01-09,14300.0
MCC,2012-01-10,14300.0
MCC,2012-01-11,14300.0
MCC,2012-01-12,14600.0
MCC,2012-01-13,13800.0
MCC,2012-01-16,14400.0
MCC,2012-01-17,14400.0
MCC,2012-01-18,14400.0
MCC,2012-01-19,14400.0
MCC,2012-01-20,14400.0
MCC,2012-01-30,14400.0
MCC,2012-01-31,13500.0
MCC,2012-02-01,13500.0
MCC,2012-02-02,12600.0
MCC,2012-02-03,11700.0
MCC,2012-02-06,11500.0
MCC,2012-02-07,11500.0
MCC,2012-02-08,11500.0
MCC,2012-02-09,11500.0
MCC,2012-02-10,11100.0
MCC,2012-02-13,12100.0
MCC,2012-02-14,11500.0
MCC,2012-02-15,11500.0
MCC,2012-02-16,11500.0
MCC,2012-02-17,11500.0
MCC,2012-02-20,11500.0
MCC,2012-02-21,11500.0
MCC,2012-02-22,11500.0
MCC,2012-02-23,11500.0
MCC,2012-02-24,11500.0
MCC,2012-02-27,11500.0
MCC,2012-02-28,11500.0
MCC,2012-02-29,11500.0
MCC,2012-03-01,11500.0
MCC,2012-03-02,11100.0
MCC,2012-03-05,10400.0
MCC,2012-03-06,10400.0
MCC,2012-03-07,11100.0
MCC,2012-03-08,11100.0
MCC,2012-03-09,11100.0
MCC,2012-03-12,11100.0
MCC,2012-03-13,11100.0
MCC,2012-03-14,11100.0
MCC,2012-03-15,11100.0
MCC,2012-03-16,11100.0
MCC,2012-03-19,11100.0
MCC,2012-03-20,11100.0
MCC,2012-03-21,11100.0
MCC,2012-03-22,11100.0
MCC,2012-03-23,10400.0
MCC,2012-03-26,10400.0
MCC,2012-03-27,9700.0
MCC,2012-03-28,9100.0
MCC,2012-03-29,9100.0
MCC,2012-03-30,9100.0
MCC,2012-04-03,9700.0
MCC,2012-04-04,9700.0
MCC,2012-04-05,9700.0
MCC,2012-04-06,9700.0
MCC,2012-04-09,9700.0
MCC,2012-04-10,9700.0
MCC,2012-04-11,9700.0
MCC,2012-04-12,10400.0
MCC,2012-04-13,10400.0
MCC,2012-04-16,11000.0
MCC,2012-04-17,11200.0
MCC,2012-04-18,11200.0
MCC,2012-04-19,11200.0
MCC,2012-04-20,11200.0
MCC,2012-04-23,11200.0
MCC,2012-04-24,10500.0
MCC,2012-04-25,10500.0
MCC,2012-04-26,10500.0
MCC,2012-04-27,10500.0
MCC,2012-05-02,10500.0
MCC,2012-05-03,11100.0
MCC,2012-05-04,11100.0
MCC,2012-05-07,11000.0
MCC,2012-05-08,11000.0
MCC,2012-05-09,11000.0
MCC,2012-05-10,11000.0
MCC,2012-05-11,11000.0
MCC,2012-05-14,11000.0
MCC,2012-05-15,11000.0
MCC,2012-05-16,11000.0
MCC,2012-05-17,11000.0
MCC,2012-05-18,11000.0
MCC,2012-05-21,11000.0
MCC,2012-05-22,11000.0
MCC,2012-05-23,11000.0
MCC,2012-05-24,11000.0
MCC,2012-05-25,11000.0
MCC,2012-05-28,11000.0
MCC,2012-05-29,10200.0
MCC,2012-05-30,10200.0
MCC,2012-05-31,9500.0
MCC,2012-06-01,10100.0
MCC,2012-06-04,10100.0
MCC,2012-06-05,9400.0
MCC,2012-06-06,8900.0
MCC,2012-06-07,9300.0
MCC,2012-06-08,8900.0
MCC,2012-06-11,8600.0
MCC,2012-06-12,8600.0
MCC,2012-06-13,8500.0
MCC,2012-06-14,8500.0
MCC,2012-06-15,9000.0
MCC,2012-06-18,9300.0
MCC,2012-06-19,9300.0
MCC,2012-06-20,9700.0
MCC,2012-06-21,9700.0
MCC,2012-06-22,9900.0
MCC,2012-06-25,9900.0
MCC,2012-06-26,9700.0
MCC,2012-06-27,9900.0
MCC,2012-06-28,9900.0
MCC,2012-06-29,9900.0
MCC,2012-07-02,10000.0
MCC,2012-07-03,9400.0
MCC,2012-07-04,9900.0
MCC,2012-07-05,9900.0
MCC,2012-07-06,9900.0
MCC,2012-07-09,9200.0
MCC,2012-07-10,9200.0
MCC,2012-07-11,9200.0
MCC,2012-07-12,9200.0
MCC,2012-07-13,9800.0
MCC,2012-07-16,9300.0
MCC,2012-07-17,9700.0
MCC,2012-07-18,9300.0
MCC,2012-07-19,9300.0
MCC,2012-07-20,9800.0
MCC,2012-07-23,9700.0
MCC,2012-07-24,9700.0
MCC,2012-07-25,10300.0
MCC,2012-07-26,10300.0
MCC,2012-07-27,10300.0
MCC,2012-07-30,10300.0
MCC,2012-07-31,11000.0
MCC,2012-08-01,11600.0
MCC,2012-08-02,11600.0
MCC,2012-08-03,12200.0
MCC,2012-08-06,12100.0
MCC,2012-08-07,11200.0
MCC,2012-08-08,11200.0
MCC,2012-08-09,11200.0
MCC,2012-08-10,10500.0
MCC,2012-08-13,9800.0
MCC,2012-08-14,9300.0
MCC,2012-08-15,9400.0
MCC,2012-08-16,9300.0
MCC,2012-08-17,9500.0
MCC,2012-08-20,9900.0
MCC,2012-08-21,9900.0
MCC,2012-08-22,10400.0
MCC,2012-08-23,11000.0
MCC,2012-08-24,11600.0
MCC,2012-08-27,11600.0
MCC,2012-08-28,11500.0
MCC,2012-08-29,11500.0
MCC,2012-08-30,11500.0
MCC,2012-08-31,11500.0
MCC,2012-09-04,11500.0
MCC,2012-09-05,11500.0
MCC,2012-09-06,11500.0
MCC,2012-09-07,11500.0
MCC,2012-09-10,11500.0
MCC,2012-09-11,11500.0
MCC,2012-09-12,11500.0
MCC,2012-09-13,11500.0
MCC,2012-09-14,10700.0
MCC,2012-09-17,10100.0
MCC,2012-09-18,10100.0
MCC,2012-09-19,10100.0
MCC,2012-09-20,10100.0
MCC,2012-09-21,10100.0
MCC,2012-09-24,10100.0
MCC,2012-09-25,10800.0
MCC,2012-09-26,10800.0
MCC,2012-09-27,11400.0
MCC,2012-09-28,12000.0
MCC,2012-10-01,12000.0
MCC,2012-10-02,12000.0
MCC,2012-10-03,12000.0
MCC,2012-10-04,12000.0
MCC,2012-10-05,12000.0
MCC,2012-10-08,12000.0
MCC,2012-10-09,12600.0
MCC,2012-10-10,12600.0
MCC,2012-10-11,13300.0
MCC,2012-10-12,13300.0
MCC,2012-10-15,13300.0
MCC,2012-10-16,13300.0
MCC,2012-10-17,13300.0
MCC,2012-10-18,13300.0
MCC,2012-10-19,13300.0
MCC,2012-10-22,13300.0
MCC,2012-10-23,13300.0
MCC,2012-10-24,13300.0
MCC,2012-10-25,12400.0
MCC,2012-10-26,12400.0
MCC,2012-10-29,12400.0
MCC,2012-10-30,10900.0
MCC,2012-10-31,10100.0
MCC,2012-11-01,10200.0
MCC,2012-11-02,10100.0
MCC,2012-11-05,10100.0
MCC,2012-11-06,9700.0
MCC,2012-11-07,9700.0
MCC,2012-11-08,9700.0
MCC,2012-11-09,9700.0
MCC,2012-11-12,9700.0
MCC,2012-11-13,10400.0
MCC,2012-11-14,10400.0
MCC,2012-11-15,11000.0
MCC,2012-11-16,11000.0
MCC,2012-11-19,11000.0
MCC,2012-11-20,11000.0
MCC,2012-11-21,11200.0
MCC,2012-11-22,11200.0
MCC,2012-11-23,11200.0
MCC,2012-11-26,11200.0
MCC,2012-11-27,11200.0
MCC,2012-11-28,11200.0
MCC,2012-11-29,11900.0
MCC,2012-11-30,11900.0
MCC,2012-12-03,11900.0
MCC,2012-12-04,11900.0
MCC,2012-12-05,11900.0
MCC,2012-12-06,11900.0
MCC,2012-12-07,11900.0
MCC,2012-12-10,11900.0
MCC,2012-12-11,11900.0
MCC,2012-12-12,11900.0
MCC,2012-12-13,11900.0
MCC,2012-12-14,11900.0
MCC,2012-12-17,11900.0
MCC,2012-12-18,11900.0
MCC,2012-12-19,11900.0
MCC,2012-12-20,11900.0
MCC,2012-12-21,11100.0
MCC,2012-12-24,11800.0
MCC,2012-12-25,11800.0
MCC,2012-12-26,11800.0
MCC,2012-12-27,11800.0
MCC,2012-12-28,11500.0
MCC,2013-01-02,11300.0
MCC,2013-01-03,11300.0
MCC,2013-01-04,11300.0
MCC,2013-01-07,11300.0
MCC,2013-01-08,11300.0
MCC,2013-01-09,11300.0
MCC,2013-01-10,11300.0
MCC,2013-01-11,10500.0
MCC,2013-01-14,11200.0
MCC,2013-01-15,11200.0
MCC,2013-01-16,11200.0
MCC,2013-01-17,12200.0
MCC,2013-01-18,12200.0
MCC,2013-01-21,12200.0
MCC,2013-01-22,12200.0
MCC,2013-01-23,12200.0
MCC,2013-01-24,11000.0
MCC,2013-01-25,11000.0
MCC,2013-01-28,10800.0
MCC,2013-01-29,10400.0
MCC,2013-01-30,10400.0
MCC,2013-01-31,10400.0
MCC,2013-02-01,10800.0
MCC,2013-02-04,10800.0
MCC,2013-02-05,10500.0
MCC,2013-02-06,10500.0
MCC,2013-02-07,10500.0
MCC,2013-02-08,10500.0
MCC,2013-02-18,11300.0
MCC,2013-02-19,11300.0
MCC,2013-02-20,11300.0
MCC,2013-02-21,11300.0
MCC,2013-02-22,10400.0
MCC,2013-02-25,10400.0
MCC,2013-02-26,10400.0
MCC,2013-02-27,10400.0
MCC,2013-02-28,10400.0
MCC,2013-03-01,10400.0
MCC,2013-03-04,10400.0
MCC,2013-03-05,10400.0
MCC,2013-03-06,10400.0
MCC,2013-03-07,10400.0
MCC,2013-03-08,9300.0
MCC,2013-03-11,9300.0
MCC,2013-03-12,8900.0
MCC,2013-03-13,9700.0
MCC,2013-03-14,9700.0
MCC,2013-03-15,9900.0
MCC,2013-03-18,9900.0
MCC,2013-03-19,9900.0
MCC,2013-03-20,9900.0
MCC,2013-03-21,9900.0
MCC,2013-03-22,9900.0
MCC,2013-03-25,9900.0
MCC,2013-03-26,9900.0
MCC,2013-03-27,9900.0
MCC,2013-03-28,8900.0
MCC,2013-03-29,8900.0
MCC,2013-04-01,9400.0
MCC,2013-04-02,9500.0
MCC,2013-04-03,9500.0
MCC,2013-04-04,9500.0
MCC,2013-04-05,9400.0
MCC,2013-04-08,9400.0
MCC,2013-04-09,9900.0
MCC,2013-04-10,10800.0
MCC,2013-04-11,10800.0
MCC,2013-04-12,10000.0
MCC,2013-04-15,10900.0
MCC,2013-04-16,10900.0
MCC,2013-04-17,10900.0
MCC,2013-04-18,10900.0
MCC,2013-04-22,10900.0
MCC,2013-04-23,10000.0
MCC,2013-04-24,10700.0
MCC,2013-04-25,10700.0
MCC,2013-04-26,10400.0
MCC,2013-05-02,10400.0
MCC,2013-05-03,10400.0
MCC,2013-05-06,10400.0
MCC,2013-05-07,10400.0
MCC,2013-05-08,10400.0
MCC,2013-05-09,10400.0
MCC,2013-05-10,10600.0
MCC,2013-05-13,10900.0
MCC,2013-05-14,10900.0
MCC,2013-05-15,10900.0
MCC,2013-05-16,10900.0
MCC,2013-05-17,10900.0
MCC,2013-05-20,10900.0
MCC,2013-05-21,11200.0
MCC,2013-05-22,12200.0
MCC,2013-05-23,12600.0
MCC,2013-05-24,13700.0
MCC,2013-05-27,14000.0
MCC,2013-05-28,14100.0
MCC,2013-05-29,14100.0
MCC,2013-05-30,14500.0
MCC,2013-05-31,14500.0
MCC,2013-06-03,14500.0
MCC,2013-06-04,14500.0
MCC,2013-06-05,14500.0
MCC,2013-06-06,14500.0
MCC,2013-06-07,14700.0
MCC,2013-06-10,14700.0
MCC,2013-06-11,14100.0
MCC,2013-06-12,14100.0
MCC,2013-06-13,14100.0
MCC,2013-06-14,14100.0
MCC,2013-06-17,14100.0
MCC,2013-06-18,14100.0
MCC,2013-06-19,14100.0
MCC,2013-06-20,15000.0
MCC,2013-06-21,15000.0
MCC,2013-06-24,15000.0
MCC,2013-06-25,15900.0
MCC,2013-06-26,15900.0
MCC,2013-06-27,15900.0
MCC,2013-06-28,15900.0
MCC,2013-07-01,15900.0
MCC,2013-07-02,15900.0
MCC,2013-07-03,15900.0
MCC,2013-07-04,15900.0
MCC,2013-07-05,15900.0
MCC,2013-07-08,15900.0
MCC,2013-07-09,15900.0
MCC,2013-07-10,16900.0
MCC,2013-07-11,16900.0
MCC,2013-07-12,17900.0
MCC,2013-07-15,17900.0
MCC,2013-07-16,17900.0
MCC,2013-07-17,17900.0
MCC,2013-07-18,17900.0
MCC,2013-07-19,17900.0
MCC,2013-07-22,17900.0
MCC,2013-07-23,17900.0
MCC,2013-07-24,17900.0
MCC,2013-07-25,17900.0
MCC,2013-07-26,17900.0
MCC,2013-07-29,17900.0
MCC,2013-07-30,17900.0
MCC,2013-07-31,17900.0
MCC,2013-08-01,17900.0
MCC,2013-08-02,17900.0
MCC,2013-08-05,17900.0
MCC,2013-08-06,17900.0
MCC,2013-08-07,17900.0
MCC,2013-08-08,17900.0
MCC,2013-08-09,17900.0
MCC,2013-08-12,16100.0
MCC,2013-08-13,16000.0
MCC,2013-08-14,16000.0
MCC,2013-08-15,16000.0
MCC,2013-08-16,16000.0
MCC,2013-08-19,16000.0
MCC,2013-08-20,16000.0
MCC,2013-08-21,16000.0
MCC,2013-08-22,16000.0
MCC,2013-08-23,16000.0
MCC,2013-08-26,16000.0
MCC,2013-08-27,16000.0
MCC,2013-08-28,16000.0
MCC,2013-08-29,16000.0
MCC,2013-08-30,16000.0
MCC,2013-09-03,16000.0
MCC,2013-09-04,16000.0
MCC,2013-09-05,16000.0
MCC,2013-09-06,16000.0
MCC,2013-09-09,16000.0
MCC,2013-09-10,16000.0
MCC,2013-09-11,16000.0
MCC,2013-09-12,16000.0
MCC,2013-09-13,16000.0
MCC,2013-09-16,16000.0
MCC,2013-09-17,16000.0
MCC,2013-09-18,16000.0
MCC,2013-09-19,16000.0
MCC,2013-09-20,16000.0
MCC,2013-09-23,16000.0
MCC,2013-09-24,16000.0
MCC,2013-09-25,16000.0
MCC,2013-09-26,16000.0
MCC,2013-09-27,16000.0
MCC,2013-09-30,16000.0
MCC,2013-10-01,16000.0
MCC,2013-10-02,16000.0
MCC,2013-10-03,16000.0
MCC,2013-10-04,16000.0
MCC,2013-10-07,15800.0
MCC,2013-10-08,15800.0
MCC,2013-10-09,15800.0
MCC,2013-10-10,14300.0
MCC,2013-10-11,14300.0
MCC,2013-10-14,14300.0
MCC,2013-10-15,14300.0
MCC,2013-10-16,14300.0
MCC,2013-10-17,14300.0
MCC,2013-10-18,14300.0
MCC,2013-10-21,14300.0
MCC,2013-10-22,14300.0
MCC,2013-10-23,14300.0
MCC,2013-10-24,14300.0
MCC,2013-10-25,14300.0
MCC,2013-10-28,12900.0
MCC,2013-10-29,13600.0
MCC,2013-10-30,13600.0
MCC,2013-10-31,13600.0
MCC,2013-11-01,13600.0
MCC,2013-11-04,13600.0
MCC,2013-11-05,13600.0
MCC,2013-11-06,13600.0
MCC,2013-11-07,13600.0
MCC,2013-11-08,13600.0
MCC,2013-11-11,13600.0
MCC,2013-11-12,13600.0
MCC,2013-11-13,14800.0
MCC,2013-11-14,14800.0
MCC,2013-11-15,14800.0
MCC,2013-11-18,14800.0
MCC,2013-11-19,14800.0
MCC,2013-11-20,13400.0
MCC,2013-11-21,12100.0
MCC,2013-11-22,12200.0
MCC,2013-11-25,12200.0
MCC,2013-11-26,12200.0
MCC,2013-11-27,12200.0
MCC,2013-11-28,12200.0
MCC,2013-11-29,12000.0
MCC,2013-12-02,10900.0
MCC,2013-12-03,10900.0
MCC,2013-12-04,10900.0
MCC,2013-12-05,10900.0
MCC,2013-12-06,11900.0
MCC,2013-12-09,11900.0
MCC,2013-12-10,11900.0
MCC,2013-12-11,11900.0
MCC,2013-12-12,11900.0
MCC,2013-12-13,11900.0
MCC,2013-12-16,11900.0
MCC,2013-12-17,11900.0
MCC,2013-12-18,11900.0
MCC,2013-12-19,11900.0
MCC,2013-12-20,13000.0
MCC,2013-12-23,14300.0
MCC,2013-12-24,15500.0
MCC,2013-12-25,15500.0
MCC,2013-12-26,15500.0
MCC,2013-12-27,15500.0
MCC,2013-12-30,15500.0
MCC,2013-12-31,15500.0
MCC,2014-01-02,15500.0
MCC,2014-01-03,15500.0
MCC,2014-01-06,15500.0
MCC,2014-01-07,15500.0
MCC,2014-01-08,15500.0
MCC,2014-01-09,15500.0
MCC,2014-01-10,15500.0
MCC,2014-01-13,15500.0
MCC,2014-01-14,15500.0
MCC,2014-01-15,15500.0
MCC,2014-01-16,15900.0
MCC,2014-01-17,15900.0
MCC,2014-01-20,14400.0
MCC,2014-01-21,13000.0
MCC,2014-01-22,13000.0
MCC,2014-01-23,13000.0
MCC,2014-01-24,13000.0
MCC,2014-01-27,13000.0
MCC,2014-02-06,13000.0
MCC,2014-02-07,12500.0
MCC,2014-02-10,12500.0
MCC,2014-02-11,12500.0
MCC,2014-02-12,12500.0
MCC,2014-02-13,12500.0
MCC,2014-02-14,12500.0
MCC,2014-02-17,13000.0
MCC,2014-02-18,13000.0
MCC,2014-02-19,13000.0
MCC,2014-02-20,13000.0
MCC,2014-02-21,13000.0
MCC,2014-02-24,13000.0
MCC,2014-02-25,13000.0
MCC,2014-02-26,13000.0
MCC,2014-02-27,13000.0
MCC,2014-02-28,13600.0
MCC,2014-03-03,13600.0
MCC,2014-03-04,13600.0
MCC,2014-03-05,13600.0
MCC,2014-03-06,13600.0
MCC,2014-03-07,13600.0
MCC,2014-03-10,13600.0
MCC,2014-03-11,13600.0
MCC,2014-03-12,13600.0
MCC,2014-03-13,13600.0
MCC,2014-03-14,13500.0
MCC,2014-03-17,13500.0
MCC,2014-03-18,13500.0
MCC,2014-03-19,13500.0
MCC,2014-03-20,12500.0
MCC,2014-03-21,12500.0
MCC,2014-03-24,12500.0
MCC,2014-03-25,12500.0
MCC,2014-03-26,12500.0
MCC,2014-03-27,12000.0
MCC,2014-03-28,12100.0
MCC,2014-03-31,12100.0
MCC,2014-04-01,12200.0
MCC,2014-04-02,12200.0
MCC,2014-04-03,12500.0
MCC,2014-04-04,12500.0
MCC,2014-04-07,12500.0
MCC,2014-04-08,12500.0
MCC,2014-04-10,12500.0
MCC,2014-04-11,12500.0
MCC,2014-04-14,13000.0
MCC,2014-04-15,13000.0
MCC,2014-04-16,13000.0
MCC,2014-04-17,13000.0
MCC,2014-04-18,13000.0
MCC,2014-04-21,13500.0
MCC,2014-04-22,13500.0
MCC,2014-04-23,14000.0
MCC,2014-04-24,14400.0
MCC,2014-04-25,14000.0
MCC,2014-04-28,14800.0
MCC,2014-04-29,14800.0
MCC,2014-05-05,14800.0
MCC,2014-05-06,14800.0
MCC,2014-05-07,14200.0
MCC,2014-05-08,12800.0
MCC,2014-05-09,12000.0
MCC,2014-05-12,12000.0
MCC,2014-05-13,12000.0
MCC,2014-05-14,12000.0
MCC,2014-05-15,12000.0
MCC,2014-05-16,11000.0
MCC,2014-05-19,11000.0
MCC,2014-05-20,11000.0
MCC,2014-05-21,12100.0
