MMC,2008-07-28,27300.0
MMC,2008-07-29,26000.0
MMC,2008-07-30,27000.0
MMC,2008-07-31,27800.0
MMC,2008-08-01,28900.0
MMC,2008-08-04,30000.0
MMC,2008-08-05,28900.0
MMC,2008-08-06,27800.0
MMC,2008-08-07,26700.0
MMC,2008-08-08,25700.0
MMC,2008-08-11,26700.0
MMC,2008-08-12,27000.0
MMC,2008-08-13,26800.0
MMC,2008-08-14,27600.0
MMC,2008-08-15,28400.0
MMC,2008-08-18,28200.0
MMC,2008-08-19,26900.0
MMC,2008-08-20,25300.0
MMC,2008-08-21,26500.0
MMC,2008-08-22,24200.0
MMC,2008-08-25,26500.0
MMC,2008-08-26,27300.0
MMC,2008-08-27,26500.0
MMC,2008-08-28,25900.0
MMC,2008-08-29,24500.0
MMC,2008-09-03,26000.0
MMC,2008-09-04,24400.0
MMC,2008-09-05,23400.0
MMC,2008-09-08,21900.0
MMC,2008-09-09,22100.0
MMC,2008-09-10,21000.0
MMC,2008-09-11,19700.0
MMC,2008-09-12,18300.0
MMC,2008-09-15,19600.0
MMC,2008-09-16,17700.0
MMC,2008-09-17,16700.0
MMC,2008-09-18,15600.0
MMC,2008-09-19,16700.0
MMC,2008-09-22,17100.0
MMC,2008-09-23,18200.0
MMC,2008-09-24,18100.0
MMC,2008-09-25,19000.0
MMC,2008-09-26,20200.0
MMC,2008-09-29,19300.0
MMC,2008-09-30,17900.0
MMC,2008-10-01,19200.0
MMC,2008-10-02,19400.0
MMC,2008-10-03,19300.0
MMC,2008-10-06,18000.0
MMC,2008-10-07,18300.0
MMC,2008-10-08,16100.0
MMC,2008-10-09,16700.0
MMC,2008-10-10,15600.0
MMC,2008-10-13,15500.0
MMC,2008-10-14,16200.0
MMC,2008-10-15,16800.0
MMC,2008-10-16,15500.0
MMC,2008-10-17,16800.0
MMC,2008-10-20,18000.0
MMC,2008-10-21,19300.0
MMC,2008-10-22,19300.0
MMC,2008-10-23,17700.0
MMC,2008-10-24,16500.0
MMC,2008-10-27,15400.0
MMC,2008-10-28,14700.0
MMC,2008-10-29,15300.0
MMC,2008-10-30,14700.0
MMC,2008-10-31,15100.0
MMC,2008-11-03,15100.0
MMC,2008-11-04,15900.0
MMC,2008-11-05,16500.0
MMC,2008-11-06,16000.0
MMC,2008-11-07,14700.0
MMC,2008-11-10,13900.0
MMC,2008-11-11,13400.0
MMC,2008-11-12,13400.0
MMC,2008-11-13,13400.0
MMC,2008-11-14,13900.0
MMC,2008-11-17,13300.0
MMC,2008-11-18,13400.0
MMC,2008-11-19,13100.0
MMC,2008-11-20,12700.0
MMC,2008-11-21,13700.0
MMC,2008-11-24,14600.0
MMC,2008-11-25,15100.0
MMC,2008-11-26,14100.0
MMC,2008-11-27,13400.0
MMC,2008-11-28,14600.0
MMC,2008-12-01,14700.0
MMC,2008-12-02,14000.0
MMC,2008-12-03,13400.0
MMC,2008-12-04,13700.0
MMC,2008-12-05,12800.0
MMC,2008-12-08,11900.0
MMC,2008-12-09,12700.0
MMC,2008-12-10,13000.0
MMC,2008-12-11,13000.0
MMC,2008-12-12,13900.0
MMC,2008-12-15,14700.0
MMC,2008-12-16,13400.0
MMC,2008-12-17,13400.0
MMC,2008-12-18,12700.0
MMC,2008-12-19,13000.0
MMC,2008-12-22,13400.0
MMC,2008-12-23,12900.0
MMC,2008-12-24,13700.0
MMC,2008-12-25,14100.0
MMC,2008-12-26,14000.0
MMC,2008-12-29,13200.0
MMC,2008-12-30,13200.0
MMC,2008-12-31,13800.0
MMC,2009-01-02,12300.0
MMC,2009-01-05,12400.0
MMC,2009-01-06,13200.0
MMC,2009-01-07,13400.0
MMC,2009-01-08,12400.0
MMC,2009-01-09,12200.0
MMC,2009-01-12,13100.0
MMC,2009-01-13,12200.0
MMC,2009-01-14,12300.0
MMC,2009-01-15,12200.0
MMC,2009-01-16,11700.0
MMC,2009-01-19,11700.0
MMC,2009-01-20,11100.0
MMC,2009-01-21,11900.0
MMC,2009-01-22,12100.0
MMC,2009-01-23,12100.0
MMC,2009-02-02,11300.0
MMC,2009-02-03,10800.0
MMC,2009-02-04,10100.0
MMC,2009-02-05,10200.0
MMC,2009-02-06,10200.0
MMC,2009-02-09,10900.0
MMC,2009-02-10,10900.0
MMC,2009-02-11,10900.0
MMC,2009-02-12,10300.0
MMC,2009-02-13,10300.0
MMC,2009-02-16,10100.0
MMC,2009-02-17,10100.0
MMC,2009-02-18,9700.0
MMC,2009-02-19,9500.0
MMC,2009-02-20,9500.0
MMC,2009-02-23,8400.0
MMC,2009-02-24,8400.0
MMC,2009-02-25,9000.0
MMC,2009-02-26,8700.0
MMC,2009-02-27,8800.0
MMC,2009-03-02,9200.0
MMC,2009-03-03,9200.0
MMC,2009-03-04,8900.0
MMC,2009-03-05,9400.0
MMC,2009-03-06,8800.0
MMC,2009-03-09,8800.0
MMC,2009-03-10,8900.0
MMC,2009-03-11,9000.0
MMC,2009-03-12,8700.0
MMC,2009-03-13,8800.0
MMC,2009-03-16,8400.0
MMC,2009-03-17,8400.0
MMC,2009-03-18,9000.0
MMC,2009-03-19,8800.0
MMC,2009-03-20,8800.0
MMC,2009-03-23,8600.0
MMC,2009-03-24,9000.0
MMC,2009-03-25,8700.0
MMC,2009-03-26,8700.0
MMC,2009-03-27,8800.0
MMC,2009-03-30,9300.0
MMC,2009-03-31,9900.0
MMC,2009-04-01,10100.0
MMC,2009-04-02,10100.0
MMC,2009-04-03,10500.0
MMC,2009-04-07,11200.0
MMC,2009-04-08,11800.0
MMC,2009-04-09,11800.0
MMC,2009-04-10,13000.0
MMC,2009-04-13,13600.0
MMC,2009-04-14,12400.0
MMC,2009-04-15,11700.0
MMC,2009-04-16,12500.0
MMC,2009-04-17,11600.0
MMC,2009-04-20,10800.0
MMC,2009-04-21,10100.0
MMC,2009-04-22,10600.0
MMC,2009-04-23,10300.0
MMC,2009-04-24,9900.0
MMC,2009-04-27,10700.0
MMC,2009-04-28,10100.0
MMC,2009-04-29,9700.0
MMC,2009-05-04,10400.0
MMC,2009-05-05,11100.0
MMC,2009-05-06,10300.0
MMC,2009-05-07,10300.0
MMC,2009-05-08,10700.0
MMC,2009-05-11,10600.0
MMC,2009-05-12,11000.0
MMC,2009-05-13,10900.0
MMC,2009-05-14,10600.0
MMC,2009-05-15,10900.0
MMC,2009-05-18,10800.0
MMC,2009-05-19,10900.0
MMC,2009-05-20,11000.0
MMC,2009-05-21,11700.0
MMC,2009-05-22,11300.0
MMC,2009-05-25,12200.0
MMC,2009-05-26,13000.0
MMC,2009-05-27,13900.0
MMC,2009-05-28,14800.0
MMC,2009-05-29,15900.0
MMC,2009-06-01,17000.0
MMC,2009-06-02,16600.0
MMC,2009-06-03,15900.0
MMC,2009-06-04,17500.0
MMC,2009-06-05,17900.0
MMC,2009-06-08,19200.0
MMC,2009-06-09,17900.0
MMC,2009-06-10,17100.0
MMC,2009-06-11,17900.0
MMC,2009-06-12,16600.0
MMC,2009-06-15,15900.0
MMC,2009-06-16,14800.0
MMC,2009-06-17,14400.0
MMC,2009-06-18,14700.0
MMC,2009-06-19,14700.0
MMC,2009-06-22,14100.0
MMC,2009-06-23,13400.0
MMC,2009-06-24,14300.0
MMC,2009-06-25,15300.0
MMC,2009-06-26,16300.0
MMC,2009-06-29,17400.0
MMC,2009-06-30,18300.0
MMC,2009-07-01,17300.0
MMC,2009-07-02,17300.0
MMC,2009-07-03,16600.0
MMC,2009-07-06,17100.0
MMC,2009-07-07,17200.0
MMC,2009-07-08,16200.0
MMC,2009-07-09,16600.0
MMC,2009-07-10,16600.0
MMC,2009-07-13,15500.0
MMC,2009-07-14,15500.0
MMC,2009-07-15,15700.0
MMC,2009-07-16,16600.0
MMC,2009-07-17,16400.0
MMC,2009-07-20,16400.0
MMC,2009-07-21,15500.0
MMC,2009-07-22,16200.0
MMC,2009-07-23,16200.0
MMC,2009-07-24,16900.0
MMC,2009-07-27,17100.0
MMC,2009-07-28,17100.0
MMC,2009-07-29,16200.0
MMC,2009-07-30,16000.0
MMC,2009-07-31,16200.0
MMC,2009-08-03,16200.0
MMC,2009-08-04,16300.0
MMC,2009-08-05,16400.0
MMC,2009-08-06,16300.0
MMC,2009-08-07,16800.0
MMC,2009-08-10,17500.0
MMC,2009-08-11,18000.0
MMC,2009-08-12,18800.0
MMC,2009-08-13,20000.0
MMC,2009-08-14,21400.0
MMC,2009-08-17,20000.0
MMC,2009-08-18,20700.0
MMC,2009-08-19,21500.0
MMC,2009-08-20,20700.0
MMC,2009-08-21,20200.0
MMC,2009-08-24,20100.0
MMC,2009-08-25,20200.0
MMC,2009-08-26,21400.0
MMC,2009-08-27,22600.0
MMC,2009-08-28,23800.0
MMC,2009-08-31,25500.0
MMC,2009-09-01,27200.0
MMC,2009-09-03,29100.0
MMC,2009-09-04,28300.0
MMC,2009-09-07,26500.0
MMC,2009-09-08,28000.0
MMC,2009-09-09,28100.0
MMC,2009-09-10,28000.0
MMC,2009-09-11,27900.0
MMC,2009-09-14,27800.0
MMC,2009-09-15,26500.0
MMC,2009-09-16,27800.0
MMC,2009-09-17,27300.0
MMC,2009-09-18,27400.0
MMC,2009-09-21,27200.0
MMC,2009-09-22,27400.0
MMC,2009-09-23,28900.0
MMC,2009-09-24,27500.0
MMC,2009-09-25,28100.0
MMC,2009-09-28,30100.0
MMC,2009-09-29,32200.0
MMC,2009-09-30,32800.0
MMC,2009-10-01,36200.0
MMC,2009-10-02,36200.0
MMC,2009-10-05,36000.0
MMC,2009-10-06,35800.0
MMC,2009-10-07,35100.0
MMC,2009-10-08,34900.0
MMC,2009-10-09,36000.0
MMC,2009-10-12,37800.0
MMC,2009-10-13,37500.0
MMC,2009-10-14,37500.0
MMC,2009-10-15,39500.0
MMC,2009-10-16,37800.0
MMC,2009-10-19,38500.0
MMC,2009-10-20,36800.0
MMC,2009-10-21,37300.0
MMC,2009-10-22,37500.0
MMC,2009-10-23,35300.0
MMC,2009-10-26,35100.0
MMC,2009-10-27,34100.0
MMC,2009-10-28,33900.0
MMC,2009-10-29,32800.0
MMC,2009-10-30,34200.0
MMC,2009-11-02,32600.0
MMC,2009-11-03,29700.0
MMC,2009-11-04,30600.0
MMC,2009-11-05,31900.0
MMC,2009-11-06,29900.0
MMC,2009-11-09,29800.0
MMC,2009-11-10,28800.0
MMC,2009-11-11,31400.0
MMC,2009-11-12,32600.0
MMC,2009-11-13,32400.0
MMC,2009-11-16,31900.0
MMC,2009-11-17,31700.0
MMC,2009-11-18,32200.0
MMC,2009-11-19,31000.0
MMC,2009-11-20,30100.0
MMC,2009-11-23,28800.0
MMC,2009-11-24,28300.0
MMC,2009-11-25,26400.0
MMC,2009-11-26,24600.0
MMC,2009-11-27,23400.0
MMC,2009-11-30,24700.0
MMC,2009-12-01,26100.0
MMC,2009-12-02,24100.0
MMC,2009-12-03,24500.0
MMC,2009-12-04,26000.0
MMC,2009-12-07,26300.0
MMC,2009-12-08,25600.0
MMC,2009-12-09,25200.0
MMC,2009-12-10,24700.0
MMC,2009-12-11,23000.0
MMC,2009-12-14,24200.0
MMC,2009-12-15,24200.0
MMC,2009-12-16,22500.0
MMC,2009-12-17,21400.0
MMC,2009-12-18,22800.0
MMC,2009-12-21,23800.0
MMC,2009-12-22,22200.0
MMC,2009-12-23,23800.0
MMC,2009-12-24,24300.0
MMC,2009-12-25,25800.0
MMC,2009-12-28,25200.0
MMC,2009-12-29,24300.0
MMC,2009-12-30,25200.0
MMC,2009-12-31,25600.0
MMC,2010-01-04,27800.0
MMC,2010-01-05,28800.0
MMC,2010-01-06,29000.0
MMC,2010-01-07,28300.0
MMC,2010-01-08,27000.0
MMC,2010-01-11,26100.0
MMC,2010-01-12,24700.0
MMC,2010-01-13,25600.0
MMC,2010-01-14,25000.0
MMC,2010-01-15,25900.0
MMC,2010-01-18,23900.0
MMC,2010-01-19,24600.0
MMC,2010-01-20,23800.0
MMC,2010-01-21,22700.0
MMC,2010-01-22,23800.0
MMC,2010-01-25,24300.0
MMC,2010-01-26,26000.0
MMC,2010-01-27,25900.0
MMC,2010-01-28,24200.0
MMC,2010-01-29,22500.0
MMC,2010-02-01,24100.0
MMC,2010-02-02,23200.0
MMC,2010-02-03,24800.0
MMC,2010-02-04,25200.0
MMC,2010-02-05,25900.0
MMC,2010-02-08,22800.0
MMC,2010-02-09,24700.0
MMC,2010-02-10,22500.0
MMC,2010-02-11,23800.0
MMC,2010-02-12,24500.0
MMC,2010-02-22,25900.0
MMC,2010-02-23,27000.0
MMC,2010-02-24,27700.0
MMC,2010-02-25,28000.0
MMC,2010-02-26,29000.0
MMC,2010-03-01,29400.0
MMC,2010-03-02,30300.0
MMC,2010-03-03,30100.0
MMC,2010-03-04,29100.0
MMC,2010-03-05,29800.0
MMC,2010-03-08,30500.0
MMC,2010-03-09,32400.0
MMC,2010-03-10,32200.0
MMC,2010-03-11,33500.0
MMC,2010-03-12,31900.0
MMC,2010-03-15,33500.0
MMC,2010-03-16,33300.0
MMC,2010-03-17,30800.0
MMC,2010-03-18,35300.0
MMC,2010-03-19,37300.0
MMC,2010-03-22,38100.0
MMC,2010-03-23,40500.0
MMC,2010-03-24,38400.0
MMC,2010-03-25,39000.0
MMC,2010-03-26,36900.0
MMC,2010-03-29,36900.0
MMC,2010-03-30,37200.0
MMC,2010-03-31,34600.0
MMC,2010-04-01,34500.0
MMC,2010-04-02,31400.0
MMC,2010-04-05,33100.0
MMC,2010-04-06,34300.0
MMC,2010-04-07,34200.0
MMC,2010-04-08,33700.0
MMC,2010-04-09,34700.0
MMC,2010-04-12,35300.0
MMC,2010-04-13,32400.0
MMC,2010-04-14,31100.0
MMC,2010-04-15,32800.0
MMC,2010-04-16,32600.0
MMC,2010-04-19,30300.0
MMC,2010-04-20,31500.0
MMC,2010-04-21,32400.0
MMC,2010-04-22,29600.0
MMC,2010-04-26,31000.0
MMC,2010-04-27,31000.0
MMC,2010-04-28,31000.0
MMC,2010-04-29,33100.0
MMC,2010-05-04,32800.0
MMC,2010-05-05,33100.0
MMC,2010-05-06,32400.0
MMC,2010-05-07,31000.0
MMC,2010-05-10,30800.0
MMC,2010-05-11,30600.0
MMC,2010-05-12,29200.0
MMC,2010-05-13,29500.0
MMC,2010-05-14,29800.0
MMC,2010-05-17,29600.0
MMC,2010-05-18,29900.0
MMC,2010-05-19,28200.0
MMC,2010-05-20,29900.0
MMC,2010-05-21,26300.0
MMC,2010-05-24,26100.0
MMC,2010-05-25,25600.0
MMC,2010-05-26,27700.0
MMC,2010-05-27,28900.0
MMC,2010-05-28,30800.0
MMC,2010-05-31,33000.0
MMC,2010-06-01,35200.0
MMC,2010-06-02,37700.0
MMC,2010-06-03,37700.0
MMC,2010-06-04,37400.0
MMC,2010-06-07,34800.0
MMC,2010-06-08,33200.0
MMC,2010-06-09,31800.0
MMC,2010-06-10,33200.0
MMC,2010-06-11,33000.0
MMC,2010-06-14,32400.0
MMC,2010-06-15,34100.0
MMC,2010-06-16,34100.0
MMC,2010-06-17,35000.0
MMC,2010-06-18,33600.0
MMC,2010-06-21,32500.0
MMC,2010-06-22,32300.0
MMC,2010-06-23,31600.0
MMC,2010-06-24,31400.0
MMC,2010-06-25,31800.0
MMC,2010-06-28,32900.0
MMC,2010-06-29,32300.0
MMC,2010-06-30,30000.0
MMC,2010-07-01,30500.0
MMC,2010-07-02,32400.0
MMC,2010-07-05,31400.0
MMC,2010-07-06,31400.0
MMC,2010-07-07,30000.0
MMC,2010-07-08,29600.0
MMC,2010-07-09,31300.0
MMC,2010-07-12,31400.0
MMC,2010-07-13,30900.0
MMC,2010-07-14,30700.0
MMC,2010-07-15,30000.0
MMC,2010-07-16,30100.0
MMC,2010-07-19,31300.0
MMC,2010-07-20,31500.0
MMC,2010-07-21,31500.0
MMC,2010-07-22,32700.0
MMC,2010-07-23,30500.0
MMC,2010-07-26,31700.0
MMC,2010-07-27,31400.0
MMC,2010-07-28,30500.0
MMC,2010-07-29,31300.0
MMC,2010-07-30,31300.0
MMC,2010-08-02,31500.0
MMC,2010-08-03,31300.0
MMC,2010-08-04,31300.0
MMC,2010-08-05,29100.0
MMC,2010-08-06,30900.0
MMC,2010-08-09,31500.0
MMC,2010-08-10,30500.0
MMC,2010-08-11,30500.0
MMC,2010-08-12,28400.0
MMC,2010-08-13,28700.0
MMC,2010-08-16,30000.0
MMC,2010-08-17,30200.0
MMC,2010-08-18,30200.0
MMC,2010-08-19,30200.0
MMC,2010-08-20,28700.0
MMC,2010-08-23,28700.0
MMC,2010-08-24,28700.0
MMC,2010-08-25,26700.0
MMC,2010-08-26,27600.0
MMC,2010-08-27,25700.0
MMC,2010-08-30,26900.0
MMC,2010-08-31,26800.0
MMC,2010-09-01,26800.0
MMC,2010-09-06,26900.0
MMC,2010-09-07,25100.0
MMC,2010-09-08,24200.0
MMC,2010-09-09,25900.0
MMC,2010-09-10,24700.0
MMC,2010-09-13,25600.0
MMC,2010-09-14,24000.0
MMC,2010-09-15,22900.0
MMC,2010-09-16,22900.0
MMC,2010-09-17,23900.0
MMC,2010-09-20,23400.0
MMC,2010-09-21,23700.0
MMC,2010-09-22,23000.0
MMC,2010-09-23,22400.0
MMC,2010-09-24,22400.0
MMC,2010-09-27,22400.0
MMC,2010-09-28,22800.0
MMC,2010-09-29,21600.0
MMC,2010-09-30,21500.0
MMC,2010-10-01,20800.0
MMC,2010-10-04,20600.0
MMC,2010-10-05,20300.0
MMC,2010-10-06,21100.0
MMC,2010-10-07,20200.0
MMC,2010-10-08,19700.0
MMC,2010-10-11,19800.0
MMC,2010-10-12,18900.0
MMC,2010-10-13,19700.0
MMC,2010-10-14,19900.0
MMC,2010-10-15,18800.0
MMC,2010-10-18,20200.0
MMC,2010-10-19,18800.0
MMC,2010-10-20,18000.0
MMC,2010-10-21,19000.0
MMC,2010-10-22,17900.0
MMC,2010-10-25,19200.0
MMC,2010-10-26,19700.0
MMC,2010-10-27,20100.0
MMC,2010-10-28,20400.0
MMC,2010-10-29,20400.0
MMC,2010-11-01,20200.0
MMC,2010-11-02,18800.0
MMC,2010-11-03,19800.0
MMC,2010-11-04,19800.0
MMC,2010-11-05,19800.0
MMC,2010-11-08,18800.0
MMC,2010-11-09,17600.0
MMC,2010-11-10,17900.0
MMC,2010-11-11,18400.0
MMC,2010-11-12,17500.0
MMC,2010-11-15,17000.0
MMC,2010-11-16,17900.0
MMC,2010-11-17,18500.0
MMC,2010-11-18,17400.0
MMC,2010-11-19,17000.0
MMC,2010-11-22,17700.0
MMC,2010-11-23,17000.0
MMC,2010-11-24,17700.0
MMC,2010-11-25,17900.0
MMC,2010-11-26,18300.0
MMC,2010-11-29,18400.0
MMC,2010-11-30,19500.0
MMC,2010-12-01,18400.0
MMC,2010-12-02,17900.0
MMC,2010-12-03,19400.0
MMC,2010-12-06,20200.0
MMC,2010-12-07,20200.0
MMC,2010-12-08,19100.0
MMC,2010-12-09,19800.0
MMC,2010-12-10,19700.0
MMC,2010-12-13,19900.0
MMC,2010-12-14,18700.0
MMC,2010-12-15,20100.0
MMC,2010-12-16,18600.0
MMC,2010-12-17,18600.0
MMC,2010-12-20,17800.0
MMC,2010-12-21,19000.0
MMC,2010-12-22,19400.0
MMC,2010-12-23,18300.0
MMC,2010-12-24,18100.0
MMC,2010-12-27,17500.0
MMC,2010-12-28,17900.0
MMC,2010-12-29,17900.0
MMC,2010-12-30,17000.0
MMC,2010-12-31,17000.0
MMC,2011-01-04,17300.0
MMC,2011-01-05,17000.0
MMC,2011-01-06,18000.0
MMC,2011-01-07,17000.0
MMC,2011-01-10,16300.0
MMC,2011-01-11,18100.0
MMC,2011-01-12,16100.0
MMC,2011-01-13,16900.0
MMC,2011-01-14,17000.0
MMC,2011-01-17,17000.0
MMC,2011-01-18,17800.0
MMC,2011-01-19,18100.0
MMC,2011-01-20,16900.0
MMC,2011-01-21,17000.0
MMC,2011-01-24,17000.0
MMC,2011-01-25,17000.0
MMC,2011-01-26,16100.0
MMC,2011-01-27,17000.0
MMC,2011-01-28,17500.0
MMC,2011-02-08,17100.0
MMC,2011-02-09,17300.0
MMC,2011-02-10,17300.0
MMC,2011-02-11,17300.0
MMC,2011-02-14,16600.0
MMC,2011-02-15,17100.0
MMC,2011-02-16,17100.0
MMC,2011-02-17,16000.0
MMC,2011-02-18,17000.0
MMC,2011-02-21,15900.0
MMC,2011-02-22,14800.0
MMC,2011-02-23,14800.0
MMC,2011-02-24,14400.0
MMC,2011-02-25,14300.0
MMC,2011-02-28,14800.0
MMC,2011-03-01,14700.0
MMC,2011-03-02,13600.0
MMC,2011-03-03,13400.0
MMC,2011-03-04,13400.0
MMC,2011-03-07,13700.0
MMC,2011-03-08,13400.0
MMC,2011-03-09,13900.0
MMC,2011-03-10,13200.0
MMC,2011-03-11,14100.0
MMC,2011-03-14,13200.0
MMC,2011-03-15,14000.0
MMC,2011-03-16,14300.0
MMC,2011-03-17,14300.0
MMC,2011-03-18,15200.0
MMC,2011-03-21,15200.0
MMC,2011-03-22,15200.0
MMC,2011-03-23,15200.0
MMC,2011-03-24,14300.0
MMC,2011-03-25,14300.0
MMC,2011-03-28,15300.0
MMC,2011-03-29,14800.0
MMC,2011-03-30,15700.0
MMC,2011-03-31,15700.0
MMC,2011-04-01,14600.0
MMC,2011-04-04,16000.0
MMC,2011-04-05,16000.0
MMC,2011-04-06,15000.0
MMC,2011-04-07,14300.0
MMC,2011-04-08,13900.0
MMC,2011-04-13,14800.0
MMC,2011-04-14,14800.0
MMC,2011-04-15,14800.0
MMC,2011-04-18,15700.0
MMC,2011-04-19,15700.0
MMC,2011-04-20,15700.0
MMC,2011-04-21,15700.0
MMC,2011-04-22,15700.0
MMC,2011-04-25,14600.0
MMC,2011-04-26,14600.0
MMC,2011-04-27,14600.0
MMC,2011-04-28,14600.0
MMC,2011-04-29,14600.0
MMC,2011-05-04,14600.0
MMC,2011-05-05,14600.0
MMC,2011-05-06,14600.0
MMC,2011-05-09,14600.0
MMC,2011-05-10,14600.0
MMC,2011-05-11,14600.0
MMC,2011-05-12,14600.0
MMC,2011-05-13,14600.0
MMC,2011-05-16,14600.0
MMC,2011-05-17,13600.0
MMC,2011-05-18,13600.0
MMC,2011-05-19,12700.0
MMC,2011-05-20,11900.0
MMC,2011-05-23,11100.0
MMC,2011-05-24,11100.0
MMC,2011-05-25,11100.0
MMC,2011-05-26,11700.0
MMC,2011-05-27,11100.0
MMC,2011-05-30,9900.0
MMC,2011-05-31,9300.0
MMC,2011-06-01,8700.0
MMC,2011-06-02,9200.0
MMC,2011-06-03,9700.0
MMC,2011-06-06,10300.0
MMC,2011-06-07,10000.0
MMC,2011-06-08,11400.0
MMC,2011-06-09,10700.0
MMC,2011-06-10,10600.0
MMC,2011-06-13,10900.0
MMC,2011-06-14,10300.0
MMC,2011-06-15,10800.0
MMC,2011-06-16,10100.0
MMC,2011-06-17,9500.0
MMC,2011-06-20,9900.0
MMC,2011-06-21,9300.0
MMC,2011-06-22,8700.0
MMC,2011-06-23,8700.0
MMC,2011-06-24,8700.0
MMC,2011-06-27,8300.0
MMC,2011-06-28,8500.0
MMC,2011-06-29,8900.0
MMC,2011-06-30,8800.0
MMC,2011-07-01,8800.0
MMC,2011-07-04,8400.0
MMC,2011-07-05,7900.0
MMC,2011-07-06,7700.0
MMC,2011-07-07,8100.0
MMC,2011-07-08,8400.0
MMC,2011-07-11,8100.0
MMC,2011-07-12,8100.0
MMC,2011-07-13,7700.0
MMC,2011-07-14,7700.0
MMC,2011-07-15,7700.0
MMC,2011-07-18,7700.0
MMC,2011-07-19,7200.0
MMC,2011-07-20,7500.0
MMC,2011-07-21,7900.0
MMC,2011-07-22,7900.0
MMC,2011-07-25,7900.0
MMC,2011-07-26,7900.0
MMC,2011-07-27,7900.0
MMC,2011-07-28,7900.0
MMC,2011-07-29,7400.0
MMC,2011-08-01,7400.0
MMC,2011-08-02,7400.0
MMC,2011-08-03,7400.0
MMC,2011-08-04,7500.0
MMC,2011-08-05,7600.0
MMC,2011-08-08,7600.0
MMC,2011-08-09,7100.0
MMC,2011-08-10,7100.0
MMC,2011-08-11,6700.0
MMC,2011-08-12,6700.0
MMC,2011-08-15,6700.0
MMC,2011-08-16,6700.0
MMC,2011-08-17,7100.0
MMC,2011-08-18,7100.0
MMC,2011-08-19,6800.0
MMC,2011-08-22,7200.0
MMC,2011-08-23,6700.0
MMC,2011-08-24,6800.0
MMC,2011-08-25,6800.0
MMC,2011-08-26,6400.0
MMC,2011-08-29,6800.0
MMC,2011-08-30,6800.0
MMC,2011-08-31,6900.0
MMC,2011-09-01,6900.0
MMC,2011-09-05,7200.0
MMC,2011-09-06,7000.0
MMC,2011-09-07,7500.0
MMC,2011-09-08,7900.0
MMC,2011-09-09,8400.0
MMC,2011-09-12,8900.0
MMC,2011-09-13,9500.0
MMC,2011-09-14,10100.0
MMC,2011-09-15,9900.0
MMC,2011-09-16,9700.0
MMC,2011-09-19,9800.0
MMC,2011-09-20,9200.0
MMC,2011-09-21,8900.0
MMC,2011-09-22,8700.0
MMC,2011-09-23,8600.0
MMC,2011-09-26,8300.0
MMC,2011-09-27,8000.0
MMC,2011-09-28,8500.0
MMC,2011-09-29,8000.0
MMC,2011-09-30,8000.0
MMC,2011-10-03,7500.0
MMC,2011-10-04,7200.0
MMC,2011-10-05,8100.0
MMC,2011-10-06,8400.0
MMC,2011-10-07,8000.0
MMC,2011-10-10,8000.0
MMC,2011-10-11,7800.0
MMC,2011-10-12,7400.0
MMC,2011-10-13,7600.0
MMC,2011-10-14,7600.0
MMC,2011-10-17,7600.0
MMC,2011-10-18,7200.0
MMC,2011-10-19,7300.0
MMC,2011-10-20,7300.0
MMC,2011-10-21,7700.0
MMC,2011-10-24,7700.0
MMC,2011-10-25,8000.0
MMC,2011-10-26,8000.0
MMC,2011-10-27,7500.0
MMC,2011-10-28,8000.0
MMC,2011-10-31,7600.0
MMC,2011-11-01,7100.0
MMC,2011-11-02,7000.0
MMC,2011-11-03,7100.0
MMC,2011-11-04,7400.0
MMC,2011-11-07,7200.0
MMC,2011-11-08,7200.0
MMC,2011-11-09,7200.0
MMC,2011-11-10,7200.0
MMC,2011-11-11,7200.0
MMC,2011-11-14,7300.0
MMC,2011-11-15,7300.0
MMC,2011-11-16,7300.0
MMC,2011-11-17,7100.0
MMC,2011-11-18,7100.0
MMC,2011-11-21,7100.0
MMC,2011-11-22,6900.0
MMC,2011-11-23,7000.0
MMC,2011-11-24,7300.0
MMC,2011-11-25,7300.0
MMC,2011-11-28,7300.0
MMC,2011-11-29,7300.0
MMC,2011-11-30,7600.0
MMC,2011-12-01,7400.0
MMC,2011-12-02,7800.0
MMC,2011-12-05,8400.0
MMC,2011-12-06,8000.0
MMC,2011-12-07,8000.0
MMC,2011-12-08,8000.0
MMC,2011-12-09,8500.0
MMC,2011-12-12,8500.0
MMC,2011-12-13,8900.0
MMC,2011-12-14,8300.0
MMC,2011-12-15,7800.0
MMC,2011-12-16,7800.0
MMC,2011-12-19,7800.0
MMC,2011-12-20,7800.0
MMC,2011-12-21,7800.0
MMC,2011-12-22,7800.0
MMC,2011-12-23,7300.0
MMC,2011-12-26,7300.0
MMC,2011-12-27,6800.0
MMC,2011-12-28,6800.0
MMC,2011-12-29,6800.0
MMC,2011-12-30,6800.0
MMC,2012-01-03,6800.0
MMC,2012-01-04,6800.0
MMC,2012-01-05,6800.0
MMC,2012-01-06,6800.0
MMC,2012-01-09,6800.0
MMC,2012-01-10,7100.0
MMC,2012-01-11,7000.0
MMC,2012-01-12,7000.0
MMC,2012-01-13,7000.0
MMC,2012-01-16,6600.0
MMC,2012-01-17,6200.0
MMC,2012-01-18,6200.0
MMC,2012-01-19,6600.0
MMC,2012-01-20,6900.0
MMC,2012-01-30,6900.0
MMC,2012-01-31,6900.0
MMC,2012-02-01,6900.0
MMC,2012-02-02,6900.0
MMC,2012-02-03,7300.0
MMC,2012-02-06,7300.0
MMC,2012-02-07,7300.0
MMC,2012-02-08,7700.0
MMC,2012-02-09,7700.0
MMC,2012-02-10,8200.0
MMC,2012-02-13,8200.0
MMC,2012-02-14,8200.0
MMC,2012-02-15,8200.0
MMC,2012-02-16,7700.0
MMC,2012-02-17,7700.0
MMC,2012-02-20,7300.0
MMC,2012-02-21,7300.0
MMC,2012-02-22,7300.0
MMC,2012-02-23,7300.0
MMC,2012-02-24,7800.0
MMC,2012-02-27,7300.0
MMC,2012-02-28,7300.0
MMC,2012-02-29,7300.0
MMC,2012-03-01,7300.0
MMC,2012-03-02,7000.0
MMC,2012-03-05,7400.0
MMC,2012-03-06,7400.0
MMC,2012-03-07,7100.0
MMC,2012-03-08,6700.0
MMC,2012-03-09,6700.0
MMC,2012-03-12,6700.0
MMC,2012-03-13,7100.0
MMC,2012-03-14,6700.0
MMC,2012-03-15,7300.0
MMC,2012-03-16,7000.0
MMC,2012-03-19,7000.0
MMC,2012-03-20,7000.0
MMC,2012-03-21,7400.0
MMC,2012-03-22,7300.0
MMC,2012-03-23,7300.0
MMC,2012-03-26,6900.0
MMC,2012-03-27,7000.0
MMC,2012-03-28,6800.0
MMC,2012-03-29,7300.0
MMC,2012-03-30,6800.0
MMC,2012-04-03,6600.0
MMC,2012-04-04,6400.0
MMC,2012-04-05,6800.0
MMC,2012-04-06,7000.0
MMC,2012-04-09,6600.0
MMC,2012-04-10,6500.0
MMC,2012-04-11,6500.0
MMC,2012-04-12,6500.0
MMC,2012-04-13,6300.0
MMC,2012-04-16,6300.0
MMC,2012-04-17,6700.0
MMC,2012-04-18,6700.0
MMC,2012-04-19,6700.0
MMC,2012-04-20,7100.0
MMC,2012-04-23,7000.0
MMC,2012-04-24,6900.0
MMC,2012-04-25,7300.0
MMC,2012-04-26,7600.0
MMC,2012-04-27,7300.0
MMC,2012-05-02,7800.0
MMC,2012-05-03,8000.0
MMC,2012-05-04,8100.0
MMC,2012-05-07,8100.0
MMC,2012-05-08,7600.0
MMC,2012-05-09,7100.0
MMC,2012-05-10,6800.0
MMC,2012-05-11,7000.0
MMC,2012-05-14,6600.0
MMC,2012-05-15,6300.0
MMC,2012-05-16,6700.0
MMC,2012-05-17,6400.0
MMC,2012-05-18,6400.0
MMC,2012-05-21,6800.0
MMC,2012-05-22,7100.0
MMC,2012-05-23,6900.0
MMC,2012-05-24,6600.0
MMC,2012-05-25,6600.0
MMC,2012-05-28,6300.0
MMC,2012-05-29,6600.0
MMC,2012-05-30,6600.0
MMC,2012-05-31,6200.0
MMC,2012-06-01,6200.0
MMC,2012-06-04,6500.0
MMC,2012-06-05,6500.0
MMC,2012-06-06,6100.0
MMC,2012-06-07,6500.0
MMC,2012-06-08,6600.0
MMC,2012-06-11,6600.0
MMC,2012-06-12,6200.0
MMC,2012-06-13,6200.0
MMC,2012-06-14,6000.0
MMC,2012-06-15,6000.0
MMC,2012-06-18,6000.0
MMC,2012-06-19,6000.0
MMC,2012-06-20,6000.0
MMC,2012-06-21,6000.0
MMC,2012-06-22,6000.0
MMC,2012-06-25,6200.0
MMC,2012-06-26,6500.0
MMC,2012-06-27,6500.0
MMC,2012-06-28,6800.0
MMC,2012-06-29,6800.0
MMC,2012-07-02,6800.0
MMC,2012-07-03,7000.0
MMC,2012-07-04,7000.0
MMC,2012-07-05,7000.0
MMC,2012-07-06,7400.0
MMC,2012-07-09,7400.0
MMC,2012-07-10,7400.0
MMC,2012-07-11,7400.0
MMC,2012-07-12,7400.0
MMC,2012-07-13,7400.0
MMC,2012-07-16,7400.0
MMC,2012-07-17,7400.0
MMC,2012-07-18,7400.0
MMC,2012-07-19,7800.0
MMC,2012-07-20,7800.0
MMC,2012-07-23,7800.0
MMC,2012-07-24,7800.0
MMC,2012-07-25,8300.0
MMC,2012-07-26,8300.0
MMC,2012-07-27,8300.0
MMC,2012-07-30,8300.0
MMC,2012-07-31,8300.0
MMC,2012-08-01,8300.0
MMC,2012-08-02,8300.0
MMC,2012-08-03,8300.0
MMC,2012-08-06,8700.0
MMC,2012-08-07,8700.0
MMC,2012-08-08,8700.0
MMC,2012-08-09,8700.0
MMC,2012-08-10,8700.0
MMC,2012-08-13,8100.0
MMC,2012-08-14,8100.0
MMC,2012-08-15,8100.0
MMC,2012-08-16,8100.0
MMC,2012-08-17,8100.0
MMC,2012-08-20,8100.0
MMC,2012-08-21,8100.0
MMC,2012-08-22,8100.0
MMC,2012-08-23,8100.0
MMC,2012-08-24,8100.0
MMC,2012-08-27,8100.0
MMC,2012-08-28,8100.0
MMC,2012-08-29,8100.0
MMC,2012-08-30,8100.0
MMC,2012-08-31,8100.0
MMC,2012-09-04,8100.0
MMC,2012-09-05,8100.0
MMC,2012-09-06,8100.0
MMC,2012-09-07,8100.0
MMC,2012-09-10,8100.0
MMC,2012-09-11,8500.0
MMC,2012-09-12,8500.0
MMC,2012-09-13,8500.0
MMC,2012-09-14,8500.0
MMC,2012-09-17,8500.0
MMC,2012-09-18,8500.0
MMC,2012-09-19,8500.0
MMC,2012-09-20,8500.0
MMC,2012-09-21,8500.0
MMC,2012-09-24,8500.0
MMC,2012-09-25,8000.0
MMC,2012-09-26,8000.0
MMC,2012-09-27,8000.0
MMC,2012-09-28,8000.0
MMC,2012-10-01,8000.0
MMC,2012-10-02,8000.0
MMC,2012-10-03,8000.0
MMC,2012-10-04,8000.0
MMC,2012-10-05,8400.0
MMC,2012-10-08,8400.0
MMC,2012-10-09,8400.0
MMC,2012-10-10,8400.0
MMC,2012-10-11,8400.0
MMC,2012-10-12,8400.0
MMC,2012-10-15,8400.0
MMC,2012-10-16,8400.0
MMC,2012-10-17,8400.0
MMC,2012-10-18,8400.0
MMC,2012-10-19,8400.0
MMC,2012-10-22,8400.0
MMC,2012-10-23,8400.0
MMC,2012-10-24,8400.0
MMC,2012-10-25,8400.0
MMC,2012-10-26,8400.0
MMC,2012-10-29,8400.0
MMC,2012-10-30,8400.0
MMC,2012-10-31,8400.0
MMC,2012-11-01,8400.0
MMC,2012-11-02,8400.0
MMC,2012-11-05,8400.0
MMC,2012-11-06,8400.0
MMC,2012-11-07,8400.0
MMC,2012-11-08,8400.0
MMC,2012-11-09,8400.0
MMC,2012-11-12,8400.0
MMC,2012-11-13,8400.0
MMC,2012-11-14,8400.0
MMC,2012-11-15,8400.0
MMC,2012-11-16,8400.0
MMC,2012-11-19,8400.0
MMC,2012-11-20,8400.0
MMC,2012-11-21,8400.0
MMC,2012-11-22,8400.0
MMC,2012-11-23,8400.0
MMC,2012-11-26,8400.0
MMC,2012-11-27,8400.0
MMC,2012-11-28,8400.0
MMC,2012-11-29,8400.0
MMC,2012-11-30,8400.0
MMC,2012-12-03,8400.0
MMC,2012-12-04,8400.0
MMC,2012-12-05,8400.0
MMC,2012-12-06,8400.0
MMC,2012-12-07,8400.0
MMC,2012-12-10,8400.0
MMC,2012-12-11,8400.0
MMC,2012-12-12,8400.0
MMC,2012-12-13,8400.0
MMC,2012-12-14,8400.0
MMC,2012-12-17,8400.0
MMC,2012-12-18,8400.0
MMC,2012-12-19,8400.0
MMC,2012-12-20,8400.0
MMC,2012-12-21,8400.0
MMC,2012-12-24,8400.0
MMC,2012-12-25,8400.0
MMC,2012-12-26,8400.0
MMC,2012-12-27,8400.0
MMC,2012-12-28,8400.0
MMC,2013-01-02,8400.0
MMC,2013-01-03,8400.0
MMC,2013-01-04,8400.0
MMC,2013-01-07,8400.0
MMC,2013-01-08,8400.0
MMC,2013-01-09,8400.0
MMC,2013-01-10,8400.0
MMC,2013-01-11,8400.0
MMC,2013-01-14,8400.0
MMC,2013-01-15,8400.0
MMC,2013-01-16,7600.0
MMC,2013-01-17,7600.0
MMC,2013-01-18,7600.0
MMC,2013-01-21,7600.0
MMC,2013-01-22,7600.0
MMC,2013-01-23,7600.0
MMC,2013-01-24,7600.0
MMC,2013-01-25,7600.0
MMC,2013-01-28,7600.0
MMC,2013-01-29,7600.0
MMC,2013-01-30,7600.0
MMC,2013-01-31,7600.0
MMC,2013-02-01,7000.0
MMC,2013-02-04,7000.0
MMC,2013-02-05,7000.0
MMC,2013-02-06,7000.0
MMC,2013-02-07,7000.0
MMC,2013-02-08,7000.0
MMC,2013-02-18,6300.0
MMC,2013-02-19,5700.0
MMC,2013-02-20,5200.0
MMC,2013-02-21,4700.0
MMC,2013-02-22,4700.0
MMC,2013-02-25,5100.0
MMC,2013-02-26,5000.0
MMC,2013-02-27,5000.0
MMC,2013-02-28,5000.0
MMC,2013-03-01,5000.0
MMC,2013-03-04,5000.0
MMC,2013-03-05,5000.0
MMC,2013-03-06,5000.0
MMC,2013-03-07,5000.0
MMC,2013-03-08,4500.0
MMC,2013-03-11,4500.0
MMC,2013-03-12,4500.0
MMC,2013-03-13,4500.0
MMC,2013-03-14,4500.0
MMC,2013-03-15,4500.0
MMC,2013-03-18,4500.0
MMC,2013-03-19,4500.0
MMC,2013-03-20,4500.0
MMC,2013-03-21,4800.0
MMC,2013-03-22,5100.0
MMC,2013-03-25,5100.0
MMC,2013-03-26,5100.0
MMC,2013-03-27,5000.0
MMC,2013-03-28,4500.0
MMC,2013-03-29,4100.0
MMC,2013-04-01,4400.0
MMC,2013-04-02,4000.0
MMC,2013-04-03,4200.0
MMC,2013-04-04,4200.0
MMC,2013-04-05,4300.0
MMC,2013-04-08,3900.0
MMC,2013-04-09,3900.0
MMC,2013-04-10,3600.0
MMC,2013-04-11,3600.0
MMC,2013-04-12,3300.0
MMC,2013-04-15,3300.0
MMC,2013-04-16,3300.0
MMC,2013-04-17,3300.0
MMC,2013-04-18,3000.0
MMC,2013-04-22,2800.0
MMC,2013-04-23,2800.0
MMC,2013-04-24,3000.0
MMC,2013-04-25,3000.0
MMC,2013-04-26,3000.0
MMC,2013-05-02,3000.0
MMC,2013-05-03,3300.0
MMC,2013-05-06,3600.0
MMC,2013-05-07,3600.0
MMC,2013-05-08,3600.0
MMC,2013-05-09,3600.0
MMC,2013-05-10,3600.0
MMC,2013-05-13,3600.0
MMC,2013-05-14,3300.0
MMC,2013-05-15,3000.0
MMC,2013-05-16,2800.0
MMC,2013-05-17,2800.0
MMC,2013-05-20,2800.0
MMC,2013-05-21,2800.0
MMC,2013-05-22,2800.0
MMC,2013-05-23,2800.0
MMC,2013-05-24,2700.0
MMC,2013-05-27,2700.0
MMC,2013-05-28,2700.0
MMC,2013-05-29,2700.0
MMC,2013-05-30,2700.0
MMC,2013-05-31,2800.0
MMC,2013-06-03,2800.0
MMC,2013-06-04,2800.0
MMC,2013-06-05,2800.0
MMC,2013-06-06,2800.0
MMC,2013-06-07,2800.0
MMC,2013-06-10,3000.0
MMC,2013-06-11,3300.0
MMC,2013-06-12,3600.0
MMC,2013-06-13,3900.0
MMC,2013-06-14,4200.0
MMC,2013-06-17,4600.0
MMC,2013-06-18,4700.0
MMC,2013-06-19,4300.0
MMC,2013-06-20,4300.0
MMC,2013-06-21,4400.0
MMC,2013-06-24,4500.0
MMC,2013-06-25,4700.0
MMC,2013-06-26,4700.0
MMC,2013-06-27,5000.0
MMC,2013-06-28,5000.0
MMC,2013-07-01,5000.0
MMC,2013-07-02,5000.0
MMC,2013-07-03,5000.0
MMC,2013-07-04,5000.0
MMC,2013-07-05,5000.0
MMC,2013-07-08,5000.0
MMC,2013-07-09,5000.0
MMC,2013-07-10,5000.0
MMC,2013-07-11,5000.0
MMC,2013-07-12,5000.0
MMC,2013-07-15,4500.0
MMC,2013-07-16,4500.0
MMC,2013-07-17,4500.0
MMC,2013-07-18,4200.0
MMC,2013-07-19,4500.0
MMC,2013-07-22,4900.0
MMC,2013-07-23,4900.0
MMC,2013-07-24,5300.0
MMC,2013-07-25,5300.0
MMC,2013-07-26,5300.0
MMC,2013-07-29,5300.0
MMC,2013-07-30,5300.0
MMC,2013-07-31,5300.0
MMC,2013-08-01,5300.0
MMC,2013-08-02,5300.0
MMC,2013-08-05,5300.0
MMC,2013-08-06,5300.0
MMC,2013-08-07,5300.0
MMC,2013-08-08,5300.0
MMC,2013-08-09,5300.0
MMC,2013-08-12,5300.0
MMC,2013-08-13,5300.0
MMC,2013-08-14,5300.0
MMC,2013-08-15,5800.0
MMC,2013-08-16,5700.0
MMC,2013-08-19,5700.0
MMC,2013-08-20,5700.0
MMC,2013-08-21,5700.0
MMC,2013-08-22,5700.0
MMC,2013-08-23,5700.0
MMC,2013-08-26,5700.0
MMC,2013-08-27,5700.0
MMC,2013-08-28,6200.0
MMC,2013-08-29,6200.0
MMC,2013-08-30,6200.0
MMC,2013-09-03,6200.0
MMC,2013-09-04,5600.0
MMC,2013-09-05,5600.0
MMC,2013-09-06,5600.0
MMC,2013-09-09,5600.0
MMC,2013-09-10,5600.0
MMC,2013-09-11,5600.0
MMC,2013-09-12,5600.0
MMC,2013-09-13,5600.0
MMC,2013-09-16,5600.0
MMC,2013-09-17,5600.0
MMC,2013-09-18,6100.0
MMC,2013-09-19,6100.0
MMC,2013-09-20,6100.0
MMC,2013-09-23,6100.0
MMC,2013-09-24,6100.0
MMC,2013-09-25,6100.0
MMC,2013-09-26,5500.0
MMC,2013-09-27,5500.0
MMC,2013-09-30,5500.0
MMC,2013-10-01,5500.0
MMC,2013-10-02,5500.0
MMC,2013-10-03,5500.0
MMC,2013-10-04,5500.0
MMC,2013-10-07,6000.0
MMC,2013-10-08,6000.0
MMC,2013-10-09,6000.0
MMC,2013-10-10,5400.0
MMC,2013-10-11,5000.0
MMC,2013-10-14,5000.0
MMC,2013-10-15,5000.0
MMC,2013-10-16,5000.0
MMC,2013-10-17,5000.0
MMC,2013-10-18,5000.0
MMC,2013-10-21,5000.0
MMC,2013-10-22,5000.0
MMC,2013-10-23,5000.0
MMC,2013-10-24,5000.0
MMC,2013-10-25,5000.0
MMC,2013-10-28,5000.0
MMC,2013-10-29,5000.0
MMC,2013-10-30,5000.0
MMC,2013-10-31,5000.0
MMC,2013-11-01,5500.0
MMC,2013-11-04,5500.0
MMC,2013-11-05,5500.0
MMC,2013-11-06,5500.0
MMC,2013-11-07,5500.0
MMC,2013-11-08,5500.0
MMC,2013-11-11,5500.0
MMC,2013-11-12,5000.0
MMC,2013-11-13,5000.0
MMC,2013-11-14,5000.0
MMC,2013-11-15,5000.0
MMC,2013-11-18,5000.0
MMC,2013-11-19,5000.0
MMC,2013-11-20,5000.0
MMC,2013-11-21,4500.0
MMC,2013-11-22,4100.0
MMC,2013-11-25,3700.0
MMC,2013-11-26,3600.0
MMC,2013-11-27,3600.0
MMC,2013-11-28,3500.0
MMC,2013-11-29,3500.0
MMC,2013-12-02,3500.0
MMC,2013-12-03,3500.0
MMC,2013-12-04,3500.0
MMC,2013-12-05,3500.0
MMC,2013-12-06,3300.0
MMC,2013-12-09,3200.0
MMC,2013-12-10,3000.0
MMC,2013-12-11,3300.0
MMC,2013-12-12,3600.0
MMC,2013-12-13,3300.0
MMC,2013-12-16,3300.0
MMC,2013-12-17,3500.0
MMC,2013-12-18,3500.0
MMC,2013-12-19,3500.0
MMC,2013-12-20,3500.0
MMC,2013-12-23,3500.0
MMC,2013-12-24,3200.0
MMC,2013-12-25,3500.0
MMC,2013-12-26,3400.0
MMC,2013-12-27,3400.0
MMC,2013-12-30,3100.0
MMC,2013-12-31,2900.0
MMC,2014-01-02,3100.0
MMC,2014-01-03,2800.0
MMC,2014-01-06,3000.0
MMC,2014-01-07,3100.0
MMC,2014-01-08,3400.0
MMC,2014-01-09,3500.0
MMC,2014-01-10,3500.0
MMC,2014-01-13,3200.0
MMC,2014-01-14,3200.0
MMC,2014-01-15,3000.0
MMC,2014-01-16,3000.0
MMC,2014-01-17,3100.0
MMC,2014-01-20,3100.0
MMC,2014-01-21,3100.0
MMC,2014-01-22,3200.0
MMC,2014-01-23,3200.0
MMC,2014-01-24,3200.0
MMC,2014-01-27,3200.0
MMC,2014-02-06,3200.0
MMC,2014-02-07,3200.0
MMC,2014-02-10,3200.0
MMC,2014-02-11,3200.0
MMC,2014-02-12,3200.0
MMC,2014-02-13,3200.0
MMC,2014-02-14,3200.0
MMC,2014-02-17,3200.0
MMC,2014-02-18,3000.0
MMC,2014-02-19,2900.0
MMC,2014-02-20,2900.0
MMC,2014-02-21,2900.0
MMC,2014-02-24,2900.0
MMC,2014-02-25,2800.0
MMC,2014-02-26,2800.0
MMC,2014-02-27,3000.0
MMC,2014-02-28,3100.0
MMC,2014-03-03,3200.0
MMC,2014-03-04,3200.0
MMC,2014-03-05,3200.0
MMC,2014-03-06,3000.0
MMC,2014-03-07,3000.0
MMC,2014-03-10,3000.0
MMC,2014-03-11,3100.0
MMC,2014-03-12,3100.0
MMC,2014-03-13,3100.0
MMC,2014-03-14,3200.0
MMC,2014-03-17,3400.0
MMC,2014-03-18,3700.0
MMC,2014-03-19,4000.0
MMC,2014-03-20,4400.0
MMC,2014-03-21,4800.0
MMC,2014-03-24,5100.0
MMC,2014-03-25,5000.0
MMC,2014-03-26,4600.0
MMC,2014-03-27,4200.0
MMC,2014-03-28,4300.0
MMC,2014-03-31,3900.0
MMC,2014-04-01,3600.0
MMC,2014-04-02,3700.0
MMC,2014-04-03,3800.0
MMC,2014-04-04,3500.0
MMC,2014-04-07,3600.0
MMC,2014-04-08,3300.0
MMC,2014-04-10,3600.0
MMC,2014-04-11,3700.0
MMC,2014-04-14,3400.0
MMC,2014-04-15,3400.0
MMC,2014-04-16,3100.0
MMC,2014-04-17,2800.0
MMC,2014-04-18,2600.0
MMC,2014-04-21,2400.0
MMC,2014-04-22,2200.0
MMC,2014-04-23,2000.0
MMC,2014-04-24,2000.0
MMC,2014-04-25,2200.0
MMC,2014-04-28,2100.0
MMC,2014-04-29,2100.0
MMC,2014-05-05,2100.0
MMC,2014-05-06,1900.0
MMC,2014-05-07,2000.0
