NBP,2009-08-06,17900.0
NBP,2009-08-07,18600.0
NBP,2009-08-10,19900.0
NBP,2009-08-11,21200.0
NBP,2009-08-12,19900.0
NBP,2009-08-13,20500.0
NBP,2009-08-14,21800.0
NBP,2009-08-17,22600.0
NBP,2009-08-18,24100.0
NBP,2009-08-19,25200.0
NBP,2009-08-20,24900.0
NBP,2009-08-21,24200.0
NBP,2009-08-24,23100.0
NBP,2009-08-25,24800.0
NBP,2009-08-26,25700.0
NBP,2009-08-27,25900.0
NBP,2009-08-28,25700.0
NBP,2009-08-31,26200.0
NBP,2009-09-01,25900.0
NBP,2009-09-03,25300.0
NBP,2009-09-04,24700.0
NBP,2009-09-07,25000.0
NBP,2009-09-08,25000.0
NBP,2009-09-09,24900.0
NBP,2009-09-10,24500.0
NBP,2009-09-11,24600.0
NBP,2009-09-14,24700.0
NBP,2009-09-15,24500.0
NBP,2009-09-16,24700.0
NBP,2009-09-17,24600.0
NBP,2009-09-18,24500.0
NBP,2009-09-21,25100.0
NBP,2009-09-22,25100.0
NBP,2009-09-23,24800.0
NBP,2009-09-24,25000.0
NBP,2009-09-25,25100.0
NBP,2009-09-28,25300.0
NBP,2009-09-29,24900.0
NBP,2009-09-30,24900.0
NBP,2009-10-01,24300.0
NBP,2009-10-02,23900.0
NBP,2009-10-05,23600.0
NBP,2009-10-06,23600.0
NBP,2009-10-07,23800.0
NBP,2009-10-08,23700.0
NBP,2009-10-09,25100.0
NBP,2009-10-12,25400.0
NBP,2009-10-13,27300.0
NBP,2009-10-14,28500.0
NBP,2009-10-15,29600.0
NBP,2009-10-16,28200.0
NBP,2009-10-19,26800.0
NBP,2009-10-20,27800.0
NBP,2009-10-21,26900.0
NBP,2009-10-22,25700.0
NBP,2009-10-23,24500.0
NBP,2009-10-26,24300.0
NBP,2009-10-27,23200.0
NBP,2009-10-28,22100.0
NBP,2009-10-29,20700.0
NBP,2009-10-30,20900.0
NBP,2009-11-02,19600.0
NBP,2009-11-03,18200.0
NBP,2009-11-04,19000.0
NBP,2009-11-05,19100.0
NBP,2009-11-06,20400.0
NBP,2009-11-09,18900.0
NBP,2009-11-10,17800.0
NBP,2009-11-11,19300.0
NBP,2009-11-12,20000.0
NBP,2009-11-13,19600.0
NBP,2009-11-16,19000.0
NBP,2009-11-17,19000.0
NBP,2009-11-18,19300.0
NBP,2009-11-19,19400.0
NBP,2009-11-20,18800.0
NBP,2009-11-23,18100.0
NBP,2009-11-24,17900.0
NBP,2009-11-25,16800.0
NBP,2009-11-26,15800.0
NBP,2009-11-27,14900.0
NBP,2009-11-30,16200.0
NBP,2009-12-01,17100.0
NBP,2009-12-02,16000.0
NBP,2009-12-03,15900.0
NBP,2009-12-04,16200.0
NBP,2009-12-07,16600.0
NBP,2009-12-08,15900.0
NBP,2009-12-09,15000.0
NBP,2009-12-10,15000.0
NBP,2009-12-11,14600.0
NBP,2009-12-14,15400.0
NBP,2009-12-15,15200.0
NBP,2009-12-16,14700.0
NBP,2009-12-17,14900.0
NBP,2009-12-18,15400.0
NBP,2009-12-21,16500.0
NBP,2009-12-22,16100.0
NBP,2009-12-23,16400.0
NBP,2009-12-24,16500.0
NBP,2009-12-25,17300.0
NBP,2009-12-28,16800.0
NBP,2009-12-29,16300.0
NBP,2009-12-30,16600.0
NBP,2009-12-31,17300.0
NBP,2010-01-04,18400.0
NBP,2010-01-05,18600.0
NBP,2010-01-06,18100.0
NBP,2010-01-07,17400.0
NBP,2010-01-08,16900.0
NBP,2010-01-11,16900.0
NBP,2010-01-12,16600.0
NBP,2010-01-13,17200.0
NBP,2010-01-14,17600.0
NBP,2010-01-15,17100.0
NBP,2010-01-18,16300.0
NBP,2010-01-19,16700.0
NBP,2010-01-20,16900.0
NBP,2010-01-21,16700.0
NBP,2010-01-22,16900.0
NBP,2010-01-25,18000.0
NBP,2010-01-26,18800.0
NBP,2010-01-27,17500.0
NBP,2010-01-28,17100.0
NBP,2010-01-29,17600.0
NBP,2010-02-01,17100.0
NBP,2010-02-02,17100.0
NBP,2010-02-03,17200.0
NBP,2010-02-04,17600.0
NBP,2010-02-05,17200.0
NBP,2010-02-08,17100.0
NBP,2010-02-09,17200.0
NBP,2010-02-10,17100.0
NBP,2010-02-11,17200.0
NBP,2010-02-12,17800.0
NBP,2010-02-22,17900.0
NBP,2010-02-23,17300.0
NBP,2010-02-24,17600.0
NBP,2010-02-25,17300.0
NBP,2010-02-26,18300.0
NBP,2010-03-01,17900.0
NBP,2010-03-02,17600.0
NBP,2010-03-03,17600.0
NBP,2010-03-04,17100.0
NBP,2010-03-05,17300.0
NBP,2010-03-08,17500.0
NBP,2010-03-09,17200.0
NBP,2010-03-10,17100.0
NBP,2010-03-11,17000.0
NBP,2010-03-12,17500.0
NBP,2010-03-15,17400.0
NBP,2010-03-16,17100.0
NBP,2010-03-17,16600.0
NBP,2010-03-18,17100.0
NBP,2010-03-19,16700.0
NBP,2010-03-22,16300.0
NBP,2010-03-23,16400.0
NBP,2010-03-24,16500.0
NBP,2010-03-25,15800.0
NBP,2010-03-26,16000.0
NBP,2010-03-29,16000.0
NBP,2010-03-30,15600.0
NBP,2010-03-31,15300.0
NBP,2010-04-01,15600.0
NBP,2010-04-02,15600.0
NBP,2010-04-05,16700.0
NBP,2010-04-06,16500.0
NBP,2010-04-07,16300.0
NBP,2010-04-08,16500.0
NBP,2010-04-09,16600.0
NBP,2010-04-12,17500.0
NBP,2010-04-13,17500.0
NBP,2010-04-14,17300.0
NBP,2010-04-15,17100.0
NBP,2010-04-16,16800.0
NBP,2010-04-19,18200.0
NBP,2010-04-20,19300.0
NBP,2010-04-21,20600.0
NBP,2010-04-22,22000.0
NBP,2010-04-26,20700.0
NBP,2010-04-27,20300.0
NBP,2010-04-28,22300.0
NBP,2010-04-29,21200.0
NBP,2010-05-04,20700.0
NBP,2010-05-05,19900.0
NBP,2010-05-06,21400.0
NBP,2010-05-07,20100.0
NBP,2010-05-10,19400.0
NBP,2010-05-11,19800.0
NBP,2010-05-12,18500.0
NBP,2010-05-13,18400.0
NBP,2010-05-14,18400.0
NBP,2010-05-17,17800.0
NBP,2010-05-18,17500.0
NBP,2010-05-19,17500.0
NBP,2010-05-20,18600.0
NBP,2010-05-21,16800.0
NBP,2010-05-24,17100.0
NBP,2010-05-25,17300.0
NBP,2010-05-26,17800.0
NBP,2010-05-27,18000.0
NBP,2010-05-28,18700.0
NBP,2010-05-31,17800.0
NBP,2010-06-01,18000.0
NBP,2010-06-02,17800.0
NBP,2010-06-03,18100.0
NBP,2010-06-04,17600.0
NBP,2010-06-07,17100.0
NBP,2010-06-08,17500.0
NBP,2010-06-09,17300.0
NBP,2010-06-10,17500.0
NBP,2010-06-11,18400.0
NBP,2010-06-14,19400.0
NBP,2010-06-15,19900.0
NBP,2010-06-16,19600.0
NBP,2010-06-17,19900.0
NBP,2010-06-18,20900.0
NBP,2010-06-21,20900.0
NBP,2010-06-22,20000.0
NBP,2010-06-23,19800.0
NBP,2010-06-24,19900.0
NBP,2010-06-25,19100.0
NBP,2010-06-28,19300.0
NBP,2010-06-29,19300.0
NBP,2010-06-30,18900.0
NBP,2010-07-01,19100.0
NBP,2010-07-02,19300.0
NBP,2010-07-05,19300.0
NBP,2010-07-06,19100.0
NBP,2010-07-07,18900.0
NBP,2010-07-08,19600.0
NBP,2010-07-09,20100.0
NBP,2010-07-12,20100.0
NBP,2010-07-13,20800.0
NBP,2010-07-14,20500.0
NBP,2010-07-15,20100.0
NBP,2010-07-16,20100.0
NBP,2010-07-19,21000.0
NBP,2010-07-20,20200.0
NBP,2010-07-21,20000.0
NBP,2010-07-22,19700.0
NBP,2010-07-23,19700.0
NBP,2010-07-26,19200.0
NBP,2010-07-27,19400.0
NBP,2010-07-28,19000.0
NBP,2010-07-29,19200.0
NBP,2010-07-30,19700.0
NBP,2010-08-02,20100.0
NBP,2010-08-03,19600.0
NBP,2010-08-04,19400.0
NBP,2010-08-05,19400.0
NBP,2010-08-06,19000.0
NBP,2010-08-09,18400.0
NBP,2010-08-10,18000.0
NBP,2010-08-11,18100.0
NBP,2010-08-12,17100.0
NBP,2010-08-13,18300.0
NBP,2010-08-16,19100.0
NBP,2010-08-17,18700.0
NBP,2010-08-18,18600.0
NBP,2010-08-19,18600.0
NBP,2010-08-20,18300.0
NBP,2010-08-23,18000.0
NBP,2010-08-24,17400.0
NBP,2010-08-25,16800.0
NBP,2010-08-26,17100.0
NBP,2010-08-27,17300.0
NBP,2010-08-30,18400.0
NBP,2010-08-31,18300.0
NBP,2010-09-01,18400.0
NBP,2010-09-06,19400.0
NBP,2010-09-07,18400.0
NBP,2010-09-08,18100.0
NBP,2010-09-09,18400.0
NBP,2010-09-10,17700.0
NBP,2010-09-13,17700.0
NBP,2010-09-14,17800.0
NBP,2010-09-15,17500.0
NBP,2010-09-16,17700.0
NBP,2010-09-17,18100.0
NBP,2010-09-20,18100.0
NBP,2010-09-21,18100.0
NBP,2010-09-22,17700.0
NBP,2010-09-23,17700.0
NBP,2010-09-24,17600.0
NBP,2010-09-27,17800.0
NBP,2010-09-28,17600.0
NBP,2010-09-29,17700.0
NBP,2010-09-30,17700.0
NBP,2010-10-01,17200.0
NBP,2010-10-04,16900.0
NBP,2010-10-05,17200.0
NBP,2010-10-06,17300.0
NBP,2010-10-07,17000.0
NBP,2010-10-08,16900.0
NBP,2010-10-11,17300.0
NBP,2010-10-12,16900.0
NBP,2010-10-13,17000.0
NBP,2010-10-14,17000.0
NBP,2010-10-15,17200.0
NBP,2010-10-18,17100.0
NBP,2010-10-19,16800.0
NBP,2010-10-20,16400.0
NBP,2010-10-21,16000.0
NBP,2010-10-22,16200.0
NBP,2010-10-25,16500.0
NBP,2010-10-26,16800.0
NBP,2010-10-27,16300.0
NBP,2010-10-28,16300.0
NBP,2010-10-29,16400.0
NBP,2010-11-01,16400.0
NBP,2010-11-02,16000.0
NBP,2010-11-03,16000.0
NBP,2010-11-04,16000.0
NBP,2010-11-05,16600.0
NBP,2010-11-08,16400.0
NBP,2010-11-09,16000.0
NBP,2010-11-10,16000.0
NBP,2010-11-11,15800.0
NBP,2010-11-12,14800.0
NBP,2010-11-15,14000.0
NBP,2010-11-16,13600.0
NBP,2010-11-17,14100.0
NBP,2010-11-18,14400.0
NBP,2010-11-19,13700.0
NBP,2010-11-22,13900.0
NBP,2010-11-23,13900.0
NBP,2010-11-24,13900.0
NBP,2010-11-25,14300.0
NBP,2010-11-26,14500.0
NBP,2010-11-29,15100.0
NBP,2010-11-30,15400.0
NBP,2010-12-01,14800.0
NBP,2010-12-02,16100.0
NBP,2010-12-03,16700.0
NBP,2010-12-06,16400.0
NBP,2010-12-07,16000.0
NBP,2010-12-08,15500.0
NBP,2010-12-09,16000.0
NBP,2010-12-10,16600.0
NBP,2010-12-13,17300.0
NBP,2010-12-14,16200.0
NBP,2010-12-15,16200.0
NBP,2010-12-16,15800.0
NBP,2010-12-17,16600.0
NBP,2010-12-20,16100.0
NBP,2010-12-21,15900.0
NBP,2010-12-22,16500.0
NBP,2010-12-23,16500.0
NBP,2010-12-24,16100.0
NBP,2010-12-27,16600.0
NBP,2010-12-28,16700.0
NBP,2010-12-29,16200.0
NBP,2010-12-30,16300.0
NBP,2010-12-31,16700.0
NBP,2011-01-04,16800.0
NBP,2011-01-05,16300.0
NBP,2011-01-06,15900.0
NBP,2011-01-07,16100.0
NBP,2011-01-10,15200.0
NBP,2011-01-11,15100.0
NBP,2011-01-12,15100.0
NBP,2011-01-13,15400.0
NBP,2011-01-14,15400.0
NBP,2011-01-17,15800.0
NBP,2011-01-18,15500.0
NBP,2011-01-19,15500.0
NBP,2011-01-20,16300.0
NBP,2011-01-21,16400.0
NBP,2011-01-24,16100.0
NBP,2011-01-25,16400.0
NBP,2011-01-26,16200.0
NBP,2011-01-27,16200.0
NBP,2011-01-28,16500.0
NBP,2011-02-08,17200.0
NBP,2011-02-09,16700.0
NBP,2011-02-10,16400.0
NBP,2011-02-11,16400.0
NBP,2011-02-14,17000.0
NBP,2011-02-15,17000.0
NBP,2011-02-16,16500.0
NBP,2011-02-17,16600.0
NBP,2011-02-18,15900.0
NBP,2011-02-21,14900.0
NBP,2011-02-22,15400.0
NBP,2011-02-23,15100.0
NBP,2011-02-24,15100.0
NBP,2011-02-25,15400.0
NBP,2011-02-28,15300.0
NBP,2011-03-01,15100.0
NBP,2011-03-02,14000.0
NBP,2011-03-03,14100.0
NBP,2011-03-04,14000.0
NBP,2011-03-07,14300.0
NBP,2011-03-08,14000.0
NBP,2011-03-09,13900.0
NBP,2011-03-10,14300.0
NBP,2011-03-11,14600.0
NBP,2011-03-14,14600.0
NBP,2011-03-15,14000.0
NBP,2011-03-16,13900.0
NBP,2011-03-17,14000.0
NBP,2011-03-18,14200.0
NBP,2011-03-21,14200.0
NBP,2011-03-22,13900.0
NBP,2011-03-23,13900.0
NBP,2011-03-24,13900.0
NBP,2011-03-25,13600.0
NBP,2011-03-28,13700.0
NBP,2011-03-29,13600.0
NBP,2011-03-30,13600.0
NBP,2011-03-31,13600.0
NBP,2011-04-01,13600.0
NBP,2011-04-04,13600.0
NBP,2011-04-05,13200.0
NBP,2011-04-06,14000.0
NBP,2011-04-07,13400.0
NBP,2011-04-08,13600.0
NBP,2011-04-13,13600.0
NBP,2011-04-14,13600.0
NBP,2011-04-15,13600.0
NBP,2011-04-18,13600.0
NBP,2011-04-19,13600.0
NBP,2011-04-20,13600.0
NBP,2011-04-21,13600.0
NBP,2011-04-22,13600.0
NBP,2011-04-25,13600.0
NBP,2011-04-26,12900.0
NBP,2011-04-27,13600.0
NBP,2011-04-28,13600.0
NBP,2011-04-29,13400.0
NBP,2011-05-04,13200.0
NBP,2011-05-05,13300.0
NBP,2011-05-06,13300.0
NBP,2011-05-09,13300.0
NBP,2011-05-10,13300.0
NBP,2011-05-11,13400.0
NBP,2011-05-12,13400.0
NBP,2011-05-13,13400.0
NBP,2011-05-16,13400.0
NBP,2011-05-17,13000.0
NBP,2011-05-18,12800.0
NBP,2011-05-19,12300.0
NBP,2011-05-20,12400.0
NBP,2011-05-23,11700.0
NBP,2011-05-24,11200.0
NBP,2011-05-25,10400.0
NBP,2011-05-26,11200.0
NBP,2011-05-27,11100.0
NBP,2011-05-30,11000.0
NBP,2011-05-31,10600.0
NBP,2011-06-01,11600.0
NBP,2011-06-02,12100.0
NBP,2011-06-03,12100.0
NBP,2011-06-06,12300.0
NBP,2011-06-07,13100.0
NBP,2011-06-08,13200.0
NBP,2011-06-09,13600.0
NBP,2011-06-10,13600.0
NBP,2011-06-13,13600.0
NBP,2011-06-14,13600.0
NBP,2011-06-15,13200.0
NBP,2011-06-16,13200.0
NBP,2011-06-17,12800.0
NBP,2011-06-20,12700.0
NBP,2011-06-21,12700.0
NBP,2011-06-22,12900.0
NBP,2011-06-23,13100.0
NBP,2011-06-24,13400.0
NBP,2011-06-27,13900.0
NBP,2011-06-28,13600.0
NBP,2011-06-29,13600.0
NBP,2011-06-30,13600.0
NBP,2011-07-01,13600.0
NBP,2011-07-04,13600.0
NBP,2011-07-05,13600.0
NBP,2011-07-06,13600.0
NBP,2011-07-07,13300.0
NBP,2011-07-08,13900.0
NBP,2011-07-11,14200.0
NBP,2011-07-12,13300.0
NBP,2011-07-13,13300.0
NBP,2011-07-14,13000.0
NBP,2011-07-15,12800.0
NBP,2011-07-18,12400.0
NBP,2011-07-19,13400.0
NBP,2011-07-20,13300.0
NBP,2011-07-21,13300.0
NBP,2011-07-22,13300.0
NBP,2011-07-25,13300.0
NBP,2011-07-26,13300.0
NBP,2011-07-27,13300.0
NBP,2011-07-28,13300.0
NBP,2011-07-29,13300.0
NBP,2011-08-01,13300.0
NBP,2011-08-02,13300.0
NBP,2011-08-03,13300.0
NBP,2011-08-04,13300.0
NBP,2011-08-05,13000.0
NBP,2011-08-08,12900.0
NBP,2011-08-09,12100.0
NBP,2011-08-10,13000.0
NBP,2011-08-11,12100.0
NBP,2011-08-12,12100.0
NBP,2011-08-15,12400.0
NBP,2011-08-16,12600.0
NBP,2011-08-17,13300.0
NBP,2011-08-18,13400.0
NBP,2011-08-19,12500.0
NBP,2011-08-22,13400.0
NBP,2011-08-23,13300.0
NBP,2011-08-24,13300.0
NBP,2011-08-25,13300.0
NBP,2011-08-26,13400.0
NBP,2011-08-29,13500.0
NBP,2011-08-30,13900.0
NBP,2011-08-31,13900.0
NBP,2011-09-01,13900.0
NBP,2011-09-05,13900.0
NBP,2011-09-06,13900.0
NBP,2011-09-07,14000.0
NBP,2011-09-08,14000.0
NBP,2011-09-09,14100.0
NBP,2011-09-12,14300.0
NBP,2011-09-13,14400.0
NBP,2011-09-14,14400.0
NBP,2011-09-15,14400.0
NBP,2011-09-16,14400.0
NBP,2011-09-19,14400.0
NBP,2011-09-20,14000.0
NBP,2011-09-21,13800.0
NBP,2011-09-22,13400.0
NBP,2011-09-23,13300.0
NBP,2011-09-26,13700.0
NBP,2011-09-27,13700.0
NBP,2011-09-28,13400.0
NBP,2011-09-29,13000.0
NBP,2011-09-30,13000.0
NBP,2011-10-03,13500.0
NBP,2011-10-04,13100.0
NBP,2011-10-05,13100.0
NBP,2011-10-06,13100.0
NBP,2011-10-07,13100.0
NBP,2011-10-10,13200.0
NBP,2011-10-11,13200.0
NBP,2011-10-12,12900.0
NBP,2011-10-13,13000.0
NBP,2011-10-14,13000.0
NBP,2011-10-17,13000.0
NBP,2011-10-18,13400.0
NBP,2011-10-19,13000.0
NBP,2011-10-20,13000.0
NBP,2011-10-21,13000.0
NBP,2011-10-24,13100.0
NBP,2011-10-25,12800.0
NBP,2011-10-26,12800.0
NBP,2011-10-27,12800.0
NBP,2011-10-28,12800.0
NBP,2011-10-31,12600.0
NBP,2011-11-01,12600.0
NBP,2011-11-02,12600.0
NBP,2011-11-03,12600.0
NBP,2011-11-04,12600.0
NBP,2011-11-07,12800.0
NBP,2011-11-08,12800.0
NBP,2011-11-09,12800.0
NBP,2011-11-10,12800.0
NBP,2011-11-11,12800.0
NBP,2011-11-14,12800.0
NBP,2011-11-15,12800.0
NBP,2011-11-16,12800.0
NBP,2011-11-17,12800.0
NBP,2011-11-18,12600.0
NBP,2011-11-21,12600.0
NBP,2011-11-22,12400.0
NBP,2011-11-23,12400.0
NBP,2011-11-24,12400.0
NBP,2011-11-25,12400.0
NBP,2011-11-28,12400.0
NBP,2011-11-29,12400.0
NBP,2011-11-30,12400.0
NBP,2011-12-01,12500.0
NBP,2011-12-02,12500.0
NBP,2011-12-05,13200.0
NBP,2011-12-06,12600.0
NBP,2011-12-07,12800.0
NBP,2011-12-08,12800.0
NBP,2011-12-09,12600.0
NBP,2011-12-12,12600.0
NBP,2011-12-13,12600.0
NBP,2011-12-14,12600.0
NBP,2011-12-15,12600.0
NBP,2011-12-16,12600.0
NBP,2011-12-19,12600.0
NBP,2011-12-20,12600.0
NBP,2011-12-21,12000.0
NBP,2011-12-22,12600.0
NBP,2011-12-23,12600.0
NBP,2011-12-26,13400.0
NBP,2011-12-27,12800.0
NBP,2011-12-28,12800.0
NBP,2011-12-29,12900.0
NBP,2011-12-30,12600.0
NBP,2012-01-03,12200.0
NBP,2012-01-04,12200.0
NBP,2012-01-05,11700.0
NBP,2012-01-06,11000.0
NBP,2012-01-09,10400.0
NBP,2012-01-10,12100.0
NBP,2012-01-11,12000.0
NBP,2012-01-12,12000.0
NBP,2012-01-13,11300.0
NBP,2012-01-16,11500.0
NBP,2012-01-17,11500.0
NBP,2012-01-18,11500.0
NBP,2012-01-19,11800.0
NBP,2012-01-20,11800.0
NBP,2012-01-30,11800.0
NBP,2012-01-31,11800.0
NBP,2012-02-01,11800.0
NBP,2012-02-02,11800.0
NBP,2012-02-03,11900.0
NBP,2012-02-06,11900.0
NBP,2012-02-07,12500.0
NBP,2012-02-08,11700.0
NBP,2012-02-09,11900.0
NBP,2012-02-10,11300.0
NBP,2012-02-13,11000.0
NBP,2012-02-14,11700.0
NBP,2012-02-15,11700.0
NBP,2012-02-16,11700.0
NBP,2012-02-17,11400.0
NBP,2012-02-20,11800.0
NBP,2012-02-21,12200.0
NBP,2012-02-22,12000.0
NBP,2012-02-23,12600.0
NBP,2012-02-24,12200.0
NBP,2012-02-27,12200.0
NBP,2012-02-28,11900.0
NBP,2012-02-29,11800.0
NBP,2012-03-01,11800.0
NBP,2012-03-02,11800.0
NBP,2012-03-05,12700.0
NBP,2012-03-06,12600.0
NBP,2012-03-07,12600.0
NBP,2012-03-08,12600.0
NBP,2012-03-09,12600.0
NBP,2012-03-12,12100.0
NBP,2012-03-13,11900.0
NBP,2012-03-14,11700.0
NBP,2012-03-15,11800.0
NBP,2012-03-16,11800.0
NBP,2012-03-19,11800.0
NBP,2012-03-20,11800.0
NBP,2012-03-21,11700.0
NBP,2012-03-22,12200.0
NBP,2012-03-23,12000.0
NBP,2012-03-26,12200.0
NBP,2012-03-27,12200.0
NBP,2012-03-28,12200.0
NBP,2012-03-29,12200.0
NBP,2012-03-30,11400.0
NBP,2012-04-03,12200.0
NBP,2012-04-04,12200.0
NBP,2012-04-05,12600.0
NBP,2012-04-06,12600.0
NBP,2012-04-09,12600.0
NBP,2012-04-10,12600.0
NBP,2012-04-11,12600.0
NBP,2012-04-12,12600.0
NBP,2012-04-13,12600.0
NBP,2012-04-16,12600.0
NBP,2012-04-17,12600.0
NBP,2012-04-18,12600.0
NBP,2012-04-19,12600.0
NBP,2012-04-20,13400.0
NBP,2012-04-23,13100.0
NBP,2012-04-24,12300.0
NBP,2012-04-25,12400.0
NBP,2012-04-26,12400.0
NBP,2012-04-27,12400.0
NBP,2012-05-02,12400.0
NBP,2012-05-03,11700.0
NBP,2012-05-04,12500.0
NBP,2012-05-07,12600.0
NBP,2012-05-08,12600.0
NBP,2012-05-09,12700.0
NBP,2012-05-10,12700.0
NBP,2012-05-11,12700.0
NBP,2012-05-14,12200.0
NBP,2012-05-15,12500.0
NBP,2012-05-16,12500.0
NBP,2012-05-17,12500.0
NBP,2012-05-18,12600.0
NBP,2012-05-21,13000.0
NBP,2012-05-22,13000.0
NBP,2012-05-23,12600.0
NBP,2012-05-24,12600.0
NBP,2012-05-25,12600.0
NBP,2012-05-28,12600.0
NBP,2012-05-29,12600.0
NBP,2012-05-30,12600.0
NBP,2012-05-31,12600.0
NBP,2012-06-01,12600.0
NBP,2012-06-04,12600.0
NBP,2012-06-05,12200.0
NBP,2012-06-06,11500.0
NBP,2012-06-07,12400.0
NBP,2012-06-08,12400.0
NBP,2012-06-11,12400.0
NBP,2012-06-12,12600.0
NBP,2012-06-13,12600.0
NBP,2012-06-14,12600.0
NBP,2012-06-15,13000.0
NBP,2012-06-18,12200.0
NBP,2012-06-19,12200.0
NBP,2012-06-20,12200.0
NBP,2012-06-21,12200.0
NBP,2012-06-22,12200.0
NBP,2012-06-25,12200.0
NBP,2012-06-26,13000.0
NBP,2012-06-27,13000.0
NBP,2012-06-28,13000.0
NBP,2012-06-29,13000.0
NBP,2012-07-02,12900.0
NBP,2012-07-03,12600.0
NBP,2012-07-04,12900.0
NBP,2012-07-05,12900.0
NBP,2012-07-06,12100.0
NBP,2012-07-09,11300.0
NBP,2012-07-10,10900.0
NBP,2012-07-11,10900.0
NBP,2012-07-12,10900.0
NBP,2012-07-13,11700.0
NBP,2012-07-16,12400.0
NBP,2012-07-17,12400.0
NBP,2012-07-18,12400.0
NBP,2012-07-19,12400.0
NBP,2012-07-20,12600.0
NBP,2012-07-23,12500.0
NBP,2012-07-24,12500.0
NBP,2012-07-25,13300.0
NBP,2012-07-26,13700.0
NBP,2012-07-27,13700.0
NBP,2012-07-30,13700.0
NBP,2012-07-31,13700.0
NBP,2012-08-01,13700.0
NBP,2012-08-02,13700.0
NBP,2012-08-03,13700.0
NBP,2012-08-06,13800.0
NBP,2012-08-07,13800.0
NBP,2012-08-08,13800.0
NBP,2012-08-09,13200.0
NBP,2012-08-10,12800.0
NBP,2012-08-13,13200.0
NBP,2012-08-14,13800.0
NBP,2012-08-15,13800.0
NBP,2012-08-16,13800.0
NBP,2012-08-17,13800.0
NBP,2012-08-20,13300.0
NBP,2012-08-21,13300.0
NBP,2012-08-22,13300.0
NBP,2012-08-23,13300.0
NBP,2012-08-24,13900.0
NBP,2012-08-27,13900.0
NBP,2012-08-28,13000.0
NBP,2012-08-29,13600.0
NBP,2012-08-30,13600.0
NBP,2012-08-31,14200.0
NBP,2012-09-04,13800.0
NBP,2012-09-05,13100.0
NBP,2012-09-06,13100.0
NBP,2012-09-07,13100.0
NBP,2012-09-10,13100.0
NBP,2012-09-11,13100.0
NBP,2012-09-12,13100.0
NBP,2012-09-13,12900.0
NBP,2012-09-14,12900.0
NBP,2012-09-17,13300.0
NBP,2012-09-18,13000.0
NBP,2012-09-19,13100.0
NBP,2012-09-20,12400.0
NBP,2012-09-21,12700.0
NBP,2012-09-24,13100.0
NBP,2012-09-25,13100.0
NBP,2012-09-26,13100.0
NBP,2012-09-27,12600.0
NBP,2012-09-28,12600.0
NBP,2012-10-01,12600.0
NBP,2012-10-02,12600.0
NBP,2012-10-03,13100.0
NBP,2012-10-04,13100.0
NBP,2012-10-05,12900.0
NBP,2012-10-08,12900.0
NBP,2012-10-09,12900.0
NBP,2012-10-10,13200.0
NBP,2012-10-11,13200.0
NBP,2012-10-12,13800.0
NBP,2012-10-15,13800.0
NBP,2012-10-16,13800.0
NBP,2012-10-17,13800.0
NBP,2012-10-18,14700.0
NBP,2012-10-19,14700.0
NBP,2012-10-22,14700.0
NBP,2012-10-23,14700.0
NBP,2012-10-24,13700.0
NBP,2012-10-25,12800.0
NBP,2012-10-26,12800.0
NBP,2012-10-29,12800.0
NBP,2012-10-30,12800.0
NBP,2012-10-31,12800.0
NBP,2012-11-01,12800.0
NBP,2012-11-02,12800.0
NBP,2012-11-05,12800.0
NBP,2012-11-06,12400.0
NBP,2012-11-07,12400.0
NBP,2012-11-08,12500.0
NBP,2012-11-09,12500.0
NBP,2012-11-12,12500.0
NBP,2012-11-13,12500.0
NBP,2012-11-14,12400.0
NBP,2012-11-15,12400.0
NBP,2012-11-16,12400.0
NBP,2012-11-19,12400.0
NBP,2012-11-20,12400.0
NBP,2012-11-21,11600.0
NBP,2012-11-22,12300.0
NBP,2012-11-23,12300.0
NBP,2012-11-26,12300.0
NBP,2012-11-27,12300.0
NBP,2012-11-28,12300.0
NBP,2012-11-29,12300.0
NBP,2012-11-30,12300.0
NBP,2012-12-03,12300.0
NBP,2012-12-04,11500.0
NBP,2012-12-05,12200.0
NBP,2012-12-06,12200.0
NBP,2012-12-07,12200.0
NBP,2012-12-10,12200.0
NBP,2012-12-11,12200.0
NBP,2012-12-12,12200.0
NBP,2012-12-13,12200.0
NBP,2012-12-14,11600.0
NBP,2012-12-17,11600.0
NBP,2012-12-18,11700.0
NBP,2012-12-19,11700.0
NBP,2012-12-20,11700.0
NBP,2012-12-21,11700.0
NBP,2012-12-24,11700.0
NBP,2012-12-25,11700.0
NBP,2012-12-26,11700.0
NBP,2012-12-27,11700.0
NBP,2012-12-28,11700.0
NBP,2013-01-02,11700.0
NBP,2013-01-03,11700.0
NBP,2013-01-04,12000.0
NBP,2013-01-07,12800.0
NBP,2013-01-08,13400.0
NBP,2013-01-09,13700.0
NBP,2013-01-10,13700.0
NBP,2013-01-11,13700.0
NBP,2013-01-14,13700.0
NBP,2013-01-15,13700.0
NBP,2013-01-16,13100.0
NBP,2013-01-17,13100.0
NBP,2013-01-18,13100.0
NBP,2013-01-21,13100.0
NBP,2013-01-22,13100.0
NBP,2013-01-23,13700.0
NBP,2013-01-24,13700.0
NBP,2013-01-25,13600.0
NBP,2013-01-28,13700.0
NBP,2013-01-29,13800.0
NBP,2013-01-30,13800.0
NBP,2013-01-31,15000.0
NBP,2013-02-01,15000.0
NBP,2013-02-04,13800.0
NBP,2013-02-05,13200.0
NBP,2013-02-06,12700.0
NBP,2013-02-07,12600.0
NBP,2013-02-08,12900.0
NBP,2013-02-18,12900.0
NBP,2013-02-19,12700.0
NBP,2013-02-20,12700.0
NBP,2013-02-21,12800.0
NBP,2013-02-22,12800.0
NBP,2013-02-25,13300.0
NBP,2013-02-26,13300.0
NBP,2013-02-27,12400.0
NBP,2013-02-28,12000.0
NBP,2013-03-01,12000.0
NBP,2013-03-04,11800.0
NBP,2013-03-05,11800.0
NBP,2013-03-06,11800.0
NBP,2013-03-07,11800.0
NBP,2013-03-08,12000.0
NBP,2013-03-11,12700.0
NBP,2013-03-12,12800.0
NBP,2013-03-13,12800.0
NBP,2013-03-14,12800.0
NBP,2013-03-15,12800.0
NBP,2013-03-18,12800.0
NBP,2013-03-19,12800.0
NBP,2013-03-20,12300.0
NBP,2013-03-21,12400.0
NBP,2013-03-22,12400.0
NBP,2013-03-25,12400.0
NBP,2013-03-26,13300.0
NBP,2013-03-27,12300.0
NBP,2013-03-28,12300.0
NBP,2013-03-29,12100.0
NBP,2013-04-01,12100.0
NBP,2013-04-02,12100.0
NBP,2013-04-03,12100.0
NBP,2013-04-04,12900.0
NBP,2013-04-05,12900.0
NBP,2013-04-08,12900.0
NBP,2013-04-09,12900.0
NBP,2013-04-10,12900.0
NBP,2013-04-11,12900.0
NBP,2013-04-12,12400.0
NBP,2013-04-15,12400.0
NBP,2013-04-16,12400.0
NBP,2013-04-17,12400.0
NBP,2013-04-18,12400.0
NBP,2013-04-22,12400.0
NBP,2013-04-23,12900.0
NBP,2013-04-24,12900.0
NBP,2013-04-25,12400.0
NBP,2013-04-26,12300.0
NBP,2013-05-02,12300.0
NBP,2013-05-03,12300.0
NBP,2013-05-06,12300.0
NBP,2013-05-07,12400.0
NBP,2013-05-08,12400.0
NBP,2013-05-09,12900.0
NBP,2013-05-10,12900.0
NBP,2013-05-13,12900.0
NBP,2013-05-14,12900.0
NBP,2013-05-15,12900.0
NBP,2013-05-16,13200.0
NBP,2013-05-17,12800.0
NBP,2013-05-20,13400.0
NBP,2013-05-21,13800.0
NBP,2013-05-22,15100.0
NBP,2013-05-23,14700.0
NBP,2013-05-24,14700.0
NBP,2013-05-27,15400.0
NBP,2013-05-28,15500.0
NBP,2013-05-29,15500.0
NBP,2013-05-30,15400.0
NBP,2013-05-31,15500.0
NBP,2013-06-03,15300.0
NBP,2013-06-04,14600.0
NBP,2013-06-05,14700.0
NBP,2013-06-06,15500.0
NBP,2013-06-07,15500.0
NBP,2013-06-10,15400.0
NBP,2013-06-11,15400.0
NBP,2013-06-12,14700.0
NBP,2013-06-13,15400.0
NBP,2013-06-14,14700.0
NBP,2013-06-17,14700.0
NBP,2013-06-18,14900.0
NBP,2013-06-19,14700.0
NBP,2013-06-20,14700.0
NBP,2013-06-21,14700.0
NBP,2013-06-24,14700.0
NBP,2013-06-25,14700.0
NBP,2013-06-26,14700.0
NBP,2013-06-27,14700.0
NBP,2013-06-28,14700.0
NBP,2013-07-01,14700.0
NBP,2013-07-02,14800.0
NBP,2013-07-03,14800.0
NBP,2013-07-04,14800.0
NBP,2013-07-05,14800.0
NBP,2013-07-08,14800.0
NBP,2013-07-09,14800.0
NBP,2013-07-10,14300.0
NBP,2013-07-11,14300.0
NBP,2013-07-12,14300.0
NBP,2013-07-15,14300.0
NBP,2013-07-16,14300.0
NBP,2013-07-17,14300.0
NBP,2013-07-18,14300.0
NBP,2013-07-19,14300.0
NBP,2013-07-22,13800.0
NBP,2013-07-23,13800.0
NBP,2013-07-24,13800.0
NBP,2013-07-25,13800.0
NBP,2013-07-26,13800.0
NBP,2013-07-29,13600.0
NBP,2013-07-30,13600.0
NBP,2013-07-31,13600.0
NBP,2013-08-01,13600.0
NBP,2013-08-02,13600.0
NBP,2013-08-05,13100.0
NBP,2013-08-06,13100.0
NBP,2013-08-07,12700.0
NBP,2013-08-08,12800.0
NBP,2013-08-09,12800.0
NBP,2013-08-12,12800.0
NBP,2013-08-13,12800.0
NBP,2013-08-14,12800.0
NBP,2013-08-15,12700.0
NBP,2013-08-16,12700.0
NBP,2013-08-19,12700.0
NBP,2013-08-20,12700.0
NBP,2013-08-21,13900.0
NBP,2013-08-22,13900.0
NBP,2013-08-23,13900.0
NBP,2013-08-26,13900.0
NBP,2013-08-27,13900.0
NBP,2013-08-28,13900.0
NBP,2013-08-29,13900.0
NBP,2013-08-30,13900.0
NBP,2013-09-03,13900.0
NBP,2013-09-04,13900.0
NBP,2013-09-05,13900.0
NBP,2013-09-06,13900.0
NBP,2013-09-09,13900.0
NBP,2013-09-10,13900.0
NBP,2013-09-11,13500.0
NBP,2013-09-12,13500.0
NBP,2013-09-13,13500.0
NBP,2013-09-16,13500.0
NBP,2013-09-17,13300.0
NBP,2013-09-18,13300.0
NBP,2013-09-19,13200.0
NBP,2013-09-20,13200.0
NBP,2013-09-23,13200.0
NBP,2013-09-24,13100.0
NBP,2013-09-25,13100.0
NBP,2013-09-26,14000.0
NBP,2013-09-27,14000.0
NBP,2013-09-30,14000.0
NBP,2013-10-01,14000.0
NBP,2013-10-02,14000.0
NBP,2013-10-03,14000.0
NBP,2013-10-04,14000.0
NBP,2013-10-07,14000.0
NBP,2013-10-08,14000.0
NBP,2013-10-09,14000.0
NBP,2013-10-10,14000.0
NBP,2013-10-11,14000.0
NBP,2013-10-14,14000.0
NBP,2013-10-15,14000.0
NBP,2013-10-16,13100.0
NBP,2013-10-17,13100.0
NBP,2013-10-18,13100.0
NBP,2013-10-21,13100.0
NBP,2013-10-22,13100.0
NBP,2013-10-23,13100.0
NBP,2013-10-24,13100.0
NBP,2013-10-25,13200.0
NBP,2013-10-28,13200.0
NBP,2013-10-29,13200.0
NBP,2013-10-30,13300.0
NBP,2013-10-31,12800.0
NBP,2013-11-01,12800.0
NBP,2013-11-04,14000.0
NBP,2013-11-05,14000.0
NBP,2013-11-06,14000.0
NBP,2013-11-07,14000.0
NBP,2013-11-08,14000.0
NBP,2013-11-11,14000.0
NBP,2013-11-12,14000.0
NBP,2013-11-13,14000.0
NBP,2013-11-14,12700.0
NBP,2013-11-15,13900.0
NBP,2013-11-18,13900.0
NBP,2013-11-19,15200.0
NBP,2013-11-20,15300.0
NBP,2013-11-21,16800.0
NBP,2013-11-22,16800.0
NBP,2013-11-25,16800.0
NBP,2013-11-26,16800.0
NBP,2013-11-27,16900.0
NBP,2013-11-28,16800.0
NBP,2013-11-29,16800.0
NBP,2013-12-02,16800.0
NBP,2013-12-03,16800.0
NBP,2013-12-04,16800.0
NBP,2013-12-05,16800.0
NBP,2013-12-06,16800.0
NBP,2013-12-09,16800.0
NBP,2013-12-10,16800.0
NBP,2013-12-11,16800.0
NBP,2013-12-12,16800.0
NBP,2013-12-13,16800.0
NBP,2013-12-16,16800.0
NBP,2013-12-17,16700.0
NBP,2013-12-18,16800.0
NBP,2013-12-19,17900.0
NBP,2013-12-20,16700.0
NBP,2013-12-23,16700.0
NBP,2013-12-24,16700.0
NBP,2013-12-25,16700.0
NBP,2013-12-26,16700.0
NBP,2013-12-27,16700.0
NBP,2013-12-30,16700.0
NBP,2013-12-31,16700.0
NBP,2014-01-02,16800.0
NBP,2014-01-03,16800.0
NBP,2014-01-06,16900.0
NBP,2014-01-07,16900.0
NBP,2014-01-08,17000.0
NBP,2014-01-09,17000.0
NBP,2014-01-10,18300.0
NBP,2014-01-13,18300.0
NBP,2014-01-14,18300.0
NBP,2014-01-15,16700.0
NBP,2014-01-16,16700.0
NBP,2014-01-17,16800.0
NBP,2014-01-20,16800.0
NBP,2014-01-21,16700.0
NBP,2014-01-22,16700.0
NBP,2014-01-23,16700.0
NBP,2014-01-24,16700.0
NBP,2014-01-27,16700.0
NBP,2014-02-06,16700.0
NBP,2014-02-07,16700.0
NBP,2014-02-10,16700.0
NBP,2014-02-11,16700.0
NBP,2014-02-12,16700.0
NBP,2014-02-13,16700.0
NBP,2014-02-14,16700.0
NBP,2014-02-17,17000.0
NBP,2014-02-18,17100.0
NBP,2014-02-19,17100.0
NBP,2014-02-20,17100.0
NBP,2014-02-21,17100.0
NBP,2014-02-24,17100.0
NBP,2014-02-25,17100.0
NBP,2014-02-26,17000.0
NBP,2014-02-27,17100.0
NBP,2014-02-28,16800.0
NBP,2014-03-03,16900.0
NBP,2014-03-04,16900.0
NBP,2014-03-05,16800.0
NBP,2014-03-06,16800.0
NBP,2014-03-07,16800.0
NBP,2014-03-10,16900.0
NBP,2014-03-11,16800.0
NBP,2014-03-12,16800.0
NBP,2014-03-13,18400.0
NBP,2014-03-14,19700.0
NBP,2014-03-17,21600.0
NBP,2014-03-18,20000.0
NBP,2014-03-19,20000.0
NBP,2014-03-20,19800.0
NBP,2014-03-21,19600.0
NBP,2014-03-24,19600.0
NBP,2014-03-25,19200.0
NBP,2014-03-26,19000.0
NBP,2014-03-27,18800.0
NBP,2014-03-28,18600.0
NBP,2014-03-31,18400.0
NBP,2014-04-01,18400.0
NBP,2014-04-02,18200.0
NBP,2014-04-03,18200.0
NBP,2014-04-04,18400.0
NBP,2014-04-07,18200.0
NBP,2014-04-08,18000.0
NBP,2014-04-10,18000.0
NBP,2014-04-11,18800.0
NBP,2014-04-14,18800.0
NBP,2014-04-15,18800.0
NBP,2014-04-16,18000.0
NBP,2014-04-17,18000.0
NBP,2014-04-18,18900.0
NBP,2014-04-21,18900.0
NBP,2014-04-22,18900.0
NBP,2014-04-23,18900.0
NBP,2014-04-24,18900.0
NBP,2014-04-25,20000.0
NBP,2014-04-28,20000.0
NBP,2014-04-29,20000.0
NBP,2014-05-05,18100.0
NBP,2014-05-06,18100.0
NBP,2014-05-07,19000.0
NBP,2014-05-08,19000.0
NBP,2014-05-09,18800.0
NBP,2014-05-12,18600.0
NBP,2014-05-13,18200.0
NBP,2014-05-14,18200.0
NBP,2014-05-15,18000.0
NBP,2014-05-16,18000.0
NBP,2014-05-19,18000.0
NBP,2014-05-20,17800.0
NBP,2014-05-21,19000.0
