NDX,2013-07-17,10900.0
NDX,2013-07-18,9900.0
NDX,2013-07-19,9000.0
NDX,2013-07-22,8200.0
NDX,2013-07-23,7400.0
NDX,2013-07-24,6800.0
NDX,2013-07-25,6500.0
NDX,2013-07-26,6600.0
NDX,2013-07-29,6500.0
NDX,2013-07-30,6500.0
NDX,2013-07-31,6500.0
NDX,2013-08-01,6500.0
NDX,2013-08-02,7100.0
NDX,2013-08-05,7100.0
NDX,2013-08-06,7100.0
NDX,2013-08-07,6500.0
NDX,2013-08-08,6000.0
NDX,2013-08-09,5500.0
NDX,2013-08-12,6000.0
NDX,2013-08-13,6600.0
NDX,2013-08-14,7200.0
NDX,2013-08-15,6900.0
NDX,2013-08-16,6900.0
NDX,2013-08-19,6900.0
NDX,2013-08-20,6900.0
NDX,2013-08-21,6500.0
NDX,2013-08-22,6100.0
NDX,2013-08-23,6100.0
NDX,2013-08-26,6100.0
NDX,2013-08-27,5800.0
NDX,2013-08-28,6000.0
NDX,2013-08-29,6000.0
NDX,2013-08-30,6000.0
NDX,2013-09-03,6000.0
NDX,2013-09-04,6000.0
NDX,2013-09-05,6600.0
NDX,2013-09-06,7200.0
NDX,2013-09-09,7200.0
NDX,2013-09-10,7200.0
NDX,2013-09-11,6600.0
NDX,2013-09-12,6600.0
NDX,2013-09-13,6100.0
NDX,2013-09-16,6100.0
NDX,2013-09-17,6100.0
NDX,2013-09-18,6100.0
NDX,2013-09-19,6100.0
NDX,2013-09-20,6100.0
NDX,2013-09-23,6200.0
NDX,2013-09-24,6200.0
NDX,2013-09-25,6200.0
NDX,2013-09-26,6200.0
NDX,2013-09-27,6100.0
NDX,2013-09-30,6100.0
NDX,2013-10-01,6000.0
NDX,2013-10-02,6000.0
NDX,2013-10-03,5900.0
NDX,2013-10-04,5900.0
NDX,2013-10-07,5900.0
NDX,2013-10-08,5900.0
NDX,2013-10-09,6100.0
NDX,2013-10-10,6100.0
NDX,2013-10-11,6100.0
NDX,2013-10-14,6300.0
NDX,2013-10-15,6400.0
NDX,2013-10-16,6400.0
NDX,2013-10-17,6500.0
NDX,2013-10-18,6500.0
NDX,2013-10-21,6400.0
NDX,2013-10-22,6500.0
NDX,2013-10-23,6500.0
NDX,2013-10-24,6400.0
NDX,2013-10-25,6400.0
NDX,2013-10-28,6400.0
NDX,2013-10-29,6400.0
NDX,2013-10-30,6400.0
NDX,2013-10-31,6400.0
NDX,2013-11-01,6400.0
NDX,2013-11-04,6400.0
NDX,2013-11-05,7000.0
NDX,2013-11-06,7700.0
NDX,2013-11-07,8400.0
NDX,2013-11-08,9200.0
NDX,2013-11-11,9900.0
NDX,2013-11-12,9900.0
NDX,2013-11-13,9900.0
NDX,2013-11-14,9900.0
NDX,2013-11-15,10500.0
NDX,2013-11-18,10500.0
NDX,2013-11-19,11200.0
NDX,2013-11-20,11200.0
NDX,2013-11-21,11200.0
NDX,2013-11-22,11100.0
NDX,2013-11-25,11100.0
NDX,2013-11-26,11100.0
NDX,2013-11-27,11100.0
NDX,2013-11-28,11100.0
NDX,2013-11-29,11100.0
NDX,2013-12-02,11100.0
NDX,2013-12-03,11100.0
NDX,2013-12-04,11100.0
NDX,2013-12-05,11100.0
NDX,2013-12-06,11100.0
NDX,2013-12-09,11100.0
NDX,2013-12-10,10500.0
NDX,2013-12-11,10500.0
NDX,2013-12-12,10500.0
NDX,2013-12-13,10700.0
NDX,2013-12-16,9800.0
NDX,2013-12-17,9100.0
NDX,2013-12-18,9100.0
NDX,2013-12-19,9100.0
NDX,2013-12-20,9100.0
NDX,2013-12-23,9200.0
NDX,2013-12-24,9200.0
NDX,2013-12-25,9200.0
NDX,2013-12-26,9000.0
NDX,2013-12-27,9000.0
NDX,2013-12-30,9000.0
NDX,2013-12-31,9000.0
NDX,2014-01-02,9000.0
NDX,2014-01-03,8500.0
NDX,2014-01-06,8500.0
NDX,2014-01-07,8600.0
NDX,2014-01-08,8000.0
NDX,2014-01-09,8000.0
NDX,2014-01-10,8000.0
NDX,2014-01-13,8000.0
NDX,2014-01-14,7400.0
NDX,2014-01-15,7400.0
NDX,2014-01-16,7400.0
NDX,2014-01-17,7400.0
NDX,2014-01-20,7400.0
NDX,2014-01-21,7400.0
NDX,2014-01-22,7400.0
NDX,2014-01-23,7400.0
NDX,2014-01-24,7400.0
NDX,2014-01-27,6700.0
NDX,2014-02-06,6800.0
NDX,2014-02-07,6800.0
NDX,2014-02-10,6800.0
NDX,2014-02-11,6800.0
NDX,2014-02-12,6800.0
NDX,2014-02-13,6800.0
NDX,2014-02-14,6800.0
NDX,2014-02-17,6900.0
NDX,2014-02-18,7000.0
NDX,2014-02-19,7000.0
NDX,2014-02-20,7000.0
NDX,2014-02-21,7000.0
NDX,2014-02-24,7000.0
NDX,2014-02-25,7000.0
NDX,2014-02-26,7000.0
NDX,2014-02-27,7000.0
NDX,2014-02-28,7000.0
NDX,2014-03-03,7000.0
NDX,2014-03-04,7000.0
NDX,2014-03-05,7000.0
NDX,2014-03-06,7000.0
NDX,2014-03-07,7000.0
NDX,2014-03-10,7200.0
NDX,2014-03-11,7200.0
NDX,2014-03-12,7200.0
NDX,2014-03-13,7200.0
NDX,2014-03-14,7200.0
NDX,2014-03-17,7500.0
NDX,2014-03-18,7500.0
NDX,2014-03-19,7600.0
NDX,2014-03-20,7600.0
NDX,2014-03-21,7700.0
NDX,2014-03-24,7800.0
NDX,2014-03-25,7800.0
NDX,2014-03-26,8000.0
NDX,2014-03-27,8000.0
NDX,2014-03-28,8000.0
NDX,2014-03-31,8000.0
NDX,2014-04-01,8000.0
NDX,2014-04-02,7900.0
NDX,2014-04-03,7900.0
NDX,2014-04-04,8000.0
NDX,2014-04-07,8000.0
NDX,2014-04-08,8000.0
NDX,2014-04-10,8000.0
NDX,2014-04-11,8000.0
NDX,2014-04-14,8000.0
NDX,2014-04-15,7900.0
NDX,2014-04-16,7900.0
NDX,2014-04-17,7900.0
NDX,2014-04-18,8000.0
NDX,2014-04-21,8000.0
NDX,2014-04-22,8000.0
NDX,2014-04-23,7900.0
NDX,2014-04-24,7900.0
NDX,2014-04-25,7900.0
NDX,2014-04-28,7900.0
NDX,2014-04-29,7900.0
NDX,2014-05-05,7900.0
NDX,2014-05-06,7900.0
NDX,2014-05-07,7900.0
NDX,2014-05-08,7200.0
NDX,2014-05-09,7200.0
NDX,2014-05-12,7200.0
NDX,2014-05-13,7900.0
NDX,2014-05-14,7500.0
NDX,2014-05-15,7500.0
NDX,2014-05-16,7400.0
NDX,2014-05-19,7400.0
NDX,2014-05-20,7400.0
NDX,2014-05-21,7500.0
