NHA,2010-07-13,30300.0
NHA,2010-07-14,33300.0
NHA,2010-07-15,30300.0
NHA,2010-07-16,32300.0
NHA,2010-07-19,29400.0
NHA,2010-07-20,28000.0
NHA,2010-07-21,29700.0
NHA,2010-07-22,28000.0
NHA,2010-07-23,27300.0
NHA,2010-07-26,26700.0
NHA,2010-07-27,25300.0
NHA,2010-07-28,23600.0
NHA,2010-07-29,22700.0
NHA,2010-07-30,23600.0
NHA,2010-08-02,25100.0
NHA,2010-08-03,26200.0
NHA,2010-08-04,27300.0
NHA,2010-08-05,23500.0
NHA,2010-08-06,21900.0
NHA,2010-08-09,23500.0
NHA,2010-08-10,23000.0
NHA,2010-08-11,24000.0
NHA,2010-08-12,22300.0
NHA,2010-08-13,20800.0
NHA,2010-08-16,22200.0
NHA,2010-08-17,19700.0
NHA,2010-08-18,19300.0
NHA,2010-08-19,18700.0
NHA,2010-08-20,18300.0
NHA,2010-08-23,17500.0
NHA,2010-08-24,16300.0
NHA,2010-08-25,15400.0
NHA,2010-08-26,16500.0
NHA,2010-08-27,15300.0
NHA,2010-08-30,16400.0
NHA,2010-08-31,17500.0
NHA,2010-09-01,18200.0
NHA,2010-09-06,19200.0
NHA,2010-09-07,20500.0
NHA,2010-09-08,21300.0
NHA,2010-09-09,20000.0
NHA,2010-09-10,19600.0
NHA,2010-09-13,18700.0
NHA,2010-09-14,18700.0
NHA,2010-09-15,17400.0
NHA,2010-09-16,16300.0
NHA,2010-09-17,17400.0
NHA,2010-09-20,18600.0
NHA,2010-09-21,19900.0
NHA,2010-09-22,19700.0
NHA,2010-09-23,20000.0
NHA,2010-09-24,19500.0
NHA,2010-09-27,19700.0
NHA,2010-09-28,19900.0
NHA,2010-09-29,18600.0
NHA,2010-09-30,19300.0
NHA,2010-10-01,18300.0
NHA,2010-10-04,19800.0
NHA,2010-10-05,20700.0
NHA,2010-10-06,21900.0
NHA,2010-10-07,21500.0
NHA,2010-10-08,22000.0
NHA,2010-10-11,22400.0
NHA,2010-10-12,22300.0
NHA,2010-10-13,22600.0
NHA,2010-10-14,23700.0
NHA,2010-10-15,23000.0
NHA,2010-10-18,22300.0
NHA,2010-10-19,21300.0
NHA,2010-10-20,19900.0
NHA,2010-10-21,18500.0
NHA,2010-10-22,17700.0
NHA,2010-10-25,17300.0
NHA,2010-10-26,18500.0
NHA,2010-10-27,19000.0
NHA,2010-10-28,18400.0
NHA,2010-10-29,18000.0
NHA,2010-11-01,18000.0
NHA,2010-11-02,18000.0
NHA,2010-11-03,17700.0
NHA,2010-11-04,17700.0
NHA,2010-11-05,18700.0
NHA,2010-11-08,18000.0
NHA,2010-11-09,17800.0
NHA,2010-11-10,17800.0
NHA,2010-11-11,17800.0
NHA,2010-11-12,17900.0
NHA,2010-11-15,17900.0
NHA,2010-11-16,18000.0
NHA,2010-11-17,17300.0
NHA,2010-11-18,16700.0
NHA,2010-11-19,16000.0
NHA,2010-11-22,16000.0
NHA,2010-11-23,17300.0
NHA,2010-11-24,16100.0
NHA,2010-11-25,17200.0
NHA,2010-11-26,15300.0
NHA,2010-11-29,13700.0
NHA,2010-11-30,14700.0
NHA,2010-12-01,15700.0
NHA,2010-12-02,15300.0
NHA,2010-12-03,16500.0
NHA,2010-12-06,17500.0
NHA,2010-12-07,17600.0
NHA,2010-12-08,17600.0
NHA,2010-12-09,16900.0
NHA,2010-12-10,17700.0
NHA,2010-12-13,19000.0
NHA,2010-12-14,18900.0
NHA,2010-12-15,18700.0
NHA,2010-12-16,18700.0
NHA,2010-12-17,18700.0
NHA,2010-12-20,19700.0
NHA,2010-12-21,20000.0
NHA,2010-12-22,18900.0
NHA,2010-12-23,19000.0
NHA,2010-12-24,17700.0
NHA,2010-12-27,17300.0
NHA,2010-12-28,18400.0
NHA,2010-12-29,17100.0
NHA,2010-12-30,17300.0
NHA,2010-12-31,18500.0
NHA,2011-01-04,18400.0
NHA,2011-01-05,19700.0
NHA,2011-01-06,19500.0
NHA,2011-01-07,19500.0
NHA,2011-01-10,19500.0
NHA,2011-01-11,19500.0
NHA,2011-01-12,19700.0
NHA,2011-01-13,19700.0
NHA,2011-01-14,18300.0
NHA,2011-01-17,17100.0
NHA,2011-01-18,15900.0
NHA,2011-01-19,15300.0
NHA,2011-01-20,16400.0
NHA,2011-01-21,16000.0
NHA,2011-01-24,14900.0
NHA,2011-01-25,14900.0
NHA,2011-01-26,15900.0
NHA,2011-01-27,15700.0
NHA,2011-01-28,14700.0
NHA,2011-02-08,15700.0
NHA,2011-02-09,16700.0
NHA,2011-02-10,17900.0
NHA,2011-02-11,18500.0
NHA,2011-02-14,17300.0
NHA,2011-02-15,17300.0
NHA,2011-02-16,17200.0
NHA,2011-02-17,16600.0
NHA,2011-02-18,16000.0
NHA,2011-02-21,15900.0
NHA,2011-02-22,15900.0
NHA,2011-02-23,16700.0
NHA,2011-02-24,15700.0
NHA,2011-02-25,14400.0
NHA,2011-02-28,15400.0
NHA,2011-03-01,15400.0
NHA,2011-03-02,14300.0
NHA,2011-03-03,14700.0
NHA,2011-03-04,15700.0
NHA,2011-03-07,16600.0
NHA,2011-03-08,16000.0
NHA,2011-03-09,16700.0
NHA,2011-03-10,17800.0
NHA,2011-03-11,18600.0
NHA,2011-03-14,19900.0
NHA,2011-03-15,21200.0
NHA,2011-03-16,22300.0
NHA,2011-03-17,22800.0
NHA,2011-03-18,22900.0
NHA,2011-03-21,24100.0
NHA,2011-03-22,25600.0
NHA,2011-03-23,27200.0
NHA,2011-03-24,28500.0
NHA,2011-03-25,30400.0
NHA,2011-03-28,29000.0
NHA,2011-03-29,27800.0
NHA,2011-03-30,27400.0
NHA,2011-03-31,29300.0
NHA,2011-04-01,30900.0
NHA,2011-04-04,30800.0
NHA,2011-04-05,28800.0
NHA,2011-04-06,28900.0
NHA,2011-04-07,28200.0
NHA,2011-04-08,26400.0
NHA,2011-04-13,24700.0
NHA,2011-04-14,23100.0
NHA,2011-04-15,24800.0
NHA,2011-04-18,22700.0
NHA,2011-04-19,21400.0
NHA,2011-04-20,23600.0
NHA,2011-04-21,23000.0
NHA,2011-04-22,21500.0
NHA,2011-04-25,23100.0
NHA,2011-04-26,22800.0
NHA,2011-04-27,23300.0
NHA,2011-04-28,23300.0
NHA,2011-04-29,23400.0
NHA,2011-05-04,21800.0
NHA,2011-05-05,20400.0
NHA,2011-05-06,20700.0
NHA,2011-05-09,20000.0
NHA,2011-05-10,19900.0
NHA,2011-05-11,19900.0
NHA,2011-05-12,18900.0
NHA,2011-05-13,18200.0
NHA,2011-05-16,17100.0
NHA,2011-05-17,16800.0
NHA,2011-05-18,16300.0
NHA,2011-05-19,15200.0
NHA,2011-05-20,15700.0
NHA,2011-05-23,14100.0
NHA,2011-05-24,13500.0
NHA,2011-05-25,13700.0
NHA,2011-05-26,13500.0
NHA,2011-05-27,14600.0
NHA,2011-05-30,13400.0
NHA,2011-05-31,13000.0
NHA,2011-06-01,13500.0
NHA,2011-06-02,14700.0
NHA,2011-06-03,14000.0
NHA,2011-06-06,13800.0
NHA,2011-06-07,13900.0
NHA,2011-06-08,12500.0
NHA,2011-06-09,12500.0
NHA,2011-06-10,13000.0
NHA,2011-06-13,13900.0
NHA,2011-06-14,14700.0
NHA,2011-06-15,13500.0
NHA,2011-06-16,13900.0
NHA,2011-06-17,12900.0
NHA,2011-06-20,12300.0
NHA,2011-06-21,11500.0
NHA,2011-06-22,11900.0
NHA,2011-06-23,11100.0
NHA,2011-06-24,11700.0
NHA,2011-06-27,12000.0
NHA,2011-06-28,11200.0
NHA,2011-06-29,11000.0
NHA,2011-06-30,10700.0
NHA,2011-07-01,10900.0
NHA,2011-07-04,10300.0
NHA,2011-07-05,10700.0
NHA,2011-07-06,10900.0
NHA,2011-07-07,10300.0
NHA,2011-07-08,10600.0
NHA,2011-07-11,10700.0
NHA,2011-07-12,10200.0
NHA,2011-07-13,10400.0
NHA,2011-07-14,10200.0
NHA,2011-07-15,10400.0
NHA,2011-07-18,10100.0
NHA,2011-07-19,9700.0
NHA,2011-07-20,9500.0
NHA,2011-07-21,9900.0
NHA,2011-07-22,9900.0
NHA,2011-07-25,9400.0
NHA,2011-07-26,9300.0
NHA,2011-07-27,8800.0
NHA,2011-07-28,9200.0
NHA,2011-07-29,8500.0
NHA,2011-08-01,8600.0
NHA,2011-08-02,8700.0
NHA,2011-08-03,9100.0
NHA,2011-08-04,9700.0
NHA,2011-08-05,10000.0
NHA,2011-08-08,10000.0
NHA,2011-08-09,10000.0
NHA,2011-08-10,10600.0
NHA,2011-08-11,10600.0
NHA,2011-08-12,10600.0
NHA,2011-08-15,10400.0
NHA,2011-08-16,10400.0
NHA,2011-08-17,10400.0
NHA,2011-08-18,10000.0
NHA,2011-08-19,9500.0
NHA,2011-08-22,9400.0
NHA,2011-08-23,9900.0
NHA,2011-08-24,9600.0
NHA,2011-08-25,9700.0
NHA,2011-08-26,9100.0
NHA,2011-08-29,9700.0
NHA,2011-08-30,9700.0
NHA,2011-08-31,9300.0
NHA,2011-09-01,9900.0
NHA,2011-09-05,10100.0
NHA,2011-09-06,9400.0
NHA,2011-09-07,9400.0
NHA,2011-09-08,10300.0
NHA,2011-09-09,10500.0
NHA,2011-09-12,11500.0
NHA,2011-09-13,12100.0
NHA,2011-09-14,11100.0
NHA,2011-09-15,11400.0
NHA,2011-09-16,10700.0
NHA,2011-09-19,11700.0
NHA,2011-09-20,11000.0
NHA,2011-09-21,11200.0
NHA,2011-09-22,11200.0
NHA,2011-09-23,11200.0
NHA,2011-09-26,11900.0
NHA,2011-09-27,11200.0
NHA,2011-09-28,10900.0
NHA,2011-09-29,10300.0
NHA,2011-09-30,10000.0
NHA,2011-10-03,10500.0
NHA,2011-10-04,10800.0
NHA,2011-10-05,10800.0
NHA,2011-10-06,10900.0
NHA,2011-10-07,11400.0
NHA,2011-10-10,10800.0
NHA,2011-10-11,11000.0
NHA,2011-10-12,10000.0
NHA,2011-10-13,9300.0
NHA,2011-10-14,10100.0
NHA,2011-10-17,9100.0
NHA,2011-10-18,9100.0
NHA,2011-10-19,9100.0
NHA,2011-10-20,8900.0
NHA,2011-10-21,9400.0
NHA,2011-10-24,9500.0
NHA,2011-10-25,9900.0
NHA,2011-10-26,9900.0
NHA,2011-10-27,9300.0
NHA,2011-10-28,9300.0
NHA,2011-10-31,9000.0
NHA,2011-11-01,8600.0
NHA,2011-11-02,8600.0
NHA,2011-11-03,8600.0
NHA,2011-11-04,8000.0
NHA,2011-11-07,7500.0
NHA,2011-11-08,8000.0
NHA,2011-11-09,8300.0
NHA,2011-11-10,7800.0
NHA,2011-11-11,7800.0
NHA,2011-11-14,7800.0
NHA,2011-11-15,7800.0
NHA,2011-11-16,7800.0
NHA,2011-11-17,7300.0
NHA,2011-11-18,6800.0
NHA,2011-11-21,6400.0
NHA,2011-11-22,6400.0
NHA,2011-11-23,5900.0
NHA,2011-11-24,5900.0
NHA,2011-11-25,5700.0
NHA,2011-11-28,5400.0
NHA,2011-11-29,5100.0
NHA,2011-11-30,5000.0
NHA,2011-12-01,4700.0
NHA,2011-12-02,4500.0
NHA,2011-12-05,4700.0
NHA,2011-12-06,4500.0
NHA,2011-12-07,4500.0
NHA,2011-12-08,4400.0
NHA,2011-12-09,4300.0
NHA,2011-12-12,4000.0
NHA,2011-12-13,4000.0
NHA,2011-12-14,3800.0
NHA,2011-12-15,3600.0
NHA,2011-12-16,3400.0
NHA,2011-12-19,3200.0
NHA,2011-12-20,3100.0
NHA,2011-12-21,3100.0
NHA,2011-12-22,2900.0
NHA,2011-12-23,2800.0
NHA,2011-12-26,2700.0
NHA,2011-12-27,2900.0
NHA,2011-12-28,2900.0
NHA,2011-12-29,2900.0
NHA,2011-12-30,2900.0
NHA,2012-01-03,2900.0
NHA,2012-01-04,2800.0
NHA,2012-01-05,2900.0
NHA,2012-01-06,3100.0
NHA,2012-01-09,3000.0
NHA,2012-01-10,2800.0
NHA,2012-01-11,2900.0
NHA,2012-01-12,2900.0
NHA,2012-01-13,2900.0
NHA,2012-01-16,3000.0
NHA,2012-01-17,3100.0
NHA,2012-01-18,3300.0
NHA,2012-01-19,3500.0
NHA,2012-01-20,3700.0
NHA,2012-01-30,3500.0
NHA,2012-01-31,3300.0
NHA,2012-02-01,3200.0
NHA,2012-02-02,3400.0
NHA,2012-02-03,3500.0
NHA,2012-02-06,3400.0
NHA,2012-02-07,3300.0
NHA,2012-02-08,3500.0
NHA,2012-02-09,3500.0
NHA,2012-02-10,3600.0
NHA,2012-02-13,3700.0
NHA,2012-02-14,3800.0
NHA,2012-02-15,4000.0
NHA,2012-02-16,3800.0
NHA,2012-02-17,4100.0
NHA,2012-02-20,4100.0
NHA,2012-02-21,4000.0
NHA,2012-02-22,4200.0
NHA,2012-02-23,4200.0
NHA,2012-02-24,4400.0
NHA,2012-02-27,4700.0
NHA,2012-02-28,4800.0
NHA,2012-02-29,5200.0
NHA,2012-03-01,5100.0
NHA,2012-03-02,5200.0
NHA,2012-03-05,5400.0
NHA,2012-03-06,5300.0
NHA,2012-03-07,5200.0
NHA,2012-03-08,4900.0
NHA,2012-03-09,4700.0
NHA,2012-03-12,4700.0
NHA,2012-03-13,4500.0
NHA,2012-03-14,4700.0
NHA,2012-03-15,5000.0
NHA,2012-03-16,4600.0
NHA,2012-03-19,4800.0
NHA,2012-03-20,4900.0
NHA,2012-03-21,4900.0
NHA,2012-03-22,5100.0
NHA,2012-03-23,5300.0
NHA,2012-03-26,5300.0
NHA,2012-03-27,5000.0
NHA,2012-03-28,5000.0
NHA,2012-03-29,4800.0
NHA,2012-03-30,4500.0
NHA,2012-04-03,4800.0
NHA,2012-04-04,4700.0
NHA,2012-04-05,4900.0
NHA,2012-04-06,4800.0
NHA,2012-04-09,4700.0
NHA,2012-04-10,4800.0
NHA,2012-04-11,5100.0
NHA,2012-04-12,5400.0
NHA,2012-04-13,5700.0
NHA,2012-04-16,6000.0
NHA,2012-04-17,6400.0
NHA,2012-04-18,6800.0
NHA,2012-04-19,7200.0
NHA,2012-04-20,6700.0
NHA,2012-04-23,6300.0
NHA,2012-04-24,6500.0
NHA,2012-04-25,6600.0
NHA,2012-04-26,6200.0
NHA,2012-04-27,6600.0
NHA,2012-05-02,6900.0
NHA,2012-05-03,6500.0
NHA,2012-05-04,6900.0
NHA,2012-05-07,7100.0
NHA,2012-05-08,7300.0
NHA,2012-05-09,7400.0
NHA,2012-05-10,7900.0
NHA,2012-05-11,8100.0
NHA,2012-05-14,7500.0
NHA,2012-05-15,7000.0
NHA,2012-05-16,6600.0
NHA,2012-05-17,6800.0
NHA,2012-05-18,6400.0
NHA,2012-05-21,6800.0
NHA,2012-05-22,7000.0
NHA,2012-05-23,6600.0
NHA,2012-05-24,7000.0
NHA,2012-05-25,7400.0
NHA,2012-05-28,7500.0
NHA,2012-05-29,7900.0
NHA,2012-05-30,8100.0
NHA,2012-05-31,7600.0
NHA,2012-06-01,7600.0
NHA,2012-06-04,7100.0
NHA,2012-06-05,7300.0
NHA,2012-06-06,7700.0
NHA,2012-06-07,7900.0
NHA,2012-06-08,8000.0
NHA,2012-06-11,8100.0
NHA,2012-06-12,7500.0
NHA,2012-06-13,7500.0
NHA,2012-06-14,6900.0
NHA,2012-06-15,7000.0
NHA,2012-06-18,7100.0
NHA,2012-06-19,7200.0
NHA,2012-06-20,7200.0
NHA,2012-06-21,7100.0
NHA,2012-06-22,7000.0
NHA,2012-06-25,6800.0
NHA,2012-06-26,6400.0
NHA,2012-06-27,6400.0
NHA,2012-06-28,6300.0
NHA,2012-06-29,6500.0
NHA,2012-07-02,6100.0
NHA,2012-07-03,5700.0
NHA,2012-07-04,5600.0
NHA,2012-07-05,5800.0
NHA,2012-07-06,6000.0
NHA,2012-07-09,5800.0
NHA,2012-07-10,5800.0
NHA,2012-07-11,6000.0
NHA,2012-07-12,6000.0
NHA,2012-07-13,6100.0
NHA,2012-07-16,6100.0
NHA,2012-07-17,6100.0
NHA,2012-07-18,5700.0
NHA,2012-07-19,5900.0
NHA,2012-07-20,5900.0
NHA,2012-07-23,6000.0
NHA,2012-07-24,6200.0
NHA,2012-07-25,6200.0
NHA,2012-07-26,6000.0
NHA,2012-07-27,5800.0
NHA,2012-07-30,5700.0
NHA,2012-07-31,5800.0
NHA,2012-08-01,5800.0
NHA,2012-08-02,5900.0
NHA,2012-08-03,5900.0
NHA,2012-08-06,5900.0
NHA,2012-08-07,5900.0
NHA,2012-08-08,5800.0
NHA,2012-08-09,5600.0
NHA,2012-08-10,5500.0
NHA,2012-08-13,5300.0
NHA,2012-08-14,5300.0
NHA,2012-08-15,5200.0
NHA,2012-08-16,5200.0
NHA,2012-08-17,5200.0
NHA,2012-08-20,5300.0
NHA,2012-08-21,5300.0
NHA,2012-08-22,5000.0
NHA,2012-08-23,4700.0
NHA,2012-08-24,4700.0
NHA,2012-08-27,4500.0
NHA,2012-08-28,4400.0
NHA,2012-08-29,4700.0
NHA,2012-08-30,4700.0
NHA,2012-08-31,4700.0
NHA,2012-09-04,4700.0
NHA,2012-09-05,4600.0
NHA,2012-09-06,4500.0
NHA,2012-09-07,4700.0
NHA,2012-09-10,4400.0
NHA,2012-09-11,4400.0
NHA,2012-09-12,4400.0
NHA,2012-09-13,4200.0
NHA,2012-09-14,4300.0
NHA,2012-09-17,4500.0
NHA,2012-09-18,4500.0
NHA,2012-09-19,4500.0
NHA,2012-09-20,4500.0
NHA,2012-09-21,4500.0
NHA,2012-09-24,4500.0
NHA,2012-09-25,4500.0
NHA,2012-09-26,4800.0
NHA,2012-09-27,4800.0
NHA,2012-09-28,4800.0
NHA,2012-10-01,4800.0
NHA,2012-10-02,4800.0
NHA,2012-10-03,5100.0
NHA,2012-10-04,5100.0
NHA,2012-10-05,5100.0
NHA,2012-10-08,4800.0
NHA,2012-10-09,4500.0
NHA,2012-10-10,4200.0
NHA,2012-10-11,4000.0
NHA,2012-10-12,4200.0
NHA,2012-10-15,4200.0
NHA,2012-10-16,4200.0
NHA,2012-10-17,4200.0
NHA,2012-10-18,4200.0
NHA,2012-10-19,4000.0
NHA,2012-10-22,4000.0
NHA,2012-10-23,4000.0
NHA,2012-10-24,4000.0
NHA,2012-10-25,3900.0
NHA,2012-10-26,4000.0
NHA,2012-10-29,4000.0
NHA,2012-10-30,4000.0
NHA,2012-10-31,3900.0
NHA,2012-11-01,3900.0
NHA,2012-11-02,4100.0
NHA,2012-11-05,4100.0
NHA,2012-11-06,4100.0
NHA,2012-11-07,4000.0
NHA,2012-11-08,3800.0
NHA,2012-11-09,3900.0
NHA,2012-11-12,4000.0
NHA,2012-11-13,3800.0
NHA,2012-11-14,3900.0
NHA,2012-11-15,3800.0
NHA,2012-11-16,3900.0
NHA,2012-11-19,3900.0
NHA,2012-11-20,3900.0
NHA,2012-11-21,3900.0
NHA,2012-11-22,3900.0
NHA,2012-11-23,3900.0
NHA,2012-11-26,3900.0
NHA,2012-11-27,3900.0
NHA,2012-11-28,3900.0
NHA,2012-11-29,3900.0
NHA,2012-11-30,3700.0
NHA,2012-12-03,3500.0
NHA,2012-12-04,3500.0
NHA,2012-12-05,3700.0
NHA,2012-12-06,3900.0
NHA,2012-12-07,3900.0
NHA,2012-12-10,3900.0
NHA,2012-12-11,4000.0
NHA,2012-12-12,4100.0
NHA,2012-12-13,4200.0
NHA,2012-12-14,4000.0
NHA,2012-12-17,4000.0
NHA,2012-12-18,4000.0
NHA,2012-12-19,4100.0
NHA,2012-12-20,4100.0
NHA,2012-12-21,4100.0
NHA,2012-12-24,3900.0
NHA,2012-12-25,3900.0
NHA,2012-12-26,3900.0
NHA,2012-12-27,4000.0
NHA,2012-12-28,3900.0
NHA,2013-01-02,4100.0
NHA,2013-01-03,4300.0
NHA,2013-01-04,4300.0
NHA,2013-01-07,4300.0
NHA,2013-01-08,4300.0
NHA,2013-01-09,4000.0
NHA,2013-01-10,4000.0
NHA,2013-01-11,4000.0
NHA,2013-01-14,4000.0
NHA,2013-01-15,4000.0
NHA,2013-01-16,3800.0
NHA,2013-01-17,4200.0
NHA,2013-01-18,4400.0
NHA,2013-01-21,4400.0
NHA,2013-01-22,4200.0
NHA,2013-01-23,4000.0
NHA,2013-01-24,4000.0
NHA,2013-01-25,4100.0
NHA,2013-01-28,4100.0
NHA,2013-01-29,4100.0
NHA,2013-01-30,4200.0
NHA,2013-01-31,4100.0
NHA,2013-02-01,4100.0
NHA,2013-02-04,4100.0
NHA,2013-02-05,4100.0
NHA,2013-02-06,4400.0
NHA,2013-02-07,4400.0
NHA,2013-02-08,4300.0
NHA,2013-02-18,4500.0
NHA,2013-02-19,4900.0
NHA,2013-02-20,4900.0
NHA,2013-02-21,5000.0
NHA,2013-02-22,4700.0
NHA,2013-02-25,4500.0
NHA,2013-02-26,4600.0
NHA,2013-02-27,4500.0
NHA,2013-02-28,4500.0
NHA,2013-03-01,4500.0
NHA,2013-03-04,4500.0
NHA,2013-03-05,4500.0
NHA,2013-03-06,4100.0
NHA,2013-03-07,4400.0
NHA,2013-03-08,4400.0
NHA,2013-03-11,4400.0
NHA,2013-03-12,4000.0
NHA,2013-03-13,4400.0
NHA,2013-03-14,4400.0
NHA,2013-03-15,4100.0
NHA,2013-03-18,4100.0
NHA,2013-03-19,4100.0
NHA,2013-03-20,4000.0
NHA,2013-03-21,4000.0
NHA,2013-03-22,4000.0
NHA,2013-03-25,4100.0
NHA,2013-03-26,4100.0
NHA,2013-03-27,4500.0
NHA,2013-03-28,4100.0
NHA,2013-03-29,4100.0
NHA,2013-04-01,4000.0
NHA,2013-04-02,3900.0
NHA,2013-04-03,3900.0
NHA,2013-04-04,3900.0
NHA,2013-04-05,3900.0
NHA,2013-04-08,3900.0
NHA,2013-04-09,3600.0
NHA,2013-04-10,3500.0
NHA,2013-04-11,3200.0
NHA,2013-04-12,2900.0
NHA,2013-04-15,2700.0
NHA,2013-04-16,2800.0
NHA,2013-04-17,2800.0
NHA,2013-04-18,3000.0
NHA,2013-04-22,3000.0
NHA,2013-04-23,3300.0
NHA,2013-04-24,3500.0
NHA,2013-04-25,3600.0
NHA,2013-04-26,3600.0
NHA,2013-05-02,3600.0
NHA,2013-05-03,3600.0
NHA,2013-05-06,3600.0
NHA,2013-05-07,3600.0
NHA,2013-05-08,3600.0
NHA,2013-05-09,3600.0
NHA,2013-05-10,3900.0
NHA,2013-05-13,3600.0
NHA,2013-05-14,3600.0
NHA,2013-05-15,3400.0
NHA,2013-05-16,3400.0
NHA,2013-05-17,3100.0
NHA,2013-05-20,3100.0
NHA,2013-05-21,2900.0
NHA,2013-05-22,3100.0
NHA,2013-05-23,3300.0
NHA,2013-05-24,3300.0
NHA,2013-05-27,3100.0
NHA,2013-05-28,3200.0
NHA,2013-05-29,3400.0
NHA,2013-05-30,3400.0
NHA,2013-05-31,3500.0
NHA,2013-06-03,3500.0
NHA,2013-06-04,3500.0
NHA,2013-06-05,3400.0
NHA,2013-06-06,3600.0
NHA,2013-06-07,3800.0
NHA,2013-06-10,3800.0
NHA,2013-06-11,3500.0
NHA,2013-06-12,3300.0
NHA,2013-06-13,3100.0
NHA,2013-06-14,3200.0
NHA,2013-06-17,3300.0
NHA,2013-06-18,3400.0
NHA,2013-06-19,3100.0
NHA,2013-06-20,3000.0
NHA,2013-06-21,3000.0
NHA,2013-06-24,3000.0
NHA,2013-06-25,2800.0
NHA,2013-06-26,2900.0
NHA,2013-06-27,3000.0
NHA,2013-06-28,3000.0
NHA,2013-07-01,2800.0
NHA,2013-07-02,3000.0
NHA,2013-07-03,3100.0
NHA,2013-07-04,3100.0
NHA,2013-07-05,3100.0
NHA,2013-07-08,3100.0
NHA,2013-07-09,3100.0
NHA,2013-07-10,3100.0
NHA,2013-07-11,3200.0
NHA,2013-07-12,3400.0
NHA,2013-07-15,3400.0
NHA,2013-07-16,3400.0
NHA,2013-07-17,3700.0
NHA,2013-07-18,3700.0
NHA,2013-07-19,3700.0
NHA,2013-07-22,3700.0
NHA,2013-07-23,3700.0
NHA,2013-07-24,3700.0
NHA,2013-07-25,3700.0
NHA,2013-07-26,3500.0
NHA,2013-07-29,3700.0
NHA,2013-07-30,3700.0
NHA,2013-07-31,3900.0
NHA,2013-08-01,3900.0
NHA,2013-08-02,3900.0
NHA,2013-08-05,3600.0
NHA,2013-08-06,3600.0
NHA,2013-08-07,3300.0
NHA,2013-08-08,3600.0
NHA,2013-08-09,3600.0
NHA,2013-08-12,3400.0
NHA,2013-08-13,3700.0
NHA,2013-08-14,3500.0
NHA,2013-08-15,3600.0
NHA,2013-08-16,3300.0
NHA,2013-08-19,3600.0
NHA,2013-08-20,3900.0
NHA,2013-08-21,3600.0
NHA,2013-08-22,3300.0
NHA,2013-08-23,3300.0
NHA,2013-08-26,3100.0
NHA,2013-08-27,3400.0
NHA,2013-08-28,3700.0
NHA,2013-08-29,4000.0
NHA,2013-08-30,4000.0
NHA,2013-09-03,4000.0
NHA,2013-09-04,4200.0
NHA,2013-09-05,4200.0
NHA,2013-09-06,4200.0
NHA,2013-09-09,4300.0
NHA,2013-09-10,3900.0
NHA,2013-09-11,3700.0
NHA,2013-09-12,3500.0
NHA,2013-09-13,3400.0
NHA,2013-09-16,3400.0
NHA,2013-09-17,3600.0
NHA,2013-09-18,3600.0
NHA,2013-09-19,3700.0
NHA,2013-09-20,3700.0
NHA,2013-09-23,3900.0
NHA,2013-09-24,3900.0
NHA,2013-09-25,3900.0
NHA,2013-09-26,4100.0
NHA,2013-09-27,3700.0
NHA,2013-09-30,3900.0
NHA,2013-10-01,3600.0
NHA,2013-10-02,3300.0
NHA,2013-10-03,3100.0
NHA,2013-10-04,3400.0
NHA,2013-10-07,3700.0
NHA,2013-10-08,3700.0
NHA,2013-10-09,3900.0
NHA,2013-10-10,3900.0
NHA,2013-10-11,3900.0
NHA,2013-10-14,3600.0
NHA,2013-10-15,3800.0
NHA,2013-10-16,4000.0
NHA,2013-10-17,4000.0
NHA,2013-10-18,4000.0
NHA,2013-10-21,4400.0
NHA,2013-10-22,4400.0
NHA,2013-10-23,4600.0
NHA,2013-10-24,4600.0
NHA,2013-10-25,4200.0
NHA,2013-10-28,4200.0
NHA,2013-10-29,4200.0
NHA,2013-10-30,3800.0
NHA,2013-10-31,3500.0
NHA,2013-11-01,3300.0
NHA,2013-11-04,3200.0
NHA,2013-11-05,3500.0
NHA,2013-11-06,3700.0
NHA,2013-11-07,4000.0
NHA,2013-11-08,3600.0
NHA,2013-11-11,3700.0
NHA,2013-11-12,3700.0
NHA,2013-11-13,3700.0
NHA,2013-11-14,3400.0
NHA,2013-11-15,3500.0
NHA,2013-11-18,3600.0
NHA,2013-11-19,3600.0
NHA,2013-11-20,3700.0
NHA,2013-11-21,3700.0
NHA,2013-11-22,3600.0
NHA,2013-11-25,3500.0
NHA,2013-11-26,3600.0
NHA,2013-11-27,3500.0
NHA,2013-11-28,3500.0
NHA,2013-11-29,3800.0
NHA,2013-12-02,4100.0
NHA,2013-12-03,4300.0
NHA,2013-12-04,3900.0
NHA,2013-12-05,4000.0
NHA,2013-12-06,4100.0
NHA,2013-12-09,4100.0
NHA,2013-12-10,4100.0
NHA,2013-12-11,4100.0
NHA,2013-12-12,4200.0
NHA,2013-12-13,4100.0
NHA,2013-12-16,4100.0
NHA,2013-12-17,4300.0
NHA,2013-12-18,3900.0
NHA,2013-12-19,3600.0
NHA,2013-12-20,3600.0
NHA,2013-12-23,3400.0
NHA,2013-12-24,3600.0
NHA,2013-12-25,3800.0
NHA,2013-12-26,3900.0
NHA,2013-12-27,3900.0
NHA,2013-12-30,3600.0
NHA,2013-12-31,3800.0
NHA,2014-01-02,3800.0
NHA,2014-01-03,3800.0
NHA,2014-01-06,4100.0
NHA,2014-01-07,4100.0
NHA,2014-01-08,3700.0
NHA,2014-01-09,3800.0
NHA,2014-01-10,3800.0
NHA,2014-01-13,3800.0
NHA,2014-01-14,3700.0
NHA,2014-01-15,3600.0
NHA,2014-01-16,3700.0
NHA,2014-01-17,3900.0
NHA,2014-01-20,3900.0
NHA,2014-01-21,4000.0
NHA,2014-01-22,4000.0
NHA,2014-01-23,4000.0
NHA,2014-01-24,4000.0
NHA,2014-01-27,4100.0
NHA,2014-02-06,4200.0
NHA,2014-02-07,4200.0
NHA,2014-02-10,4300.0
NHA,2014-02-11,4400.0
NHA,2014-02-12,4000.0
NHA,2014-02-13,4000.0
NHA,2014-02-14,4300.0
NHA,2014-02-17,4400.0
NHA,2014-02-18,4800.0
NHA,2014-02-19,5200.0
NHA,2014-02-20,5700.0
NHA,2014-02-21,5700.0
NHA,2014-02-24,6200.0
NHA,2014-02-25,6500.0
NHA,2014-02-26,6000.0
NHA,2014-02-27,5600.0
NHA,2014-02-28,5600.0
NHA,2014-03-03,5500.0
NHA,2014-03-04,5400.0
NHA,2014-03-05,5900.0
NHA,2014-03-06,5900.0
NHA,2014-03-07,6100.0
NHA,2014-03-10,5600.0
NHA,2014-03-11,5300.0
NHA,2014-03-12,5800.0
NHA,2014-03-13,5800.0
NHA,2014-03-14,5800.0
NHA,2014-03-17,5900.0
NHA,2014-03-18,5900.0
NHA,2014-03-19,6300.0
NHA,2014-03-20,5800.0
NHA,2014-03-21,6300.0
NHA,2014-03-24,6900.0
NHA,2014-03-25,6900.0
NHA,2014-03-26,7300.0
NHA,2014-03-27,7500.0
NHA,2014-03-28,7700.0
NHA,2014-03-31,7700.0
NHA,2014-04-01,7000.0
NHA,2014-04-02,6300.0
NHA,2014-04-03,5700.0
NHA,2014-04-04,5800.0
NHA,2014-04-07,6100.0
NHA,2014-04-08,6100.0
NHA,2014-04-10,5800.0
NHA,2014-04-11,5800.0
NHA,2014-04-14,5800.0
NHA,2014-04-15,5800.0
NHA,2014-04-16,5800.0
NHA,2014-04-17,5500.0
NHA,2014-04-18,5000.0
NHA,2014-04-21,5000.0
NHA,2014-04-22,5000.0
NHA,2014-04-23,4600.0
NHA,2014-04-24,5000.0
NHA,2014-04-25,5000.0
NHA,2014-04-28,5000.0
NHA,2014-04-29,4500.0
NHA,2014-05-05,4200.0
NHA,2014-05-06,4200.0
NHA,2014-05-07,4200.0
NHA,2014-05-08,4600.0
NHA,2014-05-09,4400.0
NHA,2014-05-12,4400.0
NHA,2014-05-13,4400.0
NHA,2014-05-14,4000.0
NHA,2014-05-15,4400.0
NHA,2014-05-16,4800.0
NHA,2014-05-19,4500.0
NHA,2014-05-20,4500.0
NHA,2014-05-21,4500.0
