NST,2006-12-29,8800.0
NST,2007-01-02,8300.0
NST,2007-01-03,8300.0
NST,2007-01-04,8300.0
NST,2007-01-05,8500.0
NST,2007-01-08,8500.0
NST,2007-01-09,8500.0
NST,2007-01-10,8800.0
NST,2007-01-11,8500.0
NST,2007-01-12,8500.0
NST,2007-01-15,8500.0
NST,2007-01-16,8500.0
NST,2007-01-17,8500.0
NST,2007-01-18,8200.0
NST,2007-01-19,8200.0
NST,2007-01-22,8200.0
NST,2007-01-23,8200.0
NST,2007-01-24,8500.0
NST,2007-01-25,8500.0
NST,2007-01-26,8700.0
NST,2007-01-29,9100.0
NST,2007-01-30,9500.0
NST,2007-01-31,10200.0
NST,2007-02-01,10400.0
NST,2007-02-02,10500.0
NST,2007-02-05,10400.0
NST,2007-02-06,10400.0
NST,2007-02-07,10400.0
NST,2007-02-08,11400.0
NST,2007-02-09,11800.0
NST,2007-02-12,12600.0
NST,2007-02-13,12600.0
NST,2007-02-14,12500.0
NST,2007-02-15,12400.0
NST,2007-02-26,13200.0
NST,2007-02-27,14000.0
NST,2007-02-28,14300.0
NST,2007-03-01,15900.0
NST,2007-03-02,16400.0
NST,2007-03-05,17700.0
NST,2007-03-06,19000.0
NST,2007-03-07,19000.0
NST,2007-03-08,19000.0
NST,2007-03-09,19200.0
NST,2007-03-12,20600.0
NST,2007-03-13,19100.0
NST,2007-03-14,18800.0
NST,2007-03-15,16500.0
NST,2007-03-16,18200.0
NST,2007-03-19,17900.0
NST,2007-03-20,19100.0
NST,2007-03-21,18000.0
NST,2007-03-22,18200.0
NST,2007-03-23,17600.0
NST,2007-03-26,16000.0
NST,2007-03-27,14500.0
NST,2007-03-28,13600.0
NST,2007-03-29,15500.0
NST,2007-03-30,16000.0
NST,2007-04-02,16600.0
NST,2007-04-03,15400.0
NST,2007-04-04,15100.0
NST,2007-04-05,15300.0
NST,2007-04-06,14100.0
NST,2007-04-09,14200.0
NST,2007-04-10,14800.0
NST,2007-04-11,14100.0
NST,2007-04-12,13900.0
NST,2007-04-13,14400.0
NST,2007-04-16,13400.0
NST,2007-04-17,12200.0
NST,2007-04-18,13400.0
NST,2007-04-19,12700.0
NST,2007-04-20,13000.0
NST,2007-04-23,12700.0
NST,2007-04-24,12100.0
NST,2007-04-25,12700.0
NST,2007-05-02,12700.0
NST,2007-05-03,12700.0
NST,2007-05-04,11700.0
NST,2007-05-07,12700.0
NST,2007-05-08,11500.0
NST,2007-05-09,11600.0
NST,2007-05-10,11200.0
NST,2007-05-11,12000.0
NST,2007-05-14,11200.0
NST,2007-05-15,11300.0
NST,2007-05-16,10900.0
NST,2007-05-17,11500.0
NST,2007-05-18,11400.0
NST,2007-05-21,11000.0
NST,2007-05-22,11500.0
NST,2007-05-23,12500.0
NST,2007-05-24,11700.0
NST,2007-05-25,12100.0
NST,2007-05-28,12100.0
NST,2007-05-29,11500.0
NST,2007-05-30,12200.0
NST,2007-05-31,11500.0
NST,2007-06-01,11800.0
NST,2007-06-04,10900.0
NST,2007-06-05,10600.0
NST,2007-06-06,11200.0
NST,2007-06-07,11500.0
NST,2007-06-08,11200.0
NST,2007-06-11,11100.0
NST,2007-06-12,11500.0
NST,2007-06-13,11500.0
NST,2007-06-14,11400.0
NST,2007-06-15,11400.0
NST,2007-06-18,10900.0
NST,2007-06-19,10900.0
NST,2007-06-20,10900.0
NST,2007-06-21,10900.0
NST,2007-06-22,10800.0
NST,2007-06-25,10800.0
NST,2007-06-26,10800.0
NST,2007-06-27,10400.0
NST,2007-06-28,10300.0
NST,2007-06-29,10300.0
NST,2007-07-02,10000.0
NST,2007-07-03,10000.0
NST,2007-07-04,10300.0
NST,2007-07-05,10000.0
NST,2007-07-06,10000.0
NST,2007-07-09,9700.0
NST,2007-07-10,9700.0
NST,2007-07-11,10300.0
NST,2007-07-12,9500.0
NST,2007-07-13,9200.0
NST,2007-07-16,8800.0
NST,2007-07-17,8500.0
NST,2007-07-18,8700.0
NST,2007-07-19,9500.0
NST,2007-07-20,9100.0
NST,2007-07-23,9100.0
NST,2007-07-24,9100.0
NST,2007-07-25,9100.0
NST,2007-07-26,8800.0
NST,2007-07-27,8800.0
NST,2007-07-30,8500.0
NST,2007-07-31,8000.0
NST,2007-08-01,8000.0
NST,2007-08-02,8000.0
NST,2007-08-03,8000.0
NST,2007-08-06,8000.0
NST,2007-08-07,7600.0
NST,2007-08-08,7300.0
NST,2007-08-09,7500.0
NST,2007-08-10,7600.0
NST,2007-08-13,7400.0
NST,2007-08-14,7400.0
NST,2007-08-15,7900.0
NST,2007-08-16,7600.0
NST,2007-08-17,7800.0
NST,2007-08-20,7600.0
NST,2007-08-21,7700.0
NST,2007-08-22,7600.0
NST,2007-08-23,7700.0
NST,2007-08-24,7900.0
NST,2007-08-27,7900.0
NST,2007-08-28,8000.0
NST,2007-08-29,8100.0
NST,2007-08-30,8300.0
NST,2007-08-31,8200.0
NST,2007-09-04,8200.0
NST,2007-09-05,8200.0
NST,2007-09-06,8200.0
NST,2007-09-07,8200.0
NST,2007-09-10,7900.0
NST,2007-09-11,7300.0
NST,2007-09-12,7900.0
NST,2007-09-13,7900.0
NST,2007-09-14,8200.0
NST,2007-09-17,8200.0
NST,2007-09-18,8200.0
NST,2007-09-19,8200.0
NST,2007-09-20,8500.0
NST,2007-09-21,9100.0
NST,2007-09-24,8900.0
NST,2007-09-25,9700.0
NST,2007-09-26,9400.0
NST,2007-09-27,9100.0
NST,2007-09-28,9700.0
NST,2007-10-01,10500.0
NST,2007-10-02,10600.0
NST,2007-10-03,11100.0
NST,2007-10-04,10900.0
NST,2007-10-05,10600.0
NST,2007-10-08,10600.0
NST,2007-10-09,10700.0
NST,2007-10-10,10800.0
NST,2007-10-11,10600.0
NST,2007-10-12,10600.0
NST,2007-10-15,10700.0
NST,2007-10-16,11400.0
NST,2007-10-17,12400.0
NST,2007-10-18,13400.0
NST,2007-10-19,13200.0
NST,2007-10-22,13300.0
NST,2007-10-23,13000.0
NST,2007-10-24,12700.0
NST,2007-10-25,13200.0
NST,2007-10-26,13500.0
NST,2007-10-29,14800.0
NST,2007-10-30,16000.0
NST,2007-10-31,16000.0
NST,2007-11-01,16000.0
NST,2007-11-02,15400.0
NST,2007-11-05,13900.0
NST,2007-11-06,13500.0
NST,2007-11-07,14200.0
NST,2007-11-08,13900.0
NST,2007-11-09,13600.0
NST,2007-11-12,12300.0
NST,2007-11-13,11200.0
NST,2007-11-14,12700.0
NST,2007-11-15,12400.0
NST,2007-11-16,12300.0
NST,2007-11-19,12300.0
NST,2007-11-20,12400.0
NST,2007-11-21,12200.0
NST,2007-11-22,12400.0
NST,2007-11-23,12300.0
NST,2007-11-26,11800.0
NST,2007-11-27,12000.0
NST,2007-11-28,12100.0
NST,2007-11-29,12300.0
NST,2007-11-30,12600.0
NST,2007-12-03,12900.0
NST,2007-12-04,13300.0
NST,2007-12-05,13100.0
NST,2007-12-06,13300.0
NST,2007-12-07,13600.0
NST,2007-12-10,13500.0
NST,2007-12-11,13000.0
NST,2007-12-12,13000.0
NST,2007-12-13,13000.0
NST,2007-12-14,12700.0
NST,2007-12-17,12700.0
NST,2007-12-18,12600.0
NST,2007-12-19,12700.0
NST,2007-12-20,12400.0
NST,2007-12-21,12600.0
NST,2007-12-24,13500.0
NST,2007-12-25,12900.0
NST,2007-12-26,12700.0
NST,2007-12-27,12300.0
NST,2007-12-28,12100.0
NST,2008-01-02,11700.0
NST,2008-01-03,12900.0
NST,2008-01-04,12100.0
NST,2008-01-07,12000.0
NST,2008-01-08,12500.0
NST,2008-01-09,11300.0
NST,2008-01-10,12300.0
NST,2008-01-11,12100.0
NST,2008-01-14,12300.0
NST,2008-01-15,11100.0
NST,2008-01-16,12400.0
NST,2008-01-17,12800.0
NST,2008-01-18,12000.0
NST,2008-01-21,11500.0
NST,2008-01-22,10600.0
NST,2008-01-23,10500.0
NST,2008-01-24,9500.0
NST,2008-01-25,8700.0
NST,2008-01-28,9500.0
NST,2008-01-29,9900.0
NST,2008-01-30,10700.0
NST,2008-01-31,10900.0
NST,2008-02-01,11300.0
NST,2008-02-12,12100.0
NST,2008-02-13,11300.0
NST,2008-02-14,11500.0
NST,2008-02-15,11200.0
NST,2008-02-18,10400.0
NST,2008-02-19,11000.0
NST,2008-02-20,9800.0
NST,2008-02-21,9400.0
NST,2008-02-22,8800.0
NST,2008-02-25,9600.0
NST,2008-02-26,9500.0
NST,2008-02-27,9100.0
NST,2008-02-28,9100.0
NST,2008-02-29,9200.0
NST,2008-03-03,8200.0
NST,2008-03-04,7400.0
NST,2008-03-05,6700.0
NST,2008-03-06,7400.0
NST,2008-03-07,8200.0
NST,2008-03-10,8500.0
NST,2008-03-11,8000.0
NST,2008-03-12,8400.0
NST,2008-03-13,8300.0
NST,2008-03-14,8000.0
NST,2008-03-17,7900.0
NST,2008-03-18,7200.0
NST,2008-03-19,7000.0
NST,2008-03-20,7500.0
NST,2008-03-21,7800.0
NST,2008-03-24,7400.0
NST,2008-03-25,7400.0
NST,2008-03-26,7400.0
NST,2008-03-27,7400.0
NST,2008-03-28,7600.0
NST,2008-03-31,7700.0
NST,2008-04-01,7800.0
NST,2008-04-02,8000.0
NST,2008-04-03,8100.0
NST,2008-04-04,8200.0
NST,2008-04-07,8500.0
NST,2008-04-08,8500.0
NST,2008-04-09,8500.0
NST,2008-04-10,8200.0
NST,2008-04-11,7900.0
NST,2008-04-16,7700.0
NST,2008-04-17,7800.0
NST,2008-04-18,7500.0
NST,2008-04-21,7200.0
NST,2008-04-22,7000.0
NST,2008-04-23,6800.0
NST,2008-04-24,6600.0
NST,2008-04-25,6800.0
NST,2008-04-28,6400.0
NST,2008-04-29,6500.0
NST,2008-05-05,6400.0
NST,2008-05-06,6300.0
NST,2008-05-07,6200.0
NST,2008-05-08,6000.0
NST,2008-05-09,5800.0
NST,2008-05-12,5800.0
NST,2008-05-13,5600.0
NST,2008-05-14,5500.0
NST,2008-05-15,5400.0
NST,2008-05-16,5200.0
NST,2008-05-19,5100.0
NST,2008-05-20,5000.0
NST,2008-05-21,4800.0
NST,2008-05-22,4700.0
NST,2008-05-23,4600.0
NST,2008-05-26,4500.0
NST,2008-05-27,4300.0
NST,2008-05-28,4200.0
NST,2008-05-29,4300.0
NST,2008-05-30,4500.0
NST,2008-06-02,4500.0
NST,2008-06-03,4400.0
NST,2008-06-04,4300.0
NST,2008-06-05,4200.0
NST,2008-06-06,4100.0
NST,2008-06-09,4000.0
NST,2008-06-10,4000.0
NST,2008-06-11,4100.0
NST,2008-06-12,4000.0
NST,2008-06-13,4100.0
NST,2008-06-16,4200.0
NST,2008-06-17,4300.0
NST,2008-06-18,4300.0
NST,2008-06-19,4200.0
NST,2008-06-20,4100.0
NST,2008-06-23,4200.0
NST,2008-06-24,4300.0
NST,2008-06-25,4300.0
NST,2008-06-26,4200.0
NST,2008-06-27,4200.0
NST,2008-06-30,4000.0
NST,2008-07-01,4200.0
NST,2008-07-02,4300.0
NST,2008-07-03,4400.0
NST,2008-07-04,4600.0
NST,2008-07-07,4400.0
NST,2008-07-08,4500.0
NST,2008-07-09,4300.0
NST,2008-07-10,4400.0
NST,2008-07-11,4600.0
NST,2008-07-14,4800.0
NST,2008-07-15,4900.0
NST,2008-07-16,5100.0
NST,2008-07-17,5300.0
NST,2008-07-18,5000.0
NST,2008-07-21,4900.0
NST,2008-07-22,4700.0
NST,2008-07-23,4500.0
NST,2008-07-24,4300.0
NST,2008-07-25,4200.0
NST,2008-07-28,4600.0
NST,2008-07-29,4700.0
NST,2008-07-30,4800.0
NST,2008-07-31,4900.0
NST,2008-08-01,5000.0
NST,2008-08-04,5200.0
NST,2008-08-05,5000.0
NST,2008-08-06,4900.0
NST,2008-08-07,5000.0
NST,2008-08-08,4800.0
NST,2008-08-11,5000.0
NST,2008-08-12,5200.0
NST,2008-08-13,5100.0
NST,2008-08-14,5200.0
NST,2008-08-15,5300.0
NST,2008-08-18,5700.0
NST,2008-08-19,5900.0
NST,2008-08-20,5500.0
NST,2008-08-21,5900.0
NST,2008-08-22,5400.0
NST,2008-08-25,6200.0
NST,2008-08-26,6500.0
NST,2008-08-27,6700.0
NST,2008-08-28,6300.0
NST,2008-08-29,6600.0
NST,2008-09-03,6700.0
NST,2008-09-04,6900.0
NST,2008-09-05,6800.0
NST,2008-09-08,6900.0
NST,2008-09-09,6600.0
NST,2008-09-10,6400.0
NST,2008-09-11,6300.0
NST,2008-09-12,6000.0
NST,2008-09-15,5600.0
NST,2008-09-16,5200.0
NST,2008-09-17,4900.0
NST,2008-09-18,4600.0
NST,2008-09-19,4900.0
NST,2008-09-22,5200.0
NST,2008-09-23,5400.0
NST,2008-09-24,5100.0
NST,2008-09-25,5500.0
NST,2008-09-26,5200.0
NST,2008-09-29,5200.0
NST,2008-09-30,4900.0
NST,2008-10-01,4900.0
NST,2008-10-02,5200.0
NST,2008-10-03,5200.0
NST,2008-10-06,5000.0
NST,2008-10-07,4600.0
NST,2008-10-08,4600.0
NST,2008-10-09,4600.0
NST,2008-10-10,4300.0
NST,2008-10-13,4600.0
NST,2008-10-14,4700.0
NST,2008-10-15,5000.0
NST,2008-10-16,4700.0
NST,2008-10-17,4600.0
NST,2008-10-20,4500.0
NST,2008-10-21,4600.0
NST,2008-10-22,4600.0
NST,2008-10-23,4200.0
NST,2008-10-24,4000.0
NST,2008-10-27,3800.0
NST,2008-10-28,4000.0
NST,2008-10-29,4200.0
NST,2008-10-30,4300.0
NST,2008-10-31,4300.0
NST,2008-11-03,4100.0
NST,2008-11-04,4400.0
NST,2008-11-05,4700.0
NST,2008-11-06,4700.0
NST,2008-11-07,4500.0
NST,2008-11-10,4400.0
NST,2008-11-11,4300.0
NST,2008-11-12,4200.0
NST,2008-11-13,4300.0
NST,2008-11-14,4600.0
NST,2008-11-17,4900.0
NST,2008-11-18,4600.0
NST,2008-11-19,4400.0
NST,2008-11-20,4500.0
NST,2008-11-21,4600.0
NST,2008-11-24,4600.0
NST,2008-11-25,4500.0
NST,2008-11-26,4200.0
NST,2008-11-27,4200.0
NST,2008-11-28,4500.0
NST,2008-12-01,4600.0
NST,2008-12-02,4500.0
NST,2008-12-03,4500.0
NST,2008-12-04,4300.0
NST,2008-12-05,4200.0
NST,2008-12-08,4200.0
NST,2008-12-09,4000.0
NST,2008-12-10,3900.0
NST,2008-12-11,4000.0
NST,2008-12-12,4100.0
NST,2008-12-15,3700.0
NST,2008-12-16,3900.0
NST,2008-12-17,3900.0
NST,2008-12-18,4100.0
NST,2008-12-19,4100.0
NST,2008-12-22,4100.0
NST,2008-12-23,3900.0
NST,2008-12-24,3900.0
NST,2008-12-25,4100.0
NST,2008-12-26,4000.0
NST,2008-12-29,4200.0
NST,2008-12-30,4400.0
NST,2008-12-31,4100.0
NST,2009-01-02,4000.0
NST,2009-01-05,4200.0
NST,2009-01-06,4400.0
NST,2009-01-07,4500.0
NST,2009-01-08,4800.0
NST,2009-01-09,4800.0
NST,2009-01-12,4500.0
NST,2009-01-13,4200.0
NST,2009-01-14,4200.0
NST,2009-01-15,4200.0
NST,2009-01-16,4000.0
NST,2009-01-19,4000.0
NST,2009-01-20,4200.0
NST,2009-01-21,4200.0
NST,2009-01-22,4300.0
NST,2009-01-23,4300.0
NST,2009-02-02,4600.0
NST,2009-02-03,4300.0
NST,2009-02-04,4600.0
NST,2009-02-05,4100.0
NST,2009-02-06,4400.0
NST,2009-02-09,4600.0
NST,2009-02-10,4300.0
NST,2009-02-11,4300.0
NST,2009-02-12,4300.0
NST,2009-02-13,4300.0
NST,2009-02-16,4300.0
NST,2009-02-17,4200.0
NST,2009-02-18,4200.0
NST,2009-02-19,4200.0
NST,2009-02-20,4200.0
NST,2009-02-23,4500.0
NST,2009-02-24,4600.0
NST,2009-02-25,4700.0
NST,2009-02-26,4400.0
NST,2009-02-27,4300.0
NST,2009-03-02,4200.0
NST,2009-03-03,4200.0
NST,2009-03-04,4200.0
NST,2009-03-05,4400.0
NST,2009-03-06,4400.0
NST,2009-03-09,4500.0
NST,2009-03-10,4500.0
NST,2009-03-11,4600.0
NST,2009-03-12,4400.0
NST,2009-03-13,4500.0
NST,2009-03-16,4500.0
NST,2009-03-17,4700.0
NST,2009-03-18,4900.0
NST,2009-03-19,5100.0
NST,2009-03-20,5400.0
NST,2009-03-23,5000.0
NST,2009-03-24,5300.0
NST,2009-03-25,5200.0
NST,2009-03-26,5200.0
NST,2009-03-27,5200.0
NST,2009-03-30,4900.0
NST,2009-03-31,4600.0
NST,2009-04-01,4600.0
NST,2009-04-02,4700.0
NST,2009-04-03,5000.0
NST,2009-04-07,5200.0
NST,2009-04-08,4900.0
NST,2009-04-09,4800.0
NST,2009-04-10,5000.0
NST,2009-04-13,5400.0
NST,2009-04-14,5400.0
NST,2009-04-15,5500.0
NST,2009-04-16,5500.0
NST,2009-04-17,5000.0
NST,2009-04-20,4800.0
NST,2009-04-21,4500.0
NST,2009-04-22,4800.0
NST,2009-04-23,4600.0
NST,2009-04-24,4900.0
NST,2009-04-27,5100.0
NST,2009-04-28,5100.0
NST,2009-04-29,4900.0
NST,2009-05-04,5200.0
NST,2009-05-05,5300.0
NST,2009-05-06,5100.0
NST,2009-05-07,5100.0
NST,2009-05-08,4900.0
NST,2009-05-11,5200.0
NST,2009-05-12,5300.0
NST,2009-05-13,5600.0
NST,2009-05-14,5500.0
NST,2009-05-15,5800.0
NST,2009-05-18,5900.0
NST,2009-05-19,6200.0
NST,2009-05-20,6200.0
NST,2009-05-21,6400.0
NST,2009-05-22,5900.0
NST,2009-05-25,6300.0
NST,2009-05-26,6100.0
NST,2009-05-27,6700.0
NST,2009-05-28,6300.0
NST,2009-05-29,6700.0
NST,2009-06-01,6700.0
NST,2009-06-02,6600.0
NST,2009-06-03,6300.0
NST,2009-06-04,6700.0
NST,2009-06-05,7200.0
NST,2009-06-08,7700.0
NST,2009-06-09,7500.0
NST,2009-06-10,7100.0
NST,2009-06-11,7500.0
NST,2009-06-12,7500.0
NST,2009-06-15,7100.0
NST,2009-06-16,6600.0
NST,2009-06-17,6600.0
NST,2009-06-18,7000.0
NST,2009-06-19,7400.0
NST,2009-06-22,6700.0
NST,2009-06-23,6300.0
NST,2009-06-24,6700.0
NST,2009-06-25,6700.0
NST,2009-06-26,6300.0
NST,2009-06-29,6700.0
NST,2009-06-30,6000.0
NST,2009-07-01,6300.0
NST,2009-07-02,6400.0
NST,2009-07-03,6300.0
NST,2009-07-06,6800.0
NST,2009-07-07,6800.0
NST,2009-07-08,6900.0
NST,2009-07-09,6500.0
NST,2009-07-10,6300.0
NST,2009-07-13,6200.0
NST,2009-07-14,6300.0
NST,2009-07-15,6300.0
NST,2009-07-16,6300.0
NST,2009-07-17,6300.0
NST,2009-07-20,6300.0
NST,2009-07-21,6700.0
NST,2009-07-22,7100.0
NST,2009-07-23,7100.0
NST,2009-07-24,7000.0
NST,2009-07-27,7100.0
NST,2009-07-28,6700.0
NST,2009-07-29,6400.0
NST,2009-07-30,6300.0
NST,2009-07-31,6300.0
NST,2009-08-03,6300.0
NST,2009-08-04,6300.0
NST,2009-08-05,6400.0
NST,2009-08-06,6300.0
NST,2009-08-07,6200.0
NST,2009-08-10,6300.0
NST,2009-08-11,6500.0
NST,2009-08-12,6500.0
NST,2009-08-13,6500.0
NST,2009-08-14,6500.0
NST,2009-08-17,6600.0
NST,2009-08-18,6500.0
NST,2009-08-19,6500.0
NST,2009-08-20,6300.0
NST,2009-08-21,6600.0
NST,2009-08-24,6700.0
NST,2009-08-25,6700.0
NST,2009-08-26,7100.0
NST,2009-08-27,7600.0
NST,2009-08-28,7800.0
NST,2009-08-31,7700.0
NST,2009-09-01,7800.0
NST,2009-09-03,7400.0
NST,2009-09-04,7300.0
NST,2009-09-07,7700.0
NST,2009-09-08,7400.0
NST,2009-09-09,7800.0
NST,2009-09-10,8400.0
NST,2009-09-11,8800.0
NST,2009-09-14,9300.0
NST,2009-09-15,9700.0
NST,2009-09-16,10300.0
NST,2009-09-17,10300.0
NST,2009-09-18,10300.0
NST,2009-09-21,10100.0
NST,2009-09-22,10200.0
NST,2009-09-23,9900.0
NST,2009-09-24,9700.0
NST,2009-09-25,9900.0
NST,2009-09-28,10100.0
NST,2009-09-29,9700.0
NST,2009-09-30,9900.0
NST,2009-10-01,10100.0
NST,2009-10-02,9700.0
NST,2009-10-05,9800.0
NST,2009-10-06,9800.0
NST,2009-10-07,9600.0
NST,2009-10-08,9800.0
NST,2009-10-09,10300.0
NST,2009-10-12,10900.0
NST,2009-10-13,10300.0
NST,2009-10-14,11000.0
NST,2009-10-15,11600.0
NST,2009-10-16,12100.0
NST,2009-10-19,12800.0
NST,2009-10-20,13600.0
NST,2009-10-21,12700.0
NST,2009-10-22,12600.0
NST,2009-10-23,12200.0
NST,2009-10-26,11800.0
NST,2009-10-27,11000.0
NST,2009-10-28,10400.0
NST,2009-10-29,10300.0
NST,2009-10-30,10400.0
NST,2009-11-02,10200.0
NST,2009-11-03,9300.0
NST,2009-11-04,9300.0
NST,2009-11-05,9900.0
NST,2009-11-06,9500.0
NST,2009-11-09,10200.0
NST,2009-11-10,9100.0
NST,2009-11-11,9500.0
NST,2009-11-12,9900.0
NST,2009-11-13,9900.0
NST,2009-11-16,9900.0
NST,2009-11-17,10200.0
NST,2009-11-18,10000.0
NST,2009-11-19,9700.0
NST,2009-11-20,9300.0
NST,2009-11-23,9000.0
NST,2009-11-24,8400.0
NST,2009-11-25,7900.0
NST,2009-11-26,7900.0
NST,2009-11-27,8000.0
NST,2009-11-30,8400.0
NST,2009-12-01,8300.0
NST,2009-12-02,8800.0
NST,2009-12-03,8000.0
NST,2009-12-04,8300.0
NST,2009-12-07,8600.0
NST,2009-12-08,8000.0
NST,2009-12-09,7500.0
NST,2009-12-10,7300.0
NST,2009-12-11,7100.0
NST,2009-12-14,7100.0
NST,2009-12-15,7700.0
NST,2009-12-16,7400.0
NST,2009-12-17,7300.0
NST,2009-12-18,7500.0
NST,2009-12-21,8000.0
NST,2009-12-22,7900.0
NST,2009-12-23,7700.0
NST,2009-12-24,7800.0
NST,2009-12-25,7800.0
NST,2009-12-28,7500.0
NST,2009-12-29,7300.0
NST,2009-12-30,7500.0
NST,2009-12-31,7500.0
NST,2010-01-04,8100.0
NST,2010-01-05,8300.0
NST,2010-01-06,8700.0
NST,2010-01-07,8100.0
NST,2010-01-08,7900.0
NST,2010-01-11,7600.0
NST,2010-01-12,7500.0
NST,2010-01-13,7700.0
NST,2010-01-14,7900.0
NST,2010-01-15,7400.0
NST,2010-01-18,7200.0
NST,2010-01-19,7700.0
NST,2010-01-20,7700.0
NST,2010-01-21,7200.0
NST,2010-01-22,7400.0
NST,2010-01-25,7600.0
NST,2010-01-26,8000.0
NST,2010-01-27,8300.0
NST,2010-01-28,8300.0
NST,2010-01-29,8300.0
NST,2010-02-01,8300.0
NST,2010-02-02,7700.0
NST,2010-02-03,7200.0
NST,2010-02-04,7700.0
NST,2010-02-05,7500.0
NST,2010-02-08,7100.0
NST,2010-02-09,7500.0
NST,2010-02-10,7000.0
NST,2010-02-11,7300.0
NST,2010-02-12,7300.0
NST,2010-02-22,7300.0
NST,2010-02-23,7100.0
NST,2010-02-24,7200.0
NST,2010-02-25,7500.0
NST,2010-02-26,7900.0
NST,2010-03-01,7600.0
NST,2010-03-02,7300.0
NST,2010-03-03,7800.0
NST,2010-03-04,7500.0
NST,2010-03-05,7600.0
NST,2010-03-08,7900.0
NST,2010-03-09,7700.0
NST,2010-03-10,8100.0
NST,2010-03-11,8300.0
NST,2010-03-12,8500.0
NST,2010-03-15,8300.0
NST,2010-03-16,7900.0
NST,2010-03-17,7700.0
NST,2010-03-18,8300.0
NST,2010-03-19,7800.0
NST,2010-03-22,8300.0
NST,2010-03-23,8300.0
NST,2010-03-24,8200.0
NST,2010-03-25,8400.0
NST,2010-03-26,8200.0
NST,2010-03-29,8200.0
NST,2010-03-30,8700.0
NST,2010-03-31,8100.0
NST,2010-04-01,7700.0
NST,2010-04-02,7700.0
NST,2010-04-05,7700.0
NST,2010-04-06,7900.0
NST,2010-04-07,7800.0
NST,2010-04-08,7800.0
NST,2010-04-09,8000.0
NST,2010-04-12,8500.0
NST,2010-04-13,8200.0
NST,2010-04-14,8200.0
NST,2010-04-15,8300.0
NST,2010-04-16,8800.0
NST,2010-04-19,9000.0
NST,2010-04-20,9600.0
NST,2010-04-21,10300.0
NST,2010-04-22,10600.0
NST,2010-04-26,10100.0
NST,2010-04-27,9600.0
NST,2010-04-28,10300.0
NST,2010-04-29,11000.0
NST,2010-05-04,10900.0
NST,2010-05-05,10700.0
NST,2010-05-06,11500.0
NST,2010-05-07,11500.0
NST,2010-05-10,11300.0
NST,2010-05-11,11100.0
NST,2010-05-12,10600.0
NST,2010-05-13,10500.0
NST,2010-05-14,11100.0
NST,2010-05-17,11100.0
NST,2010-05-18,10700.0
NST,2010-05-19,10500.0
NST,2010-05-20,10500.0
NST,2010-05-21,9300.0
NST,2010-05-24,8700.0
NST,2010-05-25,9200.0
NST,2010-05-26,9700.0
NST,2010-05-27,9900.0
NST,2010-05-28,10200.0
NST,2010-05-31,10700.0
NST,2010-06-01,10700.0
NST,2010-06-02,10200.0
NST,2010-06-03,9900.0
NST,2010-06-04,9500.0
NST,2010-06-07,9000.0
NST,2010-06-08,9400.0
NST,2010-06-09,9400.0
NST,2010-06-10,9100.0
NST,2010-06-11,9000.0
NST,2010-06-14,9200.0
NST,2010-06-15,9100.0
NST,2010-06-16,9100.0
NST,2010-06-17,9500.0
NST,2010-06-18,9200.0
NST,2010-06-21,9300.0
NST,2010-06-22,9300.0
NST,2010-06-23,9000.0
NST,2010-06-24,9600.0
NST,2010-06-25,9500.0
NST,2010-06-28,9700.0
NST,2010-06-29,9500.0
NST,2010-06-30,9200.0
NST,2010-07-01,9000.0
NST,2010-07-02,9100.0
NST,2010-07-05,9200.0
NST,2010-07-06,8900.0
NST,2010-07-07,9000.0
NST,2010-07-08,9000.0
NST,2010-07-09,9000.0
NST,2010-07-12,9400.0
NST,2010-07-13,9400.0
NST,2010-07-14,9600.0
NST,2010-07-15,9400.0
NST,2010-07-16,9600.0
NST,2010-07-19,10200.0
NST,2010-07-20,10200.0
NST,2010-07-21,10600.0
NST,2010-07-22,9900.0
NST,2010-07-23,9500.0
NST,2010-07-26,9400.0
NST,2010-07-27,9400.0
NST,2010-07-28,9400.0
NST,2010-07-29,9500.0
NST,2010-07-30,9400.0
NST,2010-08-02,9100.0
NST,2010-08-03,9200.0
NST,2010-08-04,9500.0
NST,2010-08-05,9100.0
NST,2010-08-06,9700.0
NST,2010-08-09,9700.0
NST,2010-08-10,9700.0
NST,2010-08-11,9700.0
NST,2010-08-12,9000.0
NST,2010-08-13,8600.0
NST,2010-08-16,9300.0
NST,2010-08-17,8700.0
NST,2010-08-18,8100.0
NST,2010-08-19,9200.0
NST,2010-08-20,9100.0
NST,2010-08-23,9700.0
NST,2010-08-24,9900.0
NST,2010-08-25,9900.0
NST,2010-08-26,9200.0
NST,2010-08-27,8700.0
NST,2010-08-30,8800.0
NST,2010-08-31,8400.0
NST,2010-09-01,8500.0
NST,2010-09-06,8900.0
NST,2010-09-07,8400.0
NST,2010-09-08,8600.0
NST,2010-09-09,8700.0
NST,2010-09-10,7900.0
NST,2010-09-13,8500.0
NST,2010-09-14,8300.0
NST,2010-09-15,8100.0
NST,2010-09-16,8300.0
NST,2010-09-17,8700.0
NST,2010-09-20,8100.0
NST,2010-09-21,8500.0
NST,2010-09-22,8300.0
NST,2010-09-23,8200.0
NST,2010-09-24,8500.0
NST,2010-09-27,8300.0
NST,2010-09-28,8300.0
NST,2010-09-29,8300.0
NST,2010-09-30,8200.0
NST,2010-10-01,8000.0
NST,2010-10-04,7600.0
NST,2010-10-05,7900.0
NST,2010-10-06,8300.0
NST,2010-10-07,7900.0
NST,2010-10-08,8100.0
NST,2010-10-11,8100.0
NST,2010-10-12,8100.0
NST,2010-10-13,8000.0
NST,2010-10-14,8000.0
NST,2010-10-15,8300.0
NST,2010-10-18,8400.0
NST,2010-10-19,7800.0
NST,2010-10-20,8100.0
NST,2010-10-21,8000.0
NST,2010-10-22,8400.0
NST,2010-10-25,7900.0
NST,2010-10-26,7900.0
NST,2010-10-27,7200.0
NST,2010-10-28,7400.0
NST,2010-10-29,8000.0
NST,2010-11-01,7700.0
NST,2010-11-02,7600.0
NST,2010-11-03,7800.0
NST,2010-11-04,7900.0
NST,2010-11-05,7900.0
NST,2010-11-08,8100.0
NST,2010-11-09,8100.0
NST,2010-11-10,8500.0
NST,2010-11-11,7900.0
NST,2010-11-12,8300.0
NST,2010-11-15,7700.0
NST,2010-11-16,7600.0
NST,2010-11-17,7800.0
NST,2010-11-18,8200.0
NST,2010-11-19,8200.0
NST,2010-11-22,8600.0
NST,2010-11-23,8100.0
NST,2010-11-24,9000.0
NST,2010-11-25,8400.0
NST,2010-11-26,8000.0
NST,2010-11-29,8000.0
NST,2010-11-30,8000.0
NST,2010-12-01,7800.0
NST,2010-12-02,7400.0
NST,2010-12-03,7600.0
NST,2010-12-06,8000.0
NST,2010-12-07,8300.0
NST,2010-12-08,7700.0
NST,2010-12-09,8000.0
NST,2010-12-10,7700.0
NST,2010-12-13,8000.0
NST,2010-12-14,7900.0
NST,2010-12-15,7900.0
NST,2010-12-16,7400.0
NST,2010-12-17,6900.0
NST,2010-12-20,7200.0
NST,2010-12-21,7100.0
NST,2010-12-22,6900.0
NST,2010-12-23,6800.0
NST,2010-12-24,6900.0
NST,2010-12-27,7100.0
NST,2010-12-28,6700.0
NST,2010-12-29,6900.0
NST,2010-12-30,6900.0
NST,2010-12-31,6600.0
NST,2011-01-04,6900.0
NST,2011-01-05,6500.0
NST,2011-01-06,6600.0
NST,2011-01-07,6800.0
NST,2011-01-10,6600.0
NST,2011-01-11,6400.0
NST,2011-01-12,6200.0
NST,2011-01-13,6200.0
NST,2011-01-14,6700.0
NST,2011-01-17,6300.0
NST,2011-01-18,6500.0
NST,2011-01-19,6400.0
NST,2011-01-20,6800.0
NST,2011-01-21,6700.0
NST,2011-01-24,6500.0
NST,2011-01-25,6900.0
NST,2011-01-26,6700.0
NST,2011-01-27,7300.0
NST,2011-01-28,7300.0
NST,2011-02-08,7300.0
NST,2011-02-09,6900.0
NST,2011-02-10,6900.0
NST,2011-02-11,6700.0
NST,2011-02-14,6500.0
NST,2011-02-15,6500.0
NST,2011-02-16,6600.0
NST,2011-02-17,7100.0
NST,2011-02-18,7100.0
NST,2011-02-21,7100.0
NST,2011-02-22,7100.0
NST,2011-02-23,6600.0
NST,2011-02-24,6300.0
NST,2011-02-25,6100.0
NST,2011-02-28,6100.0
NST,2011-03-01,5500.0
NST,2011-03-02,5200.0
NST,2011-03-03,5000.0
NST,2011-03-04,5300.0
NST,2011-03-07,5600.0
NST,2011-03-08,5500.0
NST,2011-03-09,5100.0
NST,2011-03-10,5400.0
NST,2011-03-11,5400.0
NST,2011-03-14,5400.0
NST,2011-03-15,5400.0
NST,2011-03-16,5400.0
NST,2011-03-17,5700.0
NST,2011-03-18,5900.0
NST,2011-03-21,5700.0
NST,2011-03-22,5600.0
NST,2011-03-23,5700.0
NST,2011-03-24,5800.0
NST,2011-03-25,6200.0
NST,2011-03-28,6400.0
NST,2011-03-29,6000.0
NST,2011-03-30,6200.0
NST,2011-03-31,6200.0
NST,2011-04-01,6300.0
NST,2011-04-04,6300.0
NST,2011-04-05,6200.0
NST,2011-04-06,6200.0
NST,2011-04-07,6300.0
NST,2011-04-08,6400.0
NST,2011-04-13,6200.0
NST,2011-04-14,6100.0
NST,2011-04-15,6100.0
NST,2011-04-18,6100.0
NST,2011-04-19,6100.0
NST,2011-04-20,5900.0
NST,2011-04-21,5700.0
NST,2011-04-22,6100.0
NST,2011-04-25,6300.0
NST,2011-04-26,6100.0
NST,2011-04-27,6100.0
NST,2011-04-28,6300.0
NST,2011-04-29,6100.0
NST,2011-05-04,6100.0
NST,2011-05-05,6100.0
NST,2011-05-06,5700.0
NST,2011-05-09,5900.0
NST,2011-05-10,5700.0
NST,2011-05-11,5900.0
NST,2011-05-12,5900.0
NST,2011-05-13,6100.0
NST,2011-05-16,5900.0
NST,2011-05-17,5600.0
NST,2011-05-18,5900.0
NST,2011-05-19,5700.0
NST,2011-05-20,5500.0
NST,2011-05-23,5500.0
NST,2011-05-24,5600.0
NST,2011-05-25,5300.0
NST,2011-05-26,5300.0
NST,2011-05-27,5500.0
NST,2011-05-30,5200.0
NST,2011-05-31,5100.0
NST,2011-06-01,5500.0
NST,2011-06-02,5600.0
NST,2011-06-03,5300.0
NST,2011-06-06,5400.0
NST,2011-06-07,5700.0
NST,2011-06-08,5800.0
NST,2011-06-09,5900.0
NST,2011-06-10,5900.0
NST,2011-06-13,5900.0
NST,2011-06-14,6000.0
NST,2011-06-15,6000.0
NST,2011-06-16,5900.0
NST,2011-06-17,5600.0
NST,2011-06-20,5500.0
NST,2011-06-21,5700.0
NST,2011-06-22,5700.0
NST,2011-06-23,5700.0
NST,2011-06-24,5700.0
NST,2011-06-27,5500.0
NST,2011-06-28,5800.0
NST,2011-06-29,5500.0
NST,2011-06-30,5300.0
NST,2011-07-01,5600.0
NST,2011-07-04,5900.0
NST,2011-07-05,6100.0
NST,2011-07-06,5700.0
NST,2011-07-07,6200.0
NST,2011-07-08,5800.0
NST,2011-07-11,5800.0
NST,2011-07-12,5600.0
NST,2011-07-13,5300.0
NST,2011-07-14,5300.0
NST,2011-07-15,5300.0
NST,2011-07-18,5500.0
NST,2011-07-19,5300.0
NST,2011-07-20,5200.0
NST,2011-07-21,5200.0
NST,2011-07-22,5100.0
NST,2011-07-25,5200.0
NST,2011-07-26,5200.0
NST,2011-07-27,5500.0
NST,2011-07-28,5200.0
NST,2011-07-29,5300.0
NST,2011-08-01,5500.0
NST,2011-08-02,5500.0
NST,2011-08-03,5500.0
NST,2011-08-04,5700.0
NST,2011-08-05,5700.0
NST,2011-08-08,5600.0
NST,2011-08-09,5300.0
NST,2011-08-10,5800.0
NST,2011-08-11,5800.0
NST,2011-08-12,5800.0
NST,2011-08-15,5800.0
NST,2011-08-16,5600.0
NST,2011-08-17,5700.0
NST,2011-08-18,6100.0
NST,2011-08-19,5800.0
NST,2011-08-22,5700.0
NST,2011-08-23,5700.0
NST,2011-08-24,5700.0
NST,2011-08-25,5700.0
NST,2011-08-26,5600.0
NST,2011-08-29,5800.0
NST,2011-08-30,6000.0
NST,2011-08-31,6100.0
NST,2011-09-01,5800.0
NST,2011-09-05,5800.0
NST,2011-09-06,6000.0
NST,2011-09-07,6100.0
NST,2011-09-08,6000.0
NST,2011-09-09,5800.0
NST,2011-09-12,6300.0
NST,2011-09-13,6600.0
NST,2011-09-14,6600.0
NST,2011-09-15,6300.0
NST,2011-09-16,6300.0
NST,2011-09-19,6300.0
NST,2011-09-20,6200.0
NST,2011-09-21,6300.0
NST,2011-09-22,6300.0
NST,2011-09-23,6300.0
NST,2011-09-26,6300.0
NST,2011-09-27,6300.0
NST,2011-09-28,6300.0
NST,2011-09-29,6600.0
NST,2011-09-30,6100.0
NST,2011-10-03,6200.0
NST,2011-10-04,6400.0
NST,2011-10-05,6300.0
NST,2011-10-06,6300.0
NST,2011-10-07,6300.0
NST,2011-10-10,6200.0
NST,2011-10-11,6200.0
NST,2011-10-12,6100.0
NST,2011-10-13,6200.0
NST,2011-10-14,6100.0
NST,2011-10-17,6100.0
NST,2011-10-18,6100.0
NST,2011-10-19,6100.0
NST,2011-10-20,6100.0
NST,2011-10-21,6100.0
NST,2011-10-24,6300.0
NST,2011-10-25,6200.0
NST,2011-10-26,6200.0
NST,2011-10-27,6300.0
NST,2011-10-28,6600.0
NST,2011-10-31,6600.0
NST,2011-11-01,6700.0
NST,2011-11-02,6700.0
NST,2011-11-03,6500.0
NST,2011-11-04,6400.0
NST,2011-11-07,6400.0
NST,2011-11-08,6400.0
NST,2011-11-09,6400.0
NST,2011-11-10,6400.0
NST,2011-11-11,6400.0
NST,2011-11-14,6600.0
NST,2011-11-15,6600.0
NST,2011-11-16,6300.0
NST,2011-11-17,6200.0
NST,2011-11-18,6200.0
NST,2011-11-21,6200.0
NST,2011-11-22,6200.0
NST,2011-11-23,6200.0
NST,2011-11-24,6400.0
NST,2011-11-25,6200.0
NST,2011-11-28,6200.0
NST,2011-11-29,6100.0
NST,2011-11-30,6100.0
NST,2011-12-01,6100.0
NST,2011-12-02,6300.0
NST,2011-12-05,6200.0
NST,2011-12-06,6400.0
NST,2011-12-07,6400.0
NST,2011-12-08,6400.0
NST,2011-12-09,6400.0
NST,2011-12-12,6600.0
NST,2011-12-13,6600.0
NST,2011-12-14,6600.0
NST,2011-12-15,7100.0
NST,2011-12-16,7100.0
NST,2011-12-19,7000.0
NST,2011-12-20,7300.0
NST,2011-12-21,6800.0
NST,2011-12-22,7200.0
NST,2011-12-23,7400.0
NST,2011-12-26,7400.0
NST,2011-12-27,6900.0
NST,2011-12-28,6600.0
NST,2011-12-29,6300.0
NST,2011-12-30,6300.0
NST,2012-01-03,6400.0
NST,2012-01-04,6300.0
NST,2012-01-05,6500.0
NST,2012-01-06,6400.0
NST,2012-01-09,6400.0
NST,2012-01-10,6700.0
NST,2012-01-11,7200.0
NST,2012-01-12,6700.0
NST,2012-01-13,6400.0
NST,2012-01-16,6800.0
NST,2012-01-17,6400.0
NST,2012-01-18,6500.0
NST,2012-01-19,6600.0
NST,2012-01-20,7000.0
NST,2012-01-30,7400.0
NST,2012-01-31,7200.0
NST,2012-02-01,7000.0
NST,2012-02-02,7200.0
NST,2012-02-03,7200.0
NST,2012-02-06,7200.0
NST,2012-02-07,7200.0
NST,2012-02-08,6800.0
NST,2012-02-09,6900.0
NST,2012-02-10,6900.0
NST,2012-02-13,6800.0
NST,2012-02-14,6900.0
NST,2012-02-15,6900.0
NST,2012-02-16,6900.0
NST,2012-02-17,7000.0
NST,2012-02-20,7200.0
NST,2012-02-21,7200.0
NST,2012-02-22,7600.0
NST,2012-02-23,7800.0
NST,2012-02-24,7400.0
NST,2012-02-27,7200.0
NST,2012-02-28,7800.0
NST,2012-02-29,7800.0
NST,2012-03-01,7800.0
NST,2012-03-02,7000.0
NST,2012-03-05,7800.0
NST,2012-03-06,7400.0
NST,2012-03-07,7000.0
NST,2012-03-08,7100.0
NST,2012-03-09,7400.0
NST,2012-03-12,7200.0
NST,2012-03-13,7500.0
NST,2012-03-14,7200.0
NST,2012-03-15,7400.0
NST,2012-03-16,7200.0
NST,2012-03-19,7000.0
NST,2012-03-20,7200.0
NST,2012-03-21,7200.0
NST,2012-03-22,7200.0
NST,2012-03-23,7700.0
NST,2012-03-26,7900.0
NST,2012-03-27,7700.0
NST,2012-03-28,8200.0
NST,2012-03-29,7900.0
NST,2012-03-30,7700.0
NST,2012-04-03,7900.0
NST,2012-04-04,7600.0
NST,2012-04-05,8100.0
NST,2012-04-06,8000.0
NST,2012-04-09,8200.0
NST,2012-04-10,8000.0
NST,2012-04-11,8200.0
NST,2012-04-12,8400.0
NST,2012-04-13,8900.0
NST,2012-04-16,9400.0
NST,2012-04-17,9200.0
NST,2012-04-18,9200.0
NST,2012-04-19,8700.0
NST,2012-04-20,9100.0
NST,2012-04-23,9100.0
NST,2012-04-24,9100.0
NST,2012-04-25,9100.0
NST,2012-04-26,8900.0
NST,2012-04-27,8900.0
NST,2012-05-02,9100.0
NST,2012-05-03,9100.0
NST,2012-05-04,9100.0
NST,2012-05-07,9300.0
NST,2012-05-08,9000.0
NST,2012-05-09,9300.0
NST,2012-05-10,9300.0
NST,2012-05-11,9300.0
NST,2012-05-14,8700.0
NST,2012-05-15,8400.0
NST,2012-05-16,8300.0
NST,2012-05-17,8400.0
NST,2012-05-18,8300.0
NST,2012-05-21,8700.0
NST,2012-05-22,8300.0
NST,2012-05-23,8300.0
NST,2012-05-24,8300.0
NST,2012-05-25,8800.0
NST,2012-05-28,9000.0
NST,2012-05-29,9000.0
NST,2012-05-30,8700.0
NST,2012-05-31,8700.0
NST,2012-06-01,8300.0
NST,2012-06-04,8100.0
NST,2012-06-05,8700.0
NST,2012-06-06,8700.0
NST,2012-06-07,8800.0
NST,2012-06-08,8400.0
NST,2012-06-11,8900.0
NST,2012-06-12,8700.0
NST,2012-06-13,8700.0
NST,2012-06-14,8100.0
NST,2012-06-15,8700.0
NST,2012-06-18,8700.0
NST,2012-06-19,8700.0
NST,2012-06-20,8700.0
NST,2012-06-21,8700.0
NST,2012-06-22,8600.0
NST,2012-06-25,8100.0
NST,2012-06-26,7500.0
NST,2012-06-27,7900.0
NST,2012-06-28,7500.0
NST,2012-06-29,7500.0
NST,2012-07-02,7500.0
NST,2012-07-03,7500.0
NST,2012-07-04,7400.0
NST,2012-07-05,7800.0
NST,2012-07-06,7900.0
NST,2012-07-09,7500.0
NST,2012-07-10,7500.0
NST,2012-07-11,7700.0
NST,2012-07-12,7900.0
NST,2012-07-13,8300.0
NST,2012-07-16,8300.0
NST,2012-07-17,8300.0
NST,2012-07-18,8300.0
NST,2012-07-19,8700.0
NST,2012-07-20,8700.0
NST,2012-07-23,8300.0
NST,2012-07-24,8300.0
NST,2012-07-25,8200.0
NST,2012-07-26,8200.0
NST,2012-07-27,8200.0
NST,2012-07-30,7800.0
NST,2012-07-31,7800.0
NST,2012-08-01,8400.0
NST,2012-08-02,8100.0
NST,2012-08-03,7800.0
NST,2012-08-06,7800.0
NST,2012-08-07,7500.0
NST,2012-08-08,7200.0
NST,2012-08-09,7300.0
NST,2012-08-10,7200.0
NST,2012-08-13,6900.0
NST,2012-08-14,7300.0
NST,2012-08-15,7500.0
NST,2012-08-16,7400.0
NST,2012-08-17,7900.0
NST,2012-08-20,7700.0
NST,2012-08-21,7200.0
NST,2012-08-22,7700.0
NST,2012-08-23,8000.0
NST,2012-08-24,7500.0
NST,2012-08-27,7500.0
NST,2012-08-28,8000.0
NST,2012-08-29,7500.0
NST,2012-08-30,7300.0
NST,2012-08-31,7300.0
NST,2012-09-04,7300.0
NST,2012-09-05,7300.0
NST,2012-09-06,7300.0
NST,2012-09-07,7300.0
NST,2012-09-10,7200.0
NST,2012-09-11,7100.0
NST,2012-09-12,7300.0
NST,2012-09-13,7100.0
NST,2012-09-14,7300.0
NST,2012-09-17,7400.0
NST,2012-09-18,7400.0
NST,2012-09-19,7300.0
NST,2012-09-20,7100.0
NST,2012-09-21,7100.0
NST,2012-09-24,7100.0
NST,2012-09-25,7100.0
NST,2012-09-26,7100.0
NST,2012-09-27,7400.0
NST,2012-09-28,6900.0
NST,2012-10-01,6900.0
NST,2012-10-02,7200.0
NST,2012-10-03,7100.0
NST,2012-10-04,7100.0
NST,2012-10-05,7100.0
NST,2012-10-08,7100.0
NST,2012-10-09,7100.0
NST,2012-10-10,7100.0
NST,2012-10-11,7100.0
NST,2012-10-12,7100.0
NST,2012-10-15,7100.0
NST,2012-10-16,7400.0
NST,2012-10-17,7400.0
NST,2012-10-18,7400.0
NST,2012-10-19,7400.0
NST,2012-10-22,7900.0
NST,2012-10-23,7400.0
NST,2012-10-24,6900.0
NST,2012-10-25,7400.0
NST,2012-10-26,7500.0
NST,2012-10-29,7900.0
NST,2012-10-30,7900.0
NST,2012-10-31,7800.0
NST,2012-11-01,7800.0
NST,2012-11-02,7800.0
NST,2012-11-05,7800.0
NST,2012-11-06,7400.0
NST,2012-11-07,6900.0
NST,2012-11-08,6900.0
NST,2012-11-09,6900.0
NST,2012-11-12,6900.0
NST,2012-11-13,6900.0
NST,2012-11-14,6900.0
NST,2012-11-15,6900.0
NST,2012-11-16,6900.0
NST,2012-11-19,6900.0
NST,2012-11-20,6900.0
NST,2012-11-21,6900.0
NST,2012-11-22,7300.0
NST,2012-11-23,7300.0
NST,2012-11-26,7300.0
NST,2012-11-27,7700.0
NST,2012-11-28,7700.0
NST,2012-11-29,7200.0
NST,2012-11-30,7200.0
NST,2012-12-03,7200.0
NST,2012-12-04,7100.0
NST,2012-12-05,7100.0
NST,2012-12-06,7100.0
NST,2012-12-07,7100.0
NST,2012-12-10,7100.0
NST,2012-12-11,7100.0
NST,2012-12-12,7100.0
NST,2012-12-13,7100.0
NST,2012-12-14,7100.0
NST,2012-12-17,7100.0
NST,2012-12-18,7100.0
NST,2012-12-19,7100.0
NST,2012-12-20,7100.0
NST,2012-12-21,7600.0
NST,2012-12-24,7600.0
NST,2012-12-25,7600.0
NST,2012-12-26,7600.0
NST,2012-12-27,7600.0
NST,2012-12-28,7600.0
NST,2013-01-02,7600.0
NST,2013-01-03,7600.0
NST,2013-01-04,7200.0
NST,2013-01-07,7200.0
NST,2013-01-08,7100.0
NST,2013-01-09,7600.0
NST,2013-01-10,7600.0
NST,2013-01-11,7600.0
NST,2013-01-14,7600.0
NST,2013-01-15,8300.0
NST,2013-01-16,9100.0
NST,2013-01-17,8300.0
NST,2013-01-18,8300.0
NST,2013-01-21,9000.0
NST,2013-01-22,9000.0
NST,2013-01-23,9000.0
NST,2013-01-24,9000.0
NST,2013-01-25,9000.0
NST,2013-01-28,8200.0
NST,2013-01-29,8200.0
NST,2013-01-30,8200.0
NST,2013-01-31,8200.0
NST,2013-02-01,8200.0
NST,2013-02-04,8200.0
NST,2013-02-05,8200.0
NST,2013-02-06,8200.0
NST,2013-02-07,7400.0
NST,2013-02-08,7400.0
NST,2013-02-18,7500.0
NST,2013-02-19,7600.0
NST,2013-02-20,7900.0
NST,2013-02-21,7900.0
NST,2013-02-22,7900.0
NST,2013-02-25,7900.0
NST,2013-02-26,7100.0
NST,2013-02-27,6800.0
NST,2013-02-28,6900.0
NST,2013-03-01,7100.0
NST,2013-03-04,7000.0
NST,2013-03-05,7000.0
NST,2013-03-06,7000.0
NST,2013-03-07,7000.0
NST,2013-03-08,7100.0
NST,2013-03-11,6800.0
NST,2013-03-12,6800.0
NST,2013-03-13,6800.0
NST,2013-03-14,6800.0
NST,2013-03-15,7100.0
NST,2013-03-18,7100.0
NST,2013-03-19,7100.0
NST,2013-03-20,7100.0
NST,2013-03-21,7100.0
NST,2013-03-22,7100.0
NST,2013-03-25,7100.0
NST,2013-03-26,7200.0
NST,2013-03-27,7200.0
NST,2013-03-28,7200.0
NST,2013-03-29,7100.0
NST,2013-04-01,7900.0
NST,2013-04-02,7900.0
NST,2013-04-03,8100.0
NST,2013-04-04,8100.0
NST,2013-04-05,8100.0
NST,2013-04-08,8100.0
NST,2013-04-09,8000.0
NST,2013-04-10,8000.0
NST,2013-04-11,8000.0
NST,2013-04-12,8000.0
NST,2013-04-15,8000.0
NST,2013-04-16,7500.0
NST,2013-04-17,6900.0
NST,2013-04-18,6900.0
NST,2013-04-22,7500.0
NST,2013-04-23,7500.0
NST,2013-04-24,8100.0
NST,2013-04-25,7300.0
NST,2013-04-26,7100.0
NST,2013-05-02,7100.0
NST,2013-05-03,7200.0
NST,2013-05-06,7300.0
NST,2013-05-07,7300.0
NST,2013-05-08,8400.0
NST,2013-05-09,8400.0
NST,2013-05-10,8400.0
NST,2013-05-13,8400.0
NST,2013-05-14,8400.0
NST,2013-05-15,8000.0
NST,2013-05-16,8000.0
NST,2013-05-17,8000.0
NST,2013-05-20,8000.0
NST,2013-05-21,8800.0
NST,2013-05-22,8800.0
NST,2013-05-23,8800.0
NST,2013-05-24,8800.0
NST,2013-05-27,8800.0
NST,2013-05-28,8800.0
NST,2013-05-29,8900.0
NST,2013-05-30,9100.0
NST,2013-05-31,9100.0
NST,2013-06-03,9100.0
NST,2013-06-04,9100.0
NST,2013-06-05,9000.0
NST,2013-06-06,9000.0
NST,2013-06-07,8900.0
NST,2013-06-10,9400.0
NST,2013-06-11,8500.0
NST,2013-06-12,8500.0
NST,2013-06-13,8500.0
NST,2013-06-14,8500.0
NST,2013-06-17,7700.0
NST,2013-06-18,8000.0
NST,2013-06-19,8000.0
NST,2013-06-20,8000.0
NST,2013-06-21,8000.0
NST,2013-06-24,8800.0
NST,2013-06-25,8800.0
NST,2013-06-26,8000.0
NST,2013-06-27,8000.0
NST,2013-06-28,8000.0
NST,2013-07-01,8000.0
NST,2013-07-02,8000.0
NST,2013-07-03,8000.0
NST,2013-07-04,7300.0
NST,2013-07-05,7300.0
NST,2013-07-08,7300.0
NST,2013-07-09,7700.0
NST,2013-07-10,7700.0
NST,2013-07-11,7200.0
NST,2013-07-12,7200.0
NST,2013-07-15,7200.0
NST,2013-07-16,7200.0
NST,2013-07-17,7100.0
NST,2013-07-18,7100.0
NST,2013-07-19,7100.0
NST,2013-07-22,7100.0
NST,2013-07-23,7100.0
NST,2013-07-24,6800.0
NST,2013-07-25,6600.0
NST,2013-07-26,6600.0
NST,2013-07-29,6600.0
NST,2013-07-30,6600.0
NST,2013-07-31,6600.0
NST,2013-08-01,6600.0
NST,2013-08-02,6600.0
NST,2013-08-05,6600.0
NST,2013-08-06,6600.0
NST,2013-08-07,6500.0
NST,2013-08-08,6500.0
NST,2013-08-09,6500.0
NST,2013-08-12,6500.0
NST,2013-08-13,6500.0
NST,2013-08-14,6500.0
NST,2013-08-15,6600.0
NST,2013-08-16,6500.0
NST,2013-08-19,6500.0
NST,2013-08-20,6500.0
NST,2013-08-21,6500.0
NST,2013-08-22,6500.0
NST,2013-08-23,6500.0
NST,2013-08-26,6500.0
NST,2013-08-27,6500.0
NST,2013-08-28,6500.0
NST,2013-08-29,6500.0
NST,2013-08-30,6500.0
NST,2013-09-03,6500.0
NST,2013-09-04,6500.0
NST,2013-09-05,6500.0
NST,2013-09-06,6500.0
NST,2013-09-09,6500.0
NST,2013-09-10,6500.0
NST,2013-09-11,6000.0
NST,2013-09-12,5500.0
NST,2013-09-13,5500.0
NST,2013-09-16,5200.0
NST,2013-09-17,5200.0
NST,2013-09-18,5000.0
NST,2013-09-19,5100.0
NST,2013-09-20,5100.0
NST,2013-09-23,5200.0
NST,2013-09-24,5200.0
NST,2013-09-25,5300.0
NST,2013-09-26,5500.0
NST,2013-09-27,5500.0
NST,2013-09-30,5500.0
NST,2013-10-01,5500.0
NST,2013-10-02,5500.0
NST,2013-10-03,5500.0
NST,2013-10-04,5500.0
NST,2013-10-07,5500.0
NST,2013-10-08,6000.0
NST,2013-10-09,6600.0
NST,2013-10-10,6500.0
NST,2013-10-11,6500.0
NST,2013-10-14,6500.0
NST,2013-10-15,6500.0
NST,2013-10-16,6500.0
NST,2013-10-17,6500.0
NST,2013-10-18,6500.0
NST,2013-10-21,6500.0
NST,2013-10-22,6200.0
NST,2013-10-23,6200.0
NST,2013-10-24,6200.0
NST,2013-10-25,6200.0
NST,2013-10-28,6200.0
NST,2013-10-29,6200.0
NST,2013-10-30,6200.0
NST,2013-10-31,6200.0
NST,2013-11-01,6800.0
NST,2013-11-04,6800.0
NST,2013-11-05,6300.0
NST,2013-11-06,5700.0
NST,2013-11-07,5200.0
NST,2013-11-08,5700.0
NST,2013-11-11,6200.0
NST,2013-11-12,5900.0
NST,2013-11-13,5800.0
NST,2013-11-14,5800.0
NST,2013-11-15,6000.0
NST,2013-11-18,6000.0
NST,2013-11-19,6100.0
NST,2013-11-20,6000.0
NST,2013-11-21,6000.0
NST,2013-11-22,6000.0
NST,2013-11-25,6000.0
NST,2013-11-26,6000.0
NST,2013-11-27,6000.0
NST,2013-11-28,6000.0
NST,2013-11-29,6000.0
NST,2013-12-02,6000.0
NST,2013-12-03,6000.0
NST,2013-12-04,6100.0
NST,2013-12-05,6100.0
NST,2013-12-06,6100.0
NST,2013-12-09,6100.0
NST,2013-12-10,6200.0
NST,2013-12-11,6500.0
NST,2013-12-12,6500.0
NST,2013-12-13,6500.0
NST,2013-12-16,6600.0
NST,2013-12-17,7100.0
NST,2013-12-18,7800.0
NST,2013-12-19,8400.0
NST,2013-12-20,8400.0
NST,2013-12-23,8400.0
NST,2013-12-24,7700.0
NST,2013-12-25,7100.0
NST,2013-12-26,7000.0
NST,2013-12-27,7000.0
NST,2013-12-30,7000.0
NST,2013-12-31,7000.0
NST,2014-01-02,7000.0
NST,2014-01-03,7000.0
NST,2014-01-06,7000.0
NST,2014-01-07,7000.0
NST,2014-01-08,7000.0
NST,2014-01-09,7000.0
NST,2014-01-10,7000.0
NST,2014-01-13,7600.0
NST,2014-01-14,7100.0
NST,2014-01-15,7400.0
NST,2014-01-16,7400.0
NST,2014-01-17,7400.0
NST,2014-01-20,7300.0
NST,2014-01-21,7300.0
NST,2014-01-22,8000.0
NST,2014-01-23,8200.0
NST,2014-01-24,9000.0
NST,2014-01-27,9100.0
NST,2014-02-06,9600.0
NST,2014-02-07,9400.0
NST,2014-02-10,9700.0
NST,2014-02-11,9600.0
NST,2014-02-12,9600.0
NST,2014-02-13,9500.0
NST,2014-02-14,9600.0
NST,2014-02-17,9400.0
NST,2014-02-18,9500.0
NST,2014-02-19,9700.0
NST,2014-02-20,9900.0
NST,2014-02-21,9800.0
NST,2014-02-24,10300.0
NST,2014-02-25,10700.0
NST,2014-02-26,10500.0
NST,2014-02-27,10500.0
NST,2014-02-28,10500.0
NST,2014-03-03,10400.0
NST,2014-03-04,10600.0
NST,2014-03-05,11000.0
NST,2014-03-06,11300.0
NST,2014-03-07,11300.0
NST,2014-03-10,11500.0
NST,2014-03-11,11500.0
NST,2014-03-12,11300.0
NST,2014-03-13,11100.0
NST,2014-03-14,11100.0
NST,2014-03-17,11100.0
NST,2014-03-18,11000.0
NST,2014-03-19,11200.0
NST,2014-03-20,11300.0
NST,2014-03-21,11200.0
NST,2014-03-24,11500.0
NST,2014-03-25,11400.0
NST,2014-03-26,11200.0
NST,2014-03-27,11300.0
NST,2014-03-28,11400.0
NST,2014-03-31,11500.0
NST,2014-04-01,11000.0
NST,2014-04-02,10300.0
NST,2014-04-03,10800.0
NST,2014-04-04,10500.0
NST,2014-04-07,10700.0
NST,2014-04-08,10600.0
NST,2014-04-10,10700.0
NST,2014-04-11,10500.0
NST,2014-04-14,10300.0
NST,2014-04-15,10600.0
NST,2014-04-16,10100.0
NST,2014-04-17,10500.0
NST,2014-04-18,10400.0
NST,2014-04-21,10400.0
NST,2014-04-22,10700.0
NST,2014-04-23,10600.0
NST,2014-04-24,10600.0
NST,2014-04-25,10600.0
NST,2014-04-28,10500.0
NST,2014-04-29,10500.0
NST,2014-05-05,10600.0
NST,2014-05-06,10700.0
NST,2014-05-07,11000.0
NST,2014-05-08,10800.0
NST,2014-05-09,10800.0
NST,2014-05-12,10600.0
NST,2014-05-13,10300.0
NST,2014-05-14,11000.0
NST,2014-05-15,10700.0
NST,2014-05-16,10700.0
NST,2014-05-19,11000.0
NST,2014-05-20,10700.0
NST,2014-05-21,10800.0
