NVB,2010-09-13,11100.0
NVB,2010-09-14,10100.0
NVB,2010-09-15,9600.0
NVB,2010-09-16,9600.0
NVB,2010-09-17,9700.0
NVB,2010-09-20,9700.0
NVB,2010-09-21,9600.0
NVB,2010-09-22,9100.0
NVB,2010-09-23,9100.0
NVB,2010-09-24,9400.0
NVB,2010-09-27,9500.0
NVB,2010-09-28,9400.0
NVB,2010-09-29,9400.0
NVB,2010-09-30,9100.0
NVB,2010-10-01,9600.0
NVB,2010-10-04,9400.0
NVB,2010-10-05,9100.0
NVB,2010-10-06,9300.0
NVB,2010-10-07,9000.0
NVB,2010-10-08,9000.0
NVB,2010-10-11,9200.0
NVB,2010-10-12,9100.0
NVB,2010-10-13,9000.0
NVB,2010-10-14,9100.0
NVB,2010-10-15,9000.0
NVB,2010-10-18,9000.0
NVB,2010-10-19,9000.0
NVB,2010-10-20,9000.0
NVB,2010-10-21,8900.0
NVB,2010-10-22,8900.0
NVB,2010-10-25,8700.0
NVB,2010-10-26,8700.0
NVB,2010-10-27,8700.0
NVB,2010-10-28,8300.0
NVB,2010-10-29,8300.0
NVB,2010-11-01,8100.0
NVB,2010-11-02,8100.0
NVB,2010-11-03,8000.0
NVB,2010-11-04,8000.0
NVB,2010-11-05,8200.0
NVB,2010-11-08,7900.0
NVB,2010-11-09,7800.0
NVB,2010-11-10,8000.0
NVB,2010-11-11,7900.0
NVB,2010-11-12,7900.0
NVB,2010-11-15,7600.0
NVB,2010-11-16,7800.0
NVB,2010-11-17,7700.0
NVB,2010-11-18,7800.0
NVB,2010-11-19,7800.0
NVB,2010-11-22,7700.0
NVB,2010-11-23,7800.0
NVB,2010-11-24,7900.0
NVB,2010-11-25,8100.0
NVB,2010-11-26,7900.0
NVB,2010-11-29,8100.0
NVB,2010-11-30,8200.0
NVB,2010-12-01,8100.0
NVB,2010-12-02,7800.0
NVB,2010-12-03,8500.0
NVB,2010-12-06,9000.0
NVB,2010-12-07,8700.0
NVB,2010-12-08,8200.0
NVB,2010-12-09,7900.0
NVB,2010-12-10,8500.0
NVB,2010-12-13,8900.0
NVB,2010-12-14,9400.0
NVB,2010-12-15,10000.0
NVB,2010-12-16,10100.0
NVB,2010-12-17,10200.0
NVB,2010-12-20,9800.0
NVB,2010-12-21,9300.0
NVB,2010-12-22,9000.0
NVB,2010-12-23,9000.0
NVB,2010-12-24,9200.0
NVB,2010-12-27,9000.0
NVB,2010-12-28,9600.0
NVB,2010-12-29,9500.0
NVB,2010-12-30,9600.0
NVB,2010-12-31,10100.0
NVB,2011-01-04,9900.0
NVB,2011-01-05,9200.0
NVB,2011-01-06,9200.0
NVB,2011-01-07,9200.0
NVB,2011-01-10,9100.0
NVB,2011-01-11,8700.0
NVB,2011-01-12,9000.0
NVB,2011-01-13,8900.0
NVB,2011-01-14,8900.0
NVB,2011-01-17,9000.0
NVB,2011-01-18,8800.0
NVB,2011-01-19,8700.0
NVB,2011-01-20,8800.0
NVB,2011-01-21,8900.0
NVB,2011-01-24,8700.0
NVB,2011-01-25,8600.0
NVB,2011-01-26,8900.0
NVB,2011-01-27,8600.0
NVB,2011-01-28,8800.0
NVB,2011-02-08,9200.0
NVB,2011-02-09,9000.0
NVB,2011-02-10,8800.0
NVB,2011-02-11,8900.0
NVB,2011-02-14,8800.0
NVB,2011-02-15,8600.0
NVB,2011-02-16,8600.0
NVB,2011-02-17,8600.0
NVB,2011-02-18,8500.0
NVB,2011-02-21,8000.0
NVB,2011-02-22,8000.0
NVB,2011-02-23,8200.0
NVB,2011-02-24,8100.0
NVB,2011-02-25,8100.0
NVB,2011-02-28,7900.0
NVB,2011-03-01,7700.0
NVB,2011-03-02,7300.0
NVB,2011-03-03,7800.0
NVB,2011-03-04,7900.0
NVB,2011-03-07,8200.0
NVB,2011-03-08,8200.0
NVB,2011-03-09,8000.0
NVB,2011-03-10,8300.0
NVB,2011-03-11,8600.0
NVB,2011-03-14,8400.0
NVB,2011-03-15,8200.0
NVB,2011-03-16,8200.0
NVB,2011-03-17,8300.0
NVB,2011-03-18,8600.0
NVB,2011-03-21,8500.0
NVB,2011-03-22,8700.0
NVB,2011-03-23,8500.0
NVB,2011-03-24,8600.0
NVB,2011-03-25,8500.0
NVB,2011-03-28,8500.0
NVB,2011-03-29,8300.0
NVB,2011-03-30,8100.0
NVB,2011-03-31,8200.0
NVB,2011-04-01,8500.0
NVB,2011-04-04,8600.0
NVB,2011-04-05,9000.0
NVB,2011-04-06,8500.0
NVB,2011-04-07,8700.0
NVB,2011-04-08,8800.0
NVB,2011-04-13,8600.0
NVB,2011-04-14,8700.0
NVB,2011-04-15,8700.0
NVB,2011-04-18,8400.0
NVB,2011-04-19,8200.0
NVB,2011-04-20,8500.0
NVB,2011-04-21,8200.0
NVB,2011-04-22,8200.0
NVB,2011-04-25,8800.0
NVB,2011-04-26,8700.0
NVB,2011-04-27,8400.0
NVB,2011-04-28,8400.0
NVB,2011-04-29,8400.0
NVB,2011-05-04,8500.0
NVB,2011-05-05,8400.0
NVB,2011-05-06,8400.0
NVB,2011-05-09,8500.0
NVB,2011-05-10,8400.0
NVB,2011-05-11,8700.0
NVB,2011-05-12,8400.0
NVB,2011-05-13,8200.0
NVB,2011-05-16,8900.0
NVB,2011-05-17,8600.0
NVB,2011-05-18,8100.0
NVB,2011-05-19,8600.0
NVB,2011-05-20,8200.0
NVB,2011-05-23,8200.0
NVB,2011-05-24,8000.0
NVB,2011-05-25,8300.0
NVB,2011-05-26,7800.0
NVB,2011-05-27,8200.0
NVB,2011-05-30,8400.0
NVB,2011-05-31,8100.0
NVB,2011-06-01,8200.0
NVB,2011-06-02,8000.0
NVB,2011-06-03,8300.0
NVB,2011-06-06,8300.0
NVB,2011-06-07,8200.0
NVB,2011-06-08,8700.0
NVB,2011-06-09,8500.0
NVB,2011-06-10,8500.0
NVB,2011-06-13,8500.0
NVB,2011-06-14,8500.0
NVB,2011-06-15,8400.0
NVB,2011-06-16,8500.0
NVB,2011-06-17,8500.0
NVB,2011-06-20,8600.0
NVB,2011-06-21,8600.0
NVB,2011-06-22,8600.0
NVB,2011-06-23,8500.0
NVB,2011-06-24,8500.0
NVB,2011-06-27,8400.0
NVB,2011-06-28,8400.0
NVB,2011-06-29,8500.0
NVB,2011-06-30,8400.0
NVB,2011-07-01,8500.0
NVB,2011-07-04,8500.0
NVB,2011-07-05,8500.0
NVB,2011-07-06,8500.0
NVB,2011-07-07,8500.0
NVB,2011-07-08,8500.0
NVB,2011-07-11,8400.0
NVB,2011-07-12,8200.0
NVB,2011-07-13,8300.0
NVB,2011-07-14,8300.0
NVB,2011-07-15,8300.0
NVB,2011-07-18,8300.0
NVB,2011-07-19,8300.0
NVB,2011-07-20,8200.0
NVB,2011-07-21,8200.0
NVB,2011-07-22,8200.0
NVB,2011-07-25,8200.0
NVB,2011-07-26,8200.0
NVB,2011-07-27,8100.0
NVB,2011-07-28,8100.0
NVB,2011-07-29,8100.0
NVB,2011-08-01,8000.0
NVB,2011-08-02,8000.0
NVB,2011-08-03,7900.0
NVB,2011-08-04,8100.0
NVB,2011-08-05,8300.0
NVB,2011-08-08,8300.0
NVB,2011-08-09,8100.0
NVB,2011-08-10,8000.0
NVB,2011-08-11,8000.0
NVB,2011-08-12,7900.0
NVB,2011-08-15,8100.0
NVB,2011-08-16,8000.0
NVB,2011-08-17,8100.0
NVB,2011-08-18,8300.0
NVB,2011-08-19,8100.0
NVB,2011-08-22,8200.0
NVB,2011-08-23,7700.0
NVB,2011-08-24,8100.0
NVB,2011-08-25,8400.0
NVB,2011-08-26,8000.0
NVB,2011-08-29,8100.0
NVB,2011-08-30,8200.0
NVB,2011-08-31,8300.0
NVB,2011-09-01,8700.0
NVB,2011-09-05,8700.0
NVB,2011-09-06,9300.0
NVB,2011-09-07,9000.0
NVB,2011-09-08,8800.0
NVB,2011-09-09,8900.0
NVB,2011-09-12,8700.0
NVB,2011-09-13,8500.0
NVB,2011-09-14,8700.0
NVB,2011-09-15,8500.0
NVB,2011-09-16,8900.0
NVB,2011-09-19,8800.0
NVB,2011-09-20,8200.0
NVB,2011-09-21,8100.0
NVB,2011-09-22,8700.0
NVB,2011-09-23,8600.0
NVB,2011-09-26,8500.0
NVB,2011-09-27,8400.0
NVB,2011-09-28,8100.0
NVB,2011-09-29,8200.0
NVB,2011-09-30,8100.0
NVB,2011-10-03,8100.0
NVB,2011-10-04,8000.0
NVB,2011-10-05,8100.0
NVB,2011-10-06,8100.0
NVB,2011-10-07,8300.0
NVB,2011-10-10,8000.0
NVB,2011-10-11,8100.0
NVB,2011-10-12,8100.0
NVB,2011-10-13,8000.0
NVB,2011-10-14,8000.0
NVB,2011-10-17,8000.0
NVB,2011-10-18,7900.0
NVB,2011-10-19,7900.0
NVB,2011-10-20,7800.0
NVB,2011-10-21,7900.0
NVB,2011-10-24,7900.0
NVB,2011-10-25,7900.0
NVB,2011-10-26,7900.0
NVB,2011-10-27,8000.0
NVB,2011-10-28,7800.0
NVB,2011-10-31,7800.0
NVB,2011-11-01,8200.0
NVB,2011-11-02,7900.0
NVB,2011-11-03,7900.0
NVB,2011-11-04,7900.0
NVB,2011-11-07,7900.0
NVB,2011-11-08,7900.0
NVB,2011-11-09,7900.0
NVB,2011-11-10,7700.0
NVB,2011-11-11,7900.0
NVB,2011-11-14,7800.0
NVB,2011-11-15,8100.0
NVB,2011-11-16,7900.0
NVB,2011-11-17,7800.0
NVB,2011-11-18,7900.0
NVB,2011-11-21,7900.0
NVB,2011-11-22,7900.0
NVB,2011-11-23,7900.0
NVB,2011-11-24,7400.0
NVB,2011-11-25,7900.0
NVB,2011-11-28,7700.0
NVB,2011-11-29,7700.0
NVB,2011-11-30,7400.0
NVB,2011-12-01,7900.0
NVB,2011-12-02,7800.0
NVB,2011-12-05,8200.0
NVB,2011-12-06,8000.0
NVB,2011-12-07,8000.0
NVB,2011-12-08,8000.0
NVB,2011-12-09,7900.0
NVB,2011-12-12,8000.0
NVB,2011-12-13,7800.0
NVB,2011-12-14,8000.0
NVB,2011-12-15,7500.0
NVB,2011-12-16,8200.0
NVB,2011-12-19,8200.0
NVB,2011-12-20,7700.0
NVB,2011-12-21,7800.0
NVB,2011-12-22,8100.0
NVB,2011-12-23,7800.0
NVB,2011-12-26,7600.0
NVB,2011-12-27,7500.0
NVB,2011-12-28,8000.0
NVB,2011-12-29,8000.0
NVB,2011-12-30,7800.0
NVB,2012-01-03,8000.0
NVB,2012-01-04,7900.0
NVB,2012-01-05,7500.0
NVB,2012-01-06,7500.0
NVB,2012-01-09,8000.0
NVB,2012-01-10,7800.0
NVB,2012-01-11,7800.0
NVB,2012-01-12,8000.0
NVB,2012-01-13,7700.0
NVB,2012-01-16,8000.0
NVB,2012-01-17,7700.0
NVB,2012-01-18,8000.0
NVB,2012-01-19,8000.0
NVB,2012-01-20,8000.0
NVB,2012-01-30,8000.0
NVB,2012-01-31,8000.0
NVB,2012-02-01,7900.0
NVB,2012-02-02,7900.0
NVB,2012-02-03,7900.0
NVB,2012-02-06,8000.0
NVB,2012-02-07,8000.0
NVB,2012-02-08,7600.0
NVB,2012-02-09,8000.0
NVB,2012-02-10,8000.0
NVB,2012-02-13,7800.0
NVB,2012-02-14,8000.0
NVB,2012-02-15,8000.0
NVB,2012-02-16,8000.0
NVB,2012-02-17,7900.0
NVB,2012-02-20,7900.0
NVB,2012-02-21,8000.0
NVB,2012-02-22,8000.0
NVB,2012-02-23,7900.0
NVB,2012-02-24,8000.0
NVB,2012-02-27,7900.0
NVB,2012-02-28,7600.0
NVB,2012-02-29,8000.0
NVB,2012-03-01,8500.0
NVB,2012-03-02,8600.0
NVB,2012-03-05,9200.0
NVB,2012-03-06,9700.0
NVB,2012-03-07,9400.0
NVB,2012-03-08,8600.0
NVB,2012-03-09,8000.0
NVB,2012-03-12,7900.0
NVB,2012-03-13,8000.0
NVB,2012-03-14,8000.0
NVB,2012-03-15,8100.0
NVB,2012-03-16,8100.0
NVB,2012-03-19,7800.0
NVB,2012-03-20,8000.0
NVB,2012-03-21,8000.0
NVB,2012-03-22,7900.0
NVB,2012-03-23,8100.0
NVB,2012-03-26,8100.0
NVB,2012-03-27,8000.0
NVB,2012-03-28,8000.0
NVB,2012-03-29,7700.0
NVB,2012-03-30,8000.0
NVB,2012-04-03,8000.0
NVB,2012-04-04,7900.0
NVB,2012-04-05,8000.0
NVB,2012-04-06,8000.0
NVB,2012-04-09,8000.0
NVB,2012-04-10,7900.0
NVB,2012-04-11,8000.0
NVB,2012-04-12,7900.0
NVB,2012-04-13,8000.0
NVB,2012-04-16,8000.0
NVB,2012-04-17,8000.0
NVB,2012-04-18,7900.0
NVB,2012-04-19,8000.0
NVB,2012-04-20,7800.0
NVB,2012-04-23,8000.0
NVB,2012-04-24,8000.0
NVB,2012-04-25,8000.0
NVB,2012-04-26,7900.0
NVB,2012-04-27,8000.0
NVB,2012-05-02,8000.0
NVB,2012-05-03,8100.0
NVB,2012-05-04,8000.0
NVB,2012-05-07,7900.0
NVB,2012-05-08,8100.0
NVB,2012-05-09,8200.0
NVB,2012-05-10,8000.0
NVB,2012-05-11,8000.0
NVB,2012-05-14,7900.0
NVB,2012-05-15,8000.0
NVB,2012-05-16,7900.0
NVB,2012-05-17,8000.0
NVB,2012-05-18,7900.0
NVB,2012-05-21,8000.0
NVB,2012-05-22,8000.0
NVB,2012-05-23,8000.0
NVB,2012-05-24,8000.0
NVB,2012-05-25,8000.0
NVB,2012-05-28,7800.0
NVB,2012-05-29,8000.0
NVB,2012-05-30,8000.0
NVB,2012-05-31,8000.0
NVB,2012-06-01,8000.0
NVB,2012-06-04,8000.0
NVB,2012-06-05,8000.0
NVB,2012-06-06,8000.0
NVB,2012-06-07,8000.0
NVB,2012-06-08,8000.0
NVB,2012-06-11,8000.0
NVB,2012-06-12,8000.0
NVB,2012-06-13,8000.0
NVB,2012-06-14,8000.0
NVB,2012-06-15,8000.0
NVB,2012-06-18,7900.0
NVB,2012-06-19,8000.0
NVB,2012-06-20,8000.0
NVB,2012-06-21,8000.0
NVB,2012-06-22,8000.0
NVB,2012-06-25,7900.0
NVB,2012-06-26,8000.0
NVB,2012-06-27,7900.0
NVB,2012-06-28,7800.0
NVB,2012-06-29,8000.0
NVB,2012-07-02,8000.0
NVB,2012-07-03,7900.0
NVB,2012-07-04,8000.0
NVB,2012-07-05,8000.0
NVB,2012-07-06,8000.0
NVB,2012-07-09,8000.0
NVB,2012-07-10,8000.0
NVB,2012-07-11,8000.0
NVB,2012-07-12,8000.0
NVB,2012-07-13,8000.0
NVB,2012-07-16,8000.0
NVB,2012-07-17,8000.0
NVB,2012-07-18,8000.0
NVB,2012-07-19,8000.0
NVB,2012-07-20,8000.0
NVB,2012-07-23,7800.0
NVB,2012-07-24,8000.0
NVB,2012-07-25,8000.0
NVB,2012-07-26,8000.0
NVB,2012-07-27,8000.0
NVB,2012-07-30,8000.0
NVB,2012-07-31,8000.0
NVB,2012-08-01,8000.0
NVB,2012-08-02,8000.0
NVB,2012-08-03,8000.0
NVB,2012-08-06,8000.0
NVB,2012-08-07,8000.0
NVB,2012-08-08,8500.0
NVB,2012-08-09,8100.0
NVB,2012-08-10,8100.0
NVB,2012-08-13,8100.0
NVB,2012-08-14,8200.0
NVB,2012-08-15,8100.0
NVB,2012-08-16,8100.0
NVB,2012-08-17,8000.0
NVB,2012-08-20,8200.0
NVB,2012-08-21,8000.0
NVB,2012-08-22,8100.0
NVB,2012-08-23,8000.0
NVB,2012-08-24,8000.0
NVB,2012-08-27,8000.0
NVB,2012-08-28,8000.0
NVB,2012-08-29,8000.0
NVB,2012-08-30,8000.0
NVB,2012-08-31,8000.0
NVB,2012-09-04,8000.0
NVB,2012-09-05,8000.0
NVB,2012-09-06,8000.0
NVB,2012-09-07,8000.0
NVB,2012-09-10,7700.0
NVB,2012-09-11,7200.0
NVB,2012-09-12,7700.0
NVB,2012-09-13,8000.0
NVB,2012-09-14,8000.0
NVB,2012-09-17,7500.0
NVB,2012-09-18,7000.0
NVB,2012-09-19,7400.0
NVB,2012-09-20,7400.0
NVB,2012-09-21,7900.0
NVB,2012-09-24,7400.0
NVB,2012-09-25,7300.0
NVB,2012-09-26,7200.0
NVB,2012-09-27,7400.0
NVB,2012-09-28,7500.0
NVB,2012-10-01,7800.0
NVB,2012-10-02,7200.0
NVB,2012-10-03,6700.0
NVB,2012-10-04,7300.0
NVB,2012-10-05,7000.0
NVB,2012-10-08,7300.0
NVB,2012-10-09,7800.0
NVB,2012-10-10,7800.0
NVB,2012-10-11,7400.0
NVB,2012-10-12,7300.0
NVB,2012-10-15,7400.0
NVB,2012-10-16,7300.0
NVB,2012-10-17,7600.0
NVB,2012-10-18,7000.0
NVB,2012-10-19,6600.0
NVB,2012-10-22,7100.0
NVB,2012-10-23,7200.0
NVB,2012-10-24,7000.0
NVB,2012-10-25,7000.0
NVB,2012-10-26,7000.0
NVB,2012-10-29,7000.0
NVB,2012-10-30,7000.0
NVB,2012-10-31,7000.0
NVB,2012-11-01,6900.0
NVB,2012-11-02,7200.0
NVB,2012-11-05,6800.0
NVB,2012-11-06,6900.0
NVB,2012-11-07,7200.0
NVB,2012-11-08,7200.0
NVB,2012-11-09,7200.0
NVB,2012-11-12,7000.0
NVB,2012-11-13,7000.0
NVB,2012-11-14,7000.0
NVB,2012-11-15,6600.0
NVB,2012-11-16,6800.0
NVB,2012-11-19,6900.0
NVB,2012-11-20,7000.0
NVB,2012-11-21,7000.0
NVB,2012-11-22,6700.0
NVB,2012-11-23,6700.0
NVB,2012-11-26,6300.0
NVB,2012-11-27,6700.0
NVB,2012-11-28,6800.0
NVB,2012-11-29,6800.0
NVB,2012-11-30,6900.0
NVB,2012-12-03,6500.0
NVB,2012-12-04,6500.0
NVB,2012-12-05,6500.0
NVB,2012-12-06,6500.0
NVB,2012-12-07,6400.0
NVB,2012-12-10,6100.0
NVB,2012-12-11,6400.0
NVB,2012-12-12,6400.0
NVB,2012-12-13,6400.0
NVB,2012-12-14,6700.0
NVB,2012-12-17,6300.0
NVB,2012-12-18,6300.0
NVB,2012-12-19,6500.0
NVB,2012-12-20,6600.0
NVB,2012-12-21,6400.0
NVB,2012-12-24,6600.0
NVB,2012-12-25,6600.0
NVB,2012-12-26,6700.0
NVB,2012-12-27,6800.0
NVB,2012-12-28,7200.0
NVB,2013-01-02,7700.0
NVB,2013-01-03,7200.0
NVB,2013-01-04,6700.0
NVB,2013-01-07,7100.0
NVB,2013-01-08,6800.0
NVB,2013-01-09,6800.0
NVB,2013-01-10,6600.0
NVB,2013-01-11,6600.0
NVB,2013-01-14,6500.0
NVB,2013-01-15,7000.0
NVB,2013-01-16,7000.0
NVB,2013-01-17,7000.0
NVB,2013-01-18,7200.0
NVB,2013-01-21,7200.0
NVB,2013-01-22,7200.0
NVB,2013-01-23,7900.0
NVB,2013-01-24,7800.0
NVB,2013-01-25,7100.0
NVB,2013-01-28,6600.0
NVB,2013-01-29,7000.0
NVB,2013-01-30,7100.0
NVB,2013-01-31,7300.0
NVB,2013-02-01,7400.0
NVB,2013-02-04,7400.0
NVB,2013-02-05,7800.0
NVB,2013-02-06,7500.0
NVB,2013-02-07,7300.0
NVB,2013-02-08,7300.0
NVB,2013-02-18,7300.0
NVB,2013-02-19,7300.0
NVB,2013-02-20,7200.0
NVB,2013-02-21,7200.0
NVB,2013-02-22,7000.0
NVB,2013-02-25,7100.0
NVB,2013-02-26,7200.0
NVB,2013-02-27,7100.0
NVB,2013-02-28,7100.0
NVB,2013-03-01,7100.0
NVB,2013-03-04,7100.0
NVB,2013-03-05,6400.0
NVB,2013-03-06,7000.0
NVB,2013-03-07,6800.0
NVB,2013-03-08,6800.0
NVB,2013-03-11,6900.0
NVB,2013-03-12,7000.0
NVB,2013-03-13,7100.0
NVB,2013-03-14,7100.0
NVB,2013-03-15,7000.0
NVB,2013-03-18,7000.0
NVB,2013-03-19,6400.0
NVB,2013-03-20,6900.0
NVB,2013-03-21,6700.0
NVB,2013-03-22,6700.0
NVB,2013-03-25,6900.0
NVB,2013-03-26,7000.0
NVB,2013-03-27,6900.0
NVB,2013-03-28,7200.0
NVB,2013-03-29,6900.0
NVB,2013-04-01,6800.0
NVB,2013-04-02,6400.0
NVB,2013-04-03,7000.0
NVB,2013-04-04,6800.0
NVB,2013-04-05,7200.0
NVB,2013-04-08,7000.0
NVB,2013-04-09,7000.0
NVB,2013-04-10,7000.0
NVB,2013-04-11,6900.0
NVB,2013-04-12,6900.0
NVB,2013-04-15,6300.0
NVB,2013-04-16,6700.0
NVB,2013-04-17,6700.0
NVB,2013-04-18,6800.0
NVB,2013-04-22,6600.0
NVB,2013-04-23,6400.0
NVB,2013-04-24,6600.0
NVB,2013-04-25,6100.0
NVB,2013-04-26,6500.0
NVB,2013-05-02,6100.0
NVB,2013-05-03,6400.0
NVB,2013-05-06,6600.0
NVB,2013-05-07,7000.0
NVB,2013-05-08,7000.0
NVB,2013-05-09,7000.0
NVB,2013-05-10,6900.0
NVB,2013-05-13,7000.0
NVB,2013-05-14,6800.0
NVB,2013-05-15,7100.0
NVB,2013-05-16,7000.0
NVB,2013-05-17,7100.0
NVB,2013-05-20,7000.0
NVB,2013-05-21,7100.0
NVB,2013-05-22,6600.0
NVB,2013-05-23,6600.0
NVB,2013-05-24,7100.0
NVB,2013-05-27,7100.0
NVB,2013-05-28,7000.0
NVB,2013-05-29,7000.0
NVB,2013-05-30,7000.0
NVB,2013-05-31,6800.0
NVB,2013-06-03,7100.0
NVB,2013-06-04,7100.0
NVB,2013-06-05,7300.0
NVB,2013-06-06,7300.0
NVB,2013-06-07,7400.0
NVB,2013-06-10,7400.0
NVB,2013-06-11,7300.0
NVB,2013-06-12,7200.0
NVB,2013-06-13,7200.0
NVB,2013-06-14,7200.0
NVB,2013-06-17,7200.0
NVB,2013-06-18,7100.0
NVB,2013-06-19,6700.0
NVB,2013-06-20,7100.0
NVB,2013-06-21,7100.0
NVB,2013-06-24,7100.0
NVB,2013-06-25,7100.0
NVB,2013-06-26,6900.0
NVB,2013-06-27,7000.0
NVB,2013-06-28,7000.0
NVB,2013-07-01,6600.0
NVB,2013-07-02,7000.0
NVB,2013-07-03,7300.0
NVB,2013-07-04,7300.0
NVB,2013-07-05,6800.0
NVB,2013-07-08,7200.0
NVB,2013-07-09,7000.0
NVB,2013-07-10,7000.0
NVB,2013-07-11,7000.0
NVB,2013-07-12,7000.0
NVB,2013-07-15,7000.0
NVB,2013-07-16,6800.0
NVB,2013-07-17,6800.0
NVB,2013-07-18,6800.0
NVB,2013-07-19,6500.0
NVB,2013-07-22,6500.0
NVB,2013-07-23,6900.0
NVB,2013-07-24,6900.0
NVB,2013-07-25,6600.0
NVB,2013-07-26,6600.0
NVB,2013-07-29,6600.0
NVB,2013-07-30,6600.0
NVB,2013-07-31,6500.0
NVB,2013-08-01,6500.0
NVB,2013-08-02,6500.0
NVB,2013-08-05,5900.0
NVB,2013-08-06,6400.0
NVB,2013-08-07,6400.0
NVB,2013-08-08,6400.0
NVB,2013-08-09,6400.0
NVB,2013-08-12,6400.0
NVB,2013-08-13,6000.0
NVB,2013-08-14,6200.0
NVB,2013-08-15,6500.0
NVB,2013-08-16,6000.0
NVB,2013-08-19,6400.0
NVB,2013-08-20,6100.0
NVB,2013-08-21,6400.0
NVB,2013-08-22,6000.0
NVB,2013-08-23,6000.0
NVB,2013-08-26,5800.0
NVB,2013-08-27,6300.0
NVB,2013-08-28,6700.0
NVB,2013-08-29,6600.0
NVB,2013-08-30,7000.0
NVB,2013-09-03,7000.0
NVB,2013-09-04,7400.0
NVB,2013-09-05,7200.0
NVB,2013-09-06,6600.0
NVB,2013-09-09,7200.0
NVB,2013-09-10,7200.0
NVB,2013-09-11,7100.0
NVB,2013-09-12,6500.0
NVB,2013-09-13,6900.0
NVB,2013-09-16,7000.0
NVB,2013-09-17,7000.0
NVB,2013-09-18,6400.0
NVB,2013-09-19,6900.0
NVB,2013-09-20,6800.0
NVB,2013-09-23,7000.0
NVB,2013-09-24,6800.0
NVB,2013-09-25,7000.0
NVB,2013-09-26,7000.0
NVB,2013-09-27,7000.0
NVB,2013-09-30,7000.0
NVB,2013-10-01,7000.0
NVB,2013-10-02,6900.0
NVB,2013-10-03,6900.0
NVB,2013-10-04,6900.0
NVB,2013-10-07,6900.0
NVB,2013-10-08,6900.0
NVB,2013-10-09,6700.0
NVB,2013-10-10,6700.0
NVB,2013-10-11,6700.0
NVB,2013-10-14,6700.0
NVB,2013-10-15,6600.0
NVB,2013-10-16,6600.0
NVB,2013-10-17,6600.0
NVB,2013-10-18,6500.0
NVB,2013-10-21,6500.0
NVB,2013-10-22,6500.0
NVB,2013-10-23,6500.0
NVB,2013-10-24,6800.0
NVB,2013-10-25,6700.0
NVB,2013-10-28,6600.0
NVB,2013-10-29,6000.0
NVB,2013-10-30,6400.0
NVB,2013-10-31,5900.0
NVB,2013-11-01,6400.0
NVB,2013-11-04,6000.0
NVB,2013-11-05,6000.0
NVB,2013-11-06,6500.0
NVB,2013-11-07,6500.0
NVB,2013-11-08,6700.0
NVB,2013-11-11,6800.0
NVB,2013-11-12,6800.0
NVB,2013-11-13,6800.0
NVB,2013-11-14,6500.0
NVB,2013-11-15,6400.0
NVB,2013-11-18,6400.0
NVB,2013-11-19,6400.0
NVB,2013-11-20,6400.0
NVB,2013-11-21,6300.0
NVB,2013-11-22,6300.0
NVB,2013-11-25,6400.0
NVB,2013-11-26,6300.0
NVB,2013-11-27,6300.0
NVB,2013-11-28,6500.0
NVB,2013-11-29,6500.0
NVB,2013-12-02,6400.0
NVB,2013-12-03,6300.0
NVB,2013-12-04,6300.0
NVB,2013-12-05,6400.0
NVB,2013-12-06,6700.0
NVB,2013-12-09,6800.0
NVB,2013-12-10,7000.0
NVB,2013-12-11,7300.0
NVB,2013-12-12,7300.0
NVB,2013-12-13,7300.0
NVB,2013-12-16,7200.0
NVB,2013-12-17,7300.0
NVB,2013-12-18,7200.0
NVB,2013-12-19,7100.0
NVB,2013-12-20,7100.0
NVB,2013-12-23,7100.0
NVB,2013-12-24,6700.0
NVB,2013-12-25,6900.0
NVB,2013-12-26,7000.0
NVB,2013-12-27,6500.0
NVB,2013-12-30,6400.0
NVB,2013-12-31,7000.0
NVB,2014-01-02,7000.0
NVB,2014-01-03,6900.0
NVB,2014-01-06,7000.0
NVB,2014-01-07,7000.0
NVB,2014-01-08,7000.0
NVB,2014-01-09,6900.0
NVB,2014-01-10,6900.0
NVB,2014-01-13,7000.0
NVB,2014-01-14,7000.0
NVB,2014-01-15,7000.0
NVB,2014-01-16,7000.0
NVB,2014-01-17,7000.0
NVB,2014-01-20,7000.0
NVB,2014-01-21,7000.0
NVB,2014-01-22,7000.0
NVB,2014-01-23,7000.0
NVB,2014-01-24,7000.0
NVB,2014-01-27,7000.0
NVB,2014-02-06,7000.0
NVB,2014-02-07,6600.0
NVB,2014-02-10,7000.0
NVB,2014-02-11,7200.0
NVB,2014-02-12,6900.0
NVB,2014-02-13,7000.0
NVB,2014-02-14,7000.0
NVB,2014-02-17,6800.0
NVB,2014-02-18,6800.0
NVB,2014-02-19,6900.0
NVB,2014-02-20,6700.0
NVB,2014-02-21,6500.0
NVB,2014-02-24,6800.0
NVB,2014-02-25,6800.0
NVB,2014-02-26,6800.0
NVB,2014-02-27,6800.0
NVB,2014-02-28,6800.0
NVB,2014-03-03,6700.0
NVB,2014-03-04,6600.0
NVB,2014-03-05,6600.0
NVB,2014-03-06,6800.0
NVB,2014-03-07,6600.0
NVB,2014-03-10,6600.0
NVB,2014-03-11,6600.0
NVB,2014-03-12,6500.0
NVB,2014-03-13,6700.0
NVB,2014-03-14,6700.0
NVB,2014-03-17,7000.0
NVB,2014-03-18,6900.0
NVB,2014-03-19,6900.0
NVB,2014-03-20,6900.0
NVB,2014-03-21,7000.0
NVB,2014-03-24,7000.0
NVB,2014-03-25,7000.0
NVB,2014-03-26,6900.0
NVB,2014-03-27,7000.0
NVB,2014-03-28,6900.0
NVB,2014-03-31,6900.0
NVB,2014-04-01,6900.0
NVB,2014-04-02,6900.0
NVB,2014-04-03,6800.0
NVB,2014-04-04,6800.0
NVB,2014-04-07,6800.0
NVB,2014-04-08,6800.0
NVB,2014-04-10,6800.0
NVB,2014-04-11,6500.0
NVB,2014-04-14,6300.0
NVB,2014-04-15,6900.0
NVB,2014-04-16,6900.0
NVB,2014-04-17,6800.0
NVB,2014-04-18,6300.0
NVB,2014-04-21,6900.0
NVB,2014-04-22,6900.0
NVB,2014-04-23,6800.0
NVB,2014-04-24,6800.0
NVB,2014-04-25,6800.0
NVB,2014-04-28,6800.0
NVB,2014-04-29,7000.0
NVB,2014-05-05,6900.0
NVB,2014-05-06,6900.0
NVB,2014-05-07,6900.0
NVB,2014-05-08,6900.0
NVB,2014-05-09,7100.0
NVB,2014-05-12,7100.0
NVB,2014-05-13,7100.0
NVB,2014-05-14,7100.0
NVB,2014-05-15,7100.0
NVB,2014-05-16,7100.0
NVB,2014-05-19,6400.0
NVB,2014-05-20,6700.0
NVB,2014-05-21,6100.0
