ONE,2008-06-25,8700.0
ONE,2008-06-26,9100.0
ONE,2008-06-27,9000.0
ONE,2008-06-30,9000.0
ONE,2008-07-01,9000.0
ONE,2008-07-02,8600.0
ONE,2008-07-03,8300.0
ONE,2008-07-04,8000.0
ONE,2008-07-07,7700.0
ONE,2008-07-08,7600.0
ONE,2008-07-09,7600.0
ONE,2008-07-10,7300.0
ONE,2008-07-11,7000.0
ONE,2008-07-14,6800.0
ONE,2008-07-15,7000.0
ONE,2008-07-16,7000.0
ONE,2008-07-17,7200.0
ONE,2008-07-18,7000.0
ONE,2008-07-21,7000.0
ONE,2008-07-22,7000.0
ONE,2008-07-23,7000.0
ONE,2008-07-24,6700.0
ONE,2008-07-25,6500.0
ONE,2008-07-28,6200.0
ONE,2008-07-29,6000.0
ONE,2008-07-30,5800.0
ONE,2008-07-31,5600.0
ONE,2008-08-01,5400.0
ONE,2008-08-04,5600.0
ONE,2008-08-05,5700.0
ONE,2008-08-06,5900.0
ONE,2008-08-07,6100.0
ONE,2008-08-08,6400.0
ONE,2008-08-11,6600.0
ONE,2008-08-12,6900.0
ONE,2008-08-13,7100.0
ONE,2008-08-14,7400.0
ONE,2008-08-15,7600.0
ONE,2008-08-18,7200.0
ONE,2008-08-19,7000.0
ONE,2008-08-20,6400.0
ONE,2008-08-21,6800.0
ONE,2008-08-22,7000.0
ONE,2008-08-25,7400.0
ONE,2008-08-26,7800.0
ONE,2008-08-27,7800.0
ONE,2008-08-28,7700.0
ONE,2008-08-29,7700.0
ONE,2008-09-03,7800.0
ONE,2008-09-04,7800.0
ONE,2008-09-05,7400.0
ONE,2008-09-08,7600.0
ONE,2008-09-09,7900.0
ONE,2008-09-10,7800.0
ONE,2008-09-11,7500.0
ONE,2008-09-12,7100.0
ONE,2008-09-15,7100.0
ONE,2008-09-16,6700.0
ONE,2008-09-17,6200.0
ONE,2008-09-18,5800.0
ONE,2008-09-19,6200.0
ONE,2008-09-22,6600.0
ONE,2008-09-23,7000.0
ONE,2008-09-24,6900.0
ONE,2008-09-25,7300.0
ONE,2008-09-26,7100.0
ONE,2008-09-29,7100.0
ONE,2008-09-30,7100.0
ONE,2008-10-01,7100.0
ONE,2008-10-02,7000.0
ONE,2008-10-03,6700.0
ONE,2008-10-06,6800.0
ONE,2008-10-07,6800.0
ONE,2008-10-08,6400.0
ONE,2008-10-09,6000.0
ONE,2008-10-10,6300.0
ONE,2008-10-13,6600.0
ONE,2008-10-14,7000.0
ONE,2008-10-15,7000.0
ONE,2008-10-16,6600.0
ONE,2008-10-17,6600.0
ONE,2008-10-20,6100.0
ONE,2008-10-21,5800.0
ONE,2008-10-22,5500.0
ONE,2008-10-23,5100.0
ONE,2008-10-24,4800.0
ONE,2008-10-27,4400.0
ONE,2008-10-28,4200.0
ONE,2008-10-29,4400.0
ONE,2008-10-30,4700.0
ONE,2008-10-31,4600.0
ONE,2008-11-03,4700.0
ONE,2008-11-04,4800.0
ONE,2008-11-05,5100.0
ONE,2008-11-06,4900.0
ONE,2008-11-07,4600.0
ONE,2008-11-10,4600.0
ONE,2008-11-11,4300.0
ONE,2008-11-12,4500.0
ONE,2008-11-13,4200.0
ONE,2008-11-14,4400.0
ONE,2008-11-17,4100.0
ONE,2008-11-18,4100.0
ONE,2008-11-19,4000.0
ONE,2008-11-20,4000.0
ONE,2008-11-21,3800.0
ONE,2008-11-24,3800.0
ONE,2008-11-25,3600.0
ONE,2008-11-26,3600.0
ONE,2008-11-27,3700.0
ONE,2008-11-28,3700.0
ONE,2008-12-01,3700.0
ONE,2008-12-02,3700.0
ONE,2008-12-03,3500.0
ONE,2008-12-04,3700.0
ONE,2008-12-05,3500.0
ONE,2008-12-08,3500.0
ONE,2008-12-09,3500.0
ONE,2008-12-10,3300.0
ONE,2008-12-11,3500.0
ONE,2008-12-12,3700.0
ONE,2008-12-15,3700.0
ONE,2008-12-16,3500.0
ONE,2008-12-17,3700.0
ONE,2008-12-18,3500.0
ONE,2008-12-19,3500.0
ONE,2008-12-22,3300.0
ONE,2008-12-23,3500.0
ONE,2008-12-24,3200.0
ONE,2008-12-25,3300.0
ONE,2008-12-26,3200.0
ONE,2008-12-29,3100.0
ONE,2008-12-30,3200.0
ONE,2008-12-31,3200.0
ONE,2009-01-02,3300.0
ONE,2009-01-05,3400.0
ONE,2009-01-06,3500.0
ONE,2009-01-07,3600.0
ONE,2009-01-08,3500.0
ONE,2009-01-09,3700.0
ONE,2009-01-12,3500.0
ONE,2009-01-13,3600.0
ONE,2009-01-14,3500.0
ONE,2009-01-15,3700.0
ONE,2009-01-16,3700.0
ONE,2009-01-19,3900.0
ONE,2009-01-20,3900.0
ONE,2009-01-21,3900.0
ONE,2009-01-22,3700.0
ONE,2009-01-23,3700.0
ONE,2009-02-02,4000.0
ONE,2009-02-03,4200.0
ONE,2009-02-04,4400.0
ONE,2009-02-05,4700.0
ONE,2009-02-06,4900.0
ONE,2009-02-09,4600.0
ONE,2009-02-10,4400.0
ONE,2009-02-11,4200.0
ONE,2009-02-12,4200.0
ONE,2009-02-13,4000.0
ONE,2009-02-16,4100.0
ONE,2009-02-17,4200.0
ONE,2009-02-18,4100.0
ONE,2009-02-19,4000.0
ONE,2009-02-20,4000.0
ONE,2009-02-23,4000.0
ONE,2009-02-24,3700.0
ONE,2009-02-25,3800.0
ONE,2009-02-26,3900.0
ONE,2009-02-27,4000.0
ONE,2009-03-02,4000.0
ONE,2009-03-03,4100.0
ONE,2009-03-04,4000.0
ONE,2009-03-05,4100.0
ONE,2009-03-06,4300.0
ONE,2009-03-09,4500.0
ONE,2009-03-10,4500.0
ONE,2009-03-11,4600.0
ONE,2009-03-12,4400.0
ONE,2009-03-13,4300.0
ONE,2009-03-16,4300.0
ONE,2009-03-17,4400.0
ONE,2009-03-18,4700.0
ONE,2009-03-19,4400.0
ONE,2009-03-20,4400.0
ONE,2009-03-23,4500.0
ONE,2009-03-24,4600.0
ONE,2009-03-25,4600.0
ONE,2009-03-26,4400.0
ONE,2009-03-27,4400.0
ONE,2009-03-30,4400.0
ONE,2009-03-31,4400.0
ONE,2009-04-01,4600.0
ONE,2009-04-02,4700.0
ONE,2009-04-03,4900.0
ONE,2009-04-07,4800.0
ONE,2009-04-08,4600.0
ONE,2009-04-09,4800.0
ONE,2009-04-10,5100.0
ONE,2009-04-13,5400.0
ONE,2009-04-14,5800.0
ONE,2009-04-15,5800.0
ONE,2009-04-16,5500.0
ONE,2009-04-17,5200.0
ONE,2009-04-20,4900.0
ONE,2009-04-21,5300.0
ONE,2009-04-22,5500.0
ONE,2009-04-23,5200.0
ONE,2009-04-24,5300.0
ONE,2009-04-27,5700.0
ONE,2009-04-28,5500.0
ONE,2009-04-29,5700.0
ONE,2009-05-04,6000.0
ONE,2009-05-05,6300.0
ONE,2009-05-06,6000.0
ONE,2009-05-07,6300.0
ONE,2009-05-08,6300.0
ONE,2009-05-11,6200.0
ONE,2009-05-12,6400.0
ONE,2009-05-13,6700.0
ONE,2009-05-14,7100.0
ONE,2009-05-15,7400.0
ONE,2009-05-18,6900.0
ONE,2009-05-19,7000.0
ONE,2009-05-20,6700.0
ONE,2009-05-21,6900.0
ONE,2009-05-22,7300.0
ONE,2009-05-25,7600.0
ONE,2009-05-26,7700.0
ONE,2009-05-27,7500.0
ONE,2009-05-28,7100.0
ONE,2009-05-29,7400.0
ONE,2009-06-01,7800.0
ONE,2009-06-02,8000.0
ONE,2009-06-03,7800.0
ONE,2009-06-04,7800.0
ONE,2009-06-05,8300.0
ONE,2009-06-08,8900.0
ONE,2009-06-09,9400.0
ONE,2009-06-10,9000.0
ONE,2009-06-11,9300.0
ONE,2009-06-12,8900.0
ONE,2009-06-15,8700.0
ONE,2009-06-16,8100.0
ONE,2009-06-17,8000.0
ONE,2009-06-18,8200.0
ONE,2009-06-19,8700.0
ONE,2009-06-22,8200.0
ONE,2009-06-23,7800.0
ONE,2009-06-24,8300.0
ONE,2009-06-25,7800.0
ONE,2009-06-26,7900.0
ONE,2009-06-29,7700.0
ONE,2009-06-30,7300.0
ONE,2009-07-01,7000.0
ONE,2009-07-02,7000.0
ONE,2009-07-03,7400.0
ONE,2009-07-06,7700.0
ONE,2009-07-07,8100.0
ONE,2009-07-08,8700.0
ONE,2009-07-09,9000.0
ONE,2009-07-10,8300.0
ONE,2009-07-13,8600.0
ONE,2009-07-14,8500.0
ONE,2009-07-15,8200.0
ONE,2009-07-16,8200.0
ONE,2009-07-17,7800.0
ONE,2009-07-20,7600.0
ONE,2009-07-21,8000.0
ONE,2009-07-22,7900.0
ONE,2009-07-23,8000.0
ONE,2009-07-24,8400.0
ONE,2009-07-27,8500.0
ONE,2009-07-28,8100.0
ONE,2009-07-29,7700.0
ONE,2009-07-30,7400.0
ONE,2009-07-31,7800.0
ONE,2009-08-03,7800.0
ONE,2009-08-04,7600.0
ONE,2009-08-05,7500.0
ONE,2009-08-06,7400.0
ONE,2009-08-07,7200.0
ONE,2009-08-10,7400.0
ONE,2009-08-11,7600.0
ONE,2009-08-12,7500.0
ONE,2009-08-13,7500.0
ONE,2009-08-14,7400.0
ONE,2009-08-17,7400.0
ONE,2009-08-18,7600.0
ONE,2009-08-19,7600.0
ONE,2009-08-20,7500.0
ONE,2009-08-21,7500.0
ONE,2009-08-24,7500.0
ONE,2009-08-25,7500.0
ONE,2009-08-26,7500.0
ONE,2009-08-27,7900.0
ONE,2009-08-28,8100.0
ONE,2009-08-31,8100.0
ONE,2009-09-01,8000.0
ONE,2009-09-03,7700.0
ONE,2009-09-04,7500.0
ONE,2009-09-07,7600.0
ONE,2009-09-08,7700.0
ONE,2009-09-09,7700.0
ONE,2009-09-10,7800.0
ONE,2009-09-11,7700.0
ONE,2009-09-14,7700.0
ONE,2009-09-15,7700.0
ONE,2009-09-16,7800.0
ONE,2009-09-17,7700.0
ONE,2009-09-18,7800.0
ONE,2009-09-21,8200.0
ONE,2009-09-22,8800.0
ONE,2009-09-23,8800.0
ONE,2009-09-24,8600.0
ONE,2009-09-25,9000.0
ONE,2009-09-28,9100.0
ONE,2009-09-29,9000.0
ONE,2009-09-30,8700.0
ONE,2009-10-01,8900.0
ONE,2009-10-02,8300.0
ONE,2009-10-05,8200.0
ONE,2009-10-06,8300.0
ONE,2009-10-07,8600.0
ONE,2009-10-08,8700.0
ONE,2009-10-09,8800.0
ONE,2009-10-12,9400.0
ONE,2009-10-13,9400.0
ONE,2009-10-14,10200.0
ONE,2009-10-15,10300.0
ONE,2009-10-16,10000.0
ONE,2009-10-19,9700.0
ONE,2009-10-20,10400.0
ONE,2009-10-21,11100.0
ONE,2009-10-22,11700.0
ONE,2009-10-23,11500.0
ONE,2009-10-26,11200.0
ONE,2009-10-27,10600.0
ONE,2009-10-28,10000.0
ONE,2009-10-29,9500.0
ONE,2009-10-30,10100.0
ONE,2009-11-02,9300.0
ONE,2009-11-03,9600.0
ONE,2009-11-04,9500.0
ONE,2009-11-05,10200.0
ONE,2009-11-06,9800.0
ONE,2009-11-09,9500.0
ONE,2009-11-10,8900.0
ONE,2009-11-11,9400.0
ONE,2009-11-12,9300.0
ONE,2009-11-13,9200.0
ONE,2009-11-16,8900.0
ONE,2009-11-17,8600.0
ONE,2009-11-18,8800.0
ONE,2009-11-19,8600.0
ONE,2009-11-20,8900.0
ONE,2009-11-23,8500.0
ONE,2009-11-24,8500.0
ONE,2009-11-25,7900.0
ONE,2009-11-26,7400.0
ONE,2009-11-27,7300.0
ONE,2009-11-30,7500.0
ONE,2009-12-01,7800.0
ONE,2009-12-02,7400.0
ONE,2009-12-03,7600.0
ONE,2009-12-04,7900.0
ONE,2009-12-07,7900.0
ONE,2009-12-08,7400.0
ONE,2009-12-09,7100.0
ONE,2009-12-10,7300.0
ONE,2009-12-11,6800.0
ONE,2009-12-14,7100.0
ONE,2009-12-15,7000.0
ONE,2009-12-16,6700.0
ONE,2009-12-17,6800.0
ONE,2009-12-18,7300.0
ONE,2009-12-21,7600.0
ONE,2009-12-22,7300.0
ONE,2009-12-23,7600.0
ONE,2009-12-24,7800.0
ONE,2009-12-25,8100.0
ONE,2009-12-28,7600.0
ONE,2009-12-29,7200.0
ONE,2009-12-30,7700.0
ONE,2009-12-31,8100.0
ONE,2010-01-04,8600.0
ONE,2010-01-05,9000.0
ONE,2010-01-06,9000.0
ONE,2010-01-07,8900.0
ONE,2010-01-08,8500.0
ONE,2010-01-11,8200.0
ONE,2010-01-12,7900.0
ONE,2010-01-13,8400.0
ONE,2010-01-14,8200.0
ONE,2010-01-15,8500.0
ONE,2010-01-18,8100.0
ONE,2010-01-19,8300.0
ONE,2010-01-20,8100.0
ONE,2010-01-21,7700.0
ONE,2010-01-22,7800.0
ONE,2010-01-25,7600.0
ONE,2010-01-26,8200.0
ONE,2010-01-27,8600.0
ONE,2010-01-28,8500.0
ONE,2010-01-29,8300.0
ONE,2010-02-01,8600.0
ONE,2010-02-02,8200.0
ONE,2010-02-03,8500.0
ONE,2010-02-04,8500.0
ONE,2010-02-05,8100.0
ONE,2010-02-08,8200.0
ONE,2010-02-09,7800.0
ONE,2010-02-10,8300.0
ONE,2010-02-11,8200.0
ONE,2010-02-12,8200.0
ONE,2010-02-22,8400.0
ONE,2010-02-23,7900.0
ONE,2010-02-24,8100.0
ONE,2010-02-25,8100.0
ONE,2010-02-26,8200.0
ONE,2010-03-01,8200.0
ONE,2010-03-02,8200.0
ONE,2010-03-03,8300.0
ONE,2010-03-04,8200.0
ONE,2010-03-05,8300.0
ONE,2010-03-08,8400.0
ONE,2010-03-09,8900.0
ONE,2010-03-10,8600.0
ONE,2010-03-11,8700.0
ONE,2010-03-12,9300.0
ONE,2010-03-15,9700.0
ONE,2010-03-16,9300.0
ONE,2010-03-17,9200.0
ONE,2010-03-18,9200.0
ONE,2010-03-19,9100.0
ONE,2010-03-22,9000.0
ONE,2010-03-23,8800.0
ONE,2010-03-24,9300.0
ONE,2010-03-25,8700.0
ONE,2010-03-26,9100.0
ONE,2010-03-29,9200.0
ONE,2010-03-30,8900.0
ONE,2010-03-31,8700.0
ONE,2010-04-01,9000.0
ONE,2010-04-02,9000.0
ONE,2010-04-05,9100.0
ONE,2010-04-06,9000.0
ONE,2010-04-07,9400.0
ONE,2010-04-08,9400.0
ONE,2010-04-09,9500.0
ONE,2010-04-12,9500.0
ONE,2010-04-13,9300.0
ONE,2010-04-14,9700.0
ONE,2010-04-15,9900.0
ONE,2010-04-16,9800.0
ONE,2010-04-19,9700.0
ONE,2010-04-20,10400.0
ONE,2010-04-21,10900.0
ONE,2010-04-22,10500.0
ONE,2010-04-26,10700.0
ONE,2010-04-27,10300.0
ONE,2010-04-28,10700.0
ONE,2010-04-29,11000.0
ONE,2010-05-04,10800.0
ONE,2010-05-05,10400.0
ONE,2010-05-06,10500.0
ONE,2010-05-07,10000.0
ONE,2010-05-10,10200.0
ONE,2010-05-11,10400.0
ONE,2010-05-12,9700.0
ONE,2010-05-13,9800.0
ONE,2010-05-14,9200.0
ONE,2010-05-17,9300.0
ONE,2010-05-18,9600.0
ONE,2010-05-19,9000.0
ONE,2010-05-20,9200.0
ONE,2010-05-21,8200.0
ONE,2010-05-24,8500.0
ONE,2010-05-25,8500.0
ONE,2010-05-26,9000.0
ONE,2010-05-27,8800.0
ONE,2010-05-28,9200.0
ONE,2010-05-31,9200.0
ONE,2010-06-01,8800.0
ONE,2010-06-02,8700.0
ONE,2010-06-03,8800.0
ONE,2010-06-04,8900.0
ONE,2010-06-07,8300.0
ONE,2010-06-08,8600.0
ONE,2010-06-09,8400.0
ONE,2010-06-10,8400.0
ONE,2010-06-11,8500.0
ONE,2010-06-14,8800.0
ONE,2010-06-15,8700.0
ONE,2010-06-16,8800.0
ONE,2010-06-17,9000.0
ONE,2010-06-18,8900.0
ONE,2010-06-21,9500.0
ONE,2010-06-22,9800.0
ONE,2010-06-23,9700.0
ONE,2010-06-24,9600.0
ONE,2010-06-25,9300.0
ONE,2010-06-28,9200.0
ONE,2010-06-29,9200.0
ONE,2010-06-30,9200.0
ONE,2010-07-01,9100.0
ONE,2010-07-02,9300.0
ONE,2010-07-05,9300.0
ONE,2010-07-06,9200.0
ONE,2010-07-07,9200.0
ONE,2010-07-08,9100.0
ONE,2010-07-09,9000.0
ONE,2010-07-12,9100.0
ONE,2010-07-13,9500.0
ONE,2010-07-14,9300.0
ONE,2010-07-15,9200.0
ONE,2010-07-16,9300.0
ONE,2010-07-19,9900.0
ONE,2010-07-20,10500.0
ONE,2010-07-21,10100.0
ONE,2010-07-22,9600.0
ONE,2010-07-23,9300.0
ONE,2010-07-26,9100.0
ONE,2010-07-27,9000.0
ONE,2010-07-28,9000.0
ONE,2010-07-29,9100.0
ONE,2010-07-30,9000.0
ONE,2010-08-02,9000.0
ONE,2010-08-03,9100.0
ONE,2010-08-04,8800.0
ONE,2010-08-05,8700.0
ONE,2010-08-06,8500.0
ONE,2010-08-09,8200.0
ONE,2010-08-10,7900.0
ONE,2010-08-11,7800.0
ONE,2010-08-12,7400.0
ONE,2010-08-13,7700.0
ONE,2010-08-16,8100.0
ONE,2010-08-17,8000.0
ONE,2010-08-18,7500.0
ONE,2010-08-19,7600.0
ONE,2010-08-20,7400.0
ONE,2010-08-23,7100.0
ONE,2010-08-24,6800.0
ONE,2010-08-25,6600.0
ONE,2010-08-26,6600.0
ONE,2010-08-27,6600.0
ONE,2010-08-30,6900.0
ONE,2010-08-31,7100.0
ONE,2010-09-01,7300.0
ONE,2010-09-06,7600.0
ONE,2010-09-07,7500.0
ONE,2010-09-08,7400.0
ONE,2010-09-09,7400.0
ONE,2010-09-10,7300.0
ONE,2010-09-13,6600.0
ONE,2010-09-14,7000.0
ONE,2010-09-15,6900.0
ONE,2010-09-16,6900.0
ONE,2010-09-17,7200.0
ONE,2010-09-20,7100.0
ONE,2010-09-21,7000.0
ONE,2010-09-22,7000.0
ONE,2010-09-23,6900.0
ONE,2010-09-24,6900.0
ONE,2010-09-27,7100.0
ONE,2010-09-28,7100.0
ONE,2010-09-29,7000.0
ONE,2010-09-30,6900.0
ONE,2010-10-01,6900.0
ONE,2010-10-04,6600.0
ONE,2010-10-05,6900.0
ONE,2010-10-06,6900.0
ONE,2010-10-07,7000.0
ONE,2010-10-08,6800.0
ONE,2010-10-11,7300.0
ONE,2010-10-12,7300.0
ONE,2010-10-13,7200.0
ONE,2010-10-14,6900.0
ONE,2010-10-15,6800.0
ONE,2010-10-18,6600.0
ONE,2010-10-19,6400.0
ONE,2010-10-20,6000.0
ONE,2010-10-21,6100.0
ONE,2010-10-22,6400.0
ONE,2010-10-25,6700.0
ONE,2010-10-26,6700.0
ONE,2010-10-27,6400.0
ONE,2010-10-28,6600.0
ONE,2010-10-29,6500.0
ONE,2010-11-01,6400.0
ONE,2010-11-02,6300.0
ONE,2010-11-03,6400.0
ONE,2010-11-04,6400.0
ONE,2010-11-05,6600.0
ONE,2010-11-08,6400.0
ONE,2010-11-09,6300.0
ONE,2010-11-10,6400.0
ONE,2010-11-11,6400.0
ONE,2010-11-12,6200.0
ONE,2010-11-15,6000.0
ONE,2010-11-16,5900.0
ONE,2010-11-17,5800.0
ONE,2010-11-18,5900.0
ONE,2010-11-19,6100.0
ONE,2010-11-22,5900.0
ONE,2010-11-23,6100.0
ONE,2010-11-24,6000.0
ONE,2010-11-25,6000.0
ONE,2010-11-26,6200.0
ONE,2010-11-29,6400.0
ONE,2010-11-30,6500.0
ONE,2010-12-01,6200.0
ONE,2010-12-02,6600.0
ONE,2010-12-03,6700.0
ONE,2010-12-06,6600.0
ONE,2010-12-07,6400.0
ONE,2010-12-08,6400.0
ONE,2010-12-09,6600.0
ONE,2010-12-10,6700.0
ONE,2010-12-13,6900.0
ONE,2010-12-14,6400.0
ONE,2010-12-15,6400.0
ONE,2010-12-16,6200.0
ONE,2010-12-17,6400.0
ONE,2010-12-20,6200.0
ONE,2010-12-21,6400.0
ONE,2010-12-22,6200.0
ONE,2010-12-23,6200.0
ONE,2010-12-24,6200.0
ONE,2010-12-27,6200.0
ONE,2010-12-28,6200.0
ONE,2010-12-29,6200.0
ONE,2010-12-30,6400.0
ONE,2010-12-31,6500.0
ONE,2011-01-04,6300.0
ONE,2011-01-05,6200.0
ONE,2011-01-06,6300.0
ONE,2011-01-07,6500.0
ONE,2011-01-10,6400.0
ONE,2011-01-11,6400.0
ONE,2011-01-12,6500.0
ONE,2011-01-13,6600.0
ONE,2011-01-14,6500.0
ONE,2011-01-17,6700.0
ONE,2011-01-18,6700.0
ONE,2011-01-19,6700.0
ONE,2011-01-20,6400.0
ONE,2011-01-21,6900.0
ONE,2011-01-24,6900.0
ONE,2011-01-25,7000.0
ONE,2011-01-26,6900.0
ONE,2011-01-27,6700.0
ONE,2011-01-28,7100.0
ONE,2011-02-08,7500.0
ONE,2011-02-09,7400.0
ONE,2011-02-10,7600.0
ONE,2011-02-11,7100.0
ONE,2011-02-14,6600.0
ONE,2011-02-15,6600.0
ONE,2011-02-16,6600.0
ONE,2011-02-17,6200.0
ONE,2011-02-18,6700.0
ONE,2011-02-21,6300.0
ONE,2011-02-22,6000.0
ONE,2011-02-23,6100.0
ONE,2011-02-24,6100.0
ONE,2011-02-25,6300.0
ONE,2011-02-28,6400.0
ONE,2011-03-01,6000.0
ONE,2011-03-02,6200.0
ONE,2011-03-03,5800.0
ONE,2011-03-04,6100.0
ONE,2011-03-07,6300.0
ONE,2011-03-08,5900.0
ONE,2011-03-09,6100.0
ONE,2011-03-10,6200.0
ONE,2011-03-11,6400.0
ONE,2011-03-14,6000.0
ONE,2011-03-15,6100.0
ONE,2011-03-16,6200.0
ONE,2011-03-17,6300.0
ONE,2011-03-18,6400.0
ONE,2011-03-21,6400.0
ONE,2011-03-22,6600.0
ONE,2011-03-23,6700.0
ONE,2011-03-24,6700.0
ONE,2011-03-25,6200.0
ONE,2011-03-28,5800.0
ONE,2011-03-29,6200.0
ONE,2011-03-30,6100.0
ONE,2011-03-31,6200.0
ONE,2011-04-01,6200.0
ONE,2011-04-04,6200.0
ONE,2011-04-05,6100.0
ONE,2011-04-06,5800.0
ONE,2011-04-07,5800.0
ONE,2011-04-08,5700.0
ONE,2011-04-13,5500.0
ONE,2011-04-14,5600.0
ONE,2011-04-15,5300.0
ONE,2011-04-18,5400.0
ONE,2011-04-19,5100.0
ONE,2011-04-20,5100.0
ONE,2011-04-21,5500.0
ONE,2011-04-22,5700.0
ONE,2011-04-25,6000.0
ONE,2011-04-26,5800.0
ONE,2011-04-27,5500.0
ONE,2011-04-28,5100.0
ONE,2011-04-29,5000.0
ONE,2011-05-04,5100.0
ONE,2011-05-05,5300.0
ONE,2011-05-06,5300.0
ONE,2011-05-09,5600.0
ONE,2011-05-10,5400.0
ONE,2011-05-11,5300.0
ONE,2011-05-12,5300.0
ONE,2011-05-13,5300.0
ONE,2011-05-16,5200.0
ONE,2011-05-17,5300.0
ONE,2011-05-18,5100.0
ONE,2011-05-19,5000.0
ONE,2011-05-20,5000.0
ONE,2011-05-23,5000.0
ONE,2011-05-24,4700.0
ONE,2011-05-25,4500.0
ONE,2011-05-26,4400.0
ONE,2011-05-27,4500.0
ONE,2011-05-30,4700.0
ONE,2011-05-31,4400.0
ONE,2011-06-01,4600.0
ONE,2011-06-02,4800.0
ONE,2011-06-03,4900.0
ONE,2011-06-06,4600.0
ONE,2011-06-07,4900.0
ONE,2011-06-08,4800.0
ONE,2011-06-09,5100.0
ONE,2011-06-10,5100.0
ONE,2011-06-13,5300.0
ONE,2011-06-14,5200.0
ONE,2011-06-15,4900.0
ONE,2011-06-16,5100.0
ONE,2011-06-17,4800.0
ONE,2011-06-20,4800.0
ONE,2011-06-21,5100.0
ONE,2011-06-22,5100.0
ONE,2011-06-23,4900.0
ONE,2011-06-24,5100.0
ONE,2011-06-27,5100.0
ONE,2011-06-28,4900.0
ONE,2011-06-29,4900.0
ONE,2011-06-30,5100.0
ONE,2011-07-01,4800.0
ONE,2011-07-04,4900.0
ONE,2011-07-05,5000.0
ONE,2011-07-06,4900.0
ONE,2011-07-07,4800.0
ONE,2011-07-08,4800.0
ONE,2011-07-11,4700.0
ONE,2011-07-12,4700.0
ONE,2011-07-13,4900.0
ONE,2011-07-14,4900.0
ONE,2011-07-15,4900.0
ONE,2011-07-18,4700.0
ONE,2011-07-19,5000.0
ONE,2011-07-20,4800.0
ONE,2011-07-21,4800.0
ONE,2011-07-22,4600.0
ONE,2011-07-25,4600.0
ONE,2011-07-26,4900.0
ONE,2011-07-27,4200.0
ONE,2011-07-28,4200.0
ONE,2011-07-29,4200.0
ONE,2011-08-01,4000.0
ONE,2011-08-02,4200.0
ONE,2011-08-03,4000.0
ONE,2011-08-04,4200.0
ONE,2011-08-05,4400.0
ONE,2011-08-08,4500.0
ONE,2011-08-09,4200.0
ONE,2011-08-10,4400.0
ONE,2011-08-11,4300.0
ONE,2011-08-12,4400.0
ONE,2011-08-15,4100.0
ONE,2011-08-16,4100.0
ONE,2011-08-17,4200.0
ONE,2011-08-18,4300.0
ONE,2011-08-19,4200.0
ONE,2011-08-22,4200.0
ONE,2011-08-23,4200.0
ONE,2011-08-24,4300.0
ONE,2011-08-25,4200.0
ONE,2011-08-26,4200.0
ONE,2011-08-29,4400.0
ONE,2011-08-30,4400.0
ONE,2011-08-31,4500.0
ONE,2011-09-01,4500.0
ONE,2011-09-05,4500.0
ONE,2011-09-06,4200.0
ONE,2011-09-07,4700.0
ONE,2011-09-08,4700.0
ONE,2011-09-09,4600.0
ONE,2011-09-12,4800.0
ONE,2011-09-13,5100.0
ONE,2011-09-14,4800.0
ONE,2011-09-15,5100.0
ONE,2011-09-16,5100.0
ONE,2011-09-19,4600.0
ONE,2011-09-20,4400.0
ONE,2011-09-21,4700.0
ONE,2011-09-22,4800.0
ONE,2011-09-23,4500.0
ONE,2011-09-26,4500.0
ONE,2011-09-27,4500.0
ONE,2011-09-28,4500.0
ONE,2011-09-29,4500.0
ONE,2011-09-30,4300.0
ONE,2011-10-03,4300.0
ONE,2011-10-04,4400.0
ONE,2011-10-05,4700.0
ONE,2011-10-06,4500.0
ONE,2011-10-07,4400.0
ONE,2011-10-10,4200.0
ONE,2011-10-11,4400.0
ONE,2011-10-12,4400.0
ONE,2011-10-13,4300.0
ONE,2011-10-14,4300.0
ONE,2011-10-17,4300.0
ONE,2011-10-18,4200.0
ONE,2011-10-19,4200.0
ONE,2011-10-20,4100.0
ONE,2011-10-21,4100.0
ONE,2011-10-24,4000.0
ONE,2011-10-25,4000.0
ONE,2011-10-26,4000.0
ONE,2011-10-27,4200.0
ONE,2011-10-28,4200.0
ONE,2011-10-31,4200.0
ONE,2011-11-01,4000.0
ONE,2011-11-02,3900.0
ONE,2011-11-03,4000.0
ONE,2011-11-04,4000.0
ONE,2011-11-07,4200.0
ONE,2011-11-08,4100.0
ONE,2011-11-09,4100.0
ONE,2011-11-10,4000.0
ONE,2011-11-11,4100.0
ONE,2011-11-14,4100.0
ONE,2011-11-15,4000.0
ONE,2011-11-16,4200.0
ONE,2011-11-17,4200.0
ONE,2011-11-18,4200.0
ONE,2011-11-21,4000.0
ONE,2011-11-22,4000.0
ONE,2011-11-23,4100.0
ONE,2011-11-24,4200.0
ONE,2011-11-25,4100.0
ONE,2011-11-28,4100.0
ONE,2011-11-29,4000.0
ONE,2011-11-30,4000.0
ONE,2011-12-01,4000.0
ONE,2011-12-02,3700.0
ONE,2011-12-05,4000.0
ONE,2011-12-06,3800.0
ONE,2011-12-07,4000.0
ONE,2011-12-08,4200.0
ONE,2011-12-09,4000.0
ONE,2011-12-12,4200.0
ONE,2011-12-13,4700.0
ONE,2011-12-14,4700.0
ONE,2011-12-15,4700.0
ONE,2011-12-16,4400.0
ONE,2011-12-19,4400.0
ONE,2011-12-20,4400.0
ONE,2011-12-21,4100.0
ONE,2011-12-22,3900.0
ONE,2011-12-23,3700.0
ONE,2011-12-26,3600.0
ONE,2011-12-27,3600.0
ONE,2011-12-28,3400.0
ONE,2011-12-29,3500.0
ONE,2011-12-30,3700.0
ONE,2012-01-03,3900.0
ONE,2012-01-04,4000.0
ONE,2012-01-05,4200.0
ONE,2012-01-06,4200.0
ONE,2012-01-09,4200.0
ONE,2012-01-10,4400.0
ONE,2012-01-11,4400.0
ONE,2012-01-12,4100.0
ONE,2012-01-13,3900.0
ONE,2012-01-16,4000.0
ONE,2012-01-17,4000.0
ONE,2012-01-18,4200.0
ONE,2012-01-19,4400.0
ONE,2012-01-20,4100.0
ONE,2012-01-30,4300.0
ONE,2012-01-31,4600.0
ONE,2012-02-01,4700.0
ONE,2012-02-02,4700.0
ONE,2012-02-03,4400.0
ONE,2012-02-06,4400.0
ONE,2012-02-07,4500.0
ONE,2012-02-08,4700.0
ONE,2012-02-09,4400.0
ONE,2012-02-10,4500.0
ONE,2012-02-13,4000.0
ONE,2012-02-14,4200.0
ONE,2012-02-15,4200.0
ONE,2012-02-16,4200.0
ONE,2012-02-17,4200.0
ONE,2012-02-20,4500.0
ONE,2012-02-21,4200.0
ONE,2012-02-22,4500.0
ONE,2012-02-23,4200.0
ONE,2012-02-24,4200.0
ONE,2012-02-27,4300.0
ONE,2012-02-28,4200.0
ONE,2012-02-29,4400.0
ONE,2012-03-01,4400.0
ONE,2012-03-02,4500.0
ONE,2012-03-05,4800.0
ONE,2012-03-06,5000.0
ONE,2012-03-07,4800.0
ONE,2012-03-08,4700.0
ONE,2012-03-09,4500.0
ONE,2012-03-12,4500.0
ONE,2012-03-13,4800.0
ONE,2012-03-14,5100.0
ONE,2012-03-15,5300.0
ONE,2012-03-16,5200.0
ONE,2012-03-19,5100.0
ONE,2012-03-20,5100.0
ONE,2012-03-21,5100.0
ONE,2012-03-22,4900.0
ONE,2012-03-23,4800.0
ONE,2012-03-26,5100.0
ONE,2012-03-27,4900.0
ONE,2012-03-28,5100.0
ONE,2012-03-29,5000.0
ONE,2012-03-30,5100.0
ONE,2012-04-03,5100.0
ONE,2012-04-04,4900.0
ONE,2012-04-05,5000.0
ONE,2012-04-06,5100.0
ONE,2012-04-09,5100.0
ONE,2012-04-10,5000.0
ONE,2012-04-11,5100.0
ONE,2012-04-12,5100.0
ONE,2012-04-13,5100.0
ONE,2012-04-16,5100.0
ONE,2012-04-17,5300.0
ONE,2012-04-18,5500.0
ONE,2012-04-19,5300.0
ONE,2012-04-20,5500.0
ONE,2012-04-23,5700.0
ONE,2012-04-24,5600.0
ONE,2012-04-25,5600.0
ONE,2012-04-26,5600.0
ONE,2012-04-27,5600.0
ONE,2012-05-02,5800.0
ONE,2012-05-03,5700.0
ONE,2012-05-04,5900.0
ONE,2012-05-07,6300.0
ONE,2012-05-08,6200.0
ONE,2012-05-09,6300.0
ONE,2012-05-10,6300.0
ONE,2012-05-11,6000.0
ONE,2012-05-14,6000.0
ONE,2012-05-15,5600.0
ONE,2012-05-16,5600.0
ONE,2012-05-17,5400.0
ONE,2012-05-18,5500.0
ONE,2012-05-21,5800.0
ONE,2012-05-22,6000.0
ONE,2012-05-23,6000.0
ONE,2012-05-24,5600.0
ONE,2012-05-25,5900.0
ONE,2012-05-28,5500.0
ONE,2012-05-29,5300.0
ONE,2012-05-30,5700.0
ONE,2012-05-31,5400.0
ONE,2012-06-01,5600.0
ONE,2012-06-04,5500.0
ONE,2012-06-05,5600.0
ONE,2012-06-06,5800.0
ONE,2012-06-07,5700.0
ONE,2012-06-08,5600.0
ONE,2012-06-11,5700.0
ONE,2012-06-12,5700.0
ONE,2012-06-13,5600.0
ONE,2012-06-14,5600.0
ONE,2012-06-15,5700.0
ONE,2012-06-18,5600.0
ONE,2012-06-19,5500.0
ONE,2012-06-20,5400.0
ONE,2012-06-21,5400.0
ONE,2012-06-22,5300.0
ONE,2012-06-25,5300.0
ONE,2012-06-26,5100.0
ONE,2012-06-27,5400.0
ONE,2012-06-28,5100.0
ONE,2012-06-29,5200.0
ONE,2012-07-02,5200.0
ONE,2012-07-03,5300.0
ONE,2012-07-04,5000.0
ONE,2012-07-05,5000.0
ONE,2012-07-06,5100.0
ONE,2012-07-09,4800.0
ONE,2012-07-10,5100.0
ONE,2012-07-11,4900.0
ONE,2012-07-12,5000.0
ONE,2012-07-13,5100.0
ONE,2012-07-16,5100.0
ONE,2012-07-17,5100.0
ONE,2012-07-18,5100.0
ONE,2012-07-19,5100.0
ONE,2012-07-20,5100.0
ONE,2012-07-23,5100.0
ONE,2012-07-24,5100.0
ONE,2012-07-25,5100.0
ONE,2012-07-26,5100.0
ONE,2012-07-27,4900.0
ONE,2012-07-30,5100.0
ONE,2012-07-31,5100.0
ONE,2012-08-01,5100.0
ONE,2012-08-02,5100.0
ONE,2012-08-03,5100.0
ONE,2012-08-06,5200.0
ONE,2012-08-07,5200.0
ONE,2012-08-08,5200.0
ONE,2012-08-09,5200.0
ONE,2012-08-10,5300.0
ONE,2012-08-13,5100.0
ONE,2012-08-14,5200.0
ONE,2012-08-15,5100.0
ONE,2012-08-16,5200.0
ONE,2012-08-17,5200.0
ONE,2012-08-20,5300.0
ONE,2012-08-21,5100.0
ONE,2012-08-22,5100.0
ONE,2012-08-23,4800.0
ONE,2012-08-24,5000.0
ONE,2012-08-27,4800.0
ONE,2012-08-28,4900.0
ONE,2012-08-29,4900.0
ONE,2012-08-30,5000.0
ONE,2012-08-31,5000.0
ONE,2012-09-04,4900.0
ONE,2012-09-05,4900.0
ONE,2012-09-06,4600.0
ONE,2012-09-07,4800.0
ONE,2012-09-10,4800.0
ONE,2012-09-11,4600.0
ONE,2012-09-12,4600.0
ONE,2012-09-13,4800.0
ONE,2012-09-14,4900.0
ONE,2012-09-17,4700.0
ONE,2012-09-18,4800.0
ONE,2012-09-19,4600.0
ONE,2012-09-20,4400.0
ONE,2012-09-21,4600.0
ONE,2012-09-24,4600.0
ONE,2012-09-25,4500.0
ONE,2012-09-26,4500.0
ONE,2012-09-27,4600.0
ONE,2012-09-28,4400.0
ONE,2012-10-01,4200.0
ONE,2012-10-02,4300.0
ONE,2012-10-03,4200.0
ONE,2012-10-04,4400.0
ONE,2012-10-05,4400.0
ONE,2012-10-08,4400.0
ONE,2012-10-09,4300.0
ONE,2012-10-10,4500.0
ONE,2012-10-11,4400.0
ONE,2012-10-12,4400.0
ONE,2012-10-15,4400.0
ONE,2012-10-16,4500.0
ONE,2012-10-17,4500.0
ONE,2012-10-18,4400.0
ONE,2012-10-19,4600.0
ONE,2012-10-22,4600.0
ONE,2012-10-23,4600.0
ONE,2012-10-24,4700.0
ONE,2012-10-25,4500.0
ONE,2012-10-26,4500.0
ONE,2012-10-29,4700.0
ONE,2012-10-30,4700.0
ONE,2012-10-31,4700.0
ONE,2012-11-01,4700.0
ONE,2012-11-02,4500.0
ONE,2012-11-05,4600.0
ONE,2012-11-06,4700.0
ONE,2012-11-07,4700.0
ONE,2012-11-08,4700.0
ONE,2012-11-09,4700.0
ONE,2012-11-12,4800.0
ONE,2012-11-13,4800.0
ONE,2012-11-14,4900.0
ONE,2012-11-15,5000.0
ONE,2012-11-16,4900.0
ONE,2012-11-19,5100.0
ONE,2012-11-20,5000.0
ONE,2012-11-21,5000.0
ONE,2012-11-22,5100.0
ONE,2012-11-23,5300.0
ONE,2012-11-26,5300.0
ONE,2012-11-27,5200.0
ONE,2012-11-28,5300.0
ONE,2012-11-29,5200.0
ONE,2012-11-30,5200.0
ONE,2012-12-03,5200.0
ONE,2012-12-04,5300.0
ONE,2012-12-05,5300.0
ONE,2012-12-06,5300.0
ONE,2012-12-07,5300.0
ONE,2012-12-10,5300.0
ONE,2012-12-11,5500.0
ONE,2012-12-12,5500.0
ONE,2012-12-13,5500.0
ONE,2012-12-14,5500.0
ONE,2012-12-17,5500.0
ONE,2012-12-18,5600.0
ONE,2012-12-19,5600.0
ONE,2012-12-20,5600.0
ONE,2012-12-21,5500.0
ONE,2012-12-24,5500.0
ONE,2012-12-25,5500.0
ONE,2012-12-26,5600.0
ONE,2012-12-27,5800.0
ONE,2012-12-28,5900.0
ONE,2013-01-02,5900.0
ONE,2013-01-03,5800.0
ONE,2013-01-04,5800.0
ONE,2013-01-07,5800.0
ONE,2013-01-08,5800.0
ONE,2013-01-09,5800.0
ONE,2013-01-10,5700.0
ONE,2013-01-11,5800.0
ONE,2013-01-14,5800.0
ONE,2013-01-15,5800.0
ONE,2013-01-16,5900.0
ONE,2013-01-17,5900.0
ONE,2013-01-18,5900.0
ONE,2013-01-21,6100.0
ONE,2013-01-22,6100.0
ONE,2013-01-23,6100.0
ONE,2013-01-24,6100.0
ONE,2013-01-25,5900.0
ONE,2013-01-28,6000.0
ONE,2013-01-29,5900.0
ONE,2013-01-30,5700.0
ONE,2013-01-31,5900.0
ONE,2013-02-01,5900.0
ONE,2013-02-04,5900.0
ONE,2013-02-05,5900.0
ONE,2013-02-06,6000.0
ONE,2013-02-07,5600.0
ONE,2013-02-08,5900.0
ONE,2013-02-18,5900.0
ONE,2013-02-19,5900.0
ONE,2013-02-20,5900.0
ONE,2013-02-21,5300.0
ONE,2013-02-22,5700.0
ONE,2013-02-25,5700.0
ONE,2013-02-26,5600.0
ONE,2013-02-27,5700.0
ONE,2013-02-28,5700.0
ONE,2013-03-01,5800.0
ONE,2013-03-04,5500.0
ONE,2013-03-05,5500.0
ONE,2013-03-06,5600.0
ONE,2013-03-07,5600.0
ONE,2013-03-08,5700.0
ONE,2013-03-11,5900.0
ONE,2013-03-12,5900.0
ONE,2013-03-13,5500.0
ONE,2013-03-14,5500.0
ONE,2013-03-15,5700.0
ONE,2013-03-18,5700.0
ONE,2013-03-19,5400.0
ONE,2013-03-20,5400.0
ONE,2013-03-21,5300.0
ONE,2013-03-22,5400.0
ONE,2013-03-25,5300.0
ONE,2013-03-26,5300.0
ONE,2013-03-27,5600.0
ONE,2013-03-28,5600.0
ONE,2013-03-29,5300.0
ONE,2013-04-01,5400.0
ONE,2013-04-02,5300.0
ONE,2013-04-03,5400.0
ONE,2013-04-04,5300.0
ONE,2013-04-05,5800.0
ONE,2013-04-08,5500.0
ONE,2013-04-09,5500.0
ONE,2013-04-10,5600.0
ONE,2013-04-11,5600.0
ONE,2013-04-12,5300.0
ONE,2013-04-15,5700.0
ONE,2013-04-16,5700.0
ONE,2013-04-17,5700.0
ONE,2013-04-18,5500.0
ONE,2013-04-22,5500.0
ONE,2013-04-23,5500.0
ONE,2013-04-24,5800.0
ONE,2013-04-25,5600.0
ONE,2013-04-26,5600.0
ONE,2013-05-02,5600.0
ONE,2013-05-03,5900.0
ONE,2013-05-06,5900.0
ONE,2013-05-07,5900.0
ONE,2013-05-08,5900.0
ONE,2013-05-09,5900.0
ONE,2013-05-10,6000.0
ONE,2013-05-13,6000.0
ONE,2013-05-14,6000.0
ONE,2013-05-15,6000.0
ONE,2013-05-16,5900.0
ONE,2013-05-17,5900.0
ONE,2013-05-20,5900.0
ONE,2013-05-21,5800.0
ONE,2013-05-22,5700.0
ONE,2013-05-23,5600.0
ONE,2013-05-24,5600.0
ONE,2013-05-27,5700.0
ONE,2013-05-28,5900.0
ONE,2013-05-29,5800.0
ONE,2013-05-30,5900.0
ONE,2013-05-31,5900.0
ONE,2013-06-03,5700.0
ONE,2013-06-04,5900.0
ONE,2013-06-05,5900.0
ONE,2013-06-06,5900.0
ONE,2013-06-07,5900.0
ONE,2013-06-10,5900.0
ONE,2013-06-11,5900.0
ONE,2013-06-12,5900.0
ONE,2013-06-13,5900.0
ONE,2013-06-14,5900.0
ONE,2013-06-17,5700.0
ONE,2013-06-18,5700.0
ONE,2013-06-19,5700.0
ONE,2013-06-20,5900.0
ONE,2013-06-21,5900.0
ONE,2013-06-24,5500.0
ONE,2013-06-25,5500.0
ONE,2013-06-26,5500.0
ONE,2013-06-27,5900.0
ONE,2013-06-28,5900.0
ONE,2013-07-01,5900.0
ONE,2013-07-02,6300.0
ONE,2013-07-03,6300.0
ONE,2013-07-04,5900.0
ONE,2013-07-05,5900.0
ONE,2013-07-08,5900.0
ONE,2013-07-09,5900.0
ONE,2013-07-10,5900.0
ONE,2013-07-11,5700.0
ONE,2013-07-12,5700.0
ONE,2013-07-15,5900.0
ONE,2013-07-16,5900.0
ONE,2013-07-17,5900.0
ONE,2013-07-18,5900.0
ONE,2013-07-19,5900.0
ONE,2013-07-22,5900.0
ONE,2013-07-23,5500.0
ONE,2013-07-24,5700.0
ONE,2013-07-25,5600.0
ONE,2013-07-26,5800.0
ONE,2013-07-29,5800.0
ONE,2013-07-30,5800.0
ONE,2013-07-31,5800.0
ONE,2013-08-01,5800.0
ONE,2013-08-02,5800.0
ONE,2013-08-05,5900.0
ONE,2013-08-06,5800.0
ONE,2013-08-07,5800.0
ONE,2013-08-08,5800.0
ONE,2013-08-09,5900.0
ONE,2013-08-12,5900.0
ONE,2013-08-13,5900.0
ONE,2013-08-14,5900.0
ONE,2013-08-15,5900.0
ONE,2013-08-16,5900.0
ONE,2013-08-19,5900.0
ONE,2013-08-20,5800.0
ONE,2013-08-21,5800.0
ONE,2013-08-22,5900.0
ONE,2013-08-23,5900.0
ONE,2013-08-26,5800.0
ONE,2013-08-27,5800.0
ONE,2013-08-28,5700.0
ONE,2013-08-29,5700.0
ONE,2013-08-30,5700.0
ONE,2013-09-03,5700.0
ONE,2013-09-04,5700.0
ONE,2013-09-05,5300.0
ONE,2013-09-06,5700.0
ONE,2013-09-09,5700.0
ONE,2013-09-10,5700.0
ONE,2013-09-11,5700.0
ONE,2013-09-12,5600.0
ONE,2013-09-13,5700.0
ONE,2013-09-16,5700.0
ONE,2013-09-17,5700.0
ONE,2013-09-18,5700.0
ONE,2013-09-19,5700.0
ONE,2013-09-20,5700.0
ONE,2013-09-23,5700.0
ONE,2013-09-24,5700.0
ONE,2013-09-25,6100.0
ONE,2013-09-26,6100.0
ONE,2013-09-27,6100.0
ONE,2013-09-30,6100.0
ONE,2013-10-01,6100.0
ONE,2013-10-02,5600.0
ONE,2013-10-03,5600.0
ONE,2013-10-04,5600.0
ONE,2013-10-07,5600.0
ONE,2013-10-08,5600.0
ONE,2013-10-09,5600.0
ONE,2013-10-10,5600.0
ONE,2013-10-11,5600.0
ONE,2013-10-14,5600.0
ONE,2013-10-15,5500.0
ONE,2013-10-16,5500.0
ONE,2013-10-17,5600.0
ONE,2013-10-18,5600.0
ONE,2013-10-21,5600.0
ONE,2013-10-22,5600.0
ONE,2013-10-23,5600.0
ONE,2013-10-24,5600.0
ONE,2013-10-25,5500.0
ONE,2013-10-28,5500.0
ONE,2013-10-29,5500.0
ONE,2013-10-30,5600.0
ONE,2013-10-31,5700.0
ONE,2013-11-01,5600.0
ONE,2013-11-04,5900.0
ONE,2013-11-05,5700.0
ONE,2013-11-06,5900.0
ONE,2013-11-07,5900.0
ONE,2013-11-08,5900.0
ONE,2013-11-11,5900.0
ONE,2013-11-12,5900.0
ONE,2013-11-13,5900.0
ONE,2013-11-14,6000.0
ONE,2013-11-15,6000.0
ONE,2013-11-18,6000.0
ONE,2013-11-19,5900.0
ONE,2013-11-20,6100.0
ONE,2013-11-21,6400.0
ONE,2013-11-22,6200.0
ONE,2013-11-25,6200.0
ONE,2013-11-26,6300.0
ONE,2013-11-27,6500.0
ONE,2013-11-28,6500.0
ONE,2013-11-29,6500.0
ONE,2013-12-02,6300.0
ONE,2013-12-03,6500.0
ONE,2013-12-04,6300.0
ONE,2013-12-05,6400.0
ONE,2013-12-06,6400.0
ONE,2013-12-09,6400.0
ONE,2013-12-10,6400.0
ONE,2013-12-11,6300.0
ONE,2013-12-12,6400.0
ONE,2013-12-13,6300.0
ONE,2013-12-16,6500.0
ONE,2013-12-17,6500.0
ONE,2013-12-18,6500.0
ONE,2013-12-19,6400.0
ONE,2013-12-20,6300.0
ONE,2013-12-23,6300.0
ONE,2013-12-24,6600.0
ONE,2013-12-25,6500.0
ONE,2013-12-26,6600.0
ONE,2013-12-27,6500.0
ONE,2013-12-30,6100.0
ONE,2013-12-31,6400.0
ONE,2014-01-02,6400.0
ONE,2014-01-03,6500.0
ONE,2014-01-06,6500.0
ONE,2014-01-07,6600.0
ONE,2014-01-08,6600.0
ONE,2014-01-09,6600.0
ONE,2014-01-10,6600.0
ONE,2014-01-13,6600.0
ONE,2014-01-14,6600.0
ONE,2014-01-15,6700.0
ONE,2014-01-16,6700.0
ONE,2014-01-17,6700.0
ONE,2014-01-20,6700.0
ONE,2014-01-21,6900.0
ONE,2014-01-22,6800.0
ONE,2014-01-23,7000.0
ONE,2014-01-24,7200.0
ONE,2014-01-27,7600.0
ONE,2014-02-06,7600.0
ONE,2014-02-07,7600.0
ONE,2014-02-10,7500.0
ONE,2014-02-11,7700.0
ONE,2014-02-12,7600.0
ONE,2014-02-13,7500.0
ONE,2014-02-14,7700.0
ONE,2014-02-17,7700.0
ONE,2014-02-18,7700.0
ONE,2014-02-19,7800.0
ONE,2014-02-20,7600.0
ONE,2014-02-21,7900.0
ONE,2014-02-24,7900.0
ONE,2014-02-25,8100.0
ONE,2014-02-26,8100.0
ONE,2014-02-27,8100.0
ONE,2014-02-28,8000.0
ONE,2014-03-03,8000.0
ONE,2014-03-04,8000.0
ONE,2014-03-05,8200.0
ONE,2014-03-06,8600.0
ONE,2014-03-07,8600.0
ONE,2014-03-10,8600.0
ONE,2014-03-11,8600.0
ONE,2014-03-12,8500.0
ONE,2014-03-13,8500.0
ONE,2014-03-14,8200.0
ONE,2014-03-17,8500.0
ONE,2014-03-18,8600.0
ONE,2014-03-19,8700.0
ONE,2014-03-20,8300.0
ONE,2014-03-21,8500.0
ONE,2014-03-24,8600.0
ONE,2014-03-25,8700.0
ONE,2014-03-26,8600.0
ONE,2014-03-27,8500.0
ONE,2014-03-28,8500.0
ONE,2014-03-31,8200.0
ONE,2014-04-01,8100.0
ONE,2014-04-02,8000.0
ONE,2014-04-03,8100.0
ONE,2014-04-04,8000.0
ONE,2014-04-07,8200.0
ONE,2014-04-08,8200.0
ONE,2014-04-10,8200.0
ONE,2014-04-11,8100.0
ONE,2014-04-14,8100.0
ONE,2014-04-15,8100.0
ONE,2014-04-16,8000.0
ONE,2014-04-17,8200.0
ONE,2014-04-18,8100.0
ONE,2014-04-21,8100.0
ONE,2014-04-22,8100.0
ONE,2014-04-23,8300.0
ONE,2014-04-24,8300.0
ONE,2014-04-25,8300.0
ONE,2014-04-28,8200.0
ONE,2014-04-29,8000.0
ONE,2014-05-05,8200.0
ONE,2014-05-06,8000.0
ONE,2014-05-07,8000.0
ONE,2014-05-08,7700.0
ONE,2014-05-09,8100.0
ONE,2014-05-12,7700.0
ONE,2014-05-13,7300.0
ONE,2014-05-14,7600.0
ONE,2014-05-15,7600.0
ONE,2014-05-16,7500.0
ONE,2014-05-19,7500.0
ONE,2014-05-20,7300.0
ONE,2014-05-21,7400.0
