PPP,2010-06-03,8100.0
PPP,2010-06-04,7800.0
PPP,2010-06-07,7700.0
PPP,2010-06-08,7800.0
PPP,2010-06-09,8500.0
PPP,2010-06-10,9300.0
PPP,2010-06-11,9300.0
PPP,2010-06-14,8300.0
PPP,2010-06-15,8100.0
PPP,2010-06-16,7500.0
PPP,2010-06-17,8200.0
PPP,2010-06-18,9000.0
PPP,2010-06-21,9800.0
PPP,2010-06-22,9800.0
PPP,2010-06-23,10400.0
PPP,2010-06-24,10700.0
PPP,2010-06-25,10200.0
PPP,2010-06-28,10700.0
PPP,2010-06-29,10700.0
PPP,2010-06-30,10000.0
PPP,2010-07-01,10700.0
PPP,2010-07-02,11600.0
PPP,2010-07-05,12700.0
PPP,2010-07-06,14000.0
PPP,2010-07-07,12600.0
PPP,2010-07-08,11600.0
PPP,2010-07-09,12700.0
PPP,2010-07-12,13100.0
PPP,2010-07-13,13400.0
PPP,2010-07-14,12700.0
PPP,2010-07-15,12800.0
PPP,2010-07-16,12700.0
PPP,2010-07-19,12400.0
PPP,2010-07-20,12000.0
PPP,2010-07-21,11900.0
PPP,2010-07-22,11000.0
PPP,2010-07-23,11800.0
PPP,2010-07-26,11700.0
PPP,2010-07-27,11700.0
PPP,2010-07-28,11000.0
PPP,2010-07-29,11100.0
PPP,2010-07-30,10700.0
PPP,2010-08-02,10700.0
PPP,2010-08-03,11200.0
PPP,2010-08-04,9400.0
PPP,2010-08-05,9400.0
PPP,2010-08-06,9600.0
PPP,2010-08-09,10400.0
PPP,2010-08-10,9300.0
PPP,2010-08-11,8700.0
PPP,2010-08-12,8500.0
PPP,2010-08-13,8600.0
PPP,2010-08-16,9500.0
PPP,2010-08-17,9400.0
PPP,2010-08-18,8800.0
PPP,2010-08-19,8800.0
PPP,2010-08-20,8700.0
PPP,2010-08-23,8500.0
PPP,2010-08-24,8400.0
PPP,2010-08-25,7600.0
PPP,2010-08-26,7800.0
PPP,2010-08-27,7500.0
PPP,2010-08-30,8100.0
PPP,2010-08-31,8400.0
PPP,2010-09-01,9000.0
PPP,2010-09-06,9400.0
PPP,2010-09-07,9300.0
PPP,2010-09-08,9400.0
PPP,2010-09-09,9000.0
PPP,2010-09-10,8000.0
PPP,2010-09-13,8100.0
PPP,2010-09-14,8400.0
PPP,2010-09-15,8300.0
PPP,2010-09-16,8300.0
PPP,2010-09-17,8800.0
PPP,2010-09-20,8400.0
PPP,2010-09-21,8800.0
PPP,2010-09-22,8300.0
PPP,2010-09-23,8300.0
PPP,2010-09-24,8300.0
PPP,2010-09-27,8100.0
PPP,2010-09-28,7900.0
PPP,2010-09-29,8300.0
PPP,2010-09-30,8300.0
PPP,2010-10-01,8300.0
PPP,2010-10-04,8300.0
PPP,2010-10-05,8300.0
PPP,2010-10-06,8400.0
PPP,2010-10-07,7800.0
PPP,2010-10-08,8700.0
PPP,2010-10-11,8700.0
PPP,2010-10-12,7800.0
PPP,2010-10-13,7800.0
PPP,2010-10-14,7700.0
PPP,2010-10-15,7400.0
PPP,2010-10-18,7300.0
PPP,2010-10-19,7300.0
PPP,2010-10-20,7100.0
PPP,2010-10-21,6900.0
PPP,2010-10-22,7500.0
PPP,2010-10-25,7500.0
PPP,2010-10-26,8000.0
PPP,2010-10-27,7900.0
PPP,2010-10-28,7400.0
PPP,2010-10-29,7400.0
PPP,2010-11-01,7400.0
PPP,2010-11-02,7500.0
PPP,2010-11-03,6800.0
PPP,2010-11-04,6900.0
PPP,2010-11-05,6900.0
PPP,2010-11-08,6900.0
PPP,2010-11-09,6900.0
PPP,2010-11-10,6800.0
PPP,2010-11-11,6500.0
PPP,2010-11-12,6100.0
PPP,2010-11-15,6400.0
PPP,2010-11-16,5700.0
PPP,2010-11-17,5800.0
PPP,2010-11-18,6300.0
PPP,2010-11-19,6900.0
PPP,2010-11-22,6100.0
PPP,2010-11-23,6100.0
PPP,2010-11-24,6400.0
PPP,2010-11-25,6800.0
PPP,2010-11-26,6500.0
PPP,2010-11-29,6800.0
PPP,2010-11-30,6800.0
PPP,2010-12-01,6100.0
PPP,2010-12-02,6500.0
PPP,2010-12-03,7100.0
PPP,2010-12-06,7700.0
PPP,2010-12-07,7300.0
PPP,2010-12-08,7100.0
PPP,2010-12-09,7800.0
PPP,2010-12-10,7800.0
PPP,2010-12-13,7700.0
PPP,2010-12-14,7300.0
PPP,2010-12-15,7300.0
PPP,2010-12-16,6500.0
PPP,2010-12-17,7100.0
PPP,2010-12-20,7100.0
PPP,2010-12-21,6900.0
PPP,2010-12-22,7100.0
PPP,2010-12-23,7600.0
PPP,2010-12-24,7900.0
PPP,2010-12-27,7900.0
PPP,2010-12-28,7400.0
PPP,2010-12-29,7100.0
PPP,2010-12-30,7700.0
PPP,2010-12-31,7700.0
PPP,2011-01-04,8000.0
PPP,2011-01-05,8000.0
PPP,2011-01-06,8000.0
PPP,2011-01-07,7700.0
PPP,2011-01-10,7800.0
PPP,2011-01-11,8100.0
PPP,2011-01-12,8700.0
PPP,2011-01-13,8400.0
PPP,2011-01-14,8500.0
PPP,2011-01-17,7800.0
PPP,2011-01-18,7900.0
PPP,2011-01-19,8400.0
PPP,2011-01-20,8000.0
PPP,2011-01-21,8400.0
PPP,2011-01-24,8400.0
PPP,2011-01-25,8400.0
PPP,2011-01-26,8400.0
PPP,2011-01-27,8400.0
PPP,2011-01-28,8700.0
PPP,2011-02-08,8700.0
PPP,2011-02-09,8100.0
PPP,2011-02-10,7300.0
PPP,2011-02-11,6900.0
PPP,2011-02-14,7700.0
PPP,2011-02-15,7700.0
PPP,2011-02-16,7400.0
PPP,2011-02-17,7300.0
PPP,2011-02-18,7700.0
PPP,2011-02-21,6900.0
PPP,2011-02-22,7400.0
PPP,2011-02-23,6500.0
PPP,2011-02-24,6300.0
PPP,2011-02-25,6900.0
PPP,2011-02-28,6900.0
PPP,2011-03-01,7200.0
PPP,2011-03-02,6600.0
PPP,2011-03-03,6600.0
PPP,2011-03-04,7100.0
PPP,2011-03-07,6300.0
PPP,2011-03-08,6900.0
PPP,2011-03-09,7100.0
PPP,2011-03-10,6400.0
PPP,2011-03-11,6500.0
PPP,2011-03-14,6800.0
PPP,2011-03-15,7300.0
PPP,2011-03-16,7100.0
PPP,2011-03-17,6400.0
PPP,2011-03-18,5800.0
PPP,2011-03-21,5400.0
PPP,2011-03-22,4800.0
PPP,2011-03-23,5300.0
PPP,2011-03-24,5200.0
PPP,2011-03-25,5500.0
PPP,2011-03-28,5900.0
PPP,2011-03-29,5500.0
PPP,2011-03-30,5100.0
PPP,2011-03-31,5500.0
PPP,2011-04-01,5500.0
PPP,2011-04-04,4900.0
PPP,2011-04-05,4600.0
PPP,2011-04-06,4800.0
PPP,2011-04-07,5100.0
PPP,2011-04-08,5400.0
PPP,2011-04-13,5400.0
PPP,2011-04-14,5400.0
PPP,2011-04-15,5400.0
PPP,2011-04-18,4800.0
PPP,2011-04-19,5300.0
PPP,2011-04-20,5600.0
PPP,2011-04-21,5300.0
PPP,2011-04-22,5300.0
PPP,2011-04-25,5100.0
PPP,2011-04-26,5100.0
PPP,2011-04-27,5200.0
PPP,2011-04-28,4800.0
PPP,2011-04-29,5300.0
PPP,2011-05-04,5500.0
PPP,2011-05-05,5500.0
PPP,2011-05-06,5500.0
PPP,2011-05-09,5500.0
PPP,2011-05-10,5000.0
PPP,2011-05-11,5100.0
PPP,2011-05-12,5200.0
PPP,2011-05-13,4800.0
PPP,2011-05-16,4500.0
PPP,2011-05-17,4800.0
PPP,2011-05-18,4600.0
PPP,2011-05-19,5000.0
PPP,2011-05-20,4600.0
PPP,2011-05-23,4100.0
PPP,2011-05-24,4100.0
PPP,2011-05-25,4500.0
PPP,2011-05-26,4600.0
PPP,2011-05-27,5100.0
PPP,2011-05-30,5500.0
PPP,2011-05-31,5400.0
PPP,2011-06-01,5700.0
PPP,2011-06-02,5700.0
PPP,2011-06-03,5200.0
PPP,2011-06-06,5000.0
PPP,2011-06-07,5400.0
PPP,2011-06-08,5500.0
PPP,2011-06-09,5900.0
PPP,2011-06-10,6400.0
PPP,2011-06-13,6500.0
PPP,2011-06-14,6100.0
PPP,2011-06-15,5400.0
PPP,2011-06-16,5300.0
PPP,2011-06-17,5700.0
PPP,2011-06-20,5200.0
PPP,2011-06-21,5200.0
PPP,2011-06-22,5600.0
PPP,2011-06-23,5200.0
PPP,2011-06-24,5900.0
PPP,2011-06-27,6000.0
PPP,2011-06-28,5500.0
PPP,2011-06-29,5900.0
PPP,2011-06-30,5800.0
PPP,2011-07-01,6000.0
PPP,2011-07-04,6100.0
PPP,2011-07-05,6100.0
PPP,2011-07-06,6300.0
PPP,2011-07-07,6200.0
PPP,2011-07-08,6600.0
PPP,2011-07-18,8100.0
PPP,2011-07-19,7500.0
PPP,2011-07-20,7100.0
PPP,2011-07-21,6600.0
PPP,2011-07-22,6100.0
PPP,2011-07-25,6100.0
PPP,2011-07-26,5800.0
PPP,2011-07-27,5700.0
PPP,2011-07-28,5500.0
PPP,2011-07-29,5200.0
PPP,2011-08-01,5000.0
PPP,2011-08-02,5000.0
PPP,2011-08-03,4700.0
PPP,2011-08-04,4500.0
PPP,2011-08-05,4800.0
PPP,2011-08-08,5100.0
PPP,2011-08-09,4800.0
PPP,2011-08-10,4500.0
PPP,2011-08-11,4800.0
PPP,2011-08-12,4800.0
PPP,2011-08-15,4500.0
PPP,2011-08-16,4800.0
PPP,2011-08-17,5000.0
PPP,2011-08-18,5100.0
PPP,2011-08-19,5300.0
PPP,2011-08-22,5000.0
PPP,2011-08-23,4700.0
PPP,2011-08-24,4900.0
PPP,2011-08-25,4800.0
PPP,2011-08-26,4800.0
PPP,2011-08-29,4900.0
PPP,2011-08-30,4800.0
PPP,2011-08-31,5000.0
PPP,2011-09-01,4700.0
PPP,2011-09-05,4700.0
PPP,2011-09-06,4800.0
PPP,2011-09-07,5100.0
PPP,2011-09-08,4800.0
PPP,2011-09-09,4800.0
PPP,2011-09-12,4600.0
PPP,2011-09-13,5100.0
PPP,2011-09-14,5400.0
PPP,2011-09-15,5400.0
PPP,2011-09-16,4900.0
PPP,2011-09-19,4900.0
PPP,2011-09-20,4800.0
PPP,2011-09-21,5100.0
PPP,2011-09-22,5400.0
PPP,2011-09-23,5700.0
PPP,2011-09-26,5300.0
PPP,2011-09-27,5300.0
PPP,2011-09-28,5500.0
PPP,2011-09-29,5500.0
PPP,2011-09-30,5100.0
PPP,2011-10-03,5500.0
PPP,2011-10-04,5500.0
PPP,2011-10-05,5100.0
PPP,2011-10-06,5100.0
PPP,2011-10-07,5400.0
PPP,2011-10-10,5000.0
PPP,2011-10-11,5100.0
PPP,2011-10-12,5400.0
PPP,2011-10-13,5100.0
PPP,2011-10-14,5500.0
PPP,2011-10-17,5100.0
PPP,2011-10-18,4800.0
PPP,2011-10-19,4700.0
PPP,2011-10-20,4500.0
PPP,2011-10-21,4800.0
PPP,2011-10-24,5000.0
PPP,2011-10-25,5000.0
PPP,2011-10-26,5200.0
PPP,2011-10-27,5100.0
PPP,2011-10-28,5200.0
PPP,2011-10-31,5000.0
PPP,2011-11-01,5000.0
PPP,2011-11-02,4700.0
PPP,2011-11-03,4700.0
PPP,2011-11-04,5000.0
PPP,2011-11-07,4900.0
PPP,2011-11-08,4900.0
PPP,2011-11-09,5000.0
PPP,2011-11-10,5000.0
PPP,2011-11-11,5100.0
PPP,2011-11-14,5100.0
PPP,2011-11-15,5100.0
PPP,2011-11-16,5100.0
PPP,2011-11-17,4700.0
PPP,2011-11-18,4800.0
PPP,2011-11-21,4500.0
PPP,2011-11-22,4500.0
PPP,2011-11-23,4800.0
PPP,2011-11-24,5000.0
PPP,2011-11-25,5000.0
PPP,2011-11-28,4900.0
PPP,2011-11-29,4900.0
PPP,2011-11-30,4800.0
PPP,2011-12-01,5000.0
PPP,2011-12-02,5000.0
PPP,2011-12-05,5300.0
PPP,2011-12-06,5500.0
PPP,2011-12-07,5400.0
PPP,2011-12-08,5700.0
PPP,2011-12-09,5700.0
PPP,2011-12-12,5300.0
PPP,2011-12-13,5500.0
PPP,2011-12-14,5400.0
PPP,2011-12-15,5300.0
PPP,2011-12-16,5500.0
PPP,2011-12-19,5300.0
PPP,2011-12-20,5300.0
PPP,2011-12-21,5300.0
PPP,2011-12-22,5600.0
PPP,2011-12-23,5200.0
PPP,2011-12-26,5000.0
PPP,2011-12-27,5300.0
PPP,2011-12-28,5600.0
PPP,2011-12-29,5300.0
PPP,2011-12-30,5300.0
PPP,2012-01-03,5600.0
PPP,2012-01-04,5200.0
PPP,2012-01-05,5100.0
PPP,2012-01-06,5100.0
PPP,2012-01-09,5400.0
PPP,2012-01-10,5100.0
PPP,2012-01-11,5400.0
PPP,2012-01-12,5400.0
PPP,2012-01-13,5100.0
PPP,2012-01-16,5100.0
PPP,2012-01-17,4800.0
PPP,2012-01-18,4800.0
PPP,2012-01-19,4800.0
PPP,2012-01-20,4500.0
PPP,2012-01-30,4500.0
PPP,2012-01-31,4600.0
PPP,2012-02-01,4900.0
PPP,2012-02-02,5000.0
PPP,2012-02-03,5000.0
PPP,2012-02-06,5300.0
PPP,2012-02-07,5100.0
PPP,2012-02-08,5400.0
PPP,2012-02-09,5300.0
PPP,2012-02-10,5600.0
PPP,2012-02-13,5500.0
PPP,2012-02-14,5700.0
PPP,2012-02-15,5800.0
PPP,2012-02-16,6100.0
PPP,2012-02-17,6100.0
PPP,2012-02-20,6400.0
PPP,2012-02-21,6600.0
PPP,2012-02-22,7000.0
PPP,2012-02-23,7100.0
PPP,2012-02-24,7100.0
PPP,2012-02-27,6600.0
PPP,2012-02-28,6100.0
PPP,2012-02-29,6400.0
PPP,2012-03-01,5800.0
PPP,2012-03-02,5500.0
PPP,2012-03-05,5800.0
PPP,2012-03-06,6100.0
PPP,2012-03-07,6100.0
PPP,2012-03-08,6400.0
PPP,2012-03-09,6700.0
PPP,2012-03-12,6900.0
PPP,2012-03-13,7400.0
PPP,2012-03-14,6900.0
PPP,2012-03-15,6900.0
PPP,2012-03-16,6900.0
PPP,2012-03-19,7100.0
PPP,2012-03-20,7400.0
PPP,2012-03-21,7000.0
PPP,2012-03-22,6500.0
PPP,2012-03-23,6200.0
PPP,2012-03-26,6600.0
PPP,2012-03-27,6100.0
PPP,2012-03-28,6400.0
PPP,2012-03-29,6400.0
PPP,2012-03-30,6100.0
PPP,2012-04-03,6100.0
PPP,2012-04-04,6100.0
PPP,2012-04-05,6400.0
PPP,2012-04-06,6400.0
PPP,2012-04-09,6400.0
PPP,2012-04-10,6100.0
PPP,2012-04-11,6100.0
PPP,2012-04-12,6100.0
PPP,2012-04-13,6100.0
PPP,2012-04-16,6100.0
PPP,2012-04-17,6100.0
PPP,2012-04-18,6100.0
PPP,2012-04-19,6100.0
PPP,2012-04-20,6400.0
PPP,2012-04-23,6400.0
PPP,2012-04-24,6400.0
PPP,2012-04-25,6400.0
PPP,2012-04-26,6400.0
PPP,2012-04-27,6400.0
PPP,2012-05-02,6400.0
PPP,2012-05-03,6400.0
PPP,2012-05-04,6400.0
PPP,2012-05-07,6400.0
PPP,2012-05-08,6800.0
PPP,2012-05-09,6900.0
PPP,2012-05-10,7100.0
PPP,2012-05-11,7100.0
PPP,2012-05-14,6600.0
PPP,2012-05-15,6600.0
PPP,2012-05-16,6100.0
PPP,2012-05-17,6100.0
PPP,2012-05-18,6100.0
PPP,2012-05-21,6100.0
PPP,2012-05-22,6100.0
PPP,2012-05-23,6400.0
PPP,2012-05-24,6400.0
PPP,2012-05-25,6400.0
PPP,2012-05-28,6400.0
PPP,2012-05-29,6400.0
PPP,2012-05-30,6500.0
PPP,2012-05-31,6500.0
PPP,2012-06-01,6500.0
PPP,2012-06-04,6500.0
PPP,2012-06-05,6900.0
PPP,2012-06-06,7100.0
PPP,2012-06-07,7100.0
PPP,2012-06-08,7100.0
PPP,2012-06-11,7100.0
PPP,2012-06-12,7100.0
PPP,2012-06-13,7100.0
PPP,2012-06-14,7600.0
PPP,2012-06-15,7600.0
PPP,2012-06-18,7100.0
PPP,2012-06-19,7100.0
PPP,2012-06-20,7100.0
PPP,2012-06-21,7100.0
PPP,2012-06-22,7100.0
PPP,2012-06-25,7300.0
PPP,2012-06-26,7300.0
PPP,2012-06-27,7100.0
PPP,2012-06-28,6900.0
PPP,2012-06-29,6700.0
PPP,2012-07-02,6700.0
PPP,2012-07-03,6700.0
PPP,2012-07-04,6700.0
PPP,2012-07-05,6700.0
PPP,2012-07-06,6700.0
PPP,2012-07-09,6700.0
PPP,2012-07-10,6700.0
PPP,2012-07-11,6700.0
PPP,2012-07-12,6700.0
PPP,2012-07-13,6700.0
PPP,2012-07-16,6500.0
PPP,2012-07-17,6500.0
PPP,2012-07-18,6500.0
PPP,2012-07-19,6500.0
PPP,2012-07-20,6500.0
PPP,2012-07-23,6600.0
PPP,2012-07-24,6600.0
PPP,2012-07-25,6600.0
PPP,2012-07-26,6500.0
PPP,2012-07-27,6500.0
PPP,2012-07-30,6500.0
PPP,2012-07-31,6700.0
PPP,2012-08-01,6700.0
PPP,2012-08-02,6500.0
PPP,2012-08-03,6500.0
PPP,2012-08-06,6500.0
PPP,2012-08-07,6500.0
PPP,2012-08-08,6500.0
PPP,2012-08-09,6500.0
PPP,2012-08-10,6500.0
PPP,2012-08-13,6900.0
PPP,2012-08-14,6500.0
PPP,2012-08-15,6500.0
PPP,2012-08-16,6500.0
PPP,2012-08-17,6400.0
PPP,2012-08-20,6400.0
PPP,2012-08-21,6500.0
PPP,2012-08-22,6400.0
PPP,2012-08-23,6400.0
PPP,2012-08-24,6400.0
PPP,2012-08-27,6400.0
PPP,2012-08-28,6400.0
PPP,2012-08-29,6900.0
PPP,2012-08-30,6900.0
PPP,2012-08-31,6900.0
PPP,2012-09-04,6900.0
PPP,2012-09-05,6900.0
PPP,2012-09-06,6900.0
PPP,2012-09-07,6900.0
PPP,2012-09-10,6900.0
PPP,2012-09-11,6900.0
PPP,2012-09-12,6600.0
PPP,2012-09-13,6600.0
PPP,2012-09-14,6600.0
PPP,2012-09-17,6600.0
PPP,2012-09-18,6500.0
PPP,2012-09-19,6600.0
PPP,2012-09-20,6600.0
PPP,2012-09-21,6600.0
PPP,2012-09-24,6400.0
PPP,2012-09-25,6400.0
PPP,2012-09-26,6400.0
PPP,2012-09-27,6500.0
PPP,2012-09-28,6900.0
PPP,2012-10-01,7000.0
PPP,2012-10-02,6900.0
PPP,2012-10-03,6500.0
PPP,2012-10-04,6700.0
PPP,2012-10-05,6700.0
PPP,2012-10-08,6500.0
PPP,2012-10-09,6500.0
PPP,2012-10-10,6500.0
PPP,2012-10-11,6500.0
PPP,2012-10-12,6900.0
PPP,2012-10-15,6900.0
PPP,2012-10-16,7300.0
PPP,2012-10-17,7300.0
PPP,2012-10-18,6900.0
PPP,2012-10-19,6400.0
PPP,2012-10-22,6500.0
PPP,2012-10-23,6500.0
PPP,2012-10-24,6400.0
PPP,2012-10-25,6400.0
PPP,2012-10-26,6400.0
PPP,2012-10-29,6900.0
PPP,2012-10-30,7300.0
PPP,2012-10-31,7300.0
PPP,2012-11-01,7300.0
PPP,2012-11-02,7800.0
PPP,2012-11-05,7800.0
PPP,2012-11-06,7800.0
PPP,2012-11-07,8200.0
PPP,2012-11-08,7900.0
PPP,2012-11-09,8100.0
PPP,2012-11-12,8100.0
PPP,2012-11-13,8100.0
PPP,2012-11-14,8100.0
PPP,2012-11-15,8100.0
PPP,2012-11-16,8100.0
PPP,2012-11-19,7700.0
PPP,2012-11-20,7300.0
PPP,2012-11-21,6800.0
PPP,2012-11-22,6400.0
PPP,2012-11-23,6100.0
PPP,2012-11-26,6500.0
PPP,2012-11-27,6900.0
PPP,2012-11-28,6500.0
PPP,2012-11-29,6200.0
PPP,2012-11-30,5800.0
PPP,2012-12-03,6100.0
PPP,2012-12-04,6500.0
PPP,2012-12-05,6100.0
PPP,2012-12-06,5700.0
PPP,2012-12-07,5700.0
PPP,2012-12-10,6000.0
PPP,2012-12-11,6400.0
PPP,2012-12-12,6000.0
PPP,2012-12-13,6000.0
PPP,2012-12-14,6400.0
PPP,2012-12-17,6400.0
PPP,2012-12-18,6400.0
PPP,2012-12-19,6400.0
PPP,2012-12-20,6400.0
PPP,2012-12-21,6400.0
PPP,2012-12-24,6000.0
PPP,2012-12-25,5900.0
PPP,2012-12-26,6400.0
PPP,2012-12-27,6100.0
PPP,2012-12-28,5800.0
PPP,2013-01-02,5800.0
PPP,2013-01-03,5800.0
PPP,2013-01-04,6100.0
PPP,2013-01-07,6100.0
PPP,2013-01-08,6300.0
PPP,2013-01-09,6100.0
PPP,2013-01-10,6100.0
PPP,2013-01-11,6100.0
PPP,2013-01-14,6400.0
PPP,2013-01-15,6300.0
PPP,2013-01-16,6300.0
PPP,2013-01-17,6200.0
PPP,2013-01-18,6200.0
PPP,2013-01-21,6200.0
PPP,2013-01-22,5600.0
PPP,2013-01-23,5600.0
PPP,2013-01-24,6100.0
PPP,2013-01-25,6500.0
PPP,2013-01-28,6500.0
PPP,2013-01-29,6600.0
PPP,2013-01-30,6900.0
PPP,2013-01-31,6900.0
PPP,2013-02-01,6900.0
PPP,2013-02-04,7000.0
PPP,2013-02-05,7500.0
PPP,2013-02-06,8100.0
PPP,2013-02-07,8100.0
PPP,2013-02-08,8200.0
PPP,2013-02-18,8300.0
PPP,2013-02-19,8400.0
PPP,2013-02-20,8500.0
PPP,2013-02-21,8500.0
PPP,2013-02-22,8500.0
PPP,2013-02-25,8500.0
PPP,2013-02-26,8900.0
PPP,2013-02-27,8100.0
PPP,2013-02-28,7400.0
PPP,2013-03-01,7400.0
PPP,2013-03-04,7400.0
PPP,2013-03-05,7400.0
PPP,2013-03-06,7400.0
PPP,2013-03-07,7400.0
PPP,2013-03-08,7400.0
PPP,2013-03-11,8100.0
PPP,2013-03-12,9000.0
PPP,2013-03-13,9800.0
PPP,2013-03-14,9800.0
PPP,2013-03-15,9800.0
PPP,2013-03-18,9800.0
PPP,2013-03-19,9600.0
PPP,2013-03-20,9600.0
PPP,2013-03-21,9600.0
PPP,2013-03-22,9600.0
PPP,2013-03-25,10000.0
PPP,2013-03-26,9000.0
PPP,2013-03-27,9000.0
PPP,2013-03-28,9500.0
PPP,2013-03-29,9100.0
PPP,2013-04-01,9500.0
PPP,2013-04-02,10000.0
PPP,2013-04-03,10300.0
PPP,2013-04-04,9500.0
PPP,2013-04-05,8900.0
PPP,2013-04-08,9000.0
PPP,2013-04-09,9700.0
PPP,2013-04-10,9500.0
PPP,2013-04-11,9500.0
PPP,2013-04-12,9500.0
PPP,2013-04-15,9500.0
PPP,2013-04-16,9400.0
PPP,2013-04-17,9400.0
PPP,2013-04-18,10200.0
PPP,2013-04-22,10200.0
PPP,2013-04-23,10800.0
PPP,2013-04-24,11600.0
PPP,2013-04-25,11600.0
PPP,2013-04-26,11600.0
PPP,2013-05-02,11600.0
PPP,2013-05-03,11600.0
PPP,2013-05-06,10500.0
PPP,2013-05-07,9500.0
PPP,2013-05-08,10300.0
PPP,2013-05-09,10300.0
PPP,2013-05-10,10300.0
PPP,2013-05-13,10300.0
PPP,2013-05-14,10300.0
PPP,2013-05-15,10300.0
PPP,2013-05-16,10300.0
PPP,2013-05-17,9500.0
PPP,2013-05-20,8800.0
PPP,2013-05-21,8800.0
PPP,2013-05-22,8800.0
PPP,2013-05-23,9600.0
PPP,2013-05-24,10500.0
PPP,2013-05-27,10500.0
PPP,2013-05-28,10500.0
PPP,2013-05-29,10500.0
PPP,2013-05-30,10500.0
PPP,2013-05-31,10500.0
PPP,2013-06-03,10500.0
PPP,2013-06-04,10500.0
PPP,2013-06-05,10500.0
PPP,2013-06-06,9500.0
PPP,2013-06-07,9600.0
PPP,2013-06-10,9200.0
PPP,2013-06-11,8300.0
PPP,2013-06-12,8300.0
PPP,2013-06-13,8300.0
PPP,2013-06-14,9100.0
PPP,2013-06-17,10000.0
PPP,2013-06-18,10000.0
PPP,2013-06-19,10000.0
PPP,2013-06-20,10500.0
PPP,2013-06-21,11100.0
PPP,2013-06-24,11000.0
PPP,2013-06-25,10500.0
PPP,2013-06-26,10500.0
PPP,2013-06-27,10500.0
PPP,2013-06-28,10500.0
PPP,2013-07-01,9800.0
PPP,2013-07-02,9800.0
PPP,2013-07-03,9800.0
PPP,2013-07-04,9800.0
PPP,2013-07-05,9800.0
PPP,2013-07-08,9800.0
PPP,2013-07-09,10700.0
PPP,2013-07-10,10700.0
PPP,2013-07-11,10700.0
PPP,2013-07-12,10700.0
PPP,2013-07-15,10700.0
PPP,2013-07-16,10700.0
PPP,2013-07-17,10700.0
PPP,2013-07-18,9800.0
PPP,2013-07-19,9800.0
PPP,2013-07-22,8900.0
PPP,2013-07-23,8900.0
PPP,2013-07-24,8500.0
PPP,2013-07-25,8500.0
PPP,2013-07-26,8500.0
PPP,2013-07-29,8900.0
PPP,2013-07-30,8900.0
PPP,2013-07-31,9200.0
PPP,2013-08-01,9200.0
PPP,2013-08-02,9200.0
PPP,2013-08-05,9200.0
PPP,2013-08-06,9500.0
PPP,2013-08-07,8600.0
PPP,2013-08-08,9400.0
PPP,2013-08-09,9400.0
PPP,2013-08-12,9400.0
PPP,2013-08-13,9000.0
PPP,2013-08-14,8300.0
PPP,2013-08-15,8300.0
PPP,2013-08-16,7700.0
PPP,2013-08-19,8400.0
PPP,2013-08-20,7800.0
PPP,2013-08-21,7800.0
PPP,2013-08-22,8500.0
PPP,2013-08-23,8900.0
PPP,2013-08-26,8800.0
PPP,2013-08-27,8900.0
PPP,2013-08-28,8900.0
PPP,2013-08-29,8900.0
PPP,2013-08-30,8900.0
PPP,2013-09-03,8900.0
PPP,2013-09-04,8900.0
PPP,2013-09-05,9300.0
PPP,2013-09-06,9300.0
PPP,2013-09-09,9300.0
PPP,2013-09-10,9300.0
PPP,2013-09-11,9300.0
PPP,2013-09-12,9300.0
PPP,2013-09-13,9300.0
PPP,2013-09-16,9300.0
PPP,2013-09-17,9300.0
PPP,2013-09-18,9300.0
PPP,2013-09-19,9300.0
PPP,2013-09-20,9300.0
PPP,2013-09-23,10100.0
PPP,2013-09-24,10100.0
PPP,2013-09-25,11000.0
PPP,2013-09-26,11000.0
PPP,2013-09-27,11000.0
PPP,2013-09-30,10000.0
PPP,2013-10-01,10000.0
PPP,2013-10-02,10000.0
PPP,2013-10-03,9500.0
PPP,2013-10-04,9000.0
PPP,2013-10-07,9000.0
PPP,2013-10-08,9000.0
PPP,2013-10-09,9000.0
PPP,2013-10-10,9500.0
PPP,2013-10-11,9000.0
PPP,2013-10-14,9000.0
PPP,2013-10-15,9000.0
PPP,2013-10-16,9000.0
PPP,2013-10-17,8900.0
PPP,2013-10-18,8900.0
PPP,2013-10-21,8800.0
PPP,2013-10-22,8800.0
PPP,2013-10-23,8800.0
PPP,2013-10-24,9000.0
PPP,2013-10-25,9100.0
PPP,2013-10-28,9200.0
PPP,2013-10-29,9200.0
PPP,2013-10-30,10100.0
PPP,2013-10-31,9800.0
PPP,2013-11-01,10000.0
PPP,2013-11-04,11000.0
PPP,2013-11-05,11100.0
PPP,2013-11-06,11100.0
PPP,2013-11-07,11500.0
PPP,2013-11-08,11500.0
PPP,2013-11-11,11500.0
PPP,2013-11-12,12000.0
PPP,2013-11-13,13000.0
PPP,2013-11-14,12500.0
PPP,2013-11-15,12000.0
PPP,2013-11-18,12100.0
PPP,2013-11-19,12000.0
PPP,2013-11-20,12200.0
PPP,2013-11-21,12400.0
PPP,2013-11-22,12500.0
PPP,2013-11-25,12700.0
PPP,2013-11-26,12700.0
PPP,2013-11-27,12700.0
PPP,2013-11-28,12700.0
PPP,2013-11-29,12700.0
PPP,2013-12-02,12700.0
PPP,2013-12-03,12700.0
PPP,2013-12-04,12500.0
PPP,2013-12-05,12900.0
PPP,2013-12-06,12900.0
PPP,2013-12-09,12900.0
PPP,2013-12-10,12900.0
PPP,2013-12-11,12900.0
PPP,2013-12-12,12700.0
PPP,2013-12-13,12700.0
PPP,2013-12-16,12700.0
PPP,2013-12-17,12700.0
PPP,2013-12-18,12700.0
PPP,2013-12-19,12700.0
PPP,2013-12-20,12700.0
PPP,2013-12-23,12700.0
PPP,2013-12-24,12700.0
PPP,2013-12-25,12700.0
PPP,2013-12-26,12600.0
PPP,2013-12-27,12500.0
PPP,2013-12-30,12500.0
PPP,2013-12-31,12500.0
PPP,2014-01-02,12500.0
PPP,2014-01-03,12500.0
PPP,2014-01-06,12500.0
PPP,2014-01-07,12400.0
PPP,2014-01-08,12400.0
PPP,2014-01-09,12300.0
PPP,2014-01-10,12300.0
PPP,2014-01-13,12400.0
PPP,2014-01-14,11300.0
PPP,2014-01-15,11300.0
PPP,2014-01-16,11300.0
PPP,2014-01-17,11300.0
PPP,2014-01-20,11300.0
PPP,2014-01-21,11500.0
PPP,2014-01-22,11500.0
PPP,2014-01-23,11500.0
PPP,2014-01-24,11500.0
PPP,2014-01-27,11500.0
PPP,2014-02-06,11500.0
PPP,2014-02-07,12500.0
PPP,2014-02-10,12500.0
PPP,2014-02-11,12500.0
PPP,2014-02-12,12500.0
PPP,2014-02-13,12500.0
PPP,2014-02-14,12500.0
PPP,2014-02-17,12500.0
PPP,2014-02-18,12500.0
PPP,2014-02-19,12500.0
PPP,2014-02-20,12500.0
PPP,2014-02-21,12500.0
PPP,2014-02-24,12500.0
PPP,2014-02-25,12500.0
PPP,2014-02-26,12500.0
PPP,2014-02-27,12500.0
PPP,2014-02-28,12000.0
PPP,2014-03-03,12000.0
PPP,2014-03-04,12000.0
PPP,2014-03-05,12000.0
PPP,2014-03-06,12000.0
PPP,2014-03-07,12000.0
PPP,2014-03-10,12000.0
PPP,2014-03-11,12000.0
PPP,2014-03-12,12000.0
PPP,2014-03-13,12000.0
PPP,2014-03-14,11300.0
PPP,2014-03-17,11900.0
PPP,2014-03-18,11900.0
PPP,2014-03-19,11900.0
PPP,2014-03-20,12000.0
PPP,2014-03-21,12600.0
PPP,2014-03-24,12600.0
PPP,2014-03-25,11400.0
PPP,2014-03-26,11400.0
PPP,2014-03-27,10500.0
PPP,2014-03-28,9500.0
PPP,2014-03-31,9500.0
PPP,2014-04-01,9500.0
PPP,2014-04-02,8700.0
PPP,2014-04-03,8700.0
PPP,2014-04-04,8700.0
PPP,2014-04-07,8700.0
PPP,2014-04-08,8700.0
PPP,2014-04-10,8700.0
PPP,2014-04-11,8700.0
PPP,2014-04-14,8700.0
PPP,2014-04-15,8700.0
PPP,2014-04-16,8700.0
PPP,2014-04-17,8700.0
PPP,2014-04-18,8700.0
PPP,2014-04-21,8700.0
PPP,2014-04-22,8700.0
PPP,2014-04-23,8700.0
PPP,2014-04-24,8700.0
PPP,2014-04-25,8700.0
PPP,2014-04-28,8700.0
PPP,2014-04-29,8700.0
PPP,2014-05-05,8700.0
PPP,2014-05-06,8700.0
PPP,2014-05-07,8700.0
PPP,2014-05-08,8700.0
PPP,2014-05-09,8700.0
PPP,2014-05-12,7900.0
PPP,2014-05-13,7900.0
PPP,2014-05-14,7500.0
PPP,2014-05-15,7500.0
PPP,2014-05-16,7500.0
PPP,2014-05-19,7500.0
PPP,2014-05-20,7500.0
PPP,2014-05-21,7500.0
