PSC,2006-12-29,14000.0
PSC,2007-01-02,13500.0
PSC,2007-01-03,13500.0
PSC,2007-01-04,13500.0
PSC,2007-01-05,13500.0
PSC,2007-01-08,14800.0
PSC,2007-01-09,16300.0
PSC,2007-01-10,16000.0
PSC,2007-01-11,16000.0
PSC,2007-01-12,16000.0
PSC,2007-01-15,16000.0
PSC,2007-01-16,16000.0
PSC,2007-01-17,16000.0
PSC,2007-01-18,16000.0
PSC,2007-01-19,16800.0
PSC,2007-01-22,16800.0
PSC,2007-01-23,16800.0
PSC,2007-01-24,16800.0
PSC,2007-01-25,16800.0
PSC,2007-01-26,16800.0
PSC,2007-01-29,16800.0
PSC,2007-01-30,16800.0
PSC,2007-01-31,16800.0
PSC,2007-02-01,16800.0
PSC,2007-02-02,16800.0
PSC,2007-02-05,16100.0
PSC,2007-02-06,18100.0
PSC,2007-02-07,18500.0
PSC,2007-02-08,18500.0
PSC,2007-02-09,18500.0
PSC,2007-02-12,18500.0
PSC,2007-02-13,17500.0
PSC,2007-02-14,17600.0
PSC,2007-02-15,17100.0
PSC,2007-02-26,18100.0
PSC,2007-02-27,19700.0
PSC,2007-02-28,20900.0
PSC,2007-03-01,20700.0
PSC,2007-03-02,21000.0
PSC,2007-03-05,22300.0
PSC,2007-03-06,23500.0
PSC,2007-03-07,25900.0
PSC,2007-03-08,28400.0
PSC,2007-03-09,30800.0
PSC,2007-03-12,32100.0
PSC,2007-03-13,32400.0
PSC,2007-03-14,31000.0
PSC,2007-03-15,31200.0
PSC,2007-03-16,28100.0
PSC,2007-03-19,30700.0
PSC,2007-03-20,29200.0
PSC,2007-03-21,28500.0
PSC,2007-03-22,26700.0
PSC,2007-03-23,27100.0
PSC,2007-03-26,27300.0
PSC,2007-03-27,27300.0
PSC,2007-03-28,24600.0
PSC,2007-03-29,26900.0
PSC,2007-03-30,26400.0
PSC,2007-04-02,26500.0
PSC,2007-04-03,26500.0
PSC,2007-04-04,26500.0
PSC,2007-04-05,26500.0
PSC,2007-04-06,26500.0
PSC,2007-04-09,26500.0
PSC,2007-04-10,26500.0
PSC,2007-04-11,26500.0
PSC,2007-04-12,26500.0
PSC,2007-04-13,26500.0
PSC,2007-04-16,24600.0
PSC,2007-04-17,22200.0
PSC,2007-04-18,21400.0
PSC,2007-04-19,21400.0
PSC,2007-04-20,21400.0
PSC,2007-04-23,21000.0
PSC,2007-04-24,19200.0
PSC,2007-04-25,18200.0
PSC,2007-05-02,18300.0
PSC,2007-05-03,16600.0
PSC,2007-05-04,15000.0
PSC,2007-05-07,14600.0
PSC,2007-05-08,15700.0
PSC,2007-05-09,17500.0
PSC,2007-05-10,19000.0
PSC,2007-05-11,19000.0
PSC,2007-05-14,19000.0
PSC,2007-05-15,17800.0
PSC,2007-05-16,17100.0
PSC,2007-05-17,17100.0
PSC,2007-05-18,16800.0
PSC,2007-05-21,16900.0
PSC,2007-05-22,16900.0
PSC,2007-05-23,17100.0
PSC,2007-05-24,17300.0
PSC,2007-05-25,17500.0
PSC,2007-05-28,17800.0
PSC,2007-05-29,18200.0
PSC,2007-05-30,17600.0
PSC,2007-05-31,18000.0
PSC,2007-06-01,18900.0
PSC,2007-06-04,20800.0
PSC,2007-06-05,22800.0
PSC,2007-06-06,24900.0
PSC,2007-06-07,24600.0
PSC,2007-06-08,24200.0
PSC,2007-06-11,22800.0
PSC,2007-06-12,23000.0
PSC,2007-06-13,22800.0
PSC,2007-06-14,22600.0
PSC,2007-06-15,22400.0
PSC,2007-06-18,22400.0
PSC,2007-06-19,20200.0
PSC,2007-06-20,20200.0
PSC,2007-06-21,18900.0
PSC,2007-06-22,20500.0
PSC,2007-06-25,20500.0
PSC,2007-06-26,20500.0
PSC,2007-06-27,20400.0
PSC,2007-06-28,20400.0
PSC,2007-06-29,20400.0
PSC,2007-07-02,19100.0
PSC,2007-07-03,19100.0
PSC,2007-07-04,17800.0
PSC,2007-07-05,16000.0
PSC,2007-07-06,16000.0
PSC,2007-07-09,16400.0
PSC,2007-07-10,16700.0
PSC,2007-07-11,16400.0
PSC,2007-07-12,16400.0
PSC,2007-07-13,16300.0
PSC,2007-07-16,16300.0
PSC,2007-07-17,16300.0
PSC,2007-07-18,15000.0
PSC,2007-07-19,16500.0
PSC,2007-07-20,16500.0
PSC,2007-07-23,16500.0
PSC,2007-07-24,17100.0
PSC,2007-07-25,17800.0
PSC,2007-07-26,16000.0
PSC,2007-07-27,16000.0
PSC,2007-07-30,16000.0
PSC,2007-07-31,16000.0
PSC,2007-08-01,16000.0
PSC,2007-08-02,14600.0
PSC,2007-08-03,15000.0
PSC,2007-08-06,15100.0
PSC,2007-08-07,15100.0
PSC,2007-08-08,15100.0
PSC,2007-08-09,15100.0
PSC,2007-08-10,14400.0
PSC,2007-08-13,14400.0
PSC,2007-08-14,15700.0
PSC,2007-08-15,15700.0
PSC,2007-08-16,15700.0
PSC,2007-08-17,15700.0
PSC,2007-08-20,14600.0
PSC,2007-08-21,14700.0
PSC,2007-08-22,15000.0
PSC,2007-08-23,15000.0
PSC,2007-08-24,15000.0
PSC,2007-08-27,15000.0
PSC,2007-08-28,15000.0
PSC,2007-08-29,15000.0
PSC,2007-08-30,14400.0
PSC,2007-08-31,14400.0
PSC,2007-09-04,14500.0
PSC,2007-09-05,15300.0
PSC,2007-09-06,14400.0
PSC,2007-09-07,15100.0
PSC,2007-09-10,15100.0
PSC,2007-09-11,15500.0
PSC,2007-09-12,16600.0
PSC,2007-09-13,16600.0
PSC,2007-09-14,16600.0
PSC,2007-09-17,16600.0
PSC,2007-09-18,16600.0
PSC,2007-09-19,17300.0
PSC,2007-09-20,17600.0
PSC,2007-09-21,17500.0
PSC,2007-09-24,17800.0
PSC,2007-09-25,18000.0
PSC,2007-09-26,18500.0
PSC,2007-09-27,18500.0
PSC,2007-09-28,20400.0
PSC,2007-10-01,22400.0
PSC,2007-10-02,22400.0
PSC,2007-10-03,23500.0
PSC,2007-10-04,25000.0
PSC,2007-10-05,26600.0
PSC,2007-10-08,28700.0
PSC,2007-10-09,28500.0
PSC,2007-10-10,27800.0
PSC,2007-10-11,27300.0
PSC,2007-10-12,28200.0
PSC,2007-10-15,29600.0
PSC,2007-10-16,31300.0
PSC,2007-10-17,33600.0
PSC,2007-10-18,33800.0
PSC,2007-10-19,35100.0
PSC,2007-10-22,32900.0
PSC,2007-10-23,31700.0
PSC,2007-10-24,31000.0
PSC,2007-10-25,33800.0
PSC,2007-10-26,34700.0
PSC,2007-10-29,34700.0
PSC,2007-10-30,32900.0
PSC,2007-10-31,32900.0
PSC,2007-11-01,32000.0
PSC,2007-11-02,32000.0
PSC,2007-11-05,32000.0
PSC,2007-11-06,29400.0
PSC,2007-11-07,29200.0
PSC,2007-11-08,29900.0
PSC,2007-11-09,30800.0
PSC,2007-11-12,28200.0
PSC,2007-11-13,25500.0
PSC,2007-11-14,30200.0
PSC,2007-11-15,30100.0
PSC,2007-11-16,28700.0
PSC,2007-11-19,28700.0
PSC,2007-11-20,28700.0
PSC,2007-11-21,29600.0
PSC,2007-11-22,29600.0
PSC,2007-11-23,29600.0
PSC,2007-11-26,29600.0
PSC,2007-11-27,28700.0
PSC,2007-11-28,29200.0
PSC,2007-11-29,29200.0
PSC,2007-11-30,28200.0
PSC,2007-12-03,25500.0
PSC,2007-12-04,28800.0
PSC,2007-12-05,29600.0
PSC,2007-12-06,28600.0
PSC,2007-12-07,28700.0
PSC,2007-12-10,28100.0
PSC,2007-12-11,28000.0
PSC,2007-12-12,27800.0
PSC,2007-12-13,28200.0
PSC,2007-12-14,28000.0
PSC,2007-12-17,26400.0
PSC,2007-12-18,27700.0
PSC,2007-12-19,27700.0
PSC,2007-12-20,27700.0
PSC,2007-12-21,27100.0
PSC,2007-12-24,28500.0
PSC,2007-12-25,26800.0
PSC,2007-12-26,26800.0
PSC,2007-12-27,27100.0
PSC,2007-12-28,27600.0
PSC,2008-01-02,27300.0
PSC,2008-01-03,25700.0
PSC,2008-01-04,24200.0
PSC,2008-01-07,22600.0
PSC,2008-01-08,25000.0
PSC,2008-01-09,25400.0
PSC,2008-01-10,27100.0
PSC,2008-01-11,24700.0
PSC,2008-01-14,23800.0
PSC,2008-01-15,25000.0
PSC,2008-01-16,26100.0
PSC,2008-01-17,25400.0
PSC,2008-01-18,25900.0
PSC,2008-01-21,24700.0
PSC,2008-01-22,22800.0
PSC,2008-01-23,22800.0
PSC,2008-01-24,23800.0
PSC,2008-01-25,23800.0
PSC,2008-01-28,24700.0
PSC,2008-01-29,24900.0
PSC,2008-01-30,25200.0
PSC,2008-01-31,25200.0
PSC,2008-02-01,25200.0
PSC,2008-02-12,27900.0
PSC,2008-02-13,28500.0
PSC,2008-02-14,27600.0
PSC,2008-02-15,27500.0
PSC,2008-02-18,24900.0
PSC,2008-02-19,24700.0
PSC,2008-02-20,24800.0
PSC,2008-02-21,24800.0
PSC,2008-02-22,22400.0
PSC,2008-02-25,24600.0
PSC,2008-02-26,22300.0
PSC,2008-02-27,23500.0
PSC,2008-02-28,21400.0
PSC,2008-02-29,19200.0
PSC,2008-03-03,17400.0
PSC,2008-03-04,15700.0
PSC,2008-03-05,14700.0
PSC,2008-03-06,16100.0
PSC,2008-03-07,17700.0
PSC,2008-03-10,19000.0
PSC,2008-03-11,18300.0
PSC,2008-03-12,18300.0
PSC,2008-03-13,19000.0
PSC,2008-03-14,18500.0
PSC,2008-03-17,18500.0
PSC,2008-03-18,17300.0
PSC,2008-03-19,17600.0
PSC,2008-03-20,17100.0
PSC,2008-03-21,17300.0
PSC,2008-03-24,17300.0
PSC,2008-03-25,15700.0
PSC,2008-03-26,17200.0
PSC,2008-03-27,17600.0
PSC,2008-03-28,17900.0
PSC,2008-03-31,17900.0
PSC,2008-04-01,18200.0
PSC,2008-04-02,18600.0
PSC,2008-04-03,18900.0
PSC,2008-04-04,19200.0
PSC,2008-04-07,19800.0
PSC,2008-04-08,20400.0
PSC,2008-04-09,20400.0
PSC,2008-04-10,19800.0
PSC,2008-04-11,19800.0
PSC,2008-04-16,19800.0
PSC,2008-04-17,20300.0
PSC,2008-04-18,18800.0
PSC,2008-04-21,18300.0
PSC,2008-04-22,17800.0
PSC,2008-04-23,17200.0
PSC,2008-04-24,16800.0
PSC,2008-04-25,17200.0
PSC,2008-04-28,17200.0
PSC,2008-04-29,16800.0
PSC,2008-05-05,17200.0
PSC,2008-05-06,17700.0
PSC,2008-05-07,17700.0
PSC,2008-05-08,17200.0
PSC,2008-05-09,16700.0
PSC,2008-05-12,16200.0
PSC,2008-05-13,15800.0
PSC,2008-05-14,15300.0
PSC,2008-05-15,14900.0
PSC,2008-05-16,14500.0
PSC,2008-05-19,14400.0
PSC,2008-05-20,14100.0
PSC,2008-05-21,14100.0
PSC,2008-05-22,13700.0
PSC,2008-05-23,13700.0
PSC,2008-05-26,13700.0
PSC,2008-05-27,13700.0
PSC,2008-05-28,13700.0
PSC,2008-05-29,13300.0
PSC,2008-05-30,13300.0
PSC,2008-06-02,13300.0
PSC,2008-06-03,13300.0
PSC,2008-06-04,13300.0
PSC,2008-06-05,13300.0
PSC,2008-06-06,13300.0
PSC,2008-06-09,13300.0
PSC,2008-06-10,13300.0
PSC,2008-06-11,13300.0
PSC,2008-06-12,13300.0
PSC,2008-06-13,13700.0
PSC,2008-06-16,14100.0
PSC,2008-06-17,14500.0
PSC,2008-06-18,14500.0
PSC,2008-06-19,14700.0
PSC,2008-06-20,14700.0
PSC,2008-06-23,14700.0
PSC,2008-06-24,14700.0
PSC,2008-06-25,14100.0
PSC,2008-06-26,13600.0
PSC,2008-06-27,13100.0
PSC,2008-06-30,13100.0
PSC,2008-07-01,12600.0
PSC,2008-07-02,12100.0
PSC,2008-07-03,11600.0
PSC,2008-07-04,12100.0
PSC,2008-07-07,11400.0
PSC,2008-07-08,11700.0
PSC,2008-07-09,10700.0
PSC,2008-07-10,10400.0
PSC,2008-07-11,10900.0
PSC,2008-07-14,11000.0
PSC,2008-07-15,11400.0
PSC,2008-07-16,11900.0
PSC,2008-07-17,12300.0
PSC,2008-07-18,11800.0
PSC,2008-07-21,11300.0
PSC,2008-07-22,10900.0
PSC,2008-07-23,10500.0
PSC,2008-07-24,10100.0
PSC,2008-07-25,9700.0
PSC,2008-07-28,10100.0
PSC,2008-07-29,9700.0
PSC,2008-07-30,9700.0
PSC,2008-07-31,9700.0
PSC,2008-08-01,10100.0
PSC,2008-08-04,9400.0
PSC,2008-08-05,9000.0
PSC,2008-08-06,9400.0
PSC,2008-08-07,8700.0
PSC,2008-08-08,9100.0
PSC,2008-08-11,9500.0
PSC,2008-08-12,9800.0
PSC,2008-08-13,10200.0
PSC,2008-08-14,10200.0
PSC,2008-08-15,10600.0
PSC,2008-08-18,11300.0
PSC,2008-08-19,11800.0
PSC,2008-08-20,11100.0
PSC,2008-08-21,12000.0
PSC,2008-08-22,12600.0
PSC,2008-08-25,13500.0
PSC,2008-08-26,14300.0
PSC,2008-08-27,14300.0
PSC,2008-08-28,15100.0
PSC,2008-08-29,15100.0
PSC,2008-09-03,15200.0
PSC,2008-09-04,15300.0
PSC,2008-09-05,14500.0
PSC,2008-09-08,13500.0
PSC,2008-09-09,13100.0
PSC,2008-09-10,13600.0
PSC,2008-09-11,13100.0
PSC,2008-09-12,12400.0
PSC,2008-09-15,13400.0
PSC,2008-09-16,12400.0
PSC,2008-09-17,12200.0
PSC,2008-09-18,12200.0
PSC,2008-09-19,13100.0
PSC,2008-09-22,13300.0
PSC,2008-09-23,13100.0
PSC,2008-09-24,12600.0
PSC,2008-09-25,13000.0
PSC,2008-09-26,12700.0
PSC,2008-09-29,12800.0
PSC,2008-09-30,12000.0
PSC,2008-10-01,12500.0
PSC,2008-10-02,12400.0
PSC,2008-10-03,12500.0
PSC,2008-10-06,11600.0
PSC,2008-10-07,11000.0
PSC,2008-10-08,10200.0
PSC,2008-10-09,9500.0
PSC,2008-10-10,8800.0
PSC,2008-10-13,8500.0
PSC,2008-10-14,9100.0
PSC,2008-10-15,9700.0
PSC,2008-10-16,10100.0
PSC,2008-10-17,10800.0
PSC,2008-10-20,11100.0
PSC,2008-10-21,11700.0
PSC,2008-10-22,10700.0
PSC,2008-10-23,10700.0
PSC,2008-10-24,10000.0
PSC,2008-10-27,9300.0
PSC,2008-10-28,8700.0
PSC,2008-10-29,9300.0
PSC,2008-10-30,9700.0
PSC,2008-10-31,10100.0
PSC,2008-11-03,10800.0
PSC,2008-11-04,11300.0
PSC,2008-11-05,11900.0
PSC,2008-11-06,11100.0
PSC,2008-11-07,10700.0
PSC,2008-11-10,10800.0
PSC,2008-11-11,10100.0
PSC,2008-11-12,10600.0
PSC,2008-11-13,10300.0
PSC,2008-11-14,9600.0
PSC,2008-11-17,10400.0
PSC,2008-11-18,10200.0
PSC,2008-11-19,10900.0
PSC,2008-11-20,11700.0
PSC,2008-11-21,11800.0
PSC,2008-11-24,11100.0
PSC,2008-11-25,10800.0
PSC,2008-11-26,11100.0
PSC,2008-11-27,11100.0
PSC,2008-11-28,11600.0
PSC,2008-12-01,10700.0
PSC,2008-12-02,11400.0
PSC,2008-12-03,11500.0
PSC,2008-12-04,12100.0
PSC,2008-12-05,11300.0
PSC,2008-12-08,10600.0
PSC,2008-12-09,10600.0
PSC,2008-12-10,10100.0
PSC,2008-12-11,10000.0
PSC,2008-12-12,10000.0
PSC,2008-12-15,10000.0
PSC,2008-12-16,9800.0
PSC,2008-12-17,10400.0
PSC,2008-12-18,10800.0
PSC,2008-12-19,10800.0
PSC,2008-12-22,11500.0
PSC,2008-12-23,11500.0
PSC,2008-12-24,11500.0
PSC,2008-12-25,11500.0
PSC,2008-12-26,11600.0
PSC,2008-12-29,11300.0
PSC,2008-12-30,11300.0
PSC,2008-12-31,10600.0
PSC,2009-01-02,10600.0
PSC,2009-01-05,11800.0
PSC,2009-01-06,11200.0
PSC,2009-01-07,11000.0
PSC,2009-01-08,10600.0
PSC,2009-01-09,11100.0
PSC,2009-01-12,11000.0
PSC,2009-01-13,10300.0
PSC,2009-01-14,11100.0
PSC,2009-01-15,10600.0
PSC,2009-01-16,10200.0
PSC,2009-01-19,10300.0
PSC,2009-01-20,10400.0
PSC,2009-01-21,11100.0
PSC,2009-01-22,11600.0
PSC,2009-01-23,12400.0
PSC,2009-02-02,12400.0
PSC,2009-02-03,12400.0
PSC,2009-02-04,12400.0
PSC,2009-02-05,12400.0
PSC,2009-02-06,12400.0
PSC,2009-02-09,11500.0
PSC,2009-02-10,10700.0
PSC,2009-02-11,10000.0
PSC,2009-02-12,10600.0
PSC,2009-02-13,11000.0
PSC,2009-02-16,10500.0
PSC,2009-02-17,9800.0
PSC,2009-02-18,9800.0
PSC,2009-02-19,9200.0
PSC,2009-02-20,9000.0
PSC,2009-02-23,9300.0
PSC,2009-02-24,9900.0
PSC,2009-02-25,9900.0
PSC,2009-02-26,9900.0
PSC,2009-02-27,9200.0
PSC,2009-03-02,9200.0
PSC,2009-03-03,8800.0
PSC,2009-03-04,9600.0
PSC,2009-03-05,9500.0
PSC,2009-03-06,9800.0
PSC,2009-03-09,10200.0
PSC,2009-03-10,9600.0
PSC,2009-03-11,10000.0
PSC,2009-03-12,9300.0
PSC,2009-03-13,9900.0
PSC,2009-03-16,9900.0
PSC,2009-03-17,10200.0
PSC,2009-03-18,9800.0
PSC,2009-03-19,10500.0
PSC,2009-03-20,10600.0
PSC,2009-03-23,9900.0
PSC,2009-03-24,9200.0
PSC,2009-03-25,9300.0
PSC,2009-03-26,9000.0
PSC,2009-03-27,9700.0
PSC,2009-03-30,10000.0
PSC,2009-03-31,9900.0
PSC,2009-04-01,10300.0
PSC,2009-04-02,10300.0
PSC,2009-04-03,11000.0
PSC,2009-04-07,11600.0
PSC,2009-04-08,12400.0
PSC,2009-04-09,13300.0
PSC,2009-04-10,14200.0
PSC,2009-04-13,15100.0
PSC,2009-04-14,14800.0
PSC,2009-04-15,15700.0
PSC,2009-04-16,13900.0
PSC,2009-04-17,12900.0
PSC,2009-04-20,12000.0
PSC,2009-04-21,11200.0
PSC,2009-04-22,11100.0
PSC,2009-04-23,10800.0
PSC,2009-04-24,10800.0
PSC,2009-04-27,11700.0
PSC,2009-04-28,10900.0
PSC,2009-04-29,10600.0
PSC,2009-05-04,11400.0
PSC,2009-05-05,12000.0
PSC,2009-05-06,11200.0
PSC,2009-05-07,11500.0
PSC,2009-05-08,10800.0
PSC,2009-05-11,10800.0
PSC,2009-05-12,11000.0
PSC,2009-05-13,11700.0
PSC,2009-05-14,11600.0
PSC,2009-05-15,11900.0
PSC,2009-05-18,12300.0
PSC,2009-05-19,13000.0
PSC,2009-05-20,13900.0
PSC,2009-05-21,14800.0
PSC,2009-05-22,15000.0
PSC,2009-05-25,16100.0
PSC,2009-05-26,16400.0
PSC,2009-05-27,16100.0
PSC,2009-05-28,16100.0
PSC,2009-05-29,16100.0
PSC,2009-06-01,16100.0
PSC,2009-06-02,15900.0
PSC,2009-06-03,15300.0
PSC,2009-06-04,15400.0
PSC,2009-06-05,15800.0
PSC,2009-06-08,17000.0
PSC,2009-06-09,18100.0
PSC,2009-06-10,16800.0
PSC,2009-06-11,17900.0
PSC,2009-06-12,17900.0
PSC,2009-06-15,16300.0
PSC,2009-06-16,15200.0
PSC,2009-06-17,14300.0
PSC,2009-06-18,13300.0
PSC,2009-06-19,13500.0
PSC,2009-06-22,12700.0
PSC,2009-06-23,12100.0
PSC,2009-06-24,12800.0
PSC,2009-06-25,13700.0
PSC,2009-06-26,14200.0
PSC,2009-06-29,14500.0
PSC,2009-06-30,13500.0
PSC,2009-07-01,12700.0
PSC,2009-07-02,14000.0
PSC,2009-07-03,14200.0
PSC,2009-07-06,13100.0
PSC,2009-07-07,13900.0
PSC,2009-07-08,12900.0
PSC,2009-07-09,13200.0
PSC,2009-07-10,13700.0
PSC,2009-07-13,13500.0
PSC,2009-07-14,12700.0
PSC,2009-07-15,13500.0
PSC,2009-07-16,13500.0
PSC,2009-07-17,12700.0
PSC,2009-07-20,12700.0
PSC,2009-07-21,12700.0
PSC,2009-07-22,12000.0
PSC,2009-07-23,12800.0
PSC,2009-07-24,13600.0
PSC,2009-07-27,14300.0
PSC,2009-07-28,13500.0
PSC,2009-07-29,12700.0
PSC,2009-07-30,13100.0
PSC,2009-07-31,13200.0
PSC,2009-08-03,13200.0
PSC,2009-08-04,13700.0
PSC,2009-08-05,12700.0
PSC,2009-08-06,12700.0
PSC,2009-08-07,12600.0
PSC,2009-08-10,12900.0
PSC,2009-08-11,13500.0
PSC,2009-08-12,12700.0
PSC,2009-08-13,14000.0
PSC,2009-08-14,14500.0
PSC,2009-08-17,13700.0
PSC,2009-08-18,14200.0
PSC,2009-08-19,14300.0
PSC,2009-08-20,14500.0
PSC,2009-08-21,14500.0
PSC,2009-08-24,14500.0
PSC,2009-08-25,14300.0
PSC,2009-08-26,14500.0
PSC,2009-08-27,14500.0
PSC,2009-08-28,14800.0
PSC,2009-08-31,15300.0
PSC,2009-09-01,15300.0
PSC,2009-09-03,14800.0
PSC,2009-09-04,14500.0
PSC,2009-09-07,13900.0
PSC,2009-09-08,14800.0
PSC,2009-09-09,15700.0
PSC,2009-09-10,16800.0
PSC,2009-09-11,18000.0
PSC,2009-09-14,19200.0
PSC,2009-09-15,20000.0
PSC,2009-09-16,19100.0
PSC,2009-09-17,17800.0
PSC,2009-09-18,18300.0
PSC,2009-09-21,17300.0
PSC,2009-09-22,18700.0
PSC,2009-09-23,19600.0
PSC,2009-09-24,18600.0
PSC,2009-09-25,19100.0
PSC,2009-09-28,19100.0
PSC,2009-09-29,17300.0
PSC,2009-09-30,17400.0
PSC,2009-10-01,16700.0
PSC,2009-10-02,16400.0
PSC,2009-10-05,15200.0
PSC,2009-10-06,16300.0
PSC,2009-10-07,17000.0
PSC,2009-10-08,17500.0
PSC,2009-10-09,17400.0
PSC,2009-10-12,18700.0
PSC,2009-10-13,18600.0
PSC,2009-10-14,18500.0
PSC,2009-10-15,18500.0
PSC,2009-10-16,18000.0
PSC,2009-10-19,18000.0
PSC,2009-10-20,18600.0
PSC,2009-10-21,19600.0
PSC,2009-10-22,19000.0
PSC,2009-10-23,18600.0
PSC,2009-10-26,18400.0
PSC,2009-10-27,18000.0
PSC,2009-10-28,17800.0
PSC,2009-10-29,17500.0
PSC,2009-10-30,18200.0
PSC,2009-11-02,16600.0
PSC,2009-11-03,15900.0
PSC,2009-11-04,16200.0
PSC,2009-11-05,17000.0
PSC,2009-11-06,16100.0
PSC,2009-11-09,15600.0
PSC,2009-11-10,15700.0
PSC,2009-11-11,16000.0
PSC,2009-11-12,16100.0
PSC,2009-11-13,16100.0
PSC,2009-11-16,16200.0
PSC,2009-11-17,16400.0
PSC,2009-11-18,16400.0
PSC,2009-11-19,16500.0
PSC,2009-11-20,16400.0
PSC,2009-11-23,16200.0
PSC,2009-11-24,16100.0
PSC,2009-11-25,15300.0
PSC,2009-11-26,14400.0
PSC,2009-11-27,15400.0
PSC,2009-11-30,16400.0
PSC,2009-12-01,16300.0
PSC,2009-12-02,16700.0
PSC,2009-12-03,16900.0
PSC,2009-12-04,16800.0
PSC,2009-12-07,16700.0
PSC,2009-12-08,16400.0
PSC,2009-12-09,16700.0
PSC,2009-12-10,15500.0
PSC,2009-12-11,14500.0
PSC,2009-12-14,14900.0
PSC,2009-12-15,15100.0
PSC,2009-12-16,15000.0
PSC,2009-12-17,14400.0
PSC,2009-12-18,15100.0
PSC,2009-12-21,15600.0
PSC,2009-12-22,14900.0
PSC,2009-12-23,15200.0
PSC,2009-12-24,14900.0
PSC,2009-12-25,15200.0
PSC,2009-12-28,14400.0
PSC,2009-12-29,14600.0
PSC,2009-12-30,15100.0
PSC,2009-12-31,15000.0
PSC,2010-01-04,16500.0
PSC,2010-01-05,16200.0
PSC,2010-01-06,15500.0
PSC,2010-01-07,16500.0
PSC,2010-01-08,15800.0
PSC,2010-01-11,16100.0
PSC,2010-01-12,15000.0
PSC,2010-01-13,16100.0
PSC,2010-01-14,16800.0
PSC,2010-01-15,16100.0
PSC,2010-01-18,16800.0
PSC,2010-01-19,15800.0
PSC,2010-01-20,14700.0
PSC,2010-01-21,14900.0
PSC,2010-01-22,15200.0
PSC,2010-01-25,15800.0
PSC,2010-01-26,15900.0
PSC,2010-01-27,15800.0
PSC,2010-01-28,15500.0
PSC,2010-01-29,15800.0
PSC,2010-02-01,15800.0
PSC,2010-02-02,15200.0
PSC,2010-02-03,16200.0
PSC,2010-02-04,15800.0
PSC,2010-02-05,16700.0
PSC,2010-02-08,15600.0
PSC,2010-02-09,15100.0
PSC,2010-02-10,15800.0
PSC,2010-02-11,15500.0
PSC,2010-02-12,15300.0
PSC,2010-02-22,16300.0
PSC,2010-02-23,16300.0
PSC,2010-02-24,16600.0
PSC,2010-02-25,15500.0
PSC,2010-02-26,15800.0
PSC,2010-03-01,16900.0
PSC,2010-03-02,15700.0
PSC,2010-03-03,15800.0
PSC,2010-03-04,15800.0
PSC,2010-03-05,16300.0
PSC,2010-03-08,16100.0
PSC,2010-03-09,15800.0
PSC,2010-03-10,16500.0
PSC,2010-03-11,15800.0
PSC,2010-03-12,15800.0
PSC,2010-03-15,15800.0
PSC,2010-03-16,16400.0
PSC,2010-03-17,16400.0
PSC,2010-03-18,16300.0
PSC,2010-03-19,15800.0
PSC,2010-03-22,16200.0
PSC,2010-03-23,16300.0
PSC,2010-03-24,16200.0
PSC,2010-03-25,16600.0
PSC,2010-03-26,16500.0
PSC,2010-03-29,16500.0
PSC,2010-03-30,16300.0
PSC,2010-03-31,16400.0
PSC,2010-04-01,16800.0
PSC,2010-04-02,16300.0
PSC,2010-04-05,17500.0
PSC,2010-04-06,17200.0
PSC,2010-04-07,16300.0
PSC,2010-04-08,17600.0
PSC,2010-04-09,17800.0
PSC,2010-04-12,17700.0
PSC,2010-04-13,16000.0
PSC,2010-04-14,15500.0
PSC,2010-04-15,16500.0
PSC,2010-04-16,17200.0
PSC,2010-04-19,17400.0
PSC,2010-04-20,16700.0
PSC,2010-04-21,17200.0
PSC,2010-04-22,16900.0
PSC,2010-04-26,16600.0
PSC,2010-04-27,16900.0
PSC,2010-04-28,18000.0
PSC,2010-04-29,19100.0
PSC,2010-05-04,20400.0
PSC,2010-05-05,20800.0
PSC,2010-05-06,21700.0
PSC,2010-05-07,22800.0
PSC,2010-05-10,21200.0
PSC,2010-05-11,20200.0
PSC,2010-05-12,18800.0
PSC,2010-05-13,17600.0
PSC,2010-05-14,18300.0
PSC,2010-05-17,17400.0
PSC,2010-05-18,16300.0
PSC,2010-05-19,15600.0
PSC,2010-05-20,15200.0
PSC,2010-05-21,14100.0
PSC,2010-05-24,14400.0
PSC,2010-05-25,15500.0
PSC,2010-05-26,16300.0
PSC,2010-05-27,15800.0
PSC,2010-05-28,16800.0
PSC,2010-05-31,16000.0
PSC,2010-06-01,16300.0
PSC,2010-06-02,16300.0
PSC,2010-06-03,15900.0
PSC,2010-06-04,15800.0
PSC,2010-06-07,15400.0
PSC,2010-06-08,15500.0
PSC,2010-06-09,15300.0
PSC,2010-06-10,16300.0
PSC,2010-06-11,16000.0
PSC,2010-06-14,16300.0
PSC,2010-06-15,16300.0
PSC,2010-06-16,16700.0
PSC,2010-06-17,16500.0
PSC,2010-06-18,16400.0
PSC,2010-06-21,16600.0
PSC,2010-06-22,16300.0
PSC,2010-06-23,16500.0
PSC,2010-06-24,16100.0
PSC,2010-06-25,16000.0
PSC,2010-06-28,16000.0
PSC,2010-06-29,16000.0
PSC,2010-06-30,15900.0
PSC,2010-07-01,15600.0
PSC,2010-07-02,16000.0
PSC,2010-07-05,16100.0
PSC,2010-07-06,16000.0
PSC,2010-07-07,16000.0
PSC,2010-07-08,15800.0
PSC,2010-07-09,15600.0
PSC,2010-07-12,16000.0
PSC,2010-07-13,16000.0
PSC,2010-07-14,16300.0
PSC,2010-07-15,17200.0
PSC,2010-07-16,18000.0
PSC,2010-07-19,18600.0
PSC,2010-07-20,18500.0
PSC,2010-07-21,19100.0
PSC,2010-07-22,18900.0
PSC,2010-07-23,19300.0
PSC,2010-07-26,19100.0
PSC,2010-07-27,19300.0
PSC,2010-07-28,19700.0
PSC,2010-07-29,20500.0
PSC,2010-07-30,21900.0
PSC,2010-08-02,23400.0
PSC,2010-08-03,24100.0
PSC,2010-08-04,22500.0
PSC,2010-08-05,22900.0
PSC,2010-08-06,23600.0
PSC,2010-08-09,22000.0
PSC,2010-08-10,23400.0
PSC,2010-08-11,25000.0
PSC,2010-08-12,23800.0
PSC,2010-08-13,23500.0
PSC,2010-08-16,24100.0
PSC,2010-08-17,24400.0
PSC,2010-08-18,24600.0
PSC,2010-08-19,24700.0
PSC,2010-08-20,25000.0
PSC,2010-08-23,23200.0
PSC,2010-08-24,23600.0
PSC,2010-08-25,21500.0
PSC,2010-08-26,23000.0
PSC,2010-08-27,23400.0
PSC,2010-08-30,24500.0
PSC,2010-08-31,24000.0
PSC,2010-09-01,24300.0
PSC,2010-09-06,24400.0
PSC,2010-09-07,24000.0
PSC,2010-09-08,23700.0
PSC,2010-09-09,24900.0
PSC,2010-09-10,24800.0
PSC,2010-09-13,25400.0
PSC,2010-09-14,25900.0
PSC,2010-09-15,24000.0
PSC,2010-09-16,23000.0
PSC,2010-09-17,23500.0
PSC,2010-09-20,23000.0
PSC,2010-09-21,23100.0
PSC,2010-09-22,23200.0
PSC,2010-09-23,22900.0
PSC,2010-09-24,22800.0
PSC,2010-09-27,23500.0
PSC,2010-09-28,24200.0
PSC,2010-09-29,23100.0
PSC,2010-09-30,24000.0
PSC,2010-10-01,23200.0
PSC,2010-10-04,23100.0
PSC,2010-10-05,23500.0
PSC,2010-10-06,24600.0
PSC,2010-10-07,25900.0
PSC,2010-10-08,25900.0
PSC,2010-10-11,25900.0
PSC,2010-10-12,25600.0
PSC,2010-10-13,27300.0
PSC,2010-10-14,25900.0
PSC,2010-10-15,25900.0
PSC,2010-10-18,25700.0
PSC,2010-10-19,25900.0
PSC,2010-10-20,25600.0
PSC,2010-10-21,27200.0
PSC,2010-10-22,26100.0
PSC,2010-10-25,27700.0
PSC,2010-10-26,28000.0
PSC,2010-10-27,27100.0
PSC,2010-10-28,25700.0
PSC,2010-10-29,24900.0
PSC,2010-11-01,24400.0
PSC,2010-11-02,24400.0
PSC,2010-11-03,24000.0
PSC,2010-11-04,25200.0
PSC,2010-11-05,25300.0
PSC,2010-11-08,25500.0
PSC,2010-11-09,25600.0
PSC,2010-11-10,24600.0
PSC,2010-11-11,24500.0
PSC,2010-11-12,24400.0
PSC,2010-11-15,23400.0
PSC,2010-11-16,24500.0
PSC,2010-11-17,24300.0
PSC,2010-11-18,25300.0
PSC,2010-11-19,23500.0
PSC,2010-11-22,24600.0
PSC,2010-11-23,24500.0
PSC,2010-11-24,24500.0
PSC,2010-11-25,22700.0
PSC,2010-11-26,22400.0
PSC,2010-11-29,21100.0
PSC,2010-11-30,22900.0
PSC,2010-12-01,23700.0
PSC,2010-12-02,22700.0
PSC,2010-12-03,23000.0
PSC,2010-12-06,22800.0
PSC,2010-12-07,22100.0
PSC,2010-12-08,21900.0
PSC,2010-12-09,23300.0
PSC,2010-12-10,22500.0
PSC,2010-12-13,24000.0
PSC,2010-12-14,23600.0
PSC,2010-12-15,23500.0
PSC,2010-12-16,22800.0
PSC,2010-12-17,24700.0
PSC,2010-12-20,25600.0
PSC,2010-12-21,25600.0
PSC,2010-12-22,25600.0
PSC,2010-12-23,27300.0
PSC,2010-12-24,30300.0
PSC,2010-12-27,28000.0
PSC,2010-12-28,27600.0
PSC,2010-12-29,28900.0
PSC,2010-12-30,28800.0
PSC,2010-12-31,28600.0
PSC,2011-01-04,26500.0
PSC,2011-01-05,24800.0
PSC,2011-01-06,23500.0
PSC,2011-01-07,24000.0
PSC,2011-01-10,23900.0
PSC,2011-01-11,25000.0
PSC,2011-01-12,23500.0
PSC,2011-01-13,23600.0
PSC,2011-01-14,24800.0
PSC,2011-01-17,26400.0
PSC,2011-01-18,24500.0
PSC,2011-01-19,23100.0
PSC,2011-01-20,22300.0
PSC,2011-01-21,23300.0
PSC,2011-01-24,23400.0
PSC,2011-01-25,25200.0
PSC,2011-01-26,25000.0
PSC,2011-01-27,24000.0
PSC,2011-01-28,24000.0
PSC,2011-02-08,25000.0
PSC,2011-02-09,23300.0
PSC,2011-02-10,23300.0
PSC,2011-02-11,22000.0
PSC,2011-02-14,23400.0
PSC,2011-02-15,21900.0
PSC,2011-02-16,21400.0
PSC,2011-02-17,21600.0
PSC,2011-02-18,21200.0
PSC,2011-02-21,21200.0
PSC,2011-02-22,21200.0
PSC,2011-02-23,22000.0
PSC,2011-02-24,22000.0
PSC,2011-02-25,21100.0
PSC,2011-02-28,21700.0
PSC,2011-03-01,21100.0
PSC,2011-03-02,19900.0
PSC,2011-03-03,19800.0
PSC,2011-03-04,20200.0
PSC,2011-03-07,20700.0
PSC,2011-03-08,20700.0
PSC,2011-03-09,20700.0
PSC,2011-03-10,20700.0
PSC,2011-03-11,20700.0
PSC,2011-03-14,20100.0
PSC,2011-03-15,18100.0
PSC,2011-03-16,19600.0
PSC,2011-03-17,20700.0
PSC,2011-03-18,22100.0
PSC,2011-03-21,22000.0
PSC,2011-03-22,21600.0
PSC,2011-03-23,21500.0
PSC,2011-03-24,20100.0
PSC,2011-03-25,18700.0
PSC,2011-03-28,17600.0
PSC,2011-03-29,16500.0
PSC,2011-03-30,15900.0
PSC,2011-03-31,15200.0
PSC,2011-04-01,15300.0
PSC,2011-04-04,15300.0
PSC,2011-04-05,15300.0
PSC,2011-04-06,15300.0
PSC,2011-04-07,15200.0
PSC,2011-04-08,15200.0
PSC,2011-04-13,15200.0
PSC,2011-04-14,15200.0
PSC,2011-04-15,15200.0
PSC,2011-04-18,15200.0
PSC,2011-04-19,16200.0
PSC,2011-04-20,16200.0
PSC,2011-04-21,15700.0
PSC,2011-04-22,18100.0
PSC,2011-04-25,18000.0
PSC,2011-04-26,18000.0
PSC,2011-04-27,18000.0
PSC,2011-04-28,18000.0
PSC,2011-04-29,16900.0
PSC,2011-05-04,15700.0
PSC,2011-05-05,16800.0
PSC,2011-05-06,17900.0
PSC,2011-05-09,16700.0
PSC,2011-05-10,16700.0
PSC,2011-05-11,17800.0
PSC,2011-05-12,17800.0
PSC,2011-05-13,17800.0
PSC,2011-05-16,17800.0
PSC,2011-05-17,17800.0
PSC,2011-05-18,19000.0
PSC,2011-05-19,19000.0
PSC,2011-05-20,19000.0
PSC,2011-05-23,19000.0
PSC,2011-05-24,19000.0
PSC,2011-05-25,19000.0
PSC,2011-05-26,19000.0
PSC,2011-05-27,19300.0
PSC,2011-05-30,19300.0
PSC,2011-05-31,19300.0
PSC,2011-06-01,19300.0
PSC,2011-06-02,18000.0
PSC,2011-06-03,18000.0
PSC,2011-06-06,18000.0
PSC,2011-06-07,16800.0
PSC,2011-06-08,15700.0
PSC,2011-06-09,16600.0
PSC,2011-06-10,16600.0
PSC,2011-06-13,15500.0
PSC,2011-06-14,15500.0
PSC,2011-06-15,14500.0
PSC,2011-06-16,14500.0
PSC,2011-06-17,14500.0
PSC,2011-06-20,13500.0
PSC,2011-06-21,14200.0
PSC,2011-06-22,13100.0
PSC,2011-06-23,12400.0
PSC,2011-06-24,12400.0
PSC,2011-06-27,12400.0
PSC,2011-06-28,12400.0
PSC,2011-06-29,13000.0
PSC,2011-06-30,13000.0
PSC,2011-07-01,13000.0
PSC,2011-07-04,12700.0
PSC,2011-07-05,12700.0
PSC,2011-07-06,12700.0
PSC,2011-07-07,12700.0
PSC,2011-07-08,12700.0
PSC,2011-07-11,12700.0
PSC,2011-07-12,11900.0
PSC,2011-07-13,11900.0
PSC,2011-07-14,11900.0
PSC,2011-07-15,11900.0
PSC,2011-07-18,11900.0
PSC,2011-07-19,11900.0
PSC,2011-07-20,11900.0
PSC,2011-07-21,11900.0
PSC,2011-07-22,11900.0
PSC,2011-07-25,11900.0
PSC,2011-07-26,11900.0
PSC,2011-07-27,11900.0
PSC,2011-07-28,11900.0
PSC,2011-07-29,11900.0
PSC,2011-08-01,11900.0
PSC,2011-08-02,11900.0
PSC,2011-08-03,11900.0
PSC,2011-08-04,11900.0
PSC,2011-08-05,11900.0
PSC,2011-08-08,11900.0
PSC,2011-08-09,11900.0
PSC,2011-08-10,11900.0
PSC,2011-08-11,11900.0
PSC,2011-08-12,11900.0
PSC,2011-08-15,11900.0
PSC,2011-08-16,11900.0
PSC,2011-08-17,11900.0
PSC,2011-08-18,11100.0
PSC,2011-08-19,11000.0
PSC,2011-08-22,11400.0
PSC,2011-08-23,11600.0
PSC,2011-08-24,12100.0
PSC,2011-08-25,11600.0
PSC,2011-08-26,11600.0
PSC,2011-08-29,11600.0
PSC,2011-08-30,12200.0
PSC,2011-08-31,13000.0
PSC,2011-09-01,13000.0
PSC,2011-09-05,13000.0
PSC,2011-09-06,13000.0
PSC,2011-09-07,12100.0
PSC,2011-09-08,11400.0
PSC,2011-09-09,10800.0
PSC,2011-09-12,10800.0
PSC,2011-09-13,10800.0
PSC,2011-09-14,10800.0
PSC,2011-09-15,10800.0
PSC,2011-09-16,10400.0
PSC,2011-09-19,11000.0
PSC,2011-09-20,11800.0
PSC,2011-09-21,11800.0
PSC,2011-09-22,11800.0
PSC,2011-09-23,12100.0
PSC,2011-09-26,12100.0
PSC,2011-09-27,12100.0
PSC,2011-09-28,12100.0
PSC,2011-09-29,12100.0
PSC,2011-09-30,12100.0
PSC,2011-10-03,12100.0
PSC,2011-10-04,12100.0
PSC,2011-10-05,12100.0
PSC,2011-10-06,12100.0
PSC,2011-10-07,11300.0
PSC,2011-10-10,11300.0
PSC,2011-10-11,11000.0
PSC,2011-10-12,10200.0
PSC,2011-10-13,10200.0
PSC,2011-10-14,10200.0
PSC,2011-10-17,10200.0
PSC,2011-10-18,10200.0
PSC,2011-10-19,10500.0
PSC,2011-10-20,10400.0
PSC,2011-10-21,10400.0
PSC,2011-10-24,10400.0
PSC,2011-10-25,10400.0
PSC,2011-10-26,10400.0
PSC,2011-10-27,10400.0
PSC,2011-10-28,10500.0
PSC,2011-10-31,10500.0
PSC,2011-11-01,10500.0
PSC,2011-11-02,10500.0
PSC,2011-11-03,10500.0
PSC,2011-11-04,10500.0
PSC,2011-11-07,10500.0
PSC,2011-11-08,10500.0
PSC,2011-11-09,10500.0
PSC,2011-11-10,10500.0
PSC,2011-11-11,10500.0
PSC,2011-11-14,10500.0
PSC,2011-11-15,10500.0
PSC,2011-11-16,9900.0
PSC,2011-11-17,9900.0
PSC,2011-11-18,9900.0
PSC,2011-11-21,9900.0
PSC,2011-11-22,9900.0
PSC,2011-11-23,9900.0
PSC,2011-11-24,9900.0
PSC,2011-11-25,9900.0
PSC,2011-11-28,9900.0
PSC,2011-11-29,9900.0
PSC,2011-11-30,9900.0
PSC,2011-12-01,9900.0
PSC,2011-12-02,9900.0
PSC,2011-12-05,9900.0
PSC,2011-12-06,9900.0
PSC,2011-12-07,9900.0
PSC,2011-12-08,9200.0
PSC,2011-12-09,9200.0
PSC,2011-12-12,9200.0
PSC,2011-12-13,9200.0
PSC,2011-12-14,9200.0
PSC,2011-12-15,9200.0
PSC,2011-12-16,9200.0
PSC,2011-12-19,9200.0
PSC,2011-12-20,9200.0
PSC,2011-12-21,9200.0
PSC,2011-12-22,9200.0
PSC,2011-12-23,9200.0
PSC,2011-12-26,9200.0
PSC,2011-12-27,9200.0
PSC,2011-12-28,9200.0
PSC,2011-12-29,9200.0
PSC,2011-12-30,8900.0
PSC,2012-01-03,8900.0
PSC,2012-01-04,8900.0
PSC,2012-01-05,8900.0
PSC,2012-01-06,8900.0
PSC,2012-01-09,8900.0
PSC,2012-01-10,8900.0
PSC,2012-01-11,8900.0
PSC,2012-01-12,8900.0
PSC,2012-01-13,8900.0
PSC,2012-01-16,8900.0
PSC,2012-01-17,8900.0
PSC,2012-01-18,8900.0
PSC,2012-01-19,8900.0
PSC,2012-01-20,8900.0
PSC,2012-01-30,8900.0
PSC,2012-01-31,8900.0
PSC,2012-02-01,8900.0
PSC,2012-02-02,8900.0
PSC,2012-02-03,8900.0
PSC,2012-02-06,8900.0
PSC,2012-02-07,8900.0
PSC,2012-02-08,8900.0
PSC,2012-02-09,8900.0
PSC,2012-02-10,9300.0
PSC,2012-02-13,9500.0
PSC,2012-02-14,10000.0
PSC,2012-02-15,10700.0
PSC,2012-02-16,11100.0
PSC,2012-02-17,11800.0
PSC,2012-02-20,11600.0
PSC,2012-02-21,12400.0
PSC,2012-02-22,12600.0
PSC,2012-02-23,13400.0
PSC,2012-02-24,13400.0
PSC,2012-02-27,13400.0
PSC,2012-02-28,12500.0
PSC,2012-02-29,12500.0
PSC,2012-03-01,12500.0
PSC,2012-03-02,11600.0
PSC,2012-03-05,11600.0
PSC,2012-03-06,12400.0
PSC,2012-03-07,12400.0
PSC,2012-03-08,12400.0
PSC,2012-03-09,12400.0
PSC,2012-03-12,12400.0
PSC,2012-03-13,12400.0
PSC,2012-03-14,12400.0
PSC,2012-03-15,12400.0
PSC,2012-03-16,11600.0
PSC,2012-03-19,11600.0
PSC,2012-03-20,11600.0
PSC,2012-03-21,11600.0
PSC,2012-03-22,11600.0
PSC,2012-03-23,11600.0
PSC,2012-03-26,11800.0
PSC,2012-03-27,11800.0
PSC,2012-03-28,11800.0
PSC,2012-03-29,11800.0
PSC,2012-03-30,11800.0
PSC,2012-04-03,11800.0
PSC,2012-04-04,11800.0
PSC,2012-04-05,11100.0
PSC,2012-04-06,11100.0
PSC,2012-04-09,11800.0
PSC,2012-04-10,11800.0
PSC,2012-04-11,11800.0
PSC,2012-04-12,12500.0
PSC,2012-04-13,13100.0
PSC,2012-04-16,13100.0
PSC,2012-04-17,13100.0
PSC,2012-04-18,13100.0
PSC,2012-04-19,13100.0
PSC,2012-04-20,13100.0
PSC,2012-04-23,13100.0
PSC,2012-04-24,13100.0
PSC,2012-04-25,13100.0
PSC,2012-04-26,13100.0
PSC,2012-04-27,13100.0
PSC,2012-05-02,12300.0
PSC,2012-05-03,12300.0
PSC,2012-05-04,12300.0
PSC,2012-05-07,12300.0
PSC,2012-05-08,12300.0
PSC,2012-05-09,12300.0
PSC,2012-05-10,12300.0
PSC,2012-05-11,12300.0
PSC,2012-05-14,12300.0
PSC,2012-05-15,12300.0
PSC,2012-05-16,12300.0
PSC,2012-05-17,12300.0
PSC,2012-05-18,12300.0
PSC,2012-05-21,12300.0
PSC,2012-05-22,12300.0
PSC,2012-05-23,12300.0
PSC,2012-05-24,12300.0
PSC,2012-05-25,12300.0
PSC,2012-05-28,12300.0
PSC,2012-05-29,12300.0
PSC,2012-05-30,12300.0
PSC,2012-05-31,12300.0
PSC,2012-06-01,12300.0
PSC,2012-06-04,12300.0
PSC,2012-06-05,12300.0
PSC,2012-06-06,12300.0
PSC,2012-06-07,13000.0
PSC,2012-06-08,12300.0
PSC,2012-06-11,12300.0
PSC,2012-06-12,11400.0
PSC,2012-06-13,11400.0
PSC,2012-06-14,11400.0
PSC,2012-06-15,11400.0
PSC,2012-06-18,11400.0
PSC,2012-06-19,12200.0
PSC,2012-06-20,12400.0
PSC,2012-06-21,12400.0
PSC,2012-06-22,12400.0
PSC,2012-06-25,11500.0
PSC,2012-06-26,11500.0
PSC,2012-06-27,11500.0
PSC,2012-06-28,11500.0
PSC,2012-06-29,11500.0
PSC,2012-07-02,11500.0
PSC,2012-07-03,11500.0
PSC,2012-07-04,11500.0
PSC,2012-07-05,11500.0
PSC,2012-07-06,11500.0
PSC,2012-07-09,11500.0
PSC,2012-07-10,11500.0
PSC,2012-07-11,11500.0
PSC,2012-07-12,11500.0
PSC,2012-07-13,11500.0
PSC,2012-07-16,11300.0
PSC,2012-07-17,11300.0
PSC,2012-07-18,11300.0
PSC,2012-07-19,11300.0
PSC,2012-07-20,11300.0
PSC,2012-07-23,11300.0
PSC,2012-07-24,11300.0
PSC,2012-07-25,11300.0
PSC,2012-07-26,11700.0
PSC,2012-07-27,11700.0
PSC,2012-07-30,11700.0
PSC,2012-07-31,11700.0
PSC,2012-08-01,11700.0
PSC,2012-08-02,11700.0
PSC,2012-08-03,11700.0
PSC,2012-08-06,11700.0
PSC,2012-08-07,11700.0
PSC,2012-08-08,11700.0
PSC,2012-08-09,11700.0
PSC,2012-08-10,11700.0
PSC,2012-08-13,11700.0
PSC,2012-08-14,11700.0
PSC,2012-08-15,11700.0
PSC,2012-08-16,11700.0
PSC,2012-08-17,11700.0
PSC,2012-08-20,11700.0
PSC,2012-08-21,11700.0
PSC,2012-08-22,11700.0
PSC,2012-08-23,11700.0
PSC,2012-08-24,11700.0
PSC,2012-08-27,11700.0
PSC,2012-08-28,11700.0
PSC,2012-08-29,11700.0
PSC,2012-08-30,11700.0
PSC,2012-08-31,11700.0
PSC,2012-09-04,11700.0
PSC,2012-09-05,11700.0
PSC,2012-09-06,11700.0
PSC,2012-09-07,11700.0
PSC,2012-09-10,11700.0
PSC,2012-09-11,11700.0
PSC,2012-09-12,11700.0
PSC,2012-09-13,11700.0
PSC,2012-09-14,11700.0
PSC,2012-09-17,11700.0
PSC,2012-09-18,11700.0
PSC,2012-09-19,11700.0
PSC,2012-09-20,11700.0
PSC,2012-09-21,11700.0
PSC,2012-09-24,11700.0
PSC,2012-09-25,11700.0
PSC,2012-09-26,11700.0
PSC,2012-09-27,11700.0
PSC,2012-09-28,11700.0
PSC,2012-10-01,11700.0
PSC,2012-10-02,11700.0
PSC,2012-10-03,11700.0
PSC,2012-10-04,11700.0
PSC,2012-10-05,11700.0
PSC,2012-10-08,11700.0
PSC,2012-10-09,11700.0
PSC,2012-10-10,11700.0
PSC,2012-10-11,11000.0
PSC,2012-10-12,10200.0
PSC,2012-10-15,9600.0
PSC,2012-10-16,8900.0
PSC,2012-10-17,8900.0
PSC,2012-10-18,8900.0
PSC,2012-10-19,8900.0
PSC,2012-10-22,8300.0
PSC,2012-10-23,8300.0
PSC,2012-10-24,8300.0
PSC,2012-10-25,8300.0
PSC,2012-10-26,8300.0
PSC,2012-10-29,8300.0
PSC,2012-10-30,8300.0
PSC,2012-10-31,8300.0
PSC,2012-11-01,8300.0
PSC,2012-11-02,8300.0
PSC,2012-11-05,8300.0
PSC,2012-11-06,8300.0
PSC,2012-11-07,8300.0
PSC,2012-11-08,8300.0
PSC,2012-11-09,8300.0
PSC,2012-11-12,8900.0
PSC,2012-11-13,8900.0
PSC,2012-11-14,8900.0
PSC,2012-11-15,8900.0
PSC,2012-11-16,8900.0
PSC,2012-11-19,8900.0
PSC,2012-11-20,8900.0
PSC,2012-11-21,8900.0
PSC,2012-11-22,8900.0
PSC,2012-11-23,8900.0
PSC,2012-11-26,9500.0
PSC,2012-11-27,10100.0
PSC,2012-11-28,10100.0
PSC,2012-11-29,9500.0
PSC,2012-11-30,10100.0
PSC,2012-12-03,9500.0
PSC,2012-12-04,9500.0
PSC,2012-12-05,9500.0
PSC,2012-12-06,9500.0
PSC,2012-12-07,9500.0
PSC,2012-12-10,9500.0
PSC,2012-12-11,9500.0
PSC,2012-12-12,9500.0
PSC,2012-12-13,9500.0
PSC,2012-12-14,9500.0
PSC,2012-12-17,9500.0
PSC,2012-12-18,9500.0
PSC,2012-12-19,9500.0
PSC,2012-12-20,9500.0
PSC,2012-12-21,9500.0
PSC,2012-12-24,9500.0
PSC,2012-12-25,10100.0
PSC,2012-12-26,10800.0
PSC,2012-12-27,11500.0
PSC,2012-12-28,11500.0
PSC,2013-01-02,11500.0
PSC,2013-01-03,11500.0
PSC,2013-01-04,11500.0
PSC,2013-01-07,11500.0
PSC,2013-01-08,11500.0
PSC,2013-01-09,11500.0
PSC,2013-01-10,11500.0
PSC,2013-01-11,11500.0
PSC,2013-01-14,11500.0
PSC,2013-01-15,11500.0
PSC,2013-01-16,11500.0
PSC,2013-01-17,11500.0
PSC,2013-01-18,11500.0
PSC,2013-01-21,11500.0
PSC,2013-01-22,11500.0
PSC,2013-01-23,11500.0
PSC,2013-01-24,11500.0
PSC,2013-01-25,11500.0
PSC,2013-01-28,11500.0
PSC,2013-01-29,11500.0
PSC,2013-01-30,11500.0
PSC,2013-01-31,12700.0
PSC,2013-02-01,12700.0
PSC,2013-02-04,12700.0
PSC,2013-02-05,12700.0
PSC,2013-02-06,12700.0
PSC,2013-02-07,12700.0
PSC,2013-02-08,12700.0
PSC,2013-02-18,12700.0
PSC,2013-02-19,12700.0
PSC,2013-02-20,12700.0
PSC,2013-02-21,12700.0
PSC,2013-02-22,12700.0
PSC,2013-02-25,12700.0
PSC,2013-02-26,12700.0
PSC,2013-02-27,12700.0
PSC,2013-02-28,12700.0
PSC,2013-03-01,12700.0
PSC,2013-03-04,12700.0
PSC,2013-03-05,12700.0
PSC,2013-03-06,12700.0
PSC,2013-03-07,12700.0
PSC,2013-03-08,12700.0
PSC,2013-03-11,12700.0
PSC,2013-03-12,12700.0
PSC,2013-03-13,12700.0
PSC,2013-03-14,12700.0
PSC,2013-03-15,12700.0
PSC,2013-03-18,12700.0
PSC,2013-03-19,12700.0
PSC,2013-03-20,12700.0
PSC,2013-03-21,12700.0
PSC,2013-03-22,12700.0
PSC,2013-03-25,12700.0
PSC,2013-03-26,13800.0
PSC,2013-03-27,13800.0
PSC,2013-03-28,13800.0
PSC,2013-03-29,13800.0
PSC,2013-04-01,13800.0
PSC,2013-04-02,13800.0
PSC,2013-04-03,13800.0
PSC,2013-04-04,13800.0
PSC,2013-04-05,13800.0
PSC,2013-04-08,13800.0
PSC,2013-04-09,13800.0
PSC,2013-04-10,13800.0
PSC,2013-04-11,13800.0
PSC,2013-04-12,13800.0
PSC,2013-04-15,13800.0
PSC,2013-04-16,13800.0
PSC,2013-04-17,13800.0
PSC,2013-04-18,13800.0
PSC,2013-04-22,13800.0
PSC,2013-04-23,13800.0
PSC,2013-04-24,13800.0
PSC,2013-04-25,15000.0
PSC,2013-04-26,15000.0
PSC,2013-05-02,15000.0
PSC,2013-05-03,15000.0
PSC,2013-05-06,15000.0
PSC,2013-05-07,15000.0
PSC,2013-05-08,15000.0
PSC,2013-05-09,15000.0
PSC,2013-05-10,15000.0
PSC,2013-05-13,15000.0
PSC,2013-05-14,15000.0
PSC,2013-05-15,15000.0
PSC,2013-05-16,15000.0
PSC,2013-05-17,15000.0
PSC,2013-05-20,15000.0
PSC,2013-05-21,15000.0
PSC,2013-05-22,15000.0
PSC,2013-05-23,15000.0
PSC,2013-05-24,15000.0
PSC,2013-05-27,16400.0
PSC,2013-05-28,16400.0
PSC,2013-05-29,17900.0
PSC,2013-05-30,16500.0
PSC,2013-05-31,16900.0
PSC,2013-06-03,16900.0
PSC,2013-06-04,15500.0
PSC,2013-06-05,15500.0
PSC,2013-06-06,15500.0
PSC,2013-06-07,14500.0
PSC,2013-06-10,14500.0
PSC,2013-06-11,13100.0
PSC,2013-06-12,12000.0
PSC,2013-06-13,12000.0
PSC,2013-06-14,12000.0
PSC,2013-06-17,11000.0
PSC,2013-06-18,9900.0
PSC,2013-06-19,9900.0
PSC,2013-06-20,10000.0
PSC,2013-06-21,11000.0
PSC,2013-06-24,11000.0
PSC,2013-06-25,12100.0
PSC,2013-06-26,12500.0
PSC,2013-06-27,12500.0
PSC,2013-06-28,12500.0
PSC,2013-07-01,12500.0
PSC,2013-07-02,12500.0
PSC,2013-07-03,12500.0
PSC,2013-07-04,13700.0
PSC,2013-07-05,13700.0
PSC,2013-07-08,12800.0
PSC,2013-07-09,12800.0
PSC,2013-07-10,12800.0
PSC,2013-07-11,12800.0
PSC,2013-07-12,12800.0
PSC,2013-07-15,12800.0
PSC,2013-07-16,12800.0
PSC,2013-07-17,11600.0
PSC,2013-07-18,10600.0
PSC,2013-07-19,9800.0
PSC,2013-07-22,10700.0
PSC,2013-07-23,10700.0
PSC,2013-07-24,10700.0
PSC,2013-07-25,10700.0
PSC,2013-07-26,9900.0
PSC,2013-07-29,9000.0
PSC,2013-07-30,9000.0
PSC,2013-07-31,9000.0
PSC,2013-08-01,9000.0
PSC,2013-08-02,9900.0
PSC,2013-08-05,10700.0
PSC,2013-08-06,10700.0
PSC,2013-08-07,10700.0
PSC,2013-08-08,10700.0
PSC,2013-08-09,10800.0
PSC,2013-08-12,10800.0
PSC,2013-08-13,10800.0
PSC,2013-08-14,10800.0
PSC,2013-08-15,10800.0
PSC,2013-08-16,10800.0
PSC,2013-08-19,10800.0
PSC,2013-08-20,10800.0
PSC,2013-08-21,10800.0
PSC,2013-08-22,10800.0
PSC,2013-08-23,10800.0
PSC,2013-08-26,10800.0
PSC,2013-08-27,10800.0
PSC,2013-08-28,10800.0
PSC,2013-08-29,10800.0
PSC,2013-08-30,10800.0
PSC,2013-09-03,10800.0
PSC,2013-09-04,10800.0
PSC,2013-09-05,10800.0
PSC,2013-09-06,10800.0
PSC,2013-09-09,9800.0
PSC,2013-09-10,9800.0
PSC,2013-09-11,9800.0
PSC,2013-09-12,9800.0
PSC,2013-09-13,9800.0
PSC,2013-09-16,9800.0
PSC,2013-09-17,9800.0
PSC,2013-09-18,9800.0
PSC,2013-09-19,9800.0
PSC,2013-09-20,9800.0
PSC,2013-09-23,9800.0
PSC,2013-09-24,10200.0
PSC,2013-09-25,9300.0
PSC,2013-09-26,9300.0
PSC,2013-09-27,10000.0
PSC,2013-09-30,10000.0
PSC,2013-10-01,10000.0
PSC,2013-10-02,10000.0
PSC,2013-10-03,10000.0
PSC,2013-10-04,10000.0
PSC,2013-10-07,10000.0
PSC,2013-10-08,10000.0
PSC,2013-10-09,10000.0
PSC,2013-10-10,9500.0
PSC,2013-10-11,9500.0
PSC,2013-10-14,9500.0
PSC,2013-10-15,9500.0
PSC,2013-10-16,8600.0
PSC,2013-10-17,8600.0
PSC,2013-10-18,9400.0
PSC,2013-10-21,9400.0
PSC,2013-10-22,9400.0
PSC,2013-10-23,10000.0
PSC,2013-10-24,10000.0
PSC,2013-10-25,10000.0
PSC,2013-10-28,10000.0
PSC,2013-10-29,10000.0
PSC,2013-10-30,10000.0
PSC,2013-10-31,10000.0
PSC,2013-11-01,10000.0
PSC,2013-11-04,10000.0
PSC,2013-11-05,10000.0
PSC,2013-11-06,10000.0
PSC,2013-11-07,10000.0
PSC,2013-11-08,10000.0
PSC,2013-11-11,10000.0
PSC,2013-11-12,10000.0
PSC,2013-11-13,10000.0
PSC,2013-11-14,10000.0
PSC,2013-11-15,10000.0
PSC,2013-11-18,10000.0
PSC,2013-11-19,10000.0
PSC,2013-11-20,9500.0
PSC,2013-11-21,10000.0
PSC,2013-11-22,10000.0
PSC,2013-11-25,10000.0
PSC,2013-11-26,10200.0
PSC,2013-11-27,10200.0
PSC,2013-11-28,10200.0
PSC,2013-11-29,10200.0
PSC,2013-12-02,10200.0
PSC,2013-12-03,9600.0
PSC,2013-12-04,9600.0
PSC,2013-12-05,9600.0
PSC,2013-12-06,9600.0
PSC,2013-12-09,9600.0
PSC,2013-12-10,9600.0
PSC,2013-12-11,9600.0
PSC,2013-12-12,10000.0
PSC,2013-12-13,10000.0
PSC,2013-12-16,10000.0
PSC,2013-12-17,10000.0
PSC,2013-12-18,10000.0
PSC,2013-12-19,10000.0
PSC,2013-12-20,10000.0
PSC,2013-12-23,10000.0
PSC,2013-12-24,10000.0
PSC,2013-12-25,10000.0
PSC,2013-12-26,9600.0
PSC,2013-12-27,9000.0
PSC,2013-12-30,9000.0
PSC,2013-12-31,9100.0
PSC,2014-01-02,9600.0
PSC,2014-01-03,9000.0
PSC,2014-01-06,9900.0
PSC,2014-01-07,9000.0
PSC,2014-01-08,9100.0
PSC,2014-01-09,9500.0
PSC,2014-01-10,9500.0
PSC,2014-01-13,9400.0
PSC,2014-01-14,9500.0
PSC,2014-01-15,10000.0
PSC,2014-01-16,10000.0
PSC,2014-01-17,9200.0
PSC,2014-01-20,9600.0
PSC,2014-01-21,9600.0
PSC,2014-01-22,9000.0
PSC,2014-01-23,9400.0
PSC,2014-01-24,9600.0
PSC,2014-01-27,9600.0
PSC,2014-02-06,9600.0
PSC,2014-02-07,9900.0
PSC,2014-02-10,9900.0
PSC,2014-02-11,10000.0
PSC,2014-02-12,10000.0
PSC,2014-02-13,10100.0
PSC,2014-02-14,10500.0
PSC,2014-02-17,10900.0
PSC,2014-02-18,10600.0
PSC,2014-02-19,10800.0
PSC,2014-02-20,10900.0
PSC,2014-02-21,10500.0
PSC,2014-02-24,10600.0
PSC,2014-02-25,10900.0
PSC,2014-02-26,10900.0
PSC,2014-02-27,11000.0
PSC,2014-02-28,11500.0
PSC,2014-03-03,10700.0
PSC,2014-03-04,10700.0
PSC,2014-03-05,11400.0
PSC,2014-03-06,11400.0
PSC,2014-03-07,11800.0
PSC,2014-03-10,12400.0
PSC,2014-03-11,12900.0
PSC,2014-03-12,11700.0
PSC,2014-03-13,12300.0
PSC,2014-03-14,11300.0
PSC,2014-03-17,12100.0
PSC,2014-03-18,11000.0
PSC,2014-03-19,11200.0
PSC,2014-03-20,11300.0
PSC,2014-03-21,12300.0
PSC,2014-03-24,12300.0
PSC,2014-03-25,12000.0
PSC,2014-03-26,11800.0
PSC,2014-03-27,11100.0
PSC,2014-03-28,11600.0
PSC,2014-03-31,11600.0
PSC,2014-04-01,11300.0
PSC,2014-04-02,11100.0
PSC,2014-04-03,11500.0
PSC,2014-04-04,11200.0
PSC,2014-04-07,11200.0
PSC,2014-04-08,11600.0
PSC,2014-04-10,11200.0
PSC,2014-04-11,11300.0
PSC,2014-04-14,11000.0
PSC,2014-04-15,11000.0
PSC,2014-04-16,11000.0
PSC,2014-04-17,12100.0
PSC,2014-04-18,11000.0
PSC,2014-04-21,11000.0
PSC,2014-04-22,11300.0
PSC,2014-04-23,10300.0
PSC,2014-04-24,11300.0
PSC,2014-04-25,11300.0
PSC,2014-04-28,11300.0
PSC,2014-04-29,11300.0
PSC,2014-05-05,11300.0
PSC,2014-05-06,11300.0
PSC,2014-05-07,10300.0
PSC,2014-05-08,10300.0
PSC,2014-05-09,11200.0
PSC,2014-05-12,11200.0
PSC,2014-05-13,10300.0
PSC,2014-05-14,10300.0
PSC,2014-05-15,10300.0
PSC,2014-05-16,9400.0
PSC,2014-05-19,8500.0
PSC,2014-05-20,9300.0
PSC,2014-05-21,10200.0
