PTI,2011-03-02,8500.0
PTI,2011-03-03,8500.0
PTI,2011-03-04,8100.0
PTI,2011-03-07,7700.0
PTI,2011-03-08,7900.0
PTI,2011-03-09,8000.0
PTI,2011-03-10,8500.0
PTI,2011-03-11,8400.0
PTI,2011-03-14,8000.0
PTI,2011-03-15,8100.0
PTI,2011-03-16,8200.0
PTI,2011-03-17,8200.0
PTI,2011-03-18,8300.0
PTI,2011-03-21,8200.0
PTI,2011-03-22,8000.0
PTI,2011-03-23,7900.0
PTI,2011-03-24,7900.0
PTI,2011-03-25,7900.0
PTI,2011-03-28,7900.0
PTI,2011-03-29,7800.0
PTI,2011-03-30,7800.0
PTI,2011-03-31,7800.0
PTI,2011-04-01,7600.0
PTI,2011-04-04,7500.0
PTI,2011-04-05,7700.0
PTI,2011-04-06,7600.0
PTI,2011-04-07,7500.0
PTI,2011-04-08,7600.0
PTI,2011-04-13,7600.0
PTI,2011-04-14,7500.0
PTI,2011-04-15,7000.0
PTI,2011-04-18,7200.0
PTI,2011-04-19,7300.0
PTI,2011-04-20,7200.0
PTI,2011-04-21,6900.0
PTI,2011-04-22,7100.0
PTI,2011-04-25,7500.0
PTI,2011-04-26,7300.0
PTI,2011-04-27,7200.0
PTI,2011-04-28,7000.0
PTI,2011-04-29,7200.0
PTI,2011-05-04,7200.0
PTI,2011-05-05,7200.0
PTI,2011-05-06,7300.0
PTI,2011-05-09,7200.0
PTI,2011-05-10,7200.0
PTI,2011-05-11,7400.0
PTI,2011-05-12,7500.0
PTI,2011-05-13,7400.0
PTI,2011-05-16,7300.0
PTI,2011-05-17,7000.0
PTI,2011-05-18,7200.0
PTI,2011-05-19,7200.0
PTI,2011-05-20,7200.0
PTI,2011-05-23,6800.0
PTI,2011-05-24,6500.0
PTI,2011-05-25,6200.0
PTI,2011-05-26,6200.0
PTI,2011-05-27,6500.0
PTI,2011-05-30,6300.0
PTI,2011-05-31,6500.0
PTI,2011-06-01,6700.0
PTI,2011-06-02,7000.0
PTI,2011-06-03,7100.0
PTI,2011-06-06,7100.0
PTI,2011-06-07,7400.0
PTI,2011-06-08,7000.0
PTI,2011-06-09,7600.0
PTI,2011-06-10,7500.0
PTI,2011-06-13,7500.0
PTI,2011-06-14,7200.0
PTI,2011-06-15,7500.0
PTI,2011-06-16,7400.0
PTI,2011-06-17,7200.0
PTI,2011-06-20,7200.0
PTI,2011-06-21,7400.0
PTI,2011-06-22,7500.0
PTI,2011-06-23,7300.0
PTI,2011-06-24,7400.0
PTI,2011-06-27,7300.0
PTI,2011-06-28,7200.0
PTI,2011-06-29,7200.0
PTI,2011-06-30,7200.0
PTI,2011-07-01,7200.0
PTI,2011-07-04,7300.0
PTI,2011-07-05,7400.0
PTI,2011-07-06,7400.0
PTI,2011-07-07,7300.0
PTI,2011-07-08,7200.0
PTI,2011-07-11,7200.0
PTI,2011-07-12,7300.0
PTI,2011-07-13,7200.0
PTI,2011-07-14,7200.0
PTI,2011-07-15,7200.0
PTI,2011-07-18,7000.0
PTI,2011-07-19,7100.0
PTI,2011-07-20,7200.0
PTI,2011-07-21,7000.0
PTI,2011-07-22,7000.0
PTI,2011-07-25,7000.0
PTI,2011-07-26,7000.0
PTI,2011-07-27,6900.0
PTI,2011-07-28,6900.0
PTI,2011-07-29,6800.0
PTI,2011-08-01,6700.0
PTI,2011-08-02,6600.0
PTI,2011-08-03,6600.0
PTI,2011-08-04,6600.0
PTI,2011-08-05,6500.0
PTI,2011-08-08,6400.0
PTI,2011-08-09,6300.0
PTI,2011-08-10,6200.0
PTI,2011-08-11,6100.0
PTI,2011-08-12,6100.0
PTI,2011-08-15,6100.0
PTI,2011-08-16,6200.0
PTI,2011-08-17,6200.0
PTI,2011-08-18,6200.0
PTI,2011-08-19,6200.0
PTI,2011-08-22,6400.0
PTI,2011-08-23,6400.0
PTI,2011-08-24,6400.0
PTI,2011-08-25,6600.0
PTI,2011-08-26,6400.0
PTI,2011-08-29,6600.0
PTI,2011-08-30,6600.0
PTI,2011-08-31,6700.0
PTI,2011-09-01,6900.0
PTI,2011-09-05,6900.0
PTI,2011-09-06,6900.0
PTI,2011-09-07,7200.0
PTI,2011-09-08,7100.0
PTI,2011-09-09,6800.0
PTI,2011-09-12,7400.0
PTI,2011-09-13,7800.0
PTI,2011-09-14,8200.0
PTI,2011-09-15,8700.0
PTI,2011-09-16,8500.0
PTI,2011-09-19,8500.0
PTI,2011-09-20,8400.0
PTI,2011-09-21,8300.0
PTI,2011-09-22,8400.0
PTI,2011-09-23,8200.0
PTI,2011-09-26,8200.0
PTI,2011-09-27,7800.0
PTI,2011-09-28,7800.0
PTI,2011-09-29,7600.0
PTI,2011-09-30,7500.0
PTI,2011-10-03,7600.0
PTI,2011-10-04,7700.0
PTI,2011-10-05,7800.0
PTI,2011-10-06,7900.0
PTI,2011-10-07,7800.0
PTI,2011-10-10,7800.0
PTI,2011-10-11,7800.0
PTI,2011-10-12,7700.0
PTI,2011-10-13,7800.0
PTI,2011-10-14,7800.0
PTI,2011-10-17,7800.0
PTI,2011-10-18,7700.0
PTI,2011-10-19,7800.0
PTI,2011-10-20,7600.0
PTI,2011-10-21,7700.0
PTI,2011-10-24,7600.0
PTI,2011-10-25,7600.0
PTI,2011-10-26,7600.0
PTI,2011-10-27,7000.0
PTI,2011-10-28,7300.0
PTI,2011-10-31,7600.0
PTI,2011-11-01,7200.0
PTI,2011-11-02,7400.0
PTI,2011-11-03,7200.0
PTI,2011-11-04,7200.0
PTI,2011-11-07,7200.0
PTI,2011-11-08,7100.0
PTI,2011-11-09,7100.0
PTI,2011-11-10,7000.0
PTI,2011-11-11,7000.0
PTI,2011-11-14,7000.0
PTI,2011-11-15,6800.0
PTI,2011-11-16,7100.0
PTI,2011-11-17,7000.0
PTI,2011-11-18,7000.0
PTI,2011-11-21,7000.0
PTI,2011-11-22,6800.0
PTI,2011-11-23,7000.0
PTI,2011-11-24,7000.0
PTI,2011-11-25,6900.0
PTI,2011-11-28,6900.0
PTI,2011-11-29,7000.0
PTI,2011-11-30,7000.0
PTI,2011-12-01,7000.0
PTI,2011-12-02,7000.0
PTI,2011-12-05,7000.0
PTI,2011-12-06,7000.0
PTI,2011-12-07,7000.0
PTI,2011-12-08,6700.0
PTI,2011-12-09,6700.0
PTI,2011-12-12,6700.0
PTI,2011-12-13,6800.0
PTI,2011-12-14,6600.0
PTI,2011-12-15,6600.0
PTI,2011-12-16,6700.0
PTI,2011-12-19,6600.0
PTI,2011-12-20,6600.0
PTI,2011-12-21,6600.0
PTI,2011-12-22,6500.0
PTI,2011-12-23,6600.0
PTI,2011-12-26,6400.0
PTI,2011-12-27,6300.0
PTI,2011-12-28,6400.0
PTI,2011-12-29,6400.0
PTI,2011-12-30,6500.0
PTI,2012-01-03,6600.0
PTI,2012-01-04,6500.0
PTI,2012-01-05,6500.0
PTI,2012-01-06,6400.0
PTI,2012-01-09,6400.0
PTI,2012-01-10,6500.0
PTI,2012-01-11,6500.0
PTI,2012-01-12,6500.0
PTI,2012-01-13,6400.0
PTI,2012-01-16,6400.0
PTI,2012-01-17,6400.0
PTI,2012-01-18,6500.0
PTI,2012-01-19,6500.0
PTI,2012-01-20,6600.0
PTI,2012-01-30,6600.0
PTI,2012-01-31,6600.0
PTI,2012-02-01,6500.0
PTI,2012-02-02,6600.0
PTI,2012-02-03,6500.0
PTI,2012-02-06,6600.0
PTI,2012-02-07,6500.0
PTI,2012-02-08,6400.0
PTI,2012-02-09,6500.0
PTI,2012-02-10,6400.0
PTI,2012-02-13,6400.0
PTI,2012-02-14,6400.0
PTI,2012-02-15,6400.0
PTI,2012-02-16,6400.0
PTI,2012-02-17,6400.0
PTI,2012-02-20,6400.0
PTI,2012-02-21,6300.0
PTI,2012-02-22,6400.0
PTI,2012-02-23,6400.0
PTI,2012-02-24,6400.0
PTI,2012-02-27,6400.0
PTI,2012-02-28,6600.0
PTI,2012-02-29,6600.0
PTI,2012-03-01,6600.0
PTI,2012-03-02,6400.0
PTI,2012-03-05,6600.0
PTI,2012-03-06,6800.0
PTI,2012-03-07,6800.0
PTI,2012-03-08,6400.0
PTI,2012-03-09,6600.0
PTI,2012-03-12,6500.0
PTI,2012-03-13,6300.0
PTI,2012-03-14,6300.0
PTI,2012-03-15,6400.0
PTI,2012-03-16,6300.0
PTI,2012-03-19,6400.0
PTI,2012-03-20,6400.0
PTI,2012-03-21,6400.0
PTI,2012-03-22,6400.0
PTI,2012-03-23,6600.0
PTI,2012-03-26,6700.0
PTI,2012-03-27,6400.0
PTI,2012-03-28,6500.0
PTI,2012-03-29,6400.0
PTI,2012-03-30,6200.0
PTI,2012-04-03,6200.0
PTI,2012-04-04,6000.0
PTI,2012-04-05,6100.0
PTI,2012-04-06,6200.0
PTI,2012-04-09,6400.0
PTI,2012-04-10,6400.0
PTI,2012-04-11,6500.0
PTI,2012-04-12,6500.0
PTI,2012-04-13,6400.0
PTI,2012-04-16,6600.0
PTI,2012-04-17,6900.0
PTI,2012-04-18,7400.0
PTI,2012-04-19,7600.0
PTI,2012-04-20,7400.0
PTI,2012-04-23,7200.0
PTI,2012-04-24,7200.0
PTI,2012-04-25,7400.0
PTI,2012-04-26,7300.0
PTI,2012-04-27,7400.0
PTI,2012-05-02,7400.0
PTI,2012-05-03,7700.0
PTI,2012-05-04,8000.0
PTI,2012-05-07,8500.0
PTI,2012-05-08,8300.0
PTI,2012-05-09,8500.0
PTI,2012-05-10,8200.0
PTI,2012-05-11,8300.0
PTI,2012-05-14,8300.0
PTI,2012-05-15,8000.0
PTI,2012-05-16,8000.0
PTI,2012-05-17,7600.0
PTI,2012-05-18,7900.0
PTI,2012-05-21,8300.0
PTI,2012-05-22,8300.0
PTI,2012-05-23,7700.0
PTI,2012-05-24,7400.0
PTI,2012-05-25,7000.0
PTI,2012-05-28,7200.0
PTI,2012-05-29,7500.0
PTI,2012-05-30,7900.0
PTI,2012-05-31,7800.0
PTI,2012-06-01,7700.0
PTI,2012-06-04,8200.0
PTI,2012-06-05,8200.0
PTI,2012-06-06,8200.0
PTI,2012-06-07,8200.0
PTI,2012-06-08,8200.0
PTI,2012-06-11,8000.0
PTI,2012-06-12,8500.0
PTI,2012-06-13,8500.0
PTI,2012-06-14,8500.0
PTI,2012-06-15,8500.0
PTI,2012-06-18,8500.0
PTI,2012-06-19,8500.0
PTI,2012-06-20,9100.0
PTI,2012-06-21,8800.0
PTI,2012-06-22,8600.0
PTI,2012-06-25,8300.0
PTI,2012-06-26,8500.0
PTI,2012-06-27,8500.0
PTI,2012-06-28,8200.0
PTI,2012-06-29,8700.0
PTI,2012-07-02,8200.0
PTI,2012-07-03,8100.0
PTI,2012-07-04,8100.0
PTI,2012-07-05,8100.0
PTI,2012-07-06,8100.0
PTI,2012-07-09,8100.0
PTI,2012-07-10,8100.0
PTI,2012-07-11,8100.0
PTI,2012-07-12,8100.0
PTI,2012-07-13,8200.0
PTI,2012-07-16,8500.0
PTI,2012-07-17,8200.0
PTI,2012-07-18,8500.0
PTI,2012-07-19,8500.0
PTI,2012-07-20,8600.0
PTI,2012-07-23,8600.0
PTI,2012-07-24,8600.0
PTI,2012-07-25,8000.0
PTI,2012-07-26,8400.0
PTI,2012-07-27,8400.0
PTI,2012-07-30,8200.0
PTI,2012-07-31,8400.0
PTI,2012-08-01,7800.0
PTI,2012-08-02,8300.0
PTI,2012-08-03,8200.0
PTI,2012-08-06,8200.0
PTI,2012-08-07,8500.0
PTI,2012-08-08,8600.0
PTI,2012-08-09,8600.0
PTI,2012-08-10,8600.0
PTI,2012-08-13,8200.0
PTI,2012-08-14,8300.0
PTI,2012-08-15,8200.0
PTI,2012-08-16,8300.0
PTI,2012-08-17,8200.0
PTI,2012-08-20,8300.0
PTI,2012-08-21,7900.0
PTI,2012-08-22,8000.0
PTI,2012-08-23,7600.0
PTI,2012-08-24,7700.0
PTI,2012-08-27,7600.0
PTI,2012-08-28,7900.0
PTI,2012-08-29,7900.0
PTI,2012-08-30,8100.0
PTI,2012-08-31,8000.0
PTI,2012-09-04,7900.0
PTI,2012-09-05,8000.0
PTI,2012-09-06,8000.0
PTI,2012-09-07,8000.0
PTI,2012-09-10,8600.0
PTI,2012-09-11,8500.0
PTI,2012-09-12,8200.0
PTI,2012-09-13,8300.0
PTI,2012-09-14,8400.0
PTI,2012-09-17,8300.0
PTI,2012-09-18,8300.0
PTI,2012-09-19,8300.0
PTI,2012-09-20,8300.0
PTI,2012-09-21,8400.0
PTI,2012-09-24,8000.0
PTI,2012-09-25,8100.0
PTI,2012-09-26,8100.0
PTI,2012-09-27,8600.0
PTI,2012-09-28,8600.0
PTI,2012-10-01,8400.0
PTI,2012-10-02,8500.0
PTI,2012-10-03,8400.0
PTI,2012-10-04,8400.0
PTI,2012-10-05,8900.0
PTI,2012-10-08,8900.0
PTI,2012-10-09,8600.0
PTI,2012-10-10,8300.0
PTI,2012-10-11,8300.0
PTI,2012-10-12,8300.0
PTI,2012-10-15,8700.0
PTI,2012-10-16,8700.0
PTI,2012-10-17,8700.0
PTI,2012-10-18,8700.0
PTI,2012-10-19,8400.0
PTI,2012-10-22,8300.0
PTI,2012-10-23,8700.0
PTI,2012-10-24,8900.0
PTI,2012-10-25,8700.0
PTI,2012-10-26,8300.0
PTI,2012-10-29,8800.0
PTI,2012-10-30,8800.0
PTI,2012-10-31,8800.0
PTI,2012-11-01,8200.0
PTI,2012-11-02,8200.0
PTI,2012-11-05,8200.0
PTI,2012-11-06,8200.0
PTI,2012-11-07,8200.0
PTI,2012-11-08,7700.0
PTI,2012-11-09,7700.0
PTI,2012-11-12,8200.0
PTI,2012-11-13,7700.0
PTI,2012-11-14,7500.0
PTI,2012-11-15,7500.0
PTI,2012-11-16,8000.0
PTI,2012-11-19,7900.0
PTI,2012-11-20,7900.0
PTI,2012-11-21,7900.0
PTI,2012-11-22,8000.0
PTI,2012-11-23,8000.0
PTI,2012-11-26,8000.0
PTI,2012-11-27,7500.0
PTI,2012-11-28,7500.0
PTI,2012-11-29,7500.0
PTI,2012-11-30,7500.0
PTI,2012-12-03,7600.0
PTI,2012-12-04,7400.0
PTI,2012-12-05,7900.0
PTI,2012-12-06,7900.0
PTI,2012-12-07,7900.0
PTI,2012-12-10,7600.0
PTI,2012-12-11,8000.0
PTI,2012-12-12,8300.0
PTI,2012-12-13,8200.0
PTI,2012-12-14,8300.0
PTI,2012-12-17,8300.0
PTI,2012-12-18,8100.0
PTI,2012-12-19,8000.0
PTI,2012-12-20,8000.0
PTI,2012-12-21,8100.0
PTI,2012-12-24,8000.0
PTI,2012-12-25,8000.0
PTI,2012-12-26,8600.0
PTI,2012-12-27,9100.0
PTI,2012-12-28,9200.0
PTI,2013-01-02,9200.0
PTI,2013-01-03,8600.0
PTI,2013-01-04,8600.0
PTI,2013-01-07,8600.0
PTI,2013-01-08,9000.0
PTI,2013-01-09,9000.0
PTI,2013-01-10,9000.0
PTI,2013-01-11,9500.0
PTI,2013-01-14,9500.0
PTI,2013-01-15,8600.0
PTI,2013-01-16,8600.0
PTI,2013-01-17,8600.0
PTI,2013-01-18,8500.0
PTI,2013-01-21,8700.0
PTI,2013-01-22,8700.0
PTI,2013-01-23,8600.0
PTI,2013-01-24,8600.0
PTI,2013-01-25,8800.0
PTI,2013-01-28,8800.0
PTI,2013-01-29,8800.0
PTI,2013-01-30,9000.0
PTI,2013-01-31,8700.0
PTI,2013-02-01,8600.0
PTI,2013-02-04,8600.0
PTI,2013-02-05,8600.0
PTI,2013-02-06,8700.0
PTI,2013-02-07,8700.0
PTI,2013-02-08,8700.0
PTI,2013-02-18,8900.0
PTI,2013-02-19,8900.0
PTI,2013-02-20,8900.0
PTI,2013-02-21,8800.0
PTI,2013-02-22,8800.0
PTI,2013-02-25,8800.0
PTI,2013-02-26,8700.0
PTI,2013-02-27,8600.0
PTI,2013-02-28,8700.0
PTI,2013-03-01,8700.0
PTI,2013-03-04,9500.0
PTI,2013-03-05,9500.0
PTI,2013-03-06,9500.0
PTI,2013-03-07,9000.0
PTI,2013-03-08,9000.0
PTI,2013-03-11,9000.0
PTI,2013-03-12,9000.0
PTI,2013-03-13,9000.0
PTI,2013-03-14,9000.0
PTI,2013-03-15,9000.0
PTI,2013-03-18,9000.0
PTI,2013-03-19,9000.0
PTI,2013-03-20,9000.0
PTI,2013-03-21,9000.0
PTI,2013-03-22,9000.0
PTI,2013-03-25,9000.0
PTI,2013-03-26,9000.0
PTI,2013-03-27,9000.0
PTI,2013-03-28,9000.0
PTI,2013-03-29,9000.0
PTI,2013-04-01,9000.0
PTI,2013-04-02,9000.0
PTI,2013-04-03,9000.0
PTI,2013-04-04,9000.0
PTI,2013-04-05,9000.0
PTI,2013-04-08,9000.0
PTI,2013-04-09,9000.0
PTI,2013-04-10,9000.0
PTI,2013-04-11,9000.0
PTI,2013-04-12,9000.0
PTI,2013-04-15,9000.0
PTI,2013-04-16,9000.0
PTI,2013-04-17,9000.0
PTI,2013-04-18,9000.0
PTI,2013-04-22,8600.0
PTI,2013-04-23,9200.0
PTI,2013-04-24,9000.0
PTI,2013-04-25,9000.0
PTI,2013-04-26,9000.0
PTI,2013-05-02,9000.0
PTI,2013-05-03,9000.0
PTI,2013-05-06,9500.0
PTI,2013-05-07,9500.0
PTI,2013-05-08,9500.0
PTI,2013-05-09,9100.0
PTI,2013-05-10,9500.0
PTI,2013-05-13,9200.0
PTI,2013-05-14,9700.0
PTI,2013-05-15,9700.0
PTI,2013-05-16,9700.0
PTI,2013-05-17,9900.0
PTI,2013-05-20,9500.0
PTI,2013-05-21,9500.0
PTI,2013-05-22,9500.0
PTI,2013-05-23,9500.0
PTI,2013-05-24,9500.0
PTI,2013-05-27,9500.0
PTI,2013-05-28,9500.0
PTI,2013-05-29,9500.0
PTI,2013-05-30,9500.0
PTI,2013-05-31,9500.0
PTI,2013-06-03,8600.0
PTI,2013-06-04,9500.0
PTI,2013-06-05,9500.0
PTI,2013-06-06,9500.0
PTI,2013-06-07,9500.0
PTI,2013-06-10,9300.0
PTI,2013-06-11,9500.0
PTI,2013-06-12,10300.0
PTI,2013-06-13,11000.0
PTI,2013-06-14,10900.0
PTI,2013-06-17,9900.0
PTI,2013-06-18,9900.0
PTI,2013-06-19,10000.0
PTI,2013-06-20,10000.0
PTI,2013-06-21,9800.0
PTI,2013-06-24,10500.0
PTI,2013-06-25,10500.0
PTI,2013-06-26,10500.0
PTI,2013-06-27,10400.0
PTI,2013-06-28,10400.0
PTI,2013-07-01,10300.0
PTI,2013-07-02,10500.0
PTI,2013-07-03,10500.0
PTI,2013-07-04,10500.0
PTI,2013-07-05,10000.0
PTI,2013-07-08,10000.0
PTI,2013-07-09,10000.0
PTI,2013-07-10,10000.0
PTI,2013-07-11,10000.0
PTI,2013-07-12,10000.0
PTI,2013-07-15,9600.0
PTI,2013-07-16,9600.0
PTI,2013-07-17,9700.0
PTI,2013-07-18,9700.0
PTI,2013-07-19,9800.0
PTI,2013-07-22,9800.0
PTI,2013-07-23,9800.0
PTI,2013-07-24,9800.0
PTI,2013-07-25,9800.0
PTI,2013-07-26,9800.0
PTI,2013-07-29,9800.0
PTI,2013-07-30,9800.0
PTI,2013-07-31,10000.0
PTI,2013-08-01,10000.0
PTI,2013-08-02,10000.0
PTI,2013-08-05,9000.0
PTI,2013-08-06,9900.0
PTI,2013-08-07,9900.0
PTI,2013-08-08,9900.0
PTI,2013-08-09,9900.0
PTI,2013-08-12,9900.0
PTI,2013-08-13,9900.0
PTI,2013-08-14,9900.0
PTI,2013-08-15,9900.0
PTI,2013-08-16,10000.0
PTI,2013-08-19,10000.0
PTI,2013-08-20,10000.0
PTI,2013-08-21,10000.0
PTI,2013-08-22,9700.0
PTI,2013-08-23,9700.0
PTI,2013-08-26,9700.0
PTI,2013-08-27,10000.0
PTI,2013-08-28,10000.0
PTI,2013-08-29,10000.0
PTI,2013-08-30,10000.0
PTI,2013-09-03,10000.0
PTI,2013-09-04,10000.0
PTI,2013-09-05,10000.0
PTI,2013-09-06,10000.0
PTI,2013-09-09,9800.0
PTI,2013-09-10,9800.0
PTI,2013-09-11,9800.0
PTI,2013-09-12,9800.0
PTI,2013-09-13,9800.0
PTI,2013-09-16,10000.0
PTI,2013-09-17,10000.0
PTI,2013-09-18,10000.0
PTI,2013-09-19,10000.0
PTI,2013-09-20,10000.0
PTI,2013-09-23,10000.0
PTI,2013-09-24,10000.0
PTI,2013-09-25,10200.0
PTI,2013-09-26,10000.0
PTI,2013-09-27,10600.0
PTI,2013-09-30,10600.0
PTI,2013-10-01,10600.0
PTI,2013-10-02,10600.0
PTI,2013-10-03,10500.0
PTI,2013-10-04,10500.0
PTI,2013-10-07,10000.0
PTI,2013-10-08,10000.0
PTI,2013-10-09,10000.0
PTI,2013-10-10,10000.0
PTI,2013-10-11,10000.0
PTI,2013-10-14,11000.0
PTI,2013-10-15,10000.0
PTI,2013-10-16,10000.0
PTI,2013-10-17,10000.0
PTI,2013-10-18,10100.0
PTI,2013-10-21,10500.0
PTI,2013-10-22,10500.0
PTI,2013-10-23,10500.0
PTI,2013-10-24,10100.0
PTI,2013-10-25,10100.0
PTI,2013-10-28,10100.0
PTI,2013-10-29,10000.0
PTI,2013-10-30,10000.0
PTI,2013-10-31,10000.0
PTI,2013-11-01,10000.0
PTI,2013-11-04,10100.0
PTI,2013-11-05,10100.0
PTI,2013-11-06,10000.0
PTI,2013-11-07,10500.0
PTI,2013-11-08,10000.0
PTI,2013-11-11,10000.0
PTI,2013-11-12,10000.0
PTI,2013-11-13,10000.0
PTI,2013-11-14,10000.0
PTI,2013-11-15,10500.0
PTI,2013-11-18,10500.0
PTI,2013-11-19,10100.0
PTI,2013-11-20,10100.0
PTI,2013-11-21,10100.0
PTI,2013-11-22,10100.0
PTI,2013-11-25,10100.0
PTI,2013-11-26,10000.0
PTI,2013-11-27,10000.0
PTI,2013-11-28,10000.0
PTI,2013-11-29,10000.0
PTI,2013-12-02,10000.0
PTI,2013-12-03,10000.0
PTI,2013-12-04,10000.0
PTI,2013-12-05,10000.0
PTI,2013-12-06,10000.0
PTI,2013-12-09,10000.0
PTI,2013-12-10,10000.0
PTI,2013-12-11,10000.0
PTI,2013-12-12,10000.0
PTI,2013-12-13,10000.0
PTI,2013-12-16,10000.0
PTI,2013-12-17,10000.0
PTI,2013-12-18,10000.0
PTI,2013-12-19,10500.0
PTI,2013-12-20,11000.0
PTI,2013-12-23,11000.0
PTI,2013-12-24,11000.0
PTI,2013-12-25,11000.0
PTI,2013-12-26,10500.0
PTI,2013-12-27,10500.0
PTI,2013-12-30,10500.0
PTI,2013-12-31,10500.0
PTI,2014-01-02,10500.0
PTI,2014-01-03,10500.0
PTI,2014-01-06,10000.0
PTI,2014-01-07,10000.0
PTI,2014-01-08,10500.0
PTI,2014-01-09,10500.0
PTI,2014-01-10,10500.0
PTI,2014-01-13,10500.0
PTI,2014-01-14,10500.0
PTI,2014-01-15,11000.0
PTI,2014-01-16,11000.0
PTI,2014-01-17,11000.0
PTI,2014-01-20,11000.0
PTI,2014-01-21,11000.0
PTI,2014-01-22,11000.0
PTI,2014-01-23,10800.0
PTI,2014-01-24,10800.0
PTI,2014-01-27,10800.0
PTI,2014-02-06,10800.0
PTI,2014-02-07,10800.0
PTI,2014-02-10,10800.0
PTI,2014-02-11,11000.0
PTI,2014-02-12,10800.0
PTI,2014-02-13,10500.0
PTI,2014-02-14,10300.0
PTI,2014-02-17,10500.0
PTI,2014-02-18,11000.0
PTI,2014-02-19,11300.0
PTI,2014-02-20,11800.0
PTI,2014-02-21,11800.0
PTI,2014-02-24,11800.0
PTI,2014-02-25,11700.0
PTI,2014-02-26,11700.0
PTI,2014-02-27,12000.0
PTI,2014-02-28,12300.0
PTI,2014-03-03,11800.0
PTI,2014-03-04,11800.0
PTI,2014-03-05,11900.0
PTI,2014-03-06,11900.0
PTI,2014-03-07,11900.0
PTI,2014-03-10,12300.0
PTI,2014-03-11,12100.0
PTI,2014-03-12,11600.0
PTI,2014-03-13,11600.0
PTI,2014-03-14,11700.0
PTI,2014-03-17,11700.0
PTI,2014-03-18,11700.0
PTI,2014-03-19,12000.0
PTI,2014-03-20,12000.0
PTI,2014-03-21,12000.0
PTI,2014-03-24,12100.0
PTI,2014-03-25,12100.0
PTI,2014-03-26,12000.0
PTI,2014-03-27,12000.0
PTI,2014-03-28,12000.0
PTI,2014-03-31,11900.0
PTI,2014-04-01,11900.0
PTI,2014-04-02,11900.0
PTI,2014-04-03,11700.0
PTI,2014-04-04,11700.0
PTI,2014-04-07,11500.0
PTI,2014-04-08,11700.0
PTI,2014-04-10,11500.0
PTI,2014-04-11,11500.0
PTI,2014-04-14,11600.0
PTI,2014-04-15,11000.0
PTI,2014-04-16,10900.0
PTI,2014-04-17,11000.0
PTI,2014-04-18,11000.0
PTI,2014-04-21,11000.0
PTI,2014-04-22,11000.0
PTI,2014-04-23,11000.0
PTI,2014-04-24,11500.0
PTI,2014-04-25,11500.0
PTI,2014-04-28,11500.0
PTI,2014-04-29,11500.0
PTI,2014-05-05,11000.0
PTI,2014-05-06,11000.0
PTI,2014-05-07,11000.0
PTI,2014-05-08,10700.0
PTI,2014-05-09,11000.0
PTI,2014-05-12,10900.0
PTI,2014-05-13,10800.0
PTI,2014-05-14,10700.0
PTI,2014-05-15,10700.0
PTI,2014-05-16,11000.0
PTI,2014-05-19,10700.0
PTI,2014-05-20,10800.0
PTI,2014-05-21,10800.0
