PV2,2010-12-16,12500.0
PV2,2010-12-17,12600.0
PV2,2010-12-20,11900.0
PV2,2010-12-21,11400.0
PV2,2010-12-22,11000.0
PV2,2010-12-23,10500.0
PV2,2010-12-24,10800.0
PV2,2010-12-27,11400.0
PV2,2010-12-28,12100.0
PV2,2010-12-29,11900.0
PV2,2010-12-30,11800.0
PV2,2010-12-31,11300.0
PV2,2011-01-04,11400.0
PV2,2011-01-05,11000.0
PV2,2011-01-06,10700.0
PV2,2011-01-07,10700.0
PV2,2011-01-10,10500.0
PV2,2011-01-11,10100.0
PV2,2011-01-12,10100.0
PV2,2011-01-13,10300.0
PV2,2011-01-14,10300.0
PV2,2011-01-17,10200.0
PV2,2011-01-18,10200.0
PV2,2011-01-19,11000.0
PV2,2011-01-20,11400.0
PV2,2011-01-21,11400.0
PV2,2011-01-24,10900.0
PV2,2011-01-25,10400.0
PV2,2011-01-26,10200.0
PV2,2011-01-27,10400.0
PV2,2011-01-28,10400.0
PV2,2011-02-08,10400.0
PV2,2011-02-09,10200.0
PV2,2011-02-10,10200.0
PV2,2011-02-11,10300.0
PV2,2011-02-14,10100.0
PV2,2011-02-15,10000.0
PV2,2011-02-16,9700.0
PV2,2011-02-17,9600.0
PV2,2011-02-18,9300.0
PV2,2011-02-21,8800.0
PV2,2011-02-22,8200.0
PV2,2011-02-23,8700.0
PV2,2011-02-24,8600.0
PV2,2011-02-25,8900.0
PV2,2011-02-28,8600.0
PV2,2011-03-01,8500.0
PV2,2011-03-02,8500.0
PV2,2011-03-03,8100.0
PV2,2011-03-04,8100.0
PV2,2011-03-07,8100.0
PV2,2011-03-08,8000.0
PV2,2011-03-09,8000.0
PV2,2011-03-10,8500.0
PV2,2011-03-11,9000.0
PV2,2011-03-14,8400.0
PV2,2011-03-15,8500.0
PV2,2011-03-16,8800.0
PV2,2011-03-17,8800.0
PV2,2011-03-18,8900.0
PV2,2011-03-21,8800.0
PV2,2011-03-22,8600.0
PV2,2011-03-23,8800.0
PV2,2011-03-24,8600.0
PV2,2011-03-25,8600.0
PV2,2011-03-28,8600.0
PV2,2011-03-29,8300.0
PV2,2011-03-30,8400.0
PV2,2011-03-31,8300.0
PV2,2011-04-01,8000.0
PV2,2011-04-04,7800.0
PV2,2011-04-05,8000.0
PV2,2011-04-06,8200.0
PV2,2011-04-07,8000.0
PV2,2011-04-08,8000.0
PV2,2011-04-13,8000.0
PV2,2011-04-14,7900.0
PV2,2011-04-15,7800.0
PV2,2011-04-18,7600.0
PV2,2011-04-19,7300.0
PV2,2011-04-20,7100.0
PV2,2011-04-21,7100.0
PV2,2011-04-22,6900.0
PV2,2011-04-25,7200.0
PV2,2011-04-26,6900.0
PV2,2011-04-27,6700.0
PV2,2011-04-28,6600.0
PV2,2011-04-29,6600.0
PV2,2011-05-04,6500.0
PV2,2011-05-05,6400.0
PV2,2011-05-06,6400.0
PV2,2011-05-09,6500.0
PV2,2011-05-10,6600.0
PV2,2011-05-11,6500.0
PV2,2011-05-12,6500.0
PV2,2011-05-13,6400.0
PV2,2011-05-16,6200.0
PV2,2011-05-17,6000.0
PV2,2011-05-18,5700.0
PV2,2011-05-19,5700.0
PV2,2011-05-20,5400.0
PV2,2011-05-23,5200.0
PV2,2011-05-24,5200.0
PV2,2011-05-25,4900.0
PV2,2011-05-26,4900.0
PV2,2011-05-27,5100.0
PV2,2011-05-30,5000.0
PV2,2011-05-31,5000.0
PV2,2011-06-01,5300.0
PV2,2011-06-02,5600.0
PV2,2011-06-03,5600.0
PV2,2011-06-06,5500.0
PV2,2011-06-07,5600.0
PV2,2011-06-08,5600.0
PV2,2011-06-09,5800.0
PV2,2011-06-10,6200.0
PV2,2011-06-13,6600.0
PV2,2011-06-14,6800.0
PV2,2011-06-15,6600.0
PV2,2011-06-16,6600.0
PV2,2011-06-17,6300.0
PV2,2011-06-20,5900.0
PV2,2011-06-21,6200.0
PV2,2011-06-22,6000.0
PV2,2011-06-23,5800.0
PV2,2011-06-24,5800.0
PV2,2011-06-27,5800.0
PV2,2011-06-28,5500.0
PV2,2011-06-29,5300.0
PV2,2011-06-30,5200.0
PV2,2011-07-01,5000.0
PV2,2011-07-04,5100.0
PV2,2011-07-05,5400.0
PV2,2011-07-06,5300.0
PV2,2011-07-07,5100.0
PV2,2011-07-08,5200.0
PV2,2011-07-11,5000.0
PV2,2011-07-12,5000.0
PV2,2011-07-13,5200.0
PV2,2011-07-14,5200.0
PV2,2011-07-15,5100.0
PV2,2011-07-18,5100.0
PV2,2011-07-19,5100.0
PV2,2011-07-20,5200.0
PV2,2011-07-21,5200.0
PV2,2011-07-22,5100.0
PV2,2011-07-25,5000.0
PV2,2011-07-26,5000.0
PV2,2011-07-27,5000.0
PV2,2011-07-28,5100.0
PV2,2011-07-29,5100.0
PV2,2011-08-01,5100.0
PV2,2011-08-02,5000.0
PV2,2011-08-03,5100.0
PV2,2011-08-04,5300.0
PV2,2011-08-05,5000.0
PV2,2011-08-08,5000.0
PV2,2011-08-09,4800.0
PV2,2011-08-10,5000.0
PV2,2011-08-11,4900.0
PV2,2011-08-12,5000.0
PV2,2011-08-15,5100.0
PV2,2011-08-16,5000.0
PV2,2011-08-17,5300.0
PV2,2011-08-18,5400.0
PV2,2011-08-19,5300.0
PV2,2011-08-22,5500.0
PV2,2011-08-23,5300.0
PV2,2011-08-24,5300.0
PV2,2011-08-25,5300.0
PV2,2011-08-26,5200.0
PV2,2011-08-29,5500.0
PV2,2011-08-30,5700.0
PV2,2011-08-31,5900.0
PV2,2011-09-01,6300.0
PV2,2011-09-05,6300.0
PV2,2011-09-06,6400.0
PV2,2011-09-07,6800.0
PV2,2011-09-08,6500.0
PV2,2011-09-09,6800.0
PV2,2011-09-12,6500.0
PV2,2011-09-13,6800.0
PV2,2011-09-14,6500.0
PV2,2011-09-15,6300.0
PV2,2011-09-16,6000.0
PV2,2011-09-19,6300.0
PV2,2011-09-20,6100.0
PV2,2011-09-21,6000.0
PV2,2011-09-22,6300.0
PV2,2011-09-23,6000.0
PV2,2011-09-26,6100.0
PV2,2011-09-27,6100.0
PV2,2011-09-28,6500.0
PV2,2011-09-29,6200.0
PV2,2011-09-30,6000.0
PV2,2011-10-03,5900.0
PV2,2011-10-04,5700.0
PV2,2011-10-05,5500.0
PV2,2011-10-06,5800.0
PV2,2011-10-07,5500.0
PV2,2011-10-10,5300.0
PV2,2011-10-11,5400.0
PV2,2011-10-12,5000.0
PV2,2011-10-13,5000.0
PV2,2011-10-14,5100.0
PV2,2011-10-17,5200.0
PV2,2011-10-18,5200.0
PV2,2011-10-19,5300.0
PV2,2011-10-20,5400.0
PV2,2011-10-21,5600.0
PV2,2011-10-24,5400.0
PV2,2011-10-25,5300.0
PV2,2011-10-26,5300.0
PV2,2011-10-27,5500.0
PV2,2011-10-28,5700.0
PV2,2011-10-31,5500.0
PV2,2011-11-01,5400.0
PV2,2011-11-02,5400.0
PV2,2011-11-03,5300.0
PV2,2011-11-04,5400.0
PV2,2011-11-07,5100.0
PV2,2011-11-08,5300.0
PV2,2011-11-09,5100.0
PV2,2011-11-10,5000.0
PV2,2011-11-11,5000.0
PV2,2011-11-14,5000.0
PV2,2011-11-15,5000.0
PV2,2011-11-16,5100.0
PV2,2011-11-17,5000.0
PV2,2011-11-18,5000.0
PV2,2011-11-21,4900.0
PV2,2011-11-22,5100.0
PV2,2011-11-23,5200.0
PV2,2011-11-24,5200.0
PV2,2011-11-25,5200.0
PV2,2011-11-28,5000.0
PV2,2011-11-29,4800.0
PV2,2011-11-30,4600.0
PV2,2011-12-01,4800.0
PV2,2011-12-02,4800.0
PV2,2011-12-05,5000.0
PV2,2011-12-06,4800.0
PV2,2011-12-07,5000.0
PV2,2011-12-08,5300.0
PV2,2011-12-09,5500.0
PV2,2011-12-12,5200.0
PV2,2011-12-13,5100.0
PV2,2011-12-14,5000.0
PV2,2011-12-15,4800.0
PV2,2011-12-16,5000.0
PV2,2011-12-19,5000.0
PV2,2011-12-20,4900.0
PV2,2011-12-21,5000.0
PV2,2011-12-22,4900.0
PV2,2011-12-23,5100.0
PV2,2011-12-26,5000.0
PV2,2011-12-27,5000.0
PV2,2011-12-28,5000.0
PV2,2011-12-29,5100.0
PV2,2011-12-30,4900.0
PV2,2012-01-03,4900.0
PV2,2012-01-04,4900.0
PV2,2012-01-05,4900.0
PV2,2012-01-06,5000.0
PV2,2012-01-09,4900.0
PV2,2012-01-10,5000.0
PV2,2012-01-11,4900.0
PV2,2012-01-12,5100.0
PV2,2012-01-13,4800.0
PV2,2012-01-16,4900.0
PV2,2012-01-17,5000.0
PV2,2012-01-18,5000.0
PV2,2012-01-19,5000.0
PV2,2012-01-20,4800.0
PV2,2012-01-30,4900.0
PV2,2012-01-31,5000.0
PV2,2012-02-01,5000.0
PV2,2012-02-02,5000.0
PV2,2012-02-03,5000.0
PV2,2012-02-06,5000.0
PV2,2012-02-07,4900.0
PV2,2012-02-08,5000.0
PV2,2012-02-09,4800.0
PV2,2012-02-10,4900.0
PV2,2012-02-13,4900.0
PV2,2012-02-14,5000.0
PV2,2012-02-15,5000.0
PV2,2012-02-16,4800.0
PV2,2012-02-17,4900.0
PV2,2012-02-20,5200.0
PV2,2012-02-21,5100.0
PV2,2012-02-22,5500.0
PV2,2012-02-23,5600.0
PV2,2012-02-24,5600.0
PV2,2012-02-27,5700.0
PV2,2012-02-28,5700.0
PV2,2012-02-29,5600.0
PV2,2012-03-01,5700.0
PV2,2012-03-02,5700.0
PV2,2012-03-05,5900.0
PV2,2012-03-06,6000.0
PV2,2012-03-07,5800.0
PV2,2012-03-08,5400.0
PV2,2012-03-09,5200.0
PV2,2012-03-12,5100.0
PV2,2012-03-13,5400.0
PV2,2012-03-14,5200.0
PV2,2012-03-15,5500.0
PV2,2012-03-16,5500.0
PV2,2012-03-19,5300.0
PV2,2012-03-20,5500.0
PV2,2012-03-21,5700.0
PV2,2012-03-22,5600.0
PV2,2012-03-23,5900.0
PV2,2012-03-26,6300.0
PV2,2012-03-27,5900.0
PV2,2012-03-28,6000.0
PV2,2012-03-29,5700.0
PV2,2012-03-30,5600.0
PV2,2012-04-03,5900.0
PV2,2012-04-04,5800.0
PV2,2012-04-05,5800.0
PV2,2012-04-06,5600.0
PV2,2012-04-09,5900.0
PV2,2012-04-10,5800.0
PV2,2012-04-11,6100.0
PV2,2012-04-12,6000.0
PV2,2012-04-13,5900.0
PV2,2012-04-16,6200.0
PV2,2012-04-17,6000.0
PV2,2012-04-18,6500.0
PV2,2012-04-19,6900.0
PV2,2012-04-20,6700.0
PV2,2012-04-23,6600.0
PV2,2012-04-24,6300.0
PV2,2012-04-25,6800.0
PV2,2012-04-26,6800.0
PV2,2012-04-27,7200.0
PV2,2012-05-02,7700.0
PV2,2012-05-03,8200.0
PV2,2012-05-04,8700.0
PV2,2012-05-07,9300.0
PV2,2012-05-08,8700.0
PV2,2012-05-09,9200.0
PV2,2012-05-10,8800.0
PV2,2012-05-11,8100.0
PV2,2012-05-14,7600.0
PV2,2012-05-15,7100.0
PV2,2012-05-16,7500.0
PV2,2012-05-17,7300.0
PV2,2012-05-18,7100.0
PV2,2012-05-21,7400.0
PV2,2012-05-22,7700.0
PV2,2012-05-23,7100.0
PV2,2012-05-24,7300.0
PV2,2012-05-25,7500.0
PV2,2012-05-28,7800.0
PV2,2012-05-29,7600.0
PV2,2012-05-30,7800.0
PV2,2012-05-31,7400.0
PV2,2012-06-01,7700.0
PV2,2012-06-04,7300.0
PV2,2012-06-05,7500.0
PV2,2012-06-06,7700.0
PV2,2012-06-07,8000.0
PV2,2012-06-08,7800.0
PV2,2012-06-11,7900.0
PV2,2012-06-12,7600.0
PV2,2012-06-13,7500.0
PV2,2012-06-14,7400.0
PV2,2012-06-15,7600.0
PV2,2012-06-18,7600.0
PV2,2012-06-19,7500.0
PV2,2012-06-20,7400.0
PV2,2012-06-21,7400.0
PV2,2012-06-22,7000.0
PV2,2012-06-25,6600.0
PV2,2012-06-26,6300.0
PV2,2012-06-27,6200.0
PV2,2012-06-28,6600.0
PV2,2012-06-29,6500.0
PV2,2012-07-02,6200.0
PV2,2012-07-03,6200.0
PV2,2012-07-04,6000.0
PV2,2012-07-05,6400.0
PV2,2012-07-06,6300.0
PV2,2012-07-09,6000.0
PV2,2012-07-10,5900.0
PV2,2012-07-11,6200.0
PV2,2012-07-12,6400.0
PV2,2012-07-13,6600.0
PV2,2012-07-16,6300.0
PV2,2012-07-17,6600.0
PV2,2012-07-18,6400.0
PV2,2012-07-19,6800.0
PV2,2012-07-20,6700.0
PV2,2012-07-23,6500.0
PV2,2012-07-24,6100.0
PV2,2012-07-25,6200.0
PV2,2012-07-26,6200.0
PV2,2012-07-27,5900.0
PV2,2012-07-30,5900.0
PV2,2012-07-31,5800.0
PV2,2012-08-01,5700.0
PV2,2012-08-02,5800.0
PV2,2012-08-03,5800.0
PV2,2012-08-06,6000.0
PV2,2012-08-07,6000.0
PV2,2012-08-08,6100.0
PV2,2012-08-09,6100.0
PV2,2012-08-10,6000.0
PV2,2012-08-13,5900.0
PV2,2012-08-14,5900.0
PV2,2012-08-15,5800.0
PV2,2012-08-16,5700.0
PV2,2012-08-17,5900.0
PV2,2012-08-20,5900.0
PV2,2012-08-21,5500.0
PV2,2012-08-22,5200.0
PV2,2012-08-23,4900.0
PV2,2012-08-24,4900.0
PV2,2012-08-27,4600.0
PV2,2012-08-28,4500.0
PV2,2012-08-29,4800.0
PV2,2012-08-30,5100.0
PV2,2012-08-31,5300.0
PV2,2012-09-04,5500.0
PV2,2012-09-05,5200.0
PV2,2012-09-06,4900.0
PV2,2012-09-07,5000.0
PV2,2012-09-10,4600.0
PV2,2012-09-11,4400.0
PV2,2012-09-12,4300.0
PV2,2012-09-13,4500.0
PV2,2012-09-14,4700.0
PV2,2012-09-17,4500.0
PV2,2012-09-18,4300.0
PV2,2012-09-19,4300.0
PV2,2012-09-20,4200.0
PV2,2012-09-21,4400.0
PV2,2012-09-24,4300.0
PV2,2012-09-25,4400.0
PV2,2012-09-26,4400.0
PV2,2012-09-27,4200.0
PV2,2012-09-28,4200.0
PV2,2012-10-01,4000.0
PV2,2012-10-02,3900.0
PV2,2012-10-03,4100.0
PV2,2012-10-04,4100.0
PV2,2012-10-05,4100.0
PV2,2012-10-08,4300.0
PV2,2012-10-09,4300.0
PV2,2012-10-10,4600.0
PV2,2012-10-11,4600.0
PV2,2012-10-12,4600.0
PV2,2012-10-15,4400.0
PV2,2012-10-16,4700.0
PV2,2012-10-17,4500.0
PV2,2012-10-18,4500.0
PV2,2012-10-19,4300.0
PV2,2012-10-22,4200.0
PV2,2012-10-23,4400.0
PV2,2012-10-24,4400.0
PV2,2012-10-25,4200.0
PV2,2012-10-26,4200.0
PV2,2012-10-29,4000.0
PV2,2012-10-30,4100.0
PV2,2012-10-31,4200.0
PV2,2012-11-01,4100.0
PV2,2012-11-02,3900.0
PV2,2012-11-05,3900.0
PV2,2012-11-06,3900.0
PV2,2012-11-07,4000.0
PV2,2012-11-08,4000.0
PV2,2012-11-09,4100.0
PV2,2012-11-12,4100.0
PV2,2012-11-13,4000.0
PV2,2012-11-14,4000.0
PV2,2012-11-15,3900.0
PV2,2012-11-16,4000.0
PV2,2012-11-19,3800.0
PV2,2012-11-20,3900.0
PV2,2012-11-21,3700.0
PV2,2012-11-22,3900.0
PV2,2012-11-23,3700.0
PV2,2012-11-26,3600.0
PV2,2012-11-27,3500.0
PV2,2012-11-28,3500.0
PV2,2012-11-29,3500.0
PV2,2012-11-30,3400.0
PV2,2012-12-03,3400.0
PV2,2012-12-04,3500.0
PV2,2012-12-05,3600.0
PV2,2012-12-06,3600.0
PV2,2012-12-07,3800.0
PV2,2012-12-10,3900.0
PV2,2012-12-11,3900.0
PV2,2012-12-12,4000.0
PV2,2012-12-13,3900.0
PV2,2012-12-14,3800.0
PV2,2012-12-17,3900.0
PV2,2012-12-18,3800.0
PV2,2012-12-19,4000.0
PV2,2012-12-20,3900.0
PV2,2012-12-21,3700.0
PV2,2012-12-24,3900.0
PV2,2012-12-25,3800.0
PV2,2012-12-26,4000.0
PV2,2012-12-27,4100.0
PV2,2012-12-28,4400.0
PV2,2013-01-02,4700.0
PV2,2013-01-03,4400.0
PV2,2013-01-04,4600.0
PV2,2013-01-07,4300.0
PV2,2013-01-08,4400.0
PV2,2013-01-09,4100.0
PV2,2013-01-10,4300.0
PV2,2013-01-11,4300.0
PV2,2013-01-14,4400.0
PV2,2013-01-15,4700.0
PV2,2013-01-16,5000.0
PV2,2013-01-17,4700.0
PV2,2013-01-18,4500.0
PV2,2013-01-21,4800.0
PV2,2013-01-22,4500.0
PV2,2013-01-23,4300.0
PV2,2013-01-24,4600.0
PV2,2013-01-25,4500.0
PV2,2013-01-28,4500.0
PV2,2013-01-29,4800.0
PV2,2013-01-30,4600.0
PV2,2013-01-31,4500.0
PV2,2013-02-01,4600.0
PV2,2013-02-04,4400.0
PV2,2013-02-05,4400.0
PV2,2013-02-06,4500.0
PV2,2013-02-07,4700.0
PV2,2013-02-08,4800.0
PV2,2013-02-18,5000.0
PV2,2013-02-19,5000.0
PV2,2013-02-20,5000.0
PV2,2013-02-21,4500.0
PV2,2013-02-22,4500.0
PV2,2013-02-25,4500.0
PV2,2013-02-26,4200.0
PV2,2013-02-27,4200.0
PV2,2013-02-28,4100.0
PV2,2013-03-01,4200.0
PV2,2013-03-04,3900.0
PV2,2013-03-05,3700.0
PV2,2013-03-06,4000.0
PV2,2013-03-07,3900.0
PV2,2013-03-08,4000.0
PV2,2013-03-11,4200.0
PV2,2013-03-12,4200.0
PV2,2013-03-13,4100.0
PV2,2013-03-14,4100.0
PV2,2013-03-15,4100.0
PV2,2013-03-18,4000.0
PV2,2013-03-19,4000.0
PV2,2013-03-20,4000.0
PV2,2013-03-21,4000.0
PV2,2013-03-22,3900.0
PV2,2013-03-25,4000.0
PV2,2013-03-26,3900.0
PV2,2013-03-27,3800.0
PV2,2013-03-28,3700.0
PV2,2013-03-29,3700.0
PV2,2013-04-01,3900.0
PV2,2013-04-02,3900.0
PV2,2013-04-03,3800.0
PV2,2013-04-04,3500.0
PV2,2013-04-05,3700.0
PV2,2013-04-08,3600.0
PV2,2013-04-09,3600.0
PV2,2013-04-10,3500.0
PV2,2013-04-11,3500.0
PV2,2013-04-12,3400.0
PV2,2013-04-15,3200.0
PV2,2013-04-16,3300.0
PV2,2013-04-17,3100.0
PV2,2013-04-18,2900.0
PV2,2013-04-22,2700.0
PV2,2013-04-23,2800.0
PV2,2013-04-24,2800.0
PV2,2013-04-25,2900.0
PV2,2013-04-26,2800.0
PV2,2013-05-02,2800.0
PV2,2013-05-03,2900.0
PV2,2013-05-06,3100.0
PV2,2013-05-07,3200.0
PV2,2013-05-08,3100.0
PV2,2013-05-09,3100.0
PV2,2013-05-10,3100.0
PV2,2013-05-13,3100.0
PV2,2013-05-14,2900.0
PV2,2013-05-15,3000.0
PV2,2013-05-16,3100.0
PV2,2013-05-17,3000.0
PV2,2013-05-20,3000.0
PV2,2013-05-21,3100.0
PV2,2013-05-22,3200.0
PV2,2013-05-23,3100.0
PV2,2013-05-24,3100.0
PV2,2013-05-27,3300.0
PV2,2013-05-28,3300.0
PV2,2013-05-29,3400.0
PV2,2013-05-30,3500.0
PV2,2013-05-31,3400.0
PV2,2013-06-03,3400.0
PV2,2013-06-04,3300.0
PV2,2013-06-05,3300.0
PV2,2013-06-06,3300.0
PV2,2013-06-07,3300.0
PV2,2013-06-10,3200.0
PV2,2013-06-11,3200.0
PV2,2013-06-12,3200.0
PV2,2013-06-13,3200.0
PV2,2013-06-14,3200.0
PV2,2013-06-17,3100.0
PV2,2013-06-18,3200.0
PV2,2013-06-19,3200.0
PV2,2013-06-20,3200.0
PV2,2013-06-21,3100.0
PV2,2013-06-24,3100.0
PV2,2013-06-25,2900.0
PV2,2013-06-26,2900.0
PV2,2013-06-27,3000.0
PV2,2013-06-28,3000.0
PV2,2013-07-01,2900.0
PV2,2013-07-02,3000.0
PV2,2013-07-03,3000.0
PV2,2013-07-04,2900.0
PV2,2013-07-05,2900.0
PV2,2013-07-08,2900.0
PV2,2013-07-09,2800.0
PV2,2013-07-10,2900.0
PV2,2013-07-11,2900.0
PV2,2013-07-12,3000.0
PV2,2013-07-15,2900.0
PV2,2013-07-16,2700.0
PV2,2013-07-17,2800.0
PV2,2013-07-18,2600.0
PV2,2013-07-19,2700.0
PV2,2013-07-22,2500.0
PV2,2013-07-23,2500.0
PV2,2013-07-24,2400.0
PV2,2013-07-25,2400.0
PV2,2013-07-26,2600.0
PV2,2013-07-29,2600.0
PV2,2013-07-30,2600.0
PV2,2013-07-31,2400.0
PV2,2013-08-01,2600.0
PV2,2013-08-02,2600.0
PV2,2013-08-05,2500.0
PV2,2013-08-06,2500.0
PV2,2013-08-07,2400.0
PV2,2013-08-08,2500.0
PV2,2013-08-09,2400.0
PV2,2013-08-12,2500.0
PV2,2013-08-13,2400.0
PV2,2013-08-14,2400.0
PV2,2013-08-15,2400.0
PV2,2013-08-16,2400.0
PV2,2013-08-19,2500.0
PV2,2013-08-20,2500.0
PV2,2013-08-21,2500.0
PV2,2013-08-22,2300.0
PV2,2013-08-23,2300.0
PV2,2013-08-26,2200.0
PV2,2013-08-27,2100.0
PV2,2013-08-28,2000.0
PV2,2013-08-29,2100.0
PV2,2013-08-30,2100.0
PV2,2013-09-03,2100.0
PV2,2013-09-04,2000.0
PV2,2013-09-05,1900.0
PV2,2013-09-06,1800.0
PV2,2013-09-09,1700.0
PV2,2013-09-10,1800.0
PV2,2013-09-11,1800.0
PV2,2013-09-12,1700.0
PV2,2013-09-13,1800.0
PV2,2013-09-16,1800.0
PV2,2013-09-17,1700.0
PV2,2013-09-18,1700.0
PV2,2013-09-19,1800.0
PV2,2013-09-20,1700.0
PV2,2013-09-23,1800.0
PV2,2013-09-24,1900.0
PV2,2013-09-25,1900.0
PV2,2013-09-26,1900.0
PV2,2013-09-27,1900.0
PV2,2013-09-30,1900.0
PV2,2013-10-01,1800.0
PV2,2013-10-02,1900.0
PV2,2013-10-03,1900.0
PV2,2013-10-04,1900.0
PV2,2013-10-07,1900.0
PV2,2013-10-08,1800.0
PV2,2013-10-09,1900.0
PV2,2013-10-10,1900.0
PV2,2013-10-11,1900.0
PV2,2013-10-14,1900.0
PV2,2013-10-15,2000.0
PV2,2013-10-16,2000.0
PV2,2013-10-17,2100.0
PV2,2013-10-18,2200.0
PV2,2013-10-21,2100.0
PV2,2013-10-22,1900.0
PV2,2013-10-23,2000.0
PV2,2013-10-24,2000.0
PV2,2013-10-25,2000.0
PV2,2013-10-28,2000.0
PV2,2013-10-29,2000.0
PV2,2013-10-30,2000.0
PV2,2013-10-31,1900.0
PV2,2013-11-01,1900.0
PV2,2013-11-04,2000.0
PV2,2013-11-05,2200.0
PV2,2013-11-06,2400.0
PV2,2013-11-07,2400.0
PV2,2013-11-08,2400.0
PV2,2013-11-11,2500.0
PV2,2013-11-12,2600.0
PV2,2013-11-13,2400.0
PV2,2013-11-14,2400.0
PV2,2013-11-15,2400.0
PV2,2013-11-18,2600.0
PV2,2013-11-19,2500.0
PV2,2013-11-20,2600.0
PV2,2013-11-21,2600.0
PV2,2013-11-22,2700.0
PV2,2013-11-25,2700.0
PV2,2013-11-26,2900.0
PV2,2013-11-27,3000.0
PV2,2013-11-28,3300.0
PV2,2013-11-29,3100.0
PV2,2013-12-02,2900.0
PV2,2013-12-03,3100.0
PV2,2013-12-04,3000.0
PV2,2013-12-05,3000.0
PV2,2013-12-06,3100.0
PV2,2013-12-09,2900.0
PV2,2013-12-10,3000.0
PV2,2013-12-11,2800.0
PV2,2013-12-12,2800.0
PV2,2013-12-13,2800.0
PV2,2013-12-16,2800.0
PV2,2013-12-17,2900.0
PV2,2013-12-18,2900.0
PV2,2013-12-19,3000.0
PV2,2013-12-20,3000.0
PV2,2013-12-23,3100.0
PV2,2013-12-24,3000.0
PV2,2013-12-25,3200.0
PV2,2013-12-26,3100.0
PV2,2013-12-27,2900.0
PV2,2013-12-30,2800.0
PV2,2013-12-31,3000.0
PV2,2014-01-02,3000.0
PV2,2014-01-03,3000.0
PV2,2014-01-06,2900.0
PV2,2014-01-07,3000.0
PV2,2014-01-08,3000.0
PV2,2014-01-09,3000.0
PV2,2014-01-10,2900.0
PV2,2014-01-13,3000.0
PV2,2014-01-14,3000.0
PV2,2014-01-15,2900.0
PV2,2014-01-16,2900.0
PV2,2014-01-17,2800.0
PV2,2014-01-20,2700.0
PV2,2014-01-21,2800.0
PV2,2014-01-22,2600.0
PV2,2014-01-23,2800.0
PV2,2014-01-24,2700.0
PV2,2014-01-27,2700.0
PV2,2014-02-06,2900.0
PV2,2014-02-07,2900.0
PV2,2014-02-10,2800.0
PV2,2014-02-11,2800.0
PV2,2014-02-12,2800.0
PV2,2014-02-13,2800.0
PV2,2014-02-14,3000.0
PV2,2014-02-17,3000.0
PV2,2014-02-18,3000.0
PV2,2014-02-19,2900.0
PV2,2014-02-20,2800.0
PV2,2014-02-21,2800.0
PV2,2014-02-24,3000.0
PV2,2014-02-25,3300.0
PV2,2014-02-26,3600.0
PV2,2014-02-27,3500.0
PV2,2014-02-28,3300.0
PV2,2014-03-03,3000.0
PV2,2014-03-04,3300.0
PV2,2014-03-05,3200.0
PV2,2014-03-06,3300.0
PV2,2014-03-07,3300.0
PV2,2014-03-10,3600.0
PV2,2014-03-11,3600.0
PV2,2014-03-12,3400.0
PV2,2014-03-13,3600.0
PV2,2014-03-14,3700.0
PV2,2014-03-17,4000.0
PV2,2014-03-18,4400.0
PV2,2014-03-19,4800.0
PV2,2014-03-20,4600.0
PV2,2014-03-21,4900.0
PV2,2014-03-24,5300.0
PV2,2014-03-25,5600.0
PV2,2014-03-26,5100.0
PV2,2014-03-27,4900.0
PV2,2014-03-28,5100.0
PV2,2014-03-31,4800.0
PV2,2014-04-01,4500.0
PV2,2014-04-02,4100.0
PV2,2014-04-03,4500.0
PV2,2014-04-04,4200.0
PV2,2014-04-07,4400.0
PV2,2014-04-08,4500.0
PV2,2014-04-10,4200.0
PV2,2014-04-11,4300.0
PV2,2014-04-14,4100.0
PV2,2014-04-15,3800.0
PV2,2014-04-16,3500.0
PV2,2014-04-17,3800.0
PV2,2014-04-18,3500.0
PV2,2014-04-21,3300.0
PV2,2014-04-22,3600.0
PV2,2014-04-23,3600.0
PV2,2014-04-24,3400.0
PV2,2014-04-25,3500.0
PV2,2014-04-28,3400.0
PV2,2014-04-29,3500.0
PV2,2014-05-05,3300.0
PV2,2014-05-06,3100.0
PV2,2014-05-07,3000.0
PV2,2014-05-08,2700.0
PV2,2014-05-09,2900.0
PV2,2014-05-12,2700.0
PV2,2014-05-13,2500.0
PV2,2014-05-14,2700.0
PV2,2014-05-15,2500.0
PV2,2014-05-16,2600.0
PV2,2014-05-19,2700.0
PV2,2014-05-20,2900.0
PV2,2014-05-21,3100.0
