PVB,2013-12-24,16100.0
PVB,2013-12-25,17700.0
PVB,2013-12-26,19400.0
PVB,2013-12-27,21300.0
PVB,2013-12-30,22900.0
PVB,2013-12-31,22600.0
PVB,2014-01-02,20700.0
PVB,2014-01-03,20400.0
PVB,2014-01-06,18700.0
PVB,2014-01-07,20500.0
PVB,2014-01-08,20500.0
PVB,2014-01-09,20900.0
PVB,2014-01-10,20500.0
PVB,2014-01-13,20900.0
PVB,2014-01-14,22900.0
PVB,2014-01-15,22100.0
PVB,2014-01-16,22500.0
PVB,2014-01-17,22000.0
PVB,2014-01-20,20200.0
PVB,2014-01-21,21400.0
PVB,2014-01-22,21500.0
PVB,2014-01-23,21600.0
PVB,2014-01-24,21600.0
PVB,2014-01-27,21600.0
PVB,2014-02-06,21600.0
PVB,2014-02-07,21000.0
PVB,2014-02-10,20300.0
PVB,2014-02-11,20000.0
PVB,2014-02-12,20400.0
PVB,2014-02-13,20600.0
PVB,2014-02-14,20700.0
PVB,2014-02-17,21000.0
PVB,2014-02-18,23100.0
PVB,2014-02-19,25400.0
PVB,2014-02-20,27000.0
PVB,2014-02-21,27400.0
PVB,2014-02-24,30000.0
PVB,2014-02-25,32600.0
PVB,2014-02-26,32400.0
PVB,2014-02-27,29200.0
PVB,2014-02-28,29100.0
PVB,2014-03-03,28600.0
PVB,2014-03-04,29000.0
PVB,2014-03-05,28900.0
PVB,2014-03-06,29100.0
PVB,2014-03-07,29100.0
PVB,2014-03-10,29100.0
PVB,2014-03-11,28500.0
PVB,2014-03-12,28000.0
PVB,2014-03-13,28500.0
PVB,2014-03-14,28000.0
PVB,2014-03-17,27300.0
PVB,2014-03-18,27600.0
PVB,2014-03-19,27600.0
PVB,2014-03-20,27000.0
PVB,2014-03-21,27500.0
PVB,2014-03-24,27200.0
PVB,2014-03-25,26800.0
PVB,2014-03-26,24300.0
PVB,2014-03-27,26700.0
PVB,2014-03-28,27600.0
PVB,2014-03-31,27500.0
PVB,2014-04-01,27100.0
PVB,2014-04-02,26700.0
PVB,2014-04-03,25700.0
PVB,2014-04-04,25800.0
PVB,2014-04-07,25800.0
PVB,2014-04-08,25400.0
PVB,2014-04-10,26200.0
PVB,2014-04-11,26000.0
PVB,2014-04-14,25400.0
PVB,2014-04-15,26200.0
PVB,2014-04-16,26200.0
PVB,2014-04-17,27000.0
PVB,2014-04-18,26500.0
PVB,2014-04-21,26200.0
PVB,2014-04-22,26000.0
PVB,2014-04-23,27000.0
PVB,2014-04-24,27000.0
PVB,2014-04-25,27100.0
PVB,2014-04-28,27300.0
PVB,2014-04-29,27300.0
PVB,2014-05-05,26600.0
PVB,2014-05-06,26600.0
PVB,2014-05-07,26500.0
PVB,2014-05-08,25000.0
PVB,2014-05-09,26500.0
PVB,2014-05-12,23900.0
PVB,2014-05-13,23500.0
PVB,2014-05-14,24900.0
PVB,2014-05-15,22500.0
PVB,2014-05-16,24500.0
PVB,2014-05-19,23000.0
PVB,2014-05-20,23700.0
PVB,2014-05-21,24800.0
