PVV,2010-09-09,23300.0
PVV,2010-09-10,22200.0
PVV,2010-09-13,20600.0
PVV,2010-09-14,19300.0
PVV,2010-09-15,18100.0
PVV,2010-09-16,16900.0
PVV,2010-09-17,18100.0
PVV,2010-09-20,18400.0
PVV,2010-09-21,19600.0
PVV,2010-09-22,20900.0
PVV,2010-09-23,20300.0
PVV,2010-09-24,19400.0
PVV,2010-09-27,18800.0
PVV,2010-09-28,18900.0
PVV,2010-09-29,18700.0
PVV,2010-09-30,18700.0
PVV,2010-10-01,18100.0
PVV,2010-10-04,17400.0
PVV,2010-10-05,17400.0
PVV,2010-10-06,17800.0
PVV,2010-10-07,16600.0
PVV,2010-10-08,16200.0
PVV,2010-10-11,15300.0
PVV,2010-10-12,15200.0
PVV,2010-10-13,15400.0
PVV,2010-10-14,15400.0
PVV,2010-10-15,15700.0
PVV,2010-10-18,14600.0
PVV,2010-10-19,14100.0
PVV,2010-10-20,13300.0
PVV,2010-10-21,12600.0
PVV,2010-10-22,12000.0
PVV,2010-10-25,12700.0
PVV,2010-10-26,13100.0
PVV,2010-10-27,13900.0
PVV,2010-10-28,14900.0
PVV,2010-10-29,15100.0
PVV,2010-11-01,15700.0
PVV,2010-11-02,15400.0
PVV,2010-11-03,15200.0
PVV,2010-11-04,14100.0
PVV,2010-11-05,15200.0
PVV,2010-11-08,15200.0
PVV,2010-11-09,14100.0
PVV,2010-11-10,14900.0
PVV,2010-11-11,14200.0
PVV,2010-11-12,14000.0
PVV,2010-11-15,13900.0
PVV,2010-11-16,13900.0
PVV,2010-11-17,13400.0
PVV,2010-11-18,13900.0
PVV,2010-11-19,13200.0
PVV,2010-11-22,13300.0
PVV,2010-11-23,13200.0
PVV,2010-11-24,12700.0
PVV,2010-11-25,13300.0
PVV,2010-11-26,13100.0
PVV,2010-11-29,14000.0
PVV,2010-11-30,14300.0
PVV,2010-12-01,14300.0
PVV,2010-12-02,14300.0
PVV,2010-12-03,15400.0
PVV,2010-12-06,16400.0
PVV,2010-12-07,17400.0
PVV,2010-12-08,16200.0
PVV,2010-12-09,16800.0
PVV,2010-12-10,17400.0
PVV,2010-12-13,17500.0
PVV,2010-12-14,16400.0
PVV,2010-12-15,16000.0
PVV,2010-12-16,14800.0
PVV,2010-12-17,16000.0
PVV,2010-12-20,14800.0
PVV,2010-12-21,14600.0
PVV,2010-12-22,15000.0
PVV,2010-12-23,14300.0
PVV,2010-12-24,14500.0
PVV,2010-12-27,13800.0
PVV,2010-12-28,15300.0
PVV,2010-12-29,14600.0
PVV,2010-12-30,14300.0
PVV,2010-12-31,14800.0
PVV,2011-01-04,14700.0
PVV,2011-01-05,14500.0
PVV,2011-01-06,14300.0
PVV,2011-01-07,14200.0
PVV,2011-01-10,14300.0
PVV,2011-01-11,14400.0
PVV,2011-01-12,15300.0
PVV,2011-01-13,16000.0
PVV,2011-01-14,17000.0
PVV,2011-01-17,17200.0
PVV,2011-01-18,17100.0
PVV,2011-01-19,16500.0
PVV,2011-01-20,16200.0
PVV,2011-01-21,16000.0
PVV,2011-01-24,15300.0
PVV,2011-01-25,14600.0
PVV,2011-01-26,14500.0
PVV,2011-01-27,14800.0
PVV,2011-01-28,15500.0
PVV,2011-02-08,15400.0
PVV,2011-02-09,15200.0
PVV,2011-02-10,15300.0
PVV,2011-02-11,14800.0
PVV,2011-02-14,14800.0
PVV,2011-02-15,15100.0
PVV,2011-02-16,14600.0
PVV,2011-02-17,14000.0
PVV,2011-02-18,13500.0
PVV,2011-02-21,13100.0
PVV,2011-02-22,12400.0
PVV,2011-02-23,13000.0
PVV,2011-02-24,12400.0
PVV,2011-02-25,13100.0
PVV,2011-02-28,13300.0
PVV,2011-03-01,14200.0
PVV,2011-03-02,14000.0
PVV,2011-03-03,13300.0
PVV,2011-03-04,14000.0
PVV,2011-03-07,14900.0
PVV,2011-03-08,15200.0
PVV,2011-03-09,15500.0
PVV,2011-03-10,16400.0
PVV,2011-03-11,17400.0
PVV,2011-03-14,17800.0
PVV,2011-03-15,16800.0
PVV,2011-03-16,17000.0
PVV,2011-03-17,17800.0
PVV,2011-03-18,18900.0
PVV,2011-03-21,19000.0
PVV,2011-03-22,18700.0
PVV,2011-03-23,20100.0
PVV,2011-03-24,20600.0
PVV,2011-03-25,21500.0
PVV,2011-03-28,20800.0
PVV,2011-03-29,22100.0
PVV,2011-03-30,23000.0
PVV,2011-03-31,23000.0
PVV,2011-04-01,22500.0
PVV,2011-04-04,20800.0
PVV,2011-04-05,19800.0
PVV,2011-04-06,18500.0
PVV,2011-04-07,19000.0
PVV,2011-04-08,17300.0
PVV,2011-04-13,16400.0
PVV,2011-04-14,15900.0
PVV,2011-04-15,14600.0
PVV,2011-04-18,13700.0
PVV,2011-04-19,14200.0
PVV,2011-04-20,14900.0
PVV,2011-04-21,15800.0
PVV,2011-04-22,16600.0
PVV,2011-04-25,17200.0
PVV,2011-04-26,15900.0
PVV,2011-04-27,15600.0
PVV,2011-04-28,16300.0
PVV,2011-04-29,16000.0
PVV,2011-05-04,15000.0
PVV,2011-05-05,14200.0
PVV,2011-05-06,14700.0
PVV,2011-05-09,14400.0
PVV,2011-05-10,14300.0
PVV,2011-05-11,14000.0
PVV,2011-05-12,14000.0
PVV,2011-05-13,14000.0
PVV,2011-05-16,13300.0
PVV,2011-05-17,12800.0
PVV,2011-05-18,12800.0
PVV,2011-05-19,13500.0
PVV,2011-05-20,13000.0
PVV,2011-05-23,12200.0
PVV,2011-05-24,11400.0
PVV,2011-05-25,10700.0
PVV,2011-05-26,10800.0
PVV,2011-05-27,11000.0
PVV,2011-05-30,10100.0
PVV,2011-05-31,9800.0
PVV,2011-06-01,10400.0
PVV,2011-06-02,11000.0
PVV,2011-06-03,11000.0
PVV,2011-06-06,10900.0
PVV,2011-06-07,11400.0
PVV,2011-06-08,11400.0
PVV,2011-06-09,12000.0
PVV,2011-06-10,12500.0
PVV,2011-06-13,13300.0
PVV,2011-06-14,12500.0
PVV,2011-06-15,12200.0
PVV,2011-06-16,11700.0
PVV,2011-06-17,11400.0
PVV,2011-06-20,10800.0
PVV,2011-06-21,11200.0
PVV,2011-06-22,10700.0
PVV,2011-06-23,10400.0
PVV,2011-06-24,10500.0
PVV,2011-06-27,10500.0
PVV,2011-06-28,10200.0
PVV,2011-06-29,10400.0
PVV,2011-06-30,10000.0
PVV,2011-07-01,9800.0
PVV,2011-07-04,10000.0
PVV,2011-07-05,10500.0
PVV,2011-07-06,10000.0
PVV,2011-07-07,10100.0
PVV,2011-07-08,10000.0
PVV,2011-07-11,9600.0
PVV,2011-07-12,9600.0
PVV,2011-07-13,9300.0
PVV,2011-07-14,8900.0
PVV,2011-07-15,9000.0
PVV,2011-07-18,8800.0
PVV,2011-07-19,8300.0
PVV,2011-07-20,8900.0
PVV,2011-07-21,8500.0
PVV,2011-07-22,8500.0
PVV,2011-07-25,8300.0
PVV,2011-07-26,8100.0
PVV,2011-07-27,8200.0
PVV,2011-07-28,8100.0
PVV,2011-07-29,7900.0
PVV,2011-08-01,7500.0
PVV,2011-08-02,7000.0
PVV,2011-08-03,7200.0
PVV,2011-08-04,7400.0
PVV,2011-08-05,7100.0
PVV,2011-08-08,6800.0
PVV,2011-08-09,6500.0
PVV,2011-08-10,6700.0
PVV,2011-08-11,6400.0
PVV,2011-08-12,6300.0
PVV,2011-08-15,6400.0
PVV,2011-08-16,6600.0
PVV,2011-08-17,6900.0
PVV,2011-08-18,6800.0
PVV,2011-08-19,6700.0
PVV,2011-08-22,7100.0
PVV,2011-08-23,6900.0
PVV,2011-08-24,6900.0
PVV,2011-08-25,6800.0
PVV,2011-08-26,6600.0
PVV,2011-08-29,7100.0
PVV,2011-08-30,7300.0
PVV,2011-08-31,7600.0
PVV,2011-09-01,7900.0
PVV,2011-09-05,8100.0
PVV,2011-09-06,7900.0
PVV,2011-09-07,8400.0
PVV,2011-09-08,8800.0
PVV,2011-09-09,8900.0
PVV,2011-09-12,9400.0
PVV,2011-09-13,9900.0
PVV,2011-09-14,9200.0
PVV,2011-09-15,9100.0
PVV,2011-09-16,8500.0
PVV,2011-09-19,8900.0
PVV,2011-09-20,8400.0
PVV,2011-09-21,8200.0
PVV,2011-09-22,8400.0
PVV,2011-09-23,7900.0
PVV,2011-09-26,7800.0
PVV,2011-09-27,8300.0
PVV,2011-09-28,8800.0
PVV,2011-09-29,8300.0
PVV,2011-09-30,8100.0
PVV,2011-10-03,7700.0
PVV,2011-10-04,7500.0
PVV,2011-10-05,7500.0
PVV,2011-10-06,7800.0
PVV,2011-10-07,7600.0
PVV,2011-10-10,7300.0
PVV,2011-10-11,7400.0
PVV,2011-10-12,6900.0
PVV,2011-10-13,7200.0
PVV,2011-10-14,7100.0
PVV,2011-10-17,7000.0
PVV,2011-10-18,6800.0
PVV,2011-10-19,6900.0
PVV,2011-10-20,6900.0
PVV,2011-10-21,7400.0
PVV,2011-10-24,7200.0
PVV,2011-10-25,7000.0
PVV,2011-10-26,7100.0
PVV,2011-10-27,6900.0
PVV,2011-10-28,7300.0
PVV,2011-10-31,7400.0
PVV,2011-11-01,7100.0
PVV,2011-11-02,6900.0
PVV,2011-11-03,6800.0
PVV,2011-11-04,6800.0
PVV,2011-11-07,6700.0
PVV,2011-11-08,7000.0
PVV,2011-11-09,6600.0
PVV,2011-11-10,6300.0
PVV,2011-11-11,6200.0
PVV,2011-11-14,5900.0
PVV,2011-11-15,5900.0
PVV,2011-11-16,6100.0
PVV,2011-11-17,5800.0
PVV,2011-11-18,5600.0
PVV,2011-11-21,5400.0
PVV,2011-11-22,5200.0
PVV,2011-11-23,5400.0
PVV,2011-11-24,5300.0
PVV,2011-11-25,5200.0
PVV,2011-11-28,5400.0
PVV,2011-11-29,5300.0
PVV,2011-11-30,5100.0
PVV,2011-12-01,5200.0
PVV,2011-12-02,5300.0
PVV,2011-12-05,5500.0
PVV,2011-12-06,5600.0
PVV,2011-12-07,5400.0
PVV,2011-12-08,5300.0
PVV,2011-12-09,5100.0
PVV,2011-12-12,4900.0
PVV,2011-12-13,4800.0
PVV,2011-12-14,4700.0
PVV,2011-12-15,4400.0
PVV,2011-12-16,4600.0
PVV,2011-12-19,4400.0
PVV,2011-12-20,4200.0
PVV,2011-12-21,4000.0
PVV,2011-12-22,3900.0
PVV,2011-12-23,3800.0
PVV,2011-12-26,3600.0
PVV,2011-12-27,3500.0
PVV,2011-12-28,3600.0
PVV,2011-12-29,3300.0
PVV,2011-12-30,3500.0
PVV,2012-01-03,3700.0
PVV,2012-01-04,3800.0
PVV,2012-01-05,3800.0
PVV,2012-01-06,3800.0
PVV,2012-01-09,3800.0
PVV,2012-01-10,3700.0
PVV,2012-01-11,3600.0
PVV,2012-01-12,3500.0
PVV,2012-01-13,3600.0
PVV,2012-01-16,3800.0
PVV,2012-01-17,3800.0
PVV,2012-01-18,4000.0
PVV,2012-01-19,4200.0
PVV,2012-01-20,4400.0
PVV,2012-01-30,4500.0
PVV,2012-01-31,4700.0
PVV,2012-02-01,4500.0
PVV,2012-02-02,4700.0
PVV,2012-02-03,4400.0
PVV,2012-02-06,4100.0
PVV,2012-02-07,4200.0
PVV,2012-02-08,4400.0
PVV,2012-02-09,4400.0
PVV,2012-02-10,4300.0
PVV,2012-02-13,4000.0
PVV,2012-02-14,4000.0
PVV,2012-02-15,3900.0
PVV,2012-02-16,3800.0
PVV,2012-02-17,4000.0
PVV,2012-02-20,4100.0
PVV,2012-02-21,4200.0
PVV,2012-02-22,4400.0
PVV,2012-02-23,4700.0
PVV,2012-02-24,4900.0
PVV,2012-02-27,5300.0
PVV,2012-02-28,5100.0
PVV,2012-02-29,5100.0
PVV,2012-03-01,4900.0
PVV,2012-03-02,4900.0
PVV,2012-03-05,5100.0
PVV,2012-03-06,5000.0
PVV,2012-03-07,5100.0
PVV,2012-03-08,4800.0
PVV,2012-03-09,4700.0
PVV,2012-03-12,4400.0
PVV,2012-03-13,4500.0
PVV,2012-03-14,4400.0
PVV,2012-03-15,4800.0
PVV,2012-03-16,4800.0
PVV,2012-03-19,4700.0
PVV,2012-03-20,4600.0
PVV,2012-03-21,4900.0
PVV,2012-03-22,5100.0
PVV,2012-03-23,5400.0
PVV,2012-03-26,5700.0
PVV,2012-03-27,6000.0
PVV,2012-03-28,6100.0
PVV,2012-03-29,6200.0
PVV,2012-03-30,5600.0
PVV,2012-04-03,5600.0
PVV,2012-04-04,5400.0
PVV,2012-04-05,5400.0
PVV,2012-04-06,5700.0
PVV,2012-04-09,6000.0
PVV,2012-04-10,6400.0
PVV,2012-04-11,6800.0
PVV,2012-04-12,7200.0
PVV,2012-04-13,7700.0
PVV,2012-04-16,7700.0
PVV,2012-04-17,7400.0
PVV,2012-04-18,7800.0
PVV,2012-04-19,7300.0
PVV,2012-04-20,6800.0
PVV,2012-04-23,7200.0
PVV,2012-04-24,7700.0
PVV,2012-04-25,8200.0
PVV,2012-04-26,8700.0
PVV,2012-04-27,9000.0
PVV,2012-05-02,8700.0
PVV,2012-05-03,8400.0
PVV,2012-05-04,8900.0
PVV,2012-05-07,9500.0
PVV,2012-05-08,8900.0
PVV,2012-05-09,9000.0
PVV,2012-05-10,8600.0
PVV,2012-05-11,8100.0
PVV,2012-05-14,7700.0
PVV,2012-05-15,7200.0
PVV,2012-05-16,7300.0
PVV,2012-05-17,6700.0
PVV,2012-05-18,6300.0
PVV,2012-05-21,6700.0
PVV,2012-05-22,7100.0
PVV,2012-05-23,6700.0
PVV,2012-05-24,6600.0
PVV,2012-05-25,6900.0
PVV,2012-05-28,7200.0
PVV,2012-05-29,6900.0
PVV,2012-05-30,6700.0
PVV,2012-05-31,6300.0
PVV,2012-06-01,6700.0
PVV,2012-06-04,6400.0
PVV,2012-06-05,6800.0
PVV,2012-06-06,6900.0
PVV,2012-06-07,7400.0
PVV,2012-06-08,7000.0
PVV,2012-06-11,7100.0
PVV,2012-06-12,6700.0
PVV,2012-06-13,6500.0
PVV,2012-06-14,6700.0
PVV,2012-06-15,6900.0
PVV,2012-06-18,6900.0
PVV,2012-06-19,6500.0
PVV,2012-06-20,6700.0
PVV,2012-06-21,6600.0
PVV,2012-06-22,6400.0
PVV,2012-06-25,6000.0
PVV,2012-06-26,5600.0
PVV,2012-06-27,5700.0
PVV,2012-06-28,5800.0
PVV,2012-06-29,5600.0
PVV,2012-07-02,5400.0
PVV,2012-07-03,5200.0
PVV,2012-07-04,4800.0
PVV,2012-07-05,5100.0
PVV,2012-07-06,5100.0
PVV,2012-07-09,4800.0
PVV,2012-07-10,4700.0
PVV,2012-07-11,4700.0
PVV,2012-07-12,5000.0
PVV,2012-07-13,5300.0
PVV,2012-07-16,5100.0
PVV,2012-07-17,5400.0
PVV,2012-07-18,5700.0
PVV,2012-07-19,6000.0
PVV,2012-07-20,5900.0
PVV,2012-07-23,5500.0
PVV,2012-07-24,5200.0
PVV,2012-07-25,5200.0
PVV,2012-07-26,5000.0
PVV,2012-07-27,4800.0
PVV,2012-07-30,5100.0
PVV,2012-07-31,4800.0
PVV,2012-08-01,4700.0
PVV,2012-08-02,4800.0
PVV,2012-08-03,4800.0
PVV,2012-08-06,5100.0
PVV,2012-08-07,5000.0
PVV,2012-08-08,5200.0
PVV,2012-08-09,5200.0
PVV,2012-08-10,5100.0
PVV,2012-08-13,5100.0
PVV,2012-08-14,5100.0
PVV,2012-08-15,5000.0
PVV,2012-08-16,5000.0
PVV,2012-08-17,5100.0
PVV,2012-08-20,5200.0
PVV,2012-08-21,4900.0
PVV,2012-08-22,4600.0
PVV,2012-08-23,4300.0
PVV,2012-08-24,4400.0
PVV,2012-08-27,4100.0
PVV,2012-08-28,4000.0
PVV,2012-08-29,4100.0
PVV,2012-08-30,4000.0
PVV,2012-08-31,4000.0
PVV,2012-09-04,3800.0
PVV,2012-09-05,3600.0
PVV,2012-09-06,3400.0
PVV,2012-09-07,3200.0
PVV,2012-09-10,3000.0
PVV,2012-09-11,2900.0
PVV,2012-09-12,2900.0
PVV,2012-09-13,2900.0
PVV,2012-09-14,3100.0
PVV,2012-09-17,3100.0
PVV,2012-09-18,2900.0
PVV,2012-09-19,2700.0
PVV,2012-09-20,2600.0
PVV,2012-09-21,2700.0
PVV,2012-09-24,2600.0
PVV,2012-09-25,2600.0
PVV,2012-09-26,2600.0
PVV,2012-09-27,2500.0
PVV,2012-09-28,2500.0
PVV,2012-10-01,2400.0
PVV,2012-10-02,2300.0
PVV,2012-10-03,2300.0
PVV,2012-10-04,2200.0
PVV,2012-10-05,2100.0
PVV,2012-10-08,2200.0
PVV,2012-10-09,2300.0
PVV,2012-10-10,2300.0
PVV,2012-10-11,2400.0
PVV,2012-10-12,2500.0
PVV,2012-10-15,2500.0
PVV,2012-10-16,2600.0
PVV,2012-10-17,2700.0
PVV,2012-10-18,2800.0
PVV,2012-10-19,2700.0
PVV,2012-10-22,2600.0
PVV,2012-10-23,2700.0
PVV,2012-10-24,2800.0
PVV,2012-10-25,2900.0
PVV,2012-10-26,3000.0
PVV,2012-10-29,2900.0
PVV,2012-10-30,2700.0
PVV,2012-10-31,2700.0
PVV,2012-11-01,2600.0
PVV,2012-11-02,2500.0
PVV,2012-11-05,2500.0
PVV,2012-11-06,2400.0
PVV,2012-11-07,2600.0
PVV,2012-11-08,2600.0
PVV,2012-11-09,2600.0
PVV,2012-11-12,2700.0
PVV,2012-11-13,2700.0
PVV,2012-11-14,2600.0
PVV,2012-11-15,2600.0
PVV,2012-11-16,2600.0
PVV,2012-11-19,2600.0
PVV,2012-11-20,2600.0
PVV,2012-11-21,2600.0
PVV,2012-11-22,2500.0
PVV,2012-11-23,2400.0
PVV,2012-11-26,2500.0
PVV,2012-11-27,2600.0
PVV,2012-11-28,2600.0
PVV,2012-11-29,2600.0
PVV,2012-11-30,2500.0
PVV,2012-12-03,2500.0
PVV,2012-12-04,2600.0
PVV,2012-12-05,2600.0
PVV,2012-12-06,2600.0
PVV,2012-12-07,2600.0
PVV,2012-12-10,2700.0
PVV,2012-12-11,2800.0
PVV,2012-12-12,2900.0
PVV,2012-12-13,3100.0
PVV,2012-12-14,3000.0
PVV,2012-12-17,3100.0
PVV,2012-12-18,2900.0
PVV,2012-12-19,3000.0
PVV,2012-12-20,3000.0
PVV,2012-12-21,2900.0
PVV,2012-12-24,3000.0
PVV,2012-12-25,2800.0
PVV,2012-12-26,3100.0
PVV,2012-12-27,3100.0
PVV,2012-12-28,3200.0
PVV,2013-01-02,3400.0
PVV,2013-01-03,3600.0
PVV,2013-01-04,3800.0
PVV,2013-01-07,4000.0
PVV,2013-01-08,3800.0
PVV,2013-01-09,3600.0
PVV,2013-01-10,3700.0
PVV,2013-01-11,3500.0
PVV,2013-01-14,3600.0
PVV,2013-01-15,3900.0
PVV,2013-01-16,4200.0
PVV,2013-01-17,4000.0
PVV,2013-01-18,4000.0
PVV,2013-01-21,3800.0
PVV,2013-01-22,3600.0
PVV,2013-01-23,3500.0
PVV,2013-01-24,3700.0
PVV,2013-01-25,3800.0
PVV,2013-01-28,3900.0
PVV,2013-01-29,3900.0
PVV,2013-01-30,3800.0
PVV,2013-01-31,4100.0
PVV,2013-02-01,4100.0
PVV,2013-02-04,3900.0
PVV,2013-02-05,3900.0
PVV,2013-02-06,4000.0
PVV,2013-02-07,4200.0
PVV,2013-02-08,4200.0
PVV,2013-02-18,4200.0
PVV,2013-02-19,4100.0
PVV,2013-02-20,4200.0
PVV,2013-02-21,3800.0
PVV,2013-02-22,3600.0
PVV,2013-02-25,3800.0
PVV,2013-02-26,3600.0
PVV,2013-02-27,3400.0
PVV,2013-02-28,3500.0
PVV,2013-03-01,3300.0
PVV,2013-03-04,3000.0
PVV,2013-03-05,2800.0
PVV,2013-03-06,3000.0
PVV,2013-03-07,3100.0
PVV,2013-03-08,3200.0
PVV,2013-03-11,3300.0
PVV,2013-03-12,3200.0
PVV,2013-03-13,3200.0
PVV,2013-03-14,3100.0
PVV,2013-03-15,3200.0
PVV,2013-03-18,3200.0
PVV,2013-03-19,3100.0
PVV,2013-03-20,3100.0
PVV,2013-03-21,3100.0
PVV,2013-03-22,3000.0
PVV,2013-03-25,3000.0
PVV,2013-03-26,3000.0
PVV,2013-03-27,3000.0
PVV,2013-03-28,3000.0
PVV,2013-03-29,3000.0
PVV,2013-04-01,3000.0
PVV,2013-04-02,3000.0
PVV,2013-04-03,3000.0
PVV,2013-04-04,2700.0
PVV,2013-04-05,2500.0
PVV,2013-04-08,2700.0
PVV,2013-04-09,2600.0
PVV,2013-04-10,2500.0
PVV,2013-04-11,2600.0
PVV,2013-04-12,2500.0
PVV,2013-04-15,2500.0
PVV,2013-04-16,2500.0
PVV,2013-04-17,2500.0
PVV,2013-04-18,2500.0
PVV,2013-04-22,2500.0
PVV,2013-04-23,2500.0
PVV,2013-04-24,2500.0
PVV,2013-04-25,2500.0
PVV,2013-04-26,2500.0
PVV,2013-05-02,2500.0
PVV,2013-05-03,2600.0
PVV,2013-05-06,2800.0
PVV,2013-05-07,2900.0
PVV,2013-05-08,2900.0
PVV,2013-05-09,2900.0
PVV,2013-05-10,2700.0
PVV,2013-05-13,2700.0
PVV,2013-05-14,2600.0
PVV,2013-05-15,2700.0
PVV,2013-05-16,2800.0
PVV,2013-05-17,2900.0
PVV,2013-05-20,2900.0
PVV,2013-05-21,2900.0
PVV,2013-05-22,3300.0
PVV,2013-05-23,3200.0
PVV,2013-05-24,3200.0
PVV,2013-05-27,3500.0
PVV,2013-05-28,3600.0
PVV,2013-05-29,3800.0
PVV,2013-05-30,3900.0
PVV,2013-05-31,3800.0
PVV,2013-06-03,4000.0
PVV,2013-06-04,3900.0
PVV,2013-06-05,3900.0
PVV,2013-06-06,4000.0
PVV,2013-06-07,4000.0
PVV,2013-06-10,3900.0
PVV,2013-06-11,3800.0
PVV,2013-06-12,4000.0
PVV,2013-06-13,4000.0
PVV,2013-06-14,4000.0
PVV,2013-06-17,3700.0
PVV,2013-06-18,3700.0
PVV,2013-06-19,3800.0
PVV,2013-06-20,3700.0
PVV,2013-06-21,3600.0
PVV,2013-06-24,3400.0
PVV,2013-06-25,3300.0
PVV,2013-06-26,3300.0
PVV,2013-06-27,3500.0
PVV,2013-06-28,3600.0
PVV,2013-07-01,3600.0
PVV,2013-07-02,3500.0
PVV,2013-07-03,3400.0
PVV,2013-07-04,3400.0
PVV,2013-07-05,3400.0
PVV,2013-07-08,3400.0
PVV,2013-07-09,3400.0
PVV,2013-07-10,3400.0
PVV,2013-07-11,3300.0
PVV,2013-07-12,3200.0
PVV,2013-07-15,3300.0
PVV,2013-07-16,3200.0
PVV,2013-07-17,3200.0
PVV,2013-07-18,3200.0
PVV,2013-07-19,3300.0
PVV,2013-07-22,3200.0
PVV,2013-07-23,3200.0
PVV,2013-07-24,3000.0
PVV,2013-07-25,2900.0
PVV,2013-07-26,2700.0
PVV,2013-07-29,2900.0
PVV,2013-07-30,2800.0
PVV,2013-07-31,2800.0
PVV,2013-08-01,2800.0
PVV,2013-08-02,2800.0
PVV,2013-08-05,2700.0
PVV,2013-08-06,2700.0
PVV,2013-08-07,2800.0
PVV,2013-08-08,2700.0
PVV,2013-08-09,2700.0
PVV,2013-08-12,2700.0
PVV,2013-08-13,2600.0
PVV,2013-08-14,2600.0
PVV,2013-08-15,2800.0
PVV,2013-08-16,2700.0
PVV,2013-08-19,2800.0
PVV,2013-08-20,2800.0
PVV,2013-08-21,2700.0
PVV,2013-08-22,2700.0
PVV,2013-08-23,2600.0
PVV,2013-08-26,2600.0
PVV,2013-08-27,2600.0
PVV,2013-08-28,2500.0
PVV,2013-08-29,2600.0
PVV,2013-08-30,2600.0
PVV,2013-09-03,2600.0
PVV,2013-09-04,2600.0
PVV,2013-09-05,2600.0
PVV,2013-09-06,2600.0
PVV,2013-09-09,2500.0
PVV,2013-09-10,2500.0
PVV,2013-09-11,2500.0
PVV,2013-09-12,2500.0
PVV,2013-09-13,2300.0
PVV,2013-09-16,2300.0
PVV,2013-09-17,2300.0
PVV,2013-09-18,2200.0
PVV,2013-09-19,2200.0
PVV,2013-09-20,2200.0
PVV,2013-09-23,2200.0
PVV,2013-09-24,2400.0
PVV,2013-09-25,2400.0
PVV,2013-09-26,2400.0
PVV,2013-09-27,2400.0
PVV,2013-09-30,2500.0
PVV,2013-10-01,2300.0
PVV,2013-10-02,2200.0
PVV,2013-10-03,2200.0
PVV,2013-10-04,2200.0
PVV,2013-10-07,2300.0
PVV,2013-10-08,2300.0
PVV,2013-10-09,2200.0
PVV,2013-10-10,2100.0
PVV,2013-10-11,2200.0
PVV,2013-10-14,2100.0
PVV,2013-10-15,2100.0
PVV,2013-10-16,2300.0
PVV,2013-10-17,2400.0
PVV,2013-10-18,2300.0
PVV,2013-10-21,2500.0
PVV,2013-10-22,2400.0
PVV,2013-10-23,2400.0
PVV,2013-10-24,2200.0
PVV,2013-10-25,2300.0
PVV,2013-10-28,2300.0
PVV,2013-10-29,2300.0
PVV,2013-10-30,2400.0
PVV,2013-10-31,2400.0
PVV,2013-11-01,2400.0
PVV,2013-11-04,2500.0
PVV,2013-11-05,2700.0
PVV,2013-11-06,2900.0
PVV,2013-11-07,3000.0
PVV,2013-11-08,3000.0
PVV,2013-11-11,2900.0
PVV,2013-11-12,2900.0
PVV,2013-11-13,2700.0
PVV,2013-11-14,2800.0
PVV,2013-11-15,2700.0
PVV,2013-11-18,2900.0
PVV,2013-11-19,2800.0
PVV,2013-11-20,2900.0
PVV,2013-11-21,2900.0
PVV,2013-11-22,2900.0
PVV,2013-11-25,2800.0
PVV,2013-11-26,2800.0
PVV,2013-11-27,2900.0
PVV,2013-11-28,2900.0
PVV,2013-11-29,2800.0
PVV,2013-12-02,2800.0
PVV,2013-12-03,2900.0
PVV,2013-12-04,2900.0
PVV,2013-12-05,2900.0
PVV,2013-12-06,2900.0
PVV,2013-12-09,2800.0
PVV,2013-12-10,2800.0
PVV,2013-12-11,2700.0
PVV,2013-12-12,2900.0
PVV,2013-12-13,2900.0
PVV,2013-12-16,2900.0
PVV,2013-12-17,2900.0
PVV,2013-12-18,2800.0
PVV,2013-12-19,2900.0
PVV,2013-12-20,2900.0
PVV,2013-12-23,3100.0
PVV,2013-12-24,3300.0
PVV,2013-12-25,3100.0
PVV,2013-12-26,3100.0
PVV,2013-12-27,2900.0
PVV,2013-12-30,3000.0
PVV,2013-12-31,2900.0
PVV,2014-01-02,2900.0
PVV,2014-01-03,2800.0
PVV,2014-01-06,2900.0
PVV,2014-01-07,2900.0
PVV,2014-01-08,2900.0
PVV,2014-01-09,3000.0
PVV,2014-01-10,2800.0
PVV,2014-01-13,2900.0
PVV,2014-01-14,2900.0
PVV,2014-01-15,2900.0
PVV,2014-01-16,2900.0
PVV,2014-01-17,2700.0
PVV,2014-01-20,2600.0
PVV,2014-01-21,2700.0
PVV,2014-01-22,2600.0
PVV,2014-01-23,2800.0
PVV,2014-01-24,2800.0
PVV,2014-01-27,2800.0
PVV,2014-02-06,2900.0
PVV,2014-02-07,2900.0
PVV,2014-02-10,2900.0
PVV,2014-02-11,2900.0
PVV,2014-02-12,2800.0
PVV,2014-02-13,2900.0
PVV,2014-02-14,2900.0
PVV,2014-02-17,2900.0
PVV,2014-02-18,3000.0
PVV,2014-02-19,2900.0
PVV,2014-02-20,2900.0
PVV,2014-02-21,3000.0
PVV,2014-02-24,3300.0
PVV,2014-02-25,3600.0
PVV,2014-02-26,3800.0
PVV,2014-02-27,3500.0
PVV,2014-02-28,3400.0
PVV,2014-03-03,3300.0
PVV,2014-03-04,3500.0
PVV,2014-03-05,3500.0
PVV,2014-03-06,3400.0
PVV,2014-03-07,3500.0
PVV,2014-03-10,3400.0
PVV,2014-03-11,3700.0
PVV,2014-03-12,3700.0
PVV,2014-03-13,3800.0
PVV,2014-03-14,4000.0
PVV,2014-03-17,4400.0
PVV,2014-03-18,4800.0
PVV,2014-03-19,5200.0
PVV,2014-03-20,5200.0
PVV,2014-03-21,5000.0
PVV,2014-03-24,5500.0
PVV,2014-03-25,5300.0
PVV,2014-03-26,4800.0
PVV,2014-03-27,4400.0
PVV,2014-03-28,4400.0
PVV,2014-03-31,4800.0
PVV,2014-04-01,4500.0
PVV,2014-04-02,4200.0
PVV,2014-04-03,4600.0
PVV,2014-04-04,4300.0
PVV,2014-04-07,4200.0
PVV,2014-04-08,4200.0
PVV,2014-04-10,4200.0
PVV,2014-04-11,4000.0
PVV,2014-04-14,4000.0
PVV,2014-04-15,3700.0
PVV,2014-04-16,3400.0
PVV,2014-04-17,3700.0
PVV,2014-04-18,3400.0
PVV,2014-04-21,3300.0
PVV,2014-04-22,3600.0
PVV,2014-04-23,3400.0
PVV,2014-04-24,3400.0
PVV,2014-04-25,3500.0
PVV,2014-04-28,3400.0
PVV,2014-04-29,3500.0
PVV,2014-05-05,3200.0
PVV,2014-05-06,3000.0
PVV,2014-05-07,3000.0
PVV,2014-05-08,2700.0
PVV,2014-05-09,2900.0
PVV,2014-05-12,2700.0
PVV,2014-05-13,2500.0
PVV,2014-05-14,2600.0
PVV,2014-05-15,2400.0
PVV,2014-05-16,2500.0
PVV,2014-05-19,2500.0
PVV,2014-05-20,2700.0
PVV,2014-05-21,2900.0
