RCL,2007-06-14,39800.0
RCL,2007-06-15,39800.0
RCL,2007-06-18,43300.0
RCL,2007-06-19,47200.0
RCL,2007-06-20,51900.0
RCL,2007-06-21,57100.0
RCL,2007-06-22,54400.0
RCL,2007-06-25,54500.0
RCL,2007-06-26,49700.0
RCL,2007-06-27,47000.0
RCL,2007-06-28,51300.0
RCL,2007-06-29,53600.0
RCL,2007-07-02,50600.0
RCL,2007-07-03,50600.0
RCL,2007-07-04,53700.0
RCL,2007-07-05,51400.0
RCL,2007-07-06,51600.0
RCL,2007-07-09,50600.0
RCL,2007-07-10,51200.0
RCL,2007-07-11,50900.0
RCL,2007-07-12,50600.0
RCL,2007-07-13,50000.0
RCL,2007-07-16,48000.0
RCL,2007-07-17,48300.0
RCL,2007-07-18,48100.0
RCL,2007-07-19,47200.0
RCL,2007-07-20,45500.0
RCL,2007-07-23,45300.0
RCL,2007-07-24,45000.0
RCL,2007-07-25,42800.0
RCL,2007-07-26,39800.0
RCL,2007-07-27,39100.0
RCL,2007-07-30,40500.0
RCL,2007-07-31,40700.0
RCL,2007-08-01,44300.0
RCL,2007-08-02,39800.0
RCL,2007-08-03,42300.0
RCL,2007-08-06,41200.0
RCL,2007-08-07,44000.0
RCL,2007-08-08,43200.0
RCL,2007-08-09,44000.0
RCL,2007-08-10,42300.0
RCL,2007-08-13,41600.0
RCL,2007-08-14,41600.0
RCL,2007-08-15,41900.0
RCL,2007-08-16,41900.0
RCL,2007-08-17,40200.0
RCL,2007-08-20,41700.0
RCL,2007-08-21,40900.0
RCL,2007-08-22,41100.0
RCL,2007-08-23,40400.0
RCL,2007-08-24,40400.0
RCL,2007-08-27,41300.0
RCL,2007-08-28,42700.0
RCL,2007-08-29,41900.0
RCL,2007-08-30,41700.0
RCL,2007-08-31,42300.0
RCL,2007-09-04,42800.0
RCL,2007-09-05,42300.0
RCL,2007-09-06,42300.0
RCL,2007-09-07,42600.0
RCL,2007-09-10,45500.0
RCL,2007-09-11,46200.0
RCL,2007-09-12,48000.0
RCL,2007-09-13,47700.0
RCL,2007-09-14,45700.0
RCL,2007-09-17,46600.0
RCL,2007-09-18,47000.0
RCL,2007-09-19,48000.0
RCL,2007-09-20,47800.0
RCL,2007-09-21,48300.0
RCL,2007-09-24,49800.0
RCL,2007-09-25,51200.0
RCL,2007-09-26,52400.0
RCL,2007-09-27,52500.0
RCL,2007-09-28,56500.0
RCL,2007-10-01,59700.0
RCL,2007-10-02,60400.0
RCL,2007-10-03,58200.0
RCL,2007-10-04,57800.0
RCL,2007-10-05,56700.0
RCL,2007-10-08,55700.0
RCL,2007-10-09,55700.0
RCL,2007-10-10,58200.0
RCL,2007-10-11,62500.0
RCL,2007-10-12,67900.0
RCL,2007-10-15,74200.0
RCL,2007-10-16,81400.0
RCL,2007-10-17,76400.0
RCL,2007-10-18,75200.0
RCL,2007-10-19,81500.0
RCL,2007-10-22,83000.0
RCL,2007-10-23,83400.0
RCL,2007-10-24,84500.0
RCL,2007-10-25,83000.0
RCL,2007-10-26,77300.0
RCL,2007-10-29,72000.0
RCL,2007-10-30,71300.0
RCL,2007-10-31,76200.0
RCL,2007-11-01,80500.0
RCL,2007-11-02,76200.0
RCL,2007-11-05,75800.0
RCL,2007-11-06,76000.0
RCL,2007-11-07,75600.0
RCL,2007-11-08,75200.0
RCL,2007-11-09,75500.0
RCL,2007-11-12,72700.0
RCL,2007-11-13,66500.0
RCL,2007-11-14,72400.0
RCL,2007-11-15,72000.0
RCL,2007-11-16,70900.0
RCL,2007-11-19,72200.0
RCL,2007-11-20,71900.0
RCL,2007-11-21,71900.0
RCL,2007-11-22,71800.0
RCL,2007-11-23,72700.0
RCL,2007-11-26,73200.0
RCL,2007-11-27,72900.0
RCL,2007-11-28,73500.0
RCL,2007-11-29,73200.0
RCL,2007-11-30,74000.0
RCL,2007-12-03,74000.0
RCL,2007-12-04,74400.0
RCL,2007-12-05,73000.0
RCL,2007-12-06,74600.0
RCL,2007-12-07,73400.0
RCL,2007-12-10,71600.0
RCL,2007-12-11,69900.0
RCL,2007-12-12,70600.0
RCL,2007-12-13,70600.0
RCL,2007-12-14,71400.0
RCL,2007-12-17,70600.0
RCL,2007-12-18,68900.0
RCL,2007-12-19,71200.0
RCL,2007-12-20,69300.0
RCL,2007-12-21,68900.0
RCL,2007-12-24,67400.0
RCL,2007-12-25,68400.0
RCL,2007-12-26,69500.0
RCL,2007-12-27,67400.0
RCL,2007-12-28,67600.0
RCL,2008-01-02,68400.0
RCL,2008-01-03,66300.0
RCL,2008-01-04,66000.0
RCL,2008-01-07,64200.0
RCL,2008-01-08,62100.0
RCL,2008-01-09,61800.0
RCL,2008-01-10,59900.0
RCL,2008-01-11,55600.0
RCL,2008-01-14,52400.0
RCL,2008-01-15,49300.0
RCL,2008-01-16,54500.0
RCL,2008-01-17,53000.0
RCL,2008-01-18,51800.0
RCL,2008-01-21,52200.0
RCL,2008-01-22,51500.0
RCL,2008-01-23,49200.0
RCL,2008-01-24,48300.0
RCL,2008-01-25,48800.0
RCL,2008-01-28,49200.0
RCL,2008-01-29,49600.0
RCL,2008-01-30,53600.0
RCL,2008-01-31,53500.0
RCL,2008-02-01,54300.0
RCL,2008-02-12,52900.0
RCL,2008-02-13,51100.0
RCL,2008-02-14,51100.0
RCL,2008-02-15,49600.0
RCL,2008-02-18,46000.0
RCL,2008-02-19,46000.0
RCL,2008-02-20,42800.0
RCL,2008-02-21,38800.0
RCL,2008-02-22,36400.0
RCL,2008-02-25,38700.0
RCL,2008-02-26,35300.0
RCL,2008-02-27,36400.0
RCL,2008-02-28,35700.0
RCL,2008-02-29,35300.0
RCL,2008-03-03,31800.0
RCL,2008-03-04,28800.0
RCL,2008-03-05,26600.0
RCL,2008-03-06,28600.0
RCL,2008-03-07,31500.0
RCL,2008-03-10,30000.0
RCL,2008-03-11,30200.0
RCL,2008-03-12,30300.0
RCL,2008-03-13,29100.0
RCL,2008-03-14,28900.0
RCL,2008-03-17,25700.0
RCL,2008-03-18,23200.0
RCL,2008-03-19,20900.0
RCL,2008-03-20,20000.0
RCL,2008-03-21,18200.0
RCL,2008-03-24,16400.0
RCL,2008-03-25,14800.0
RCL,2008-03-26,14800.0
RCL,2008-03-27,15100.0
RCL,2008-03-28,15400.0
RCL,2008-03-31,15700.0
RCL,2008-04-01,16000.0
RCL,2008-04-02,16300.0
RCL,2008-04-03,16600.0
RCL,2008-04-04,16900.0
RCL,2008-04-07,17400.0
RCL,2008-04-08,17900.0
RCL,2008-04-09,17000.0
RCL,2008-04-10,16700.0
RCL,2008-04-11,16200.0
RCL,2008-04-16,15700.0
RCL,2008-04-17,16200.0
RCL,2008-04-18,16000.0
RCL,2008-04-21,15600.0
RCL,2008-04-22,15200.0
RCL,2008-04-23,14800.0
RCL,2008-04-24,14400.0
RCL,2008-04-25,14000.0
RCL,2008-04-28,14000.0
RCL,2008-04-29,14100.0
RCL,2008-05-05,13700.0
RCL,2008-05-06,13400.0
RCL,2008-05-07,13000.0
RCL,2008-05-08,12600.0
RCL,2008-05-09,12200.0
RCL,2008-05-12,11900.0
RCL,2008-05-13,11600.0
RCL,2008-05-14,11600.0
RCL,2008-05-15,11200.0
RCL,2008-05-16,10900.0
RCL,2008-05-19,10600.0
RCL,2008-05-20,10300.0
RCL,2008-05-21,10000.0
RCL,2008-05-22,10000.0
RCL,2008-05-23,9700.0
RCL,2008-05-26,9700.0
RCL,2008-05-27,9400.0
RCL,2008-05-28,9100.0
RCL,2008-05-29,8900.0
RCL,2008-05-30,8600.0
RCL,2008-06-02,8400.0
RCL,2008-06-03,8100.0
RCL,2008-06-04,7900.0
RCL,2008-06-05,7700.0
RCL,2008-06-06,7500.0
RCL,2008-06-09,7300.0
RCL,2008-06-10,7500.0
RCL,2008-06-11,7300.0
RCL,2008-06-12,7500.0
RCL,2008-06-13,7700.0
RCL,2008-06-16,7900.0
RCL,2008-06-17,8200.0
RCL,2008-06-18,7900.0
RCL,2008-06-19,8000.0
RCL,2008-06-20,7700.0
RCL,2008-06-23,8000.0
RCL,2008-06-24,8300.0
RCL,2008-06-25,8600.0
RCL,2008-06-26,8300.0
RCL,2008-06-27,9200.0
RCL,2008-06-30,9500.0
RCL,2008-07-01,9900.0
RCL,2008-07-02,10200.0
RCL,2008-07-03,10600.0
RCL,2008-07-04,11100.0
RCL,2008-07-07,10900.0
RCL,2008-07-08,11200.0
RCL,2008-07-09,11300.0
RCL,2008-07-10,11700.0
RCL,2008-07-11,12200.0
RCL,2008-07-14,12700.0
RCL,2008-07-15,13200.0
RCL,2008-07-16,13700.0
RCL,2008-07-17,14200.0
RCL,2008-07-18,14200.0
RCL,2008-07-21,14100.0
RCL,2008-07-22,13500.0
RCL,2008-07-23,13000.0
RCL,2008-07-24,12500.0
RCL,2008-07-25,12500.0
RCL,2008-07-28,12700.0
RCL,2008-07-29,12800.0
RCL,2008-07-30,13300.0
RCL,2008-07-31,13800.0
RCL,2008-08-01,14300.0
RCL,2008-08-04,14900.0
RCL,2008-08-05,14700.0
RCL,2008-08-06,15500.0
RCL,2008-08-07,16100.0
RCL,2008-08-08,16700.0
RCL,2008-08-11,17300.0
RCL,2008-08-12,18000.0
RCL,2008-08-13,18700.0
RCL,2008-08-14,19400.0
RCL,2008-08-15,20200.0
RCL,2008-08-18,21600.0
RCL,2008-08-19,23100.0
RCL,2008-08-20,24600.0
RCL,2008-08-21,25900.0
RCL,2008-08-22,27600.0
RCL,2008-08-25,29500.0
RCL,2008-08-26,31600.0
RCL,2008-08-27,33800.0
RCL,2008-08-28,31400.0
RCL,2008-08-29,31800.0
RCL,2008-09-03,31800.0
RCL,2008-09-04,30000.0
RCL,2008-09-05,29400.0
RCL,2008-09-08,27400.0
RCL,2008-09-09,25500.0
RCL,2008-09-10,23800.0
RCL,2008-09-11,22400.0
RCL,2008-09-12,21000.0
RCL,2008-09-15,20600.0
RCL,2008-09-16,18800.0
RCL,2008-09-17,17600.0
RCL,2008-09-18,16400.0
RCL,2008-09-19,17600.0
RCL,2008-09-22,17300.0
RCL,2008-09-23,18500.0
RCL,2008-09-24,17400.0
RCL,2008-09-25,19100.0
RCL,2008-09-26,20100.0
RCL,2008-09-29,19200.0
RCL,2008-09-30,19500.0
RCL,2008-10-01,18300.0
RCL,2008-10-02,19400.0
RCL,2008-10-03,18100.0
RCL,2008-10-06,16800.0
RCL,2008-10-07,15700.0
RCL,2008-10-08,14600.0
RCL,2008-10-09,14100.0
RCL,2008-10-10,12900.0
RCL,2008-10-13,12600.0
RCL,2008-10-14,13500.0
RCL,2008-10-15,14400.0
RCL,2008-10-16,13800.0
RCL,2008-10-17,14100.0
RCL,2008-10-20,13800.0
RCL,2008-10-21,14500.0
RCL,2008-10-22,14100.0
RCL,2008-10-23,12800.0
RCL,2008-10-24,12000.0
RCL,2008-10-27,11200.0
RCL,2008-10-28,11200.0
RCL,2008-10-29,11500.0
RCL,2008-10-30,12300.0
RCL,2008-10-31,12600.0
RCL,2008-11-03,13100.0
RCL,2008-11-04,14000.0
RCL,2008-11-05,15000.0
RCL,2008-11-06,16100.0
RCL,2008-11-07,14900.0
RCL,2008-11-10,15600.0
RCL,2008-11-11,14300.0
RCL,2008-11-12,13800.0
RCL,2008-11-13,13600.0
RCL,2008-11-14,14100.0
RCL,2008-11-17,13400.0
RCL,2008-11-18,13400.0
RCL,2008-11-19,12800.0
RCL,2008-11-20,12100.0
RCL,2008-11-21,12600.0
RCL,2008-11-24,12300.0
RCL,2008-11-25,12100.0
RCL,2008-11-26,11200.0
RCL,2008-11-27,10500.0
RCL,2008-11-28,11500.0
RCL,2008-12-01,11000.0
RCL,2008-12-02,10700.0
RCL,2008-12-03,10800.0
RCL,2008-12-04,10900.0
RCL,2008-12-05,10500.0
RCL,2008-12-08,9600.0
RCL,2008-12-09,9800.0
RCL,2008-12-10,9500.0
RCL,2008-12-11,10200.0
RCL,2008-12-12,10800.0
RCL,2008-12-15,11400.0
RCL,2008-12-16,10600.0
RCL,2008-12-17,11100.0
RCL,2008-12-18,11200.0
RCL,2008-12-19,11500.0
RCL,2008-12-22,11800.0
RCL,2008-12-23,11100.0
RCL,2008-12-24,11200.0
RCL,2008-12-25,11200.0
RCL,2008-12-26,11500.0
RCL,2008-12-29,10900.0
RCL,2008-12-30,11300.0
RCL,2008-12-31,11300.0
RCL,2009-01-02,10900.0
RCL,2009-01-05,11100.0
RCL,2009-01-06,11500.0
RCL,2009-01-07,11700.0
RCL,2009-01-08,11500.0
RCL,2009-01-09,11500.0
RCL,2009-01-12,11400.0
RCL,2009-01-13,11300.0
RCL,2009-01-14,11500.0
RCL,2009-01-15,11500.0
RCL,2009-01-16,11500.0
RCL,2009-01-19,11100.0
RCL,2009-01-20,11100.0
RCL,2009-01-21,11300.0
RCL,2009-01-22,11000.0
RCL,2009-01-23,11400.0
RCL,2009-02-02,11200.0
RCL,2009-02-03,10800.0
RCL,2009-02-04,11300.0
RCL,2009-02-05,10800.0
RCL,2009-02-06,11200.0
RCL,2009-02-09,11100.0
RCL,2009-02-10,10800.0
RCL,2009-02-11,10900.0
RCL,2009-02-12,11000.0
RCL,2009-02-13,11000.0
RCL,2009-02-16,10900.0
RCL,2009-02-17,10900.0
RCL,2009-02-18,10700.0
RCL,2009-02-19,10700.0
RCL,2009-02-20,10500.0
RCL,2009-02-23,9800.0
RCL,2009-02-24,10500.0
RCL,2009-02-25,10100.0
RCL,2009-02-26,10100.0
RCL,2009-02-27,10500.0
RCL,2009-03-02,11100.0
RCL,2009-03-03,10300.0
RCL,2009-03-04,10900.0
RCL,2009-03-05,10200.0
RCL,2009-03-06,10500.0
RCL,2009-03-09,10900.0
RCL,2009-03-10,10800.0
RCL,2009-03-11,11800.0
RCL,2009-03-12,11800.0
RCL,2009-03-13,11400.0
RCL,2009-03-16,10800.0
RCL,2009-03-17,11600.0
RCL,2009-03-18,12200.0
RCL,2009-03-19,11700.0
RCL,2009-03-20,11700.0
RCL,2009-03-23,11600.0
RCL,2009-03-24,12000.0
RCL,2009-03-25,11700.0
RCL,2009-03-26,12200.0
RCL,2009-03-27,12200.0
RCL,2009-03-30,11700.0
RCL,2009-03-31,11700.0
RCL,2009-04-01,11700.0
RCL,2009-04-02,12700.0
RCL,2009-04-03,13200.0
RCL,2009-04-07,14100.0
RCL,2009-04-08,15100.0
RCL,2009-04-09,16100.0
RCL,2009-04-10,17100.0
RCL,2009-04-13,18200.0
RCL,2009-04-14,17000.0
RCL,2009-04-15,16200.0
RCL,2009-04-16,15400.0
RCL,2009-04-17,14800.0
RCL,2009-04-20,14300.0
RCL,2009-04-21,13600.0
RCL,2009-04-22,14300.0
RCL,2009-04-23,14200.0
RCL,2009-04-24,14200.0
RCL,2009-04-27,14600.0
RCL,2009-04-28,15200.0
RCL,2009-04-29,15900.0
RCL,2009-05-04,16800.0
RCL,2009-05-05,18000.0
RCL,2009-05-06,17700.0
RCL,2009-05-07,18700.0
RCL,2009-05-08,18100.0
RCL,2009-05-11,17500.0
RCL,2009-05-12,18900.0
RCL,2009-05-13,18800.0
RCL,2009-05-14,18100.0
RCL,2009-05-15,19000.0
RCL,2009-05-18,18700.0
RCL,2009-05-19,19000.0
RCL,2009-05-20,18700.0
RCL,2009-05-21,19800.0
RCL,2009-05-22,19500.0
RCL,2009-05-25,20700.0
RCL,2009-05-26,20200.0
RCL,2009-05-27,20000.0
RCL,2009-05-28,18700.0
RCL,2009-05-29,20000.0
RCL,2009-06-01,20800.0
RCL,2009-06-02,22000.0
RCL,2009-06-03,22500.0
RCL,2009-06-04,23500.0
RCL,2009-06-05,25100.0
RCL,2009-06-08,26800.0
RCL,2009-06-09,28700.0
RCL,2009-06-10,28600.0
RCL,2009-06-11,29600.0
RCL,2009-06-12,30300.0
RCL,2009-06-15,30400.0
RCL,2009-06-16,28400.0
RCL,2009-06-17,29300.0
RCL,2009-06-18,29400.0
RCL,2009-06-19,31400.0
RCL,2009-06-22,29100.0
RCL,2009-06-23,28400.0
RCL,2009-06-24,31000.0
RCL,2009-06-25,29400.0
RCL,2009-06-26,30300.0
RCL,2009-06-29,29100.0
RCL,2009-06-30,27900.0
RCL,2009-07-01,25900.0
RCL,2009-07-02,26400.0
RCL,2009-07-03,25300.0
RCL,2009-07-06,26500.0
RCL,2009-07-07,26600.0
RCL,2009-07-08,28600.0
RCL,2009-07-09,29800.0
RCL,2009-07-10,30500.0
RCL,2009-07-13,28700.0
RCL,2009-07-14,26700.0
RCL,2009-07-15,27600.0
RCL,2009-07-16,26800.0
RCL,2009-07-17,26800.0
RCL,2009-07-20,26700.0
RCL,2009-07-21,25800.0
RCL,2009-07-22,26400.0
RCL,2009-07-23,27700.0
RCL,2009-07-24,29100.0
RCL,2009-07-27,29100.0
RCL,2009-07-28,27600.0
RCL,2009-07-29,26800.0
RCL,2009-07-30,26000.0
RCL,2009-07-31,26400.0
RCL,2009-08-03,26800.0
RCL,2009-08-04,26200.0
RCL,2009-08-05,27000.0
RCL,2009-08-06,27200.0
RCL,2009-08-07,27000.0
RCL,2009-08-10,27600.0
RCL,2009-08-11,27800.0
RCL,2009-08-12,28400.0
RCL,2009-08-13,28000.0
RCL,2009-08-14,28400.0
RCL,2009-08-17,27800.0
RCL,2009-08-18,27900.0
RCL,2009-08-19,28200.0
RCL,2009-08-20,28000.0
RCL,2009-08-21,27900.0
RCL,2009-08-24,28000.0
RCL,2009-08-25,27200.0
RCL,2009-08-26,27600.0
RCL,2009-08-27,27200.0
RCL,2009-08-28,27800.0
RCL,2009-08-31,28500.0
RCL,2009-09-01,28200.0
RCL,2009-09-03,28000.0
RCL,2009-09-04,27200.0
RCL,2009-09-07,27400.0
RCL,2009-09-08,28200.0
RCL,2009-09-09,27900.0
RCL,2009-09-10,28300.0
RCL,2009-09-11,30200.0
RCL,2009-09-14,31200.0
RCL,2009-09-15,32800.0
RCL,2009-09-16,30700.0
RCL,2009-09-17,29900.0
RCL,2009-09-18,30900.0
RCL,2009-09-21,32100.0
RCL,2009-09-22,31300.0
RCL,2009-09-23,30200.0
RCL,2009-09-24,30100.0
RCL,2009-09-25,31900.0
RCL,2009-09-28,32800.0
RCL,2009-09-29,35100.0
RCL,2009-09-30,37100.0
RCL,2009-10-01,37900.0
RCL,2009-10-02,35600.0
RCL,2009-10-05,33800.0
RCL,2009-10-06,34200.0
RCL,2009-10-07,36300.0
RCL,2009-10-08,36300.0
RCL,2009-10-09,36500.0
RCL,2009-10-12,36700.0
RCL,2009-10-13,35400.0
RCL,2009-10-14,35900.0
RCL,2009-10-15,35900.0
RCL,2009-10-16,36400.0
RCL,2009-10-19,35600.0
RCL,2009-10-20,37500.0
RCL,2009-10-21,39000.0
RCL,2009-10-22,41400.0
RCL,2009-10-23,41000.0
RCL,2009-10-26,40800.0
RCL,2009-10-27,44200.0
RCL,2009-10-28,46200.0
RCL,2009-10-29,44300.0
RCL,2009-10-30,44500.0
RCL,2009-11-02,41300.0
RCL,2009-11-03,38400.0
RCL,2009-11-04,36100.0
RCL,2009-11-05,36500.0
RCL,2009-11-06,36500.0
RCL,2009-11-09,34600.0
RCL,2009-11-10,32500.0
RCL,2009-11-11,34000.0
RCL,2009-11-12,35900.0
RCL,2009-11-13,35500.0
RCL,2009-11-16,35400.0
RCL,2009-11-17,34500.0
RCL,2009-11-18,35700.0
RCL,2009-11-19,36100.0
RCL,2009-11-20,35400.0
RCL,2009-11-23,34400.0
RCL,2009-11-24,33400.0
RCL,2009-11-25,31500.0
RCL,2009-11-26,29700.0
RCL,2009-11-27,28800.0
RCL,2009-11-30,30000.0
RCL,2009-12-01,30700.0
RCL,2009-12-02,28700.0
RCL,2009-12-03,28800.0
RCL,2009-12-04,28800.0
RCL,2009-12-07,29000.0
RCL,2009-12-08,28200.0
RCL,2009-12-09,26600.0
RCL,2009-12-10,25300.0
RCL,2009-12-11,23900.0
RCL,2009-12-14,25600.0
RCL,2009-12-15,24900.0
RCL,2009-12-16,23100.0
RCL,2009-12-17,23500.0
RCL,2009-12-18,24400.0
RCL,2009-12-21,25900.0
RCL,2009-12-22,26100.0
RCL,2009-12-23,28000.0
RCL,2009-12-24,28400.0
RCL,2009-12-25,29400.0
RCL,2009-12-28,29000.0
RCL,2009-12-29,28000.0
RCL,2009-12-30,29900.0
RCL,2009-12-31,29900.0
RCL,2010-01-04,32500.0
RCL,2010-01-05,34400.0
RCL,2010-01-06,34000.0
RCL,2010-01-07,33400.0
RCL,2010-01-08,33000.0
RCL,2010-01-11,32300.0
RCL,2010-01-12,30800.0
RCL,2010-01-13,33300.0
RCL,2010-01-14,33100.0
RCL,2010-01-15,32900.0
RCL,2010-01-18,30800.0
RCL,2010-01-19,32800.0
RCL,2010-01-20,31800.0
RCL,2010-01-21,32000.0
RCL,2010-01-22,34000.0
RCL,2010-01-25,33100.0
RCL,2010-01-26,35400.0
RCL,2010-01-27,37900.0
RCL,2010-01-28,40500.0
RCL,2010-01-29,40600.0
RCL,2010-02-01,40600.0
RCL,2010-02-02,39200.0
RCL,2010-02-03,38200.0
RCL,2010-02-04,40000.0
RCL,2010-02-05,39200.0
RCL,2010-02-08,38700.0
RCL,2010-02-09,36800.0
RCL,2010-02-10,37300.0
RCL,2010-02-11,38100.0
RCL,2010-02-12,38700.0
RCL,2010-02-22,38700.0
RCL,2010-02-23,36900.0
RCL,2010-02-24,39100.0
RCL,2010-02-25,38400.0
RCL,2010-02-26,38600.0
RCL,2010-03-01,39000.0
RCL,2010-03-02,38500.0
RCL,2010-03-03,39200.0
RCL,2010-03-04,39200.0
RCL,2010-03-05,40400.0
RCL,2010-03-08,42800.0
RCL,2010-03-09,42000.0
RCL,2010-03-10,40400.0
RCL,2010-03-11,40600.0
RCL,2010-03-12,41200.0
RCL,2010-03-15,41500.0
RCL,2010-03-16,40600.0
RCL,2010-03-17,40000.0
RCL,2010-03-18,41000.0
RCL,2010-03-19,40100.0
RCL,2010-03-22,40800.0
RCL,2010-03-23,40100.0
RCL,2010-03-24,41000.0
RCL,2010-03-25,38900.0
RCL,2010-03-26,39500.0
RCL,2010-03-29,38700.0
RCL,2010-03-30,38700.0
RCL,2010-03-31,38700.0
RCL,2010-04-01,38900.0
RCL,2010-04-02,39300.0
RCL,2010-04-05,42000.0
RCL,2010-04-06,42000.0
RCL,2010-04-07,44800.0
RCL,2010-04-08,44300.0
RCL,2010-04-09,42900.0
RCL,2010-04-12,43800.0
RCL,2010-04-13,45000.0
RCL,2010-04-14,48100.0
RCL,2010-04-15,51200.0
RCL,2010-04-16,54600.0
RCL,2010-04-19,54000.0
RCL,2010-04-20,52400.0
RCL,2010-04-21,56100.0
RCL,2010-04-22,51900.0
RCL,2010-04-26,51900.0
RCL,2010-04-27,49100.0
RCL,2010-04-28,49100.0
RCL,2010-04-29,49100.0
RCL,2010-05-04,48100.0
RCL,2010-05-05,46700.0
RCL,2010-05-06,48100.0
RCL,2010-05-07,47200.0
RCL,2010-05-10,43900.0
RCL,2010-05-11,44100.0
RCL,2010-05-12,41100.0
RCL,2010-05-13,41300.0
RCL,2010-05-14,41600.0
RCL,2010-05-17,43800.0
RCL,2010-05-18,41900.0
RCL,2010-05-19,39700.0
RCL,2010-05-20,40600.0
RCL,2010-05-21,37000.0
RCL,2010-05-24,38900.0
RCL,2010-05-25,38700.0
RCL,2010-05-26,39900.0
RCL,2010-05-27,39900.0
RCL,2010-05-28,40900.0
RCL,2010-05-31,40500.0
RCL,2010-06-01,43200.0
RCL,2010-06-02,42000.0
RCL,2010-06-03,42100.0
RCL,2010-06-04,42400.0
RCL,2010-06-07,40700.0
RCL,2010-06-08,40800.0
RCL,2010-06-09,39100.0
RCL,2010-06-10,40400.0
RCL,2010-06-11,40600.0
RCL,2010-06-14,41500.0
RCL,2010-06-15,40800.0
RCL,2010-06-16,41000.0
RCL,2010-06-17,40600.0
RCL,2010-06-18,40400.0
RCL,2010-06-21,40000.0
RCL,2010-06-22,40600.0
RCL,2010-06-23,41000.0
RCL,2010-06-24,40200.0
RCL,2010-06-25,40300.0
RCL,2010-06-28,39100.0
RCL,2010-06-29,40400.0
RCL,2010-06-30,40500.0
RCL,2010-07-01,40300.0
RCL,2010-07-02,39800.0
RCL,2010-07-05,39500.0
RCL,2010-07-06,39000.0
RCL,2010-07-07,39400.0
RCL,2010-07-08,39600.0
RCL,2010-07-09,39400.0
RCL,2010-07-12,40800.0
RCL,2010-07-13,41500.0
RCL,2010-07-14,40600.0
RCL,2010-07-15,39700.0
RCL,2010-07-16,39700.0
RCL,2010-07-19,39600.0
RCL,2010-07-20,39700.0
RCL,2010-07-21,39600.0
RCL,2010-07-22,38700.0
RCL,2010-07-23,38900.0
RCL,2010-07-26,38200.0
RCL,2010-07-27,38600.0
RCL,2010-07-28,37700.0
RCL,2010-07-29,37900.0
RCL,2010-07-30,38200.0
RCL,2010-08-02,38300.0
RCL,2010-08-03,37700.0
RCL,2010-08-04,37300.0
RCL,2010-08-05,37000.0
RCL,2010-08-06,37200.0
RCL,2010-08-09,36600.0
RCL,2010-08-10,34700.0
RCL,2010-08-11,34900.0
RCL,2010-08-12,32500.0
RCL,2010-08-13,33300.0
RCL,2010-08-16,35300.0
RCL,2010-08-17,35400.0
RCL,2010-08-18,34000.0
RCL,2010-08-19,34000.0
RCL,2010-08-20,34400.0
RCL,2010-08-23,33400.0
RCL,2010-08-24,31700.0
RCL,2010-08-25,29700.0
RCL,2010-08-26,27900.0
RCL,2010-08-27,27400.0
RCL,2010-08-30,28600.0
RCL,2010-08-31,29900.0
RCL,2010-09-01,31700.0
RCL,2010-09-06,33700.0
RCL,2010-09-07,33700.0
RCL,2010-09-08,34200.0
RCL,2010-09-09,34200.0
RCL,2010-09-10,32500.0
RCL,2010-09-13,32300.0
RCL,2010-09-14,33900.0
RCL,2010-09-15,34100.0
RCL,2010-09-16,34100.0
RCL,2010-09-17,34400.0
RCL,2010-09-20,33500.0
RCL,2010-09-21,34800.0
RCL,2010-09-22,34600.0
RCL,2010-09-23,34600.0
RCL,2010-09-24,33100.0
RCL,2010-09-27,33400.0
RCL,2010-09-28,33000.0
RCL,2010-09-29,32900.0
RCL,2010-09-30,32500.0
RCL,2010-10-01,32400.0
RCL,2010-10-04,30900.0
RCL,2010-10-05,32400.0
RCL,2010-10-06,32900.0
RCL,2010-10-07,32900.0
RCL,2010-10-08,31300.0
RCL,2010-10-11,30300.0
RCL,2010-10-12,30100.0
RCL,2010-10-13,29000.0
RCL,2010-10-14,30800.0
RCL,2010-10-15,32700.0
RCL,2010-10-18,32900.0
RCL,2010-10-19,30600.0
RCL,2010-10-20,28700.0
RCL,2010-10-21,30600.0
RCL,2010-10-22,29100.0
RCL,2010-10-25,28700.0
RCL,2010-10-26,30700.0
RCL,2010-10-27,28700.0
RCL,2010-10-28,30400.0
RCL,2010-10-29,30700.0
RCL,2010-11-01,31400.0
RCL,2010-11-02,31400.0
RCL,2010-11-03,29300.0
RCL,2010-11-04,30000.0
RCL,2010-11-05,30600.0
RCL,2010-11-08,29000.0
RCL,2010-11-09,28500.0
RCL,2010-11-10,28500.0
RCL,2010-11-11,28500.0
RCL,2010-11-12,26300.0
RCL,2010-11-15,27000.0
RCL,2010-11-16,25100.0
RCL,2010-11-17,25300.0
RCL,2010-11-18,27300.0
RCL,2010-11-19,26600.0
RCL,2010-11-22,26100.0
RCL,2010-11-23,26000.0
RCL,2010-11-24,28000.0
RCL,2010-11-25,28700.0
RCL,2010-11-26,28000.0
RCL,2010-11-29,29400.0
RCL,2010-11-30,30200.0
RCL,2010-12-01,28700.0
RCL,2010-12-02,30200.0
RCL,2010-12-03,32200.0
RCL,2010-12-06,33600.0
RCL,2010-12-07,33700.0
RCL,2010-12-08,35000.0
RCL,2010-12-09,34500.0
RCL,2010-12-10,35700.0
RCL,2010-12-13,37200.0
RCL,2010-12-14,35300.0
RCL,2010-12-15,34700.0
RCL,2010-12-16,34000.0
RCL,2010-12-17,36100.0
RCL,2010-12-20,35500.0
RCL,2010-12-21,35300.0
RCL,2010-12-22,37500.0
RCL,2010-12-23,34900.0
RCL,2010-12-24,33300.0
RCL,2010-12-27,36100.0
RCL,2010-12-28,35300.0
RCL,2010-12-29,34900.0
RCL,2010-12-30,35300.0
RCL,2010-12-31,35200.0
RCL,2011-01-04,35200.0
RCL,2011-01-05,35000.0
RCL,2011-01-06,35200.0
RCL,2011-01-07,34100.0
RCL,2011-01-10,35000.0
RCL,2011-01-11,32300.0
RCL,2011-01-12,33600.0
RCL,2011-01-13,33600.0
RCL,2011-01-14,32400.0
RCL,2011-01-17,32500.0
RCL,2011-01-18,32000.0
RCL,2011-01-19,32400.0
RCL,2011-01-20,32700.0
RCL,2011-01-21,31800.0
RCL,2011-01-24,31600.0
RCL,2011-01-25,31400.0
RCL,2011-01-26,32700.0
RCL,2011-01-27,32400.0
RCL,2011-01-28,32700.0
RCL,2011-02-08,34100.0
RCL,2011-02-09,32800.0
RCL,2011-02-10,32400.0
RCL,2011-02-11,33000.0
RCL,2011-02-14,33200.0
RCL,2011-02-15,32400.0
RCL,2011-02-16,32700.0
RCL,2011-02-17,32400.0
RCL,2011-02-18,30600.0
RCL,2011-02-21,30300.0
RCL,2011-02-22,28900.0
RCL,2011-02-23,31300.0
RCL,2011-02-24,30400.0
RCL,2011-02-25,29800.0
RCL,2011-02-28,30000.0
RCL,2011-03-01,29500.0
RCL,2011-03-02,27700.0
RCL,2011-03-03,28700.0
RCL,2011-03-04,28700.0
RCL,2011-03-07,29400.0
RCL,2011-03-08,30000.0
RCL,2011-03-09,28000.0
RCL,2011-03-10,28400.0
RCL,2011-03-11,28600.0
RCL,2011-03-14,28700.0
RCL,2011-03-15,29700.0
RCL,2011-03-16,29400.0
RCL,2011-03-17,28900.0
RCL,2011-03-18,29400.0
RCL,2011-03-21,29100.0
RCL,2011-03-22,28300.0
RCL,2011-03-23,28500.0
RCL,2011-03-24,28700.0
RCL,2011-03-25,28000.0
RCL,2011-03-28,28500.0
RCL,2011-03-29,28900.0
RCL,2011-03-30,27200.0
RCL,2011-03-31,28500.0
RCL,2011-04-01,27200.0
RCL,2011-04-04,26900.0
RCL,2011-04-05,26300.0
RCL,2011-04-06,25500.0
RCL,2011-04-07,27200.0
RCL,2011-04-08,27800.0
RCL,2011-04-13,27900.0
RCL,2011-04-14,26500.0
RCL,2011-04-15,26600.0
RCL,2011-04-18,27600.0
RCL,2011-04-19,25700.0
RCL,2011-04-20,24400.0
RCL,2011-04-21,25400.0
RCL,2011-04-22,24300.0
RCL,2011-04-25,24300.0
RCL,2011-04-26,25700.0
RCL,2011-04-27,24100.0
RCL,2011-04-28,22500.0
RCL,2011-04-29,22800.0
RCL,2011-05-04,22800.0
RCL,2011-05-05,22400.0
RCL,2011-05-06,22100.0
RCL,2011-05-09,22100.0
RCL,2011-05-10,22100.0
RCL,2011-05-11,21700.0
RCL,2011-05-12,21700.0
RCL,2011-05-13,21300.0
RCL,2011-05-16,21000.0
RCL,2011-05-17,21000.0
RCL,2011-05-18,19600.0
RCL,2011-05-19,19900.0
RCL,2011-05-20,19100.0
RCL,2011-05-23,17700.0
RCL,2011-05-24,18400.0
RCL,2011-05-25,17100.0
RCL,2011-05-26,16900.0
RCL,2011-05-27,16900.0
RCL,2011-05-30,16100.0
RCL,2011-05-31,15700.0
RCL,2011-06-01,15800.0
RCL,2011-06-02,16900.0
RCL,2011-06-03,16600.0
RCL,2011-06-06,16900.0
RCL,2011-06-07,17700.0
RCL,2011-06-08,17400.0
RCL,2011-06-09,18300.0
RCL,2011-06-10,18600.0
RCL,2011-06-13,18700.0
RCL,2011-06-14,17800.0
RCL,2011-06-15,17200.0
RCL,2011-06-16,17700.0
RCL,2011-06-17,17400.0
RCL,2011-06-20,17400.0
RCL,2011-06-21,17800.0
RCL,2011-06-22,17600.0
RCL,2011-06-23,18000.0
RCL,2011-06-24,18000.0
RCL,2011-06-27,17700.0
RCL,2011-06-28,17000.0
RCL,2011-06-29,16500.0
RCL,2011-06-30,16100.0
RCL,2011-07-01,16200.0
RCL,2011-07-04,16700.0
RCL,2011-07-05,16900.0
RCL,2011-07-06,16400.0
RCL,2011-07-07,16700.0
RCL,2011-07-08,16300.0
RCL,2011-07-11,17200.0
RCL,2011-07-12,16100.0
RCL,2011-07-13,16200.0
RCL,2011-07-14,16100.0
RCL,2011-07-15,16300.0
RCL,2011-07-18,16200.0
RCL,2011-07-19,16200.0
RCL,2011-07-20,17100.0
RCL,2011-07-21,16500.0
RCL,2011-07-22,16200.0
RCL,2011-07-25,16100.0
RCL,2011-07-26,16200.0
RCL,2011-07-27,16400.0
RCL,2011-07-28,15700.0
RCL,2011-07-29,15500.0
RCL,2011-08-01,15900.0
RCL,2011-08-02,15500.0
RCL,2011-08-03,15100.0
RCL,2011-08-04,15200.0
RCL,2011-08-05,15700.0
RCL,2011-08-08,14700.0
RCL,2011-08-09,14000.0
RCL,2011-08-10,14600.0
RCL,2011-08-11,14100.0
RCL,2011-08-12,13200.0
RCL,2011-08-15,13500.0
RCL,2011-08-16,13600.0
RCL,2011-08-17,14300.0
RCL,2011-08-18,15100.0
RCL,2011-08-19,14600.0
RCL,2011-08-22,14900.0
RCL,2011-08-23,15000.0
RCL,2011-08-24,15000.0
RCL,2011-08-25,15000.0
RCL,2011-08-26,15500.0
RCL,2011-08-29,15700.0
RCL,2011-08-30,15500.0
RCL,2011-08-31,15500.0
RCL,2011-09-01,16000.0
RCL,2011-09-05,15500.0
RCL,2011-09-06,15200.0
RCL,2011-09-07,15700.0
RCL,2011-09-08,15800.0
RCL,2011-09-09,15600.0
RCL,2011-09-12,16100.0
RCL,2011-09-13,16900.0
RCL,2011-09-14,16900.0
RCL,2011-09-15,16700.0
RCL,2011-09-16,15700.0
RCL,2011-09-19,15700.0
RCL,2011-09-20,15700.0
RCL,2011-09-21,15400.0
RCL,2011-09-22,16300.0
RCL,2011-09-23,17300.0
RCL,2011-09-26,16900.0
RCL,2011-09-27,15800.0
RCL,2011-09-28,15200.0
RCL,2011-09-29,14500.0
RCL,2011-09-30,15400.0
RCL,2011-10-03,14500.0
RCL,2011-10-04,14200.0
RCL,2011-10-05,14900.0
RCL,2011-10-06,15100.0
RCL,2011-10-07,15100.0
RCL,2011-10-10,15100.0
RCL,2011-10-11,14800.0
RCL,2011-10-12,14800.0
RCL,2011-10-13,14800.0
RCL,2011-10-14,14800.0
RCL,2011-10-17,14800.0
RCL,2011-10-18,14800.0
RCL,2011-10-19,14800.0
RCL,2011-10-20,14800.0
RCL,2011-10-21,14800.0
RCL,2011-10-24,14300.0
RCL,2011-10-25,14300.0
RCL,2011-10-26,14300.0
RCL,2011-10-27,13900.0
RCL,2011-10-28,14700.0
RCL,2011-10-31,14200.0
RCL,2011-11-01,14200.0
RCL,2011-11-02,13800.0
RCL,2011-11-03,13700.0
RCL,2011-11-04,13700.0
RCL,2011-11-07,13700.0
RCL,2011-11-08,13700.0
RCL,2011-11-09,13600.0
RCL,2011-11-10,12900.0
RCL,2011-11-11,12900.0
RCL,2011-11-14,12400.0
RCL,2011-11-15,12400.0
RCL,2011-11-16,12700.0
RCL,2011-11-17,12700.0
RCL,2011-11-18,12400.0
RCL,2011-11-21,12100.0
RCL,2011-11-22,11800.0
RCL,2011-11-23,11800.0
RCL,2011-11-24,11300.0
RCL,2011-11-25,12000.0
RCL,2011-11-28,12100.0
RCL,2011-11-29,12600.0
RCL,2011-11-30,11800.0
RCL,2011-12-01,12100.0
RCL,2011-12-02,10900.0
RCL,2011-12-05,11300.0
RCL,2011-12-06,11700.0
RCL,2011-12-07,12500.0
RCL,2011-12-08,12700.0
RCL,2011-12-09,12100.0
RCL,2011-12-12,12100.0
RCL,2011-12-13,11200.0
RCL,2011-12-14,11000.0
RCL,2011-12-15,10800.0
RCL,2011-12-16,10900.0
RCL,2011-12-19,10600.0
RCL,2011-12-20,10600.0
RCL,2011-12-21,10600.0
RCL,2011-12-22,10600.0
RCL,2011-12-23,10200.0
RCL,2011-12-26,10200.0
RCL,2011-12-27,10100.0
RCL,2011-12-28,10200.0
RCL,2011-12-29,9800.0
RCL,2011-12-30,9800.0
RCL,2012-01-03,9800.0
RCL,2012-01-04,10500.0
RCL,2012-01-05,10600.0
RCL,2012-01-06,10600.0
RCL,2012-01-09,10600.0
RCL,2012-01-10,10200.0
RCL,2012-01-11,10200.0
RCL,2012-01-12,10000.0
RCL,2012-01-13,10600.0
RCL,2012-01-16,10900.0
RCL,2012-01-17,11100.0
RCL,2012-01-18,11800.0
RCL,2012-01-19,11900.0
RCL,2012-01-20,12100.0
RCL,2012-01-30,12400.0
RCL,2012-01-31,12300.0
RCL,2012-02-01,12200.0
RCL,2012-02-02,12500.0
RCL,2012-02-03,12000.0
RCL,2012-02-06,11900.0
RCL,2012-02-07,11800.0
RCL,2012-02-08,12400.0
RCL,2012-02-09,12100.0
RCL,2012-02-10,11500.0
RCL,2012-02-13,11500.0
RCL,2012-02-14,11700.0
RCL,2012-02-15,12000.0
RCL,2012-02-16,10900.0
RCL,2012-02-17,11700.0
RCL,2012-02-20,12400.0
RCL,2012-02-21,12500.0
RCL,2012-02-22,13200.0
RCL,2012-02-23,12800.0
RCL,2012-02-24,13000.0
RCL,2012-02-27,13000.0
RCL,2012-02-28,12600.0
RCL,2012-02-29,12800.0
RCL,2012-03-01,12500.0
RCL,2012-03-02,13100.0
RCL,2012-03-05,13500.0
RCL,2012-03-06,13200.0
RCL,2012-03-07,13200.0
RCL,2012-03-08,12400.0
RCL,2012-03-09,12700.0
RCL,2012-03-12,12200.0
RCL,2012-03-13,12600.0
RCL,2012-03-14,12600.0
RCL,2012-03-15,12700.0
RCL,2012-03-16,12400.0
RCL,2012-03-19,12800.0
RCL,2012-03-20,12800.0
RCL,2012-03-21,12800.0
RCL,2012-03-22,12800.0
RCL,2012-03-23,12900.0
RCL,2012-03-26,12900.0
RCL,2012-03-27,13000.0
RCL,2012-03-28,13000.0
RCL,2012-03-29,13100.0
RCL,2012-03-30,13000.0
RCL,2012-04-03,13200.0
RCL,2012-04-04,12900.0
RCL,2012-04-05,13000.0
RCL,2012-04-06,12800.0
RCL,2012-04-09,13000.0
RCL,2012-04-10,12800.0
RCL,2012-04-11,13700.0
RCL,2012-04-12,14700.0
RCL,2012-04-13,15100.0
RCL,2012-04-16,15500.0
RCL,2012-04-17,15200.0
RCL,2012-04-18,15100.0
RCL,2012-04-19,15800.0
RCL,2012-04-20,15100.0
RCL,2012-04-23,14500.0
RCL,2012-04-24,14400.0
RCL,2012-04-25,15000.0
RCL,2012-04-26,14700.0
RCL,2012-04-27,14500.0
RCL,2012-05-02,14500.0
RCL,2012-05-03,14800.0
RCL,2012-05-04,15200.0
RCL,2012-05-07,15700.0
RCL,2012-05-08,16000.0
RCL,2012-05-09,16300.0
RCL,2012-05-10,17200.0
RCL,2012-05-11,17200.0
RCL,2012-05-14,16700.0
RCL,2012-05-15,15600.0
RCL,2012-05-16,15600.0
RCL,2012-05-17,15200.0
RCL,2012-05-18,15200.0
RCL,2012-05-21,15900.0
RCL,2012-05-22,15200.0
RCL,2012-05-23,14100.0
RCL,2012-05-24,14200.0
RCL,2012-05-25,14500.0
RCL,2012-05-28,14400.0
RCL,2012-05-29,14800.0
RCL,2012-05-30,14800.0
RCL,2012-05-31,14700.0
RCL,2012-06-01,14400.0
RCL,2012-06-04,13600.0
RCL,2012-06-05,14400.0
RCL,2012-06-06,14900.0
RCL,2012-06-07,15600.0
RCL,2012-06-08,15300.0
RCL,2012-06-11,15200.0
RCL,2012-06-12,14500.0
RCL,2012-06-13,15200.0
RCL,2012-06-14,15200.0
RCL,2012-06-15,15600.0
RCL,2012-06-18,15600.0
RCL,2012-06-19,15200.0
RCL,2012-06-20,15500.0
RCL,2012-06-21,15500.0
RCL,2012-06-22,15500.0
RCL,2012-06-25,15200.0
RCL,2012-06-26,15200.0
RCL,2012-06-27,15200.0
RCL,2012-06-28,15100.0
RCL,2012-06-29,14400.0
RCL,2012-07-02,14400.0
RCL,2012-07-03,14200.0
RCL,2012-07-04,15000.0
RCL,2012-07-05,14500.0
RCL,2012-07-06,14400.0
RCL,2012-07-09,14400.0
RCL,2012-07-10,14400.0
RCL,2012-07-11,14000.0
RCL,2012-07-12,14400.0
RCL,2012-07-13,14400.0
RCL,2012-07-16,14400.0
RCL,2012-07-17,14400.0
RCL,2012-07-18,14200.0
RCL,2012-07-19,14700.0
RCL,2012-07-20,14800.0
RCL,2012-07-23,14700.0
RCL,2012-07-24,14100.0
RCL,2012-07-25,14400.0
RCL,2012-07-26,14700.0
RCL,2012-07-27,15200.0
RCL,2012-07-30,15800.0
RCL,2012-07-31,14800.0
RCL,2012-08-01,14500.0
RCL,2012-08-02,15000.0
RCL,2012-08-03,14000.0
RCL,2012-08-06,14800.0
RCL,2012-08-07,14800.0
RCL,2012-08-08,14400.0
RCL,2012-08-09,14600.0
RCL,2012-08-10,14200.0
RCL,2012-08-13,14600.0
RCL,2012-08-14,14400.0
RCL,2012-08-15,14000.0
RCL,2012-08-16,14100.0
RCL,2012-08-17,14100.0
RCL,2012-08-20,14300.0
RCL,2012-08-21,14000.0
RCL,2012-08-22,13300.0
RCL,2012-08-23,12800.0
RCL,2012-08-24,13200.0
RCL,2012-08-27,13200.0
RCL,2012-08-28,12800.0
RCL,2012-08-29,13600.0
RCL,2012-08-30,12900.0
RCL,2012-08-31,13600.0
RCL,2012-09-04,13700.0
RCL,2012-09-05,13600.0
RCL,2012-09-06,13600.0
RCL,2012-09-07,13600.0
RCL,2012-09-10,12800.0
RCL,2012-09-11,13000.0
RCL,2012-09-12,13500.0
RCL,2012-09-13,13900.0
RCL,2012-09-14,14800.0
RCL,2012-09-17,13800.0
RCL,2012-09-18,14300.0
RCL,2012-09-19,14300.0
RCL,2012-09-20,13400.0
RCL,2012-09-21,14300.0
RCL,2012-09-24,14500.0
RCL,2012-09-25,13800.0
RCL,2012-09-26,14300.0
RCL,2012-09-27,14300.0
RCL,2012-09-28,14300.0
RCL,2012-10-01,14600.0
RCL,2012-10-02,14800.0
RCL,2012-10-03,14400.0
RCL,2012-10-04,14200.0
RCL,2012-10-05,14000.0
RCL,2012-10-08,14000.0
RCL,2012-10-09,14000.0
RCL,2012-10-10,14000.0
RCL,2012-10-11,14300.0
RCL,2012-10-12,14300.0
RCL,2012-10-15,14300.0
RCL,2012-10-16,14400.0
RCL,2012-10-17,14200.0
RCL,2012-10-18,13800.0
RCL,2012-10-19,12900.0
RCL,2012-10-22,13800.0
RCL,2012-10-23,13200.0
RCL,2012-10-24,13800.0
RCL,2012-10-25,13600.0
RCL,2012-10-26,14000.0
RCL,2012-10-29,14000.0
RCL,2012-10-30,14000.0
RCL,2012-10-31,13600.0
RCL,2012-11-01,13600.0
RCL,2012-11-02,12900.0
RCL,2012-11-05,12900.0
RCL,2012-11-06,12900.0
RCL,2012-11-07,13600.0
RCL,2012-11-08,13100.0
RCL,2012-11-09,13100.0
RCL,2012-11-12,13400.0
RCL,2012-11-13,13400.0
RCL,2012-11-14,13200.0
RCL,2012-11-15,13200.0
RCL,2012-11-16,13200.0
RCL,2012-11-19,13200.0
RCL,2012-11-20,13300.0
RCL,2012-11-21,13300.0
RCL,2012-11-22,13300.0
RCL,2012-11-23,13300.0
RCL,2012-11-26,13300.0
RCL,2012-11-27,13400.0
RCL,2012-11-28,13400.0
RCL,2012-11-29,13400.0
RCL,2012-11-30,13200.0
RCL,2012-12-03,13300.0
RCL,2012-12-04,13600.0
RCL,2012-12-05,13600.0
RCL,2012-12-06,13600.0
RCL,2012-12-07,13600.0
RCL,2012-12-10,13200.0
RCL,2012-12-11,14000.0
RCL,2012-12-12,14000.0
RCL,2012-12-13,13200.0
RCL,2012-12-14,13200.0
RCL,2012-12-17,13200.0
RCL,2012-12-18,13200.0
RCL,2012-12-19,13900.0
RCL,2012-12-20,14400.0
RCL,2012-12-21,15300.0
RCL,2012-12-24,14400.0
RCL,2012-12-25,13600.0
RCL,2012-12-26,14000.0
RCL,2012-12-27,14400.0
RCL,2012-12-28,15200.0
RCL,2013-01-02,15200.0
RCL,2013-01-03,14400.0
RCL,2013-01-04,13700.0
RCL,2013-01-07,12800.0
RCL,2013-01-08,13600.0
RCL,2013-01-09,14200.0
RCL,2013-01-10,14400.0
RCL,2013-01-11,13600.0
RCL,2013-01-14,14400.0
RCL,2013-01-15,13600.0
RCL,2013-01-16,14900.0
RCL,2013-01-17,16100.0
RCL,2013-01-18,16100.0
RCL,2013-01-21,15200.0
RCL,2013-01-22,14800.0
RCL,2013-01-23,14800.0
RCL,2013-01-24,14800.0
RCL,2013-01-25,15900.0
RCL,2013-01-28,15900.0
RCL,2013-01-29,15900.0
RCL,2013-01-30,15900.0
RCL,2013-01-31,15900.0
RCL,2013-02-01,15900.0
RCL,2013-02-04,15900.0
RCL,2013-02-05,17100.0
RCL,2013-02-06,15600.0
RCL,2013-02-07,14700.0
RCL,2013-02-08,15200.0
RCL,2013-02-18,15800.0
RCL,2013-02-19,14500.0
RCL,2013-02-20,15100.0
RCL,2013-02-21,13600.0
RCL,2013-02-22,14700.0
RCL,2013-02-25,14800.0
RCL,2013-02-26,14300.0
RCL,2013-02-27,14500.0
RCL,2013-02-28,14700.0
RCL,2013-03-01,14700.0
RCL,2013-03-04,14500.0
RCL,2013-03-05,13800.0
RCL,2013-03-06,14500.0
RCL,2013-03-07,14500.0
RCL,2013-03-08,14500.0
RCL,2013-03-11,14500.0
RCL,2013-03-12,14500.0
RCL,2013-03-13,14500.0
RCL,2013-03-14,14500.0
RCL,2013-03-15,14500.0
RCL,2013-03-18,14600.0
RCL,2013-03-19,14900.0
RCL,2013-03-20,15800.0
RCL,2013-03-21,15800.0
RCL,2013-03-22,15700.0
RCL,2013-03-25,15700.0
RCL,2013-03-26,15700.0
RCL,2013-03-27,15700.0
RCL,2013-03-28,14700.0
RCL,2013-03-29,15800.0
RCL,2013-04-01,15300.0
RCL,2013-04-02,15800.0
RCL,2013-04-03,15800.0
RCL,2013-04-04,14800.0
RCL,2013-04-05,15700.0
RCL,2013-04-08,15800.0
RCL,2013-04-09,15000.0
RCL,2013-04-10,15700.0
RCL,2013-04-11,15700.0
RCL,2013-04-12,15700.0
RCL,2013-04-15,15700.0
RCL,2013-04-16,15700.0
RCL,2013-04-17,15700.0
RCL,2013-04-18,15700.0
RCL,2013-04-22,15000.0
RCL,2013-04-23,15700.0
RCL,2013-04-24,15700.0
RCL,2013-04-25,15800.0
RCL,2013-04-26,15800.0
RCL,2013-05-02,15900.0
RCL,2013-05-03,15900.0
RCL,2013-05-06,15800.0
RCL,2013-05-07,15800.0
RCL,2013-05-08,15900.0
RCL,2013-05-09,16100.0
RCL,2013-05-10,16100.0
RCL,2013-05-13,15800.0
RCL,2013-05-14,16000.0
RCL,2013-05-15,15900.0
RCL,2013-05-16,16900.0
RCL,2013-05-17,15700.0
RCL,2013-05-20,15700.0
RCL,2013-05-21,15800.0
RCL,2013-05-22,15000.0
RCL,2013-05-23,16000.0
RCL,2013-05-24,15900.0
RCL,2013-05-27,16100.0
RCL,2013-05-28,16100.0
RCL,2013-05-29,15200.0
RCL,2013-05-30,15800.0
RCL,2013-05-31,16000.0
RCL,2013-06-03,15800.0
RCL,2013-06-04,15800.0
RCL,2013-06-05,15800.0
RCL,2013-06-06,15800.0
RCL,2013-06-07,15700.0
RCL,2013-06-10,16200.0
RCL,2013-06-11,16700.0
RCL,2013-06-12,16800.0
RCL,2013-06-13,16800.0
RCL,2013-06-14,16800.0
RCL,2013-06-17,16800.0
RCL,2013-06-18,17100.0
RCL,2013-06-19,17100.0
RCL,2013-06-20,17300.0
RCL,2013-06-21,16600.0
RCL,2013-06-24,16800.0
RCL,2013-06-25,16300.0
RCL,2013-06-26,16700.0
RCL,2013-06-27,16700.0
RCL,2013-06-28,16700.0
RCL,2013-07-01,16700.0
RCL,2013-07-02,16700.0
RCL,2013-07-03,16500.0
RCL,2013-07-04,16500.0
RCL,2013-07-05,16500.0
RCL,2013-07-08,16300.0
RCL,2013-07-09,16900.0
RCL,2013-07-10,16900.0
RCL,2013-07-11,16900.0
RCL,2013-07-12,16600.0
RCL,2013-07-15,15900.0
RCL,2013-07-16,16400.0
RCL,2013-07-17,15900.0
RCL,2013-07-18,15900.0
RCL,2013-07-19,15900.0
RCL,2013-07-22,15900.0
RCL,2013-07-23,16000.0
RCL,2013-07-24,16000.0
RCL,2013-07-25,15900.0
RCL,2013-07-26,15300.0
RCL,2013-07-29,16100.0
RCL,2013-07-30,15900.0
RCL,2013-07-31,15900.0
RCL,2013-08-01,15900.0
RCL,2013-08-02,15900.0
RCL,2013-08-05,15300.0
RCL,2013-08-06,15000.0
RCL,2013-08-07,15500.0
RCL,2013-08-08,15500.0
RCL,2013-08-09,15000.0
RCL,2013-08-12,16100.0
RCL,2013-08-13,15500.0
RCL,2013-08-14,15500.0
RCL,2013-08-15,15300.0
RCL,2013-08-16,15300.0
RCL,2013-08-19,15000.0
RCL,2013-08-20,15000.0
RCL,2013-08-21,15000.0
RCL,2013-08-22,15000.0
RCL,2013-08-23,15000.0
RCL,2013-08-26,15000.0
RCL,2013-08-27,14800.0
RCL,2013-08-28,14800.0
RCL,2013-08-29,15500.0
RCL,2013-08-30,15000.0
RCL,2013-09-03,14800.0
RCL,2013-09-04,15000.0
RCL,2013-09-05,14800.0
RCL,2013-09-06,14900.0
RCL,2013-09-09,14900.0
RCL,2013-09-10,14900.0
RCL,2013-09-11,14800.0
RCL,2013-09-12,14800.0
RCL,2013-09-13,14800.0
RCL,2013-09-16,14700.0
RCL,2013-09-17,14900.0
RCL,2013-09-18,14900.0
RCL,2013-09-19,14700.0
RCL,2013-09-20,14700.0
RCL,2013-09-23,15000.0
RCL,2013-09-24,15200.0
RCL,2013-09-25,15000.0
RCL,2013-09-26,15300.0
RCL,2013-09-27,15000.0
RCL,2013-09-30,16200.0
RCL,2013-10-01,16200.0
RCL,2013-10-02,15800.0
RCL,2013-10-03,16300.0
RCL,2013-10-04,16200.0
RCL,2013-10-07,16200.0
RCL,2013-10-08,16200.0
RCL,2013-10-09,16200.0
RCL,2013-10-10,16200.0
RCL,2013-10-11,16200.0
RCL,2013-10-14,16200.0
RCL,2013-10-15,16200.0
RCL,2013-10-16,16200.0
RCL,2013-10-17,16200.0
RCL,2013-10-18,16200.0
RCL,2013-10-21,16600.0
RCL,2013-10-22,16400.0
RCL,2013-10-23,16700.0
RCL,2013-10-24,15800.0
RCL,2013-10-25,15900.0
RCL,2013-10-28,15900.0
RCL,2013-10-29,15900.0
RCL,2013-10-30,15900.0
RCL,2013-10-31,15200.0
RCL,2013-11-01,15900.0
RCL,2013-11-04,15800.0
RCL,2013-11-05,16400.0
RCL,2013-11-06,17200.0
RCL,2013-11-07,17600.0
RCL,2013-11-08,16000.0
RCL,2013-11-11,16700.0
RCL,2013-11-12,16700.0
RCL,2013-11-13,16200.0
RCL,2013-11-14,16300.0
RCL,2013-11-15,17500.0
RCL,2013-11-18,17600.0
RCL,2013-11-19,17300.0
RCL,2013-11-20,17300.0
RCL,2013-11-21,17300.0
RCL,2013-11-22,17300.0
RCL,2013-11-25,17200.0
RCL,2013-11-26,17700.0
RCL,2013-11-27,17600.0
RCL,2013-11-28,17200.0
RCL,2013-11-29,17000.0
RCL,2013-12-02,17000.0
RCL,2013-12-03,17000.0
RCL,2013-12-04,17200.0
RCL,2013-12-05,18700.0
RCL,2013-12-06,18600.0
RCL,2013-12-09,18400.0
RCL,2013-12-10,18200.0
RCL,2013-12-11,18000.0
RCL,2013-12-12,17900.0
RCL,2013-12-13,18000.0
RCL,2013-12-16,17900.0
RCL,2013-12-17,17100.0
RCL,2013-12-18,17600.0
RCL,2013-12-19,18100.0
RCL,2013-12-20,18100.0
RCL,2013-12-23,18500.0
RCL,2013-12-24,18100.0
RCL,2013-12-25,18100.0
RCL,2013-12-26,18400.0
RCL,2013-12-27,18600.0
RCL,2013-12-30,17500.0
RCL,2013-12-31,18200.0
RCL,2014-01-02,18400.0
RCL,2014-01-03,18500.0
RCL,2014-01-06,18600.0
RCL,2014-01-07,18500.0
RCL,2014-01-08,19000.0
RCL,2014-01-09,19000.0
RCL,2014-01-10,18500.0
RCL,2014-01-13,18700.0
RCL,2014-01-14,19300.0
RCL,2014-01-15,20500.0
RCL,2014-01-16,19300.0
RCL,2014-01-17,20300.0
RCL,2014-01-20,21400.0
RCL,2014-01-21,19300.0
RCL,2014-01-22,19300.0
RCL,2014-01-23,19300.0
RCL,2014-01-24,19500.0
RCL,2014-01-27,19500.0
RCL,2014-02-06,21200.0
RCL,2014-02-07,20500.0
RCL,2014-02-10,20500.0
RCL,2014-02-11,20500.0
RCL,2014-02-12,20500.0
RCL,2014-02-13,22000.0
RCL,2014-02-14,20700.0
RCL,2014-02-17,21000.0
RCL,2014-02-18,21200.0
RCL,2014-02-19,22700.0
RCL,2014-02-20,22000.0
RCL,2014-02-21,22700.0
RCL,2014-02-24,22700.0
RCL,2014-02-25,23000.0
RCL,2014-02-26,23200.0
RCL,2014-02-27,23400.0
RCL,2014-02-28,23800.0
RCL,2014-03-03,23400.0
RCL,2014-03-04,23400.0
RCL,2014-03-05,24900.0
RCL,2014-03-06,23200.0
RCL,2014-03-07,24000.0
RCL,2014-03-10,24000.0
RCL,2014-03-11,24000.0
RCL,2014-03-12,24000.0
RCL,2014-03-13,24000.0
RCL,2014-03-14,25000.0
RCL,2014-03-17,24100.0
RCL,2014-03-18,25000.0
RCL,2014-03-20,25000.0
RCL,2014-03-21,25100.0
RCL,2014-03-24,25600.0
RCL,2014-03-25,25600.0
RCL,2014-03-26,25600.0
RCL,2014-03-27,25600.0
RCL,2014-03-28,25600.0
RCL,2014-03-31,25600.0
RCL,2014-04-01,25400.0
RCL,2014-04-02,25200.0
RCL,2014-04-03,25200.0
RCL,2014-04-04,24800.0
RCL,2014-04-07,25200.0
RCL,2014-04-08,26800.0
RCL,2014-04-10,26800.0
RCL,2014-04-11,26800.0
RCL,2014-04-14,24800.0
RCL,2014-04-15,24700.0
RCL,2014-04-16,24600.0
RCL,2014-04-17,24500.0
RCL,2014-04-18,24300.0
RCL,2014-04-21,24100.0
RCL,2014-04-22,23900.0
RCL,2014-04-23,23900.0
RCL,2014-04-24,26000.0
RCL,2014-04-25,25500.0
RCL,2014-04-28,25500.0
RCL,2014-04-29,25000.0
RCL,2014-05-05,24100.0
RCL,2014-05-06,25500.0
RCL,2014-05-07,25500.0
RCL,2014-05-08,23000.0
RCL,2014-05-09,23000.0
RCL,2014-05-12,21100.0
RCL,2014-05-13,21900.0
RCL,2014-05-14,21900.0
RCL,2014-05-15,21900.0
RCL,2014-05-16,21000.0
RCL,2014-05-19,21900.0
RCL,2014-05-20,21900.0
RCL,2014-05-21,21900.0
