SD7,2006-12-27,5800.0
SD7,2006-12-28,5800.0
SD7,2006-12-29,6400.0
SD7,2007-01-02,7000.0
SD7,2007-01-03,7700.0
SD7,2007-01-04,7700.0
SD7,2007-01-05,8400.0
SD7,2007-01-08,8600.0
SD7,2007-01-09,8900.0
SD7,2007-01-10,8900.0
SD7,2007-01-11,8900.0
SD7,2007-01-12,8900.0
SD7,2007-01-15,8900.0
SD7,2007-01-16,8900.0
SD7,2007-01-17,8900.0
SD7,2007-01-18,8800.0
SD7,2007-01-19,8300.0
SD7,2007-01-22,8300.0
SD7,2007-01-23,8400.0
SD7,2007-01-24,7900.0
SD7,2007-01-25,8100.0
SD7,2007-01-26,8000.0
SD7,2007-01-29,8200.0
SD7,2007-01-30,8800.0
SD7,2007-01-31,9700.0
SD7,2007-02-01,10700.0
SD7,2007-02-02,11700.0
SD7,2007-02-05,12900.0
SD7,2007-02-06,14100.0
SD7,2007-02-07,15500.0
SD7,2007-02-08,17100.0
SD7,2007-02-09,18700.0
SD7,2007-02-12,18300.0
SD7,2007-02-13,19300.0
SD7,2007-02-14,18700.0
SD7,2007-02-15,18900.0
SD7,2007-02-26,20700.0
SD7,2007-02-27,22700.0
SD7,2007-02-28,22600.0
SD7,2007-03-01,24900.0
SD7,2007-03-02,26400.0
SD7,2007-03-05,28100.0
SD7,2007-03-06,30100.0
SD7,2007-03-07,30700.0
SD7,2007-03-08,30700.0
SD7,2007-03-09,31800.0
SD7,2007-03-12,30100.0
SD7,2007-03-13,28300.0
SD7,2007-03-14,26900.0
SD7,2007-03-15,24300.0
SD7,2007-03-16,26700.0
SD7,2007-03-19,27500.0
SD7,2007-03-20,28600.0
SD7,2007-03-21,28100.0
SD7,2007-03-22,27900.0
SD7,2007-03-23,27300.0
SD7,2007-03-26,25900.0
SD7,2007-03-27,23900.0
SD7,2007-03-28,24700.0
SD7,2007-03-29,25200.0
SD7,2007-03-30,25400.0
SD7,2007-04-02,24300.0
SD7,2007-04-03,23300.0
SD7,2007-04-04,25700.0
SD7,2007-04-05,24500.0
SD7,2007-04-06,24700.0
SD7,2007-04-09,25800.0
SD7,2007-04-10,27700.0
SD7,2007-04-11,29300.0
SD7,2007-04-12,31300.0
SD7,2007-04-13,31200.0
SD7,2007-04-16,29200.0
SD7,2007-04-17,26800.0
SD7,2007-04-18,28200.0
SD7,2007-04-19,28300.0
SD7,2007-04-20,27100.0
SD7,2007-04-23,25700.0
SD7,2007-04-24,23800.0
SD7,2007-04-25,26800.0
SD7,2007-05-02,25800.0
SD7,2007-05-03,27100.0
SD7,2007-05-04,26600.0
SD7,2007-05-07,26000.0
SD7,2007-05-08,26900.0
SD7,2007-05-09,26900.0
SD7,2007-05-10,26600.0
SD7,2007-05-11,26400.0
SD7,2007-05-14,26900.0
SD7,2007-05-15,26200.0
SD7,2007-05-16,26600.0
SD7,2007-05-17,27100.0
SD7,2007-05-18,29400.0
SD7,2007-05-21,31400.0
SD7,2007-05-22,34500.0
SD7,2007-05-23,34400.0
SD7,2007-05-24,33900.0
SD7,2007-05-25,34800.0
SD7,2007-05-28,36900.0
SD7,2007-05-29,38000.0
SD7,2007-05-30,38000.0
SD7,2007-05-31,38200.0
SD7,2007-06-01,36800.0
SD7,2007-06-04,35900.0
SD7,2007-06-05,34400.0
SD7,2007-06-06,34800.0
SD7,2007-06-07,35700.0
SD7,2007-06-08,35200.0
SD7,2007-06-11,35200.0
SD7,2007-06-12,36100.0
SD7,2007-06-13,35700.0
SD7,2007-06-14,36000.0
SD7,2007-06-15,35700.0
SD7,2007-06-18,35600.0
SD7,2007-06-19,35400.0
SD7,2007-06-20,35200.0
SD7,2007-06-21,34400.0
SD7,2007-06-22,33300.0
SD7,2007-06-25,33700.0
SD7,2007-06-26,33700.0
SD7,2007-06-27,33100.0
SD7,2007-06-28,32200.0
SD7,2007-06-29,32400.0
SD7,2007-07-02,29100.0
SD7,2007-07-03,27000.0
SD7,2007-07-04,28800.0
SD7,2007-07-05,25600.0
SD7,2007-07-06,26900.0
SD7,2007-07-09,25900.0
SD7,2007-07-10,27200.0
SD7,2007-07-11,27900.0
SD7,2007-07-12,27700.0
SD7,2007-07-13,27700.0
SD7,2007-07-16,26600.0
SD7,2007-07-17,27300.0
SD7,2007-07-18,27400.0
SD7,2007-07-19,27100.0
SD7,2007-07-20,27300.0
SD7,2007-07-23,30000.0
SD7,2007-07-24,31500.0
SD7,2007-07-25,28700.0
SD7,2007-07-26,27900.0
SD7,2007-07-27,28400.0
SD7,2007-07-30,28100.0
SD7,2007-07-31,27100.0
SD7,2007-08-01,29000.0
SD7,2007-08-02,27700.0
SD7,2007-08-03,27200.0
SD7,2007-08-06,27500.0
SD7,2007-08-07,27900.0
SD7,2007-08-08,27800.0
SD7,2007-08-09,27800.0
SD7,2007-08-10,27600.0
SD7,2007-08-13,27500.0
SD7,2007-08-14,27300.0
SD7,2007-08-15,27100.0
SD7,2007-08-16,27100.0
SD7,2007-08-17,25800.0
SD7,2007-08-20,27000.0
SD7,2007-08-21,25800.0
SD7,2007-08-22,25400.0
SD7,2007-08-23,24500.0
SD7,2007-08-24,25800.0
SD7,2007-08-27,25600.0
SD7,2007-08-28,25100.0
SD7,2007-08-29,25000.0
SD7,2007-08-30,25600.0
SD7,2007-08-31,26000.0
SD7,2007-09-04,27100.0
SD7,2007-09-05,26700.0
SD7,2007-09-06,26900.0
SD7,2007-09-07,26900.0
SD7,2007-09-10,29600.0
SD7,2007-09-11,32300.0
SD7,2007-09-12,33900.0
SD7,2007-09-13,31600.0
SD7,2007-09-14,30900.0
SD7,2007-09-17,33300.0
SD7,2007-09-18,33300.0
SD7,2007-09-19,34400.0
SD7,2007-09-20,34700.0
SD7,2007-09-21,34200.0
SD7,2007-09-24,35700.0
SD7,2007-09-25,36700.0
SD7,2007-09-26,36200.0
SD7,2007-09-27,38700.0
SD7,2007-09-28,41500.0
SD7,2007-10-01,45200.0
SD7,2007-10-02,49700.0
SD7,2007-10-03,54700.0
SD7,2007-10-04,59700.0
SD7,2007-10-05,65000.0
SD7,2007-10-08,62300.0
SD7,2007-10-09,58400.0
SD7,2007-10-10,63200.0
SD7,2007-10-11,67000.0
SD7,2007-10-12,73700.0
SD7,2007-10-15,79600.0
SD7,2007-10-16,87500.0
SD7,2007-10-17,93500.0
SD7,2007-10-18,91100.0
SD7,2007-10-19,100400.0
SD7,2007-10-22,106200.0
SD7,2007-10-23,116300.0
SD7,2007-10-24,127900.0
SD7,2007-10-25,140600.0
SD7,2007-10-26,154600.0
SD7,2007-10-29,158900.0
SD7,2007-10-30,158700.0
SD7,2007-10-31,143800.0
SD7,2007-11-01,159500.0
SD7,2007-11-02,155300.0
SD7,2007-11-05,150400.0
SD7,2007-11-06,147400.0
SD7,2007-11-07,145200.0
SD7,2007-11-08,135900.0
SD7,2007-11-09,124400.0
SD7,2007-11-12,112800.0
SD7,2007-11-13,102900.0
SD7,2007-11-14,113900.0
SD7,2007-11-15,113600.0
SD7,2007-11-16,109300.0
SD7,2007-11-19,107700.0
SD7,2007-11-20,107500.0
SD7,2007-11-21,103500.0
SD7,2007-11-22,104900.0
SD7,2007-11-23,102700.0
SD7,2007-11-26,104600.0
SD7,2007-11-27,106400.0
SD7,2007-11-28,107200.0
SD7,2007-11-29,109400.0
SD7,2007-11-30,105700.0
SD7,2007-12-03,107500.0
SD7,2007-12-04,115300.0
SD7,2007-12-05,116000.0
SD7,2007-12-06,113000.0
SD7,2007-12-07,114500.0
SD7,2007-12-10,110800.0
SD7,2007-12-11,106500.0
SD7,2007-12-12,108100.0
SD7,2007-12-13,107000.0
SD7,2007-12-14,106300.0
SD7,2007-12-17,102000.0
SD7,2007-12-18,103500.0
SD7,2007-12-19,107200.0
SD7,2007-12-20,104900.0
SD7,2007-12-21,105300.0
SD7,2007-12-24,104200.0
SD7,2007-12-25,102700.0
SD7,2007-12-26,103500.0
SD7,2007-12-27,103500.0
SD7,2007-12-28,102800.0
SD7,2008-01-02,101400.0
SD7,2008-01-03,99800.0
SD7,2008-01-04,94600.0
SD7,2008-01-07,89300.0
SD7,2008-01-08,88700.0
SD7,2008-01-09,88700.0
SD7,2008-01-10,85700.0
SD7,2008-01-11,85700.0
SD7,2008-01-14,79800.0
SD7,2008-01-15,73900.0
SD7,2008-01-16,81400.0
SD7,2008-01-17,84800.0
SD7,2008-01-18,85700.0
SD7,2008-01-21,84300.0
SD7,2008-01-22,79800.0
SD7,2008-01-23,76900.0
SD7,2008-01-24,71000.0
SD7,2008-01-25,76100.0
SD7,2008-01-28,78900.0
SD7,2008-01-29,85000.0
SD7,2008-01-30,90500.0
SD7,2008-01-31,99600.0
SD7,2008-02-01,105800.0
SD7,2008-02-12,105700.0
SD7,2008-02-13,103400.0
SD7,2008-02-14,103500.0
SD7,2008-02-15,99800.0
SD7,2008-02-18,95000.0
SD7,2008-02-19,93900.0
SD7,2008-02-20,85700.0
SD7,2008-02-21,79700.0
SD7,2008-02-22,80600.0
SD7,2008-02-25,86700.0
SD7,2008-02-26,79100.0
SD7,2008-02-27,79800.0
SD7,2008-02-28,81300.0
SD7,2008-02-29,81300.0
SD7,2008-03-03,73900.0
SD7,2008-03-04,67200.0
SD7,2008-03-05,65700.0
SD7,2008-03-06,67600.0
SD7,2008-03-07,74300.0
SD7,2008-03-10,78300.0
SD7,2008-03-11,71600.0
SD7,2008-03-12,75400.0
SD7,2008-03-13,77500.0
SD7,2008-03-14,75400.0
SD7,2008-03-17,68100.0
SD7,2008-03-18,61700.0
SD7,2008-03-19,60700.0
SD7,2008-03-20,57600.0
SD7,2008-03-21,54800.0
SD7,2008-03-24,50300.0
SD7,2008-03-25,45200.0
SD7,2008-03-26,42900.0
SD7,2008-03-27,44300.0
SD7,2008-03-28,45100.0
SD7,2008-03-31,46000.0
SD7,2008-04-01,46900.0
SD7,2008-04-02,47700.0
SD7,2008-04-03,48600.0
SD7,2008-04-04,49600.0
SD7,2008-04-07,51100.0
SD7,2008-04-08,52100.0
SD7,2008-04-09,49600.0
SD7,2008-04-10,48100.0
SD7,2008-04-11,48100.0
SD7,2008-04-16,46700.0
SD7,2008-04-17,45400.0
SD7,2008-04-18,44100.0
SD7,2008-04-21,42900.0
SD7,2008-04-22,41600.0
SD7,2008-04-23,40400.0
SD7,2008-04-24,39200.0
SD7,2008-04-25,38100.0
SD7,2008-04-28,37000.0
SD7,2008-04-29,35900.0
SD7,2008-05-05,34900.0
SD7,2008-05-06,33800.0
SD7,2008-05-07,32900.0
SD7,2008-05-08,32900.0
SD7,2008-05-09,31900.0
SD7,2008-05-12,31000.0
SD7,2008-05-13,30200.0
SD7,2008-05-14,29300.0
SD7,2008-05-15,28500.0
SD7,2008-05-16,27600.0
SD7,2008-05-19,26800.0
SD7,2008-05-20,26100.0
SD7,2008-05-21,25300.0
SD7,2008-05-22,24600.0
SD7,2008-05-23,23900.0
SD7,2008-05-26,23300.0
SD7,2008-05-27,23300.0
SD7,2008-05-28,22600.0
SD7,2008-05-29,22600.0
SD7,2008-05-30,22000.0
SD7,2008-06-02,21400.0
SD7,2008-06-03,20800.0
SD7,2008-06-04,20800.0
SD7,2008-06-05,20200.0
SD7,2008-06-06,19600.0
SD7,2008-06-09,19100.0
SD7,2008-06-10,18600.0
SD7,2008-06-11,18000.0
SD7,2008-06-12,17500.0
SD7,2008-06-13,17000.0
SD7,2008-06-16,17400.0
SD7,2008-06-17,17200.0
SD7,2008-06-18,16800.0
SD7,2008-06-19,16900.0
SD7,2008-06-20,16200.0
SD7,2008-06-23,15600.0
SD7,2008-06-24,15000.0
SD7,2008-06-25,14500.0
SD7,2008-06-26,14600.0
SD7,2008-06-27,14600.0
SD7,2008-06-30,14900.0
SD7,2008-07-01,15100.0
SD7,2008-07-02,15700.0
SD7,2008-07-03,16200.0
SD7,2008-07-04,16800.0
SD7,2008-07-07,17000.0
SD7,2008-07-08,17100.0
SD7,2008-07-09,17700.0
SD7,2008-07-10,18400.0
SD7,2008-07-11,19100.0
SD7,2008-07-14,19800.0
SD7,2008-07-15,20500.0
SD7,2008-07-16,21400.0
SD7,2008-07-17,22000.0
SD7,2008-07-18,22200.0
SD7,2008-07-21,21600.0
SD7,2008-07-22,20800.0
SD7,2008-07-23,20000.0
SD7,2008-07-24,19200.0
SD7,2008-07-25,18800.0
SD7,2008-07-28,19100.0
SD7,2008-07-29,19400.0
SD7,2008-07-30,19300.0
SD7,2008-07-31,19600.0
SD7,2008-08-01,18500.0
SD7,2008-08-04,17900.0
SD7,2008-08-05,17200.0
SD7,2008-08-06,17200.0
SD7,2008-08-07,17200.0
SD7,2008-08-08,18000.0
SD7,2008-08-11,18400.0
SD7,2008-08-12,19100.0
SD7,2008-08-13,19800.0
SD7,2008-08-14,20300.0
SD7,2008-08-15,21100.0
SD7,2008-08-18,22500.0
SD7,2008-08-19,24100.0
SD7,2008-08-20,25400.0
SD7,2008-08-21,26900.0
SD7,2008-08-22,28700.0
SD7,2008-08-25,30600.0
SD7,2008-08-26,32700.0
SD7,2008-08-27,34900.0
SD7,2008-08-28,37300.0
SD7,2008-08-29,39600.0
SD7,2008-09-03,42100.0
SD7,2008-09-04,45000.0
SD7,2008-09-05,42200.0
SD7,2008-09-08,40700.0
SD7,2008-09-09,37900.0
SD7,2008-09-10,36300.0
SD7,2008-09-11,34600.0
SD7,2008-09-12,32300.0
SD7,2008-09-15,31400.0
SD7,2008-09-16,28700.0
SD7,2008-09-17,27000.0
SD7,2008-09-18,25200.0
SD7,2008-09-19,26900.0
SD7,2008-09-22,26900.0
SD7,2008-09-23,26300.0
SD7,2008-09-24,25600.0
SD7,2008-09-25,27700.0
SD7,2008-09-26,28700.0
SD7,2008-09-29,29300.0
SD7,2008-09-30,27100.0
SD7,2008-10-01,27100.0
SD7,2008-10-02,28400.0
SD7,2008-10-03,27500.0
SD7,2008-10-06,25600.0
SD7,2008-10-07,23900.0
SD7,2008-10-08,22300.0
SD7,2008-10-09,21200.0
SD7,2008-10-10,19900.0
SD7,2008-10-13,19400.0
SD7,2008-10-14,20600.0
SD7,2008-10-15,22000.0
SD7,2008-10-16,20500.0
SD7,2008-10-17,21500.0
SD7,2008-10-20,20900.0
SD7,2008-10-21,21900.0
SD7,2008-10-22,21000.0
SD7,2008-10-23,19600.0
SD7,2008-10-24,18400.0
SD7,2008-10-27,17200.0
SD7,2008-10-28,17700.0
SD7,2008-10-29,17600.0
SD7,2008-10-30,18800.0
SD7,2008-10-31,19800.0
SD7,2008-11-03,21200.0
SD7,2008-11-04,22000.0
SD7,2008-11-05,23500.0
SD7,2008-11-06,25100.0
SD7,2008-11-07,24600.0
SD7,2008-11-10,26100.0
SD7,2008-11-11,24300.0
SD7,2008-11-12,23400.0
SD7,2008-11-13,23600.0
SD7,2008-11-14,24400.0
SD7,2008-11-17,23000.0
SD7,2008-11-18,22500.0
SD7,2008-11-19,21700.0
SD7,2008-11-20,20400.0
SD7,2008-11-21,20100.0
SD7,2008-11-24,20000.0
SD7,2008-11-25,20900.0
SD7,2008-11-26,19800.0
SD7,2008-11-27,19400.0
SD7,2008-11-28,20800.0
SD7,2008-12-01,21500.0
SD7,2008-12-02,20500.0
SD7,2008-12-03,20800.0
SD7,2008-12-04,21200.0
SD7,2008-12-05,20100.0
SD7,2008-12-08,18900.0
SD7,2008-12-09,19500.0
SD7,2008-12-10,18400.0
SD7,2008-12-11,19400.0
SD7,2008-12-12,20600.0
SD7,2008-12-15,21900.0
SD7,2008-12-16,20500.0
SD7,2008-12-17,21500.0
SD7,2008-12-18,21600.0
SD7,2008-12-19,22100.0
SD7,2008-12-22,22900.0
SD7,2008-12-23,21400.0
SD7,2008-12-24,21200.0
SD7,2008-12-25,20500.0
SD7,2008-12-26,21000.0
SD7,2008-12-29,20700.0
SD7,2008-12-30,20900.0
SD7,2008-12-31,20800.0
SD7,2009-01-02,20800.0
SD7,2009-01-05,20800.0
SD7,2009-01-06,21900.0
SD7,2009-01-07,22800.0
SD7,2009-01-08,21700.0
SD7,2009-01-09,22000.0
SD7,2009-01-12,21800.0
SD7,2009-01-13,21500.0
SD7,2009-01-14,21700.0
SD7,2009-01-15,21500.0
SD7,2009-01-16,21500.0
SD7,2009-01-19,21200.0
SD7,2009-01-20,21200.0
SD7,2009-01-21,20800.0
SD7,2009-01-22,21200.0
SD7,2009-01-23,20700.0
SD7,2009-02-02,20400.0
SD7,2009-02-03,19300.0
SD7,2009-02-04,19400.0
SD7,2009-02-05,18100.0
SD7,2009-02-06,19000.0
SD7,2009-02-09,19700.0
SD7,2009-02-10,19000.0
SD7,2009-02-11,18600.0
SD7,2009-02-12,18800.0
SD7,2009-02-13,18700.0
SD7,2009-02-16,18500.0
SD7,2009-02-17,17800.0
SD7,2009-02-18,17000.0
SD7,2009-02-19,17200.0
SD7,2009-02-20,17100.0
SD7,2009-02-23,16000.0
SD7,2009-02-24,15200.0
SD7,2009-02-25,16200.0
SD7,2009-02-26,16600.0
SD7,2009-02-27,16700.0
SD7,2009-03-02,16600.0
SD7,2009-03-03,16100.0
SD7,2009-03-04,16500.0
SD7,2009-03-05,17200.0
SD7,2009-03-06,17000.0
SD7,2009-03-09,17100.0
SD7,2009-03-10,18200.0
SD7,2009-03-11,18800.0
SD7,2009-03-12,17700.0
SD7,2009-03-13,18100.0
SD7,2009-03-16,18600.0
SD7,2009-03-17,19800.0
SD7,2009-03-18,21000.0
SD7,2009-03-19,20900.0
SD7,2009-03-20,20500.0
SD7,2009-03-23,19400.0
SD7,2009-03-24,20900.0
SD7,2009-03-25,21100.0
SD7,2009-03-26,21200.0
SD7,2009-03-27,20500.0
SD7,2009-03-30,20000.0
SD7,2009-03-31,20400.0
SD7,2009-04-01,20800.0
SD7,2009-04-02,21500.0
SD7,2009-04-03,23000.0
SD7,2009-04-07,24500.0
SD7,2009-04-08,22800.0
SD7,2009-04-09,23100.0
SD7,2009-04-10,24600.0
SD7,2009-04-13,26300.0
SD7,2009-04-14,26900.0
SD7,2009-04-15,25000.0
SD7,2009-04-16,23900.0
SD7,2009-04-17,22700.0
SD7,2009-04-20,21400.0
SD7,2009-04-21,20500.0
SD7,2009-04-22,21400.0
SD7,2009-04-23,20900.0
SD7,2009-04-24,20100.0
SD7,2009-04-27,20100.0
SD7,2009-04-28,21600.0
SD7,2009-04-29,21700.0
SD7,2009-05-04,23100.0
SD7,2009-05-05,24600.0
SD7,2009-05-06,23200.0
SD7,2009-05-07,24900.0
SD7,2009-05-08,24700.0
SD7,2009-05-11,23700.0
SD7,2009-05-12,24400.0
SD7,2009-05-13,24700.0
SD7,2009-05-14,25400.0
SD7,2009-05-15,26500.0
SD7,2009-05-18,26700.0
SD7,2009-05-19,26900.0
SD7,2009-05-20,26300.0
SD7,2009-05-21,28000.0
SD7,2009-05-22,29300.0
SD7,2009-05-25,31200.0
SD7,2009-05-26,31000.0
SD7,2009-05-27,29800.0
SD7,2009-05-28,27800.0
SD7,2009-05-29,27700.0
SD7,2009-06-01,28400.0
SD7,2009-06-02,29100.0
SD7,2009-06-03,28500.0
SD7,2009-06-04,30300.0
SD7,2009-06-05,31600.0
SD7,2009-06-08,33800.0
SD7,2009-06-09,31600.0
SD7,2009-06-10,30300.0
SD7,2009-06-11,32500.0
SD7,2009-06-12,31600.0
SD7,2009-06-15,30100.0
SD7,2009-06-16,28100.0
SD7,2009-06-17,28500.0
SD7,2009-06-18,29200.0
SD7,2009-06-19,28900.0
SD7,2009-06-22,27100.0
SD7,2009-06-23,25300.0
SD7,2009-06-24,27100.0
SD7,2009-06-25,26000.0
SD7,2009-06-26,26100.0
SD7,2009-06-29,25800.0
SD7,2009-06-30,25200.0
SD7,2009-07-01,24200.0
SD7,2009-07-02,25200.0
SD7,2009-07-03,24800.0
SD7,2009-07-06,26100.0
SD7,2009-07-07,25900.0
SD7,2009-07-08,26100.0
SD7,2009-07-09,27300.0
SD7,2009-07-10,26800.0
SD7,2009-07-13,26200.0
SD7,2009-07-14,25100.0
SD7,2009-07-15,25500.0
SD7,2009-07-16,26200.0
SD7,2009-07-17,25500.0
SD7,2009-07-20,24400.0
SD7,2009-07-21,24400.0
SD7,2009-07-22,24600.0
SD7,2009-07-23,26400.0
SD7,2009-07-24,27900.0
SD7,2009-07-27,28800.0
SD7,2009-07-28,26800.0
SD7,2009-07-29,26800.0
SD7,2009-07-30,26800.0
SD7,2009-07-31,27700.0
SD7,2009-08-03,27200.0
SD7,2009-08-04,27500.0
SD7,2009-08-05,27300.0
SD7,2009-08-06,27400.0
SD7,2009-08-07,27500.0
SD7,2009-08-10,29300.0
SD7,2009-08-11,31000.0
SD7,2009-08-12,31400.0
SD7,2009-08-13,29800.0
SD7,2009-08-14,29600.0
SD7,2009-08-17,28900.0
SD7,2009-08-18,29400.0
SD7,2009-08-19,30100.0
SD7,2009-08-20,30500.0
SD7,2009-08-21,31700.0
SD7,2009-08-24,34200.0
SD7,2009-08-25,32900.0
SD7,2009-08-26,33300.0
SD7,2009-08-27,33800.0
SD7,2009-08-28,34600.0
SD7,2009-08-31,36800.0
SD7,2009-09-01,35800.0
SD7,2009-09-03,34000.0
SD7,2009-09-04,33000.0
SD7,2009-09-07,32900.0
SD7,2009-09-08,33800.0
SD7,2009-09-09,33100.0
SD7,2009-09-10,34500.0
SD7,2009-09-11,35100.0
SD7,2009-09-14,37500.0
SD7,2009-09-15,38400.0
SD7,2009-09-16,36600.0
SD7,2009-09-17,35800.0
SD7,2009-09-18,37300.0
SD7,2009-09-21,39400.0
SD7,2009-09-22,41900.0
SD7,2009-09-23,41700.0
SD7,2009-09-24,42200.0
SD7,2009-09-25,43100.0
SD7,2009-09-28,42900.0
SD7,2009-09-29,45700.0
SD7,2009-09-30,47900.0
SD7,2009-10-01,44500.0
SD7,2009-10-02,43900.0
SD7,2009-10-05,42700.0
SD7,2009-10-06,44700.0
SD7,2009-10-07,46700.0
SD7,2009-10-08,48400.0
SD7,2009-10-09,50500.0
SD7,2009-10-12,53900.0
SD7,2009-10-13,57700.0
SD7,2009-10-14,60500.0
SD7,2009-10-15,56900.0
SD7,2009-10-16,57300.0
SD7,2009-10-19,59400.0
SD7,2009-10-20,62200.0
SD7,2009-10-21,59400.0
SD7,2009-10-22,57300.0
SD7,2009-10-23,54100.0
SD7,2009-10-26,52900.0
SD7,2009-10-27,49600.0
SD7,2009-10-28,51600.0
SD7,2009-10-29,49600.0
SD7,2009-10-30,51700.0
SD7,2009-11-02,47500.0
SD7,2009-11-03,44300.0
SD7,2009-11-04,43300.0
SD7,2009-11-05,46500.0
SD7,2009-11-06,46800.0
SD7,2009-11-09,45000.0
SD7,2009-11-10,42700.0
SD7,2009-11-11,43400.0
SD7,2009-11-12,43900.0
SD7,2009-11-13,44700.0
SD7,2009-11-16,47300.0
SD7,2009-11-17,46800.0
SD7,2009-11-18,47200.0
SD7,2009-11-19,47100.0
SD7,2009-11-20,46500.0
SD7,2009-11-23,43400.0
SD7,2009-11-24,41900.0
SD7,2009-11-25,39400.0
SD7,2009-11-26,37100.0
SD7,2009-11-27,35000.0
SD7,2009-11-30,36600.0
SD7,2009-12-01,38900.0
SD7,2009-12-02,36400.0
SD7,2009-12-03,35800.0
SD7,2009-12-04,36800.0
SD7,2009-12-07,37300.0
SD7,2009-12-08,35100.0
SD7,2009-12-09,33100.0
SD7,2009-12-10,30900.0
SD7,2009-12-11,29300.0
SD7,2009-12-14,30800.0
SD7,2009-12-15,29300.0
SD7,2009-12-16,27700.0
SD7,2009-12-17,26800.0
SD7,2009-12-18,27900.0
SD7,2009-12-21,29600.0
SD7,2009-12-22,30700.0
SD7,2009-12-23,33300.0
SD7,2009-12-24,34600.0
SD7,2009-12-25,36100.0
SD7,2009-12-28,38600.0
SD7,2009-12-29,36700.0
SD7,2009-12-30,39700.0
SD7,2009-12-31,41200.0
SD7,2010-01-04,43900.0
SD7,2010-01-05,46400.0
SD7,2010-01-06,44600.0
SD7,2010-01-07,43100.0
SD7,2010-01-08,44700.0
SD7,2010-01-11,43600.0
SD7,2010-01-12,41100.0
SD7,2010-01-13,43900.0
SD7,2010-01-14,44400.0
SD7,2010-01-15,43500.0
SD7,2010-01-18,41300.0
SD7,2010-01-19,42100.0
SD7,2010-01-20,39400.0
SD7,2010-01-21,38100.0
SD7,2010-01-22,38500.0
SD7,2010-01-25,39000.0
SD7,2010-01-26,41400.0
SD7,2010-01-27,40300.0
SD7,2010-01-28,39300.0
SD7,2010-01-29,40000.0
SD7,2010-02-01,39500.0
SD7,2010-02-02,39600.0
SD7,2010-02-03,40100.0
SD7,2010-02-04,41300.0
SD7,2010-02-05,40300.0
SD7,2010-02-08,39900.0
SD7,2010-02-09,38400.0
SD7,2010-02-10,39900.0
SD7,2010-02-11,40300.0
SD7,2010-02-12,40600.0
SD7,2010-02-22,40300.0
SD7,2010-02-23,39100.0
SD7,2010-02-24,39600.0
SD7,2010-02-25,39400.0
SD7,2010-02-26,39400.0
SD7,2010-03-01,41500.0
SD7,2010-03-02,42300.0
SD7,2010-03-03,45300.0
SD7,2010-03-04,46200.0
SD7,2010-03-05,47400.0
SD7,2010-03-08,47400.0
SD7,2010-03-09,46400.0
SD7,2010-03-10,47000.0
SD7,2010-03-11,47700.0
SD7,2010-03-12,48000.0
SD7,2010-03-15,48000.0
SD7,2010-03-16,45500.0
SD7,2010-03-17,44200.0
SD7,2010-03-18,46300.0
SD7,2010-03-19,45100.0
SD7,2010-03-22,44600.0
SD7,2010-03-23,43800.0
SD7,2010-03-24,43900.0
SD7,2010-03-25,42500.0
SD7,2010-03-26,42900.0
SD7,2010-03-29,43400.0
SD7,2010-03-30,43200.0
SD7,2010-03-31,42100.0
SD7,2010-04-01,42700.0
SD7,2010-04-02,43200.0
SD7,2010-04-05,45200.0
SD7,2010-04-06,47200.0
SD7,2010-04-07,49100.0
SD7,2010-04-08,51700.0
SD7,2010-04-09,50000.0
SD7,2010-04-12,48200.0
SD7,2010-04-13,46800.0
SD7,2010-04-14,48000.0
SD7,2010-04-15,50800.0
SD7,2010-04-16,50000.0
SD7,2010-04-19,50800.0
SD7,2010-04-20,49400.0
SD7,2010-04-21,52900.0
SD7,2010-04-22,50300.0
SD7,2010-04-26,48000.0
SD7,2010-04-27,48800.0
SD7,2010-04-28,48100.0
SD7,2010-04-29,49500.0
SD7,2010-05-04,49900.0
SD7,2010-05-05,48800.0
SD7,2010-05-06,49500.0
SD7,2010-05-07,47000.0
SD7,2010-05-10,46300.0
SD7,2010-05-11,46000.0
SD7,2010-05-12,43500.0
SD7,2010-05-13,45100.0
SD7,2010-05-14,44900.0
SD7,2010-05-17,43900.0
SD7,2010-05-18,43600.0
SD7,2010-05-19,41500.0
SD7,2010-05-20,41700.0
SD7,2010-05-21,38200.0
SD7,2010-05-24,39900.0
SD7,2010-05-25,39000.0
SD7,2010-05-26,42100.0
SD7,2010-05-27,42100.0
SD7,2010-05-28,44500.0
SD7,2010-05-31,43700.0
SD7,2010-06-01,44000.0
SD7,2010-06-02,43900.0
SD7,2010-06-03,44500.0
SD7,2010-06-04,46200.0
SD7,2010-06-07,43200.0
SD7,2010-06-08,44200.0
SD7,2010-06-09,43900.0
SD7,2010-06-10,44000.0
SD7,2010-06-11,43800.0
SD7,2010-06-14,45500.0
SD7,2010-06-15,44800.0
SD7,2010-06-16,45300.0
SD7,2010-06-17,44700.0
SD7,2010-06-18,44300.0
SD7,2010-06-21,44800.0
SD7,2010-06-22,44700.0
SD7,2010-06-23,44100.0
SD7,2010-06-24,44300.0
SD7,2010-06-25,42900.0
SD7,2010-06-28,43400.0
SD7,2010-06-29,43600.0
SD7,2010-06-30,42500.0
SD7,2010-07-01,42300.0
SD7,2010-07-02,42600.0
SD7,2010-07-05,43400.0
SD7,2010-07-06,42300.0
SD7,2010-07-07,42300.0
SD7,2010-07-08,42300.0
SD7,2010-07-09,41900.0
SD7,2010-07-12,42800.0
SD7,2010-07-13,43800.0
SD7,2010-07-14,43900.0
SD7,2010-07-15,43000.0
SD7,2010-07-16,43700.0
SD7,2010-07-19,45300.0
SD7,2010-07-20,44100.0
SD7,2010-07-21,44800.0
SD7,2010-07-22,44300.0
SD7,2010-07-23,43600.0
SD7,2010-07-26,43600.0
SD7,2010-07-27,43200.0
SD7,2010-07-28,41900.0
SD7,2010-07-29,41500.0
SD7,2010-07-30,41500.0
SD7,2010-08-02,40800.0
SD7,2010-08-03,40700.0
SD7,2010-08-04,39700.0
SD7,2010-08-05,39900.0
SD7,2010-08-06,39400.0
SD7,2010-08-09,38200.0
SD7,2010-08-10,36800.0
SD7,2010-08-11,37500.0
SD7,2010-08-12,34900.0
SD7,2010-08-13,35900.0
SD7,2010-08-16,38000.0
SD7,2010-08-17,36900.0
SD7,2010-08-18,36000.0
SD7,2010-08-19,35600.0
SD7,2010-08-20,35800.0
SD7,2010-08-23,34900.0
SD7,2010-08-24,33300.0
SD7,2010-08-25,31500.0
SD7,2010-08-26,30700.0
SD7,2010-08-27,30900.0
SD7,2010-08-30,34000.0
SD7,2010-08-31,34000.0
SD7,2010-09-01,34600.0
SD7,2010-09-06,36400.0
SD7,2010-09-07,35000.0
SD7,2010-09-08,34000.0
SD7,2010-09-09,35000.0
SD7,2010-09-10,32900.0
SD7,2010-09-13,31700.0
SD7,2010-09-14,33000.0
SD7,2010-09-15,31600.0
SD7,2010-09-16,31800.0
SD7,2010-09-17,33500.0
SD7,2010-09-20,32900.0
SD7,2010-09-21,33000.0
SD7,2010-09-22,32300.0
SD7,2010-09-23,31500.0
SD7,2010-09-24,31700.0
SD7,2010-09-27,32200.0
SD7,2010-09-28,32800.0
SD7,2010-09-29,32600.0
SD7,2010-09-30,32900.0
SD7,2010-10-01,32300.0
SD7,2010-10-04,31300.0
SD7,2010-10-05,31800.0
SD7,2010-10-06,32500.0
SD7,2010-10-07,31900.0
SD7,2010-10-08,30700.0
SD7,2010-10-11,30900.0
SD7,2010-10-12,30600.0
SD7,2010-10-13,30600.0
SD7,2010-10-14,30700.0
SD7,2010-10-15,30300.0
SD7,2010-10-18,30400.0
SD7,2010-10-19,29100.0
SD7,2010-10-20,27500.0
SD7,2010-10-21,27300.0
SD7,2010-10-22,27000.0
SD7,2010-10-25,25900.0
SD7,2010-10-26,27600.0
SD7,2010-10-27,27400.0
SD7,2010-10-28,26000.0
SD7,2010-10-29,26700.0
SD7,2010-11-01,26200.0
SD7,2010-11-02,25100.0
SD7,2010-11-03,25000.0
SD7,2010-11-04,25700.0
SD7,2010-11-05,26000.0
SD7,2010-11-08,25000.0
SD7,2010-11-09,24000.0
SD7,2010-11-10,25400.0
SD7,2010-11-11,24000.0
SD7,2010-11-12,22800.0
SD7,2010-11-15,21000.0
SD7,2010-11-16,21100.0
SD7,2010-11-17,21300.0
SD7,2010-11-18,22300.0
SD7,2010-11-19,20800.0
SD7,2010-11-22,21700.0
SD7,2010-11-23,22100.0
SD7,2010-11-24,22400.0
SD7,2010-11-25,23900.0
SD7,2010-11-26,25200.0
SD7,2010-11-29,26800.0
SD7,2010-11-30,27700.0
SD7,2010-12-01,26800.0
SD7,2010-12-02,28800.0
SD7,2010-12-03,29800.0
SD7,2010-12-06,31500.0
SD7,2010-12-07,29600.0
SD7,2010-12-08,28500.0
SD7,2010-12-09,28800.0
SD7,2010-12-10,29600.0
SD7,2010-12-13,31500.0
SD7,2010-12-14,31200.0
SD7,2010-12-15,31500.0
SD7,2010-12-16,29600.0
SD7,2010-12-17,31100.0
SD7,2010-12-20,30500.0
SD7,2010-12-21,29600.0
SD7,2010-12-22,29000.0
SD7,2010-12-23,28300.0
SD7,2010-12-24,28500.0
SD7,2010-12-27,28600.0
SD7,2010-12-28,30400.0
SD7,2010-12-29,29400.0
SD7,2010-12-30,29000.0
SD7,2010-12-31,29000.0
SD7,2011-01-04,29100.0
SD7,2011-01-05,28600.0
SD7,2011-01-06,28800.0
SD7,2011-01-07,28800.0
SD7,2011-01-10,27500.0
SD7,2011-01-11,27000.0
SD7,2011-01-12,27700.0
SD7,2011-01-13,27700.0
SD7,2011-01-14,27700.0
SD7,2011-01-17,28700.0
SD7,2011-01-18,28100.0
SD7,2011-01-19,28100.0
SD7,2011-01-20,28100.0
SD7,2011-01-21,28500.0
SD7,2011-01-24,27600.0
SD7,2011-01-25,27700.0
SD7,2011-01-26,28100.0
SD7,2011-01-27,28900.0
SD7,2011-01-28,28100.0
SD7,2011-02-08,27800.0
SD7,2011-02-09,27900.0
SD7,2011-02-10,27700.0
SD7,2011-02-11,27900.0
SD7,2011-02-14,27800.0
SD7,2011-02-15,27300.0
SD7,2011-02-16,26400.0
SD7,2011-02-17,25300.0
SD7,2011-02-18,23900.0
SD7,2011-02-21,22700.0
SD7,2011-02-22,22200.0
SD7,2011-02-23,22600.0
SD7,2011-02-24,22100.0
SD7,2011-02-25,23000.0
SD7,2011-02-28,22600.0
SD7,2011-03-01,22200.0
SD7,2011-03-02,21300.0
SD7,2011-03-03,20500.0
SD7,2011-03-04,20600.0
SD7,2011-03-07,20700.0
SD7,2011-03-08,20700.0
SD7,2011-03-09,20400.0
SD7,2011-03-10,21800.0
SD7,2011-03-11,23200.0
SD7,2011-03-14,21600.0
SD7,2011-03-15,21800.0
SD7,2011-03-16,22100.0
SD7,2011-03-17,21700.0
SD7,2011-03-18,23000.0
SD7,2011-03-21,22300.0
SD7,2011-03-22,21500.0
SD7,2011-03-23,21700.0
SD7,2011-03-24,21600.0
SD7,2011-03-25,21100.0
SD7,2011-03-28,21400.0
SD7,2011-03-29,21000.0
SD7,2011-03-30,20900.0
SD7,2011-03-31,20800.0
SD7,2011-04-01,20600.0
SD7,2011-04-04,19900.0
SD7,2011-04-05,20200.0
SD7,2011-04-06,20700.0
SD7,2011-04-07,20100.0
SD7,2011-04-08,20300.0
SD7,2011-04-13,19800.0
SD7,2011-04-14,19500.0
SD7,2011-04-15,18800.0
SD7,2011-04-18,18000.0
SD7,2011-04-19,18100.0
SD7,2011-04-20,17500.0
SD7,2011-04-21,17300.0
SD7,2011-04-22,17000.0
SD7,2011-04-25,18100.0
SD7,2011-04-26,17000.0
SD7,2011-04-27,17000.0
SD7,2011-04-28,16600.0
SD7,2011-04-29,17000.0
SD7,2011-05-04,16600.0
SD7,2011-05-05,16300.0
SD7,2011-05-06,16400.0
SD7,2011-05-09,16800.0
SD7,2011-05-10,16900.0
SD7,2011-05-11,16400.0
SD7,2011-05-12,16400.0
SD7,2011-05-13,16000.0
SD7,2011-05-16,15000.0
SD7,2011-05-17,14600.0
SD7,2011-05-18,14100.0
SD7,2011-05-19,13600.0
SD7,2011-05-20,13100.0
SD7,2011-05-23,12400.0
SD7,2011-05-24,11600.0
SD7,2011-05-25,10900.0
SD7,2011-05-26,11200.0
SD7,2011-05-27,11200.0
SD7,2011-05-30,11100.0
SD7,2011-05-31,11000.0
SD7,2011-06-01,11500.0
SD7,2011-06-02,12200.0
SD7,2011-06-03,12700.0
SD7,2011-06-06,12500.0
SD7,2011-06-07,13100.0
SD7,2011-06-08,13100.0
SD7,2011-06-09,13900.0
SD7,2011-06-10,14200.0
SD7,2011-06-13,15200.0
SD7,2011-06-14,14700.0
SD7,2011-06-15,14100.0
SD7,2011-06-16,14100.0
SD7,2011-06-17,12900.0
SD7,2011-06-20,12500.0
SD7,2011-06-21,13500.0
SD7,2011-06-22,13500.0
SD7,2011-06-23,13300.0
SD7,2011-06-24,13500.0
SD7,2011-06-27,13400.0
SD7,2011-06-28,13000.0
SD7,2011-06-29,13000.0
SD7,2011-06-30,12700.0
SD7,2011-07-01,12000.0
SD7,2011-07-04,12100.0
SD7,2011-07-05,12900.0
SD7,2011-07-06,12600.0
SD7,2011-07-07,12500.0
SD7,2011-07-08,12900.0
SD7,2011-07-11,12700.0
SD7,2011-07-12,12700.0
SD7,2011-07-13,12800.0
SD7,2011-07-14,12600.0
SD7,2011-07-15,12600.0
SD7,2011-07-18,12800.0
SD7,2011-07-19,12400.0
SD7,2011-07-20,13000.0
SD7,2011-07-21,12600.0
SD7,2011-07-22,12500.0
SD7,2011-07-25,12400.0
SD7,2011-07-26,12800.0
SD7,2011-07-27,12400.0
SD7,2011-07-28,12500.0
SD7,2011-07-29,12400.0
SD7,2011-08-01,12400.0
SD7,2011-08-02,11900.0
SD7,2011-08-03,11800.0
SD7,2011-08-04,12600.0
SD7,2011-08-05,12400.0
SD7,2011-08-08,12000.0
SD7,2011-08-09,11400.0
SD7,2011-08-10,11900.0
SD7,2011-08-11,11700.0
SD7,2011-08-12,11400.0
SD7,2011-08-15,11200.0
SD7,2011-08-16,11400.0
SD7,2011-08-17,12100.0
SD7,2011-08-18,11900.0
SD7,2011-08-19,11900.0
SD7,2011-08-22,12600.0
SD7,2011-08-23,12400.0
SD7,2011-08-24,12200.0
SD7,2011-08-25,12400.0
SD7,2011-08-26,11900.0
SD7,2011-08-29,12900.0
SD7,2011-08-30,12900.0
SD7,2011-08-31,12900.0
SD7,2011-09-01,13900.0
SD7,2011-09-05,14100.0
SD7,2011-09-06,13500.0
SD7,2011-09-07,14600.0
SD7,2011-09-08,14500.0
SD7,2011-09-09,14100.0
SD7,2011-09-12,15200.0
SD7,2011-09-13,16000.0
SD7,2011-09-14,14800.0
SD7,2011-09-15,14400.0
SD7,2011-09-16,13500.0
SD7,2011-09-19,13800.0
SD7,2011-09-20,13300.0
SD7,2011-09-21,13300.0
SD7,2011-09-22,13800.0
SD7,2011-09-23,13400.0
SD7,2011-09-26,13300.0
SD7,2011-09-27,13300.0
SD7,2011-09-28,13200.0
SD7,2011-09-29,12800.0
SD7,2011-09-30,12400.0
SD7,2011-10-03,12200.0
SD7,2011-10-04,12200.0
SD7,2011-10-05,12100.0
SD7,2011-10-06,12900.0
SD7,2011-10-07,12400.0
SD7,2011-10-10,12300.0
SD7,2011-10-11,12300.0
SD7,2011-10-12,11900.0
SD7,2011-10-13,11900.0
SD7,2011-10-14,11900.0
SD7,2011-10-17,11800.0
SD7,2011-10-18,11800.0
SD7,2011-10-19,11800.0
SD7,2011-10-20,12100.0
SD7,2011-10-21,12500.0
SD7,2011-10-24,12100.0
SD7,2011-10-25,11800.0
SD7,2011-10-26,11800.0
SD7,2011-10-27,11800.0
SD7,2011-10-28,12400.0
SD7,2011-10-31,12200.0
SD7,2011-11-01,11800.0
SD7,2011-11-02,11800.0
SD7,2011-11-03,11600.0
SD7,2011-11-04,11500.0
SD7,2011-11-07,11200.0
SD7,2011-11-08,10800.0
SD7,2011-11-09,10800.0
SD7,2011-11-10,10500.0
SD7,2011-11-11,10600.0
SD7,2011-11-14,10100.0
SD7,2011-11-15,10100.0
SD7,2011-11-16,10600.0
SD7,2011-11-17,10200.0
SD7,2011-11-18,10000.0
SD7,2011-11-21,10100.0
SD7,2011-11-22,9600.0
SD7,2011-11-23,9800.0
SD7,2011-11-24,9600.0
SD7,2011-11-25,9600.0
SD7,2011-11-28,10100.0
SD7,2011-11-29,10100.0
SD7,2011-11-30,9800.0
SD7,2011-12-01,9600.0
SD7,2011-12-02,10000.0
SD7,2011-12-05,10500.0
SD7,2011-12-06,10300.0
SD7,2011-12-07,10200.0
SD7,2011-12-08,10000.0
SD7,2011-12-09,9700.0
SD7,2011-12-12,9500.0
SD7,2011-12-13,9500.0
SD7,2011-12-14,9000.0
SD7,2011-12-15,8600.0
SD7,2011-12-16,8900.0
SD7,2011-12-19,8800.0
SD7,2011-12-20,8300.0
SD7,2011-12-21,8700.0
SD7,2011-12-22,8100.0
SD7,2011-12-23,7800.0
SD7,2011-12-26,7200.0
SD7,2011-12-27,7000.0
SD7,2011-12-28,7200.0
SD7,2011-12-29,7000.0
SD7,2011-12-30,7100.0
SD7,2012-01-03,7200.0
SD7,2012-01-04,7100.0
SD7,2012-01-05,7000.0
SD7,2012-01-06,7100.0
SD7,2012-01-09,7200.0
SD7,2012-01-10,7500.0
SD7,2012-01-11,7300.0
SD7,2012-01-12,7100.0
SD7,2012-01-13,7200.0
SD7,2012-01-16,7700.0
SD7,2012-01-17,7200.0
SD7,2012-01-18,7200.0
SD7,2012-01-19,7700.0
SD7,2012-01-20,7300.0
SD7,2012-01-30,7900.0
SD7,2012-01-31,8100.0
SD7,2012-02-01,8000.0
SD7,2012-02-02,8500.0
SD7,2012-02-03,8500.0
SD7,2012-02-06,8000.0
SD7,2012-02-07,7600.0
SD7,2012-02-08,7900.0
SD7,2012-02-09,7800.0
SD7,2012-02-10,7500.0
SD7,2012-02-13,8100.0
SD7,2012-02-14,8600.0
SD7,2012-02-15,8300.0
SD7,2012-02-16,8600.0
SD7,2012-02-17,8800.0
SD7,2012-02-20,9400.0
SD7,2012-02-21,9400.0
SD7,2012-02-22,9800.0
SD7,2012-02-23,10000.0
SD7,2012-02-24,10000.0
SD7,2012-02-27,10600.0
SD7,2012-02-28,9900.0
SD7,2012-02-29,9800.0
SD7,2012-03-01,10100.0
SD7,2012-03-02,10400.0
SD7,2012-03-05,10900.0
SD7,2012-03-06,11000.0
SD7,2012-03-07,10900.0
SD7,2012-03-08,10300.0
SD7,2012-03-09,10600.0
SD7,2012-03-12,10100.0
SD7,2012-03-13,10100.0
SD7,2012-03-14,9700.0
SD7,2012-03-15,10400.0
SD7,2012-03-16,10700.0
SD7,2012-03-19,10300.0
SD7,2012-03-20,10600.0
SD7,2012-03-21,11000.0
SD7,2012-03-22,11000.0
SD7,2012-03-23,11500.0
SD7,2012-03-26,12100.0
SD7,2012-03-27,11400.0
SD7,2012-03-28,11500.0
SD7,2012-03-29,10700.0
SD7,2012-03-30,10600.0
SD7,2012-04-03,10600.0
SD7,2012-04-04,10200.0
SD7,2012-04-05,10400.0
SD7,2012-04-06,10400.0
SD7,2012-04-09,10900.0
SD7,2012-04-10,10700.0
SD7,2012-04-11,11400.0
SD7,2012-04-12,12100.0
SD7,2012-04-13,11400.0
SD7,2012-04-16,12300.0
SD7,2012-04-17,12000.0
SD7,2012-04-18,11900.0
SD7,2012-04-19,11700.0
SD7,2012-04-20,11500.0
SD7,2012-04-23,11600.0
SD7,2012-04-24,12000.0
SD7,2012-04-25,12000.0
SD7,2012-04-26,11800.0
SD7,2012-04-27,12000.0
SD7,2012-05-02,12800.0
SD7,2012-05-03,12400.0
SD7,2012-05-04,12900.0
SD7,2012-05-07,13800.0
SD7,2012-05-08,13200.0
SD7,2012-05-09,13400.0
SD7,2012-05-10,13400.0
SD7,2012-05-11,12700.0
SD7,2012-05-14,11900.0
SD7,2012-05-15,11400.0
SD7,2012-05-16,11600.0
SD7,2012-05-17,11300.0
SD7,2012-05-18,10700.0
SD7,2012-05-21,11300.0
SD7,2012-05-22,11000.0
SD7,2012-05-23,10300.0
SD7,2012-05-24,10000.0
SD7,2012-05-25,10700.0
SD7,2012-05-28,11200.0
SD7,2012-05-29,10900.0
SD7,2012-05-30,11000.0
SD7,2012-05-31,10300.0
SD7,2012-06-01,10400.0
SD7,2012-06-04,10000.0
SD7,2012-06-05,10200.0
SD7,2012-06-06,10200.0
SD7,2012-06-07,10900.0
SD7,2012-06-08,11300.0
SD7,2012-06-11,11400.0
SD7,2012-06-12,11000.0
SD7,2012-06-13,11000.0
SD7,2012-06-14,11000.0
SD7,2012-06-15,11000.0
SD7,2012-06-18,11700.0
SD7,2012-06-19,12200.0
SD7,2012-06-20,12500.0
SD7,2012-06-21,12400.0
SD7,2012-06-22,11700.0
SD7,2012-06-25,11100.0
SD7,2012-06-26,10700.0
SD7,2012-06-27,10000.0
SD7,2012-06-28,10100.0
SD7,2012-06-29,9700.0
SD7,2012-07-02,9500.0
SD7,2012-07-03,9400.0
SD7,2012-07-04,9000.0
SD7,2012-07-05,9600.0
SD7,2012-07-06,9400.0
SD7,2012-07-09,8900.0
SD7,2012-07-10,9000.0
SD7,2012-07-11,9100.0
SD7,2012-07-12,9200.0
SD7,2012-07-13,9800.0
SD7,2012-07-16,9500.0
SD7,2012-07-17,9800.0
SD7,2012-07-18,9700.0
SD7,2012-07-19,10300.0
SD7,2012-07-20,9900.0
SD7,2012-07-23,9700.0
SD7,2012-07-24,9500.0
SD7,2012-07-25,9500.0
SD7,2012-07-26,9700.0
SD7,2012-07-27,9600.0
SD7,2012-07-30,9400.0
SD7,2012-07-31,9300.0
SD7,2012-08-01,9300.0
SD7,2012-08-02,9500.0
SD7,2012-08-03,9500.0
SD7,2012-08-06,9800.0
SD7,2012-08-07,9800.0
SD7,2012-08-08,9800.0
SD7,2012-08-09,9700.0
SD7,2012-08-10,9500.0
SD7,2012-08-13,9600.0
SD7,2012-08-14,9400.0
SD7,2012-08-15,9500.0
SD7,2012-08-16,9400.0
SD7,2012-08-17,9300.0
SD7,2012-08-20,9400.0
SD7,2012-08-21,8800.0
SD7,2012-08-22,8300.0
SD7,2012-08-23,7700.0
SD7,2012-08-24,7800.0
SD7,2012-08-27,7300.0
SD7,2012-08-28,7200.0
SD7,2012-08-29,7700.0
SD7,2012-08-30,8000.0
SD7,2012-08-31,7700.0
SD7,2012-09-04,7700.0
SD7,2012-09-05,7700.0
SD7,2012-09-06,7500.0
SD7,2012-09-07,7500.0
SD7,2012-09-10,7000.0
SD7,2012-09-11,7100.0
SD7,2012-09-12,6900.0
SD7,2012-09-13,7000.0
SD7,2012-09-14,7200.0
SD7,2012-09-17,7000.0
SD7,2012-09-18,7000.0
SD7,2012-09-19,6900.0
SD7,2012-09-20,6800.0
SD7,2012-09-21,6900.0
SD7,2012-09-24,6500.0
SD7,2012-09-25,6400.0
SD7,2012-09-26,6500.0
SD7,2012-09-27,6600.0
SD7,2012-09-28,6400.0
SD7,2012-10-01,6000.0
SD7,2012-10-02,6000.0
SD7,2012-10-03,6000.0
SD7,2012-10-04,6000.0
SD7,2012-10-05,5900.0
SD7,2012-10-08,6300.0
SD7,2012-10-09,6300.0
SD7,2012-10-10,6100.0
SD7,2012-10-11,6400.0
SD7,2012-10-12,6300.0
SD7,2012-10-15,6200.0
SD7,2012-10-16,6300.0
SD7,2012-10-17,6200.0
SD7,2012-10-18,6300.0
SD7,2012-10-19,6000.0
SD7,2012-10-22,5700.0
SD7,2012-10-23,5900.0
SD7,2012-10-24,6000.0
SD7,2012-10-25,5900.0
SD7,2012-10-26,5800.0
SD7,2012-10-29,5800.0
SD7,2012-10-30,5600.0
SD7,2012-10-31,5400.0
SD7,2012-11-01,5400.0
SD7,2012-11-02,5100.0
SD7,2012-11-05,5000.0
SD7,2012-11-06,4800.0
SD7,2012-11-07,5100.0
SD7,2012-11-08,5100.0
SD7,2012-11-09,5000.0
SD7,2012-11-12,5200.0
SD7,2012-11-13,5400.0
SD7,2012-11-14,5600.0
SD7,2012-11-15,5500.0
SD7,2012-11-16,5400.0
SD7,2012-11-19,5100.0
SD7,2012-11-20,5300.0
SD7,2012-11-21,5100.0
SD7,2012-11-22,5000.0
SD7,2012-11-23,5100.0
SD7,2012-11-26,5000.0
SD7,2012-11-27,5000.0
SD7,2012-11-28,4900.0
SD7,2012-11-29,5000.0
SD7,2012-11-30,5000.0
SD7,2012-12-03,5000.0
SD7,2012-12-04,5000.0
SD7,2012-12-05,5000.0
SD7,2012-12-06,5000.0
SD7,2012-12-07,5000.0
SD7,2012-12-10,5100.0
SD7,2012-12-11,4900.0
SD7,2012-12-12,5000.0
SD7,2012-12-13,5200.0
SD7,2012-12-14,5100.0
SD7,2012-12-17,5200.0
SD7,2012-12-18,5100.0
SD7,2012-12-19,5400.0
SD7,2012-12-20,5500.0
SD7,2012-12-21,5500.0
SD7,2012-12-24,5600.0
SD7,2012-12-25,5400.0
SD7,2012-12-26,5400.0
SD7,2012-12-27,5500.0
SD7,2012-12-28,5600.0
SD7,2013-01-02,5800.0
SD7,2013-01-03,6000.0
SD7,2013-01-04,6300.0
SD7,2013-01-07,6000.0
SD7,2013-01-08,6000.0
SD7,2013-01-09,5700.0
SD7,2013-01-10,5900.0
SD7,2013-01-11,5800.0
SD7,2013-01-14,5800.0
SD7,2013-01-15,6100.0
SD7,2013-01-16,6700.0
SD7,2013-01-17,7200.0
SD7,2013-01-18,7000.0
SD7,2013-01-21,6300.0
SD7,2013-01-22,5900.0
SD7,2013-01-23,5800.0
SD7,2013-01-24,6100.0
SD7,2013-01-25,5800.0
SD7,2013-01-28,6300.0
SD7,2013-01-29,6300.0
SD7,2013-01-30,6200.0
SD7,2013-01-31,6200.0
SD7,2013-02-01,6000.0
SD7,2013-02-04,6000.0
SD7,2013-02-05,6000.0
SD7,2013-02-06,6000.0
SD7,2013-02-07,6200.0
SD7,2013-02-08,6400.0
SD7,2013-02-18,6900.0
SD7,2013-02-19,6700.0
SD7,2013-02-20,6800.0
SD7,2013-02-21,6200.0
SD7,2013-02-22,6400.0
SD7,2013-02-25,6700.0
SD7,2013-02-26,6000.0
SD7,2013-02-27,6100.0
SD7,2013-02-28,6300.0
SD7,2013-03-01,6100.0
SD7,2013-03-04,5800.0
SD7,2013-03-05,5400.0
SD7,2013-03-06,5700.0
SD7,2013-03-07,5500.0
SD7,2013-03-08,5600.0
SD7,2013-03-11,5900.0
SD7,2013-03-12,6000.0
SD7,2013-03-13,5900.0
SD7,2013-03-14,5900.0
SD7,2013-03-15,6000.0
SD7,2013-03-18,5900.0
SD7,2013-03-19,5900.0
SD7,2013-03-20,6000.0
SD7,2013-03-21,6000.0
SD7,2013-03-22,5500.0
SD7,2013-03-25,5700.0
SD7,2013-03-26,5700.0
SD7,2013-03-27,5800.0
SD7,2013-03-28,5600.0
SD7,2013-03-29,5700.0
SD7,2013-04-01,5800.0
SD7,2013-04-02,5700.0
SD7,2013-04-03,5800.0
SD7,2013-04-04,5700.0
SD7,2013-04-05,5500.0
SD7,2013-04-08,5500.0
SD7,2013-04-09,5400.0
SD7,2013-04-10,5300.0
SD7,2013-04-11,5300.0
SD7,2013-04-12,5200.0
SD7,2013-04-15,4800.0
SD7,2013-04-16,4900.0
SD7,2013-04-17,5100.0
SD7,2013-04-18,4900.0
SD7,2013-04-22,5300.0
SD7,2013-04-23,5600.0
SD7,2013-04-24,5700.0
SD7,2013-04-25,5600.0
SD7,2013-04-26,5600.0
SD7,2013-05-02,5600.0
SD7,2013-05-03,5600.0
SD7,2013-05-06,5700.0
SD7,2013-05-07,5700.0
SD7,2013-05-08,5600.0
SD7,2013-05-09,5700.0
SD7,2013-05-10,5400.0
SD7,2013-05-13,5400.0
SD7,2013-05-14,5300.0
SD7,2013-05-15,5400.0
SD7,2013-05-16,5500.0
SD7,2013-05-17,5500.0
SD7,2013-05-20,5800.0
SD7,2013-05-21,6000.0
SD7,2013-05-22,6100.0
SD7,2013-05-23,6100.0
SD7,2013-05-24,6300.0
SD7,2013-05-27,6300.0
SD7,2013-05-28,6400.0
SD7,2013-05-29,6000.0
SD7,2013-05-30,6100.0
SD7,2013-05-31,6200.0
SD7,2013-06-03,6000.0
SD7,2013-06-04,6000.0
SD7,2013-06-05,6200.0
SD7,2013-06-06,6500.0
SD7,2013-06-07,7100.0
SD7,2013-06-10,7000.0
SD7,2013-06-11,6900.0
SD7,2013-06-12,6900.0
SD7,2013-06-13,7500.0
SD7,2013-06-14,7800.0
SD7,2013-06-17,7400.0
SD7,2013-06-18,7400.0
SD7,2013-06-19,6800.0
SD7,2013-06-20,6600.0
SD7,2013-06-21,7000.0
SD7,2013-06-24,7100.0
SD7,2013-06-25,6800.0
SD7,2013-06-26,6800.0
SD7,2013-06-27,6800.0
SD7,2013-06-28,6700.0
SD7,2013-07-01,6600.0
SD7,2013-07-02,6600.0
SD7,2013-07-03,6600.0
SD7,2013-07-04,6600.0
SD7,2013-07-05,6600.0
SD7,2013-07-08,6800.0
SD7,2013-07-09,6800.0
SD7,2013-07-10,6600.0
SD7,2013-07-11,6400.0
SD7,2013-07-12,6800.0
SD7,2013-07-15,6600.0
SD7,2013-07-16,6500.0
SD7,2013-07-17,6500.0
SD7,2013-07-18,6200.0
SD7,2013-07-19,6200.0
SD7,2013-07-22,6300.0
SD7,2013-07-23,6300.0
SD7,2013-07-24,6100.0
SD7,2013-07-25,6100.0
SD7,2013-07-26,5900.0
SD7,2013-07-29,5900.0
SD7,2013-07-30,6000.0
SD7,2013-07-31,6000.0
SD7,2013-08-01,5800.0
SD7,2013-08-02,5900.0
SD7,2013-08-05,6100.0
SD7,2013-08-06,6200.0
SD7,2013-08-07,6200.0
SD7,2013-08-08,6200.0
SD7,2013-08-09,6200.0
SD7,2013-08-12,6100.0
SD7,2013-08-13,6200.0
SD7,2013-08-14,6100.0
SD7,2013-08-15,6100.0
SD7,2013-08-16,6200.0
SD7,2013-08-19,6200.0
SD7,2013-08-20,6400.0
SD7,2013-08-21,6300.0
SD7,2013-08-22,6400.0
SD7,2013-08-23,6400.0
SD7,2013-08-26,6400.0
SD7,2013-08-27,6500.0
SD7,2013-08-28,6200.0
SD7,2013-08-29,6400.0
SD7,2013-08-30,6200.0
SD7,2013-09-03,6200.0
SD7,2013-09-04,6200.0
SD7,2013-09-05,6100.0
SD7,2013-09-06,6100.0
SD7,2013-09-09,6100.0
SD7,2013-09-10,6200.0
SD7,2013-09-11,6300.0
SD7,2013-09-12,5900.0
SD7,2013-09-13,6000.0
SD7,2013-09-16,6000.0
SD7,2013-09-17,6500.0
SD7,2013-09-18,6200.0
SD7,2013-09-19,6400.0
SD7,2013-09-20,6300.0
SD7,2013-09-23,6500.0
SD7,2013-09-24,6800.0
SD7,2013-09-25,6800.0
SD7,2013-09-26,6400.0
SD7,2013-09-27,6600.0
SD7,2013-09-30,6300.0
SD7,2013-10-01,6500.0
SD7,2013-10-02,6300.0
SD7,2013-10-03,6300.0
SD7,2013-10-04,6500.0
SD7,2013-10-07,6400.0
SD7,2013-10-08,6300.0
SD7,2013-10-09,6300.0
SD7,2013-10-10,6300.0
SD7,2013-10-11,6600.0
SD7,2013-10-14,6800.0
SD7,2013-10-15,7000.0
SD7,2013-10-16,7000.0
SD7,2013-10-17,7000.0
SD7,2013-10-18,7000.0
SD7,2013-10-21,7200.0
SD7,2013-10-22,7000.0
SD7,2013-10-23,7100.0
SD7,2013-10-24,7300.0
SD7,2013-10-25,7400.0
SD7,2013-10-28,7300.0
SD7,2013-10-29,7400.0
SD7,2013-10-30,7600.0
SD7,2013-10-31,7700.0
SD7,2013-11-01,8400.0
SD7,2013-11-04,9100.0
SD7,2013-11-05,8800.0
SD7,2013-11-06,8800.0
SD7,2013-11-07,8900.0
SD7,2013-11-08,9000.0
SD7,2013-11-11,9200.0
SD7,2013-11-12,9000.0
SD7,2013-11-13,9000.0
SD7,2013-11-14,9000.0
SD7,2013-11-15,9000.0
SD7,2013-11-18,9100.0
SD7,2013-11-19,9100.0
SD7,2013-11-20,9900.0
SD7,2013-11-21,9700.0
SD7,2013-11-22,9700.0
SD7,2013-11-25,9600.0
SD7,2013-11-26,9300.0
SD7,2013-11-27,9600.0
SD7,2013-11-28,9700.0
SD7,2013-11-29,9700.0
SD7,2013-12-02,10200.0
SD7,2013-12-03,10600.0
SD7,2013-12-04,10700.0
SD7,2013-12-05,11400.0
SD7,2013-12-06,11600.0
SD7,2013-12-09,12000.0
SD7,2013-12-10,13200.0
SD7,2013-12-11,13100.0
SD7,2013-12-12,14000.0
SD7,2013-12-13,14600.0
SD7,2013-12-16,16000.0
SD7,2013-12-17,15400.0
SD7,2013-12-18,15000.0
SD7,2013-12-19,14800.0
SD7,2013-12-20,13600.0
SD7,2013-12-23,14200.0
SD7,2013-12-24,13600.0
SD7,2013-12-25,12900.0
SD7,2013-12-26,12300.0
SD7,2013-12-27,13500.0
SD7,2013-12-30,12300.0
SD7,2013-12-31,11800.0
SD7,2014-01-02,11400.0
SD7,2014-01-03,11100.0
SD7,2014-01-06,11200.0
SD7,2014-01-07,10800.0
SD7,2014-01-08,10900.0
SD7,2014-01-09,10900.0
SD7,2014-01-10,11000.0
SD7,2014-01-13,10900.0
SD7,2014-01-14,10900.0
SD7,2014-01-15,10800.0
SD7,2014-01-16,9900.0
SD7,2014-01-17,9000.0
SD7,2014-01-20,8200.0
SD7,2014-01-21,8900.0
SD7,2014-01-22,8200.0
SD7,2014-01-23,8700.0
SD7,2014-01-24,8600.0
SD7,2014-01-27,8700.0
SD7,2014-02-06,8900.0
SD7,2014-02-07,8800.0
SD7,2014-02-10,9600.0
SD7,2014-02-11,9500.0
SD7,2014-02-12,10000.0
SD7,2014-02-13,10200.0
SD7,2014-02-14,10200.0
SD7,2014-02-17,11200.0
SD7,2014-02-18,11900.0
SD7,2014-02-19,11800.0
SD7,2014-02-20,10900.0
SD7,2014-02-21,11100.0
SD7,2014-02-24,11500.0
SD7,2014-02-25,11200.0
SD7,2014-02-26,11200.0
SD7,2014-02-27,10900.0
SD7,2014-02-28,11100.0
SD7,2014-03-03,10800.0
SD7,2014-03-04,10800.0
SD7,2014-03-05,10900.0
SD7,2014-03-06,11000.0
SD7,2014-03-07,11000.0
SD7,2014-03-10,11500.0
SD7,2014-03-11,12000.0
SD7,2014-03-12,11700.0
SD7,2014-03-13,11900.0
SD7,2014-03-14,11900.0
SD7,2014-03-17,12700.0
SD7,2014-03-18,12800.0
SD7,2014-03-19,13000.0
SD7,2014-03-20,12700.0
SD7,2014-03-21,12900.0
SD7,2014-03-24,13500.0
SD7,2014-03-25,13300.0
SD7,2014-03-26,12900.0
SD7,2014-03-27,13000.0
SD7,2014-03-28,13700.0
SD7,2014-03-31,14000.0
SD7,2014-04-01,13100.0
SD7,2014-04-02,12900.0
SD7,2014-04-03,13400.0
SD7,2014-04-04,13000.0
SD7,2014-04-07,13100.0
SD7,2014-04-08,13200.0
SD7,2014-04-10,12900.0
SD7,2014-04-11,12700.0
SD7,2014-04-14,12700.0
SD7,2014-04-15,12400.0
SD7,2014-04-16,11600.0
SD7,2014-04-17,11900.0
SD7,2014-04-18,10800.0
SD7,2014-04-21,10500.0
SD7,2014-04-22,11200.0
SD7,2014-04-23,11000.0
SD7,2014-04-24,10900.0
SD7,2014-04-25,11000.0
SD7,2014-04-28,10900.0
SD7,2014-04-29,10900.0
SD7,2014-05-05,10000.0
SD7,2014-05-06,9800.0
SD7,2014-05-07,9800.0
SD7,2014-05-08,8900.0
SD7,2014-05-09,9400.0
SD7,2014-05-12,8500.0
SD7,2014-05-13,8000.0
SD7,2014-05-14,8700.0
SD7,2014-05-15,8700.0
SD7,2014-05-16,8900.0
SD7,2014-05-19,9200.0
SD7,2014-05-20,9400.0
SD7,2014-05-21,9000.0
