SDC,2006-12-25,11500.0
SDC,2006-12-26,11800.0
SDC,2006-12-27,11000.0
SDC,2006-12-28,11200.0
SDC,2006-12-29,11200.0
SDC,2007-01-02,11200.0
SDC,2007-01-03,11200.0
SDC,2007-01-04,11200.0
SDC,2007-01-05,11200.0
SDC,2007-01-08,11200.0
SDC,2007-01-09,11000.0
SDC,2007-01-10,11200.0
SDC,2007-01-11,11200.0
SDC,2007-01-12,11200.0
SDC,2007-01-15,11200.0
SDC,2007-01-16,11200.0
SDC,2007-01-17,11400.0
SDC,2007-01-18,11700.0
SDC,2007-01-19,11900.0
SDC,2007-01-22,12100.0
SDC,2007-01-23,12100.0
SDC,2007-01-24,12400.0
SDC,2007-01-25,12700.0
SDC,2007-01-26,12500.0
SDC,2007-01-29,12800.0
SDC,2007-01-30,14100.0
SDC,2007-01-31,15500.0
SDC,2007-02-01,17000.0
SDC,2007-02-02,18700.0
SDC,2007-02-05,20600.0
SDC,2007-02-06,22700.0
SDC,2007-02-07,24900.0
SDC,2007-02-08,27300.0
SDC,2007-02-09,27300.0
SDC,2007-02-12,24500.0
SDC,2007-02-13,23800.0
SDC,2007-02-14,24900.0
SDC,2007-02-15,26600.0
SDC,2007-02-26,28700.0
SDC,2007-02-27,30300.0
SDC,2007-02-28,30300.0
SDC,2007-03-01,29600.0
SDC,2007-03-02,31500.0
SDC,2007-03-05,31000.0
SDC,2007-03-06,31000.0
SDC,2007-03-07,30200.0
SDC,2007-03-08,28000.0
SDC,2007-03-09,27300.0
SDC,2007-03-12,24600.0
SDC,2007-03-13,22900.0
SDC,2007-03-14,23500.0
SDC,2007-03-15,23500.0
SDC,2007-03-16,25000.0
SDC,2007-03-19,26300.0
SDC,2007-03-20,23800.0
SDC,2007-03-21,24500.0
SDC,2007-03-22,23200.0
SDC,2007-03-23,21700.0
SDC,2007-03-26,23300.0
SDC,2007-03-27,22200.0
SDC,2007-03-28,21000.0
SDC,2007-03-29,23100.0
SDC,2007-03-30,23300.0
SDC,2007-04-02,24500.0
SDC,2007-04-03,24500.0
SDC,2007-04-04,22100.0
SDC,2007-04-05,22100.0
SDC,2007-04-06,21000.0
SDC,2007-04-09,21000.0
SDC,2007-04-10,21000.0
SDC,2007-04-11,21000.0
SDC,2007-04-12,23100.0
SDC,2007-04-13,21900.0
SDC,2007-04-16,21000.0
SDC,2007-04-17,20500.0
SDC,2007-04-18,18500.0
SDC,2007-04-19,18900.0
SDC,2007-04-20,18800.0
SDC,2007-04-23,20400.0
SDC,2007-04-24,18200.0
SDC,2007-04-25,18600.0
SDC,2007-05-02,18600.0
SDC,2007-05-03,19100.0
SDC,2007-05-04,19100.0
SDC,2007-05-07,19100.0
SDC,2007-05-08,17900.0
SDC,2007-05-09,19100.0
SDC,2007-05-10,18200.0
SDC,2007-05-11,17900.0
SDC,2007-05-14,17900.0
SDC,2007-05-15,17900.0
SDC,2007-05-16,17900.0
SDC,2007-05-17,18400.0
SDC,2007-05-18,17900.0
SDC,2007-05-21,19700.0
SDC,2007-05-22,21200.0
SDC,2007-05-23,19800.0
SDC,2007-05-24,18900.0
SDC,2007-05-25,17200.0
SDC,2007-05-28,18600.0
SDC,2007-05-29,19600.0
SDC,2007-05-30,19600.0
SDC,2007-05-31,19300.0
SDC,2007-06-01,19600.0
SDC,2007-06-04,18900.0
SDC,2007-06-05,17500.0
SDC,2007-06-06,17500.0
SDC,2007-06-07,18200.0
SDC,2007-06-08,17900.0
SDC,2007-06-11,18100.0
SDC,2007-06-12,18200.0
SDC,2007-06-13,17900.0
SDC,2007-06-14,17700.0
SDC,2007-06-15,17700.0
SDC,2007-06-18,17600.0
SDC,2007-06-19,17500.0
SDC,2007-06-20,17600.0
SDC,2007-06-21,17600.0
SDC,2007-06-22,17600.0
SDC,2007-06-25,17000.0
SDC,2007-06-26,16500.0
SDC,2007-06-27,16300.0
SDC,2007-06-28,15800.0
SDC,2007-06-29,15700.0
SDC,2007-07-02,15600.0
SDC,2007-07-03,16300.0
SDC,2007-07-04,16300.0
SDC,2007-07-05,16300.0
SDC,2007-07-06,14900.0
SDC,2007-07-09,14900.0
SDC,2007-07-10,15100.0
SDC,2007-07-11,15600.0
SDC,2007-07-12,14400.0
SDC,2007-07-13,14500.0
SDC,2007-07-16,14300.0
SDC,2007-07-17,13700.0
SDC,2007-07-18,13900.0
SDC,2007-07-19,13700.0
SDC,2007-07-20,13500.0
SDC,2007-07-23,13400.0
SDC,2007-07-24,13800.0
SDC,2007-07-25,14000.0
SDC,2007-07-26,14400.0
SDC,2007-07-27,14100.0
SDC,2007-07-30,13900.0
SDC,2007-07-31,14000.0
SDC,2007-08-01,14200.0
SDC,2007-08-02,14300.0
SDC,2007-08-03,14000.0
SDC,2007-08-06,13500.0
SDC,2007-08-07,13300.0
SDC,2007-08-08,13800.0
SDC,2007-08-09,13800.0
SDC,2007-08-10,13800.0
SDC,2007-08-13,13700.0
SDC,2007-08-14,14400.0
SDC,2007-08-15,14000.0
SDC,2007-08-16,14200.0
SDC,2007-08-17,14000.0
SDC,2007-08-20,13500.0
SDC,2007-08-21,13300.0
SDC,2007-08-22,13300.0
SDC,2007-08-23,13100.0
SDC,2007-08-24,13300.0
SDC,2007-08-27,13500.0
SDC,2007-08-28,13700.0
SDC,2007-08-29,13700.0
SDC,2007-08-30,13800.0
SDC,2007-08-31,14000.0
SDC,2007-09-04,14000.0
SDC,2007-09-05,14500.0
SDC,2007-09-06,15300.0
SDC,2007-09-07,16800.0
SDC,2007-09-10,18400.0
SDC,2007-09-11,20200.0
SDC,2007-09-12,22000.0
SDC,2007-09-13,22900.0
SDC,2007-09-14,21300.0
SDC,2007-09-17,21000.0
SDC,2007-09-18,20100.0
SDC,2007-09-19,20000.0
SDC,2007-09-20,20300.0
SDC,2007-09-21,20500.0
SDC,2007-09-24,21000.0
SDC,2007-09-25,21600.0
SDC,2007-09-26,21500.0
SDC,2007-09-27,21600.0
SDC,2007-09-28,22800.0
SDC,2007-10-01,24600.0
SDC,2007-10-02,25100.0
SDC,2007-10-03,26800.0
SDC,2007-10-04,28400.0
SDC,2007-10-05,30300.0
SDC,2007-10-08,27600.0
SDC,2007-10-09,28100.0
SDC,2007-10-10,29300.0
SDC,2007-10-11,29600.0
SDC,2007-10-12,30800.0
SDC,2007-10-15,33200.0
SDC,2007-10-16,35600.0
SDC,2007-10-17,36300.0
SDC,2007-10-18,36600.0
SDC,2007-10-19,39900.0
SDC,2007-10-22,42800.0
SDC,2007-10-23,46600.0
SDC,2007-10-24,50700.0
SDC,2007-10-25,55700.0
SDC,2007-10-26,59500.0
SDC,2007-10-29,59500.0
SDC,2007-10-30,54000.0
SDC,2007-10-31,49100.0
SDC,2007-11-01,54000.0
SDC,2007-11-02,53200.0
SDC,2007-11-05,54200.0
SDC,2007-11-06,52900.0
SDC,2007-11-07,51600.0
SDC,2007-11-08,51200.0
SDC,2007-11-09,47600.0
SDC,2007-11-12,42200.0
SDC,2007-11-13,38600.0
SDC,2007-11-14,42000.0
SDC,2007-11-15,43900.0
SDC,2007-11-16,43100.0
SDC,2007-11-19,43600.0
SDC,2007-11-20,42600.0
SDC,2007-11-21,40900.0
SDC,2007-11-22,42600.0
SDC,2007-11-23,43200.0
SDC,2007-11-26,45900.0
SDC,2007-11-27,44900.0
SDC,2007-11-28,45200.0
SDC,2007-11-29,47100.0
SDC,2007-11-30,47600.0
SDC,2007-12-03,48600.0
SDC,2007-12-04,49900.0
SDC,2007-12-05,48200.0
SDC,2007-12-06,47100.0
SDC,2007-12-07,46600.0
SDC,2007-12-10,44900.0
SDC,2007-12-11,45900.0
SDC,2007-12-12,45200.0
SDC,2007-12-13,44900.0
SDC,2007-12-14,44900.0
SDC,2007-12-17,44300.0
SDC,2007-12-18,44600.0
SDC,2007-12-19,46600.0
SDC,2007-12-20,47100.0
SDC,2007-12-21,44300.0
SDC,2007-12-24,42100.0
SDC,2007-12-25,42700.0
SDC,2007-12-26,43600.0
SDC,2007-12-27,43100.0
SDC,2007-12-28,43200.0
SDC,2008-01-02,44800.0
SDC,2008-01-03,44900.0
SDC,2008-01-04,43200.0
SDC,2008-01-07,41600.0
SDC,2008-01-08,42100.0
SDC,2008-01-09,39900.0
SDC,2008-01-10,36600.0
SDC,2008-01-11,37000.0
SDC,2008-01-14,34500.0
SDC,2008-01-15,31300.0
SDC,2008-01-16,34500.0
SDC,2008-01-17,36600.0
SDC,2008-01-18,38600.0
SDC,2008-01-21,38100.0
SDC,2008-01-22,36600.0
SDC,2008-01-23,34100.0
SDC,2008-01-24,33900.0
SDC,2008-01-25,34300.0
SDC,2008-01-28,34900.0
SDC,2008-01-29,36400.0
SDC,2008-01-30,39400.0
SDC,2008-01-31,40600.0
SDC,2008-02-01,41900.0
SDC,2008-02-12,41200.0
SDC,2008-02-13,37100.0
SDC,2008-02-14,36300.0
SDC,2008-02-15,34300.0
SDC,2008-02-18,32900.0
SDC,2008-02-19,32900.0
SDC,2008-02-20,30100.0
SDC,2008-02-21,27500.0
SDC,2008-02-22,28300.0
SDC,2008-02-25,27900.0
SDC,2008-02-26,27800.0
SDC,2008-02-27,27300.0
SDC,2008-02-28,27000.0
SDC,2008-02-29,26300.0
SDC,2008-03-03,23600.0
SDC,2008-03-04,21400.0
SDC,2008-03-05,19300.0
SDC,2008-03-06,21200.0
SDC,2008-03-07,23200.0
SDC,2008-03-10,22000.0
SDC,2008-03-11,22900.0
SDC,2008-03-12,22300.0
SDC,2008-03-13,23600.0
SDC,2008-03-14,23300.0
SDC,2008-03-17,21000.0
SDC,2008-03-18,18900.0
SDC,2008-03-19,17800.0
SDC,2008-03-20,17000.0
SDC,2008-03-21,15600.0
SDC,2008-03-24,14200.0
SDC,2008-03-25,12800.0
SDC,2008-03-26,13300.0
SDC,2008-03-27,12700.0
SDC,2008-03-28,12900.0
SDC,2008-03-31,13100.0
SDC,2008-04-01,13400.0
SDC,2008-04-02,13600.0
SDC,2008-04-03,13900.0
SDC,2008-04-04,14200.0
SDC,2008-04-07,14600.0
SDC,2008-04-08,14800.0
SDC,2008-04-09,14500.0
SDC,2008-04-10,14200.0
SDC,2008-04-11,13800.0
SDC,2008-04-16,13400.0
SDC,2008-04-17,13800.0
SDC,2008-04-18,13600.0
SDC,2008-04-21,13500.0
SDC,2008-04-22,13900.0
SDC,2008-04-23,13500.0
SDC,2008-04-24,13400.0
SDC,2008-04-25,13700.0
SDC,2008-04-28,13600.0
SDC,2008-04-29,13500.0
SDC,2008-05-05,13000.0
SDC,2008-05-06,12800.0
SDC,2008-05-07,12400.0
SDC,2008-05-08,12000.0
SDC,2008-05-09,11700.0
SDC,2008-05-12,11400.0
SDC,2008-05-13,11000.0
SDC,2008-05-14,10700.0
SDC,2008-05-15,10400.0
SDC,2008-05-16,10800.0
SDC,2008-05-19,10800.0
SDC,2008-05-20,10900.0
SDC,2008-05-21,10200.0
SDC,2008-05-22,9900.0
SDC,2008-05-23,10100.0
SDC,2008-05-26,9600.0
SDC,2008-05-27,9300.0
SDC,2008-05-28,9000.0
SDC,2008-05-29,9300.0
SDC,2008-05-30,9000.0
SDC,2008-06-02,8800.0
SDC,2008-06-03,8600.0
SDC,2008-06-04,8400.0
SDC,2008-06-05,8100.0
SDC,2008-06-06,7900.0
SDC,2008-06-09,7700.0
SDC,2008-06-10,7900.0
SDC,2008-06-11,8100.0
SDC,2008-06-12,8300.0
SDC,2008-06-13,8500.0
SDC,2008-06-16,8800.0
SDC,2008-06-17,9000.0
SDC,2008-06-18,9300.0
SDC,2008-06-19,8900.0
SDC,2008-06-20,8600.0
SDC,2008-06-23,8900.0
SDC,2008-06-24,8700.0
SDC,2008-06-25,8600.0
SDC,2008-06-26,8900.0
SDC,2008-06-27,9000.0
SDC,2008-06-30,9400.0
SDC,2008-07-01,9700.0
SDC,2008-07-02,10000.0
SDC,2008-07-03,10400.0
SDC,2008-07-04,10800.0
SDC,2008-07-07,11200.0
SDC,2008-07-08,11700.0
SDC,2008-07-09,11800.0
SDC,2008-07-10,12300.0
SDC,2008-07-11,12700.0
SDC,2008-07-14,13200.0
SDC,2008-07-15,13700.0
SDC,2008-07-16,14300.0
SDC,2008-07-17,14800.0
SDC,2008-07-18,14200.0
SDC,2008-07-21,14900.0
SDC,2008-07-22,14900.0
SDC,2008-07-23,14900.0
SDC,2008-07-24,14300.0
SDC,2008-07-25,14300.0
SDC,2008-07-28,13700.0
SDC,2008-07-29,13400.0
SDC,2008-07-30,12800.0
SDC,2008-07-31,12500.0
SDC,2008-08-01,12500.0
SDC,2008-08-04,12000.0
SDC,2008-08-05,11500.0
SDC,2008-08-06,11900.0
SDC,2008-08-07,11500.0
SDC,2008-08-08,11700.0
SDC,2008-08-11,12200.0
SDC,2008-08-12,12600.0
SDC,2008-08-13,12100.0
SDC,2008-08-14,12600.0
SDC,2008-08-15,13100.0
SDC,2008-08-18,14000.0
SDC,2008-08-19,13900.0
SDC,2008-08-20,12900.0
SDC,2008-08-21,13500.0
SDC,2008-08-22,12700.0
SDC,2008-08-25,13900.0
SDC,2008-08-26,14900.0
SDC,2008-08-27,14900.0
SDC,2008-08-28,14700.0
SDC,2008-08-29,14700.0
SDC,2008-09-03,15000.0
SDC,2008-09-04,15600.0
SDC,2008-09-05,15600.0
SDC,2008-09-08,14400.0
SDC,2008-09-09,13500.0
SDC,2008-09-10,12700.0
SDC,2008-09-11,11800.0
SDC,2008-09-12,11000.0
SDC,2008-09-15,11100.0
SDC,2008-09-16,11000.0
SDC,2008-09-17,11000.0
SDC,2008-09-18,10200.0
SDC,2008-09-19,10900.0
SDC,2008-09-22,11600.0
SDC,2008-09-23,11600.0
SDC,2008-09-24,11100.0
SDC,2008-09-25,11900.0
SDC,2008-09-26,11100.0
SDC,2008-09-29,11500.0
SDC,2008-09-30,10400.0
SDC,2008-10-01,10800.0
SDC,2008-10-02,11300.0
SDC,2008-10-03,11300.0
SDC,2008-10-06,10400.0
SDC,2008-10-07,9700.0
SDC,2008-10-08,9400.0
SDC,2008-10-09,9400.0
SDC,2008-10-10,9400.0
SDC,2008-10-13,9200.0
SDC,2008-10-14,9900.0
SDC,2008-10-15,10500.0
SDC,2008-10-16,10900.0
SDC,2008-10-17,9900.0
SDC,2008-10-20,9900.0
SDC,2008-10-21,9900.0
SDC,2008-10-22,9500.0
SDC,2008-10-23,9000.0
SDC,2008-10-24,8500.0
SDC,2008-10-27,8200.0
SDC,2008-10-28,7800.0
SDC,2008-10-29,8300.0
SDC,2008-10-30,7800.0
SDC,2008-10-31,8300.0
SDC,2008-11-03,8900.0
SDC,2008-11-04,9400.0
SDC,2008-11-05,10000.0
SDC,2008-11-06,10700.0
SDC,2008-11-07,10700.0
SDC,2008-11-10,9700.0
SDC,2008-11-11,9400.0
SDC,2008-11-12,9500.0
SDC,2008-11-13,8900.0
SDC,2008-11-14,9400.0
SDC,2008-11-17,9800.0
SDC,2008-11-18,9800.0
SDC,2008-11-19,9800.0
SDC,2008-11-20,9800.0
SDC,2008-11-21,9100.0
SDC,2008-11-24,8500.0
SDC,2008-11-25,8200.0
SDC,2008-11-26,8000.0
SDC,2008-11-27,8000.0
SDC,2008-11-28,8600.0
SDC,2008-12-01,9000.0
SDC,2008-12-02,8800.0
SDC,2008-12-03,8800.0
SDC,2008-12-04,8500.0
SDC,2008-12-05,8500.0
SDC,2008-12-08,8000.0
SDC,2008-12-09,8000.0
SDC,2008-12-10,8000.0
SDC,2008-12-11,8000.0
SDC,2008-12-12,8000.0
SDC,2008-12-15,8400.0
SDC,2008-12-16,8400.0
SDC,2008-12-17,8600.0
SDC,2008-12-18,8100.0
SDC,2008-12-19,8100.0
SDC,2008-12-22,7800.0
SDC,2008-12-23,7800.0
SDC,2008-12-24,7600.0
SDC,2008-12-25,7300.0
SDC,2008-12-26,7600.0
SDC,2008-12-29,7600.0
SDC,2008-12-30,7700.0
SDC,2008-12-31,7300.0
SDC,2009-01-02,7800.0
SDC,2009-01-05,7800.0
SDC,2009-01-06,7800.0
SDC,2009-01-07,7600.0
SDC,2009-01-08,7800.0
SDC,2009-01-09,7500.0
SDC,2009-01-12,7500.0
SDC,2009-01-13,7500.0
SDC,2009-01-14,7500.0
SDC,2009-01-15,7500.0
SDC,2009-01-16,7500.0
SDC,2009-01-19,7300.0
SDC,2009-01-20,7000.0
SDC,2009-01-21,7300.0
SDC,2009-01-22,7300.0
SDC,2009-01-23,7300.0
SDC,2009-02-02,7300.0
SDC,2009-02-03,6900.0
SDC,2009-02-04,6900.0
SDC,2009-02-05,6500.0
SDC,2009-02-06,6900.0
SDC,2009-02-09,6700.0
SDC,2009-02-10,6200.0
SDC,2009-02-11,6000.0
SDC,2009-02-12,6200.0
SDC,2009-02-13,6000.0
SDC,2009-02-16,6000.0
SDC,2009-02-17,6000.0
SDC,2009-02-18,6000.0
SDC,2009-02-19,6000.0
SDC,2009-02-20,6000.0
SDC,2009-02-23,5900.0
SDC,2009-02-24,5900.0
SDC,2009-02-25,6300.0
SDC,2009-02-26,6300.0
SDC,2009-02-27,6200.0
SDC,2009-03-02,6200.0
SDC,2009-03-03,6200.0
SDC,2009-03-04,6200.0
SDC,2009-03-05,6200.0
SDC,2009-03-06,6200.0
SDC,2009-03-09,6200.0
SDC,2009-03-10,6200.0
SDC,2009-03-11,6700.0
SDC,2009-03-12,6700.0
SDC,2009-03-13,6800.0
SDC,2009-03-16,6800.0
SDC,2009-03-17,7200.0
SDC,2009-03-18,7700.0
SDC,2009-03-19,8200.0
SDC,2009-03-20,8700.0
SDC,2009-03-23,8100.0
SDC,2009-03-24,8100.0
SDC,2009-03-25,7500.0
SDC,2009-03-26,7600.0
SDC,2009-03-27,7600.0
SDC,2009-03-30,7800.0
SDC,2009-03-31,7800.0
SDC,2009-04-01,8300.0
SDC,2009-04-02,8300.0
SDC,2009-04-03,8800.0
SDC,2009-04-07,9300.0
SDC,2009-04-08,9100.0
SDC,2009-04-09,9200.0
SDC,2009-04-10,9700.0
SDC,2009-04-13,10300.0
SDC,2009-04-14,10100.0
SDC,2009-04-15,9400.0
SDC,2009-04-16,9300.0
SDC,2009-04-17,9300.0
SDC,2009-04-20,8700.0
SDC,2009-04-21,8900.0
SDC,2009-04-22,9000.0
SDC,2009-04-23,8700.0
SDC,2009-04-24,8700.0
SDC,2009-04-27,8100.0
SDC,2009-04-28,8300.0
SDC,2009-04-29,8300.0
SDC,2009-05-04,8900.0
SDC,2009-05-05,9400.0
SDC,2009-05-06,9400.0
SDC,2009-05-07,9200.0
SDC,2009-05-08,9200.0
SDC,2009-05-11,9100.0
SDC,2009-05-12,9200.0
SDC,2009-05-13,9200.0
SDC,2009-05-14,9300.0
SDC,2009-05-15,9000.0
SDC,2009-05-18,9400.0
SDC,2009-05-19,10100.0
SDC,2009-05-20,10800.0
SDC,2009-05-21,11400.0
SDC,2009-05-22,11500.0
SDC,2009-05-25,11800.0
SDC,2009-05-26,11100.0
SDC,2009-05-27,11800.0
SDC,2009-05-28,12500.0
SDC,2009-05-29,13200.0
SDC,2009-06-01,13500.0
SDC,2009-06-02,13200.0
SDC,2009-06-03,14100.0
SDC,2009-06-04,13400.0
SDC,2009-06-05,14100.0
SDC,2009-06-08,14800.0
SDC,2009-06-09,15700.0
SDC,2009-06-10,15800.0
SDC,2009-06-11,14700.0
SDC,2009-06-12,14700.0
SDC,2009-06-15,14300.0
SDC,2009-06-16,14300.0
SDC,2009-06-17,13300.0
SDC,2009-06-18,13300.0
SDC,2009-06-19,12100.0
SDC,2009-06-22,11300.0
SDC,2009-06-23,10500.0
SDC,2009-06-24,11200.0
SDC,2009-06-25,11100.0
SDC,2009-06-26,10500.0
SDC,2009-06-29,10200.0
SDC,2009-06-30,9500.0
SDC,2009-07-01,9000.0
SDC,2009-07-02,9800.0
SDC,2009-07-03,9800.0
SDC,2009-07-06,10300.0
SDC,2009-07-07,10300.0
SDC,2009-07-08,10100.0
SDC,2009-07-09,10600.0
SDC,2009-07-10,9900.0
SDC,2009-07-13,9300.0
SDC,2009-07-14,10200.0
SDC,2009-07-15,10400.0
SDC,2009-07-16,9700.0
SDC,2009-07-17,9700.0
SDC,2009-07-20,9400.0
SDC,2009-07-21,9400.0
SDC,2009-07-22,8800.0
SDC,2009-07-23,9400.0
SDC,2009-07-24,10000.0
SDC,2009-07-27,10600.0
SDC,2009-07-28,10600.0
SDC,2009-07-29,11300.0
SDC,2009-07-30,11800.0
SDC,2009-07-31,11700.0
SDC,2009-08-03,12500.0
SDC,2009-08-04,11600.0
SDC,2009-08-05,11300.0
SDC,2009-08-06,11000.0
SDC,2009-08-07,11900.0
SDC,2009-08-10,11500.0
SDC,2009-08-11,12500.0
SDC,2009-08-12,11700.0
SDC,2009-08-13,12600.0
SDC,2009-08-14,11800.0
SDC,2009-08-17,11300.0
SDC,2009-08-18,11000.0
SDC,2009-08-19,11200.0
SDC,2009-08-20,11600.0
SDC,2009-08-21,12100.0
SDC,2009-08-24,11700.0
SDC,2009-08-25,11600.0
SDC,2009-08-26,12000.0
SDC,2009-08-27,12000.0
SDC,2009-08-28,12300.0
SDC,2009-08-31,13100.0
SDC,2009-09-01,13600.0
SDC,2009-09-03,13000.0
SDC,2009-09-04,12500.0
SDC,2009-09-07,12500.0
SDC,2009-09-08,13100.0
SDC,2009-09-09,12700.0
SDC,2009-09-10,13500.0
SDC,2009-09-11,13100.0
SDC,2009-09-14,13300.0
SDC,2009-09-15,13300.0
SDC,2009-09-16,13100.0
SDC,2009-09-17,13200.0
SDC,2009-09-18,13300.0
SDC,2009-09-21,14000.0
SDC,2009-09-22,14000.0
SDC,2009-09-23,14200.0
SDC,2009-09-24,14200.0
SDC,2009-09-25,13800.0
SDC,2009-09-28,13800.0
SDC,2009-09-29,13500.0
SDC,2009-09-30,14400.0
SDC,2009-10-01,14500.0
SDC,2009-10-02,13500.0
SDC,2009-10-05,12700.0
SDC,2009-10-06,13600.0
SDC,2009-10-07,14300.0
SDC,2009-10-08,15300.0
SDC,2009-10-09,16200.0
SDC,2009-10-12,17300.0
SDC,2009-10-13,17300.0
SDC,2009-10-14,18000.0
SDC,2009-10-15,18800.0
SDC,2009-10-16,17700.0
SDC,2009-10-19,17200.0
SDC,2009-10-20,17900.0
SDC,2009-10-21,19100.0
SDC,2009-10-22,20000.0
SDC,2009-10-23,18600.0
SDC,2009-10-26,17300.0
SDC,2009-10-27,16100.0
SDC,2009-10-28,17300.0
SDC,2009-10-29,16400.0
SDC,2009-10-30,17700.0
SDC,2009-11-02,16500.0
SDC,2009-11-03,15300.0
SDC,2009-11-04,14600.0
SDC,2009-11-05,15600.0
SDC,2009-11-06,14600.0
SDC,2009-11-09,13900.0
SDC,2009-11-10,14800.0
SDC,2009-11-11,15100.0
SDC,2009-11-12,15700.0
SDC,2009-11-13,15000.0
SDC,2009-11-16,15500.0
SDC,2009-11-17,16100.0
SDC,2009-11-18,16300.0
SDC,2009-11-19,17000.0
SDC,2009-11-20,16500.0
SDC,2009-11-23,17700.0
SDC,2009-11-24,16500.0
SDC,2009-11-25,15800.0
SDC,2009-11-26,14700.0
SDC,2009-11-27,13700.0
SDC,2009-11-30,13900.0
SDC,2009-12-01,14800.0
SDC,2009-12-02,15300.0
SDC,2009-12-03,15800.0
SDC,2009-12-04,16000.0
SDC,2009-12-07,14900.0
SDC,2009-12-08,13900.0
SDC,2009-12-09,14700.0
SDC,2009-12-10,14700.0
SDC,2009-12-11,14700.0
SDC,2009-12-14,14700.0
SDC,2009-12-15,14700.0
SDC,2009-12-16,14700.0
SDC,2009-12-17,14700.0
SDC,2009-12-18,14000.0
SDC,2009-12-21,14100.0
SDC,2009-12-22,12900.0
SDC,2009-12-23,12900.0
SDC,2009-12-24,13500.0
SDC,2009-12-25,14000.0
SDC,2009-12-28,14100.0
SDC,2009-12-29,13500.0
SDC,2009-12-30,13500.0
SDC,2009-12-31,13600.0
SDC,2010-01-04,14400.0
SDC,2010-01-05,15000.0
SDC,2010-01-06,15000.0
SDC,2010-01-07,14100.0
SDC,2010-01-08,14800.0
SDC,2010-01-11,15000.0
SDC,2010-01-12,14000.0
SDC,2010-01-13,13100.0
SDC,2010-01-14,13700.0
SDC,2010-01-15,13500.0
SDC,2010-01-18,12900.0
SDC,2010-01-19,12900.0
SDC,2010-01-20,12100.0
SDC,2010-01-21,12300.0
SDC,2010-01-22,11700.0
SDC,2010-01-25,11500.0
SDC,2010-01-26,12800.0
SDC,2010-01-27,12800.0
SDC,2010-01-28,13100.0
SDC,2010-01-29,13700.0
SDC,2010-02-01,13900.0
SDC,2010-02-02,13600.0
SDC,2010-02-03,13600.0
SDC,2010-02-04,13400.0
SDC,2010-02-05,13700.0
SDC,2010-02-08,13700.0
SDC,2010-02-09,13900.0
SDC,2010-02-10,13800.0
SDC,2010-02-11,13900.0
SDC,2010-02-12,14200.0
SDC,2010-02-22,14200.0
SDC,2010-02-23,14100.0
SDC,2010-02-24,12900.0
SDC,2010-02-25,12200.0
SDC,2010-02-26,12900.0
SDC,2010-03-01,13000.0
SDC,2010-03-02,13300.0
SDC,2010-03-03,13400.0
SDC,2010-03-04,14300.0
SDC,2010-03-05,14100.0
SDC,2010-03-08,13900.0
SDC,2010-03-09,13900.0
SDC,2010-03-10,13800.0
SDC,2010-03-11,13900.0
SDC,2010-03-12,13900.0
SDC,2010-03-15,14400.0
SDC,2010-03-16,14800.0
SDC,2010-03-17,13400.0
SDC,2010-03-18,14500.0
SDC,2010-03-19,14300.0
SDC,2010-03-22,14300.0
SDC,2010-03-23,14300.0
SDC,2010-03-24,13400.0
SDC,2010-03-25,12900.0
SDC,2010-03-26,13000.0
SDC,2010-03-29,13000.0
SDC,2010-03-30,12900.0
SDC,2010-03-31,12800.0
SDC,2010-04-01,13500.0
SDC,2010-04-02,13300.0
SDC,2010-04-05,13500.0
SDC,2010-04-06,12900.0
SDC,2010-04-07,13000.0
SDC,2010-04-08,13800.0
SDC,2010-04-09,14600.0
SDC,2010-04-12,13900.0
SDC,2010-04-13,13100.0
SDC,2010-04-14,13900.0
SDC,2010-04-15,14200.0
SDC,2010-04-16,13500.0
SDC,2010-04-19,13400.0
SDC,2010-04-20,13900.0
SDC,2010-04-21,14700.0
SDC,2010-04-22,15600.0
SDC,2010-04-26,14600.0
SDC,2010-04-27,14100.0
SDC,2010-04-28,14700.0
SDC,2010-04-29,14300.0
SDC,2010-05-04,15200.0
SDC,2010-05-05,15400.0
SDC,2010-05-06,16000.0
SDC,2010-05-07,15500.0
SDC,2010-05-10,15300.0
SDC,2010-05-11,15200.0
SDC,2010-05-12,14200.0
SDC,2010-05-13,14100.0
SDC,2010-05-14,14900.0
SDC,2010-05-17,13700.0
SDC,2010-05-18,14400.0
SDC,2010-05-19,13400.0
SDC,2010-05-20,13400.0
SDC,2010-05-21,12200.0
SDC,2010-05-24,13200.0
SDC,2010-05-25,13300.0
SDC,2010-05-26,13400.0
SDC,2010-05-27,13200.0
SDC,2010-05-28,13900.0
SDC,2010-05-31,14600.0
SDC,2010-06-01,14000.0
SDC,2010-06-02,14200.0
SDC,2010-06-03,13200.0
SDC,2010-06-04,12900.0
SDC,2010-06-07,13700.0
SDC,2010-06-08,12800.0
SDC,2010-06-09,12700.0
SDC,2010-06-10,13200.0
SDC,2010-06-11,13000.0
SDC,2010-06-14,13700.0
SDC,2010-06-15,13700.0
SDC,2010-06-16,14400.0
SDC,2010-06-17,13900.0
SDC,2010-06-18,13400.0
SDC,2010-06-21,13500.0
SDC,2010-06-22,13400.0
SDC,2010-06-23,13500.0
SDC,2010-06-24,14100.0
SDC,2010-06-25,13500.0
SDC,2010-06-28,14000.0
SDC,2010-06-29,14000.0
SDC,2010-06-30,13100.0
SDC,2010-07-01,12900.0
SDC,2010-07-02,12600.0
SDC,2010-07-05,12700.0
SDC,2010-07-06,12800.0
SDC,2010-07-07,13200.0
SDC,2010-07-08,13200.0
SDC,2010-07-09,13200.0
SDC,2010-07-12,13200.0
SDC,2010-07-13,13400.0
SDC,2010-07-14,14000.0
SDC,2010-07-15,13200.0
SDC,2010-07-16,13800.0
SDC,2010-07-19,13700.0
SDC,2010-07-20,13700.0
SDC,2010-07-21,13700.0
SDC,2010-07-22,14400.0
SDC,2010-07-23,14300.0
SDC,2010-07-26,14300.0
SDC,2010-07-27,13400.0
SDC,2010-07-28,14300.0
SDC,2010-07-29,13300.0
SDC,2010-07-30,13200.0
SDC,2010-08-02,13200.0
SDC,2010-08-03,13900.0
SDC,2010-08-04,13900.0
SDC,2010-08-05,13900.0
SDC,2010-08-06,13900.0
SDC,2010-08-09,13900.0
SDC,2010-08-10,13900.0
SDC,2010-08-11,13600.0
SDC,2010-08-12,12700.0
SDC,2010-08-13,12400.0
SDC,2010-08-16,13200.0
SDC,2010-08-17,12600.0
SDC,2010-08-18,12200.0
SDC,2010-08-19,12800.0
SDC,2010-08-20,12800.0
SDC,2010-08-23,11900.0
SDC,2010-08-24,11200.0
SDC,2010-08-25,10600.0
SDC,2010-08-26,10000.0
SDC,2010-08-27,10600.0
SDC,2010-08-30,11300.0
SDC,2010-08-31,11900.0
SDC,2010-09-01,12400.0
SDC,2010-09-06,13200.0
SDC,2010-09-07,12400.0
SDC,2010-09-08,11600.0
SDC,2010-09-09,12400.0
SDC,2010-09-10,12400.0
SDC,2010-09-13,12400.0
SDC,2010-09-14,11500.0
SDC,2010-09-15,12100.0
SDC,2010-09-16,12500.0
SDC,2010-09-17,12400.0
SDC,2010-09-20,11900.0
SDC,2010-09-21,11900.0
SDC,2010-09-22,11900.0
SDC,2010-09-23,11900.0
SDC,2010-09-24,12700.0
SDC,2010-09-27,13500.0
SDC,2010-09-28,12600.0
SDC,2010-09-29,11800.0
SDC,2010-09-30,11200.0
SDC,2010-10-01,11200.0
SDC,2010-10-04,11200.0
SDC,2010-10-05,11100.0
SDC,2010-10-06,11100.0
SDC,2010-10-07,11900.0
SDC,2010-10-08,12500.0
SDC,2010-10-11,12400.0
SDC,2010-10-12,12400.0
SDC,2010-10-13,12300.0
SDC,2010-10-14,12400.0
SDC,2010-10-15,11600.0
SDC,2010-10-18,10800.0
SDC,2010-10-19,10700.0
SDC,2010-10-20,10600.0
SDC,2010-10-21,10600.0
SDC,2010-10-22,9900.0
SDC,2010-10-25,9200.0
SDC,2010-10-26,9200.0
SDC,2010-10-27,9200.0
SDC,2010-10-28,9200.0
SDC,2010-10-29,9200.0
SDC,2010-11-01,9800.0
SDC,2010-11-02,10500.0
SDC,2010-11-03,9900.0
SDC,2010-11-04,9300.0
SDC,2010-11-05,9900.0
SDC,2010-11-08,9200.0
SDC,2010-11-09,9300.0
SDC,2010-11-10,9300.0
SDC,2010-11-11,9900.0
SDC,2010-11-12,9300.0
SDC,2010-11-15,10000.0
SDC,2010-11-16,9100.0
SDC,2010-11-17,9700.0
SDC,2010-11-18,9700.0
SDC,2010-11-19,9700.0
SDC,2010-11-22,9100.0
SDC,2010-11-23,9700.0
SDC,2010-11-24,9600.0
SDC,2010-11-25,9000.0
SDC,2010-11-26,9600.0
SDC,2010-11-29,10400.0
SDC,2010-11-30,10100.0
SDC,2010-12-01,9400.0
SDC,2010-12-02,8800.0
SDC,2010-12-03,9400.0
SDC,2010-12-06,10100.0
SDC,2010-12-07,9300.0
SDC,2010-12-08,9000.0
SDC,2010-12-09,9800.0
SDC,2010-12-10,10000.0
SDC,2010-12-13,9800.0
SDC,2010-12-14,9400.0
SDC,2010-12-15,9700.0
SDC,2010-12-16,10100.0
SDC,2010-12-17,10100.0
SDC,2010-12-20,10100.0
SDC,2010-12-21,10100.0
SDC,2010-12-22,10000.0
SDC,2010-12-23,9400.0
SDC,2010-12-24,9400.0
SDC,2010-12-27,9900.0
SDC,2010-12-28,9900.0
SDC,2010-12-29,9900.0
SDC,2010-12-30,9200.0
SDC,2010-12-31,9200.0
SDC,2011-01-04,9700.0
SDC,2011-01-05,9700.0
SDC,2011-01-06,10000.0
SDC,2011-01-07,10000.0
SDC,2011-01-10,10000.0
SDC,2011-01-11,10700.0
SDC,2011-01-12,10000.0
SDC,2011-01-13,10000.0
SDC,2011-01-14,10600.0
SDC,2011-01-17,9900.0
SDC,2011-01-18,9600.0
SDC,2011-01-19,9600.0
SDC,2011-01-20,10200.0
SDC,2011-01-21,9700.0
SDC,2011-01-24,10400.0
SDC,2011-01-25,10600.0
SDC,2011-01-26,9700.0
SDC,2011-01-27,9700.0
SDC,2011-01-28,9700.0
SDC,2011-02-08,10300.0
SDC,2011-02-09,11000.0
SDC,2011-02-10,11600.0
SDC,2011-02-11,10800.0
SDC,2011-02-14,12300.0
SDC,2011-02-15,12300.0
SDC,2011-02-16,12300.0
SDC,2011-02-17,12300.0
SDC,2011-02-18,12300.0
SDC,2011-02-21,12300.0
SDC,2011-02-22,12300.0
SDC,2011-02-23,12300.0
SDC,2011-02-24,12300.0
SDC,2011-02-25,12300.0
SDC,2011-02-28,12300.0
SDC,2011-03-01,12300.0
SDC,2011-03-02,12300.0
SDC,2011-03-03,12300.0
SDC,2011-03-04,11400.0
SDC,2011-03-07,10700.0
SDC,2011-03-08,10700.0
SDC,2011-03-09,10000.0
SDC,2011-03-10,9300.0
SDC,2011-03-11,8700.0
SDC,2011-03-14,8700.0
SDC,2011-03-15,8700.0
SDC,2011-03-16,8100.0
SDC,2011-03-17,7500.0
SDC,2011-03-18,7500.0
SDC,2011-03-21,7500.0
SDC,2011-03-22,7500.0
SDC,2011-03-23,8000.0
SDC,2011-03-24,8000.0
SDC,2011-03-25,8000.0
SDC,2011-03-28,8000.0
SDC,2011-03-29,8600.0
SDC,2011-03-30,8600.0
SDC,2011-03-31,8600.0
SDC,2011-04-01,8000.0
SDC,2011-04-04,8000.0
SDC,2011-04-05,8000.0
SDC,2011-04-06,8100.0
SDC,2011-04-07,8300.0
SDC,2011-04-08,8100.0
SDC,2011-04-13,8100.0
SDC,2011-04-14,8100.0
SDC,2011-04-15,8100.0
SDC,2011-04-18,8100.0
SDC,2011-04-19,8100.0
SDC,2011-04-20,8100.0
SDC,2011-04-21,8200.0
SDC,2011-04-22,8100.0
SDC,2011-04-25,8100.0
SDC,2011-04-26,8100.0
SDC,2011-04-27,8100.0
SDC,2011-04-28,8100.0
SDC,2011-04-29,8100.0
SDC,2011-05-04,8700.0
SDC,2011-05-05,9300.0
SDC,2011-05-06,9300.0
SDC,2011-05-09,8700.0
SDC,2011-05-10,8200.0
SDC,2011-05-11,8100.0
SDC,2011-05-12,8100.0
SDC,2011-05-13,8700.0
SDC,2011-05-16,8600.0
SDC,2011-05-17,8400.0
SDC,2011-05-18,8300.0
SDC,2011-05-19,7800.0
SDC,2011-05-20,7300.0
SDC,2011-05-23,6900.0
SDC,2011-05-24,6900.0
SDC,2011-05-25,6900.0
SDC,2011-05-26,6900.0
SDC,2011-05-27,6900.0
SDC,2011-05-30,6900.0
SDC,2011-05-31,6900.0
SDC,2011-06-01,7300.0
SDC,2011-06-02,6900.0
SDC,2011-06-03,6900.0
SDC,2011-06-06,6800.0
SDC,2011-06-07,6800.0
SDC,2011-06-08,6800.0
SDC,2011-06-09,6800.0
SDC,2011-06-10,7300.0
SDC,2011-06-13,7800.0
SDC,2011-06-14,7800.0
SDC,2011-06-15,7800.0
SDC,2011-06-16,8200.0
SDC,2011-06-17,7700.0
SDC,2011-06-20,7700.0
SDC,2011-06-21,7700.0
SDC,2011-06-22,7700.0
SDC,2011-06-23,7200.0
SDC,2011-06-24,7600.0
SDC,2011-06-27,7500.0
SDC,2011-06-28,7600.0
SDC,2011-06-29,7600.0
SDC,2011-06-30,7600.0
SDC,2011-07-01,7300.0
SDC,2011-07-04,7200.0
SDC,2011-07-05,7300.0
SDC,2011-07-06,7300.0
SDC,2011-07-07,7300.0
SDC,2011-07-08,7300.0
SDC,2011-07-11,7300.0
SDC,2011-07-12,7300.0
SDC,2011-07-13,7300.0
SDC,2011-07-14,7700.0
SDC,2011-07-15,8100.0
SDC,2011-07-18,8100.0
SDC,2011-07-19,8100.0
SDC,2011-07-20,8100.0
SDC,2011-07-21,8600.0
SDC,2011-07-22,8600.0
SDC,2011-07-25,8600.0
SDC,2011-07-26,8000.0
SDC,2011-07-27,7500.0
SDC,2011-07-28,7500.0
SDC,2011-07-29,7500.0
SDC,2011-08-01,7400.0
SDC,2011-08-02,7400.0
SDC,2011-08-03,7400.0
SDC,2011-08-04,7100.0
SDC,2011-08-05,7100.0
SDC,2011-08-08,7100.0
SDC,2011-08-09,7100.0
SDC,2011-08-10,7100.0
SDC,2011-08-11,7100.0
SDC,2011-08-12,7100.0
SDC,2011-08-15,7100.0
SDC,2011-08-16,7100.0
SDC,2011-08-17,7100.0
SDC,2011-08-18,7100.0
SDC,2011-08-19,6700.0
SDC,2011-08-22,7100.0
SDC,2011-08-23,7100.0
SDC,2011-08-24,7100.0
SDC,2011-08-25,7600.0
SDC,2011-08-26,8000.0
SDC,2011-08-29,8000.0
SDC,2011-08-30,8000.0
SDC,2011-08-31,8500.0
SDC,2011-09-01,9000.0
SDC,2011-09-05,9000.0
SDC,2011-09-06,9000.0
SDC,2011-09-07,9000.0
SDC,2011-09-08,9500.0
SDC,2011-09-09,8500.0
SDC,2011-09-12,9400.0
SDC,2011-09-13,9500.0
SDC,2011-09-14,9500.0
SDC,2011-09-15,8900.0
SDC,2011-09-16,8900.0
SDC,2011-09-19,8900.0
SDC,2011-09-20,8900.0
SDC,2011-09-21,8900.0
SDC,2011-09-22,8900.0
SDC,2011-09-23,9000.0
SDC,2011-09-26,9000.0
SDC,2011-09-27,9000.0
SDC,2011-09-28,9400.0
SDC,2011-09-29,9400.0
SDC,2011-09-30,9400.0
SDC,2011-10-03,8800.0
SDC,2011-10-04,8800.0
SDC,2011-10-05,8800.0
SDC,2011-10-06,8800.0
SDC,2011-10-07,8300.0
SDC,2011-10-10,8300.0
SDC,2011-10-11,8300.0
SDC,2011-10-12,8300.0
SDC,2011-10-13,8300.0
SDC,2011-10-14,8300.0
SDC,2011-10-17,8300.0
SDC,2011-10-18,7700.0
SDC,2011-10-19,7700.0
SDC,2011-10-20,7700.0
SDC,2011-10-21,7700.0
SDC,2011-10-24,7700.0
SDC,2011-10-25,7700.0
SDC,2011-10-26,7700.0
SDC,2011-10-27,7700.0
SDC,2011-10-28,7700.0
SDC,2011-10-31,7700.0
SDC,2011-11-01,7700.0
SDC,2011-11-02,7700.0
SDC,2011-11-03,7700.0
SDC,2011-11-04,7700.0
SDC,2011-11-07,7700.0
SDC,2011-11-08,7700.0
SDC,2011-11-09,7700.0
SDC,2011-11-10,7600.0
SDC,2011-11-11,6900.0
SDC,2011-11-14,6500.0
SDC,2011-11-15,6500.0
SDC,2011-11-16,6500.0
SDC,2011-11-17,6500.0
SDC,2011-11-18,6500.0
SDC,2011-11-21,6500.0
SDC,2011-11-22,6500.0
SDC,2011-11-23,6900.0
SDC,2011-11-24,6900.0
SDC,2011-11-25,7400.0
SDC,2011-11-28,7200.0
SDC,2011-11-29,7700.0
SDC,2011-11-30,7200.0
SDC,2011-12-01,7200.0
SDC,2011-12-02,7200.0
SDC,2011-12-05,7200.0
SDC,2011-12-06,7700.0
SDC,2011-12-07,6800.0
SDC,2011-12-08,6800.0
SDC,2011-12-09,7200.0
SDC,2011-12-12,7200.0
SDC,2011-12-13,6700.0
SDC,2011-12-14,7100.0
SDC,2011-12-15,6800.0
SDC,2011-12-16,6800.0
SDC,2011-12-19,6800.0
SDC,2011-12-20,6800.0
SDC,2011-12-21,6800.0
SDC,2011-12-22,7200.0
SDC,2011-12-23,6800.0
SDC,2011-12-26,6800.0
SDC,2011-12-27,6400.0
SDC,2011-12-28,6400.0
SDC,2011-12-29,6400.0
SDC,2011-12-30,6400.0
SDC,2012-01-03,6400.0
SDC,2012-01-04,6400.0
SDC,2012-01-05,6200.0
SDC,2012-01-06,6200.0
SDC,2012-01-09,6200.0
SDC,2012-01-10,6200.0
SDC,2012-01-11,6200.0
SDC,2012-01-12,6200.0
SDC,2012-01-13,5800.0
SDC,2012-01-16,5800.0
SDC,2012-01-17,5800.0
SDC,2012-01-18,5800.0
SDC,2012-01-19,5800.0
SDC,2012-01-20,5800.0
SDC,2012-01-30,5800.0
SDC,2012-01-31,5800.0
SDC,2012-02-01,6200.0
SDC,2012-02-02,6200.0
SDC,2012-02-03,5800.0
SDC,2012-02-06,5900.0
SDC,2012-02-07,5900.0
SDC,2012-02-08,5900.0
SDC,2012-02-09,5900.0
SDC,2012-02-10,5900.0
SDC,2012-02-13,5900.0
SDC,2012-02-14,5900.0
SDC,2012-02-15,5900.0
SDC,2012-02-16,5500.0
SDC,2012-02-17,5500.0
SDC,2012-02-20,5800.0
SDC,2012-02-21,6200.0
SDC,2012-02-22,6200.0
SDC,2012-02-23,6200.0
SDC,2012-02-24,6600.0
SDC,2012-02-27,7000.0
SDC,2012-02-28,7000.0
SDC,2012-02-29,7400.0
SDC,2012-03-01,7400.0
SDC,2012-03-02,7900.0
SDC,2012-03-05,7800.0
SDC,2012-03-06,7300.0
SDC,2012-03-07,7800.0
SDC,2012-03-08,7300.0
SDC,2012-03-09,6800.0
SDC,2012-03-12,6400.0
SDC,2012-03-13,6400.0
SDC,2012-03-14,6400.0
SDC,2012-03-15,6400.0
SDC,2012-03-16,6800.0
SDC,2012-03-19,6500.0
SDC,2012-03-20,6500.0
SDC,2012-03-21,6100.0
SDC,2012-03-22,6500.0
SDC,2012-03-23,5700.0
SDC,2012-03-26,6100.0
SDC,2012-03-27,6500.0
SDC,2012-03-28,6100.0
SDC,2012-03-29,6400.0
SDC,2012-03-30,6400.0
SDC,2012-04-03,6400.0
SDC,2012-04-04,6000.0
SDC,2012-04-05,6300.0
SDC,2012-04-06,6200.0
SDC,2012-04-09,6200.0
SDC,2012-04-10,6200.0
SDC,2012-04-11,6400.0
SDC,2012-04-12,6600.0
SDC,2012-04-13,6600.0
SDC,2012-04-16,6600.0
SDC,2012-04-17,6600.0
SDC,2012-04-18,7000.0
SDC,2012-04-19,7400.0
SDC,2012-04-20,7000.0
SDC,2012-04-23,7400.0
SDC,2012-04-24,7400.0
SDC,2012-04-25,7900.0
SDC,2012-04-26,7400.0
SDC,2012-04-27,7400.0
SDC,2012-05-02,7000.0
SDC,2012-05-03,7400.0
SDC,2012-05-04,7900.0
SDC,2012-05-07,7900.0
SDC,2012-05-08,8100.0
SDC,2012-05-09,8500.0
SDC,2012-05-10,7900.0
SDC,2012-05-11,7400.0
SDC,2012-05-14,7400.0
SDC,2012-05-15,6900.0
SDC,2012-05-16,6900.0
SDC,2012-05-17,6900.0
SDC,2012-05-18,6400.0
SDC,2012-05-21,6400.0
SDC,2012-05-22,6400.0
SDC,2012-05-23,6400.0
SDC,2012-05-24,6400.0
SDC,2012-05-25,6400.0
SDC,2012-05-28,6600.0
SDC,2012-05-29,6600.0
SDC,2012-05-30,6400.0
SDC,2012-05-31,6400.0
SDC,2012-06-01,6400.0
SDC,2012-06-04,6400.0
SDC,2012-06-05,6400.0
SDC,2012-06-06,6400.0
SDC,2012-06-07,6400.0
SDC,2012-06-08,6400.0
SDC,2012-06-11,6400.0
SDC,2012-06-12,6400.0
SDC,2012-06-13,6400.0
SDC,2012-06-14,6400.0
SDC,2012-06-15,6400.0
SDC,2012-06-18,6400.0
SDC,2012-06-19,6400.0
SDC,2012-06-20,6800.0
SDC,2012-06-21,6800.0
SDC,2012-06-22,6800.0
SDC,2012-06-25,6800.0
SDC,2012-06-26,6800.0
SDC,2012-06-27,6800.0
SDC,2012-06-28,6800.0
SDC,2012-06-29,6800.0
SDC,2012-07-02,6800.0
SDC,2012-07-03,6800.0
SDC,2012-07-04,6800.0
SDC,2012-07-05,7300.0
SDC,2012-07-06,7800.0
SDC,2012-07-09,8100.0
SDC,2012-07-10,8100.0
SDC,2012-07-11,8100.0
SDC,2012-07-12,8700.0
SDC,2012-07-13,9200.0
SDC,2012-07-16,9200.0
SDC,2012-07-17,9200.0
SDC,2012-07-18,9200.0
SDC,2012-07-19,9200.0
SDC,2012-07-20,9200.0
SDC,2012-07-23,9200.0
SDC,2012-07-24,9200.0
SDC,2012-07-25,9200.0
SDC,2012-07-26,9200.0
SDC,2012-07-27,9200.0
SDC,2012-07-30,9200.0
SDC,2012-07-31,9200.0
SDC,2012-08-01,9200.0
SDC,2012-08-02,9200.0
SDC,2012-08-03,9200.0
SDC,2012-08-06,9200.0
SDC,2012-08-07,9200.0
SDC,2012-08-08,9200.0
SDC,2012-08-09,8600.0
SDC,2012-08-10,8100.0
SDC,2012-08-13,7500.0
SDC,2012-08-14,7000.0
SDC,2012-08-15,7000.0
SDC,2012-08-16,6800.0
SDC,2012-08-17,6400.0
SDC,2012-08-20,5900.0
SDC,2012-08-21,5500.0
SDC,2012-08-22,5200.0
SDC,2012-08-23,5200.0
SDC,2012-08-24,4900.0
SDC,2012-08-27,4900.0
SDC,2012-08-28,4900.0
SDC,2012-08-29,4600.0
SDC,2012-08-30,4600.0
SDC,2012-08-31,4600.0
SDC,2012-09-04,4600.0
SDC,2012-09-05,4600.0
SDC,2012-09-06,4600.0
SDC,2012-09-07,4300.0
SDC,2012-09-10,4300.0
SDC,2012-09-11,4300.0
SDC,2012-09-12,4600.0
SDC,2012-09-13,4600.0
SDC,2012-09-14,4600.0
SDC,2012-09-17,4600.0
SDC,2012-09-18,4600.0
SDC,2012-09-19,4600.0
SDC,2012-09-20,4900.0
SDC,2012-09-21,4900.0
SDC,2012-09-24,5100.0
SDC,2012-09-25,5100.0
SDC,2012-09-26,5100.0
SDC,2012-09-27,5100.0
SDC,2012-09-28,5100.0
SDC,2012-10-01,5500.0
SDC,2012-10-02,5100.0
SDC,2012-10-03,5100.0
SDC,2012-10-04,5100.0
SDC,2012-10-05,5100.0
SDC,2012-10-08,5100.0
SDC,2012-10-09,5100.0
SDC,2012-10-10,5100.0
SDC,2012-10-11,5100.0
SDC,2012-10-12,5100.0
SDC,2012-10-15,5100.0
SDC,2012-10-16,5100.0
SDC,2012-10-17,5100.0
SDC,2012-10-18,5100.0
SDC,2012-10-19,5100.0
SDC,2012-10-22,5100.0
SDC,2012-10-23,5100.0
SDC,2012-10-24,5100.0
SDC,2012-10-25,5100.0
SDC,2012-10-26,5100.0
SDC,2012-10-29,5100.0
SDC,2012-10-30,5100.0
SDC,2012-10-31,5100.0
SDC,2012-11-01,5100.0
SDC,2012-11-02,5100.0
SDC,2012-11-05,5100.0
SDC,2012-11-06,5100.0
SDC,2012-11-07,5100.0
SDC,2012-11-08,5100.0
SDC,2012-11-09,5100.0
SDC,2012-11-12,5100.0
SDC,2012-11-13,5100.0
SDC,2012-11-14,5100.0
SDC,2012-11-15,5100.0
SDC,2012-11-16,5100.0
SDC,2012-11-19,5100.0
SDC,2012-11-20,5100.0
SDC,2012-11-21,5100.0
SDC,2012-11-22,5100.0
SDC,2012-11-23,5100.0
SDC,2012-11-26,5100.0
SDC,2012-11-27,5100.0
SDC,2012-11-28,5100.0
SDC,2012-11-29,5100.0
SDC,2012-11-30,5100.0
SDC,2012-12-03,5100.0
SDC,2012-12-04,5100.0
SDC,2012-12-05,5100.0
SDC,2012-12-06,5100.0
SDC,2012-12-07,5100.0
SDC,2012-12-10,5100.0
SDC,2012-12-11,5100.0
SDC,2012-12-12,5100.0
SDC,2012-12-13,5100.0
SDC,2012-12-14,5100.0
SDC,2012-12-17,5100.0
SDC,2012-12-18,5100.0
SDC,2012-12-19,5100.0
SDC,2012-12-20,5100.0
SDC,2012-12-21,5100.0
SDC,2012-12-24,5100.0
SDC,2012-12-25,5100.0
SDC,2012-12-26,5100.0
SDC,2012-12-27,5100.0
SDC,2012-12-28,5100.0
SDC,2013-01-02,5100.0
SDC,2013-01-03,5100.0
SDC,2013-01-04,5100.0
SDC,2013-01-07,5100.0
SDC,2013-01-08,5100.0
SDC,2013-01-09,5100.0
SDC,2013-01-10,5100.0
SDC,2013-01-11,5100.0
SDC,2013-01-14,4800.0
SDC,2013-01-15,4700.0
SDC,2013-01-16,4400.0
SDC,2013-01-17,4400.0
SDC,2013-01-18,4400.0
SDC,2013-01-21,4400.0
SDC,2013-01-22,4400.0
SDC,2013-01-23,4400.0
SDC,2013-01-24,4400.0
SDC,2013-01-25,4800.0
SDC,2013-01-28,4800.0
SDC,2013-01-29,4800.0
SDC,2013-01-30,4800.0
SDC,2013-01-31,4800.0
SDC,2013-02-01,4800.0
SDC,2013-02-04,4400.0
SDC,2013-02-05,4400.0
SDC,2013-02-06,4400.0
SDC,2013-02-07,4400.0
SDC,2013-02-08,4400.0
SDC,2013-02-18,4400.0
SDC,2013-02-19,4400.0
SDC,2013-02-20,4400.0
SDC,2013-02-21,4400.0
SDC,2013-02-22,4400.0
SDC,2013-02-25,4400.0
SDC,2013-02-26,4400.0
SDC,2013-02-27,4400.0
SDC,2013-02-28,4400.0
SDC,2013-03-01,4400.0
SDC,2013-03-04,4400.0
SDC,2013-03-05,4400.0
SDC,2013-03-06,4400.0
SDC,2013-03-07,4400.0
SDC,2013-03-08,4400.0
SDC,2013-03-11,4400.0
SDC,2013-03-12,4400.0
SDC,2013-03-13,4400.0
SDC,2013-03-14,4400.0
SDC,2013-03-15,4400.0
SDC,2013-03-18,4400.0
SDC,2013-03-19,4400.0
SDC,2013-03-20,4400.0
SDC,2013-03-21,4400.0
SDC,2013-03-22,4400.0
SDC,2013-03-25,4400.0
SDC,2013-03-26,4400.0
SDC,2013-03-27,4400.0
SDC,2013-03-28,4400.0
SDC,2013-03-29,4400.0
SDC,2013-04-01,4400.0
SDC,2013-04-02,4400.0
SDC,2013-04-03,4000.0
SDC,2013-04-04,4000.0
SDC,2013-04-05,4000.0
SDC,2013-04-08,4100.0
SDC,2013-04-09,4100.0
SDC,2013-04-10,4100.0
SDC,2013-04-11,4100.0
SDC,2013-04-12,4100.0
SDC,2013-04-15,4100.0
SDC,2013-04-16,4100.0
SDC,2013-04-17,4000.0
SDC,2013-04-18,4100.0
SDC,2013-04-22,4100.0
SDC,2013-04-23,4100.0
SDC,2013-04-24,4100.0
SDC,2013-04-25,4100.0
SDC,2013-04-26,4100.0
SDC,2013-05-02,4100.0
SDC,2013-05-03,4200.0
SDC,2013-05-06,4200.0
SDC,2013-05-07,4200.0
SDC,2013-05-08,4200.0
SDC,2013-05-09,4200.0
SDC,2013-05-10,4200.0
SDC,2013-05-13,4200.0
SDC,2013-05-14,4200.0
SDC,2013-05-15,4200.0
SDC,2013-05-16,4200.0
SDC,2013-05-17,4200.0
SDC,2013-05-20,4200.0
SDC,2013-05-21,4200.0
SDC,2013-05-22,4200.0
SDC,2013-05-23,4400.0
SDC,2013-05-24,4400.0
SDC,2013-05-27,4400.0
SDC,2013-05-28,4400.0
SDC,2013-05-29,4400.0
SDC,2013-05-30,4400.0
SDC,2013-05-31,4400.0
SDC,2013-06-03,4400.0
SDC,2013-06-04,4400.0
SDC,2013-06-05,4400.0
SDC,2013-06-06,4400.0
SDC,2013-06-07,4400.0
SDC,2013-06-10,4400.0
SDC,2013-06-11,4400.0
SDC,2013-06-12,4400.0
SDC,2013-06-13,4400.0
SDC,2013-06-14,4900.0
SDC,2013-06-17,4900.0
SDC,2013-06-18,5300.0
SDC,2013-06-19,5300.0
SDC,2013-06-20,5800.0
SDC,2013-06-21,6400.0
SDC,2013-06-24,7000.0
SDC,2013-06-25,6300.0
SDC,2013-06-26,5700.0
SDC,2013-06-27,5700.0
SDC,2013-06-28,5600.0
SDC,2013-07-01,5600.0
SDC,2013-07-02,5600.0
SDC,2013-07-03,5600.0
SDC,2013-07-04,5600.0
SDC,2013-07-05,5600.0
SDC,2013-07-08,5600.0
SDC,2013-07-09,5600.0
SDC,2013-07-10,5600.0
SDC,2013-07-11,6200.0
SDC,2013-07-12,6200.0
SDC,2013-07-15,6200.0
SDC,2013-07-16,6200.0
SDC,2013-07-17,6200.0
SDC,2013-07-18,6200.0
SDC,2013-07-19,6200.0
SDC,2013-07-22,6200.0
SDC,2013-07-23,6200.0
SDC,2013-07-24,6200.0
SDC,2013-07-25,6200.0
SDC,2013-07-26,6200.0
SDC,2013-07-29,6200.0
SDC,2013-07-30,6200.0
SDC,2013-07-31,6200.0
SDC,2013-08-01,6200.0
SDC,2013-08-02,6200.0
SDC,2013-08-05,6200.0
SDC,2013-08-06,6200.0
SDC,2013-08-07,6900.0
SDC,2013-08-08,6900.0
SDC,2013-08-09,6900.0
SDC,2013-08-12,6900.0
SDC,2013-08-13,6900.0
SDC,2013-08-14,6900.0
SDC,2013-08-15,6900.0
SDC,2013-08-16,6900.0
SDC,2013-08-19,6900.0
SDC,2013-08-20,6900.0
SDC,2013-08-21,6900.0
SDC,2013-08-22,6200.0
SDC,2013-08-23,6100.0
SDC,2013-08-26,6100.0
SDC,2013-08-27,6100.0
SDC,2013-08-28,6100.0
SDC,2013-08-29,6100.0
SDC,2013-08-30,6100.0
SDC,2013-09-03,6100.0
SDC,2013-09-04,6100.0
SDC,2013-09-05,6100.0
SDC,2013-09-06,6100.0
SDC,2013-09-09,6100.0
SDC,2013-09-10,6100.0
SDC,2013-09-11,6100.0
SDC,2013-09-12,6100.0
SDC,2013-09-13,6100.0
SDC,2013-09-16,6100.0
SDC,2013-09-17,6100.0
SDC,2013-09-18,6100.0
SDC,2013-09-19,6100.0
SDC,2013-09-20,6100.0
SDC,2013-09-23,6100.0
SDC,2013-09-24,6100.0
SDC,2013-09-25,5500.0
SDC,2013-09-26,5500.0
SDC,2013-09-27,5600.0
SDC,2013-09-30,5600.0
SDC,2013-10-01,5600.0
SDC,2013-10-02,5600.0
SDC,2013-10-03,5600.0
SDC,2013-10-04,5600.0
SDC,2013-10-07,5600.0
SDC,2013-10-08,5600.0
SDC,2013-10-09,5600.0
SDC,2013-10-10,5600.0
SDC,2013-10-11,5600.0
SDC,2013-10-14,5600.0
SDC,2013-10-15,5600.0
SDC,2013-10-16,5600.0
SDC,2013-10-17,5200.0
SDC,2013-10-18,5200.0
SDC,2013-10-21,4800.0
SDC,2013-10-22,4800.0
SDC,2013-10-23,4400.0
SDC,2013-10-24,4400.0
SDC,2013-10-25,4400.0
SDC,2013-10-28,4400.0
SDC,2013-10-29,4800.0
SDC,2013-10-30,5300.0
SDC,2013-10-31,5800.0
SDC,2013-11-01,5800.0
SDC,2013-11-04,5800.0
SDC,2013-11-05,6300.0
SDC,2013-11-06,6300.0
SDC,2013-11-07,6300.0
SDC,2013-11-08,5800.0
SDC,2013-11-11,5800.0
SDC,2013-11-12,5800.0
SDC,2013-11-13,5800.0
SDC,2013-11-14,5800.0
SDC,2013-11-15,6100.0
SDC,2013-11-18,6100.0
SDC,2013-11-19,6700.0
SDC,2013-11-20,6700.0
SDC,2013-11-21,7100.0
SDC,2013-11-22,7100.0
SDC,2013-11-25,6400.0
SDC,2013-11-26,7000.0
SDC,2013-11-27,6300.0
SDC,2013-11-28,6300.0
SDC,2013-11-29,6300.0
SDC,2013-12-02,5800.0
SDC,2013-12-03,5800.0
SDC,2013-12-04,5400.0
SDC,2013-12-05,5400.0
SDC,2013-12-06,5400.0
SDC,2013-12-09,5400.0
SDC,2013-12-10,5400.0
SDC,2013-12-11,5400.0
SDC,2013-12-12,5400.0
SDC,2013-12-13,5400.0
SDC,2013-12-16,5900.0
SDC,2013-12-17,6400.0
SDC,2013-12-18,6400.0
SDC,2013-12-19,6400.0
SDC,2013-12-20,6400.0
SDC,2013-12-23,6400.0
SDC,2013-12-24,6400.0
SDC,2013-12-25,6400.0
SDC,2013-12-26,6400.0
SDC,2013-12-27,6400.0
SDC,2013-12-30,6400.0
SDC,2013-12-31,6400.0
SDC,2014-01-02,6400.0
SDC,2014-01-03,6400.0
SDC,2014-01-06,6400.0
SDC,2014-01-07,6400.0
SDC,2014-01-08,6400.0
SDC,2014-01-09,6400.0
SDC,2014-01-10,6400.0
SDC,2014-01-13,6400.0
SDC,2014-01-14,6400.0
SDC,2014-01-15,6400.0
SDC,2014-01-16,6400.0
SDC,2014-01-17,6400.0
SDC,2014-01-20,6400.0
SDC,2014-01-21,7000.0
SDC,2014-01-22,7700.0
SDC,2014-01-23,8400.0
SDC,2014-01-24,8400.0
SDC,2014-01-27,8400.0
SDC,2014-02-06,8400.0
SDC,2014-02-07,8400.0
SDC,2014-02-10,8400.0
SDC,2014-02-11,8400.0
SDC,2014-02-12,8400.0
SDC,2014-02-13,8400.0
SDC,2014-02-14,8400.0
SDC,2014-02-17,8400.0
SDC,2014-02-18,8400.0
SDC,2014-02-19,8400.0
SDC,2014-02-20,8400.0
SDC,2014-02-21,8400.0
SDC,2014-02-24,8400.0
SDC,2014-02-25,8400.0
SDC,2014-02-26,9000.0
SDC,2014-02-27,8400.0
SDC,2014-02-28,9200.0
SDC,2014-03-03,10100.0
SDC,2014-03-04,10500.0
SDC,2014-03-05,11500.0
SDC,2014-03-06,11500.0
SDC,2014-03-07,12600.0
SDC,2014-03-10,12600.0
SDC,2014-03-11,12000.0
SDC,2014-03-12,12000.0
SDC,2014-03-13,12000.0
SDC,2014-03-14,12000.0
SDC,2014-03-17,12000.0
SDC,2014-03-18,12000.0
SDC,2014-03-19,12000.0
SDC,2014-03-20,12000.0
SDC,2014-03-21,12000.0
SDC,2014-03-24,12000.0
SDC,2014-03-25,12000.0
SDC,2014-03-26,11000.0
SDC,2014-03-27,10800.0
SDC,2014-03-28,10800.0
SDC,2014-03-31,11500.0
SDC,2014-04-01,10600.0
SDC,2014-04-02,10600.0
SDC,2014-04-03,10600.0
SDC,2014-04-04,10600.0
SDC,2014-04-07,10600.0
SDC,2014-04-08,10600.0
SDC,2014-04-10,10600.0
SDC,2014-04-11,10200.0
SDC,2014-04-14,10200.0
SDC,2014-04-15,10200.0
SDC,2014-04-16,10200.0
SDC,2014-04-17,11200.0
SDC,2014-04-18,11200.0
SDC,2014-04-21,11200.0
SDC,2014-04-22,11200.0
SDC,2014-04-23,11200.0
SDC,2014-04-24,11200.0
SDC,2014-04-25,11200.0
SDC,2014-04-28,12300.0
SDC,2014-04-29,12300.0
SDC,2014-05-05,12300.0
SDC,2014-05-06,12300.0
SDC,2014-05-07,12300.0
SDC,2014-05-08,12300.0
SDC,2014-05-09,12300.0
SDC,2014-05-12,11100.0
SDC,2014-05-13,10000.0
SDC,2014-05-14,10000.0
SDC,2014-05-15,10000.0
SDC,2014-05-16,10000.0
SDC,2014-05-19,10000.0
SDC,2014-05-20,9000.0
SDC,2014-05-21,9000.0
