SDH,2009-10-19,16500.0
SDH,2009-10-20,17500.0
SDH,2009-10-21,18700.0
SDH,2009-10-22,20000.0
SDH,2009-10-23,21400.0
SDH,2009-10-26,22900.0
SDH,2009-10-27,24400.0
SDH,2009-10-28,24500.0
SDH,2009-10-29,26200.0
SDH,2009-10-30,27900.0
SDH,2009-11-02,29900.0
SDH,2009-11-03,28000.0
SDH,2009-11-04,29300.0
SDH,2009-11-05,30400.0
SDH,2009-11-06,31600.0
SDH,2009-11-09,29800.0
SDH,2009-11-10,27900.0
SDH,2009-11-11,30300.0
SDH,2009-11-12,30000.0
SDH,2009-11-13,28200.0
SDH,2009-11-16,28700.0
SDH,2009-11-17,27400.0
SDH,2009-11-18,26200.0
SDH,2009-11-19,25500.0
SDH,2009-11-20,24900.0
SDH,2009-11-23,23800.0
SDH,2009-11-24,22900.0
SDH,2009-11-25,21500.0
SDH,2009-11-26,20200.0
SDH,2009-11-27,18800.0
SDH,2009-11-30,20200.0
SDH,2009-12-01,21000.0
SDH,2009-12-02,21700.0
SDH,2009-12-03,22100.0
SDH,2009-12-04,21800.0
SDH,2009-12-07,20900.0
SDH,2009-12-08,20200.0
SDH,2009-12-09,18800.0
SDH,2009-12-10,17500.0
SDH,2009-12-11,16800.0
SDH,2009-12-14,17500.0
SDH,2009-12-15,16100.0
SDH,2009-12-16,15300.0
SDH,2009-12-17,14500.0
SDH,2009-12-18,15300.0
SDH,2009-12-21,16100.0
SDH,2009-12-22,16000.0
SDH,2009-12-23,16400.0
SDH,2009-12-24,17100.0
SDH,2009-12-25,17500.0
SDH,2009-12-28,18800.0
SDH,2009-12-29,20000.0
SDH,2009-12-30,21200.0
SDH,2009-12-31,22500.0
SDH,2010-01-04,24000.0
SDH,2010-01-05,25700.0
SDH,2010-01-06,26800.0
SDH,2010-01-07,25400.0
SDH,2010-01-08,25000.0
SDH,2010-01-11,27300.0
SDH,2010-01-12,26900.0
SDH,2010-01-13,27800.0
SDH,2010-01-14,27800.0
SDH,2010-01-15,26700.0
SDH,2010-01-18,25000.0
SDH,2010-01-19,24500.0
SDH,2010-01-20,23300.0
SDH,2010-01-21,22800.0
SDH,2010-01-22,22800.0
SDH,2010-01-25,22800.0
SDH,2010-01-26,24100.0
SDH,2010-01-27,22400.0
SDH,2010-01-28,21900.0
SDH,2010-01-29,22800.0
SDH,2010-02-01,23300.0
SDH,2010-02-02,23200.0
SDH,2010-02-03,23600.0
SDH,2010-02-04,23700.0
SDH,2010-02-05,23300.0
SDH,2010-02-08,23800.0
SDH,2010-02-09,22200.0
SDH,2010-02-10,22500.0
SDH,2010-02-11,23200.0
SDH,2010-02-12,23600.0
SDH,2010-02-22,23600.0
SDH,2010-02-23,22600.0
SDH,2010-02-24,22800.0
SDH,2010-02-25,22800.0
SDH,2010-02-26,22900.0
SDH,2010-03-01,23300.0
SDH,2010-03-02,24000.0
SDH,2010-03-03,24500.0
SDH,2010-03-04,25800.0
SDH,2010-03-05,27700.0
SDH,2010-03-08,29400.0
SDH,2010-03-09,28500.0
SDH,2010-03-10,27700.0
SDH,2010-03-11,27800.0
SDH,2010-03-12,28500.0
SDH,2010-03-15,28500.0
SDH,2010-03-16,27100.0
SDH,2010-03-17,27100.0
SDH,2010-03-18,27600.0
SDH,2010-03-19,27000.0
SDH,2010-03-22,26500.0
SDH,2010-03-23,26200.0
SDH,2010-03-24,26600.0
SDH,2010-03-25,25800.0
SDH,2010-03-26,26800.0
SDH,2010-03-29,27700.0
SDH,2010-03-30,27300.0
SDH,2010-03-31,26300.0
SDH,2010-04-01,26800.0
SDH,2010-04-02,26200.0
SDH,2010-04-05,26100.0
SDH,2010-04-06,26200.0
SDH,2010-04-07,26100.0
SDH,2010-04-08,26500.0
SDH,2010-04-09,28300.0
SDH,2010-04-12,30200.0
SDH,2010-04-13,32300.0
SDH,2010-04-14,34500.0
SDH,2010-04-15,36600.0
SDH,2010-04-16,39100.0
SDH,2010-04-19,38400.0
SDH,2010-04-20,37600.0
SDH,2010-04-21,40300.0
SDH,2010-04-22,42200.0
SDH,2010-04-26,43900.0
SDH,2010-04-27,46900.0
SDH,2010-04-28,49000.0
SDH,2010-04-29,52100.0
SDH,2010-05-04,55600.0
SDH,2010-05-05,55900.0
SDH,2010-05-06,61000.0
SDH,2010-05-07,56800.0
SDH,2010-05-10,53100.0
SDH,2010-05-11,49600.0
SDH,2010-05-12,46600.0
SDH,2010-05-13,45600.0
SDH,2010-05-14,47000.0
SDH,2010-05-17,50100.0
SDH,2010-05-18,48100.0
SDH,2010-05-19,45300.0
SDH,2010-05-20,43900.0
SDH,2010-05-21,39900.0
SDH,2010-05-24,38000.0
SDH,2010-05-25,38200.0
SDH,2010-05-26,41800.0
SDH,2010-05-27,43200.0
SDH,2010-05-28,45800.0
SDH,2010-05-31,43600.0
SDH,2010-06-01,42200.0
SDH,2010-06-02,42700.0
SDH,2010-06-03,42300.0
SDH,2010-06-04,41300.0
SDH,2010-06-07,38900.0
SDH,2010-06-08,40400.0
SDH,2010-06-09,42200.0
SDH,2010-06-10,42200.0
SDH,2010-06-11,42000.0
SDH,2010-06-14,42000.0
SDH,2010-06-15,41900.0
SDH,2010-06-16,43200.0
SDH,2010-06-17,43000.0
SDH,2010-06-18,42900.0
SDH,2010-06-21,43300.0
SDH,2010-06-22,41900.0
SDH,2010-06-23,41900.0
SDH,2010-06-24,42500.0
SDH,2010-06-25,41700.0
SDH,2010-06-28,41900.0
SDH,2010-06-29,41100.0
SDH,2010-06-30,40500.0
SDH,2010-07-01,40800.0
SDH,2010-07-02,41500.0
SDH,2010-07-05,41400.0
SDH,2010-07-06,40100.0
SDH,2010-07-07,39300.0
SDH,2010-07-08,39600.0
SDH,2010-07-09,39500.0
SDH,2010-07-12,40100.0
SDH,2010-07-13,42800.0
SDH,2010-07-14,45000.0
SDH,2010-07-15,43600.0
SDH,2010-07-16,42700.0
SDH,2010-07-19,42900.0
SDH,2010-07-20,42800.0
SDH,2010-07-21,42000.0
SDH,2010-07-22,41000.0
SDH,2010-07-23,43700.0
SDH,2010-07-26,42500.0
SDH,2010-07-27,42500.0
SDH,2010-07-28,41500.0
SDH,2010-07-29,42000.0
SDH,2010-07-30,42100.0
SDH,2010-08-02,40500.0
SDH,2010-08-03,41000.0
SDH,2010-08-04,39800.0
SDH,2010-08-05,39600.0
SDH,2010-08-06,39300.0
SDH,2010-08-09,36400.0
SDH,2010-08-10,34400.0
SDH,2010-08-11,36600.0
SDH,2010-08-12,33700.0
SDH,2010-08-13,36300.0
SDH,2010-08-16,37900.0
SDH,2010-08-17,36500.0
SDH,2010-08-18,35300.0
SDH,2010-08-19,35300.0
SDH,2010-08-20,34900.0
SDH,2010-08-23,34000.0
SDH,2010-08-24,31700.0
SDH,2010-08-25,29500.0
SDH,2010-08-26,29000.0
SDH,2010-08-27,27600.0
SDH,2010-08-30,29600.0
SDH,2010-08-31,31600.0
SDH,2010-09-01,33500.0
SDH,2010-09-06,35700.0
SDH,2010-09-07,36500.0
SDH,2010-09-08,35200.0
SDH,2010-09-09,37200.0
SDH,2010-09-10,34800.0
SDH,2010-09-13,33700.0
SDH,2010-09-14,35000.0
SDH,2010-09-15,33000.0
SDH,2010-09-16,32000.0
SDH,2010-09-17,33700.0
SDH,2010-09-20,34400.0
SDH,2010-09-21,34200.0
SDH,2010-09-22,33700.0
SDH,2010-09-23,32000.0
SDH,2010-09-24,32000.0
SDH,2010-09-27,31100.0
SDH,2010-09-28,31100.0
SDH,2010-09-29,30700.0
SDH,2010-09-30,30400.0
SDH,2010-10-01,29700.0
SDH,2010-10-04,28100.0
SDH,2010-10-05,28100.0
SDH,2010-10-06,29200.0
SDH,2010-10-07,28800.0
SDH,2010-10-08,28400.0
SDH,2010-10-11,27500.0
SDH,2010-10-12,27000.0
SDH,2010-10-13,27700.0
SDH,2010-10-14,27600.0
SDH,2010-10-15,28800.0
SDH,2010-10-18,28500.0
SDH,2010-10-19,27700.0
SDH,2010-10-20,27100.0
SDH,2010-10-21,28000.0
SDH,2010-10-22,27000.0
SDH,2010-10-25,28000.0
SDH,2010-10-26,29100.0
SDH,2010-10-27,27300.0
SDH,2010-10-28,27000.0
SDH,2010-10-29,26800.0
SDH,2010-11-01,26300.0
SDH,2010-11-02,26100.0
SDH,2010-11-03,24400.0
SDH,2010-11-04,23100.0
SDH,2010-11-05,23600.0
SDH,2010-11-08,22900.0
SDH,2010-11-09,21700.0
SDH,2010-11-10,21600.0
SDH,2010-11-11,20600.0
SDH,2010-11-12,19500.0
SDH,2010-11-15,18200.0
SDH,2010-11-16,17100.0
SDH,2010-11-17,17300.0
SDH,2010-11-18,18200.0
SDH,2010-11-19,18600.0
SDH,2010-11-22,18000.0
SDH,2010-11-23,18200.0
SDH,2010-11-24,18400.0
SDH,2010-11-25,19500.0
SDH,2010-11-26,20700.0
SDH,2010-11-29,21800.0
SDH,2010-11-30,22600.0
SDH,2010-12-01,22900.0
SDH,2010-12-02,25200.0
SDH,2010-12-03,25800.0
SDH,2010-12-06,25900.0
SDH,2010-12-07,25100.0
SDH,2010-12-08,24200.0
SDH,2010-12-09,24700.0
SDH,2010-12-10,26000.0
SDH,2010-12-13,27700.0
SDH,2010-12-14,25800.0
SDH,2010-12-15,24600.0
SDH,2010-12-16,23600.0
SDH,2010-12-17,24400.0
SDH,2010-12-20,23300.0
SDH,2010-12-21,23100.0
SDH,2010-12-22,22800.0
SDH,2010-12-23,22500.0
SDH,2010-12-24,22100.0
SDH,2010-12-27,22800.0
SDH,2010-12-28,24200.0
SDH,2010-12-29,23600.0
SDH,2010-12-30,23400.0
SDH,2010-12-31,23400.0
SDH,2011-01-04,23700.0
SDH,2011-01-05,22800.0
SDH,2011-01-06,22900.0
SDH,2011-01-07,22700.0
SDH,2011-01-10,21400.0
SDH,2011-01-11,20600.0
SDH,2011-01-12,21800.0
SDH,2011-01-13,21500.0
SDH,2011-01-14,21800.0
SDH,2011-01-17,22100.0
SDH,2011-01-18,21400.0
SDH,2011-01-19,21700.0
SDH,2011-01-20,21400.0
SDH,2011-01-21,20800.0
SDH,2011-01-24,19800.0
SDH,2011-01-25,19000.0
SDH,2011-01-26,20400.0
SDH,2011-01-27,20900.0
SDH,2011-01-28,20800.0
SDH,2011-02-08,20800.0
SDH,2011-02-09,20800.0
SDH,2011-02-10,20500.0
SDH,2011-02-11,20600.0
SDH,2011-02-14,20200.0
SDH,2011-02-15,20100.0
SDH,2011-02-16,19500.0
SDH,2011-02-17,19000.0
SDH,2011-02-18,18400.0
SDH,2011-02-21,17200.0
SDH,2011-02-22,16700.0
SDH,2011-02-23,16000.0
SDH,2011-02-24,16900.0
SDH,2011-02-25,17700.0
SDH,2011-02-28,17100.0
SDH,2011-03-01,17000.0
SDH,2011-03-02,16000.0
SDH,2011-03-03,15200.0
SDH,2011-03-04,15700.0
SDH,2011-03-07,15500.0
SDH,2011-03-08,15000.0
SDH,2011-03-09,14400.0
SDH,2011-03-10,15500.0
SDH,2011-03-11,16100.0
SDH,2011-03-14,16400.0
SDH,2011-03-15,16200.0
SDH,2011-03-16,16700.0
SDH,2011-03-17,17500.0
SDH,2011-03-18,18400.0
SDH,2011-03-21,19100.0
SDH,2011-03-22,18500.0
SDH,2011-03-23,18600.0
SDH,2011-03-24,17900.0
SDH,2011-03-25,17200.0
SDH,2011-03-28,17600.0
SDH,2011-03-29,16800.0
SDH,2011-03-30,17500.0
SDH,2011-03-31,17700.0
SDH,2011-04-01,17000.0
SDH,2011-04-04,16700.0
SDH,2011-04-05,16600.0
SDH,2011-04-06,17300.0
SDH,2011-04-07,16600.0
SDH,2011-04-08,16500.0
SDH,2011-04-13,16100.0
SDH,2011-04-14,15700.0
SDH,2011-04-15,15900.0
SDH,2011-04-18,15800.0
SDH,2011-04-19,15300.0
SDH,2011-04-20,15400.0
SDH,2011-04-21,15100.0
SDH,2011-04-22,15200.0
SDH,2011-04-25,15800.0
SDH,2011-04-26,15600.0
SDH,2011-04-27,15800.0
SDH,2011-04-28,15200.0
SDH,2011-04-29,15800.0
SDH,2011-05-04,15600.0
SDH,2011-05-05,15300.0
SDH,2011-05-06,15600.0
SDH,2011-05-09,16100.0
SDH,2011-05-10,16100.0
SDH,2011-05-11,16100.0
SDH,2011-05-12,15800.0
SDH,2011-05-13,15800.0
SDH,2011-05-16,15300.0
SDH,2011-05-17,14900.0
SDH,2011-05-18,14700.0
SDH,2011-05-19,14800.0
SDH,2011-05-20,14500.0
SDH,2011-05-23,13900.0
SDH,2011-05-24,13300.0
SDH,2011-05-25,12600.0
SDH,2011-05-26,12300.0
SDH,2011-05-27,12600.0
SDH,2011-05-30,11600.0
SDH,2011-05-31,11100.0
SDH,2011-06-01,11900.0
SDH,2011-06-02,12500.0
SDH,2011-06-03,12500.0
SDH,2011-06-06,12200.0
SDH,2011-06-07,12900.0
SDH,2011-06-08,12700.0
SDH,2011-06-09,13800.0
SDH,2011-06-10,14500.0
SDH,2011-06-13,15500.0
SDH,2011-06-14,14400.0
SDH,2011-06-15,14000.0
SDH,2011-06-16,13600.0
SDH,2011-06-17,12700.0
SDH,2011-06-20,12500.0
SDH,2011-06-21,13600.0
SDH,2011-06-22,13500.0
SDH,2011-06-23,13100.0
SDH,2011-06-24,13200.0
SDH,2011-06-27,13100.0
SDH,2011-06-28,13000.0
SDH,2011-06-29,12800.0
SDH,2011-06-30,12500.0
SDH,2011-07-01,12000.0
SDH,2011-07-04,12400.0
SDH,2011-07-05,12800.0
SDH,2011-07-06,12500.0
SDH,2011-07-07,12200.0
SDH,2011-07-08,11900.0
SDH,2011-07-11,12000.0
SDH,2011-07-12,12200.0
SDH,2011-07-13,11800.0
SDH,2011-07-14,11500.0
SDH,2011-07-15,11200.0
SDH,2011-07-18,10800.0
SDH,2011-07-19,10300.0
SDH,2011-07-20,10700.0
SDH,2011-07-21,10300.0
SDH,2011-07-22,10100.0
SDH,2011-07-25,9700.0
SDH,2011-07-26,9700.0
SDH,2011-07-27,9500.0
SDH,2011-07-28,9300.0
SDH,2011-07-29,8900.0
SDH,2011-08-01,8400.0
SDH,2011-08-02,7900.0
SDH,2011-08-03,8200.0
SDH,2011-08-04,8400.0
SDH,2011-08-05,8900.0
SDH,2011-08-08,8700.0
SDH,2011-08-09,8400.0
SDH,2011-08-10,8900.0
SDH,2011-08-11,9100.0
SDH,2011-08-12,9000.0
SDH,2011-08-15,8900.0
SDH,2011-08-16,9100.0
SDH,2011-08-17,9700.0
SDH,2011-08-18,10000.0
SDH,2011-08-19,9900.0
SDH,2011-08-22,10700.0
SDH,2011-08-23,10900.0
SDH,2011-08-24,10600.0
SDH,2011-08-25,10600.0
SDH,2011-08-26,10500.0
SDH,2011-08-29,11300.0
SDH,2011-08-30,11800.0
SDH,2011-08-31,11900.0
SDH,2011-09-01,12400.0
SDH,2011-09-05,11500.0
SDH,2011-09-06,11100.0
SDH,2011-09-07,11800.0
SDH,2011-09-08,11900.0
SDH,2011-09-09,11900.0
SDH,2011-09-12,12800.0
SDH,2011-09-13,13400.0
SDH,2011-09-14,12700.0
SDH,2011-09-15,12500.0
SDH,2011-09-16,11900.0
SDH,2011-09-19,12200.0
SDH,2011-09-20,11600.0
SDH,2011-09-21,11700.0
SDH,2011-09-22,11900.0
SDH,2011-09-23,11700.0
SDH,2011-09-26,11600.0
SDH,2011-09-27,11400.0
SDH,2011-09-28,11400.0
SDH,2011-09-29,10800.0
SDH,2011-09-30,10300.0
SDH,2011-10-03,9800.0
SDH,2011-10-04,9800.0
SDH,2011-10-05,9600.0
SDH,2011-10-06,10200.0
SDH,2011-10-07,10600.0
SDH,2011-10-10,10900.0
SDH,2011-10-11,10700.0
SDH,2011-10-12,10200.0
SDH,2011-10-13,10300.0
SDH,2011-10-14,10300.0
SDH,2011-10-17,9700.0
SDH,2011-10-18,9200.0
SDH,2011-10-19,9200.0
SDH,2011-10-20,9000.0
SDH,2011-10-21,9700.0
SDH,2011-10-24,9500.0
SDH,2011-10-25,9300.0
SDH,2011-10-26,9200.0
SDH,2011-10-27,9300.0
SDH,2011-10-28,10000.0
SDH,2011-10-31,10300.0
SDH,2011-11-01,9700.0
SDH,2011-11-02,9400.0
SDH,2011-11-03,9400.0
SDH,2011-11-04,9300.0
SDH,2011-11-07,9100.0
SDH,2011-11-08,9100.0
SDH,2011-11-09,8900.0
SDH,2011-11-10,8600.0
SDH,2011-11-11,8400.0
SDH,2011-11-14,8100.0
SDH,2011-11-15,8200.0
SDH,2011-11-16,8600.0
SDH,2011-11-17,8300.0
SDH,2011-11-18,8400.0
SDH,2011-11-21,8000.0
SDH,2011-11-22,8100.0
SDH,2011-11-23,8300.0
SDH,2011-11-24,7800.0
SDH,2011-11-25,7600.0
SDH,2011-11-28,8000.0
SDH,2011-11-29,7600.0
SDH,2011-11-30,7300.0
SDH,2011-12-01,7500.0
SDH,2011-12-02,7800.0
SDH,2011-12-05,8100.0
SDH,2011-12-06,8100.0
SDH,2011-12-07,7900.0
SDH,2011-12-08,7900.0
SDH,2011-12-09,7500.0
SDH,2011-12-12,7100.0
SDH,2011-12-13,6800.0
SDH,2011-12-14,6400.0
SDH,2011-12-15,6100.0
SDH,2011-12-16,6400.0
SDH,2011-12-19,6000.0
SDH,2011-12-20,5700.0
SDH,2011-12-21,5400.0
SDH,2011-12-22,5200.0
SDH,2011-12-23,5000.0
SDH,2011-12-26,4700.0
SDH,2011-12-27,4600.0
SDH,2011-12-28,4900.0
SDH,2011-12-29,4700.0
SDH,2011-12-30,4900.0
SDH,2012-01-03,4800.0
SDH,2012-01-04,4800.0
SDH,2012-01-05,4600.0
SDH,2012-01-06,4300.0
SDH,2012-01-09,4000.0
SDH,2012-01-10,4200.0
SDH,2012-01-11,4200.0
SDH,2012-01-12,4100.0
SDH,2012-01-13,4200.0
SDH,2012-01-16,4400.0
SDH,2012-01-17,4200.0
SDH,2012-01-18,4500.0
SDH,2012-01-19,4700.0
SDH,2012-01-20,4900.0
SDH,2012-01-30,5000.0
SDH,2012-01-31,5100.0
SDH,2012-02-01,5000.0
SDH,2012-02-02,5300.0
SDH,2012-02-03,5400.0
SDH,2012-02-06,5500.0
SDH,2012-02-07,5500.0
SDH,2012-02-08,5700.0
SDH,2012-02-09,5700.0
SDH,2012-02-10,5400.0
SDH,2012-02-13,5200.0
SDH,2012-02-14,5200.0
SDH,2012-02-15,4900.0
SDH,2012-02-16,4800.0
SDH,2012-02-17,5100.0
SDH,2012-02-20,5300.0
SDH,2012-02-21,5400.0
SDH,2012-02-22,5700.0
SDH,2012-02-23,5800.0
SDH,2012-02-24,6200.0
SDH,2012-02-27,6600.0
SDH,2012-02-28,6700.0
SDH,2012-02-29,6800.0
SDH,2012-03-01,6500.0
SDH,2012-03-02,6900.0
SDH,2012-03-05,7100.0
SDH,2012-03-06,6800.0
SDH,2012-03-07,6900.0
SDH,2012-03-08,6400.0
SDH,2012-03-09,6400.0
SDH,2012-03-12,6500.0
SDH,2012-03-13,6800.0
SDH,2012-03-14,6500.0
SDH,2012-03-15,7000.0
SDH,2012-03-16,7100.0
SDH,2012-03-19,6800.0
SDH,2012-03-20,7100.0
SDH,2012-03-21,7300.0
SDH,2012-03-22,7500.0
SDH,2012-03-23,7900.0
SDH,2012-03-26,8400.0
SDH,2012-03-27,7900.0
SDH,2012-03-28,7600.0
SDH,2012-03-29,7300.0
SDH,2012-03-30,6800.0
SDH,2012-04-03,7200.0
SDH,2012-04-04,6700.0
SDH,2012-04-05,7100.0
SDH,2012-04-06,6900.0
SDH,2012-04-09,7300.0
SDH,2012-04-10,7400.0
SDH,2012-04-11,7900.0
SDH,2012-04-12,8400.0
SDH,2012-04-13,8300.0
SDH,2012-04-16,8800.0
SDH,2012-04-17,8900.0
SDH,2012-04-18,8900.0
SDH,2012-04-19,8200.0
SDH,2012-04-20,8100.0
SDH,2012-04-23,8100.0
SDH,2012-04-24,8600.0
SDH,2012-04-25,8700.0
SDH,2012-04-26,8200.0
SDH,2012-04-27,8500.0
SDH,2012-05-02,8200.0
SDH,2012-05-03,8400.0
SDH,2012-05-04,8400.0
SDH,2012-05-07,8900.0
SDH,2012-05-08,8600.0
SDH,2012-05-09,8700.0
SDH,2012-05-10,9300.0
SDH,2012-05-11,8900.0
SDH,2012-05-14,8300.0
SDH,2012-05-15,7900.0
SDH,2012-05-16,8000.0
SDH,2012-05-17,7500.0
SDH,2012-05-18,7000.0
SDH,2012-05-21,7400.0
SDH,2012-05-22,7400.0
SDH,2012-05-23,6900.0
SDH,2012-05-24,6900.0
SDH,2012-05-25,7200.0
SDH,2012-05-28,7200.0
SDH,2012-05-29,7100.0
SDH,2012-05-30,7100.0
SDH,2012-05-31,6800.0
SDH,2012-06-01,6900.0
SDH,2012-06-04,6500.0
SDH,2012-06-05,6600.0
SDH,2012-06-06,6900.0
SDH,2012-06-07,7300.0
SDH,2012-06-08,7200.0
SDH,2012-06-11,7500.0
SDH,2012-06-12,7100.0
SDH,2012-06-13,7000.0
SDH,2012-06-14,7000.0
SDH,2012-06-15,7300.0
SDH,2012-06-18,7100.0
SDH,2012-06-19,6900.0
SDH,2012-06-20,6900.0
SDH,2012-06-21,6900.0
SDH,2012-06-22,6800.0
SDH,2012-06-25,6500.0
SDH,2012-06-26,6100.0
SDH,2012-06-27,5900.0
SDH,2012-06-28,6100.0
SDH,2012-06-29,5900.0
SDH,2012-07-02,5600.0
SDH,2012-07-03,5300.0
SDH,2012-07-04,5100.0
SDH,2012-07-05,5500.0
SDH,2012-07-06,5700.0
SDH,2012-07-09,5400.0
SDH,2012-07-10,5400.0
SDH,2012-07-11,5600.0
SDH,2012-07-12,5800.0
SDH,2012-07-13,6200.0
SDH,2012-07-16,5900.0
SDH,2012-07-17,6100.0
SDH,2012-07-18,6000.0
SDH,2012-07-19,6400.0
SDH,2012-07-20,6400.0
SDH,2012-07-23,6100.0
SDH,2012-07-24,5700.0
SDH,2012-07-25,5700.0
SDH,2012-07-26,5900.0
SDH,2012-07-27,5600.0
SDH,2012-07-30,5700.0
SDH,2012-07-31,5600.0
SDH,2012-08-01,5600.0
SDH,2012-08-02,5600.0
SDH,2012-08-03,5700.0
SDH,2012-08-06,5900.0
SDH,2012-08-07,5700.0
SDH,2012-08-08,5800.0
SDH,2012-08-09,5800.0
SDH,2012-08-10,5700.0
SDH,2012-08-13,5700.0
SDH,2012-08-14,5600.0
SDH,2012-08-15,5500.0
SDH,2012-08-16,5500.0
SDH,2012-08-17,5500.0
SDH,2012-08-20,5600.0
SDH,2012-08-21,5300.0
SDH,2012-08-22,5000.0
SDH,2012-08-23,4700.0
SDH,2012-08-24,4600.0
SDH,2012-08-27,4200.0
SDH,2012-08-28,4200.0
SDH,2012-08-29,4300.0
SDH,2012-08-30,4600.0
SDH,2012-08-31,4500.0
SDH,2012-09-04,4600.0
SDH,2012-09-05,4400.0
SDH,2012-09-06,4100.0
SDH,2012-09-07,4200.0
SDH,2012-09-10,4000.0
SDH,2012-09-11,3800.0
SDH,2012-09-12,3600.0
SDH,2012-09-13,3800.0
SDH,2012-09-14,4000.0
SDH,2012-09-17,3900.0
SDH,2012-09-18,3700.0
SDH,2012-09-19,3700.0
SDH,2012-09-20,3500.0
SDH,2012-09-21,3700.0
SDH,2012-09-24,3600.0
SDH,2012-09-25,3500.0
SDH,2012-09-26,3500.0
SDH,2012-09-27,3400.0
SDH,2012-09-28,3200.0
SDH,2012-10-01,3000.0
SDH,2012-10-02,2800.0
SDH,2012-10-03,2900.0
SDH,2012-10-04,3000.0
SDH,2012-10-05,3100.0
SDH,2012-10-08,3300.0
SDH,2012-10-09,3500.0
SDH,2012-10-10,3700.0
SDH,2012-10-11,3900.0
SDH,2012-10-12,4000.0
SDH,2012-10-15,3800.0
SDH,2012-10-16,4000.0
SDH,2012-10-17,4000.0
SDH,2012-10-18,3800.0
SDH,2012-10-19,3700.0
SDH,2012-10-22,3500.0
SDH,2012-10-23,3500.0
SDH,2012-10-24,3300.0
SDH,2012-10-25,3300.0
SDH,2012-10-26,3400.0
SDH,2012-10-29,3400.0
SDH,2012-10-30,3400.0
SDH,2012-10-31,3400.0
SDH,2012-11-01,3300.0
SDH,2012-11-02,3200.0
SDH,2012-11-05,3000.0
SDH,2012-11-06,3100.0
SDH,2012-11-07,3200.0
SDH,2012-11-08,3100.0
SDH,2012-11-09,3300.0
SDH,2012-11-12,3200.0
SDH,2012-11-13,3100.0
SDH,2012-11-14,3200.0
SDH,2012-11-15,3000.0
SDH,2012-11-16,3100.0
SDH,2012-11-19,3100.0
SDH,2012-11-20,3200.0
SDH,2012-11-21,3000.0
SDH,2012-11-22,3100.0
SDH,2012-11-23,3000.0
SDH,2012-11-26,3000.0
SDH,2012-11-27,3000.0
SDH,2012-11-28,3000.0
SDH,2012-11-29,3100.0
SDH,2012-11-30,3000.0
SDH,2012-12-03,3000.0
SDH,2012-12-04,3100.0
SDH,2012-12-05,3200.0
SDH,2012-12-06,3300.0
SDH,2012-12-07,3200.0
SDH,2012-12-10,3400.0
SDH,2012-12-11,3600.0
SDH,2012-12-12,3700.0
SDH,2012-12-13,3500.0
SDH,2012-12-14,3400.0
SDH,2012-12-17,3500.0
SDH,2012-12-18,3400.0
SDH,2012-12-19,3600.0
SDH,2012-12-20,3400.0
SDH,2012-12-21,3400.0
SDH,2012-12-24,3500.0
SDH,2012-12-25,3500.0
SDH,2012-12-26,3500.0
SDH,2012-12-27,3600.0
SDH,2012-12-28,3800.0
SDH,2013-01-02,4000.0
SDH,2013-01-03,4000.0
SDH,2013-01-04,4100.0
SDH,2013-01-07,3900.0
SDH,2013-01-08,3900.0
SDH,2013-01-09,3700.0
SDH,2013-01-10,3700.0
SDH,2013-01-11,3600.0
SDH,2013-01-14,3700.0
SDH,2013-01-15,3900.0
SDH,2013-01-16,4200.0
SDH,2013-01-17,4600.0
SDH,2013-01-18,4400.0
SDH,2013-01-21,4300.0
SDH,2013-01-22,4100.0
SDH,2013-01-23,4300.0
SDH,2013-01-24,4400.0
SDH,2013-01-25,4500.0
SDH,2013-01-28,4500.0
SDH,2013-01-29,4300.0
SDH,2013-01-30,4500.0
SDH,2013-01-31,4500.0
SDH,2013-02-01,4500.0
SDH,2013-02-04,4400.0
SDH,2013-02-05,4300.0
SDH,2013-02-06,4600.0
SDH,2013-02-07,5000.0
SDH,2013-02-08,5500.0
SDH,2013-02-18,5200.0
SDH,2013-02-19,5200.0
SDH,2013-02-20,5700.0
SDH,2013-02-21,5200.0
SDH,2013-02-22,5700.0
SDH,2013-02-25,5300.0
SDH,2013-02-26,4900.0
SDH,2013-02-27,5200.0
SDH,2013-02-28,5200.0
SDH,2013-03-01,5000.0
SDH,2013-03-04,4700.0
SDH,2013-03-05,4500.0
SDH,2013-03-06,4900.0
SDH,2013-03-07,4500.0
SDH,2013-03-08,4500.0
SDH,2013-03-11,4800.0
SDH,2013-03-12,4600.0
SDH,2013-03-13,4800.0
SDH,2013-03-14,4700.0
SDH,2013-03-15,4700.0
SDH,2013-03-18,4500.0
SDH,2013-03-19,4500.0
SDH,2013-03-20,4600.0
SDH,2013-03-21,4400.0
SDH,2013-03-22,4400.0
SDH,2013-03-25,4300.0
SDH,2013-03-26,4300.0
SDH,2013-03-27,4200.0
SDH,2013-03-28,4100.0
SDH,2013-03-29,3900.0
SDH,2013-04-01,4200.0
SDH,2013-04-02,4200.0
SDH,2013-04-03,4100.0
SDH,2013-04-04,4000.0
SDH,2013-04-05,4100.0
SDH,2013-04-08,3700.0
SDH,2013-04-09,3800.0
SDH,2013-04-10,3500.0
SDH,2013-04-11,3200.0
SDH,2013-04-12,2900.0
SDH,2013-04-15,2900.0
SDH,2013-04-16,2900.0
SDH,2013-04-17,3000.0
SDH,2013-04-18,2900.0
SDH,2013-04-22,2900.0
SDH,2013-04-23,3000.0
SDH,2013-04-24,2900.0
SDH,2013-04-25,2900.0
SDH,2013-04-26,2800.0
SDH,2013-05-02,2800.0
SDH,2013-05-03,2900.0
SDH,2013-05-06,3100.0
SDH,2013-05-07,3100.0
SDH,2013-05-08,3000.0
SDH,2013-05-09,3000.0
SDH,2013-05-10,3000.0
SDH,2013-05-13,3100.0
SDH,2013-05-14,3100.0
SDH,2013-05-15,3100.0
SDH,2013-05-16,3100.0
SDH,2013-05-17,3000.0
SDH,2013-05-20,3000.0
SDH,2013-05-21,3100.0
SDH,2013-05-22,3100.0
SDH,2013-05-23,3100.0
SDH,2013-05-24,3200.0
SDH,2013-05-27,3200.0
SDH,2013-05-28,3300.0
SDH,2013-05-29,3400.0
SDH,2013-05-30,3600.0
SDH,2013-05-31,3500.0
SDH,2013-06-03,3500.0
SDH,2013-06-04,3300.0
SDH,2013-06-05,3400.0
SDH,2013-06-06,3500.0
SDH,2013-06-07,3500.0
SDH,2013-06-10,3400.0
SDH,2013-06-11,3400.0
SDH,2013-06-12,3400.0
SDH,2013-06-13,3400.0
SDH,2013-06-14,3700.0
SDH,2013-06-17,3700.0
SDH,2013-06-18,3600.0
SDH,2013-06-19,3500.0
SDH,2013-06-20,3500.0
SDH,2013-06-21,3500.0
SDH,2013-06-24,3300.0
SDH,2013-06-25,3200.0
SDH,2013-06-26,3100.0
SDH,2013-06-27,3200.0
SDH,2013-06-28,3100.0
SDH,2013-07-01,3100.0
SDH,2013-07-02,3200.0
SDH,2013-07-03,3100.0
SDH,2013-07-04,3200.0
SDH,2013-07-05,3100.0
SDH,2013-07-08,3000.0
SDH,2013-07-09,3000.0
SDH,2013-07-10,3100.0
SDH,2013-07-11,3100.0
SDH,2013-07-12,3200.0
SDH,2013-07-15,3100.0
SDH,2013-07-16,3000.0
SDH,2013-07-17,3000.0
SDH,2013-07-18,3100.0
SDH,2013-07-19,3100.0
SDH,2013-07-22,3000.0
SDH,2013-07-23,3000.0
SDH,2013-07-24,2900.0
SDH,2013-07-25,3000.0
SDH,2013-07-26,2900.0
SDH,2013-07-29,2700.0
SDH,2013-07-30,2800.0
SDH,2013-07-31,2700.0
SDH,2013-08-01,2800.0
SDH,2013-08-02,2700.0
SDH,2013-08-05,2500.0
SDH,2013-08-06,2700.0
SDH,2013-08-07,2700.0
SDH,2013-08-08,2500.0
SDH,2013-08-09,2400.0
SDH,2013-08-12,2500.0
SDH,2013-08-13,2400.0
SDH,2013-08-14,2600.0
SDH,2013-08-15,2500.0
SDH,2013-08-16,2600.0
SDH,2013-08-19,2700.0
SDH,2013-08-20,2600.0
SDH,2013-08-21,2500.0
SDH,2013-08-22,2600.0
SDH,2013-08-23,2500.0
SDH,2013-08-26,2600.0
SDH,2013-08-27,2400.0
SDH,2013-08-28,2400.0
SDH,2013-08-29,2500.0
SDH,2013-08-30,2500.0
SDH,2013-09-03,2400.0
SDH,2013-09-04,2400.0
SDH,2013-09-05,2300.0
SDH,2013-09-06,2300.0
SDH,2013-09-09,2100.0
SDH,2013-09-10,2300.0
SDH,2013-09-11,2300.0
SDH,2013-09-12,2200.0
SDH,2013-09-13,2300.0
SDH,2013-09-16,2200.0
SDH,2013-09-17,2200.0
SDH,2013-09-18,2000.0
SDH,2013-09-19,2100.0
SDH,2013-09-20,2200.0
SDH,2013-09-23,2100.0
SDH,2013-09-24,2300.0
SDH,2013-09-25,2400.0
SDH,2013-09-26,2500.0
SDH,2013-09-27,2300.0
SDH,2013-09-30,2500.0
SDH,2013-10-01,2700.0
SDH,2013-10-02,2900.0
SDH,2013-10-03,2800.0
SDH,2013-10-04,2700.0
SDH,2013-10-07,2900.0
SDH,2013-10-08,2700.0
SDH,2013-10-09,2700.0
SDH,2013-10-10,2600.0
SDH,2013-10-11,2800.0
SDH,2013-10-14,3000.0
SDH,2013-10-15,3000.0
SDH,2013-10-16,3300.0
SDH,2013-10-17,3300.0
SDH,2013-10-18,3300.0
SDH,2013-10-21,3400.0
SDH,2013-10-22,3600.0
SDH,2013-10-23,3700.0
SDH,2013-10-24,4000.0
SDH,2013-10-25,4200.0
SDH,2013-10-28,3900.0
SDH,2013-10-29,4200.0
SDH,2013-10-30,4100.0
SDH,2013-10-31,4300.0
SDH,2013-11-01,4100.0
SDH,2013-11-04,4500.0
SDH,2013-11-05,4800.0
SDH,2013-11-06,4700.0
SDH,2013-11-07,4400.0
SDH,2013-11-08,4800.0
SDH,2013-11-11,5200.0
SDH,2013-11-12,5400.0
SDH,2013-11-13,5400.0
SDH,2013-11-14,5400.0
SDH,2013-11-15,5700.0
SDH,2013-11-18,5500.0
SDH,2013-11-19,5300.0
SDH,2013-11-20,5800.0
SDH,2013-11-21,5600.0
SDH,2013-11-22,5400.0
SDH,2013-11-25,5100.0
SDH,2013-11-26,5100.0
SDH,2013-11-27,5100.0
SDH,2013-11-28,5100.0
SDH,2013-11-29,5000.0
SDH,2013-12-02,5300.0
SDH,2013-12-03,5200.0
SDH,2013-12-04,5200.0
SDH,2013-12-05,5200.0
SDH,2013-12-06,5200.0
SDH,2013-12-09,5200.0
SDH,2013-12-10,5100.0
SDH,2013-12-11,5600.0
SDH,2013-12-12,5600.0
SDH,2013-12-13,5900.0
SDH,2013-12-16,6200.0
SDH,2013-12-17,6400.0
SDH,2013-12-18,6200.0
SDH,2013-12-19,6200.0
SDH,2013-12-20,5800.0
SDH,2013-12-23,5800.0
SDH,2013-12-24,5500.0
SDH,2013-12-25,5600.0
SDH,2013-12-26,5600.0
SDH,2013-12-27,5300.0
SDH,2013-12-30,5300.0
SDH,2013-12-31,5600.0
SDH,2014-01-02,5400.0
SDH,2014-01-03,5400.0
SDH,2014-01-06,5500.0
SDH,2014-01-07,5300.0
SDH,2014-01-08,5200.0
SDH,2014-01-09,5300.0
SDH,2014-01-10,5200.0
SDH,2014-01-13,5300.0
SDH,2014-01-14,5300.0
SDH,2014-01-15,5100.0
SDH,2014-01-16,4900.0
SDH,2014-01-17,4800.0
SDH,2014-01-20,4500.0
SDH,2014-01-21,4600.0
SDH,2014-01-22,4600.0
SDH,2014-01-23,4700.0
SDH,2014-01-24,4600.0
SDH,2014-01-27,5000.0
SDH,2014-02-06,5400.0
SDH,2014-02-07,5200.0
SDH,2014-02-10,5100.0
SDH,2014-02-11,5000.0
SDH,2014-02-12,5200.0
SDH,2014-02-13,5200.0
SDH,2014-02-14,5200.0
SDH,2014-02-17,5300.0
SDH,2014-02-18,5500.0
SDH,2014-02-19,6000.0
SDH,2014-02-20,5500.0
SDH,2014-02-21,5500.0
SDH,2014-02-24,5600.0
SDH,2014-02-25,5500.0
SDH,2014-02-26,5600.0
SDH,2014-02-27,5500.0
SDH,2014-02-28,6000.0
SDH,2014-03-03,5600.0
SDH,2014-03-04,6100.0
SDH,2014-03-05,6200.0
SDH,2014-03-06,6000.0
SDH,2014-03-07,6000.0
SDH,2014-03-10,6600.0
SDH,2014-03-11,6600.0
SDH,2014-03-12,6500.0
SDH,2014-03-13,6700.0
SDH,2014-03-14,6500.0
SDH,2014-03-17,6700.0
SDH,2014-03-18,7300.0
SDH,2014-03-19,7400.0
SDH,2014-03-20,7300.0
SDH,2014-03-21,7100.0
SDH,2014-03-24,7200.0
SDH,2014-03-25,7000.0
SDH,2014-03-26,6600.0
SDH,2014-03-27,6400.0
SDH,2014-03-28,6700.0
SDH,2014-03-31,6800.0
SDH,2014-04-01,6300.0
SDH,2014-04-02,6300.0
SDH,2014-04-03,6600.0
SDH,2014-04-04,6400.0
SDH,2014-04-07,6500.0
SDH,2014-04-08,6600.0
SDH,2014-04-10,6700.0
SDH,2014-04-11,6700.0
SDH,2014-04-14,6700.0
SDH,2014-04-15,6200.0
SDH,2014-04-16,6400.0
SDH,2014-04-17,6300.0
SDH,2014-04-18,5900.0
SDH,2014-04-21,5900.0
SDH,2014-04-22,6300.0
SDH,2014-04-23,6100.0
SDH,2014-04-24,6300.0
SDH,2014-04-25,6100.0
SDH,2014-04-28,5900.0
SDH,2014-04-29,5900.0
SDH,2014-05-05,5600.0
SDH,2014-05-06,5800.0
SDH,2014-05-07,5900.0
SDH,2014-05-08,5400.0
SDH,2014-05-09,5600.0
SDH,2014-05-12,5200.0
SDH,2014-05-13,4700.0
SDH,2014-05-14,5100.0
SDH,2014-05-15,4600.0
SDH,2014-05-16,4800.0
SDH,2014-05-19,5000.0
SDH,2014-05-20,5200.0
SDH,2014-05-21,5300.0
