SDN,2006-12-25,25500.0
SDN,2006-12-26,25500.0
SDN,2006-12-27,25500.0
SDN,2006-12-28,25500.0
SDN,2006-12-29,24200.0
SDN,2007-01-02,23100.0
SDN,2007-01-03,22000.0
SDN,2007-01-04,20900.0
SDN,2007-01-05,20000.0
SDN,2007-01-08,19100.0
SDN,2007-01-09,18100.0
SDN,2007-01-10,17300.0
SDN,2007-01-11,16500.0
SDN,2007-01-12,16200.0
SDN,2007-01-15,15400.0
SDN,2007-01-16,15400.0
SDN,2007-01-17,15200.0
SDN,2007-01-18,14500.0
SDN,2007-01-19,14000.0
SDN,2007-01-22,13400.0
SDN,2007-01-23,12700.0
SDN,2007-01-24,12100.0
SDN,2007-01-25,12700.0
SDN,2007-01-26,13300.0
SDN,2007-01-29,13900.0
SDN,2007-01-30,14600.0
SDN,2007-01-31,15300.0
SDN,2007-02-01,16000.0
SDN,2007-02-02,16400.0
SDN,2007-02-05,15700.0
SDN,2007-02-06,14900.0
SDN,2007-02-07,15600.0
SDN,2007-02-08,16100.0
SDN,2007-02-09,16100.0
SDN,2007-02-12,16100.0
SDN,2007-02-13,16300.0
SDN,2007-02-14,15700.0
SDN,2007-02-15,16300.0
SDN,2007-02-26,17100.0
SDN,2007-02-27,18000.0
SDN,2007-02-28,18700.0
SDN,2007-03-01,18700.0
SDN,2007-03-02,17800.0
SDN,2007-03-05,18600.0
SDN,2007-03-06,19500.0
SDN,2007-03-07,20400.0
SDN,2007-03-08,21300.0
SDN,2007-03-09,22300.0
SDN,2007-03-12,23400.0
SDN,2007-03-13,24500.0
SDN,2007-03-14,23400.0
SDN,2007-03-15,22300.0
SDN,2007-03-16,21200.0
SDN,2007-03-19,22100.0
SDN,2007-03-20,22100.0
SDN,2007-03-21,21200.0
SDN,2007-03-22,20200.0
SDN,2007-03-23,19300.0
SDN,2007-03-26,18600.0
SDN,2007-03-27,17600.0
SDN,2007-03-28,16800.0
SDN,2007-03-29,17600.0
SDN,2007-03-30,18400.0
SDN,2007-04-02,17800.0
SDN,2007-04-03,17800.0
SDN,2007-04-04,17700.0
SDN,2007-04-05,16300.0
SDN,2007-04-06,16500.0
SDN,2007-04-09,16000.0
SDN,2007-04-10,16000.0
SDN,2007-04-11,15600.0
SDN,2007-04-12,14800.0
SDN,2007-04-13,14100.0
SDN,2007-04-17,13400.0
SDN,2007-04-18,13400.0
SDN,2007-04-19,14000.0
SDN,2007-04-20,14700.0
SDN,2007-04-23,14000.0
SDN,2007-04-24,13300.0
SDN,2007-04-25,13700.0
SDN,2007-05-02,14400.0
SDN,2007-05-03,14800.0
SDN,2007-05-04,14100.0
SDN,2007-05-07,13900.0
SDN,2007-05-08,14600.0
SDN,2007-05-09,15300.0
SDN,2007-05-10,14800.0
SDN,2007-05-11,15200.0
SDN,2007-05-14,15200.0
SDN,2007-05-15,14800.0
SDN,2007-05-16,14100.0
SDN,2007-05-17,14100.0
SDN,2007-05-18,13700.0
SDN,2007-05-21,14400.0
SDN,2007-05-22,15100.0
SDN,2007-05-23,15200.0
SDN,2007-05-24,14500.0
SDN,2007-05-25,14500.0
SDN,2007-05-28,14700.0
SDN,2007-05-29,15000.0
SDN,2007-05-30,15800.0
SDN,2007-05-31,16600.0
SDN,2007-06-01,17400.0
SDN,2007-06-04,18200.0
SDN,2007-06-05,19100.0
SDN,2007-06-06,20000.0
SDN,2007-06-07,21000.0
SDN,2007-06-08,20000.0
SDN,2007-06-11,19100.0
SDN,2007-06-12,18200.0
SDN,2007-06-13,18200.0
SDN,2007-06-14,17300.0
SDN,2007-06-15,17100.0
SDN,2007-06-18,17800.0
SDN,2007-06-20,17300.0
SDN,2007-06-21,17100.0
SDN,2007-06-22,17100.0
SDN,2007-06-25,17100.0
SDN,2007-06-26,16700.0
SDN,2007-06-27,16500.0
SDN,2007-06-28,16500.0
SDN,2007-06-29,16700.0
SDN,2007-07-02,15900.0
SDN,2007-07-03,15100.0
SDN,2007-07-04,14800.0
SDN,2007-07-05,14800.0
SDN,2007-07-06,14800.0
SDN,2007-07-09,15600.0
SDN,2007-07-10,16400.0
SDN,2007-07-11,16100.0
SDN,2007-07-12,15600.0
SDN,2007-07-13,15600.0
SDN,2007-07-16,14800.0
SDN,2007-07-17,15400.0
SDN,2007-07-18,15200.0
SDN,2007-07-19,15100.0
SDN,2007-07-20,15800.0
SDN,2007-07-23,15800.0
SDN,2007-07-24,15800.0
SDN,2007-07-25,15200.0
SDN,2007-07-26,15000.0
SDN,2007-07-27,15200.0
SDN,2007-07-30,15600.0
SDN,2007-07-31,14800.0
SDN,2007-08-01,15400.0
SDN,2007-08-02,14700.0
SDN,2007-08-03,14400.0
SDN,2007-08-06,14300.0
SDN,2007-08-07,14300.0
SDN,2007-08-08,13800.0
SDN,2007-08-09,14500.0
SDN,2007-08-10,14500.0
SDN,2007-08-13,13800.0
SDN,2007-08-14,14400.0
SDN,2007-08-15,13900.0
SDN,2007-08-16,13600.0
SDN,2007-08-17,13800.0
SDN,2007-08-20,13600.0
SDN,2007-08-21,13600.0
SDN,2007-08-22,13400.0
SDN,2007-08-23,13600.0
SDN,2007-08-24,13800.0
SDN,2007-08-27,14500.0
SDN,2007-08-28,15200.0
SDN,2007-08-29,14800.0
SDN,2007-08-30,15600.0
SDN,2007-08-31,16400.0
SDN,2007-09-04,17200.0
SDN,2007-09-05,16300.0
SDN,2007-09-06,15900.0
SDN,2007-09-07,15800.0
SDN,2007-09-10,15600.0
SDN,2007-09-11,16000.0
SDN,2007-09-12,16300.0
SDN,2007-09-13,16000.0
SDN,2007-09-14,15900.0
SDN,2007-09-17,15800.0
SDN,2007-09-18,15700.0
SDN,2007-09-19,15700.0
SDN,2007-09-20,15700.0
SDN,2007-09-21,15800.0
SDN,2007-09-24,15700.0
SDN,2007-09-25,16300.0
SDN,2007-09-26,15600.0
SDN,2007-09-27,16000.0
SDN,2007-09-28,16300.0
SDN,2007-10-01,17100.0
SDN,2007-10-02,17100.0
SDN,2007-10-03,17100.0
SDN,2007-10-04,17300.0
SDN,2007-10-05,17100.0
SDN,2007-10-08,16700.0
SDN,2007-10-09,16700.0
SDN,2007-10-10,17500.0
SDN,2007-10-11,18400.0
SDN,2007-10-12,19100.0
SDN,2007-10-15,18200.0
SDN,2007-10-16,18900.0
SDN,2007-10-17,19900.0
SDN,2007-10-18,18900.0
SDN,2007-10-19,19900.0
SDN,2007-10-22,20400.0
SDN,2007-10-23,20200.0
SDN,2007-10-24,19700.0
SDN,2007-10-25,19900.0
SDN,2007-10-26,20000.0
SDN,2007-10-29,20000.0
SDN,2007-10-30,20000.0
SDN,2007-10-31,19900.0
SDN,2007-11-01,19900.0
SDN,2007-11-02,19700.0
SDN,2007-11-05,19100.0
SDN,2007-11-07,20200.0
SDN,2007-11-09,21000.0
SDN,2007-11-12,19700.0
SDN,2007-11-13,18700.0
SDN,2007-11-14,19700.0
SDN,2007-11-15,18900.0
SDN,2007-11-16,19500.0
SDN,2007-11-19,19300.0
SDN,2007-11-20,18900.0
SDN,2007-11-22,18600.0
SDN,2007-11-23,18200.0
SDN,2007-11-26,18900.0
SDN,2007-11-27,18700.0
SDN,2007-11-28,19300.0
SDN,2007-11-29,19300.0
SDN,2007-11-30,19100.0
SDN,2007-12-03,19700.0
SDN,2007-12-04,19700.0
SDN,2007-12-05,19900.0
SDN,2007-12-06,19900.0
SDN,2007-12-07,19700.0
SDN,2007-12-10,19100.0
SDN,2007-12-11,18700.0
SDN,2007-12-12,19500.0
SDN,2007-12-13,18600.0
SDN,2007-12-14,18200.0
SDN,2007-12-17,18700.0
SDN,2007-12-18,18400.0
SDN,2007-12-19,18600.0
SDN,2007-12-20,17900.0
SDN,2007-12-21,18600.0
SDN,2007-12-24,18600.0
SDN,2007-12-25,18600.0
SDN,2007-12-26,17800.0
SDN,2007-12-27,18500.0
SDN,2007-12-28,18900.0
SDN,2008-01-02,18000.0
SDN,2008-01-03,17700.0
SDN,2008-01-04,17400.0
SDN,2008-01-07,16600.0
SDN,2008-01-08,16700.0
SDN,2008-01-09,17400.0
SDN,2008-01-10,16600.0
SDN,2008-01-11,16500.0
SDN,2008-01-14,15700.0
SDN,2008-01-15,14900.0
SDN,2008-01-16,15700.0
SDN,2008-01-17,15600.0
SDN,2008-01-18,15600.0
SDN,2008-01-21,15600.0
SDN,2008-01-22,14800.0
SDN,2008-01-23,14100.0
SDN,2008-01-24,13400.0
SDN,2008-01-25,14100.0
SDN,2008-01-28,14500.0
SDN,2008-01-29,14700.0
SDN,2008-01-30,15400.0
SDN,2008-01-31,16100.0
SDN,2008-02-01,15600.0
SDN,2008-02-12,15600.0
SDN,2008-02-13,15600.0
SDN,2008-02-14,14800.0
SDN,2008-02-15,15400.0
SDN,2008-02-18,14700.0
SDN,2008-02-19,14700.0
SDN,2008-02-20,14000.0
SDN,2008-02-21,13300.0
SDN,2008-02-22,12700.0
SDN,2008-02-25,13000.0
SDN,2008-02-26,12400.0
SDN,2008-02-27,11800.0
SDN,2008-02-28,11200.0
SDN,2008-02-29,11500.0
SDN,2008-03-03,11000.0
SDN,2008-03-04,10400.0
SDN,2008-03-05,10000.0
SDN,2008-03-06,10500.0
SDN,2008-03-07,11000.0
SDN,2008-03-10,11300.0
SDN,2008-03-11,10900.0
SDN,2008-03-12,11400.0
SDN,2008-03-13,11300.0
SDN,2008-03-14,11200.0
SDN,2008-03-17,11100.0
SDN,2008-03-18,10600.0
SDN,2008-03-19,10200.0
SDN,2008-03-20,10400.0
SDN,2008-03-21,9900.0
SDN,2008-03-24,9400.0
SDN,2008-03-25,9000.0
SDN,2008-03-26,9400.0
SDN,2008-03-27,9400.0
SDN,2008-03-28,9500.0
SDN,2008-03-31,9600.0
SDN,2008-04-01,9700.0
SDN,2008-04-02,9700.0
SDN,2008-04-03,9800.0
SDN,2008-04-04,9900.0
SDN,2008-04-07,10100.0
SDN,2008-04-08,10200.0
SDN,2008-04-09,10000.0
SDN,2008-04-10,9800.0
SDN,2008-04-11,9700.0
SDN,2008-04-16,9500.0
SDN,2008-04-17,9700.0
SDN,2008-04-18,9500.0
SDN,2008-04-21,9700.0
SDN,2008-04-22,9800.0
SDN,2008-04-23,10000.0
SDN,2008-04-24,10200.0
SDN,2008-04-25,10400.0
SDN,2008-04-28,10200.0
SDN,2008-04-29,10000.0
SDN,2008-05-05,10000.0
SDN,2008-05-06,9800.0
SDN,2008-05-07,9700.0
SDN,2008-05-08,9500.0
SDN,2008-05-09,9300.0
SDN,2008-05-12,9100.0
SDN,2008-05-13,8900.0
SDN,2008-05-14,8800.0
SDN,2008-05-15,8600.0
SDN,2008-05-16,8500.0
SDN,2008-05-19,8400.0
SDN,2008-05-20,8200.0
SDN,2008-05-21,8100.0
SDN,2008-05-22,7900.0
SDN,2008-05-23,7800.0
SDN,2008-05-26,7800.0
SDN,2008-05-30,7900.0
SDN,2008-06-02,7800.0
SDN,2008-06-03,7600.0
SDN,2008-06-04,7500.0
SDN,2008-06-05,7600.0
SDN,2008-06-06,7500.0
SDN,2008-06-09,7500.0
SDN,2008-06-10,7600.0
SDN,2008-06-11,7800.0
SDN,2008-06-12,7900.0
SDN,2008-06-13,8100.0
SDN,2008-06-16,7900.0
SDN,2008-06-17,8100.0
SDN,2008-06-18,8200.0
SDN,2008-06-19,8400.0
SDN,2008-06-20,8500.0
SDN,2008-06-23,8800.0
SDN,2008-06-24,8900.0
SDN,2008-06-25,9200.0
SDN,2008-06-26,9400.0
SDN,2008-06-27,9300.0
SDN,2008-06-30,9200.0
SDN,2008-07-01,9200.0
SDN,2008-07-02,9400.0
SDN,2008-07-03,9400.0
SDN,2008-07-04,9700.0
SDN,2008-07-07,9400.0
SDN,2008-07-08,9100.0
SDN,2008-07-09,9300.0
SDN,2008-07-10,9400.0
SDN,2008-07-11,9700.0
SDN,2008-07-14,9500.0
SDN,2008-07-15,9700.0
SDN,2008-07-16,10000.0
SDN,2008-07-17,9700.0
SDN,2008-07-18,9500.0
SDN,2008-07-21,9500.0
SDN,2008-07-22,9200.0
SDN,2008-07-23,8900.0
SDN,2008-07-24,8700.0
SDN,2008-07-25,8400.0
SDN,2008-07-28,8200.0
SDN,2008-07-29,8000.0
SDN,2008-07-30,7800.0
SDN,2008-07-31,8000.0
SDN,2008-08-01,8200.0
SDN,2008-08-04,8400.0
SDN,2008-08-05,8600.0
SDN,2008-08-06,8900.0
SDN,2008-08-07,9100.0
SDN,2008-08-08,9400.0
SDN,2008-08-11,9700.0
SDN,2008-08-12,9900.0
SDN,2008-08-13,9700.0
SDN,2008-08-14,9900.0
SDN,2008-08-15,10200.0
SDN,2008-08-18,10700.0
SDN,2008-08-19,11200.0
SDN,2008-08-20,10600.0
SDN,2008-08-21,10100.0
SDN,2008-08-22,9600.0
SDN,2008-08-25,10100.0
SDN,2008-08-26,10600.0
SDN,2008-08-27,10100.0
SDN,2008-08-28,10400.0
SDN,2008-08-29,9900.0
SDN,2008-09-03,10400.0
SDN,2008-09-04,10700.0
SDN,2008-09-05,10800.0
SDN,2008-09-08,10900.0
SDN,2008-09-09,11400.0
SDN,2008-09-10,11800.0
SDN,2008-09-11,12200.0
SDN,2008-09-12,11600.0
SDN,2008-09-15,12200.0
SDN,2008-09-16,12100.0
SDN,2008-09-17,11500.0
SDN,2008-09-18,11000.0
SDN,2008-09-19,11500.0
SDN,2008-09-22,12100.0
SDN,2008-09-23,11500.0
SDN,2008-09-24,12000.0
SDN,2008-09-25,11400.0
SDN,2008-09-26,11400.0
SDN,2008-09-29,11800.0
SDN,2008-09-30,11600.0
SDN,2008-10-01,11700.0
SDN,2008-10-02,11300.0
SDN,2008-10-03,10700.0
SDN,2008-10-06,11000.0
SDN,2008-10-07,10500.0
SDN,2008-10-08,10000.0
SDN,2008-10-09,9500.0
SDN,2008-10-10,9000.0
SDN,2008-10-13,8600.0
SDN,2008-10-14,9000.0
SDN,2008-10-15,9300.0
SDN,2008-10-16,9500.0
SDN,2008-10-17,9500.0
SDN,2008-10-20,10000.0
SDN,2008-10-21,9500.0
SDN,2008-10-22,9000.0
SDN,2008-10-23,9100.0
SDN,2008-10-24,9100.0
SDN,2008-10-27,9200.0
SDN,2008-10-28,9100.0
SDN,2008-10-29,9400.0
SDN,2008-10-30,9700.0
SDN,2008-10-31,9500.0
SDN,2008-11-03,9100.0
SDN,2008-11-04,9100.0
SDN,2008-11-05,9000.0
SDN,2008-11-06,8600.0
SDN,2008-11-07,8600.0
SDN,2008-11-10,8200.0
SDN,2008-11-11,7800.0
SDN,2008-11-12,7500.0
SDN,2008-11-13,7500.0
SDN,2008-11-14,7200.0
SDN,2008-11-17,7500.0
SDN,2008-11-18,7800.0
SDN,2008-11-19,7800.0
SDN,2008-11-20,7500.0
SDN,2008-11-21,7300.0
SDN,2008-11-24,7400.0
SDN,2008-11-25,7400.0
SDN,2008-11-26,7600.0
SDN,2008-11-27,7600.0
SDN,2008-11-28,7900.0
SDN,2008-12-01,8200.0
SDN,2008-12-02,8200.0
SDN,2008-12-03,7900.0
SDN,2008-12-04,8200.0
SDN,2008-12-05,8200.0
SDN,2008-12-08,8200.0
SDN,2008-12-09,7900.0
SDN,2008-12-10,8100.0
SDN,2008-12-11,8300.0
SDN,2008-12-12,8300.0
SDN,2008-12-15,8600.0
SDN,2008-12-16,8200.0
SDN,2008-12-17,8500.0
SDN,2008-12-18,8500.0
SDN,2008-12-19,8500.0
SDN,2008-12-22,9000.0
SDN,2008-12-23,9000.0
SDN,2008-12-24,9300.0
SDN,2008-12-25,9300.0
SDN,2008-12-26,9100.0
SDN,2008-12-29,8700.0
SDN,2008-12-30,8500.0
SDN,2008-12-31,8500.0
SDN,2009-01-02,8500.0
SDN,2009-01-05,8500.0
SDN,2009-01-06,8800.0
SDN,2009-01-07,8800.0
SDN,2009-01-08,8800.0
SDN,2009-01-09,9000.0
SDN,2009-01-12,9000.0
SDN,2009-01-13,9300.0
SDN,2009-01-14,9300.0
SDN,2009-01-15,9300.0
SDN,2009-01-16,8800.0
SDN,2009-01-19,9000.0
SDN,2009-01-20,8500.0
SDN,2009-01-21,8900.0
SDN,2009-01-22,8500.0
SDN,2009-01-23,8100.0
SDN,2009-02-02,8500.0
SDN,2009-02-03,8700.0
SDN,2009-02-04,8800.0
SDN,2009-02-05,9200.0
SDN,2009-02-06,8800.0
SDN,2009-02-09,8400.0
SDN,2009-02-10,8700.0
SDN,2009-02-11,9000.0
SDN,2009-02-12,9000.0
SDN,2009-02-13,9300.0
SDN,2009-02-16,9500.0
SDN,2009-02-17,9300.0
SDN,2009-02-18,8800.0
SDN,2009-02-19,8800.0
SDN,2009-02-20,8800.0
SDN,2009-02-23,8500.0
SDN,2009-02-24,8300.0
SDN,2009-02-25,8300.0
SDN,2009-02-26,7900.0
SDN,2009-02-27,7800.0
SDN,2009-03-02,8200.0
SDN,2009-03-03,8500.0
SDN,2009-03-04,8100.0
SDN,2009-03-05,7700.0
SDN,2009-03-06,8100.0
SDN,2009-03-09,8100.0
SDN,2009-03-10,8500.0
SDN,2009-03-11,8600.0
SDN,2009-03-12,8500.0
SDN,2009-03-13,8100.0
SDN,2009-03-16,8500.0
SDN,2009-03-17,8500.0
SDN,2009-03-18,8600.0
SDN,2009-03-19,8200.0
SDN,2009-03-20,8200.0
SDN,2009-03-23,7800.0
SDN,2009-03-24,8100.0
SDN,2009-03-25,8200.0
SDN,2009-03-26,8300.0
SDN,2009-03-27,8300.0
SDN,2009-03-30,8300.0
SDN,2009-03-31,7900.0
SDN,2009-04-01,8000.0
SDN,2009-04-02,8100.0
SDN,2009-04-03,8400.0
SDN,2009-04-07,8500.0
SDN,2009-04-08,8500.0
SDN,2009-04-09,8500.0
SDN,2009-04-10,8800.0
SDN,2009-04-13,8600.0
SDN,2009-04-14,9000.0
SDN,2009-04-15,9000.0
SDN,2009-04-16,8600.0
SDN,2009-04-17,8200.0
SDN,2009-04-20,7800.0
SDN,2009-04-21,8100.0
SDN,2009-04-22,8400.0
SDN,2009-04-23,8000.0
SDN,2009-04-24,7600.0
SDN,2009-04-27,8000.0
SDN,2009-04-28,8300.0
SDN,2009-04-29,7900.0
SDN,2009-05-04,8300.0
SDN,2009-05-05,8700.0
SDN,2009-05-06,8800.0
SDN,2009-05-07,8700.0
SDN,2009-05-08,8700.0
SDN,2009-05-11,9100.0
SDN,2009-05-12,9000.0
SDN,2009-05-13,9000.0
SDN,2009-05-14,9200.0
SDN,2009-05-15,9300.0
SDN,2009-05-18,8900.0
SDN,2009-05-19,9200.0
SDN,2009-05-20,9500.0
SDN,2009-05-21,9500.0
SDN,2009-05-22,10000.0
SDN,2009-05-25,10000.0
SDN,2009-05-26,9900.0
SDN,2009-05-27,10200.0
SDN,2009-05-28,10000.0
SDN,2009-05-29,10000.0
SDN,2009-06-01,9500.0
SDN,2009-06-02,9900.0
SDN,2009-06-03,10200.0
SDN,2009-06-04,9800.0
SDN,2009-06-05,10300.0
SDN,2009-06-08,10800.0
SDN,2009-06-09,10400.0
SDN,2009-06-22,11100.0
SDN,2009-06-23,10500.0
SDN,2009-06-24,11200.0
SDN,2009-06-25,11300.0
SDN,2009-06-26,11400.0
SDN,2009-06-29,10600.0
SDN,2009-06-30,10200.0
SDN,2009-07-01,9500.0
SDN,2009-07-02,10200.0
SDN,2009-07-03,9500.0
SDN,2009-07-06,10200.0
SDN,2009-07-07,10600.0
SDN,2009-07-08,9900.0
SDN,2009-07-09,10600.0
SDN,2009-07-10,11300.0
SDN,2009-07-13,11900.0
SDN,2009-07-14,11100.0
SDN,2009-07-15,10300.0
SDN,2009-07-16,9600.0
SDN,2009-07-17,10300.0
SDN,2009-07-20,11000.0
SDN,2009-07-21,10200.0
SDN,2009-07-22,11200.0
SDN,2009-07-23,11200.0
SDN,2009-07-24,11400.0
SDN,2009-07-27,11400.0
SDN,2009-07-28,11400.0
SDN,2009-07-29,11400.0
SDN,2009-07-30,10600.0
SDN,2009-07-31,11200.0
SDN,2009-08-03,11200.0
SDN,2009-08-04,11100.0
SDN,2009-08-05,10500.0
SDN,2009-08-06,9700.0
SDN,2009-08-07,10400.0
SDN,2009-08-10,10200.0
SDN,2009-08-11,9700.0
SDN,2009-08-12,10700.0
SDN,2009-08-13,11000.0
SDN,2009-08-14,10400.0
SDN,2009-08-17,9800.0
SDN,2009-08-18,9500.0
SDN,2009-08-19,9600.0
SDN,2009-08-20,9600.0
SDN,2009-08-21,10200.0
SDN,2009-08-24,10300.0
SDN,2009-08-25,10300.0
SDN,2009-08-26,11000.0
SDN,2009-08-27,11100.0
SDN,2009-08-28,11600.0
SDN,2009-08-31,12100.0
SDN,2009-09-01,12600.0
SDN,2009-09-03,12700.0
SDN,2009-09-04,12700.0
SDN,2009-09-07,12800.0
SDN,2009-09-08,13100.0
SDN,2009-09-09,12800.0
SDN,2009-09-10,12900.0
SDN,2009-09-11,13700.0
SDN,2009-09-14,13300.0
SDN,2009-09-15,13700.0
SDN,2009-09-16,14500.0
SDN,2009-09-17,13500.0
SDN,2009-09-18,13500.0
SDN,2009-09-21,14400.0
SDN,2009-09-22,15300.0
SDN,2009-09-23,15400.0
SDN,2009-09-24,15800.0
SDN,2009-09-25,15800.0
SDN,2009-09-28,16800.0
SDN,2009-09-29,16800.0
SDN,2009-09-30,16700.0
SDN,2009-10-01,16700.0
SDN,2009-10-02,16700.0
SDN,2009-10-05,16700.0
SDN,2009-10-06,16700.0
SDN,2009-10-07,17400.0
SDN,2009-10-08,16900.0
SDN,2009-10-09,16900.0
SDN,2009-10-12,16900.0
SDN,2009-10-13,17000.0
SDN,2009-10-14,17400.0
SDN,2009-10-15,17700.0
SDN,2009-10-16,18500.0
SDN,2009-10-19,19100.0
SDN,2009-10-20,19800.0
SDN,2009-10-21,19800.0
SDN,2009-10-22,19800.0
SDN,2009-10-23,19800.0
SDN,2009-10-26,19800.0
SDN,2009-10-27,19700.0
SDN,2009-10-28,18500.0
SDN,2009-10-29,18500.0
SDN,2009-10-30,17900.0
SDN,2009-11-02,17900.0
SDN,2009-11-03,17900.0
SDN,2009-11-04,17900.0
SDN,2009-11-05,17900.0
SDN,2009-11-06,16800.0
SDN,2009-11-09,16600.0
SDN,2009-11-10,17300.0
SDN,2009-11-11,16100.0
SDN,2009-11-12,15000.0
SDN,2009-11-13,14000.0
SDN,2009-11-16,13700.0
SDN,2009-11-17,14200.0
SDN,2009-11-18,13700.0
SDN,2009-11-19,13500.0
SDN,2009-11-20,14100.0
SDN,2009-11-23,14800.0
SDN,2009-11-24,13800.0
SDN,2009-11-25,14200.0
SDN,2009-11-26,14200.0
SDN,2009-11-27,14200.0
SDN,2009-11-30,14200.0
SDN,2009-12-01,14200.0
SDN,2009-12-02,14200.0
SDN,2009-12-03,14200.0
SDN,2009-12-04,14200.0
SDN,2009-12-07,14200.0
SDN,2009-12-08,14200.0
SDN,2009-12-09,14200.0
SDN,2009-12-10,14200.0
SDN,2009-12-11,14200.0
SDN,2009-12-14,14200.0
SDN,2009-12-15,14200.0
SDN,2009-12-16,13300.0
SDN,2009-12-17,13300.0
SDN,2009-12-18,14000.0
SDN,2009-12-21,13000.0
SDN,2009-12-22,12200.0
SDN,2009-12-23,13300.0
SDN,2009-12-24,14000.0
SDN,2009-12-25,14200.0
SDN,2009-12-28,14500.0
SDN,2009-12-29,14500.0
SDN,2009-12-30,14800.0
SDN,2009-12-31,13800.0
SDN,2010-01-04,14800.0
SDN,2010-01-05,14200.0
SDN,2010-01-06,14800.0
SDN,2010-01-07,14800.0
SDN,2010-01-08,13900.0
SDN,2010-01-11,13900.0
SDN,2010-01-12,13000.0
SDN,2010-01-13,13700.0
SDN,2010-01-14,14600.0
SDN,2010-01-15,15600.0
SDN,2010-01-18,16400.0
SDN,2010-01-19,16400.0
SDN,2010-01-20,16400.0
SDN,2010-01-21,15200.0
SDN,2010-01-22,14400.0
SDN,2010-01-25,13600.0
SDN,2010-01-26,14400.0
SDN,2010-01-27,14800.0
SDN,2010-01-28,13800.0
SDN,2010-01-29,13100.0
SDN,2010-02-01,14000.0
SDN,2010-02-02,14800.0
SDN,2010-02-03,13800.0
SDN,2010-02-04,14200.0
SDN,2010-02-05,14200.0
SDN,2010-02-08,13200.0
SDN,2010-02-09,14100.0
SDN,2010-02-10,14100.0
SDN,2010-02-11,14600.0
SDN,2010-02-12,14400.0
SDN,2010-02-22,14400.0
SDN,2010-02-23,14400.0
SDN,2010-02-24,14400.0
SDN,2010-02-25,14400.0
SDN,2010-02-26,14400.0
SDN,2010-03-01,14400.0
SDN,2010-03-02,14400.0
SDN,2010-03-03,14400.0
SDN,2010-03-04,14400.0
SDN,2010-03-05,13400.0
SDN,2010-03-08,14200.0
SDN,2010-03-09,14200.0
SDN,2010-03-10,13300.0
SDN,2010-03-11,13300.0
SDN,2010-03-12,14200.0
SDN,2010-03-15,14300.0
SDN,2010-03-16,13300.0
SDN,2010-03-17,13300.0
SDN,2010-03-18,12500.0
SDN,2010-03-19,13300.0
SDN,2010-03-22,12200.0
SDN,2010-03-23,11900.0
SDN,2010-03-24,11800.0
SDN,2010-03-25,12500.0
SDN,2010-03-26,13200.0
SDN,2010-03-29,13600.0
SDN,2010-03-30,12700.0
SDN,2010-03-31,12800.0
SDN,2010-04-01,13400.0
SDN,2010-04-02,13400.0
SDN,2010-04-05,13400.0
SDN,2010-04-06,13400.0
SDN,2010-04-07,12500.0
SDN,2010-04-08,12500.0
SDN,2010-04-09,12900.0
SDN,2010-04-12,12200.0
SDN,2010-04-13,12200.0
SDN,2010-04-14,12000.0
SDN,2010-04-15,12200.0
SDN,2010-04-16,12800.0
SDN,2010-04-19,13500.0
SDN,2010-04-20,13200.0
SDN,2010-04-21,13200.0
SDN,2010-04-22,12500.0
SDN,2010-04-26,12700.0
SDN,2010-04-27,11900.0
SDN,2010-04-28,12000.0
SDN,2010-04-29,12800.0
SDN,2010-05-04,13400.0
SDN,2010-05-05,13000.0
SDN,2010-05-06,12900.0
SDN,2010-05-07,12900.0
SDN,2010-05-10,13500.0
SDN,2010-05-11,13100.0
SDN,2010-05-12,13400.0
SDN,2010-05-13,13400.0
SDN,2010-05-14,13300.0
SDN,2010-05-17,13300.0
SDN,2010-05-18,13400.0
SDN,2010-05-19,12500.0
SDN,2010-05-20,12900.0
SDN,2010-05-21,11900.0
SDN,2010-05-24,12700.0
SDN,2010-05-25,12700.0
SDN,2010-05-26,12800.0
SDN,2010-05-27,12800.0
SDN,2010-05-28,13300.0
SDN,2010-05-31,12400.0
SDN,2010-06-01,12800.0
SDN,2010-06-02,12000.0
SDN,2010-06-03,12000.0
SDN,2010-06-04,11400.0
SDN,2010-06-07,11400.0
SDN,2010-06-08,12100.0
SDN,2010-06-09,11900.0
SDN,2010-06-10,12600.0
SDN,2010-06-11,12800.0
SDN,2010-06-14,13400.0
SDN,2010-06-15,13600.0
SDN,2010-06-16,12700.0
SDN,2010-06-17,12000.0
SDN,2010-06-18,11500.0
SDN,2010-06-21,12200.0
SDN,2010-06-22,12300.0
SDN,2010-06-23,12800.0
SDN,2010-06-24,12900.0
SDN,2010-06-25,12900.0
SDN,2010-06-28,12900.0
SDN,2010-06-29,12900.0
SDN,2010-06-30,12700.0
SDN,2010-07-01,12600.0
SDN,2010-07-02,12700.0
SDN,2010-07-05,12800.0
SDN,2010-07-06,12800.0
SDN,2010-07-07,13600.0
SDN,2010-07-08,13200.0
SDN,2010-07-09,12900.0
SDN,2010-07-12,13800.0
SDN,2010-07-13,13400.0
SDN,2010-07-14,13400.0
SDN,2010-07-15,13000.0
SDN,2010-07-16,13300.0
SDN,2010-07-19,13500.0
SDN,2010-07-20,13500.0
SDN,2010-07-21,13100.0
SDN,2010-07-22,13700.0
SDN,2010-07-23,13700.0
SDN,2010-07-26,13400.0
SDN,2010-07-27,13400.0
SDN,2010-07-28,12500.0
SDN,2010-07-29,13100.0
SDN,2010-07-30,14000.0
SDN,2010-08-02,14900.0
SDN,2010-08-03,15600.0
SDN,2010-08-04,15600.0
SDN,2010-08-05,15200.0
SDN,2010-08-06,15300.0
SDN,2010-08-09,16100.0
SDN,2010-08-10,16100.0
SDN,2010-08-11,16100.0
SDN,2010-08-12,16100.0
SDN,2010-08-13,16900.0
SDN,2010-08-16,16900.0
SDN,2010-08-17,16900.0
SDN,2010-08-18,16900.0
SDN,2010-08-19,16600.0
SDN,2010-08-20,16600.0
SDN,2010-08-23,16600.0
SDN,2010-08-24,15600.0
SDN,2010-08-25,15600.0
SDN,2010-08-26,15600.0
SDN,2010-08-27,14500.0
SDN,2010-08-30,15500.0
SDN,2010-08-31,14400.0
SDN,2010-09-01,13700.0
SDN,2010-09-06,13700.0
SDN,2010-09-07,13700.0
SDN,2010-09-08,13700.0
SDN,2010-09-09,13700.0
SDN,2010-09-10,13700.0
SDN,2010-09-13,13700.0
SDN,2010-09-14,12800.0
SDN,2010-09-15,12800.0
SDN,2010-09-16,11900.0
SDN,2010-09-17,11500.0
SDN,2010-09-20,11500.0
SDN,2010-09-21,11500.0
SDN,2010-09-22,12200.0
SDN,2010-09-23,12700.0
SDN,2010-09-24,11900.0
SDN,2010-09-27,11900.0
SDN,2010-09-28,11200.0
SDN,2010-09-29,11200.0
SDN,2010-09-30,11200.0
SDN,2010-10-01,11900.0
SDN,2010-10-04,11900.0
SDN,2010-10-05,11900.0
SDN,2010-10-06,12700.0
SDN,2010-10-07,13200.0
SDN,2010-10-08,13700.0
SDN,2010-10-11,13800.0
SDN,2010-10-12,13100.0
SDN,2010-10-13,13100.0
SDN,2010-10-14,13100.0
SDN,2010-10-15,13700.0
SDN,2010-10-18,13600.0
SDN,2010-10-19,13600.0
SDN,2010-10-20,12700.0
SDN,2010-10-21,12700.0
SDN,2010-10-22,12700.0
SDN,2010-10-25,12700.0
SDN,2010-10-26,12600.0
SDN,2010-10-27,12600.0
SDN,2010-10-28,12600.0
SDN,2010-10-29,12600.0
SDN,2010-11-01,12600.0
SDN,2010-11-02,12600.0
SDN,2010-11-03,12600.0
SDN,2010-11-04,12600.0
SDN,2010-11-05,12600.0
SDN,2010-11-08,13400.0
SDN,2010-11-09,13400.0
SDN,2010-11-10,13400.0
SDN,2010-11-11,13400.0
SDN,2010-11-12,12500.0
SDN,2010-11-15,12500.0
SDN,2010-11-16,12500.0
SDN,2010-11-17,12500.0
SDN,2010-11-18,12500.0
SDN,2010-11-19,12500.0
SDN,2010-11-22,12500.0
SDN,2010-11-23,13400.0
SDN,2010-11-24,13400.0
SDN,2010-11-25,12500.0
SDN,2010-11-26,11600.0
SDN,2010-11-29,11600.0
SDN,2010-11-30,10800.0
SDN,2010-12-01,10800.0
SDN,2010-12-02,10800.0
SDN,2010-12-03,11000.0
SDN,2010-12-06,10400.0
SDN,2010-12-07,9700.0
SDN,2010-12-08,9800.0
SDN,2010-12-09,10500.0
SDN,2010-12-10,9800.0
SDN,2010-12-13,9800.0
SDN,2010-12-14,9800.0
SDN,2010-12-15,9800.0
SDN,2010-12-16,9300.0
SDN,2010-12-17,9900.0
SDN,2010-12-20,9900.0
SDN,2010-12-21,9900.0
SDN,2010-12-22,10600.0
SDN,2010-12-23,11200.0
SDN,2010-12-24,11200.0
SDN,2010-12-27,11200.0
SDN,2010-12-28,11200.0
SDN,2010-12-29,11200.0
SDN,2010-12-30,12000.0
SDN,2010-12-31,12000.0
SDN,2011-01-04,12300.0
SDN,2011-01-05,12300.0
SDN,2011-01-06,12300.0
SDN,2011-01-07,12300.0
SDN,2011-01-10,12300.0
SDN,2011-01-11,11400.0
SDN,2011-01-12,10700.0
SDN,2011-01-13,10700.0
SDN,2011-01-14,10700.0
SDN,2011-01-17,10700.0
SDN,2011-01-18,10700.0
SDN,2011-01-19,10700.0
SDN,2011-01-20,10700.0
SDN,2011-01-21,10700.0
SDN,2011-01-24,10700.0
SDN,2011-01-25,10700.0
SDN,2011-01-26,10700.0
SDN,2011-01-27,10700.0
SDN,2011-01-28,10700.0
SDN,2011-02-08,10700.0
SDN,2011-02-09,10700.0
SDN,2011-02-10,10700.0
SDN,2011-02-11,11400.0
SDN,2011-02-14,11000.0
SDN,2011-02-15,11000.0
SDN,2011-02-16,11000.0
SDN,2011-02-17,11100.0
SDN,2011-02-18,11100.0
SDN,2011-02-21,11100.0
SDN,2011-02-22,11100.0
SDN,2011-02-23,11100.0
SDN,2011-02-24,11100.0
SDN,2011-02-25,11100.0
SDN,2011-02-28,11100.0
SDN,2011-03-01,11100.0
SDN,2011-03-02,11100.0
SDN,2011-03-03,10300.0
SDN,2011-03-04,10300.0
SDN,2011-03-07,10300.0
SDN,2011-03-08,10300.0
SDN,2011-03-09,11000.0
SDN,2011-03-10,11000.0
SDN,2011-03-11,11000.0
SDN,2011-03-14,11000.0
SDN,2011-03-15,11000.0
SDN,2011-03-16,11800.0
SDN,2011-03-17,11800.0
SDN,2011-03-18,11800.0
SDN,2011-03-21,11800.0
SDN,2011-03-22,11800.0
SDN,2011-03-23,11800.0
SDN,2011-03-24,11800.0
SDN,2011-03-25,11800.0
SDN,2011-03-28,11800.0
SDN,2011-03-29,11800.0
SDN,2011-03-30,11800.0
SDN,2011-03-31,11800.0
SDN,2011-04-01,11800.0
SDN,2011-04-04,11800.0
SDN,2011-04-05,11800.0
SDN,2011-04-06,11800.0
SDN,2011-04-07,11800.0
SDN,2011-04-08,11800.0
SDN,2011-04-13,11800.0
SDN,2011-04-14,11800.0
SDN,2011-04-15,11800.0
SDN,2011-04-18,11800.0
SDN,2011-04-19,11800.0
SDN,2011-04-20,11800.0
SDN,2011-04-21,11800.0
SDN,2011-04-22,11800.0
SDN,2011-04-25,11800.0
SDN,2011-04-26,11800.0
SDN,2011-04-27,11800.0
SDN,2011-04-28,11800.0
SDN,2011-04-29,11800.0
SDN,2011-05-04,11800.0
SDN,2011-05-05,11800.0
SDN,2011-05-06,11800.0
SDN,2011-05-09,11800.0
SDN,2011-05-10,11800.0
SDN,2011-05-11,11800.0
SDN,2011-05-12,11800.0
SDN,2011-05-13,11800.0
SDN,2011-05-16,11800.0
SDN,2011-05-17,11800.0
SDN,2011-05-18,11800.0
SDN,2011-05-19,11800.0
SDN,2011-05-20,11800.0
SDN,2011-05-23,11800.0
SDN,2011-05-24,11800.0
SDN,2011-05-25,11800.0
SDN,2011-05-26,11800.0
SDN,2011-05-27,11800.0
SDN,2011-05-30,11800.0
SDN,2011-05-31,11800.0
SDN,2011-06-01,11800.0
SDN,2011-06-02,11800.0
SDN,2011-06-03,11800.0
SDN,2011-06-06,11800.0
SDN,2011-06-07,11200.0
SDN,2011-06-08,11200.0
SDN,2011-06-09,11200.0
SDN,2011-06-10,11500.0
SDN,2011-06-13,11600.0
SDN,2011-06-14,11600.0
SDN,2011-06-15,11600.0
SDN,2011-06-16,11600.0
SDN,2011-06-17,11600.0
SDN,2011-06-20,11600.0
SDN,2011-06-21,11600.0
SDN,2011-06-22,11600.0
SDN,2011-06-23,11600.0
SDN,2011-06-24,11600.0
SDN,2011-06-27,11600.0
SDN,2011-06-28,11600.0
SDN,2011-06-29,11600.0
SDN,2011-06-30,11600.0
SDN,2011-07-01,11600.0
SDN,2011-07-04,11600.0
SDN,2011-07-05,11600.0
SDN,2011-07-06,11600.0
SDN,2011-07-07,11600.0
SDN,2011-07-08,11600.0
SDN,2011-07-11,11600.0
SDN,2011-07-12,11600.0
SDN,2011-07-13,11600.0
SDN,2011-07-14,11600.0
SDN,2011-07-15,11600.0
SDN,2011-07-18,11600.0
SDN,2011-07-19,11600.0
SDN,2011-07-20,12300.0
SDN,2011-07-21,12300.0
SDN,2011-07-22,12300.0
SDN,2011-07-25,12300.0
SDN,2011-07-26,12300.0
SDN,2011-07-27,12300.0
SDN,2011-07-28,12300.0
SDN,2011-07-29,12300.0
SDN,2011-08-01,12300.0
SDN,2011-08-02,12300.0
SDN,2011-08-03,12300.0
SDN,2011-08-04,12300.0
SDN,2011-08-05,12300.0
SDN,2011-08-08,12300.0
SDN,2011-08-09,12300.0
SDN,2011-08-10,12300.0
SDN,2011-08-11,12300.0
SDN,2011-08-12,12300.0
SDN,2011-08-15,12300.0
SDN,2011-08-16,12300.0
SDN,2011-08-17,11500.0
SDN,2011-08-18,11500.0
SDN,2011-08-19,11500.0
SDN,2011-08-22,11500.0
SDN,2011-08-23,11200.0
SDN,2011-08-24,11200.0
SDN,2011-08-25,11200.0
SDN,2011-08-26,11200.0
SDN,2011-08-29,11200.0
SDN,2011-08-30,11200.0
SDN,2011-08-31,11200.0
SDN,2011-09-01,11900.0
SDN,2011-09-05,11100.0
SDN,2011-09-06,11100.0
SDN,2011-09-07,11100.0
SDN,2011-09-08,11100.0
SDN,2011-09-09,11100.0
SDN,2011-09-12,11100.0
SDN,2011-09-13,11100.0
SDN,2011-09-14,11100.0
SDN,2011-09-15,10400.0
SDN,2011-09-16,9700.0
SDN,2011-09-19,9000.0
SDN,2011-09-20,8800.0
SDN,2011-09-21,9700.0
SDN,2011-09-22,9700.0
SDN,2011-09-23,10400.0
SDN,2011-09-26,9800.0
SDN,2011-09-27,9800.0
SDN,2011-09-28,9800.0
SDN,2011-09-29,9200.0
SDN,2011-09-30,9200.0
SDN,2011-10-03,9200.0
SDN,2011-10-04,9200.0
SDN,2011-10-05,8600.0
SDN,2011-10-06,8600.0
SDN,2011-10-07,8600.0
SDN,2011-10-10,8600.0
SDN,2011-10-11,8600.0
SDN,2011-10-12,8600.0
SDN,2011-10-13,8000.0
SDN,2011-10-14,8000.0
SDN,2011-10-17,8000.0
SDN,2011-10-18,8000.0
SDN,2011-10-19,8000.0
SDN,2011-10-20,8000.0
SDN,2011-10-21,8000.0
SDN,2011-10-24,8000.0
SDN,2011-10-25,8000.0
SDN,2011-10-26,8000.0
SDN,2011-10-27,7500.0
SDN,2011-10-28,7500.0
SDN,2011-10-31,7500.0
SDN,2011-11-01,7500.0
SDN,2011-11-02,7500.0
SDN,2011-11-03,7500.0
SDN,2011-11-04,7500.0
SDN,2011-11-07,7500.0
SDN,2011-11-08,7500.0
SDN,2011-11-09,7500.0
SDN,2011-11-10,7500.0
SDN,2011-11-11,7500.0
SDN,2011-11-14,7500.0
SDN,2011-11-15,7500.0
SDN,2011-11-16,7500.0
SDN,2011-11-17,7500.0
SDN,2011-11-18,7100.0
SDN,2011-11-21,7100.0
SDN,2011-11-22,7100.0
SDN,2011-11-23,7100.0
SDN,2011-11-24,7100.0
SDN,2011-11-25,7100.0
SDN,2011-11-28,6600.0
SDN,2011-11-29,6600.0
SDN,2011-11-30,6600.0
SDN,2011-12-01,6600.0
SDN,2011-12-02,6200.0
SDN,2011-12-05,6200.0
SDN,2011-12-06,6200.0
SDN,2011-12-07,6200.0
SDN,2011-12-08,6200.0
SDN,2011-12-09,6200.0
SDN,2011-12-12,5800.0
SDN,2011-12-13,5800.0
SDN,2011-12-14,5800.0
SDN,2011-12-15,5800.0
SDN,2011-12-16,5800.0
SDN,2011-12-19,5800.0
SDN,2011-12-20,5800.0
SDN,2011-12-21,5800.0
SDN,2011-12-22,5800.0
SDN,2011-12-23,5800.0
SDN,2011-12-26,5800.0
SDN,2011-12-27,5800.0
SDN,2011-12-28,5800.0
SDN,2011-12-29,5500.0
SDN,2011-12-30,5200.0
SDN,2012-01-03,5500.0
SDN,2012-01-04,5500.0
SDN,2012-01-05,5500.0
SDN,2012-01-06,5500.0
SDN,2012-01-09,5500.0
SDN,2012-01-10,5500.0
SDN,2012-01-11,5500.0
SDN,2012-01-12,5500.0
SDN,2012-01-13,5500.0
SDN,2012-01-16,5500.0
SDN,2012-01-17,5500.0
SDN,2012-01-18,5300.0
SDN,2012-01-19,5300.0
SDN,2012-01-20,5300.0
SDN,2012-01-30,5300.0
SDN,2012-01-31,5300.0
SDN,2012-02-01,5300.0
SDN,2012-02-02,5300.0
SDN,2012-02-03,5300.0
SDN,2012-02-06,5300.0
SDN,2012-02-07,5300.0
SDN,2012-02-08,5300.0
SDN,2012-02-09,5700.0
SDN,2012-02-10,5700.0
SDN,2012-02-13,5700.0
SDN,2012-02-14,5300.0
SDN,2012-02-15,5300.0
SDN,2012-02-16,5300.0
SDN,2012-02-17,5300.0
SDN,2012-02-20,5500.0
SDN,2012-02-21,5900.0
SDN,2012-02-22,6300.0
SDN,2012-02-23,6700.0
SDN,2012-02-24,6800.0
SDN,2012-02-27,6900.0
SDN,2012-02-28,6900.0
SDN,2012-02-29,6900.0
SDN,2012-03-01,7000.0
SDN,2012-03-02,6700.0
SDN,2012-03-05,6700.0
SDN,2012-03-06,6800.0
SDN,2012-03-07,6900.0
SDN,2012-03-08,6800.0
SDN,2012-03-09,6300.0
SDN,2012-03-12,6800.0
SDN,2012-03-13,6900.0
SDN,2012-03-14,7100.0
SDN,2012-03-15,7700.0
SDN,2012-03-16,8000.0
SDN,2012-03-19,8500.0
SDN,2012-03-20,9100.0
SDN,2012-03-21,9700.0
SDN,2012-03-22,10200.0
SDN,2012-03-23,10800.0
SDN,2012-03-26,10800.0
SDN,2012-03-27,10900.0
SDN,2012-03-28,11200.0
SDN,2012-03-29,11200.0
SDN,2012-03-30,11600.0
SDN,2012-04-03,11600.0
SDN,2012-04-04,11600.0
SDN,2012-04-05,11600.0
SDN,2012-04-06,11600.0
SDN,2012-04-09,11400.0
SDN,2012-04-10,10800.0
SDN,2012-04-11,10300.0
SDN,2012-04-12,10300.0
SDN,2012-04-13,10300.0
SDN,2012-04-16,10300.0
SDN,2012-04-17,10900.0
SDN,2012-04-18,10900.0
SDN,2012-04-19,10900.0
SDN,2012-04-20,10900.0
SDN,2012-04-23,10900.0
SDN,2012-04-24,10900.0
SDN,2012-04-25,10900.0
SDN,2012-04-26,10900.0
SDN,2012-04-27,10900.0
SDN,2012-05-02,10900.0
SDN,2012-05-03,10900.0
SDN,2012-05-04,10900.0
SDN,2012-05-07,10900.0
SDN,2012-05-08,10900.0
SDN,2012-05-09,10900.0
SDN,2012-05-10,10900.0
SDN,2012-05-11,10900.0
SDN,2012-05-14,10900.0
SDN,2012-05-15,10900.0
SDN,2012-05-16,10900.0
SDN,2012-05-17,10900.0
SDN,2012-05-18,10900.0
SDN,2012-05-21,10900.0
SDN,2012-05-22,10600.0
SDN,2012-05-23,10600.0
SDN,2012-05-24,10600.0
SDN,2012-05-25,10600.0
SDN,2012-05-28,10600.0
SDN,2012-05-29,10900.0
SDN,2012-05-30,10900.0
SDN,2012-05-31,10900.0
SDN,2012-06-01,10900.0
SDN,2012-06-04,10900.0
SDN,2012-06-05,10900.0
SDN,2012-06-06,10200.0
SDN,2012-06-07,10200.0
SDN,2012-06-08,10200.0
SDN,2012-06-11,10200.0
SDN,2012-06-12,10200.0
SDN,2012-06-13,10200.0
SDN,2012-06-14,10200.0
SDN,2012-06-15,10200.0
SDN,2012-06-18,10200.0
SDN,2012-06-19,10200.0
SDN,2012-06-20,10200.0
SDN,2012-06-21,10200.0
SDN,2012-06-22,10200.0
SDN,2012-06-25,10200.0
SDN,2012-06-26,10200.0
SDN,2012-06-27,10200.0
SDN,2012-06-28,10200.0
SDN,2012-06-29,10200.0
SDN,2012-07-02,9600.0
SDN,2012-07-03,8900.0
SDN,2012-07-04,8900.0
SDN,2012-07-05,8900.0
SDN,2012-07-06,8400.0
SDN,2012-07-09,8400.0
SDN,2012-07-10,8400.0
SDN,2012-07-11,8400.0
SDN,2012-07-12,8400.0
SDN,2012-07-13,8400.0
SDN,2012-07-16,8400.0
SDN,2012-07-17,8400.0
SDN,2012-07-18,8400.0
SDN,2012-07-19,8400.0
SDN,2012-07-20,7800.0
SDN,2012-07-23,7800.0
SDN,2012-07-24,7800.0
SDN,2012-07-25,7800.0
SDN,2012-07-26,7800.0
SDN,2012-07-27,7800.0
SDN,2012-07-30,7800.0
SDN,2012-07-31,7800.0
SDN,2012-08-01,7800.0
SDN,2012-08-02,7800.0
SDN,2012-08-03,7800.0
SDN,2012-08-06,7800.0
SDN,2012-08-07,7800.0
SDN,2012-08-08,7800.0
SDN,2012-08-09,7800.0
SDN,2012-08-10,7800.0
SDN,2012-08-13,7800.0
SDN,2012-08-14,7600.0
SDN,2012-08-15,7700.0
SDN,2012-08-16,7700.0
SDN,2012-08-17,7700.0
SDN,2012-08-20,7700.0
SDN,2012-08-21,7700.0
SDN,2012-08-22,7700.0
SDN,2012-08-23,7700.0
SDN,2012-08-24,7700.0
SDN,2012-08-27,7700.0
SDN,2012-08-28,7700.0
SDN,2012-08-29,7300.0
SDN,2012-08-30,7300.0
SDN,2012-08-31,7300.0
SDN,2012-09-04,7600.0
SDN,2012-09-05,8000.0
SDN,2012-09-06,8000.0
SDN,2012-09-07,8000.0
SDN,2012-09-10,8000.0
SDN,2012-09-11,8000.0
SDN,2012-09-12,8000.0
SDN,2012-09-13,8000.0
SDN,2012-09-14,8000.0
SDN,2012-09-17,7500.0
SDN,2012-09-18,7500.0
SDN,2012-09-19,7500.0
SDN,2012-09-20,7500.0
SDN,2012-09-21,7500.0
SDN,2012-09-24,7500.0
SDN,2012-09-25,7500.0
SDN,2012-09-26,7500.0
SDN,2012-09-27,7500.0
SDN,2012-09-28,7500.0
SDN,2012-10-01,7500.0
SDN,2012-10-02,7500.0
SDN,2012-10-03,7500.0
SDN,2012-10-04,7500.0
SDN,2012-10-05,7500.0
SDN,2012-10-08,7500.0
SDN,2012-10-09,7500.0
SDN,2012-10-10,7500.0
SDN,2012-10-11,7500.0
SDN,2012-10-12,7800.0
SDN,2012-10-15,7800.0
SDN,2012-10-16,7800.0
SDN,2012-10-17,7800.0
SDN,2012-10-18,7800.0
SDN,2012-10-19,7800.0
SDN,2012-10-22,7800.0
SDN,2012-10-23,7800.0
SDN,2012-10-24,7800.0
SDN,2012-10-25,7500.0
SDN,2012-10-26,7500.0
SDN,2012-10-29,7500.0
SDN,2012-10-30,7500.0
SDN,2012-10-31,7500.0
SDN,2012-11-01,7500.0
SDN,2012-11-02,7500.0
SDN,2012-11-05,7500.0
SDN,2012-11-06,7500.0
SDN,2012-11-07,7500.0
SDN,2012-11-08,7500.0
SDN,2012-11-09,8000.0
SDN,2012-11-12,8000.0
SDN,2012-11-13,8500.0
SDN,2012-11-14,8500.0
SDN,2012-11-15,8500.0
SDN,2012-11-16,9100.0
SDN,2012-11-19,9100.0
SDN,2012-11-20,9500.0
SDN,2012-11-21,9500.0
SDN,2012-11-22,9500.0
SDN,2012-11-23,9500.0
SDN,2012-11-26,9500.0
SDN,2012-11-27,9900.0
SDN,2012-11-28,9900.0
SDN,2012-11-29,9900.0
SDN,2012-11-30,9900.0
SDN,2012-12-03,9900.0
SDN,2012-12-04,9900.0
SDN,2012-12-05,9900.0
SDN,2012-12-06,9900.0
SDN,2012-12-07,9900.0
SDN,2012-12-10,9900.0
SDN,2012-12-11,9900.0
SDN,2012-12-12,10600.0
SDN,2012-12-13,11300.0
SDN,2012-12-14,12000.0
SDN,2012-12-17,12800.0
SDN,2012-12-18,13700.0
SDN,2012-12-19,14200.0
SDN,2012-12-20,14600.0
SDN,2012-12-21,14800.0
SDN,2012-12-24,14800.0
SDN,2012-12-25,14800.0
SDN,2012-12-26,14800.0
SDN,2012-12-27,14800.0
SDN,2012-12-28,14800.0
SDN,2013-01-02,14800.0
SDN,2013-01-03,15000.0
SDN,2013-01-04,15000.0
SDN,2013-01-07,15900.0
SDN,2013-01-08,15900.0
SDN,2013-01-09,15900.0
SDN,2013-01-10,16900.0
SDN,2013-01-11,16900.0
SDN,2013-01-14,17900.0
SDN,2013-01-15,17900.0
SDN,2013-01-16,17900.0
SDN,2013-01-17,17900.0
SDN,2013-01-18,17900.0
SDN,2013-01-21,17800.0
SDN,2013-01-22,17800.0
SDN,2013-01-23,16100.0
SDN,2013-01-24,16100.0
SDN,2013-01-25,17700.0
SDN,2013-01-28,19400.0
SDN,2013-01-29,19400.0
SDN,2013-01-30,19400.0
SDN,2013-01-31,17500.0
SDN,2013-02-01,17500.0
SDN,2013-02-04,17500.0
SDN,2013-02-05,17500.0
SDN,2013-02-06,17500.0
SDN,2013-02-07,17500.0
SDN,2013-02-08,17500.0
SDN,2013-02-18,17500.0
SDN,2013-02-19,17500.0
SDN,2013-02-20,16000.0
SDN,2013-02-21,16000.0
SDN,2013-02-22,16000.0
SDN,2013-02-25,16000.0
SDN,2013-02-26,16000.0
SDN,2013-02-27,16000.0
SDN,2013-02-28,16000.0
SDN,2013-03-01,16000.0
SDN,2013-03-04,16000.0
SDN,2013-03-05,16000.0
SDN,2013-03-06,16000.0
SDN,2013-03-07,16000.0
SDN,2013-03-08,16000.0
SDN,2013-03-11,16000.0
SDN,2013-03-12,16000.0
SDN,2013-03-13,16000.0
SDN,2013-03-14,16000.0
SDN,2013-03-15,16000.0
SDN,2013-03-18,14400.0
SDN,2013-03-19,14400.0
SDN,2013-03-20,14400.0
SDN,2013-03-21,14400.0
SDN,2013-03-22,14400.0
SDN,2013-03-25,14400.0
SDN,2013-03-26,14400.0
SDN,2013-03-27,14400.0
SDN,2013-03-28,14400.0
SDN,2013-03-29,15100.0
SDN,2013-04-01,15100.0
SDN,2013-04-02,15100.0
SDN,2013-04-03,16600.0
SDN,2013-04-04,16600.0
SDN,2013-04-05,16600.0
SDN,2013-04-08,16600.0
SDN,2013-04-09,16600.0
SDN,2013-04-10,17300.0
SDN,2013-04-11,17800.0
SDN,2013-04-12,17300.0
SDN,2013-04-15,17300.0
SDN,2013-04-16,17300.0
SDN,2013-04-17,17300.0
SDN,2013-04-18,17300.0
SDN,2013-04-22,17800.0
SDN,2013-04-23,17800.0
SDN,2013-04-24,17800.0
SDN,2013-04-25,17300.0
SDN,2013-04-26,17300.0
SDN,2013-05-02,17300.0
SDN,2013-05-03,17300.0
SDN,2013-05-06,17300.0
SDN,2013-05-07,17300.0
SDN,2013-05-08,17300.0
SDN,2013-05-09,17300.0
SDN,2013-05-10,17300.0
SDN,2013-05-13,17300.0
SDN,2013-05-14,17300.0
SDN,2013-05-15,17300.0
SDN,2013-05-16,17300.0
SDN,2013-05-17,19000.0
SDN,2013-05-20,19000.0
SDN,2013-05-21,19000.0
SDN,2013-05-22,20800.0
SDN,2013-05-23,22800.0
SDN,2013-05-24,22800.0
SDN,2013-05-27,22800.0
SDN,2013-05-28,22800.0
SDN,2013-05-29,22800.0
SDN,2013-05-30,25000.0
SDN,2013-05-31,26400.0
SDN,2013-06-03,23800.0
SDN,2013-06-04,23800.0
SDN,2013-06-05,23800.0
SDN,2013-06-06,23800.0
SDN,2013-06-07,23800.0
SDN,2013-06-10,23800.0
SDN,2013-06-11,23800.0
SDN,2013-06-12,23800.0
SDN,2013-06-13,23800.0
SDN,2013-06-14,23800.0
SDN,2013-06-17,23800.0
SDN,2013-06-18,23800.0
SDN,2013-06-19,23800.0
SDN,2013-06-20,23800.0
SDN,2013-06-21,23800.0
SDN,2013-06-24,23800.0
SDN,2013-06-25,23800.0
SDN,2013-06-26,23800.0
SDN,2013-06-27,23800.0
SDN,2013-06-28,23800.0
SDN,2013-07-01,23800.0
SDN,2013-07-02,23800.0
SDN,2013-07-03,23800.0
SDN,2013-07-04,23800.0
SDN,2013-07-05,23800.0
SDN,2013-07-08,23800.0
SDN,2013-07-09,23800.0
SDN,2013-07-10,23800.0
SDN,2013-07-11,23800.0
SDN,2013-07-12,23800.0
SDN,2013-07-15,23800.0
SDN,2013-07-16,23800.0
SDN,2013-07-17,23800.0
SDN,2013-07-18,23800.0
SDN,2013-07-19,23800.0
SDN,2013-07-22,23800.0
SDN,2013-07-23,23800.0
SDN,2013-07-24,23800.0
SDN,2013-07-25,23800.0
SDN,2013-07-26,23800.0
SDN,2013-07-29,23800.0
SDN,2013-07-30,23800.0
SDN,2013-07-31,23800.0
SDN,2013-08-01,23800.0
SDN,2013-08-02,23800.0
SDN,2013-08-05,23800.0
SDN,2013-08-06,23800.0
SDN,2013-08-07,23800.0
SDN,2013-08-08,23800.0
SDN,2013-08-09,23800.0
SDN,2013-08-12,23800.0
SDN,2013-08-13,23800.0
SDN,2013-08-14,23800.0
SDN,2013-08-15,23800.0
SDN,2013-08-16,23800.0
SDN,2013-08-19,23800.0
SDN,2013-08-20,23800.0
SDN,2013-08-21,23800.0
SDN,2013-08-22,23800.0
SDN,2013-08-23,23800.0
SDN,2013-08-26,23800.0
SDN,2013-08-27,23800.0
SDN,2013-08-28,23800.0
SDN,2013-08-29,21500.0
SDN,2013-08-30,19400.0
SDN,2013-09-03,17500.0
SDN,2013-09-04,17500.0
SDN,2013-09-05,17500.0
SDN,2013-09-06,17500.0
SDN,2013-09-09,17500.0
SDN,2013-09-10,17500.0
SDN,2013-09-11,17500.0
SDN,2013-09-12,15800.0
SDN,2013-09-13,15800.0
SDN,2013-09-16,15800.0
SDN,2013-09-17,15800.0
SDN,2013-09-18,15800.0
SDN,2013-09-19,16000.0
SDN,2013-09-20,16000.0
SDN,2013-09-23,16500.0
SDN,2013-09-24,16500.0
SDN,2013-09-25,16500.0
SDN,2013-09-26,16500.0
SDN,2013-09-27,17500.0
SDN,2013-09-30,17500.0
SDN,2013-10-01,17500.0
SDN,2013-10-02,17500.0
SDN,2013-10-03,17500.0
SDN,2013-10-04,17500.0
SDN,2013-10-07,17500.0
SDN,2013-10-08,17500.0
SDN,2013-10-09,17500.0
SDN,2013-10-10,17500.0
SDN,2013-10-11,17500.0
SDN,2013-10-14,17500.0
SDN,2013-10-15,17500.0
SDN,2013-10-16,18000.0
SDN,2013-10-17,18200.0
SDN,2013-10-18,18200.0
SDN,2013-10-21,18200.0
SDN,2013-10-22,18200.0
SDN,2013-10-23,16400.0
SDN,2013-10-24,16400.0
SDN,2013-10-25,16400.0
SDN,2013-10-28,16400.0
SDN,2013-10-29,16400.0
SDN,2013-10-30,16400.0
SDN,2013-10-31,16400.0
SDN,2013-11-01,18000.0
SDN,2013-11-04,16400.0
SDN,2013-11-05,18000.0
SDN,2013-11-06,18000.0
SDN,2013-11-07,18000.0
SDN,2013-11-08,19800.0
SDN,2013-11-11,19800.0
SDN,2013-11-12,19800.0
SDN,2013-11-13,19800.0
SDN,2013-11-14,21600.0
SDN,2013-11-15,21600.0
SDN,2013-11-18,21600.0
SDN,2013-11-19,21600.0
SDN,2013-11-20,21600.0
SDN,2013-11-21,21600.0
SDN,2013-11-22,21600.0
SDN,2013-11-25,21600.0
SDN,2013-11-26,21600.0
SDN,2013-11-27,21600.0
SDN,2013-11-28,21600.0
SDN,2013-11-29,21600.0
SDN,2013-12-02,20000.0
SDN,2013-12-03,20000.0
SDN,2013-12-04,20000.0
SDN,2013-12-05,22000.0
SDN,2013-12-06,22500.0
SDN,2013-12-09,22500.0
SDN,2013-12-10,22000.0
SDN,2013-12-11,22000.0
SDN,2013-12-12,22000.0
SDN,2013-12-13,22000.0
SDN,2013-12-16,22000.0
SDN,2013-12-17,22000.0
SDN,2013-12-18,22000.0
SDN,2013-12-19,22000.0
SDN,2013-12-20,22000.0
SDN,2013-12-23,23000.0
SDN,2013-12-24,23000.0
SDN,2013-12-25,23000.0
SDN,2013-12-26,23000.0
SDN,2013-12-27,23000.0
SDN,2013-12-30,23000.0
SDN,2013-12-31,25200.0
SDN,2014-01-02,25200.0
SDN,2014-01-03,22700.0
SDN,2014-01-06,22700.0
SDN,2014-01-07,23000.0
SDN,2014-01-08,23000.0
SDN,2014-01-09,23000.0
SDN,2014-01-10,23000.0
SDN,2014-01-13,20700.0
SDN,2014-01-14,20700.0
SDN,2014-01-15,22500.0
SDN,2014-01-16,22500.0
SDN,2014-01-17,22500.0
SDN,2014-01-20,24000.0
SDN,2014-01-21,24000.0
SDN,2014-01-22,24000.0
SDN,2014-01-23,24000.0
SDN,2014-01-24,24000.0
SDN,2014-01-27,24000.0
SDN,2014-02-06,24000.0
SDN,2014-02-07,24000.0
SDN,2014-02-10,21600.0
SDN,2014-02-11,20700.0
SDN,2014-02-12,20700.0
SDN,2014-02-13,20700.0
SDN,2014-02-14,20700.0
SDN,2014-02-17,20700.0
SDN,2014-02-18,20700.0
SDN,2014-02-19,22700.0
SDN,2014-02-20,22700.0
SDN,2014-02-21,24300.0
SDN,2014-02-24,24300.0
SDN,2014-02-25,24300.0
SDN,2014-02-26,25000.0
SDN,2014-02-27,25000.0
SDN,2014-02-28,25000.0
SDN,2014-03-03,25000.0
SDN,2014-03-04,25000.0
SDN,2014-03-05,25000.0
SDN,2014-03-06,25000.0
SDN,2014-03-07,25000.0
SDN,2014-03-10,25000.0
SDN,2014-03-11,26000.0
SDN,2014-03-12,26000.0
SDN,2014-03-13,26000.0
SDN,2014-03-14,26000.0
SDN,2014-03-17,26000.0
SDN,2014-03-18,26000.0
SDN,2014-03-19,26000.0
SDN,2014-03-20,26000.0
SDN,2014-03-21,26000.0
SDN,2014-03-24,26000.0
SDN,2014-03-25,26000.0
SDN,2014-03-26,26000.0
SDN,2014-03-27,26000.0
SDN,2014-03-28,26000.0
SDN,2014-03-31,26000.0
SDN,2014-04-01,26000.0
SDN,2014-04-02,26000.0
SDN,2014-04-03,26000.0
SDN,2014-04-04,26000.0
SDN,2014-04-07,26000.0
SDN,2014-04-08,26000.0
SDN,2014-04-10,26000.0
SDN,2014-04-11,26000.0
SDN,2014-04-14,26000.0
SDN,2014-04-15,26000.0
SDN,2014-04-16,26000.0
SDN,2014-04-17,26000.0
SDN,2014-04-18,26000.0
SDN,2014-04-21,26000.0
SDN,2014-04-22,26000.0
SDN,2014-04-23,26000.0
SDN,2014-04-24,26000.0
SDN,2014-04-25,26000.0
SDN,2014-04-28,26000.0
SDN,2014-04-29,26000.0
SDN,2014-05-05,26000.0
SDN,2014-05-06,26000.0
SDN,2014-05-07,26000.0
SDN,2014-05-08,26000.0
SDN,2014-05-09,26000.0
SDN,2014-05-12,26000.0
SDN,2014-05-13,26000.0
SDN,2014-05-14,26000.0
SDN,2014-05-15,25000.0
SDN,2014-05-16,25000.0
SDN,2014-05-19,25000.0
SDN,2014-05-20,25000.0
SDN,2014-05-21,25000.0
