SDU,2009-09-28,48500.0
SDU,2009-09-29,46200.0
SDU,2009-09-30,43700.0
SDU,2009-10-01,41200.0
SDU,2009-10-02,38400.0
SDU,2009-10-05,35800.0
SDU,2009-10-06,38300.0
SDU,2009-10-07,40500.0
SDU,2009-10-08,40600.0
SDU,2009-10-09,40300.0
SDU,2009-10-12,42000.0
SDU,2009-10-13,41500.0
SDU,2009-10-14,41500.0
SDU,2009-10-15,41600.0
SDU,2009-10-16,40300.0
SDU,2009-10-19,43000.0
SDU,2009-10-20,45200.0
SDU,2009-10-21,48300.0
SDU,2009-10-22,47900.0
SDU,2009-10-23,45000.0
SDU,2009-10-26,44600.0
SDU,2009-10-27,43000.0
SDU,2009-10-28,43600.0
SDU,2009-10-29,42700.0
SDU,2009-10-30,43800.0
SDU,2009-11-02,39700.0
SDU,2009-11-03,37700.0
SDU,2009-11-04,39000.0
SDU,2009-11-05,41800.0
SDU,2009-11-06,38600.0
SDU,2009-11-09,38900.0
SDU,2009-11-10,39100.0
SDU,2009-11-11,40900.0
SDU,2009-11-12,42500.0
SDU,2009-11-13,42100.0
SDU,2009-11-16,41800.0
SDU,2009-11-17,42000.0
SDU,2009-11-18,42200.0
SDU,2009-11-19,41900.0
SDU,2009-11-20,41700.0
SDU,2009-11-23,40300.0
SDU,2009-11-24,39800.0
SDU,2009-11-25,37900.0
SDU,2009-11-26,35800.0
SDU,2009-11-27,33900.0
SDU,2009-11-30,36700.0
SDU,2009-12-01,39100.0
SDU,2009-12-02,39700.0
SDU,2009-12-03,39700.0
SDU,2009-12-04,40000.0
SDU,2009-12-07,39100.0
SDU,2009-12-08,39100.0
SDU,2009-12-09,36300.0
SDU,2009-12-10,37300.0
SDU,2009-12-11,36800.0
SDU,2009-12-14,37100.0
SDU,2009-12-15,35900.0
SDU,2009-12-16,33500.0
SDU,2009-12-17,33500.0
SDU,2009-12-18,35600.0
SDU,2009-12-21,37900.0
SDU,2009-12-22,37700.0
SDU,2009-12-23,34800.0
SDU,2009-12-24,37400.0
SDU,2009-12-25,38600.0
SDU,2009-12-28,37100.0
SDU,2009-12-29,37700.0
SDU,2009-12-30,38000.0
SDU,2009-12-31,37900.0
SDU,2010-01-04,41200.0
SDU,2010-01-05,40900.0
SDU,2010-01-06,40700.0
SDU,2010-01-07,41900.0
SDU,2010-01-08,41300.0
SDU,2010-01-11,39900.0
SDU,2010-01-12,38300.0
SDU,2010-01-13,38900.0
SDU,2010-01-14,39400.0
SDU,2010-01-15,38300.0
SDU,2010-01-18,35900.0
SDU,2010-01-19,36500.0
SDU,2010-01-20,35900.0
SDU,2010-01-21,36500.0
SDU,2010-01-22,35800.0
SDU,2010-01-25,35300.0
SDU,2010-01-26,38200.0
SDU,2010-01-27,37100.0
SDU,2010-01-28,36500.0
SDU,2010-01-29,37100.0
SDU,2010-02-01,37100.0
SDU,2010-02-02,35600.0
SDU,2010-02-03,37100.0
SDU,2010-02-04,37100.0
SDU,2010-02-05,37700.0
SDU,2010-02-08,38100.0
SDU,2010-02-09,37100.0
SDU,2010-02-10,38100.0
SDU,2010-02-11,38600.0
SDU,2010-02-12,38600.0
SDU,2010-02-22,39100.0
SDU,2010-02-23,38600.0
SDU,2010-02-24,40100.0
SDU,2010-02-25,39500.0
SDU,2010-02-26,39700.0
SDU,2010-03-01,39700.0
SDU,2010-03-02,40200.0
SDU,2010-03-03,41900.0
SDU,2010-03-04,41600.0
SDU,2010-03-05,43700.0
SDU,2010-03-08,43700.0
SDU,2010-03-09,43400.0
SDU,2010-03-10,44300.0
SDU,2010-03-11,44100.0
SDU,2010-03-12,44000.0
SDU,2010-03-15,42800.0
SDU,2010-03-16,42200.0
SDU,2010-03-17,41300.0
SDU,2010-03-18,42400.0
SDU,2010-03-19,41900.0
SDU,2010-03-22,41800.0
SDU,2010-03-23,41300.0
SDU,2010-03-24,41300.0
SDU,2010-03-25,40200.0
SDU,2010-03-26,41000.0
SDU,2010-03-29,40900.0
SDU,2010-03-30,40800.0
SDU,2010-03-31,40100.0
SDU,2010-04-01,40100.0
SDU,2010-04-02,40100.0
SDU,2010-04-05,40300.0
SDU,2010-04-06,40400.0
SDU,2010-04-07,40500.0
SDU,2010-04-08,41300.0
SDU,2010-04-09,41000.0
SDU,2010-04-12,41000.0
SDU,2010-04-13,40200.0
SDU,2010-04-14,40800.0
SDU,2010-04-15,42000.0
SDU,2010-04-16,44900.0
SDU,2010-04-19,47900.0
SDU,2010-04-20,48500.0
SDU,2010-04-21,51800.0
SDU,2010-04-22,55400.0
SDU,2010-04-26,53900.0
SDU,2010-04-27,54600.0
SDU,2010-04-28,54200.0
SDU,2010-04-29,57500.0
SDU,2010-05-04,59100.0
SDU,2010-05-05,56900.0
SDU,2010-05-06,58200.0
SDU,2010-05-07,55700.0
SDU,2010-05-10,55100.0
SDU,2010-05-11,55600.0
SDU,2010-05-12,54300.0
SDU,2010-05-13,54800.0
SDU,2010-05-14,55100.0
SDU,2010-05-17,55400.0
SDU,2010-05-18,59600.0
SDU,2010-05-19,59400.0
SDU,2010-05-20,59300.0
SDU,2010-05-21,56300.0
SDU,2010-05-24,59900.0
SDU,2010-05-25,59300.0
SDU,2010-05-26,59600.0
SDU,2010-05-27,59900.0
SDU,2010-05-28,62600.0
SDU,2010-05-31,60900.0
SDU,2010-06-01,60500.0
SDU,2010-06-02,59300.0
SDU,2010-06-03,59400.0
SDU,2010-06-04,58400.0
SDU,2010-06-07,58100.0
SDU,2010-06-08,59300.0
SDU,2010-06-09,56900.0
SDU,2010-06-10,56000.0
SDU,2010-06-11,56900.0
SDU,2010-06-14,58800.0
SDU,2010-06-15,56300.0
SDU,2010-06-16,57200.0
SDU,2010-06-17,56300.0
SDU,2010-06-18,58200.0
SDU,2010-06-21,56900.0
SDU,2010-06-22,57200.0
SDU,2010-06-23,57500.0
SDU,2010-06-24,57200.0
SDU,2010-06-25,56300.0
SDU,2010-06-28,57800.0
SDU,2010-06-29,58400.0
SDU,2010-06-30,59000.0
SDU,2010-07-01,58400.0
SDU,2010-07-02,59300.0
SDU,2010-07-05,59000.0
SDU,2010-07-06,59000.0
SDU,2010-07-07,58400.0
SDU,2010-07-08,58100.0
SDU,2010-07-09,58700.0
SDU,2010-07-12,58700.0
SDU,2010-07-13,62500.0
SDU,2010-07-14,64100.0
SDU,2010-07-15,63800.0
SDU,2010-07-16,63300.0
SDU,2010-07-19,62300.0
SDU,2010-07-20,62300.0
SDU,2010-07-21,61100.0
SDU,2010-07-22,60800.0
SDU,2010-07-23,61400.0
SDU,2010-07-26,65200.0
SDU,2010-07-27,69700.0
SDU,2010-07-28,69900.0
SDU,2010-07-29,70000.0
SDU,2010-07-30,68300.0
SDU,2010-08-02,65400.0
SDU,2010-08-03,64000.0
SDU,2010-08-04,61200.0
SDU,2010-08-05,62000.0
SDU,2010-08-06,62000.0
SDU,2010-08-09,58200.0
SDU,2010-08-10,56300.0
SDU,2010-08-11,57000.0
SDU,2010-08-12,53000.0
SDU,2010-08-13,58900.0
SDU,2010-08-16,60000.0
SDU,2010-08-17,56500.0
SDU,2010-08-18,54000.0
SDU,2010-08-19,55300.0
SDU,2010-08-20,51900.0
SDU,2010-08-23,54000.0
SDU,2010-08-24,50000.0
SDU,2010-08-25,47000.0
SDU,2010-08-26,49000.0
SDU,2010-08-27,46000.0
SDU,2010-08-30,51000.0
SDU,2010-08-31,51100.0
SDU,2010-09-01,53300.0
SDU,2010-09-06,50600.0
SDU,2010-09-07,50500.0
SDU,2010-09-08,48700.0
SDU,2010-09-09,49500.0
SDU,2010-09-10,47200.0
SDU,2010-09-13,46000.0
SDU,2010-09-14,45500.0
SDU,2010-09-15,46000.0
SDU,2010-09-16,44600.0
SDU,2010-09-17,47000.0
SDU,2010-09-20,45600.0
SDU,2010-09-21,45900.0
SDU,2010-09-22,46000.0
SDU,2010-09-23,45300.0
SDU,2010-09-24,45000.0
SDU,2010-09-27,44500.0
SDU,2010-09-28,44600.0
SDU,2010-09-29,44000.0
SDU,2010-09-30,43000.0
SDU,2010-10-01,43000.0
SDU,2010-10-04,40700.0
SDU,2010-10-05,42000.0
SDU,2010-10-06,43000.0
SDU,2010-10-07,42500.0
SDU,2010-10-08,42500.0
SDU,2010-10-11,40100.0
SDU,2010-10-12,37400.0
SDU,2010-10-13,36500.0
SDU,2010-10-14,39200.0
SDU,2010-10-15,39200.0
SDU,2010-10-18,39000.0
SDU,2010-10-19,36200.0
SDU,2010-10-20,37100.0
SDU,2010-10-21,37800.0
SDU,2010-10-22,35500.0
SDU,2010-10-25,36000.0
SDU,2010-10-26,38000.0
SDU,2010-10-27,37900.0
SDU,2010-10-28,35500.0
SDU,2010-10-29,36500.0
SDU,2010-11-01,36500.0
SDU,2010-11-02,36500.0
SDU,2010-11-03,36100.0
SDU,2010-11-04,33700.0
SDU,2010-11-05,37400.0
SDU,2010-11-08,34500.0
SDU,2010-11-09,35200.0
SDU,2010-11-10,34500.0
SDU,2010-11-11,35500.0
SDU,2010-11-12,35000.0
SDU,2010-11-15,34000.0
SDU,2010-11-16,34900.0
SDU,2010-11-17,32700.0
SDU,2010-11-18,33500.0
SDU,2010-11-19,35400.0
SDU,2010-11-22,33500.0
SDU,2010-11-23,36400.0
SDU,2010-11-24,36200.0
SDU,2010-11-25,36500.0
SDU,2010-11-26,36400.0
SDU,2010-11-29,38500.0
SDU,2010-11-30,38300.0
SDU,2010-12-01,39100.0
SDU,2010-12-02,42100.0
SDU,2010-12-03,42800.0
SDU,2010-12-06,43000.0
SDU,2010-12-07,41800.0
SDU,2010-12-08,40000.0
SDU,2010-12-09,43000.0
SDU,2010-12-10,45600.0
SDU,2010-12-13,46700.0
SDU,2010-12-14,44000.0
SDU,2010-12-15,43800.0
SDU,2010-12-16,41600.0
SDU,2010-12-17,42300.0
SDU,2010-12-20,41900.0
SDU,2010-12-21,40100.0
SDU,2010-12-22,41300.0
SDU,2010-12-23,39400.0
SDU,2010-12-24,38300.0
SDU,2010-12-27,39600.0
SDU,2010-12-28,38400.0
SDU,2010-12-29,38000.0
SDU,2010-12-30,37400.0
SDU,2010-12-31,37700.0
SDU,2011-01-04,38300.0
SDU,2011-01-05,39600.0
SDU,2011-01-06,39500.0
SDU,2011-01-07,39800.0
SDU,2011-01-10,39000.0
SDU,2011-01-11,37000.0
SDU,2011-01-12,38300.0
SDU,2011-01-13,38400.0
SDU,2011-01-14,38500.0
SDU,2011-01-17,38900.0
SDU,2011-01-18,38000.0
SDU,2011-01-19,37600.0
SDU,2011-01-20,37500.0
SDU,2011-01-21,37100.0
SDU,2011-01-24,36300.0
SDU,2011-01-25,36400.0
SDU,2011-01-26,37000.0
SDU,2011-01-27,37500.0
SDU,2011-01-28,37700.0
SDU,2011-02-08,38000.0
SDU,2011-02-09,37600.0
SDU,2011-02-10,37200.0
SDU,2011-02-11,37000.0
SDU,2011-02-14,37000.0
SDU,2011-02-15,37000.0
SDU,2011-02-16,36900.0
SDU,2011-02-17,36000.0
SDU,2011-02-18,35400.0
SDU,2011-02-21,33300.0
SDU,2011-02-22,32600.0
SDU,2011-02-23,32500.0
SDU,2011-02-24,32600.0
SDU,2011-02-25,33500.0
SDU,2011-02-28,33400.0
SDU,2011-03-01,33000.0
SDU,2011-03-02,30900.0
SDU,2011-03-03,30800.0
SDU,2011-03-04,30900.0
SDU,2011-03-07,29800.0
SDU,2011-03-08,30100.0
SDU,2011-03-09,29300.0
SDU,2011-03-10,30200.0
SDU,2011-03-11,32200.0
SDU,2011-03-14,30600.0
SDU,2011-03-15,29900.0
SDU,2011-03-16,30000.0
SDU,2011-03-17,30000.0
SDU,2011-03-18,30500.0
SDU,2011-03-21,29800.0
SDU,2011-03-22,29700.0
SDU,2011-03-23,30000.0
SDU,2011-03-24,30000.0
SDU,2011-03-25,29100.0
SDU,2011-03-28,29800.0
SDU,2011-03-29,28800.0
SDU,2011-03-30,29000.0
SDU,2011-03-31,28500.0
SDU,2011-04-01,28000.0
SDU,2011-04-04,26400.0
SDU,2011-04-05,26200.0
SDU,2011-04-06,25000.0
SDU,2011-04-07,25100.0
SDU,2011-04-08,24400.0
SDU,2011-04-13,23200.0
SDU,2011-04-14,23300.0
SDU,2011-04-15,22600.0
SDU,2011-04-18,22400.0
SDU,2011-04-19,21700.0
SDU,2011-04-20,21300.0
SDU,2011-04-21,20700.0
SDU,2011-04-22,21200.0
SDU,2011-04-25,21900.0
SDU,2011-04-26,21300.0
SDU,2011-04-27,21800.0
SDU,2011-04-28,21800.0
SDU,2011-04-29,21300.0
SDU,2011-05-04,21000.0
SDU,2011-05-05,21000.0
SDU,2011-05-06,21400.0
SDU,2011-05-09,21000.0
SDU,2011-05-10,20500.0
SDU,2011-05-11,20800.0
SDU,2011-05-12,20600.0
SDU,2011-05-13,20300.0
SDU,2011-05-16,19500.0
SDU,2011-05-17,19100.0
SDU,2011-05-18,18200.0
SDU,2011-05-19,20000.0
SDU,2011-05-20,18600.0
SDU,2011-05-23,18200.0
SDU,2011-05-24,18500.0
SDU,2011-05-25,17900.0
SDU,2011-05-26,16700.0
SDU,2011-05-27,17300.0
SDU,2011-05-30,17100.0
SDU,2011-05-31,16600.0
SDU,2011-06-01,16900.0
SDU,2011-06-02,18000.0
SDU,2011-06-03,17000.0
SDU,2011-06-06,17000.0
SDU,2011-06-07,17200.0
SDU,2011-06-08,17000.0
SDU,2011-06-09,17400.0
SDU,2011-06-10,18000.0
SDU,2011-06-13,18500.0
SDU,2011-06-14,19300.0
SDU,2011-06-15,18700.0
SDU,2011-06-16,17700.0
SDU,2011-06-17,16700.0
SDU,2011-06-20,16100.0
SDU,2011-06-21,16800.0
SDU,2011-06-22,16000.0
SDU,2011-06-23,17100.0
SDU,2011-06-24,16200.0
SDU,2011-06-27,17700.0
SDU,2011-06-28,16600.0
SDU,2011-06-29,16800.0
SDU,2011-06-30,15700.0
SDU,2011-07-01,16600.0
SDU,2011-07-04,15700.0
SDU,2011-07-05,15000.0
SDU,2011-07-06,15000.0
SDU,2011-07-07,14100.0
SDU,2011-07-08,15100.0
SDU,2011-07-11,16000.0
SDU,2011-07-12,15900.0
SDU,2011-07-13,14800.0
SDU,2011-07-14,15600.0
SDU,2011-07-15,16500.0
SDU,2011-07-18,16000.0
SDU,2011-07-19,15000.0
SDU,2011-07-20,15000.0
SDU,2011-07-21,16100.0
SDU,2011-07-22,16600.0
SDU,2011-07-25,16600.0
SDU,2011-07-26,16600.0
SDU,2011-07-27,16600.0
SDU,2011-07-28,15500.0
SDU,2011-07-29,15500.0
SDU,2011-08-01,16400.0
SDU,2011-08-02,16400.0
SDU,2011-08-03,16400.0
SDU,2011-08-04,15400.0
SDU,2011-08-05,16300.0
SDU,2011-08-08,16800.0
SDU,2011-08-09,16800.0
SDU,2011-08-10,15700.0
SDU,2011-08-11,14700.0
SDU,2011-08-12,15700.0
SDU,2011-08-15,14700.0
SDU,2011-08-16,14700.0
SDU,2011-08-17,13800.0
SDU,2011-08-18,13000.0
SDU,2011-08-19,12600.0
SDU,2011-08-22,13300.0
SDU,2011-08-23,13300.0
SDU,2011-08-24,13400.0
SDU,2011-08-25,13000.0
SDU,2011-08-26,12300.0
SDU,2011-08-29,12900.0
SDU,2011-08-30,13000.0
SDU,2011-08-31,13000.0
SDU,2011-09-01,13100.0
SDU,2011-09-05,13200.0
SDU,2011-09-06,13200.0
SDU,2011-09-07,13000.0
SDU,2011-09-08,13000.0
SDU,2011-09-09,13000.0
SDU,2011-09-12,13900.0
SDU,2011-09-13,14300.0
SDU,2011-09-14,14600.0
SDU,2011-09-15,14100.0
SDU,2011-09-16,13200.0
SDU,2011-09-19,12900.0
SDU,2011-09-20,12500.0
SDU,2011-09-21,12400.0
SDU,2011-09-22,11700.0
SDU,2011-09-23,12300.0
SDU,2011-09-26,13100.0
SDU,2011-09-27,12900.0
SDU,2011-09-28,12200.0
SDU,2011-09-29,11400.0
SDU,2011-09-30,11000.0
SDU,2011-10-03,10600.0
SDU,2011-10-04,10500.0
SDU,2011-10-05,10500.0
SDU,2011-10-06,11200.0
SDU,2011-10-07,10600.0
SDU,2011-10-10,10100.0
SDU,2011-10-11,10200.0
SDU,2011-10-12,9600.0
SDU,2011-10-13,10000.0
SDU,2011-10-14,9700.0
SDU,2011-10-17,9200.0
SDU,2011-10-18,8800.0
SDU,2011-10-19,9500.0
SDU,2011-10-20,9500.0
SDU,2011-10-21,9500.0
SDU,2011-10-24,9200.0
SDU,2011-10-25,9200.0
SDU,2011-10-26,9500.0
SDU,2011-10-27,9000.0
SDU,2011-10-28,9600.0
SDU,2011-10-31,9400.0
SDU,2011-11-01,9000.0
SDU,2011-11-02,8700.0
SDU,2011-11-03,8500.0
SDU,2011-11-04,8300.0
SDU,2011-11-07,7800.0
SDU,2011-11-08,7800.0
SDU,2011-11-09,8100.0
SDU,2011-11-10,7600.0
SDU,2011-11-11,7300.0
SDU,2011-11-14,7000.0
SDU,2011-11-15,7300.0
SDU,2011-11-16,7600.0
SDU,2011-11-17,7100.0
SDU,2011-11-18,6700.0
SDU,2011-11-21,6400.0
SDU,2011-11-22,6200.0
SDU,2011-11-23,6200.0
SDU,2011-11-24,6600.0
SDU,2011-11-25,6400.0
SDU,2011-11-28,6800.0
SDU,2011-11-29,6500.0
SDU,2011-11-30,6100.0
SDU,2011-12-01,6400.0
SDU,2011-12-02,6400.0
SDU,2011-12-05,6900.0
SDU,2011-12-06,7300.0
SDU,2011-12-07,7300.0
SDU,2011-12-08,6800.0
SDU,2011-12-09,6500.0
SDU,2011-12-12,6200.0
SDU,2011-12-13,5800.0
SDU,2011-12-14,5600.0
SDU,2011-12-15,5400.0
SDU,2011-12-16,5500.0
SDU,2011-12-19,5500.0
SDU,2011-12-20,5500.0
SDU,2011-12-21,5800.0
SDU,2011-12-22,5400.0
SDU,2011-12-23,5100.0
SDU,2011-12-26,4900.0
SDU,2011-12-27,4600.0
SDU,2011-12-28,4600.0
SDU,2011-12-29,4300.0
SDU,2011-12-30,4600.0
SDU,2012-01-03,4700.0
SDU,2012-01-04,4700.0
SDU,2012-01-05,4800.0
SDU,2012-01-06,4600.0
SDU,2012-01-09,4700.0
SDU,2012-01-10,5000.0
SDU,2012-01-11,4700.0
SDU,2012-01-12,4400.0
SDU,2012-01-13,4100.0
SDU,2012-01-16,4300.0
SDU,2012-01-17,4600.0
SDU,2012-01-18,4900.0
SDU,2012-01-19,4900.0
SDU,2012-01-20,4800.0
SDU,2012-01-30,5100.0
SDU,2012-01-31,5000.0
SDU,2012-02-01,4700.0
SDU,2012-02-02,5000.0
SDU,2012-02-03,5000.0
SDU,2012-02-06,5500.0
SDU,2012-02-07,5200.0
SDU,2012-02-08,5500.0
SDU,2012-02-09,5700.0
SDU,2012-02-10,5300.0
SDU,2012-02-13,5000.0
SDU,2012-02-14,5000.0
SDU,2012-02-15,5000.0
SDU,2012-02-16,5000.0
SDU,2012-02-17,5300.0
SDU,2012-02-20,5500.0
SDU,2012-02-21,5800.0
SDU,2012-02-22,6200.0
SDU,2012-02-23,6400.0
SDU,2012-02-24,6800.0
SDU,2012-02-27,7200.0
SDU,2012-02-28,7100.0
SDU,2012-02-29,7100.0
SDU,2012-03-01,7100.0
SDU,2012-03-02,7100.0
SDU,2012-03-05,7500.0
SDU,2012-03-06,7000.0
SDU,2012-03-07,7100.0
SDU,2012-03-08,6600.0
SDU,2012-03-09,6200.0
SDU,2012-03-12,6000.0
SDU,2012-03-13,6600.0
SDU,2012-03-14,7000.0
SDU,2012-03-15,7000.0
SDU,2012-03-16,6700.0
SDU,2012-03-19,6400.0
SDU,2012-03-20,6500.0
SDU,2012-03-21,6800.0
SDU,2012-03-22,7300.0
SDU,2012-03-23,7700.0
SDU,2012-03-26,8100.0
SDU,2012-03-27,7900.0
SDU,2012-03-28,8400.0
SDU,2012-03-29,7700.0
SDU,2012-03-30,7700.0
SDU,2012-04-03,8100.0
SDU,2012-04-04,7900.0
SDU,2012-04-05,8100.0
SDU,2012-04-06,8000.0
SDU,2012-04-09,8400.0
SDU,2012-04-10,8900.0
SDU,2012-04-11,9500.0
SDU,2012-04-12,10100.0
SDU,2012-04-13,10000.0
SDU,2012-04-16,10200.0
SDU,2012-04-17,10400.0
SDU,2012-04-18,9700.0
SDU,2012-04-19,9100.0
SDU,2012-04-20,9500.0
SDU,2012-04-23,9800.0
SDU,2012-04-24,10100.0
SDU,2012-04-25,10100.0
SDU,2012-04-26,9700.0
SDU,2012-04-27,9600.0
SDU,2012-05-02,9200.0
SDU,2012-05-03,9300.0
SDU,2012-05-04,9800.0
SDU,2012-05-07,10300.0
SDU,2012-05-08,11000.0
SDU,2012-05-09,11700.0
SDU,2012-05-10,12500.0
SDU,2012-05-11,12500.0
SDU,2012-05-14,11700.0
SDU,2012-05-15,10900.0
SDU,2012-05-16,10200.0
SDU,2012-05-17,9500.0
SDU,2012-05-18,8900.0
SDU,2012-05-21,9500.0
SDU,2012-05-22,9500.0
SDU,2012-05-23,8900.0
SDU,2012-05-24,8300.0
SDU,2012-05-25,8700.0
SDU,2012-05-28,8900.0
SDU,2012-05-29,8500.0
SDU,2012-05-30,8700.0
SDU,2012-05-31,8500.0
SDU,2012-06-01,8700.0
SDU,2012-06-04,8700.0
SDU,2012-06-05,8600.0
SDU,2012-06-06,8700.0
SDU,2012-06-07,8900.0
SDU,2012-06-08,9000.0
SDU,2012-06-11,9100.0
SDU,2012-06-12,8500.0
SDU,2012-06-13,8400.0
SDU,2012-06-14,8500.0
SDU,2012-06-15,8800.0
SDU,2012-06-18,9000.0
SDU,2012-06-19,9000.0
SDU,2012-06-20,9000.0
SDU,2012-06-21,9000.0
SDU,2012-06-22,8400.0
SDU,2012-06-25,8200.0
SDU,2012-06-26,8200.0
SDU,2012-06-27,8100.0
SDU,2012-06-28,8100.0
SDU,2012-06-29,8100.0
SDU,2012-07-02,8100.0
SDU,2012-07-03,7800.0
SDU,2012-07-04,7300.0
SDU,2012-07-05,6800.0
SDU,2012-07-06,6800.0
SDU,2012-07-09,6400.0
SDU,2012-07-10,6400.0
SDU,2012-07-11,6700.0
SDU,2012-07-12,6800.0
SDU,2012-07-13,6900.0
SDU,2012-07-16,6600.0
SDU,2012-07-17,7000.0
SDU,2012-07-18,6800.0
SDU,2012-07-19,6800.0
SDU,2012-07-20,6700.0
SDU,2012-07-23,6800.0
SDU,2012-07-24,6600.0
SDU,2012-07-25,6700.0
SDU,2012-07-26,6300.0
SDU,2012-07-27,6300.0
SDU,2012-07-30,6300.0
SDU,2012-07-31,6100.0
SDU,2012-08-01,6100.0
SDU,2012-08-02,6100.0
SDU,2012-08-03,6000.0
SDU,2012-08-06,6200.0
SDU,2012-08-07,6500.0
SDU,2012-08-08,6100.0
SDU,2012-08-09,5700.0
SDU,2012-08-10,5600.0
SDU,2012-08-13,5800.0
SDU,2012-08-14,5500.0
SDU,2012-08-15,5800.0
SDU,2012-08-16,5400.0
SDU,2012-08-17,5800.0
SDU,2012-08-20,6200.0
SDU,2012-08-21,5800.0
SDU,2012-08-22,5800.0
SDU,2012-08-23,5400.0
SDU,2012-08-24,5100.0
SDU,2012-08-27,5400.0
SDU,2012-08-28,5100.0
SDU,2012-08-29,5400.0
SDU,2012-08-30,5700.0
SDU,2012-08-31,5900.0
SDU,2012-09-04,6200.0
SDU,2012-09-05,6200.0
SDU,2012-09-06,6200.0
SDU,2012-09-07,6200.0
SDU,2012-09-10,6200.0
SDU,2012-09-11,6200.0
SDU,2012-09-12,6100.0
SDU,2012-09-13,6300.0
SDU,2012-09-14,6600.0
SDU,2012-09-17,6800.0
SDU,2012-09-18,7200.0
SDU,2012-09-19,7700.0
SDU,2012-09-20,7700.0
SDU,2012-09-21,8000.0
SDU,2012-09-24,8000.0
SDU,2012-09-25,8500.0
SDU,2012-09-26,9000.0
SDU,2012-09-27,9000.0
SDU,2012-09-28,9500.0
SDU,2012-10-01,9500.0
SDU,2012-10-02,8900.0
SDU,2012-10-03,8300.0
SDU,2012-10-04,7800.0
SDU,2012-10-05,7700.0
SDU,2012-10-08,7200.0
SDU,2012-10-09,6700.0
SDU,2012-10-10,6300.0
SDU,2012-10-11,5900.0
SDU,2012-10-12,5900.0
SDU,2012-10-15,5900.0
SDU,2012-10-16,5500.0
SDU,2012-10-17,5600.0
SDU,2012-10-18,5800.0
SDU,2012-10-19,6100.0
SDU,2012-10-22,6100.0
SDU,2012-10-23,6100.0
SDU,2012-10-24,5700.0
SDU,2012-10-25,5400.0
SDU,2012-10-26,5300.0
SDU,2012-10-29,5300.0
SDU,2012-10-30,5300.0
SDU,2012-10-31,5300.0
SDU,2012-11-01,5200.0
SDU,2012-11-02,5200.0
SDU,2012-11-05,4900.0
SDU,2012-11-06,5000.0
SDU,2012-11-07,5300.0
SDU,2012-11-08,5300.0
SDU,2012-11-09,5600.0
SDU,2012-11-12,5700.0
SDU,2012-11-13,5700.0
SDU,2012-11-14,5700.0
SDU,2012-11-15,5800.0
SDU,2012-11-16,5900.0
SDU,2012-11-19,5900.0
SDU,2012-11-20,5900.0
SDU,2012-11-21,5800.0
SDU,2012-11-22,5500.0
SDU,2012-11-23,5500.0
SDU,2012-11-26,5500.0
SDU,2012-11-27,5500.0
SDU,2012-11-28,5500.0
SDU,2012-11-29,5500.0
SDU,2012-11-30,5400.0
SDU,2012-12-03,5500.0
SDU,2012-12-04,5500.0
SDU,2012-12-05,5200.0
SDU,2012-12-06,5000.0
SDU,2012-12-07,4700.0
SDU,2012-12-10,4700.0
SDU,2012-12-11,4500.0
SDU,2012-12-12,4500.0
SDU,2012-12-13,4500.0
SDU,2012-12-14,4200.0
SDU,2012-12-17,4400.0
SDU,2012-12-18,4600.0
SDU,2012-12-19,4500.0
SDU,2012-12-20,4300.0
SDU,2012-12-21,4400.0
SDU,2012-12-24,4300.0
SDU,2012-12-25,4100.0
SDU,2012-12-26,4300.0
SDU,2012-12-27,4100.0
SDU,2012-12-28,4300.0
SDU,2013-01-02,4600.0
SDU,2013-01-03,4700.0
SDU,2013-01-04,4700.0
SDU,2013-01-07,4500.0
SDU,2013-01-08,4600.0
SDU,2013-01-09,4700.0
SDU,2013-01-10,4900.0
SDU,2013-01-11,5000.0
SDU,2013-01-14,5000.0
SDU,2013-01-15,5500.0
SDU,2013-01-16,6000.0
SDU,2013-01-17,5500.0
SDU,2013-01-18,5500.0
SDU,2013-01-21,5700.0
SDU,2013-01-22,5200.0
SDU,2013-01-23,4700.0
SDU,2013-01-24,4900.0
SDU,2013-01-25,5100.0
SDU,2013-01-28,5000.0
SDU,2013-01-29,5100.0
SDU,2013-01-30,4900.0
SDU,2013-01-31,5200.0
SDU,2013-02-01,5000.0
SDU,2013-02-04,4800.0
SDU,2013-02-05,4700.0
SDU,2013-02-06,4600.0
SDU,2013-02-07,4900.0
SDU,2013-02-08,5100.0
SDU,2013-02-18,5100.0
SDU,2013-02-19,5100.0
SDU,2013-02-20,5000.0
SDU,2013-02-21,5100.0
SDU,2013-02-22,5100.0
SDU,2013-02-25,5200.0
SDU,2013-02-26,4900.0
SDU,2013-02-27,4800.0
SDU,2013-02-28,4900.0
SDU,2013-03-01,4900.0
SDU,2013-03-04,4900.0
SDU,2013-03-05,4700.0
SDU,2013-03-06,4800.0
SDU,2013-03-07,4800.0
SDU,2013-03-08,4800.0
SDU,2013-03-11,4900.0
SDU,2013-03-12,4700.0
SDU,2013-03-13,4700.0
SDU,2013-03-14,4800.0
SDU,2013-03-15,4800.0
SDU,2013-03-18,4700.0
SDU,2013-03-19,4700.0
SDU,2013-03-20,4800.0
SDU,2013-03-21,4800.0
SDU,2013-03-22,4700.0
SDU,2013-03-25,4700.0
SDU,2013-03-26,4700.0
SDU,2013-03-27,4600.0
SDU,2013-03-28,4500.0
SDU,2013-03-29,4500.0
SDU,2013-04-01,4600.0
SDU,2013-04-02,4700.0
SDU,2013-04-03,4800.0
SDU,2013-04-04,4700.0
SDU,2013-04-05,4600.0
SDU,2013-04-08,4100.0
SDU,2013-04-09,4600.0
SDU,2013-04-10,4600.0
SDU,2013-04-11,4600.0
SDU,2013-04-12,4600.0
SDU,2013-04-15,4600.0
SDU,2013-04-16,4600.0
SDU,2013-04-17,4700.0
SDU,2013-04-18,4700.0
SDU,2013-04-22,4700.0
SDU,2013-04-23,4700.0
SDU,2013-04-24,4700.0
SDU,2013-04-25,4700.0
SDU,2013-04-26,4700.0
SDU,2013-05-02,4500.0
SDU,2013-05-03,4500.0
SDU,2013-05-06,4600.0
SDU,2013-05-07,4600.0
SDU,2013-05-08,4700.0
SDU,2013-05-09,4700.0
SDU,2013-05-10,4600.0
SDU,2013-05-13,4600.0
SDU,2013-05-14,4600.0
SDU,2013-05-15,4600.0
SDU,2013-05-16,4400.0
SDU,2013-05-17,4400.0
SDU,2013-05-20,4400.0
SDU,2013-05-21,4500.0
SDU,2013-05-22,4500.0
SDU,2013-05-23,4500.0
SDU,2013-05-24,4500.0
SDU,2013-05-27,4600.0
SDU,2013-05-28,4500.0
SDU,2013-05-29,4600.0
SDU,2013-05-30,4600.0
SDU,2013-05-31,4700.0
SDU,2013-06-03,4900.0
SDU,2013-06-04,4900.0
SDU,2013-06-05,4900.0
SDU,2013-06-06,4900.0
SDU,2013-06-07,4500.0
SDU,2013-06-10,4600.0
SDU,2013-06-11,5000.0
SDU,2013-06-12,5500.0
SDU,2013-06-13,6000.0
SDU,2013-06-14,5600.0
SDU,2013-06-17,5600.0
SDU,2013-06-18,5600.0
SDU,2013-06-19,5500.0
SDU,2013-06-20,5300.0
SDU,2013-06-21,5600.0
SDU,2013-06-24,5800.0
SDU,2013-06-25,5700.0
SDU,2013-06-26,5700.0
SDU,2013-06-27,5500.0
SDU,2013-06-28,5500.0
SDU,2013-07-01,6000.0
SDU,2013-07-02,6200.0
SDU,2013-07-03,6200.0
SDU,2013-07-04,5900.0
SDU,2013-07-05,5900.0
SDU,2013-07-08,6000.0
SDU,2013-07-09,5900.0
SDU,2013-07-10,5700.0
SDU,2013-07-11,5500.0
SDU,2013-07-12,5900.0
SDU,2013-07-15,5900.0
SDU,2013-07-16,5900.0
SDU,2013-07-17,5800.0
SDU,2013-07-18,5800.0
SDU,2013-07-19,5800.0
SDU,2013-07-22,5800.0
SDU,2013-07-23,5800.0
SDU,2013-07-24,5900.0
SDU,2013-07-25,6200.0
SDU,2013-07-26,6200.0
SDU,2013-07-29,6100.0
SDU,2013-07-30,6000.0
SDU,2013-07-31,6000.0
SDU,2013-08-01,6200.0
SDU,2013-08-02,6200.0
SDU,2013-08-05,6000.0
SDU,2013-08-06,6000.0
SDU,2013-08-07,6100.0
SDU,2013-08-08,6000.0
SDU,2013-08-09,6100.0
SDU,2013-08-12,6100.0
SDU,2013-08-13,5900.0
SDU,2013-08-14,6100.0
SDU,2013-08-15,6100.0
SDU,2013-08-16,6100.0
SDU,2013-08-19,6100.0
SDU,2013-08-20,6100.0
SDU,2013-08-21,6000.0
SDU,2013-08-22,5900.0
SDU,2013-08-23,5900.0
SDU,2013-08-26,6000.0
SDU,2013-08-27,5800.0
SDU,2013-08-28,6000.0
SDU,2013-08-29,5500.0
SDU,2013-08-30,5800.0
SDU,2013-09-03,5800.0
SDU,2013-09-04,5500.0
SDU,2013-09-05,5500.0
SDU,2013-09-06,5500.0
SDU,2013-09-09,5700.0
SDU,2013-09-10,5700.0
SDU,2013-09-11,5900.0
SDU,2013-09-12,5800.0
SDU,2013-09-13,5800.0
SDU,2013-09-16,5800.0
SDU,2013-09-17,5800.0
SDU,2013-09-18,5800.0
SDU,2013-09-19,5800.0
SDU,2013-09-20,5800.0
SDU,2013-09-23,5800.0
SDU,2013-09-24,5800.0
SDU,2013-09-25,5600.0
SDU,2013-09-26,5600.0
SDU,2013-09-27,5800.0
SDU,2013-09-30,5800.0
SDU,2013-10-01,5800.0
SDU,2013-10-02,5600.0
SDU,2013-10-03,5600.0
SDU,2013-10-04,5600.0
SDU,2013-10-07,5400.0
SDU,2013-10-08,5400.0
SDU,2013-10-09,5300.0
SDU,2013-10-10,5300.0
SDU,2013-10-11,5300.0
SDU,2013-10-14,5600.0
SDU,2013-10-15,5600.0
SDU,2013-10-16,5600.0
SDU,2013-10-17,5800.0
SDU,2013-10-18,5800.0
SDU,2013-10-21,5300.0
SDU,2013-10-22,5300.0
SDU,2013-10-23,5200.0
SDU,2013-10-24,5500.0
SDU,2013-10-25,5300.0
SDU,2013-10-28,5300.0
SDU,2013-10-29,5600.0
SDU,2013-10-30,5600.0
SDU,2013-10-31,5600.0
SDU,2013-11-01,5400.0
SDU,2013-11-04,5600.0
SDU,2013-11-05,5700.0
SDU,2013-11-06,5700.0
SDU,2013-11-07,5600.0
SDU,2013-11-08,5600.0
SDU,2013-11-11,6000.0
SDU,2013-11-12,6000.0
SDU,2013-11-13,5900.0
SDU,2013-11-14,6000.0
SDU,2013-11-15,6200.0
SDU,2013-11-18,6200.0
SDU,2013-11-19,6200.0
SDU,2013-11-20,6100.0
SDU,2013-11-21,6000.0
SDU,2013-11-22,6000.0
SDU,2013-11-25,6100.0
SDU,2013-11-26,6000.0
SDU,2013-11-27,5600.0
SDU,2013-11-28,6000.0
SDU,2013-11-29,6000.0
SDU,2013-12-02,6000.0
SDU,2013-12-03,6000.0
SDU,2013-12-04,6500.0
SDU,2013-12-05,6000.0
SDU,2013-12-06,5900.0
SDU,2013-12-09,5500.0
SDU,2013-12-10,6000.0
SDU,2013-12-11,5900.0
SDU,2013-12-12,6000.0
SDU,2013-12-13,6000.0
SDU,2013-12-16,6600.0
SDU,2013-12-17,7200.0
SDU,2013-12-18,6600.0
SDU,2013-12-19,6700.0
SDU,2013-12-20,6900.0
SDU,2013-12-23,6600.0
SDU,2013-12-24,6200.0
SDU,2013-12-25,6700.0
SDU,2013-12-26,6700.0
SDU,2013-12-27,6700.0
SDU,2013-12-30,6600.0
SDU,2013-12-31,6800.0
SDU,2014-01-02,6700.0
SDU,2014-01-03,6300.0
SDU,2014-01-06,6500.0
SDU,2014-01-07,6200.0
SDU,2014-01-08,6500.0
SDU,2014-01-09,6500.0
SDU,2014-01-10,6400.0
SDU,2014-01-13,6600.0
SDU,2014-01-14,6500.0
SDU,2014-01-15,6500.0
SDU,2014-01-16,6700.0
SDU,2014-01-17,6400.0
SDU,2014-01-20,6800.0
SDU,2014-01-21,6600.0
SDU,2014-01-22,6600.0
SDU,2014-01-23,6000.0
SDU,2014-01-24,6200.0
SDU,2014-01-27,6700.0
SDU,2014-02-06,6700.0
SDU,2014-02-07,6700.0
SDU,2014-02-10,6700.0
SDU,2014-02-11,7000.0
SDU,2014-02-12,7100.0
SDU,2014-02-13,6500.0
SDU,2014-02-14,6500.0
SDU,2014-02-17,6800.0
SDU,2014-02-18,7200.0
SDU,2014-02-19,7100.0
SDU,2014-02-20,6900.0
SDU,2014-02-21,7500.0
SDU,2014-02-24,8200.0
SDU,2014-02-25,8500.0
SDU,2014-02-26,9100.0
SDU,2014-02-27,8700.0
SDU,2014-02-28,8400.0
SDU,2014-03-03,9200.0
SDU,2014-03-04,9400.0
SDU,2014-03-05,9600.0
SDU,2014-03-06,9600.0
SDU,2014-03-07,9800.0
SDU,2014-03-10,10000.0
SDU,2014-03-11,10000.0
SDU,2014-03-12,9000.0
SDU,2014-03-13,9300.0
SDU,2014-03-14,8500.0
SDU,2014-03-17,8500.0
SDU,2014-03-18,8500.0
SDU,2014-03-19,9200.0
SDU,2014-03-20,8500.0
SDU,2014-03-21,8300.0
SDU,2014-03-24,9100.0
SDU,2014-03-25,9900.0
SDU,2014-03-26,9500.0
SDU,2014-03-27,9400.0
SDU,2014-03-28,9400.0
SDU,2014-03-31,9400.0
SDU,2014-04-01,9400.0
SDU,2014-04-02,9300.0
SDU,2014-04-03,8400.0
SDU,2014-04-04,9100.0
SDU,2014-04-07,9600.0
SDU,2014-04-08,9600.0
SDU,2014-04-10,8700.0
SDU,2014-04-11,8900.0
SDU,2014-04-14,8600.0
SDU,2014-04-15,8200.0
SDU,2014-04-16,8900.0
SDU,2014-04-17,9400.0
SDU,2014-04-18,9200.0
SDU,2014-04-21,8300.0
SDU,2014-04-22,8500.0
SDU,2014-04-23,9100.0
SDU,2014-04-24,8300.0
SDU,2014-04-25,9000.0
SDU,2014-04-28,9600.0
SDU,2014-04-29,8700.0
SDU,2014-05-05,9400.0
SDU,2014-05-06,9400.0
SDU,2014-05-07,9300.0
SDU,2014-05-08,9200.0
SDU,2014-05-09,8400.0
SDU,2014-05-12,8300.0
SDU,2014-05-13,9000.0
SDU,2014-05-14,8400.0
SDU,2014-05-15,8200.0
SDU,2014-05-16,8200.0
SDU,2014-05-19,8200.0
SDU,2014-05-20,8800.0
SDU,2014-05-21,8300.0
