SHB,2009-04-20,9100.0
SHB,2009-04-21,9300.0
SHB,2009-04-22,9700.0
SHB,2009-04-23,10400.0
SHB,2009-04-24,10200.0
SHB,2009-04-27,10400.0
SHB,2009-04-28,10400.0
SHB,2009-04-29,10300.0
SHB,2009-05-04,11100.0
SHB,2009-05-05,11700.0
SHB,2009-05-06,11100.0
SHB,2009-05-07,11900.0
SHB,2009-05-08,11300.0
SHB,2009-05-11,11100.0
SHB,2009-05-12,11200.0
SHB,2009-05-13,11200.0
SHB,2009-05-14,11000.0
SHB,2009-05-15,11500.0
SHB,2009-05-18,11400.0
SHB,2009-05-19,12200.0
SHB,2009-05-20,12800.0
SHB,2009-05-21,13500.0
SHB,2009-05-22,13200.0
SHB,2009-05-25,14000.0
SHB,2009-05-26,14800.0
SHB,2009-05-27,14800.0
SHB,2009-05-28,14000.0
SHB,2009-05-29,15200.0
SHB,2009-06-01,16100.0
SHB,2009-06-02,17200.0
SHB,2009-06-03,18400.0
SHB,2009-06-04,19200.0
SHB,2009-06-05,20400.0
SHB,2009-06-08,21800.0
SHB,2009-06-09,23300.0
SHB,2009-06-10,22800.0
SHB,2009-06-11,23800.0
SHB,2009-06-12,23500.0
SHB,2009-06-15,24400.0
SHB,2009-06-16,21500.0
SHB,2009-06-17,22000.0
SHB,2009-06-18,21500.0
SHB,2009-06-19,21100.0
SHB,2009-06-22,20000.0
SHB,2009-06-23,18700.0
SHB,2009-06-24,20000.0
SHB,2009-06-25,19200.0
SHB,2009-06-26,19700.0
SHB,2009-06-29,19700.0
SHB,2009-06-30,19300.0
SHB,2009-07-01,18500.0
SHB,2009-07-02,18700.0
SHB,2009-07-03,18300.0
SHB,2009-07-06,19400.0
SHB,2009-07-07,19400.0
SHB,2009-07-08,19200.0
SHB,2009-07-09,19000.0
SHB,2009-07-10,20500.0
SHB,2009-07-13,21400.0
SHB,2009-07-14,20500.0
SHB,2009-07-15,21400.0
SHB,2009-07-16,21300.0
SHB,2009-07-17,20200.0
SHB,2009-07-20,19200.0
SHB,2009-07-21,19300.0
SHB,2009-07-22,19500.0
SHB,2009-07-23,20700.0
SHB,2009-07-24,21500.0
SHB,2009-07-27,22700.0
SHB,2009-07-28,21300.0
SHB,2009-07-29,21100.0
SHB,2009-07-30,20500.0
SHB,2009-07-31,20800.0
SHB,2009-08-03,20300.0
SHB,2009-08-04,20900.0
SHB,2009-08-05,20700.0
SHB,2009-08-06,19700.0
SHB,2009-08-07,18800.0
SHB,2009-08-10,19500.0
SHB,2009-08-11,19400.0
SHB,2009-08-12,19100.0
SHB,2009-08-13,19400.0
SHB,2009-08-14,19700.0
SHB,2009-08-17,19400.0
SHB,2009-08-18,19100.0
SHB,2009-08-19,19200.0
SHB,2009-08-20,19100.0
SHB,2009-08-21,19600.0
SHB,2009-08-24,19700.0
SHB,2009-08-25,19300.0
SHB,2009-08-26,19300.0
SHB,2009-08-27,19100.0
SHB,2009-08-28,19400.0
SHB,2009-08-31,19900.0
SHB,2009-09-01,19600.0
SHB,2009-09-03,19100.0
SHB,2009-09-04,18800.0
SHB,2009-09-07,18400.0
SHB,2009-09-08,18800.0
SHB,2009-09-09,18500.0
SHB,2009-09-10,18400.0
SHB,2009-09-11,19600.0
SHB,2009-09-14,19300.0
SHB,2009-09-15,19400.0
SHB,2009-09-16,20000.0
SHB,2009-09-17,19900.0
SHB,2009-09-18,20000.0
SHB,2009-09-21,19900.0
SHB,2009-09-22,19500.0
SHB,2009-09-23,19500.0
SHB,2009-09-24,19400.0
SHB,2009-09-25,19600.0
SHB,2009-09-28,19800.0
SHB,2009-09-29,19600.0
SHB,2009-09-30,19200.0
SHB,2009-10-01,18800.0
SHB,2009-10-02,18300.0
SHB,2009-10-05,17900.0
SHB,2009-10-06,18000.0
SHB,2009-10-07,18100.0
SHB,2009-10-08,18100.0
SHB,2009-10-09,18200.0
SHB,2009-10-12,19100.0
SHB,2009-10-13,20100.0
SHB,2009-10-14,21200.0
SHB,2009-10-15,21300.0
SHB,2009-10-16,20100.0
SHB,2009-10-19,19400.0
SHB,2009-10-20,19400.0
SHB,2009-10-21,19300.0
SHB,2009-10-22,19400.0
SHB,2009-10-23,19400.0
SHB,2009-10-26,18800.0
SHB,2009-10-27,18100.0
SHB,2009-10-28,18300.0
SHB,2009-10-29,17600.0
SHB,2009-10-30,17800.0
SHB,2009-11-02,16700.0
SHB,2009-11-03,15800.0
SHB,2009-11-04,16800.0
SHB,2009-11-05,17400.0
SHB,2009-11-06,17500.0
SHB,2009-11-09,16900.0
SHB,2009-11-10,16600.0
SHB,2009-11-11,17100.0
SHB,2009-11-12,17200.0
SHB,2009-11-13,16800.0
SHB,2009-11-16,17300.0
SHB,2009-11-17,17100.0
SHB,2009-11-18,17100.0
SHB,2009-11-19,17100.0
SHB,2009-11-20,17000.0
SHB,2009-11-23,16500.0
SHB,2009-11-24,16000.0
SHB,2009-11-25,15200.0
SHB,2009-11-26,14500.0
SHB,2009-11-27,14700.0
SHB,2009-11-30,15500.0
SHB,2009-12-01,16400.0
SHB,2009-12-02,15600.0
SHB,2009-12-03,15500.0
SHB,2009-12-04,15400.0
SHB,2009-12-07,15200.0
SHB,2009-12-08,14400.0
SHB,2009-12-09,13600.0
SHB,2009-12-10,13500.0
SHB,2009-12-11,13000.0
SHB,2009-12-14,13800.0
SHB,2009-12-15,13600.0
SHB,2009-12-16,13000.0
SHB,2009-12-17,13000.0
SHB,2009-12-18,13600.0
SHB,2009-12-21,14400.0
SHB,2009-12-22,13800.0
SHB,2009-12-23,13900.0
SHB,2009-12-24,13900.0
SHB,2009-12-25,14200.0
SHB,2009-12-28,13600.0
SHB,2009-12-29,13100.0
SHB,2009-12-30,13500.0
SHB,2009-12-31,13500.0
SHB,2010-01-04,14500.0
SHB,2010-01-05,15200.0
SHB,2010-01-06,15400.0
SHB,2010-01-07,15400.0
SHB,2010-01-08,15500.0
SHB,2010-01-11,15100.0
SHB,2010-01-12,14400.0
SHB,2010-01-13,15000.0
SHB,2010-01-14,14700.0
SHB,2010-01-15,13900.0
SHB,2010-01-18,13500.0
SHB,2010-01-19,13600.0
SHB,2010-01-20,13600.0
SHB,2010-01-21,12900.0
SHB,2010-01-22,13100.0
SHB,2010-01-25,13100.0
SHB,2010-01-26,13800.0
SHB,2010-01-27,13100.0
SHB,2010-01-28,13300.0
SHB,2010-01-29,13300.0
SHB,2010-02-01,13300.0
SHB,2010-02-02,13300.0
SHB,2010-02-03,13300.0
SHB,2010-02-04,13300.0
SHB,2010-02-05,13200.0
SHB,2010-02-08,13300.0
SHB,2010-02-09,13300.0
SHB,2010-02-10,13300.0
SHB,2010-02-11,13700.0
SHB,2010-02-12,13600.0
SHB,2010-02-22,13900.0
SHB,2010-02-23,13300.0
SHB,2010-02-24,13500.0
SHB,2010-02-25,13300.0
SHB,2010-02-26,13500.0
SHB,2010-03-01,13500.0
SHB,2010-03-02,13400.0
SHB,2010-03-03,13600.0
SHB,2010-03-04,13500.0
SHB,2010-03-05,13600.0
SHB,2010-03-08,13700.0
SHB,2010-03-09,13600.0
SHB,2010-03-10,13500.0
SHB,2010-03-11,13400.0
SHB,2010-03-12,13500.0
SHB,2010-03-15,13500.0
SHB,2010-03-16,13300.0
SHB,2010-03-17,13100.0
SHB,2010-03-18,13100.0
SHB,2010-03-19,13000.0
SHB,2010-03-22,13000.0
SHB,2010-03-23,12700.0
SHB,2010-03-24,12800.0
SHB,2010-03-25,12500.0
SHB,2010-03-26,12500.0
SHB,2010-03-29,12300.0
SHB,2010-03-30,12300.0
SHB,2010-03-31,12100.0
SHB,2010-04-01,12400.0
SHB,2010-04-02,12300.0
SHB,2010-04-05,12400.0
SHB,2010-04-06,12200.0
SHB,2010-04-07,12200.0
SHB,2010-04-08,12100.0
SHB,2010-04-09,12000.0
SHB,2010-04-12,12300.0
SHB,2010-04-13,12300.0
SHB,2010-04-14,12200.0
SHB,2010-04-15,12200.0
SHB,2010-04-16,12000.0
SHB,2010-04-19,12000.0
SHB,2010-04-20,11700.0
SHB,2010-04-21,11700.0
SHB,2010-04-22,12300.0
SHB,2010-04-26,12200.0
SHB,2010-04-27,12100.0
SHB,2010-04-28,12000.0
SHB,2010-04-29,11900.0
SHB,2010-05-04,12700.0
SHB,2010-05-05,12800.0
SHB,2010-05-06,12800.0
SHB,2010-05-07,12500.0
SHB,2010-05-10,12200.0
SHB,2010-05-11,12100.0
SHB,2010-05-12,11800.0
SHB,2010-05-13,11700.0
SHB,2010-05-14,11700.0
SHB,2010-05-17,11500.0
SHB,2010-05-18,11200.0
SHB,2010-05-19,10600.0
SHB,2010-05-20,11500.0
SHB,2010-05-21,10900.0
SHB,2010-05-24,11500.0
SHB,2010-05-25,11400.0
SHB,2010-05-26,11400.0
SHB,2010-05-27,11200.0
SHB,2010-05-28,11900.0
SHB,2010-05-31,11500.0
SHB,2010-06-01,11600.0
SHB,2010-06-02,11400.0
SHB,2010-06-03,11700.0
SHB,2010-06-04,11600.0
SHB,2010-06-07,11300.0
SHB,2010-06-08,11400.0
SHB,2010-06-09,11400.0
SHB,2010-06-10,11400.0
SHB,2010-06-11,11400.0
SHB,2010-06-14,11400.0
SHB,2010-06-15,11200.0
SHB,2010-06-16,11600.0
SHB,2010-06-17,11600.0
SHB,2010-06-18,11600.0
SHB,2010-06-21,12300.0
SHB,2010-06-22,12200.0
SHB,2010-06-23,12300.0
SHB,2010-06-24,12100.0
SHB,2010-06-25,12000.0
SHB,2010-06-28,11800.0
SHB,2010-06-29,11900.0
SHB,2010-06-30,11700.0
SHB,2010-07-01,11600.0
SHB,2010-07-02,11600.0
SHB,2010-07-05,11500.0
SHB,2010-07-06,11700.0
SHB,2010-07-07,11500.0
SHB,2010-07-08,11500.0
SHB,2010-07-09,11500.0
SHB,2010-07-12,11500.0
SHB,2010-07-13,11700.0
SHB,2010-07-14,11800.0
SHB,2010-07-15,11700.0
SHB,2010-07-16,11800.0
SHB,2010-07-19,11700.0
SHB,2010-07-20,11700.0
SHB,2010-07-21,11500.0
SHB,2010-07-22,11500.0
SHB,2010-07-23,11500.0
SHB,2010-07-26,11400.0
SHB,2010-07-27,11200.0
SHB,2010-07-28,11100.0
SHB,2010-07-29,11200.0
SHB,2010-07-30,11100.0
SHB,2010-08-02,11000.0
SHB,2010-08-03,11100.0
SHB,2010-08-04,10900.0
SHB,2010-08-05,10800.0
SHB,2010-08-06,10700.0
SHB,2010-08-09,10900.0
SHB,2010-08-10,10600.0
SHB,2010-08-11,10500.0
SHB,2010-08-12,10000.0
SHB,2010-08-13,10200.0
SHB,2010-08-16,10400.0
SHB,2010-08-17,10100.0
SHB,2010-08-18,10000.0
SHB,2010-08-19,9900.0
SHB,2010-08-20,9700.0
SHB,2010-08-23,9500.0
SHB,2010-08-24,9200.0
SHB,2010-08-25,9000.0
SHB,2010-08-26,9300.0
SHB,2010-08-27,9300.0
SHB,2010-08-30,9900.0
SHB,2010-08-31,9800.0
SHB,2010-09-01,9800.0
SHB,2010-09-06,9800.0
SHB,2010-09-07,9500.0
SHB,2010-09-08,9300.0
SHB,2010-09-09,9500.0
SHB,2010-09-10,9300.0
SHB,2010-09-13,9200.0
SHB,2010-09-14,9000.0
SHB,2010-09-15,8800.0
SHB,2010-09-16,8800.0
SHB,2010-09-17,8700.0
SHB,2010-09-20,8800.0
SHB,2010-09-21,8800.0
SHB,2010-09-22,8800.0
SHB,2010-09-23,8700.0
SHB,2010-09-24,8800.0
SHB,2010-09-27,8800.0
SHB,2010-09-28,8900.0
SHB,2010-09-29,8600.0
SHB,2010-09-30,8700.0
SHB,2010-10-01,8700.0
SHB,2010-10-04,8300.0
SHB,2010-10-05,8500.0
SHB,2010-10-06,8600.0
SHB,2010-10-07,8500.0
SHB,2010-10-08,8600.0
SHB,2010-10-11,8300.0
SHB,2010-10-12,8400.0
SHB,2010-10-13,8500.0
SHB,2010-10-14,8600.0
SHB,2010-10-15,8700.0
SHB,2010-10-18,8900.0
SHB,2010-10-19,8900.0
SHB,2010-10-20,8600.0
SHB,2010-10-21,8600.0
SHB,2010-10-22,8700.0
SHB,2010-10-25,8600.0
SHB,2010-10-26,8700.0
SHB,2010-10-27,8600.0
SHB,2010-10-28,8700.0
SHB,2010-10-29,8700.0
SHB,2010-11-01,8600.0
SHB,2010-11-02,8600.0
SHB,2010-11-03,8600.0
SHB,2010-11-04,8600.0
SHB,2010-11-05,8800.0
SHB,2010-11-08,8700.0
SHB,2010-11-09,8500.0
SHB,2010-11-10,8600.0
SHB,2010-11-11,8600.0
SHB,2010-11-12,8200.0
SHB,2010-11-15,8000.0
SHB,2010-11-16,8000.0
SHB,2010-11-17,8000.0
SHB,2010-11-18,8200.0
SHB,2010-11-19,8100.0
SHB,2010-11-22,8100.0
SHB,2010-11-23,8100.0
SHB,2010-11-24,8000.0
SHB,2010-11-25,8000.0
SHB,2010-11-26,8000.0
SHB,2010-11-29,8300.0
SHB,2010-11-30,8700.0
SHB,2010-12-01,8500.0
SHB,2010-12-02,8700.0
SHB,2010-12-03,9200.0
SHB,2010-12-06,9700.0
SHB,2010-12-07,9300.0
SHB,2010-12-08,9000.0
SHB,2010-12-09,9300.0
SHB,2010-12-10,9500.0
SHB,2010-12-13,10000.0
SHB,2010-12-14,10600.0
SHB,2010-12-15,11300.0
SHB,2010-12-16,10600.0
SHB,2010-12-17,11400.0
SHB,2010-12-20,10800.0
SHB,2010-12-21,10500.0
SHB,2010-12-22,10200.0
SHB,2010-12-23,9800.0
SHB,2010-12-24,9700.0
SHB,2010-12-27,9700.0
SHB,2010-12-28,9900.0
SHB,2010-12-29,9600.0
SHB,2010-12-30,9500.0
SHB,2010-12-31,9700.0
SHB,2011-01-04,9600.0
SHB,2011-01-05,9300.0
SHB,2011-01-06,9200.0
SHB,2011-01-07,9100.0
SHB,2011-01-10,8800.0
SHB,2011-01-11,8600.0
SHB,2011-01-12,8800.0
SHB,2011-01-13,8900.0
SHB,2011-01-14,8900.0
SHB,2011-01-17,9100.0
SHB,2011-01-18,8900.0
SHB,2011-01-19,8900.0
SHB,2011-01-20,8900.0
SHB,2011-01-21,9300.0
SHB,2011-01-24,8900.0
SHB,2011-01-25,8900.0
SHB,2011-01-26,8900.0
SHB,2011-01-27,9000.0
SHB,2011-01-28,8900.0
SHB,2011-02-08,9000.0
SHB,2011-02-09,9100.0
SHB,2011-02-10,9000.0
SHB,2011-02-11,8900.0
SHB,2011-02-14,8900.0
SHB,2011-02-15,8700.0
SHB,2011-02-16,8700.0
SHB,2011-02-17,8600.0
SHB,2011-02-18,8600.0
SHB,2011-02-21,8200.0
SHB,2011-02-22,8200.0
SHB,2011-02-23,8300.0
SHB,2011-02-24,8200.0
SHB,2011-02-25,8300.0
SHB,2011-02-28,8200.0
SHB,2011-03-01,8200.0
SHB,2011-03-02,7800.0
SHB,2011-03-03,7800.0
SHB,2011-03-04,7900.0
SHB,2011-03-07,7900.0
SHB,2011-03-08,7900.0
SHB,2011-03-09,7800.0
SHB,2011-03-10,8200.0
SHB,2011-03-11,8600.0
SHB,2011-03-14,8000.0
SHB,2011-03-15,8000.0
SHB,2011-03-16,7900.0
SHB,2011-03-17,7900.0
SHB,2011-03-18,8100.0
SHB,2011-03-21,7900.0
SHB,2011-03-22,7800.0
SHB,2011-03-23,7800.0
SHB,2011-03-24,7800.0
SHB,2011-03-25,7800.0
SHB,2011-03-28,7800.0
SHB,2011-03-29,7800.0
SHB,2011-03-30,7700.0
SHB,2011-03-31,7700.0
SHB,2011-04-01,7700.0
SHB,2011-04-04,7600.0
SHB,2011-04-05,7900.0
SHB,2011-04-06,7900.0
SHB,2011-04-07,7800.0
SHB,2011-04-08,7800.0
SHB,2011-04-13,7700.0
SHB,2011-04-14,7700.0
SHB,2011-04-15,7600.0
SHB,2011-04-18,7600.0
SHB,2011-04-19,7700.0
SHB,2011-04-20,7800.0
SHB,2011-04-21,7800.0
SHB,2011-04-22,8100.0
SHB,2011-04-25,8200.0
SHB,2011-04-26,8200.0
SHB,2011-04-27,8200.0
SHB,2011-04-28,8200.0
SHB,2011-04-29,8300.0
SHB,2011-05-04,8300.0
SHB,2011-05-05,8200.0
SHB,2011-05-06,8100.0
SHB,2011-05-09,8100.0
SHB,2011-05-10,8100.0
SHB,2011-05-11,8200.0
SHB,2011-05-12,8300.0
SHB,2011-05-13,8300.0
SHB,2011-05-16,8200.0
SHB,2011-05-17,8100.0
SHB,2011-05-18,7900.0
SHB,2011-05-19,7700.0
SHB,2011-05-20,7600.0
SHB,2011-05-23,7300.0
SHB,2011-05-24,7100.0
SHB,2011-05-25,7000.0
SHB,2011-05-26,6900.0
SHB,2011-05-27,6800.0
SHB,2011-05-30,7000.0
SHB,2011-05-31,7100.0
SHB,2011-06-01,7400.0
SHB,2011-06-02,7700.0
SHB,2011-06-03,7600.0
SHB,2011-06-06,7500.0
SHB,2011-06-07,7800.0
SHB,2011-06-08,7700.0
SHB,2011-06-09,7700.0
SHB,2011-06-10,7600.0
SHB,2011-06-13,7600.0
SHB,2011-06-14,7600.0
SHB,2011-06-15,7300.0
SHB,2011-06-16,7400.0
SHB,2011-06-17,7200.0
SHB,2011-06-20,7100.0
SHB,2011-06-21,7100.0
SHB,2011-06-22,7100.0
SHB,2011-06-23,7100.0
SHB,2011-06-24,7100.0
SHB,2011-06-27,7100.0
SHB,2011-06-28,6900.0
SHB,2011-06-29,7000.0
SHB,2011-06-30,7000.0
SHB,2011-07-01,7000.0
SHB,2011-07-04,7000.0
SHB,2011-07-05,7100.0
SHB,2011-07-06,7100.0
SHB,2011-07-07,7000.0
SHB,2011-07-08,7000.0
SHB,2011-07-11,6900.0
SHB,2011-07-12,6900.0
SHB,2011-07-13,6700.0
SHB,2011-07-14,6900.0
SHB,2011-07-15,6700.0
SHB,2011-07-18,6700.0
SHB,2011-07-19,6600.0
SHB,2011-07-20,6800.0
SHB,2011-07-21,6800.0
SHB,2011-07-22,6700.0
SHB,2011-07-25,6800.0
SHB,2011-07-26,6700.0
SHB,2011-07-27,6800.0
SHB,2011-07-28,6800.0
SHB,2011-07-29,6600.0
SHB,2011-08-01,6500.0
SHB,2011-08-02,6200.0
SHB,2011-08-03,5900.0
SHB,2011-08-04,6100.0
SHB,2011-08-05,6000.0
SHB,2011-08-08,5900.0
SHB,2011-08-09,5800.0
SHB,2011-08-10,5900.0
SHB,2011-08-11,5900.0
SHB,2011-08-12,5900.0
SHB,2011-08-15,5900.0
SHB,2011-08-16,5900.0
SHB,2011-08-17,5900.0
SHB,2011-08-18,6000.0
SHB,2011-08-19,5900.0
SHB,2011-08-22,6300.0
SHB,2011-08-23,6200.0
SHB,2011-08-24,6100.0
SHB,2011-08-25,6100.0
SHB,2011-08-26,6100.0
SHB,2011-08-29,6200.0
SHB,2011-08-30,6500.0
SHB,2011-08-31,6800.0
SHB,2011-09-01,7100.0
SHB,2011-09-05,7500.0
SHB,2011-09-06,7100.0
SHB,2011-09-07,7500.0
SHB,2011-09-08,7600.0
SHB,2011-09-09,7500.0
SHB,2011-09-12,7600.0
SHB,2011-09-13,7400.0
SHB,2011-09-14,7100.0
SHB,2011-09-15,6900.0
SHB,2011-09-16,6600.0
SHB,2011-09-19,6800.0
SHB,2011-09-20,6600.0
SHB,2011-09-21,6700.0
SHB,2011-09-22,6800.0
SHB,2011-09-23,6800.0
SHB,2011-09-26,6600.0
SHB,2011-09-27,6600.0
SHB,2011-09-28,6600.0
SHB,2011-09-29,6400.0
SHB,2011-09-30,6300.0
SHB,2011-10-03,6100.0
SHB,2011-10-04,6300.0
SHB,2011-10-05,6200.0
SHB,2011-10-06,6500.0
SHB,2011-10-07,6400.0
SHB,2011-10-10,6200.0
SHB,2011-10-11,6700.0
SHB,2011-10-12,6600.0
SHB,2011-10-13,6600.0
SHB,2011-10-14,6500.0
SHB,2011-10-17,6500.0
SHB,2011-10-18,6500.0
SHB,2011-10-19,6600.0
SHB,2011-10-20,6400.0
SHB,2011-10-21,6500.0
SHB,2011-10-24,6400.0
SHB,2011-10-25,6300.0
SHB,2011-10-26,6400.0
SHB,2011-10-27,6300.0
SHB,2011-10-28,6700.0
SHB,2011-10-31,6700.0
SHB,2011-11-01,6500.0
SHB,2011-11-02,6400.0
SHB,2011-11-03,6400.0
SHB,2011-11-04,6400.0
SHB,2011-11-07,6300.0
SHB,2011-11-08,6300.0
SHB,2011-11-09,6200.0
SHB,2011-11-10,6100.0
SHB,2011-11-11,6200.0
SHB,2011-11-14,5900.0
SHB,2011-11-15,6200.0
SHB,2011-11-16,6400.0
SHB,2011-11-17,6200.0
SHB,2011-11-18,6100.0
SHB,2011-11-21,6100.0
SHB,2011-11-22,6100.0
SHB,2011-11-23,6200.0
SHB,2011-11-24,6200.0
SHB,2011-11-25,6100.0
SHB,2011-11-28,6200.0
SHB,2011-11-29,6100.0
SHB,2011-11-30,6100.0
SHB,2011-12-01,6100.0
SHB,2011-12-02,6200.0
SHB,2011-12-05,6500.0
SHB,2011-12-06,6200.0
SHB,2011-12-07,6100.0
SHB,2011-12-08,6100.0
SHB,2011-12-09,6000.0
SHB,2011-12-12,6000.0
SHB,2011-12-13,5900.0
SHB,2011-12-14,5700.0
SHB,2011-12-15,5700.0
SHB,2011-12-16,5800.0
SHB,2011-12-19,5700.0
SHB,2011-12-20,5600.0
SHB,2011-12-21,5700.0
SHB,2011-12-22,5600.0
SHB,2011-12-23,5300.0
SHB,2011-12-26,5100.0
SHB,2011-12-27,5100.0
SHB,2011-12-28,5400.0
SHB,2011-12-29,5400.0
SHB,2011-12-30,5600.0
SHB,2012-01-03,5600.0
SHB,2012-01-04,5500.0
SHB,2012-01-05,5400.0
SHB,2012-01-06,5400.0
SHB,2012-01-09,5400.0
SHB,2012-01-10,5600.0
SHB,2012-01-11,5600.0
SHB,2012-01-12,5500.0
SHB,2012-01-13,5600.0
SHB,2012-01-16,5700.0
SHB,2012-01-17,5600.0
SHB,2012-01-18,5700.0
SHB,2012-01-19,5800.0
SHB,2012-01-20,5800.0
SHB,2012-01-30,5900.0
SHB,2012-01-31,6200.0
SHB,2012-02-01,6100.0
SHB,2012-02-02,6500.0
SHB,2012-02-03,6600.0
SHB,2012-02-06,6600.0
SHB,2012-02-07,6600.0
SHB,2012-02-08,6900.0
SHB,2012-02-09,7100.0
SHB,2012-02-10,7200.0
SHB,2012-02-13,6800.0
SHB,2012-02-14,6900.0
SHB,2012-02-15,6600.0
SHB,2012-02-16,6600.0
SHB,2012-02-17,6800.0
SHB,2012-02-20,7300.0
SHB,2012-02-21,7200.0
SHB,2012-02-22,7400.0
SHB,2012-02-23,7700.0
SHB,2012-02-24,7800.0
SHB,2012-02-27,8300.0
SHB,2012-02-28,8200.0
SHB,2012-02-29,8300.0
SHB,2012-03-01,8500.0
SHB,2012-03-02,8900.0
SHB,2012-03-05,9500.0
SHB,2012-03-06,10200.0
SHB,2012-03-07,10800.0
SHB,2012-03-08,10300.0
SHB,2012-03-09,9900.0
SHB,2012-03-12,9400.0
SHB,2012-03-13,9900.0
SHB,2012-03-14,9800.0
SHB,2012-03-15,10400.0
SHB,2012-03-16,10600.0
SHB,2012-03-19,10400.0
SHB,2012-03-20,10400.0
SHB,2012-03-21,10900.0
SHB,2012-03-22,10900.0
SHB,2012-03-23,11000.0
SHB,2012-03-26,10800.0
SHB,2012-03-27,10200.0
SHB,2012-03-28,10400.0
SHB,2012-03-29,10000.0
SHB,2012-03-30,9700.0
SHB,2012-04-03,10300.0
SHB,2012-04-04,10100.0
SHB,2012-04-05,10300.0
SHB,2012-04-06,10100.0
SHB,2012-04-09,10100.0
SHB,2012-04-10,10000.0
SHB,2012-04-11,10300.0
SHB,2012-04-12,10900.0
SHB,2012-04-13,10900.0
SHB,2012-04-16,11100.0
SHB,2012-04-17,10800.0
SHB,2012-04-18,10600.0
SHB,2012-04-19,10300.0
SHB,2012-04-20,10300.0
SHB,2012-04-23,10300.0
SHB,2012-04-24,10300.0
SHB,2012-04-25,10900.0
SHB,2012-04-26,10500.0
SHB,2012-04-27,10700.0
SHB,2012-05-02,10300.0
SHB,2012-05-03,9900.0
SHB,2012-05-04,10200.0
SHB,2012-05-07,10700.0
SHB,2012-05-08,10700.0
SHB,2012-05-09,10600.0
SHB,2012-05-10,10400.0
SHB,2012-05-11,10200.0
SHB,2012-05-14,9800.0
SHB,2012-05-15,9500.0
SHB,2012-05-16,9600.0
SHB,2012-05-17,9400.0
SHB,2012-05-18,8800.0
SHB,2012-05-21,9300.0
SHB,2012-05-22,9200.0
SHB,2012-05-23,8700.0
SHB,2012-05-24,8700.0
SHB,2012-05-25,9200.0
SHB,2012-05-28,9500.0
SHB,2012-05-29,9400.0
SHB,2012-05-30,9500.0
SHB,2012-05-31,9300.0
SHB,2012-06-01,9400.0
SHB,2012-06-04,9100.0
SHB,2012-06-05,9400.0
SHB,2012-06-06,9300.0
SHB,2012-06-07,9700.0
SHB,2012-06-08,9500.0
SHB,2012-06-11,9400.0
SHB,2012-06-12,9300.0
SHB,2012-06-13,9400.0
SHB,2012-06-14,9200.0
SHB,2012-06-15,9300.0
SHB,2012-06-18,9400.0
SHB,2012-06-19,9300.0
SHB,2012-06-20,9400.0
SHB,2012-06-21,9200.0
SHB,2012-06-22,9200.0
SHB,2012-06-25,9000.0
SHB,2012-06-26,8700.0
SHB,2012-06-27,8700.0
SHB,2012-06-28,8800.0
SHB,2012-06-29,8800.0
SHB,2012-07-02,8600.0
SHB,2012-07-03,8300.0
SHB,2012-07-04,8200.0
SHB,2012-07-05,8500.0
SHB,2012-07-06,8500.0
SHB,2012-07-09,8100.0
SHB,2012-07-10,8100.0
SHB,2012-07-11,8200.0
SHB,2012-07-12,8300.0
SHB,2012-07-13,8600.0
SHB,2012-07-16,8400.0
SHB,2012-07-17,8600.0
SHB,2012-07-18,8500.0
SHB,2012-07-19,8800.0
SHB,2012-07-20,8500.0
SHB,2012-07-23,8500.0
SHB,2012-07-24,8300.0
SHB,2012-07-25,8300.0
SHB,2012-07-26,8400.0
SHB,2012-07-27,8400.0
SHB,2012-07-30,8400.0
SHB,2012-07-31,8600.0
SHB,2012-08-01,8400.0
SHB,2012-08-02,8500.0
SHB,2012-08-03,8400.0
SHB,2012-08-06,8600.0
SHB,2012-08-07,8400.0
SHB,2012-08-08,8900.0
SHB,2012-08-09,9500.0
SHB,2012-08-10,9200.0
SHB,2012-08-13,9200.0
SHB,2012-08-14,9200.0
SHB,2012-08-15,9200.0
SHB,2012-08-16,9300.0
SHB,2012-08-17,7900.0
SHB,2012-08-20,7700.0
SHB,2012-08-21,7300.0
SHB,2012-08-22,6900.0
SHB,2012-08-23,6400.0
SHB,2012-08-24,6800.0
SHB,2012-08-27,6500.0
SHB,2012-08-28,6900.0
SHB,2012-08-29,7200.0
SHB,2012-08-30,7200.0
SHB,2012-08-31,7000.0
SHB,2012-09-04,6900.0
SHB,2012-09-05,6700.0
SHB,2012-09-06,6700.0
SHB,2012-09-07,6700.0
SHB,2012-09-10,6400.0
SHB,2012-09-11,6500.0
SHB,2012-09-12,6500.0
SHB,2012-09-13,6600.0
SHB,2012-09-14,6600.0
SHB,2012-09-17,6600.0
SHB,2012-09-18,6300.0
SHB,2012-09-19,6400.0
SHB,2012-09-20,6400.0
SHB,2012-09-21,6500.0
SHB,2012-09-24,6400.0
SHB,2012-09-25,6500.0
SHB,2012-09-26,6500.0
SHB,2012-09-27,6500.0
SHB,2012-09-28,6400.0
SHB,2012-10-01,6100.0
SHB,2012-10-02,6100.0
SHB,2012-10-03,6300.0
SHB,2012-10-04,6200.0
SHB,2012-10-05,6100.0
SHB,2012-10-08,6300.0
SHB,2012-10-09,6200.0
SHB,2012-10-10,6100.0
SHB,2012-10-11,6300.0
SHB,2012-10-12,6200.0
SHB,2012-10-15,6000.0
SHB,2012-10-16,6500.0
SHB,2012-10-17,6400.0
SHB,2012-10-18,6400.0
SHB,2012-10-19,6300.0
SHB,2012-10-22,6200.0
SHB,2012-10-23,6200.0
SHB,2012-10-24,6000.0
SHB,2012-10-25,6000.0
SHB,2012-10-26,5800.0
SHB,2012-10-29,5700.0
SHB,2012-10-30,5400.0
SHB,2012-10-31,5400.0
SHB,2012-11-01,5100.0
SHB,2012-11-02,4900.0
SHB,2012-11-05,4900.0
SHB,2012-11-06,4800.0
SHB,2012-11-07,4900.0
SHB,2012-11-08,4800.0
SHB,2012-11-09,4900.0
SHB,2012-11-12,5200.0
SHB,2012-11-13,5300.0
SHB,2012-11-14,5300.0
SHB,2012-11-15,5100.0
SHB,2012-11-16,5100.0
SHB,2012-11-19,5000.0
SHB,2012-11-20,5100.0
SHB,2012-11-21,4900.0
SHB,2012-11-22,5000.0
SHB,2012-11-23,4800.0
SHB,2012-11-26,4800.0
SHB,2012-11-27,4700.0
SHB,2012-11-28,4800.0
SHB,2012-11-29,4800.0
SHB,2012-11-30,4900.0
SHB,2012-12-03,4800.0
SHB,2012-12-04,5000.0
SHB,2012-12-05,5000.0
SHB,2012-12-06,4900.0
SHB,2012-12-07,4900.0
SHB,2012-12-10,5000.0
SHB,2012-12-11,5000.0
SHB,2012-12-12,5200.0
SHB,2012-12-13,5400.0
SHB,2012-12-14,5400.0
SHB,2012-12-17,5500.0
SHB,2012-12-18,5300.0
SHB,2012-12-19,5600.0
SHB,2012-12-20,5300.0
SHB,2012-12-21,5300.0
SHB,2012-12-24,5400.0
SHB,2012-12-25,5400.0
SHB,2012-12-26,5400.0
SHB,2012-12-27,5600.0
SHB,2012-12-28,5800.0
SHB,2013-01-02,6300.0
SHB,2013-01-03,6200.0
SHB,2013-01-04,6600.0
SHB,2013-01-07,6500.0
SHB,2013-01-08,6800.0
SHB,2013-01-09,6400.0
SHB,2013-01-10,6700.0
SHB,2013-01-11,6700.0
SHB,2013-01-14,6700.0
SHB,2013-01-15,7100.0
SHB,2013-01-16,7000.0
SHB,2013-01-17,6800.0
SHB,2013-01-18,6800.0
SHB,2013-01-21,6700.0
SHB,2013-01-22,6400.0
SHB,2013-01-23,6500.0
SHB,2013-01-24,6700.0
SHB,2013-01-25,6700.0
SHB,2013-01-28,7000.0
SHB,2013-01-29,7300.0
SHB,2013-01-30,7400.0
SHB,2013-01-31,7100.0
SHB,2013-02-01,7100.0
SHB,2013-02-04,7300.0
SHB,2013-02-05,7200.0
SHB,2013-02-06,7400.0
SHB,2013-02-07,7800.0
SHB,2013-02-08,8100.0
SHB,2013-02-18,8000.0
SHB,2013-02-19,7800.0
SHB,2013-02-20,8200.0
SHB,2013-02-21,7500.0
SHB,2013-02-22,7800.0
SHB,2013-02-25,7700.0
SHB,2013-02-26,7200.0
SHB,2013-02-27,7400.0
SHB,2013-02-28,7400.0
SHB,2013-03-01,7400.0
SHB,2013-03-04,6800.0
SHB,2013-03-05,6600.0
SHB,2013-03-06,7000.0
SHB,2013-03-07,6800.0
SHB,2013-03-08,6900.0
SHB,2013-03-11,7200.0
SHB,2013-03-12,7100.0
SHB,2013-03-13,6900.0
SHB,2013-03-14,7000.0
SHB,2013-03-15,7000.0
SHB,2013-03-18,6800.0
SHB,2013-03-19,6800.0
SHB,2013-03-20,6900.0
SHB,2013-03-21,6800.0
SHB,2013-03-22,6800.0
SHB,2013-03-25,6900.0
SHB,2013-03-26,6800.0
SHB,2013-03-27,6700.0
SHB,2013-03-28,6600.0
SHB,2013-03-29,6600.0
SHB,2013-04-01,7000.0
SHB,2013-04-02,6800.0
SHB,2013-04-03,6900.0
SHB,2013-04-04,6700.0
SHB,2013-04-05,6900.0
SHB,2013-04-08,7300.0
SHB,2013-04-09,7300.0
SHB,2013-04-10,6900.0
SHB,2013-04-11,7000.0
SHB,2013-04-12,6800.0
SHB,2013-04-15,6600.0
SHB,2013-04-16,6700.0
SHB,2013-04-17,6600.0
SHB,2013-04-18,6500.0
SHB,2013-04-22,6300.0
SHB,2013-04-23,6500.0
SHB,2013-04-24,6500.0
SHB,2013-04-25,6600.0
SHB,2013-04-26,6600.0
SHB,2013-05-02,6500.0
SHB,2013-05-03,6700.0
SHB,2013-05-06,7100.0
SHB,2013-05-07,6900.0
SHB,2013-05-08,6800.0
SHB,2013-05-09,6900.0
SHB,2013-05-10,6800.0
SHB,2013-05-13,6900.0
SHB,2013-05-14,6700.0
SHB,2013-05-15,6800.0
SHB,2013-05-16,6900.0
SHB,2013-05-17,6800.0
SHB,2013-05-20,7000.0
SHB,2013-05-21,7000.0
SHB,2013-05-22,7200.0
SHB,2013-05-23,7000.0
SHB,2013-05-24,7200.0
SHB,2013-05-27,7500.0
SHB,2013-05-28,7600.0
SHB,2013-05-29,7500.0
SHB,2013-05-30,7700.0
SHB,2013-05-31,7400.0
SHB,2013-06-03,7500.0
SHB,2013-06-04,7200.0
SHB,2013-06-05,7300.0
SHB,2013-06-06,7400.0
SHB,2013-06-07,7300.0
SHB,2013-06-10,7300.0
SHB,2013-06-11,7200.0
SHB,2013-06-12,7200.0
SHB,2013-06-13,7300.0
SHB,2013-06-14,7300.0
SHB,2013-06-17,7000.0
SHB,2013-06-18,7000.0
SHB,2013-06-19,7000.0
SHB,2013-06-20,7000.0
SHB,2013-06-21,6900.0
SHB,2013-06-24,6900.0
SHB,2013-06-25,6700.0
SHB,2013-06-26,6700.0
SHB,2013-06-27,6800.0
SHB,2013-06-28,6900.0
SHB,2013-07-01,6800.0
SHB,2013-07-02,6800.0
SHB,2013-07-03,6700.0
SHB,2013-07-04,6700.0
SHB,2013-07-05,6700.0
SHB,2013-07-08,6700.0
SHB,2013-07-09,6800.0
SHB,2013-07-10,6700.0
SHB,2013-07-11,6800.0
SHB,2013-07-12,6900.0
SHB,2013-07-15,6900.0
SHB,2013-07-16,6900.0
SHB,2013-07-17,6800.0
SHB,2013-07-18,6700.0
SHB,2013-07-19,6800.0
SHB,2013-07-22,6800.0
SHB,2013-07-23,6700.0
SHB,2013-07-24,6600.0
SHB,2013-07-25,6500.0
SHB,2013-07-26,6500.0
SHB,2013-07-29,6300.0
SHB,2013-07-30,6400.0
SHB,2013-07-31,6400.0
SHB,2013-08-01,6400.0
SHB,2013-08-02,6400.0
SHB,2013-08-05,6200.0
SHB,2013-08-06,6500.0
SHB,2013-08-07,6400.0
SHB,2013-08-08,6400.0
SHB,2013-08-09,6400.0
SHB,2013-08-12,6300.0
SHB,2013-08-13,6200.0
SHB,2013-08-14,6400.0
SHB,2013-08-15,6300.0
SHB,2013-08-16,6400.0
SHB,2013-08-19,6600.0
SHB,2013-08-20,6600.0
SHB,2013-08-21,6600.0
SHB,2013-08-22,6400.0
SHB,2013-08-23,6400.0
SHB,2013-08-26,6500.0
SHB,2013-08-27,6500.0
SHB,2013-08-28,6400.0
SHB,2013-08-29,6300.0
SHB,2013-08-30,6400.0
SHB,2013-09-03,6400.0
SHB,2013-09-04,6300.0
SHB,2013-09-05,6500.0
SHB,2013-09-06,6500.0
SHB,2013-09-09,6400.0
SHB,2013-09-10,6400.0
SHB,2013-09-11,6300.0
SHB,2013-09-12,6500.0
SHB,2013-09-13,6500.0
SHB,2013-09-16,6900.0
SHB,2013-09-17,6800.0
SHB,2013-09-18,6600.0
SHB,2013-09-19,6700.0
SHB,2013-09-20,6800.0
SHB,2013-09-23,6700.0
SHB,2013-09-24,6700.0
SHB,2013-09-25,6700.0
SHB,2013-09-26,6700.0
SHB,2013-09-27,6700.0
SHB,2013-09-30,6800.0
SHB,2013-10-01,6800.0
SHB,2013-10-02,6700.0
SHB,2013-10-03,6800.0
SHB,2013-10-04,6800.0
SHB,2013-10-07,6900.0
SHB,2013-10-08,6900.0
SHB,2013-10-09,6800.0
SHB,2013-10-10,6700.0
SHB,2013-10-11,6700.0
SHB,2013-10-14,6700.0
SHB,2013-10-15,6700.0
SHB,2013-10-16,6800.0
SHB,2013-10-17,6900.0
SHB,2013-10-18,6900.0
SHB,2013-10-21,7000.0
SHB,2013-10-22,6900.0
SHB,2013-10-23,7100.0
SHB,2013-10-24,6900.0
SHB,2013-10-25,7000.0
SHB,2013-10-28,6900.0
SHB,2013-10-29,6900.0
SHB,2013-10-30,6900.0
SHB,2013-10-31,6900.0
SHB,2013-11-01,6900.0
SHB,2013-11-04,7000.0
SHB,2013-11-05,6900.0
SHB,2013-11-06,7100.0
SHB,2013-11-07,7100.0
SHB,2013-11-08,7100.0
SHB,2013-11-11,7100.0
SHB,2013-11-12,7000.0
SHB,2013-11-13,7100.0
SHB,2013-11-14,7100.0
SHB,2013-11-15,7100.0
SHB,2013-11-18,7200.0
SHB,2013-11-19,7100.0
SHB,2013-11-20,7100.0
SHB,2013-11-21,7100.0
SHB,2013-11-22,7100.0
SHB,2013-11-25,7100.0
SHB,2013-11-26,7000.0
SHB,2013-11-27,7000.0
SHB,2013-11-28,7000.0
SHB,2013-11-29,7000.0
SHB,2013-12-02,7000.0
SHB,2013-12-03,7100.0
SHB,2013-12-04,7000.0
SHB,2013-12-05,7000.0
SHB,2013-12-06,6900.0
SHB,2013-12-09,7000.0
SHB,2013-12-10,7000.0
SHB,2013-12-11,6900.0
SHB,2013-12-12,6900.0
SHB,2013-12-13,6900.0
SHB,2013-12-16,6800.0
SHB,2013-12-17,6900.0
SHB,2013-12-18,6800.0
SHB,2013-12-19,7000.0
SHB,2013-12-20,6800.0
SHB,2013-12-23,7000.0
SHB,2013-12-24,6900.0
SHB,2013-12-25,6900.0
SHB,2013-12-26,6800.0
SHB,2013-12-27,6900.0
SHB,2013-12-30,6800.0
SHB,2013-12-31,6900.0
SHB,2014-01-02,6800.0
SHB,2014-01-03,6800.0
SHB,2014-01-06,6800.0
SHB,2014-01-07,6900.0
SHB,2014-01-08,6900.0
SHB,2014-01-09,7000.0
SHB,2014-01-10,6900.0
SHB,2014-01-13,7000.0
SHB,2014-01-14,6900.0
SHB,2014-01-15,6900.0
SHB,2014-01-16,7000.0
SHB,2014-01-17,7100.0
SHB,2014-01-20,7200.0
SHB,2014-01-21,7200.0
SHB,2014-01-22,7200.0
SHB,2014-01-23,7200.0
SHB,2014-01-24,7200.0
SHB,2014-01-27,7200.0
SHB,2014-02-06,7300.0
SHB,2014-02-07,7500.0
SHB,2014-02-10,7700.0
SHB,2014-02-11,7600.0
SHB,2014-02-12,7700.0
SHB,2014-02-13,7700.0
SHB,2014-02-14,7800.0
SHB,2014-02-17,8000.0
SHB,2014-02-18,8500.0
SHB,2014-02-19,9000.0
SHB,2014-02-20,8500.0
SHB,2014-02-21,8600.0
SHB,2014-02-24,8700.0
SHB,2014-02-25,8600.0
SHB,2014-02-26,8900.0
SHB,2014-02-27,9000.0
SHB,2014-02-28,9300.0
SHB,2014-03-03,9000.0
SHB,2014-03-04,8900.0
SHB,2014-03-05,9000.0
SHB,2014-03-06,9300.0
SHB,2014-03-07,9300.0
SHB,2014-03-10,9300.0
SHB,2014-03-11,9300.0
SHB,2014-03-12,9300.0
SHB,2014-03-13,9500.0
SHB,2014-03-14,9900.0
SHB,2014-03-17,10100.0
SHB,2014-03-18,10100.0
SHB,2014-03-19,11100.0
SHB,2014-03-20,11600.0
SHB,2014-03-21,11600.0
SHB,2014-03-24,12100.0
SHB,2014-03-25,11500.0
SHB,2014-03-26,11600.0
SHB,2014-03-27,11300.0
SHB,2014-03-28,11400.0
SHB,2014-03-31,11100.0
SHB,2014-04-01,10200.0
SHB,2014-04-02,10600.0
SHB,2014-04-03,10900.0
SHB,2014-04-04,10700.0
SHB,2014-04-07,10900.0
SHB,2014-04-08,10900.0
SHB,2014-04-10,10700.0
SHB,2014-04-11,11100.0
SHB,2014-04-14,11000.0
SHB,2014-04-15,10800.0
SHB,2014-04-16,10600.0
SHB,2014-04-17,10900.0
SHB,2014-04-18,10100.0
SHB,2014-04-21,9500.0
SHB,2014-04-22,10000.0
SHB,2014-04-23,9800.0
SHB,2014-04-24,9700.0
SHB,2014-04-25,9700.0
SHB,2014-04-28,9600.0
SHB,2014-04-29,9700.0
SHB,2014-05-05,8900.0
SHB,2014-05-06,8800.0
SHB,2014-05-07,8700.0
SHB,2014-05-08,8200.0
SHB,2014-05-09,8600.0
SHB,2014-05-12,8000.0
SHB,2014-05-13,8200.0
SHB,2014-05-14,8500.0
SHB,2014-05-15,8200.0
SHB,2014-05-16,8500.0
SHB,2014-05-19,8600.0
SHB,2014-05-20,8800.0
SHB,2014-05-21,9200.0
