SNG,2006-12-25,14900.0
SNG,2006-12-26,13900.0
SNG,2006-12-27,13900.0
SNG,2006-12-28,13900.0
SNG,2006-12-29,13900.0
SNG,2007-01-02,13000.0
SNG,2007-01-03,13600.0
SNG,2007-01-04,13600.0
SNG,2007-01-05,13600.0
SNG,2007-01-08,13900.0
SNG,2007-01-09,13900.0
SNG,2007-01-10,13900.0
SNG,2007-01-11,13900.0
SNG,2007-01-12,13900.0
SNG,2007-01-15,13900.0
SNG,2007-01-16,13900.0
SNG,2007-01-17,13000.0
SNG,2007-01-18,13000.0
SNG,2007-01-19,13000.0
SNG,2007-01-22,13000.0
SNG,2007-01-23,13000.0
SNG,2007-01-24,13000.0
SNG,2007-01-25,13000.0
SNG,2007-01-26,13000.0
SNG,2007-01-29,13900.0
SNG,2007-01-30,15300.0
SNG,2007-01-31,16900.0
SNG,2007-02-01,16900.0
SNG,2007-02-02,18500.0
SNG,2007-02-05,20400.0
SNG,2007-02-06,22400.0
SNG,2007-02-07,24600.0
SNG,2007-02-08,27100.0
SNG,2007-02-09,29700.0
SNG,2007-02-12,32700.0
SNG,2007-02-13,32500.0
SNG,2007-02-14,32500.0
SNG,2007-02-15,32500.0
SNG,2007-02-26,35300.0
SNG,2007-02-27,38800.0
SNG,2007-02-28,42600.0
SNG,2007-03-01,43400.0
SNG,2007-03-02,43700.0
SNG,2007-03-05,42900.0
SNG,2007-03-06,42900.0
SNG,2007-03-07,42800.0
SNG,2007-03-08,43100.0
SNG,2007-03-09,43400.0
SNG,2007-03-12,42500.0
SNG,2007-03-13,39300.0
SNG,2007-03-14,39000.0
SNG,2007-03-15,38100.0
SNG,2007-03-16,39900.0
SNG,2007-03-19,40300.0
SNG,2007-03-20,37700.0
SNG,2007-03-21,37100.0
SNG,2007-03-22,36800.0
SNG,2007-03-23,36600.0
SNG,2007-03-26,36500.0
SNG,2007-03-27,33000.0
SNG,2007-03-28,34600.0
SNG,2007-03-29,33000.0
SNG,2007-03-30,34600.0
SNG,2007-04-02,34600.0
SNG,2007-04-03,34600.0
SNG,2007-04-04,34000.0
SNG,2007-04-05,31500.0
SNG,2007-04-06,30800.0
SNG,2007-04-09,28900.0
SNG,2007-04-10,27400.0
SNG,2007-04-11,27200.0
SNG,2007-04-12,27300.0
SNG,2007-04-13,26700.0
SNG,2007-04-16,25200.0
SNG,2007-04-17,23300.0
SNG,2007-04-18,25400.0
SNG,2007-04-19,26100.0
SNG,2007-04-20,24800.0
SNG,2007-04-23,23300.0
SNG,2007-04-24,23600.0
SNG,2007-04-25,24800.0
SNG,2007-05-02,25900.0
SNG,2007-05-03,25200.0
SNG,2007-05-04,25200.0
SNG,2007-05-07,24800.0
SNG,2007-05-08,25200.0
SNG,2007-05-09,25200.0
SNG,2007-05-10,23900.0
SNG,2007-05-11,24200.0
SNG,2007-05-14,25300.0
SNG,2007-05-15,24800.0
SNG,2007-05-16,23900.0
SNG,2007-05-17,24500.0
SNG,2007-05-18,23900.0
SNG,2007-05-21,25500.0
SNG,2007-05-22,27600.0
SNG,2007-05-23,28300.0
SNG,2007-05-24,28300.0
SNG,2007-05-25,28600.0
SNG,2007-05-28,30200.0
SNG,2007-05-29,28900.0
SNG,2007-05-30,28300.0
SNG,2007-05-31,28600.0
SNG,2007-06-01,28600.0
SNG,2007-06-04,27400.0
SNG,2007-06-05,27000.0
SNG,2007-06-06,26800.0
SNG,2007-06-07,27000.0
SNG,2007-06-08,26500.0
SNG,2007-06-11,26800.0
SNG,2007-06-12,27000.0
SNG,2007-06-13,27200.0
SNG,2007-06-14,26800.0
SNG,2007-06-15,27700.0
SNG,2007-06-18,28600.0
SNG,2007-06-19,29600.0
SNG,2007-06-20,29600.0
SNG,2007-06-21,29300.0
SNG,2007-06-22,29400.0
SNG,2007-06-25,28900.0
SNG,2007-06-26,28300.0
SNG,2007-06-27,28300.0
SNG,2007-06-28,27100.0
SNG,2007-06-29,26400.0
SNG,2007-07-02,25200.0
SNG,2007-07-03,24500.0
SNG,2007-07-04,26400.0
SNG,2007-07-05,23900.0
SNG,2007-07-06,28600.0
SNG,2007-07-09,27000.0
SNG,2007-07-10,27700.0
SNG,2007-07-11,28200.0
SNG,2007-07-12,27000.0
SNG,2007-07-13,27000.0
SNG,2007-07-16,29600.0
SNG,2007-07-17,28600.0
SNG,2007-07-18,28600.0
SNG,2007-07-19,26700.0
SNG,2007-07-20,26700.0
SNG,2007-07-23,25800.0
SNG,2007-07-24,26400.0
SNG,2007-07-25,25500.0
SNG,2007-07-26,25200.0
SNG,2007-07-27,26900.0
SNG,2007-07-30,26900.0
SNG,2007-07-31,26900.0
SNG,2007-08-01,26900.0
SNG,2007-08-02,27500.0
SNG,2007-08-03,26100.0
SNG,2007-08-06,26100.0
SNG,2007-08-07,25500.0
SNG,2007-08-08,25300.0
SNG,2007-08-09,25200.0
SNG,2007-08-10,25000.0
SNG,2007-08-13,25500.0
SNG,2007-08-14,24800.0
SNG,2007-08-15,24500.0
SNG,2007-08-16,25200.0
SNG,2007-08-17,24500.0
SNG,2007-08-20,23300.0
SNG,2007-08-21,23300.0
SNG,2007-08-22,22000.0
SNG,2007-08-23,22300.0
SNG,2007-08-24,22400.0
SNG,2007-08-27,22000.0
SNG,2007-08-28,22000.0
SNG,2007-08-29,22000.0
SNG,2007-08-30,22200.0
SNG,2007-08-31,22000.0
SNG,2007-09-04,22100.0
SNG,2007-09-05,22100.0
SNG,2007-09-06,23600.0
SNG,2007-09-07,23400.0
SNG,2007-09-10,23500.0
SNG,2007-09-11,25800.0
SNG,2007-09-12,27000.0
SNG,2007-09-13,26400.0
SNG,2007-09-14,25000.0
SNG,2007-09-17,24500.0
SNG,2007-09-18,26100.0
SNG,2007-09-19,26700.0
SNG,2007-09-20,26400.0
SNG,2007-09-21,25200.0
SNG,2007-09-24,25500.0
SNG,2007-09-25,25900.0
SNG,2007-09-26,25800.0
SNG,2007-09-27,26100.0
SNG,2007-09-28,28700.0
SNG,2007-10-01,31500.0
SNG,2007-10-02,33500.0
SNG,2007-10-03,33200.0
SNG,2007-10-04,33700.0
SNG,2007-10-05,36200.0
SNG,2007-10-08,39900.0
SNG,2007-10-09,39900.0
SNG,2007-10-10,40600.0
SNG,2007-10-11,41800.0
SNG,2007-10-12,44800.0
SNG,2007-10-15,49000.0
SNG,2007-10-16,53500.0
SNG,2007-10-17,53500.0
SNG,2007-10-18,51200.0
SNG,2007-10-19,56300.0
SNG,2007-10-22,58200.0
SNG,2007-10-23,63800.0
SNG,2007-10-24,68600.0
SNG,2007-10-25,75400.0
SNG,2007-10-26,71700.0
SNG,2007-10-29,65200.0
SNG,2007-10-30,60700.0
SNG,2007-10-31,64500.0
SNG,2007-11-01,69800.0
SNG,2007-11-02,66100.0
SNG,2007-11-05,63800.0
SNG,2007-11-06,65400.0
SNG,2007-11-07,68800.0
SNG,2007-11-08,68600.0
SNG,2007-11-09,69800.0
SNG,2007-11-12,68500.0
SNG,2007-11-13,61600.0
SNG,2007-11-14,66700.0
SNG,2007-11-15,64500.0
SNG,2007-11-16,63700.0
SNG,2007-11-19,63000.0
SNG,2007-11-20,64600.0
SNG,2007-11-21,62700.0
SNG,2007-11-22,62400.0
SNG,2007-11-23,61400.0
SNG,2007-11-26,61500.0
SNG,2007-11-27,60800.0
SNG,2007-11-28,62100.0
SNG,2007-11-29,64300.0
SNG,2007-11-30,64300.0
SNG,2007-12-03,66500.0
SNG,2007-12-04,67600.0
SNG,2007-12-05,65800.0
SNG,2007-12-06,65200.0
SNG,2007-12-07,65200.0
SNG,2007-12-10,63000.0
SNG,2007-12-11,60500.0
SNG,2007-12-12,59800.0
SNG,2007-12-13,60800.0
SNG,2007-12-14,60300.0
SNG,2007-12-17,57000.0
SNG,2007-12-18,58300.0
SNG,2007-12-19,61400.0
SNG,2007-12-20,58000.0
SNG,2007-12-21,59500.0
SNG,2007-12-24,59800.0
SNG,2007-12-25,58600.0
SNG,2007-12-26,59700.0
SNG,2007-12-27,59200.0
SNG,2007-12-28,56700.0
SNG,2008-01-02,58100.0
SNG,2008-01-03,56100.0
SNG,2008-01-04,54200.0
SNG,2008-01-07,50100.0
SNG,2008-01-08,50100.0
SNG,2008-01-09,49200.0
SNG,2008-01-10,47600.0
SNG,2008-01-11,46800.0
SNG,2008-01-14,43200.0
SNG,2008-01-15,39300.0
SNG,2008-01-16,43200.0
SNG,2008-01-17,42200.0
SNG,2008-01-18,42900.0
SNG,2008-01-21,41600.0
SNG,2008-01-22,42200.0
SNG,2008-01-23,39700.0
SNG,2008-01-24,38100.0
SNG,2008-01-25,39100.0
SNG,2008-01-28,39400.0
SNG,2008-01-29,42500.0
SNG,2008-01-30,44500.0
SNG,2008-01-31,44700.0
SNG,2008-02-01,45400.0
SNG,2008-02-12,42800.0
SNG,2008-02-13,42700.0
SNG,2008-02-14,43500.0
SNG,2008-02-15,42700.0
SNG,2008-02-18,40000.0
SNG,2008-02-19,39900.0
SNG,2008-02-20,36600.0
SNG,2008-02-21,33700.0
SNG,2008-02-22,32800.0
SNG,2008-02-25,34700.0
SNG,2008-02-26,32400.0
SNG,2008-02-27,32400.0
SNG,2008-02-28,31500.0
SNG,2008-02-29,29900.0
SNG,2008-03-03,26800.0
SNG,2008-03-04,25200.0
SNG,2008-03-05,22700.0
SNG,2008-03-06,25000.0
SNG,2008-03-07,26300.0
SNG,2008-03-10,27700.0
SNG,2008-03-11,25800.0
SNG,2008-03-12,26500.0
SNG,2008-03-13,26800.0
SNG,2008-03-14,26500.0
SNG,2008-03-17,23300.0
SNG,2008-03-18,21100.0
SNG,2008-03-19,20200.0
SNG,2008-03-20,19300.0
SNG,2008-03-21,17600.0
SNG,2008-03-24,16700.0
SNG,2008-03-25,15100.0
SNG,2008-03-26,15700.0
SNG,2008-03-27,16400.0
SNG,2008-03-28,16700.0
SNG,2008-03-31,17000.0
SNG,2008-04-01,17400.0
SNG,2008-04-02,17700.0
SNG,2008-04-03,18000.0
SNG,2008-04-04,18400.0
SNG,2008-04-07,18900.0
SNG,2008-04-08,19200.0
SNG,2008-04-09,18400.0
SNG,2008-04-10,18200.0
SNG,2008-04-11,17600.0
SNG,2008-04-16,17100.0
SNG,2008-04-17,17600.0
SNG,2008-04-18,16500.0
SNG,2008-04-21,16100.0
SNG,2008-04-22,15700.0
SNG,2008-04-23,15200.0
SNG,2008-04-24,14800.0
SNG,2008-04-25,14400.0
SNG,2008-04-28,14400.0
SNG,2008-04-29,14000.0
SNG,2008-05-05,13700.0
SNG,2008-05-06,13300.0
SNG,2008-05-07,13000.0
SNG,2008-05-08,12600.0
SNG,2008-05-09,12200.0
SNG,2008-05-12,12200.0
SNG,2008-05-13,12200.0
SNG,2008-05-14,12200.0
SNG,2008-05-15,12200.0
SNG,2008-05-16,11900.0
SNG,2008-05-19,11900.0
SNG,2008-05-20,11900.0
SNG,2008-05-21,11900.0
SNG,2008-05-22,11900.0
SNG,2008-05-23,11900.0
SNG,2008-05-26,11900.0
SNG,2008-05-27,11900.0
SNG,2008-05-28,11900.0
SNG,2008-05-29,11900.0
SNG,2008-05-30,11600.0
SNG,2008-06-02,11600.0
SNG,2008-06-03,11600.0
SNG,2008-06-04,11600.0
SNG,2008-06-05,11600.0
SNG,2008-06-06,11600.0
SNG,2008-06-09,11600.0
SNG,2008-06-10,11200.0
SNG,2008-06-11,10900.0
SNG,2008-06-12,10600.0
SNG,2008-06-13,10900.0
SNG,2008-06-16,10900.0
SNG,2008-06-17,11200.0
SNG,2008-06-18,10900.0
SNG,2008-06-19,10900.0
SNG,2008-06-20,10900.0
SNG,2008-06-23,10500.0
SNG,2008-06-24,10100.0
SNG,2008-06-25,9700.0
SNG,2008-06-26,9300.0
SNG,2008-06-27,9700.0
SNG,2008-06-30,9200.0
SNG,2008-07-01,9500.0
SNG,2008-07-02,9800.0
SNG,2008-07-03,10200.0
SNG,2008-07-04,10600.0
SNG,2008-07-07,10200.0
SNG,2008-07-08,10300.0
SNG,2008-07-09,10200.0
SNG,2008-07-10,10400.0
SNG,2008-07-11,10600.0
SNG,2008-07-14,11000.0
SNG,2008-07-15,11400.0
SNG,2008-07-16,11800.0
SNG,2008-07-17,12100.0
SNG,2008-07-18,11600.0
SNG,2008-07-21,12000.0
SNG,2008-07-22,11600.0
SNG,2008-07-23,11600.0
SNG,2008-07-24,11600.0
SNG,2008-07-25,11100.0
SNG,2008-07-28,10700.0
SNG,2008-07-29,10300.0
SNG,2008-07-30,9900.0
SNG,2008-07-31,9500.0
SNG,2008-08-01,9200.0
SNG,2008-08-04,8800.0
SNG,2008-08-05,8500.0
SNG,2008-08-06,8100.0
SNG,2008-08-07,7800.0
SNG,2008-08-08,8100.0
SNG,2008-08-11,8200.0
SNG,2008-08-12,8600.0
SNG,2008-08-13,8900.0
SNG,2008-08-14,9200.0
SNG,2008-08-15,9500.0
SNG,2008-08-18,10100.0
SNG,2008-08-19,10700.0
SNG,2008-08-20,11100.0
SNG,2008-08-21,11500.0
SNG,2008-08-22,12200.0
SNG,2008-08-25,13000.0
SNG,2008-08-26,13900.0
SNG,2008-08-27,14900.0
SNG,2008-08-28,14200.0
SNG,2008-08-29,15300.0
SNG,2008-09-03,15000.0
SNG,2008-09-04,16000.0
SNG,2008-09-05,15900.0
SNG,2008-09-08,15400.0
SNG,2008-09-09,14200.0
SNG,2008-09-10,14000.0
SNG,2008-09-11,13300.0
SNG,2008-09-12,12400.0
SNG,2008-09-15,11600.0
SNG,2008-09-16,10800.0
SNG,2008-09-17,10200.0
SNG,2008-09-18,9600.0
SNG,2008-09-19,10300.0
SNG,2008-09-22,10500.0
SNG,2008-09-23,10400.0
SNG,2008-09-24,9900.0
SNG,2008-09-25,10800.0
SNG,2008-09-26,10300.0
SNG,2008-09-29,10600.0
SNG,2008-09-30,9900.0
SNG,2008-10-01,10100.0
SNG,2008-10-02,9900.0
SNG,2008-10-03,10200.0
SNG,2008-10-06,10300.0
SNG,2008-10-07,9600.0
SNG,2008-10-08,8900.0
SNG,2008-10-09,8900.0
SNG,2008-10-10,8000.0
SNG,2008-10-13,8000.0
SNG,2008-10-14,8100.0
SNG,2008-10-15,8100.0
SNG,2008-10-16,8000.0
SNG,2008-10-17,8100.0
SNG,2008-10-20,7900.0
SNG,2008-10-21,8400.0
SNG,2008-10-22,8700.0
SNG,2008-10-23,8100.0
SNG,2008-10-24,7600.0
SNG,2008-10-27,7100.0
SNG,2008-10-28,6900.0
SNG,2008-10-29,7200.0
SNG,2008-10-30,7700.0
SNG,2008-10-31,8200.0
SNG,2008-11-03,8600.0
SNG,2008-11-04,9300.0
SNG,2008-11-05,9700.0
SNG,2008-11-06,9600.0
SNG,2008-11-07,9000.0
SNG,2008-11-10,8500.0
SNG,2008-11-11,8000.0
SNG,2008-11-12,7900.0
SNG,2008-11-13,8100.0
SNG,2008-11-14,8400.0
SNG,2008-11-17,8200.0
SNG,2008-11-18,8200.0
SNG,2008-11-19,7700.0
SNG,2008-11-20,7500.0
SNG,2008-11-21,7300.0
SNG,2008-11-24,7400.0
SNG,2008-11-25,7400.0
SNG,2008-11-26,6900.0
SNG,2008-11-27,6900.0
SNG,2008-11-28,7400.0
SNG,2008-12-01,7400.0
SNG,2008-12-02,7200.0
SNG,2008-12-03,7500.0
SNG,2008-12-04,7100.0
SNG,2008-12-05,6700.0
SNG,2008-12-08,6400.0
SNG,2008-12-09,6900.0
SNG,2008-12-10,6700.0
SNG,2008-12-11,6700.0
SNG,2008-12-12,7200.0
SNG,2008-12-15,7300.0
SNG,2008-12-16,6700.0
SNG,2008-12-17,6900.0
SNG,2008-12-18,6500.0
SNG,2008-12-19,6800.0
SNG,2008-12-22,6900.0
SNG,2008-12-23,6400.0
SNG,2008-12-24,6700.0
SNG,2008-12-25,6700.0
SNG,2008-12-26,6900.0
SNG,2008-12-29,6900.0
SNG,2008-12-30,6400.0
SNG,2008-12-31,6700.0
SNG,2009-01-02,6700.0
SNG,2009-01-05,6900.0
SNG,2009-01-06,6900.0
SNG,2009-01-07,7300.0
SNG,2009-01-08,7000.0
SNG,2009-01-09,7400.0
SNG,2009-01-12,7200.0
SNG,2009-01-13,6900.0
SNG,2009-01-14,7000.0
SNG,2009-01-15,7000.0
SNG,2009-01-16,7000.0
SNG,2009-01-19,7400.0
SNG,2009-01-20,7200.0
SNG,2009-01-21,7200.0
SNG,2009-01-22,7100.0
SNG,2009-01-23,7600.0
SNG,2009-02-02,8000.0
SNG,2009-02-03,7700.0
SNG,2009-02-04,7700.0
SNG,2009-02-05,7300.0
SNG,2009-02-06,7200.0
SNG,2009-02-09,7400.0
SNG,2009-02-10,7400.0
SNG,2009-02-11,7100.0
SNG,2009-02-12,7100.0
SNG,2009-02-13,7400.0
SNG,2009-02-16,7400.0
SNG,2009-02-17,7000.0
SNG,2009-02-18,6700.0
SNG,2009-02-19,6700.0
SNG,2009-02-20,6800.0
SNG,2009-02-23,6800.0
SNG,2009-02-24,6400.0
SNG,2009-02-25,6800.0
SNG,2009-02-26,6700.0
SNG,2009-02-27,7100.0
SNG,2009-03-02,7100.0
SNG,2009-03-03,7000.0
SNG,2009-03-04,7000.0
SNG,2009-03-05,7300.0
SNG,2009-03-06,6900.0
SNG,2009-03-09,6900.0
SNG,2009-03-10,7200.0
SNG,2009-03-11,7400.0
SNG,2009-03-12,7500.0
SNG,2009-03-13,7400.0
SNG,2009-03-16,7700.0
SNG,2009-03-17,8000.0
SNG,2009-03-18,8000.0
SNG,2009-03-19,7600.0
SNG,2009-03-20,7400.0
SNG,2009-03-23,7400.0
SNG,2009-03-24,7800.0
SNG,2009-03-25,8000.0
SNG,2009-03-26,8100.0
SNG,2009-03-27,7900.0
SNG,2009-03-30,8000.0
SNG,2009-03-31,8100.0
SNG,2009-04-01,8400.0
SNG,2009-04-02,8700.0
SNG,2009-04-03,9400.0
SNG,2009-04-07,10000.0
SNG,2009-04-08,9400.0
SNG,2009-04-09,9100.0
SNG,2009-04-10,9900.0
SNG,2009-04-13,10400.0
SNG,2009-04-14,10400.0
SNG,2009-04-15,9900.0
SNG,2009-04-16,9500.0
SNG,2009-04-17,8900.0
SNG,2009-04-20,9100.0
SNG,2009-04-21,9300.0
SNG,2009-04-22,9700.0
SNG,2009-04-23,10300.0
SNG,2009-04-24,9800.0
SNG,2009-04-27,10000.0
SNG,2009-04-28,9900.0
SNG,2009-04-29,9900.0
SNG,2009-05-04,10600.0
SNG,2009-05-05,11100.0
SNG,2009-05-06,10600.0
SNG,2009-05-07,10600.0
SNG,2009-05-08,10300.0
SNG,2009-05-11,10600.0
SNG,2009-05-12,10600.0
SNG,2009-05-13,10600.0
SNG,2009-05-14,10300.0
SNG,2009-05-15,10600.0
SNG,2009-05-18,11000.0
SNG,2009-05-19,11700.0
SNG,2009-05-20,12500.0
SNG,2009-05-21,13200.0
SNG,2009-05-22,12800.0
SNG,2009-05-25,13200.0
SNG,2009-05-26,12800.0
SNG,2009-05-27,12600.0
SNG,2009-05-28,12300.0
SNG,2009-05-29,11900.0
SNG,2009-06-01,13000.0
SNG,2009-06-02,13000.0
SNG,2009-06-03,13100.0
SNG,2009-06-04,13300.0
SNG,2009-06-05,14400.0
SNG,2009-06-08,15400.0
SNG,2009-06-09,15800.0
SNG,2009-06-10,14700.0
SNG,2009-06-11,15700.0
SNG,2009-06-12,15500.0
SNG,2009-06-15,15200.0
SNG,2009-06-16,14300.0
SNG,2009-06-17,15000.0
SNG,2009-06-18,14300.0
SNG,2009-06-19,14700.0
SNG,2009-06-22,13800.0
SNG,2009-06-23,13000.0
SNG,2009-06-24,13800.0
SNG,2009-06-25,13200.0
SNG,2009-06-26,13400.0
SNG,2009-06-29,12700.0
SNG,2009-06-30,12500.0
SNG,2009-07-01,12400.0
SNG,2009-07-02,12800.0
SNG,2009-07-03,13200.0
SNG,2009-07-06,13700.0
SNG,2009-07-07,13600.0
SNG,2009-07-08,12600.0
SNG,2009-07-09,13500.0
SNG,2009-07-10,13700.0
SNG,2009-07-13,13600.0
SNG,2009-07-14,13700.0
SNG,2009-07-15,13700.0
SNG,2009-07-16,14100.0
SNG,2009-07-17,13600.0
SNG,2009-07-20,12800.0
SNG,2009-07-21,12900.0
SNG,2009-07-22,13400.0
SNG,2009-07-23,14000.0
SNG,2009-07-24,14400.0
SNG,2009-07-27,15300.0
SNG,2009-07-28,15000.0
SNG,2009-07-29,14500.0
SNG,2009-07-30,14600.0
SNG,2009-07-31,14700.0
SNG,2009-08-03,14000.0
SNG,2009-08-04,15000.0
SNG,2009-08-05,15000.0
SNG,2009-08-06,15000.0
SNG,2009-08-07,15000.0
SNG,2009-08-10,15100.0
SNG,2009-08-11,16500.0
SNG,2009-08-12,16700.0
SNG,2009-08-13,15500.0
SNG,2009-08-14,15400.0
SNG,2009-08-17,14800.0
SNG,2009-08-18,15400.0
SNG,2009-08-19,15800.0
SNG,2009-08-20,16000.0
SNG,2009-08-21,16700.0
SNG,2009-08-24,17900.0
SNG,2009-08-25,18300.0
SNG,2009-08-26,19100.0
SNG,2009-08-27,20200.0
SNG,2009-08-28,21500.0
SNG,2009-08-31,22000.0
SNG,2009-09-01,21400.0
SNG,2009-09-03,19800.0
SNG,2009-09-04,19200.0
SNG,2009-09-07,19800.0
SNG,2009-09-08,21000.0
SNG,2009-09-09,21400.0
SNG,2009-09-10,22000.0
SNG,2009-09-11,22500.0
SNG,2009-09-14,22800.0
SNG,2009-09-15,22100.0
SNG,2009-09-16,21400.0
SNG,2009-09-17,21600.0
SNG,2009-09-18,22600.0
SNG,2009-09-21,23400.0
SNG,2009-09-22,23600.0
SNG,2009-09-23,23900.0
SNG,2009-09-24,22900.0
SNG,2009-09-25,22400.0
SNG,2009-09-28,23300.0
SNG,2009-09-29,23300.0
SNG,2009-09-30,22700.0
SNG,2009-10-01,22400.0
SNG,2009-10-02,20900.0
SNG,2009-10-05,22300.0
SNG,2009-10-06,23800.0
SNG,2009-10-07,25500.0
SNG,2009-10-08,27200.0
SNG,2009-10-09,29100.0
SNG,2009-10-12,30000.0
SNG,2009-10-13,28900.0
SNG,2009-10-14,28600.0
SNG,2009-10-15,28000.0
SNG,2009-10-16,26800.0
SNG,2009-10-19,29200.0
SNG,2009-10-20,31000.0
SNG,2009-10-21,33200.0
SNG,2009-10-22,34800.0
SNG,2009-10-23,32300.0
SNG,2009-10-26,30800.0
SNG,2009-10-27,31500.0
SNG,2009-10-28,32600.0
SNG,2009-10-29,31000.0
SNG,2009-10-30,32600.0
SNG,2009-11-02,29900.0
SNG,2009-11-03,28000.0
SNG,2009-11-04,30000.0
SNG,2009-11-05,31100.0
SNG,2009-11-06,30800.0
SNG,2009-11-09,29000.0
SNG,2009-11-10,27800.0
SNG,2009-11-11,30000.0
SNG,2009-11-12,31000.0
SNG,2009-11-13,31100.0
SNG,2009-11-16,30200.0
SNG,2009-11-17,30400.0
SNG,2009-11-18,31100.0
SNG,2009-11-19,31500.0
SNG,2009-11-20,31700.0
SNG,2009-11-23,30800.0
SNG,2009-11-24,29700.0
SNG,2009-11-25,30400.0
SNG,2009-11-26,27500.0
SNG,2009-11-27,26400.0
SNG,2009-11-30,28200.0
SNG,2009-12-01,29300.0
SNG,2009-12-02,27800.0
SNG,2009-12-03,27800.0
SNG,2009-12-04,26700.0
SNG,2009-12-07,28200.0
SNG,2009-12-08,26700.0
SNG,2009-12-09,24900.0
SNG,2009-12-10,23200.0
SNG,2009-12-11,21800.0
SNG,2009-12-14,24100.0
SNG,2009-12-15,22700.0
SNG,2009-12-16,22100.0
SNG,2009-12-17,21500.0
SNG,2009-12-18,23100.0
SNG,2009-12-21,24500.0
SNG,2009-12-22,24800.0
SNG,2009-12-23,23800.0
SNG,2009-12-24,25200.0
SNG,2009-12-25,26400.0
SNG,2009-12-28,25700.0
SNG,2009-12-29,24500.0
SNG,2009-12-30,25600.0
SNG,2009-12-31,26600.0
SNG,2010-01-04,28400.0
SNG,2010-01-05,29300.0
SNG,2010-01-06,27600.0
SNG,2010-01-07,25800.0
SNG,2010-01-08,25200.0
SNG,2010-01-11,25300.0
SNG,2010-01-12,24500.0
SNG,2010-01-13,25600.0
SNG,2010-01-14,25800.0
SNG,2010-01-15,26400.0
SNG,2010-01-18,24700.0
SNG,2010-01-19,24800.0
SNG,2010-01-20,24500.0
SNG,2010-01-21,24500.0
SNG,2010-01-22,25700.0
SNG,2010-01-25,26200.0
SNG,2010-01-26,27900.0
SNG,2010-01-27,25600.0
SNG,2010-01-28,24000.0
SNG,2010-01-29,26000.0
SNG,2010-02-01,27000.0
SNG,2010-02-02,25300.0
SNG,2010-02-03,26600.0
SNG,2010-02-04,26600.0
SNG,2010-02-05,25000.0
SNG,2010-02-08,25100.0
SNG,2010-02-09,25000.0
SNG,2010-02-10,25500.0
SNG,2010-02-11,25600.0
SNG,2010-02-12,25300.0
SNG,2010-02-22,25900.0
SNG,2010-02-23,25600.0
SNG,2010-02-24,26000.0
SNG,2010-02-25,27100.0
SNG,2010-02-26,26400.0
SNG,2010-03-01,26300.0
SNG,2010-03-02,25900.0
SNG,2010-03-03,26900.0
SNG,2010-03-04,25600.0
SNG,2010-03-05,26600.0
SNG,2010-03-08,26900.0
SNG,2010-03-09,27400.0
SNG,2010-03-10,27800.0
SNG,2010-03-11,27800.0
SNG,2010-03-12,27500.0
SNG,2010-03-15,28000.0
SNG,2010-03-16,28600.0
SNG,2010-03-17,28200.0
SNG,2010-03-18,28900.0
SNG,2010-03-19,28500.0
SNG,2010-03-22,27500.0
SNG,2010-03-23,28600.0
SNG,2010-03-24,28200.0
SNG,2010-03-25,27800.0
SNG,2010-03-26,27700.0
SNG,2010-03-29,27100.0
SNG,2010-03-30,26400.0
SNG,2010-03-31,26700.0
SNG,2010-04-01,25300.0
SNG,2010-04-02,25600.0
SNG,2010-04-05,25600.0
SNG,2010-04-06,25600.0
SNG,2010-04-07,25600.0
SNG,2010-04-08,25800.0
SNG,2010-04-09,25800.0
SNG,2010-04-12,26000.0
SNG,2010-04-13,25600.0
SNG,2010-04-14,25800.0
SNG,2010-04-15,27500.0
SNG,2010-04-16,29300.0
SNG,2010-04-19,29300.0
SNG,2010-04-20,28800.0
SNG,2010-04-21,31200.0
SNG,2010-04-22,33400.0
SNG,2010-04-26,32000.0
SNG,2010-04-27,30700.0
SNG,2010-04-28,30100.0
SNG,2010-04-29,30900.0
SNG,2010-05-04,30900.0
SNG,2010-05-05,30100.0
SNG,2010-05-06,30100.0
SNG,2010-05-07,28600.0
SNG,2010-05-10,27800.0
SNG,2010-05-11,29100.0
SNG,2010-05-12,27500.0
SNG,2010-05-13,27500.0
SNG,2010-05-14,27400.0
SNG,2010-05-17,25900.0
SNG,2010-05-18,26100.0
SNG,2010-05-19,24900.0
SNG,2010-05-20,24800.0
SNG,2010-05-21,22800.0
SNG,2010-05-24,23400.0
SNG,2010-05-25,23200.0
SNG,2010-05-26,24400.0
SNG,2010-05-27,25000.0
SNG,2010-05-28,26500.0
SNG,2010-05-31,28300.0
SNG,2010-06-01,24600.0
SNG,2010-06-02,26100.0
SNG,2010-06-03,26100.0
SNG,2010-06-04,25000.0
SNG,2010-06-07,23400.0
SNG,2010-06-08,23800.0
SNG,2010-06-09,24400.0
SNG,2010-06-10,24200.0
SNG,2010-06-11,24400.0
SNG,2010-06-14,24800.0
SNG,2010-06-15,25100.0
SNG,2010-06-16,25500.0
SNG,2010-06-17,25100.0
SNG,2010-06-18,25100.0
SNG,2010-06-21,25100.0
SNG,2010-06-22,24400.0
SNG,2010-06-23,24400.0
SNG,2010-06-24,24400.0
SNG,2010-06-25,23800.0
SNG,2010-06-28,23800.0
SNG,2010-06-29,24100.0
SNG,2010-06-30,23800.0
SNG,2010-07-01,24100.0
SNG,2010-07-02,23600.0
SNG,2010-07-05,24100.0
SNG,2010-07-06,24100.0
SNG,2010-07-07,23300.0
SNG,2010-07-08,22500.0
SNG,2010-07-09,23200.0
SNG,2010-07-12,23400.0
SNG,2010-07-13,24200.0
SNG,2010-07-14,23800.0
SNG,2010-07-15,24100.0
SNG,2010-07-16,24300.0
SNG,2010-07-19,24400.0
SNG,2010-07-20,24300.0
SNG,2010-07-21,24100.0
SNG,2010-07-22,24100.0
SNG,2010-07-23,24200.0
SNG,2010-07-26,24300.0
SNG,2010-07-27,24100.0
SNG,2010-07-28,22800.0
SNG,2010-07-29,23200.0
SNG,2010-07-30,23400.0
SNG,2010-08-02,23500.0
SNG,2010-08-03,24000.0
SNG,2010-08-04,22800.0
SNG,2010-08-05,23100.0
SNG,2010-08-06,23100.0
SNG,2010-08-09,22100.0
SNG,2010-08-10,22000.0
SNG,2010-08-11,21800.0
SNG,2010-08-12,20800.0
SNG,2010-08-13,20400.0
SNG,2010-08-16,21800.0
SNG,2010-08-17,22100.0
SNG,2010-08-18,20900.0
SNG,2010-08-19,20800.0
SNG,2010-08-20,20400.0
SNG,2010-08-23,19400.0
SNG,2010-08-24,18400.0
SNG,2010-08-25,17300.0
SNG,2010-08-26,16500.0
SNG,2010-08-27,16300.0
SNG,2010-08-30,18400.0
SNG,2010-08-31,19400.0
SNG,2010-09-01,18900.0
SNG,2010-09-06,19800.0
SNG,2010-09-07,19600.0
SNG,2010-09-08,19400.0
SNG,2010-09-09,19800.0
SNG,2010-09-10,21100.0
SNG,2010-09-13,20400.0
SNG,2010-09-14,21400.0
SNG,2010-09-15,20500.0
SNG,2010-09-16,21000.0
SNG,2010-09-17,21200.0
SNG,2010-09-20,21200.0
SNG,2010-09-21,22700.0
SNG,2010-09-22,22100.0
SNG,2010-09-23,21600.0
SNG,2010-09-24,22200.0
SNG,2010-09-27,21200.0
SNG,2010-09-28,20900.0
SNG,2010-09-29,20800.0
SNG,2010-09-30,21100.0
SNG,2010-10-01,21200.0
SNG,2010-10-04,19800.0
SNG,2010-10-05,18800.0
SNG,2010-10-06,20600.0
SNG,2010-10-07,21400.0
SNG,2010-10-08,21600.0
SNG,2010-10-11,20200.0
SNG,2010-10-12,19600.0
SNG,2010-10-13,21100.0
SNG,2010-10-14,20400.0
SNG,2010-10-15,20800.0
SNG,2010-10-18,20200.0
SNG,2010-10-19,20100.0
SNG,2010-10-20,20700.0
SNG,2010-10-21,20700.0
SNG,2010-10-22,19300.0
SNG,2010-10-25,17900.0
SNG,2010-10-26,17900.0
SNG,2010-10-27,16900.0
SNG,2010-10-28,16900.0
SNG,2010-10-29,17500.0
SNG,2010-11-01,17500.0
SNG,2010-11-02,17000.0
SNG,2010-11-03,16900.0
SNG,2010-11-04,17100.0
SNG,2010-11-05,17500.0
SNG,2010-11-08,16900.0
SNG,2010-11-09,16000.0
SNG,2010-11-10,16200.0
SNG,2010-11-11,16500.0
SNG,2010-11-12,15900.0
SNG,2010-11-15,15300.0
SNG,2010-11-16,14900.0
SNG,2010-11-17,15100.0
SNG,2010-11-18,15900.0
SNG,2010-11-19,15500.0
SNG,2010-11-22,15100.0
SNG,2010-11-23,15300.0
SNG,2010-11-24,15300.0
SNG,2010-11-25,16500.0
SNG,2010-11-26,17400.0
SNG,2010-11-29,18600.0
SNG,2010-11-30,18900.0
SNG,2010-12-01,18100.0
SNG,2010-12-02,18800.0
SNG,2010-12-03,19700.0
SNG,2010-12-06,19400.0
SNG,2010-12-07,18400.0
SNG,2010-12-08,17500.0
SNG,2010-12-09,18800.0
SNG,2010-12-10,19400.0
SNG,2010-12-13,20400.0
SNG,2010-12-14,19400.0
SNG,2010-12-15,18800.0
SNG,2010-12-16,18800.0
SNG,2010-12-17,19000.0
SNG,2010-12-20,18200.0
SNG,2010-12-21,18200.0
SNG,2010-12-22,17700.0
SNG,2010-12-23,17700.0
SNG,2010-12-24,17300.0
SNG,2010-12-27,17500.0
SNG,2010-12-28,17900.0
SNG,2010-12-29,17300.0
SNG,2010-12-30,17400.0
SNG,2010-12-31,17400.0
SNG,2011-01-04,17500.0
SNG,2011-01-05,17100.0
SNG,2011-01-06,16700.0
SNG,2011-01-07,16900.0
SNG,2011-01-10,16600.0
SNG,2011-01-11,16100.0
SNG,2011-01-12,16600.0
SNG,2011-01-13,17100.0
SNG,2011-01-14,17100.0
SNG,2011-01-17,17000.0
SNG,2011-01-18,15900.0
SNG,2011-01-19,16400.0
SNG,2011-01-20,16300.0
SNG,2011-01-21,15900.0
SNG,2011-01-24,15700.0
SNG,2011-01-25,15400.0
SNG,2011-01-26,15800.0
SNG,2011-01-27,17000.0
SNG,2011-01-28,17400.0
SNG,2011-02-08,16800.0
SNG,2011-02-09,16900.0
SNG,2011-02-10,17100.0
SNG,2011-02-11,16700.0
SNG,2011-02-14,16900.0
SNG,2011-02-15,16700.0
SNG,2011-02-16,15900.0
SNG,2011-02-17,16700.0
SNG,2011-02-18,16700.0
SNG,2011-02-21,15300.0
SNG,2011-02-22,15100.0
SNG,2011-02-23,14900.0
SNG,2011-02-24,15100.0
SNG,2011-02-25,15100.0
SNG,2011-02-28,15100.0
SNG,2011-03-01,14800.0
SNG,2011-03-02,13600.0
SNG,2011-03-03,13400.0
SNG,2011-03-04,14200.0
SNG,2011-03-07,13000.0
SNG,2011-03-08,13700.0
SNG,2011-03-09,13300.0
SNG,2011-03-10,14100.0
SNG,2011-03-11,15000.0
SNG,2011-03-14,13900.0
SNG,2011-03-15,14000.0
SNG,2011-03-16,13500.0
SNG,2011-03-17,14100.0
SNG,2011-03-18,14500.0
SNG,2011-03-21,14700.0
SNG,2011-03-22,13800.0
SNG,2011-03-23,14400.0
SNG,2011-03-24,13900.0
SNG,2011-03-25,13800.0
SNG,2011-03-28,14100.0
SNG,2011-03-29,13900.0
SNG,2011-03-30,13600.0
SNG,2011-03-31,13700.0
SNG,2011-04-01,13600.0
SNG,2011-04-04,13700.0
SNG,2011-04-05,13600.0
SNG,2011-04-06,13500.0
SNG,2011-04-07,13500.0
SNG,2011-04-08,13600.0
SNG,2011-04-13,13000.0
SNG,2011-04-14,13400.0
SNG,2011-04-15,13600.0
SNG,2011-04-18,13100.0
SNG,2011-04-19,13300.0
SNG,2011-04-20,12600.0
SNG,2011-04-21,13300.0
SNG,2011-04-22,12500.0
SNG,2011-04-25,13100.0
SNG,2011-04-26,12500.0
SNG,2011-04-27,12500.0
SNG,2011-04-28,12400.0
SNG,2011-04-29,13200.0
SNG,2011-05-04,12400.0
SNG,2011-05-05,13100.0
SNG,2011-05-06,13100.0
SNG,2011-05-09,13100.0
SNG,2011-05-10,12800.0
SNG,2011-05-11,12700.0
SNG,2011-05-12,12700.0
SNG,2011-05-13,12400.0
SNG,2011-05-16,11900.0
SNG,2011-05-17,11300.0
SNG,2011-05-18,11100.0
SNG,2011-05-19,11000.0
SNG,2011-05-20,10700.0
SNG,2011-05-23,10100.0
SNG,2011-05-24,9600.0
SNG,2011-05-25,9000.0
SNG,2011-05-26,9200.0
SNG,2011-05-27,9500.0
SNG,2011-05-30,9300.0
SNG,2011-05-31,9200.0
SNG,2011-06-01,9800.0
SNG,2011-06-02,10200.0
SNG,2011-06-03,9800.0
SNG,2011-06-06,10100.0
SNG,2011-06-07,10400.0
SNG,2011-06-08,10100.0
SNG,2011-06-09,10400.0
SNG,2011-06-10,10800.0
SNG,2011-06-13,11200.0
SNG,2011-06-14,11000.0
SNG,2011-06-15,10500.0
SNG,2011-06-16,10600.0
SNG,2011-06-17,9900.0
SNG,2011-06-20,10600.0
SNG,2011-06-21,10400.0
SNG,2011-06-22,10200.0
SNG,2011-06-23,10400.0
SNG,2011-06-24,10800.0
SNG,2011-06-27,10800.0
SNG,2011-06-28,10200.0
SNG,2011-06-29,10000.0
SNG,2011-06-30,10000.0
SNG,2011-07-01,9900.0
SNG,2011-07-04,9700.0
SNG,2011-07-05,9900.0
SNG,2011-07-06,9500.0
SNG,2011-07-07,9500.0
SNG,2011-07-08,9500.0
SNG,2011-07-11,9400.0
SNG,2011-07-12,9300.0
SNG,2011-07-13,9900.0
SNG,2011-07-14,9400.0
SNG,2011-07-15,9700.0
SNG,2011-07-18,10100.0
SNG,2011-07-19,9800.0
SNG,2011-07-20,9900.0
SNG,2011-07-21,10000.0
SNG,2011-07-22,10000.0
SNG,2011-07-25,9800.0
SNG,2011-07-26,9800.0
SNG,2011-07-27,9700.0
SNG,2011-07-28,9800.0
SNG,2011-07-29,9600.0
SNG,2011-08-01,9300.0
SNG,2011-08-02,9000.0
SNG,2011-08-03,8800.0
SNG,2011-08-04,9400.0
SNG,2011-08-05,9600.0
SNG,2011-08-08,9600.0
SNG,2011-08-09,9000.0
SNG,2011-08-10,9100.0
SNG,2011-08-11,9000.0
SNG,2011-08-12,9400.0
SNG,2011-08-15,9400.0
SNG,2011-08-16,9000.0
SNG,2011-08-17,9500.0
SNG,2011-08-18,9900.0
SNG,2011-08-19,9200.0
SNG,2011-08-22,9800.0
SNG,2011-08-23,9600.0
SNG,2011-08-24,10100.0
SNG,2011-08-25,10100.0
SNG,2011-08-26,10100.0
SNG,2011-08-29,10200.0
SNG,2011-08-30,10100.0
SNG,2011-08-31,10200.0
SNG,2011-09-01,10300.0
SNG,2011-09-05,10300.0
SNG,2011-09-06,10400.0
SNG,2011-09-07,10500.0
SNG,2011-09-08,10500.0
SNG,2011-09-09,10800.0
SNG,2011-09-12,11400.0
SNG,2011-09-13,11900.0
SNG,2011-09-14,12200.0
SNG,2011-09-15,11500.0
SNG,2011-09-16,10800.0
SNG,2011-09-19,10800.0
SNG,2011-09-20,11200.0
SNG,2011-09-21,11200.0
SNG,2011-09-22,10700.0
SNG,2011-09-23,10700.0
SNG,2011-09-26,10400.0
SNG,2011-09-27,10300.0
SNG,2011-09-28,10300.0
SNG,2011-09-29,10800.0
SNG,2011-09-30,10300.0
SNG,2011-10-03,10100.0
SNG,2011-10-04,10800.0
SNG,2011-10-05,10500.0
SNG,2011-10-06,10800.0
SNG,2011-10-07,10800.0
SNG,2011-10-10,10400.0
SNG,2011-10-11,10300.0
SNG,2011-10-12,10300.0
SNG,2011-10-13,9600.0
SNG,2011-10-14,10200.0
SNG,2011-10-17,10200.0
SNG,2011-10-18,10700.0
SNG,2011-10-19,10800.0
SNG,2011-10-20,10700.0
SNG,2011-10-21,11000.0
SNG,2011-10-24,10500.0
SNG,2011-10-25,10300.0
SNG,2011-10-26,10500.0
SNG,2011-10-27,10500.0
SNG,2011-10-28,11000.0
SNG,2011-10-31,11600.0
SNG,2011-11-01,10800.0
SNG,2011-11-02,10200.0
SNG,2011-11-03,10700.0
SNG,2011-11-04,10200.0
SNG,2011-11-07,10700.0
SNG,2011-11-08,11300.0
SNG,2011-11-09,10500.0
SNG,2011-11-10,10200.0
SNG,2011-11-11,10200.0
SNG,2011-11-14,10200.0
SNG,2011-11-15,9900.0
SNG,2011-11-16,10700.0
SNG,2011-11-17,10000.0
SNG,2011-11-18,9600.0
SNG,2011-11-21,9600.0
SNG,2011-11-22,9600.0
SNG,2011-11-23,9600.0
SNG,2011-11-24,9600.0
SNG,2011-11-25,9800.0
SNG,2011-11-28,10000.0
SNG,2011-11-29,9900.0
SNG,2011-11-30,9900.0
SNG,2011-12-01,9900.0
SNG,2011-12-02,9900.0
SNG,2011-12-05,10300.0
SNG,2011-12-06,10300.0
SNG,2011-12-07,10000.0
SNG,2011-12-08,9700.0
SNG,2011-12-09,9600.0
SNG,2011-12-12,9500.0
SNG,2011-12-13,9000.0
SNG,2011-12-14,8700.0
SNG,2011-12-15,8400.0
SNG,2011-12-16,8700.0
SNG,2011-12-19,8100.0
SNG,2011-12-20,8200.0
SNG,2011-12-21,8200.0
SNG,2011-12-22,8100.0
SNG,2011-12-23,8300.0
SNG,2011-12-26,7600.0
SNG,2011-12-27,7700.0
SNG,2011-12-28,8100.0
SNG,2011-12-29,8500.0
SNG,2011-12-30,9000.0
SNG,2012-01-03,9600.0
SNG,2012-01-04,9000.0
SNG,2012-01-05,8500.0
SNG,2012-01-06,8500.0
SNG,2012-01-09,8400.0
SNG,2012-01-10,8600.0
SNG,2012-01-11,8600.0
SNG,2012-01-12,8200.0
SNG,2012-01-13,8500.0
SNG,2012-01-16,8800.0
SNG,2012-01-17,9400.0
SNG,2012-01-18,10000.0
SNG,2012-01-19,10700.0
SNG,2012-01-20,10800.0
SNG,2012-01-30,11400.0
SNG,2012-01-31,11600.0
SNG,2012-02-01,11800.0
SNG,2012-02-02,11700.0
SNG,2012-02-03,11100.0
SNG,2012-02-06,11400.0
SNG,2012-02-07,10900.0
SNG,2012-02-08,11400.0
SNG,2012-02-09,11200.0
SNG,2012-02-10,11500.0
SNG,2012-02-13,11400.0
SNG,2012-02-14,11500.0
SNG,2012-02-15,11200.0
SNG,2012-02-16,11300.0
SNG,2012-02-17,11200.0
SNG,2012-02-20,11900.0
SNG,2012-02-21,11500.0
SNG,2012-02-22,12100.0
SNG,2012-02-23,12100.0
SNG,2012-02-24,12900.0
SNG,2012-02-27,13400.0
SNG,2012-02-28,12400.0
SNG,2012-02-29,12600.0
SNG,2012-03-01,12600.0
SNG,2012-03-02,12900.0
SNG,2012-03-05,13700.0
SNG,2012-03-06,13000.0
SNG,2012-03-07,12900.0
SNG,2012-03-08,12200.0
SNG,2012-03-09,12100.0
SNG,2012-03-12,12100.0
SNG,2012-03-13,12300.0
SNG,2012-03-14,12200.0
SNG,2012-03-15,12600.0
SNG,2012-03-16,12900.0
SNG,2012-03-19,12900.0
SNG,2012-03-20,12900.0
SNG,2012-03-21,13100.0
SNG,2012-03-22,13300.0
SNG,2012-03-23,13500.0
SNG,2012-03-26,13500.0
SNG,2012-03-27,12900.0
SNG,2012-03-28,13000.0
SNG,2012-03-29,12900.0
SNG,2012-03-30,12700.0
SNG,2012-04-03,12900.0
SNG,2012-04-04,12500.0
SNG,2012-04-05,12600.0
SNG,2012-04-06,12800.0
SNG,2012-04-09,12900.0
SNG,2012-04-10,12800.0
SNG,2012-04-11,13400.0
SNG,2012-04-12,13500.0
SNG,2012-04-13,13300.0
SNG,2012-04-16,13400.0
SNG,2012-04-17,13300.0
SNG,2012-04-18,13300.0
SNG,2012-04-19,13300.0
SNG,2012-04-20,13300.0
SNG,2012-04-23,13300.0
SNG,2012-04-24,13600.0
SNG,2012-04-25,13900.0
SNG,2012-04-26,13900.0
SNG,2012-04-27,14100.0
SNG,2012-05-02,14600.0
SNG,2012-05-03,14400.0
SNG,2012-05-04,14600.0
SNG,2012-05-07,15600.0
SNG,2012-05-08,15500.0
SNG,2012-05-09,15600.0
SNG,2012-05-10,15700.0
SNG,2012-05-11,14600.0
SNG,2012-05-14,14600.0
SNG,2012-05-15,13900.0
SNG,2012-05-16,13600.0
SNG,2012-05-17,13900.0
SNG,2012-05-18,13000.0
SNG,2012-05-21,13900.0
SNG,2012-05-22,14000.0
SNG,2012-05-23,13600.0
SNG,2012-05-24,13900.0
SNG,2012-05-25,14600.0
SNG,2012-05-28,14600.0
SNG,2012-05-29,14500.0
SNG,2012-05-30,13800.0
SNG,2012-05-31,13800.0
SNG,2012-06-01,13800.0
SNG,2012-06-04,13000.0
SNG,2012-06-05,13300.0
SNG,2012-06-06,13400.0
SNG,2012-06-07,13800.0
SNG,2012-06-08,13900.0
SNG,2012-06-11,14000.0
SNG,2012-06-12,13800.0
SNG,2012-06-13,13700.0
SNG,2012-06-14,13700.0
SNG,2012-06-15,13800.0
SNG,2012-06-18,13800.0
SNG,2012-06-19,13300.0
SNG,2012-06-20,13700.0
SNG,2012-06-21,13800.0
SNG,2012-06-22,13800.0
SNG,2012-06-25,13700.0
SNG,2012-06-26,13100.0
SNG,2012-06-27,13400.0
SNG,2012-06-28,13300.0
SNG,2012-06-29,13600.0
SNG,2012-07-02,13300.0
SNG,2012-07-03,13300.0
SNG,2012-07-04,13600.0
SNG,2012-07-05,13400.0
SNG,2012-07-06,13400.0
SNG,2012-07-09,12600.0
SNG,2012-07-10,12600.0
SNG,2012-07-11,12700.0
SNG,2012-07-12,12900.0
SNG,2012-07-13,13600.0
SNG,2012-07-16,13600.0
SNG,2012-07-17,13600.0
SNG,2012-07-18,13600.0
SNG,2012-07-19,13700.0
SNG,2012-07-20,13700.0
SNG,2012-07-23,13700.0
SNG,2012-07-24,13300.0
SNG,2012-07-25,13600.0
SNG,2012-07-26,13600.0
SNG,2012-07-27,13600.0
SNG,2012-07-30,13100.0
SNG,2012-07-31,13400.0
SNG,2012-08-01,13400.0
SNG,2012-08-02,13400.0
SNG,2012-08-03,13300.0
SNG,2012-08-06,13400.0
SNG,2012-08-07,13300.0
SNG,2012-08-08,13300.0
SNG,2012-08-09,13400.0
SNG,2012-08-10,13400.0
SNG,2012-08-13,13400.0
SNG,2012-08-14,13200.0
SNG,2012-08-15,13500.0
SNG,2012-08-16,13600.0
SNG,2012-08-17,13700.0
SNG,2012-08-20,13700.0
SNG,2012-08-21,13100.0
SNG,2012-08-22,13100.0
SNG,2012-08-23,13000.0
SNG,2012-08-24,13200.0
SNG,2012-08-27,12400.0
SNG,2012-08-28,12800.0
SNG,2012-08-29,13200.0
SNG,2012-08-30,13200.0
SNG,2012-08-31,13300.0
SNG,2012-09-04,13300.0
SNG,2012-09-05,12900.0
SNG,2012-09-06,13100.0
SNG,2012-09-07,13100.0
SNG,2012-09-10,12700.0
SNG,2012-09-11,13200.0
SNG,2012-09-12,12500.0
SNG,2012-09-13,12500.0
SNG,2012-09-14,13100.0
SNG,2012-09-17,12500.0
SNG,2012-09-18,11700.0
SNG,2012-09-19,11200.0
SNG,2012-09-20,10500.0
SNG,2012-09-21,11100.0
SNG,2012-09-24,11900.0
SNG,2012-09-25,11300.0
SNG,2012-09-26,11500.0
SNG,2012-09-27,11200.0
SNG,2012-09-28,11200.0
SNG,2012-10-01,11000.0
SNG,2012-10-02,11600.0
SNG,2012-10-03,11200.0
SNG,2012-10-04,10900.0
SNG,2012-10-05,10900.0
SNG,2012-10-08,11000.0
SNG,2012-10-09,11100.0
SNG,2012-10-10,11000.0
SNG,2012-10-11,11100.0
SNG,2012-10-12,10500.0
SNG,2012-10-15,11000.0
SNG,2012-10-16,11000.0
SNG,2012-10-17,10900.0
SNG,2012-10-18,10900.0
SNG,2012-10-19,11100.0
SNG,2012-10-22,11300.0
SNG,2012-10-23,11100.0
SNG,2012-10-24,10900.0
SNG,2012-10-25,10900.0
SNG,2012-10-26,11100.0
SNG,2012-10-29,11000.0
SNG,2012-10-30,10900.0
SNG,2012-10-31,10900.0
SNG,2012-11-01,11200.0
SNG,2012-11-02,11100.0
SNG,2012-11-05,11200.0
SNG,2012-11-06,11200.0
SNG,2012-11-07,11700.0
SNG,2012-11-08,11900.0
SNG,2012-11-09,12600.0
SNG,2012-11-12,12700.0
SNG,2012-11-13,12500.0
SNG,2012-11-14,12300.0
SNG,2012-11-15,12400.0
SNG,2012-11-16,12400.0
SNG,2012-11-19,12400.0
SNG,2012-11-20,11700.0
SNG,2012-11-21,11800.0
SNG,2012-11-22,11800.0
SNG,2012-11-23,12100.0
SNG,2012-11-26,12100.0
SNG,2012-11-27,11800.0
SNG,2012-11-28,12200.0
SNG,2012-11-29,12000.0
SNG,2012-11-30,12100.0
SNG,2012-12-03,12000.0
SNG,2012-12-04,12200.0
SNG,2012-12-05,12200.0
SNG,2012-12-06,12100.0
SNG,2012-12-07,12100.0
SNG,2012-12-10,12300.0
SNG,2012-12-11,12300.0
SNG,2012-12-12,12500.0
SNG,2012-12-13,12500.0
SNG,2012-12-14,12600.0
SNG,2012-12-17,12700.0
SNG,2012-12-18,12700.0
SNG,2012-12-19,13200.0
SNG,2012-12-20,13300.0
SNG,2012-12-21,13700.0
SNG,2012-12-24,14100.0
SNG,2012-12-25,13900.0
SNG,2012-12-26,13900.0
SNG,2012-12-27,13900.0
SNG,2012-12-28,14100.0
SNG,2013-01-02,14500.0
SNG,2013-01-03,14500.0
SNG,2013-01-04,14600.0
SNG,2013-01-07,14500.0
SNG,2013-01-08,14500.0
SNG,2013-01-09,14600.0
SNG,2013-01-10,14700.0
SNG,2013-01-11,14700.0
SNG,2013-01-14,14800.0
SNG,2013-01-15,16000.0
SNG,2013-01-16,15800.0
SNG,2013-01-17,15900.0
SNG,2013-01-18,15800.0
SNG,2013-01-21,15500.0
SNG,2013-01-22,15300.0
SNG,2013-01-23,15100.0
SNG,2013-01-24,15300.0
SNG,2013-01-25,15400.0
SNG,2013-01-28,15400.0
SNG,2013-01-29,14900.0
SNG,2013-01-30,14600.0
SNG,2013-01-31,14400.0
SNG,2013-02-01,14400.0
SNG,2013-02-04,14300.0
SNG,2013-02-05,14800.0
SNG,2013-02-06,14800.0
SNG,2013-02-07,15100.0
SNG,2013-02-08,15100.0
SNG,2013-02-18,15500.0
SNG,2013-02-19,15300.0
SNG,2013-02-20,15100.0
SNG,2013-02-21,14800.0
SNG,2013-02-22,14900.0
SNG,2013-02-25,14600.0
SNG,2013-02-26,14800.0
SNG,2013-02-27,14700.0
SNG,2013-02-28,14600.0
SNG,2013-03-01,14900.0
SNG,2013-03-04,14500.0
SNG,2013-03-05,14600.0
SNG,2013-03-06,14300.0
SNG,2013-03-07,14300.0
SNG,2013-03-08,14600.0
SNG,2013-03-11,14800.0
SNG,2013-03-12,14800.0
SNG,2013-03-13,14800.0
SNG,2013-03-14,14700.0
SNG,2013-03-15,14300.0
SNG,2013-03-18,14700.0
SNG,2013-03-19,14800.0
SNG,2013-03-20,14800.0
SNG,2013-03-21,14800.0
SNG,2013-03-22,14500.0
SNG,2013-03-25,14800.0
SNG,2013-03-26,14800.0
SNG,2013-03-27,15000.0
SNG,2013-03-28,14500.0
SNG,2013-03-29,14400.0
SNG,2013-04-01,15300.0
SNG,2013-04-02,14600.0
SNG,2013-04-03,14900.0
SNG,2013-04-04,14900.0
SNG,2013-04-05,14900.0
SNG,2013-04-08,14700.0
SNG,2013-04-09,15000.0
SNG,2013-04-10,14400.0
SNG,2013-04-11,14500.0
SNG,2013-04-12,14000.0
SNG,2013-04-15,14100.0
SNG,2013-04-16,13700.0
SNG,2013-04-17,13400.0
SNG,2013-04-18,14000.0
SNG,2013-04-22,13700.0
SNG,2013-04-23,14000.0
SNG,2013-04-24,14000.0
SNG,2013-04-25,14200.0
SNG,2013-04-26,14200.0
SNG,2013-05-02,14000.0
SNG,2013-05-03,14000.0
SNG,2013-05-06,13900.0
SNG,2013-05-07,13800.0
SNG,2013-05-08,13800.0
SNG,2013-05-09,13700.0
SNG,2013-05-10,14000.0
SNG,2013-05-13,14200.0
SNG,2013-05-14,14200.0
SNG,2013-05-15,14200.0
SNG,2013-05-16,14200.0
SNG,2013-05-17,14200.0
SNG,2013-05-20,14200.0
SNG,2013-05-21,14000.0
SNG,2013-05-22,13900.0
SNG,2013-05-23,13900.0
SNG,2013-05-24,13900.0
SNG,2013-05-27,14400.0
SNG,2013-05-28,13900.0
SNG,2013-05-29,13900.0
SNG,2013-05-30,14300.0
SNG,2013-05-31,14400.0
SNG,2013-06-03,14000.0
SNG,2013-06-04,13900.0
SNG,2013-06-05,14000.0
SNG,2013-06-06,14000.0
SNG,2013-06-07,14400.0
SNG,2013-06-10,14400.0
SNG,2013-06-11,14400.0
SNG,2013-06-12,14100.0
SNG,2013-06-13,14300.0
SNG,2013-06-14,14700.0
SNG,2013-06-17,14200.0
SNG,2013-06-18,14400.0
SNG,2013-06-19,14100.0
SNG,2013-06-20,14200.0
SNG,2013-06-21,14200.0
SNG,2013-06-24,14100.0
SNG,2013-06-25,13100.0
SNG,2013-06-26,14000.0
SNG,2013-06-27,13800.0
SNG,2013-06-28,14300.0
SNG,2013-07-01,13800.0
SNG,2013-07-02,14000.0
SNG,2013-07-03,13700.0
SNG,2013-07-04,14600.0
SNG,2013-07-05,13700.0
SNG,2013-07-08,13800.0
SNG,2013-07-09,13800.0
SNG,2013-07-10,13800.0
SNG,2013-07-11,13700.0
SNG,2013-07-12,13700.0
SNG,2013-07-15,14300.0
SNG,2013-07-16,14300.0
SNG,2013-07-17,13300.0
SNG,2013-07-18,13300.0
SNG,2013-07-19,13300.0
SNG,2013-07-22,13300.0
SNG,2013-07-23,13300.0
SNG,2013-07-24,13300.0
SNG,2013-07-25,13200.0
SNG,2013-07-26,13200.0
SNG,2013-07-29,14400.0
SNG,2013-07-30,14400.0
SNG,2013-07-31,14400.0
SNG,2013-08-01,13000.0
SNG,2013-08-02,12900.0
SNG,2013-08-05,12900.0
SNG,2013-08-06,13600.0
SNG,2013-08-07,13600.0
SNG,2013-08-08,12600.0
SNG,2013-08-09,13500.0
SNG,2013-08-12,13300.0
SNG,2013-08-13,13300.0
SNG,2013-08-14,14300.0
SNG,2013-08-15,13300.0
SNG,2013-08-16,12600.0
SNG,2013-08-19,12900.0
SNG,2013-08-20,12900.0
SNG,2013-08-21,12900.0
SNG,2013-08-22,11700.0
SNG,2013-08-23,12800.0
SNG,2013-08-26,12800.0
SNG,2013-08-27,12800.0
SNG,2013-08-28,12800.0
SNG,2013-08-29,13100.0
SNG,2013-08-30,13200.0
SNG,2013-09-03,13200.0
SNG,2013-09-04,13200.0
SNG,2013-09-05,13200.0
SNG,2013-09-06,13200.0
SNG,2013-09-09,13200.0
SNG,2013-09-10,13200.0
SNG,2013-09-11,13200.0
SNG,2013-09-12,13300.0
SNG,2013-09-13,13300.0
SNG,2013-09-16,13300.0
SNG,2013-09-17,13300.0
SNG,2013-09-18,13300.0
SNG,2013-09-19,14000.0
SNG,2013-09-20,13500.0
SNG,2013-09-23,13600.0
SNG,2013-09-24,14300.0
SNG,2013-09-25,13700.0
SNG,2013-09-26,13700.0
SNG,2013-09-27,13700.0
SNG,2013-09-30,13800.0
SNG,2013-10-01,13800.0
SNG,2013-10-02,13800.0
SNG,2013-10-03,13600.0
SNG,2013-10-04,13600.0
SNG,2013-10-07,13600.0
SNG,2013-10-08,13600.0
SNG,2013-10-09,13600.0
SNG,2013-10-10,13800.0
SNG,2013-10-11,13800.0
SNG,2013-10-14,14700.0
SNG,2013-10-15,14000.0
SNG,2013-10-16,14100.0
SNG,2013-10-17,13800.0
SNG,2013-10-18,13500.0
SNG,2013-10-21,14000.0
SNG,2013-10-22,14000.0
SNG,2013-10-23,14000.0
SNG,2013-10-24,14100.0
SNG,2013-10-25,14200.0
SNG,2013-10-28,15200.0
SNG,2013-10-29,14000.0
SNG,2013-10-30,15400.0
SNG,2013-10-31,15400.0
SNG,2013-11-01,15300.0
SNG,2013-11-04,16000.0
SNG,2013-11-05,16200.0
SNG,2013-11-06,17100.0
SNG,2013-11-07,17900.0
SNG,2013-11-08,17600.0
SNG,2013-11-11,17000.0
SNG,2013-11-12,15700.0
SNG,2013-11-13,17200.0
SNG,2013-11-14,17800.0
SNG,2013-11-15,16500.0
SNG,2013-11-18,17500.0
SNG,2013-11-19,17500.0
SNG,2013-11-20,16600.0
SNG,2013-11-21,16700.0
SNG,2013-11-22,17200.0
SNG,2013-11-25,16900.0
SNG,2013-11-26,16700.0
SNG,2013-11-27,16900.0
SNG,2013-11-28,17000.0
SNG,2013-11-29,17500.0
SNG,2013-12-02,17500.0
SNG,2013-12-03,17500.0
SNG,2013-12-04,17500.0
SNG,2013-12-05,17000.0
SNG,2013-12-06,17500.0
SNG,2013-12-09,17500.0
SNG,2013-12-10,16500.0
SNG,2013-12-11,17000.0
SNG,2013-12-12,17000.0
SNG,2013-12-13,17000.0
SNG,2013-12-16,17000.0
SNG,2013-12-17,18000.0
SNG,2013-12-18,17800.0
SNG,2013-12-19,17800.0
SNG,2013-12-20,17500.0
SNG,2013-12-23,17200.0
SNG,2013-12-24,17200.0
SNG,2013-12-25,17000.0
SNG,2013-12-26,17100.0
SNG,2013-12-27,17100.0
SNG,2013-12-30,17100.0
SNG,2013-12-31,17100.0
SNG,2014-01-02,18100.0
SNG,2014-01-03,18100.0
SNG,2014-01-06,17500.0
SNG,2014-01-07,17500.0
SNG,2014-01-08,18100.0
SNG,2014-01-09,18100.0
SNG,2014-01-10,18400.0
SNG,2014-01-13,18200.0
SNG,2014-01-14,18200.0
SNG,2014-01-15,18200.0
SNG,2014-01-16,18200.0
SNG,2014-01-17,18200.0
SNG,2014-01-20,18400.0
SNG,2014-01-21,18300.0
SNG,2014-01-22,18300.0
SNG,2014-01-23,17500.0
SNG,2014-01-24,18000.0
SNG,2014-01-27,18900.0
SNG,2014-02-06,18900.0
SNG,2014-02-07,19000.0
SNG,2014-02-10,19000.0
SNG,2014-02-11,19000.0
SNG,2014-02-12,19900.0
SNG,2014-02-13,20800.0
SNG,2014-02-14,21500.0
SNG,2014-02-17,23500.0
SNG,2014-02-18,23500.0
SNG,2014-02-19,23600.0
SNG,2014-02-20,23500.0
SNG,2014-02-21,23300.0
SNG,2014-02-24,23500.0
SNG,2014-02-25,23500.0
SNG,2014-02-26,23400.0
SNG,2014-02-27,23400.0
SNG,2014-02-28,23500.0
SNG,2014-03-03,23000.0
SNG,2014-03-04,24000.0
SNG,2014-03-05,23800.0
SNG,2014-03-06,24500.0
SNG,2014-03-07,24500.0
SNG,2014-03-10,24300.0
SNG,2014-03-11,24300.0
SNG,2014-03-12,24800.0
SNG,2014-03-13,23900.0
SNG,2014-03-14,22900.0
SNG,2014-03-17,22800.0
SNG,2014-03-18,22700.0
SNG,2014-03-19,22500.0
SNG,2014-03-20,22300.0
SNG,2014-03-21,22300.0
SNG,2014-03-24,22400.0
SNG,2014-03-25,22300.0
SNG,2014-03-26,22300.0
SNG,2014-03-27,22100.0
SNG,2014-03-28,21900.0
SNG,2014-03-31,21000.0
SNG,2014-04-01,20900.0
SNG,2014-04-02,21900.0
SNG,2014-04-03,21700.0
SNG,2014-04-04,20900.0
SNG,2014-04-07,21300.0
SNG,2014-04-08,21300.0
SNG,2014-04-10,22000.0
SNG,2014-04-11,22000.0
SNG,2014-04-14,22300.0
SNG,2014-04-15,21100.0
SNG,2014-04-16,22000.0
SNG,2014-04-17,22000.0
SNG,2014-04-18,21300.0
SNG,2014-04-21,22800.0
SNG,2014-04-22,21800.0
SNG,2014-04-23,21800.0
SNG,2014-04-24,22300.0
SNG,2014-04-25,21500.0
SNG,2014-04-28,21400.0
SNG,2014-04-29,23000.0
SNG,2014-05-05,20700.0
SNG,2014-05-06,18900.0
SNG,2014-05-07,19400.0
SNG,2014-05-08,18000.0
SNG,2014-05-09,18200.0
SNG,2014-05-12,17900.0
SNG,2014-05-13,16800.0
SNG,2014-05-14,18200.0
SNG,2014-05-15,19700.0
SNG,2014-05-16,19700.0
SNG,2014-05-19,18600.0
SNG,2014-05-20,18600.0
SNG,2014-05-21,17600.0
