TAS,2010-02-22,16500.0
TAS,2010-02-23,15300.0
TAS,2010-02-24,15700.0
TAS,2010-02-25,15300.0
TAS,2010-02-26,15400.0
TAS,2010-03-01,15400.0
TAS,2010-03-02,15000.0
TAS,2010-03-03,15800.0
TAS,2010-03-04,16000.0
TAS,2010-03-05,16100.0
TAS,2010-03-08,16600.0
TAS,2010-03-09,16000.0
TAS,2010-03-10,15600.0
TAS,2010-03-11,16400.0
TAS,2010-03-12,17100.0
TAS,2010-03-15,17600.0
TAS,2010-03-16,16500.0
TAS,2010-03-17,15800.0
TAS,2010-03-18,16200.0
TAS,2010-03-19,15800.0
TAS,2010-03-22,15700.0
TAS,2010-03-23,15400.0
TAS,2010-03-24,15700.0
TAS,2010-03-25,15000.0
TAS,2010-03-26,15000.0
TAS,2010-03-29,15000.0
TAS,2010-03-30,14500.0
TAS,2010-03-31,14100.0
TAS,2010-04-01,14400.0
TAS,2010-04-02,14500.0
TAS,2010-04-05,14500.0
TAS,2010-04-06,14300.0
TAS,2010-04-07,14700.0
TAS,2010-04-08,14700.0
TAS,2010-04-09,14600.0
TAS,2010-04-12,14700.0
TAS,2010-04-13,14400.0
TAS,2010-04-14,14300.0
TAS,2010-04-15,14600.0
TAS,2010-04-16,14600.0
TAS,2010-04-19,14200.0
TAS,2010-04-20,14300.0
TAS,2010-04-21,14400.0
TAS,2010-04-22,14800.0
TAS,2010-04-26,14600.0
TAS,2010-04-27,14500.0
TAS,2010-04-28,14600.0
TAS,2010-04-29,14900.0
TAS,2010-05-04,15700.0
TAS,2010-05-05,16700.0
TAS,2010-05-06,17400.0
TAS,2010-05-07,17000.0
TAS,2010-05-10,16200.0
TAS,2010-05-11,15900.0
TAS,2010-05-12,14800.0
TAS,2010-05-13,15200.0
TAS,2010-05-14,15000.0
TAS,2010-05-17,14800.0
TAS,2010-05-18,14700.0
TAS,2010-05-19,13700.0
TAS,2010-05-20,14700.0
TAS,2010-05-21,13800.0
TAS,2010-05-24,14500.0
TAS,2010-05-25,14100.0
TAS,2010-05-26,14600.0
TAS,2010-05-27,14500.0
TAS,2010-05-28,15200.0
TAS,2010-05-31,15000.0
TAS,2010-06-01,14800.0
TAS,2010-06-02,14800.0
TAS,2010-06-03,14700.0
TAS,2010-06-04,15000.0
TAS,2010-06-07,14600.0
TAS,2010-06-08,15000.0
TAS,2010-06-09,14500.0
TAS,2010-06-10,14500.0
TAS,2010-06-11,14600.0
TAS,2010-06-14,14600.0
TAS,2010-06-15,14500.0
TAS,2010-06-16,14800.0
TAS,2010-06-17,14700.0
TAS,2010-06-18,14600.0
TAS,2010-06-21,14600.0
TAS,2010-06-22,14400.0
TAS,2010-06-23,14300.0
TAS,2010-06-24,14400.0
TAS,2010-06-25,14100.0
TAS,2010-06-28,14100.0
TAS,2010-06-29,14100.0
TAS,2010-06-30,13800.0
TAS,2010-07-01,13700.0
TAS,2010-07-02,14000.0
TAS,2010-07-05,13700.0
TAS,2010-07-06,13600.0
TAS,2010-07-07,13500.0
TAS,2010-07-08,13400.0
TAS,2010-07-09,13300.0
TAS,2010-07-12,13500.0
TAS,2010-07-13,14300.0
TAS,2010-07-14,14000.0
TAS,2010-07-15,14000.0
TAS,2010-07-16,14100.0
TAS,2010-07-19,13800.0
TAS,2010-07-20,13800.0
TAS,2010-07-21,14400.0
TAS,2010-07-22,13900.0
TAS,2010-07-23,13700.0
TAS,2010-07-26,13500.0
TAS,2010-07-27,13300.0
TAS,2010-07-28,13200.0
TAS,2010-07-29,13200.0
TAS,2010-07-30,13100.0
TAS,2010-08-02,12800.0
TAS,2010-08-03,13000.0
TAS,2010-08-04,12600.0
TAS,2010-08-05,12500.0
TAS,2010-08-06,12500.0
TAS,2010-08-09,12300.0
TAS,2010-08-10,11600.0
TAS,2010-08-11,12000.0
TAS,2010-08-12,11300.0
TAS,2010-08-13,11600.0
TAS,2010-08-16,12300.0
TAS,2010-08-17,11500.0
TAS,2010-08-18,11400.0
TAS,2010-08-19,11600.0
TAS,2010-08-20,11400.0
TAS,2010-08-23,11000.0
TAS,2010-08-24,10400.0
TAS,2010-08-25,9900.0
TAS,2010-08-26,10500.0
TAS,2010-08-27,10200.0
TAS,2010-08-30,10500.0
TAS,2010-08-31,10900.0
TAS,2010-09-01,10900.0
TAS,2010-09-06,11400.0
TAS,2010-09-07,11200.0
TAS,2010-09-08,10800.0
TAS,2010-09-09,11400.0
TAS,2010-09-10,10700.0
TAS,2010-09-13,10400.0
TAS,2010-09-14,10700.0
TAS,2010-09-15,10400.0
TAS,2010-09-16,10600.0
TAS,2010-09-17,10900.0
TAS,2010-09-20,10800.0
TAS,2010-09-21,10700.0
TAS,2010-09-22,10300.0
TAS,2010-09-23,10500.0
TAS,2010-09-24,10400.0
TAS,2010-09-27,10400.0
TAS,2010-09-28,10500.0
TAS,2010-09-29,10500.0
TAS,2010-09-30,10100.0
TAS,2010-10-01,10000.0
TAS,2010-10-04,9900.0
TAS,2010-10-05,10100.0
TAS,2010-10-06,10500.0
TAS,2010-10-07,10000.0
TAS,2010-10-08,9900.0
TAS,2010-10-11,9800.0
TAS,2010-10-12,9700.0
TAS,2010-10-13,9700.0
TAS,2010-10-14,9800.0
TAS,2010-10-15,9300.0
TAS,2010-10-18,9500.0
TAS,2010-10-19,9400.0
TAS,2010-10-20,9500.0
TAS,2010-10-21,9300.0
TAS,2010-10-22,9000.0
TAS,2010-10-25,8500.0
TAS,2010-10-26,9100.0
TAS,2010-10-27,8900.0
TAS,2010-10-28,8400.0
TAS,2010-10-29,8500.0
TAS,2010-11-01,8500.0
TAS,2010-11-02,8400.0
TAS,2010-11-03,8400.0
TAS,2010-11-04,8400.0
TAS,2010-11-05,8700.0
TAS,2010-11-08,8600.0
TAS,2010-11-09,8200.0
TAS,2010-11-10,8500.0
TAS,2010-11-11,8300.0
TAS,2010-11-12,8100.0
TAS,2010-11-15,7900.0
TAS,2010-11-16,7800.0
TAS,2010-11-17,7900.0
TAS,2010-11-18,8400.0
TAS,2010-11-19,8100.0
TAS,2010-11-22,8500.0
TAS,2010-11-23,8300.0
TAS,2010-11-24,8200.0
TAS,2010-11-25,8500.0
TAS,2010-11-26,8500.0
TAS,2010-11-29,8900.0
TAS,2010-11-30,9200.0
TAS,2010-12-01,9300.0
TAS,2010-12-02,9900.0
TAS,2010-12-03,10300.0
TAS,2010-12-06,10700.0
TAS,2010-12-07,10500.0
TAS,2010-12-08,10100.0
TAS,2010-12-09,9700.0
TAS,2010-12-10,10500.0
TAS,2010-12-13,10800.0
TAS,2010-12-14,10200.0
TAS,2010-12-15,10000.0
TAS,2010-12-16,9500.0
TAS,2010-12-17,9800.0
TAS,2010-12-20,9400.0
TAS,2010-12-21,9000.0
TAS,2010-12-22,8900.0
TAS,2010-12-23,8700.0
TAS,2010-12-24,9300.0
TAS,2010-12-27,9300.0
TAS,2010-12-28,9700.0
TAS,2010-12-29,9300.0
TAS,2010-12-30,8900.0
TAS,2010-12-31,9000.0
TAS,2011-01-04,9400.0
TAS,2011-01-05,9000.0
TAS,2011-01-06,9200.0
TAS,2011-01-07,8900.0
TAS,2011-01-10,8800.0
TAS,2011-01-11,9200.0
TAS,2011-01-12,9700.0
TAS,2011-01-13,10100.0
TAS,2011-01-14,9800.0
TAS,2011-01-17,9500.0
TAS,2011-01-18,9500.0
TAS,2011-01-19,10200.0
TAS,2011-01-20,9700.0
TAS,2011-01-21,9600.0
TAS,2011-01-24,9500.0
TAS,2011-01-25,9200.0
TAS,2011-01-26,10000.0
TAS,2011-01-27,10700.0
TAS,2011-01-28,10600.0
TAS,2011-02-08,10300.0
TAS,2011-02-09,10500.0
TAS,2011-02-10,10400.0
TAS,2011-02-11,10500.0
TAS,2011-02-14,10800.0
TAS,2011-02-15,10300.0
TAS,2011-02-16,10500.0
TAS,2011-02-17,10200.0
TAS,2011-02-18,10200.0
TAS,2011-02-21,9500.0
TAS,2011-02-22,9500.0
TAS,2011-02-23,9700.0
TAS,2011-02-24,10000.0
TAS,2011-02-25,10500.0
TAS,2011-02-28,10500.0
TAS,2011-03-01,10800.0
TAS,2011-03-02,10500.0
TAS,2011-03-03,10700.0
TAS,2011-03-04,10300.0
TAS,2011-03-07,10200.0
TAS,2011-03-08,10000.0
TAS,2011-03-09,9500.0
TAS,2011-03-10,10100.0
TAS,2011-03-11,10300.0
TAS,2011-03-14,9900.0
TAS,2011-03-15,9600.0
TAS,2011-03-16,9100.0
TAS,2011-03-17,8700.0
TAS,2011-03-18,9200.0
TAS,2011-03-21,9100.0
TAS,2011-03-22,9400.0
TAS,2011-03-23,9000.0
TAS,2011-03-24,9100.0
TAS,2011-03-25,8700.0
TAS,2011-03-28,9100.0
TAS,2011-03-29,8500.0
TAS,2011-03-30,8800.0
TAS,2011-03-31,8500.0
TAS,2011-04-01,8600.0
TAS,2011-04-04,8300.0
TAS,2011-04-05,8200.0
TAS,2011-04-06,8500.0
TAS,2011-04-07,8200.0
TAS,2011-04-08,8000.0
TAS,2011-04-13,8000.0
TAS,2011-04-14,7800.0
TAS,2011-04-15,7600.0
TAS,2011-04-18,7800.0
TAS,2011-04-19,7600.0
TAS,2011-04-20,7100.0
TAS,2011-04-21,6900.0
TAS,2011-04-22,6600.0
TAS,2011-04-25,7200.0
TAS,2011-04-26,7300.0
TAS,2011-04-27,7200.0
TAS,2011-04-28,7000.0
TAS,2011-04-29,6900.0
TAS,2011-05-04,7200.0
TAS,2011-05-05,7000.0
TAS,2011-05-06,7100.0
TAS,2011-05-09,7000.0
TAS,2011-05-10,6900.0
TAS,2011-05-11,6900.0
TAS,2011-05-12,6900.0
TAS,2011-05-13,6900.0
TAS,2011-05-16,6600.0
TAS,2011-05-17,6400.0
TAS,2011-05-18,6700.0
TAS,2011-05-19,6700.0
TAS,2011-05-20,6400.0
TAS,2011-05-23,6500.0
TAS,2011-05-24,6100.0
TAS,2011-05-25,5700.0
TAS,2011-05-26,5900.0
TAS,2011-05-27,6100.0
TAS,2011-05-30,6100.0
TAS,2011-05-31,5700.0
TAS,2011-06-01,6100.0
TAS,2011-06-02,5900.0
TAS,2011-06-03,5600.0
TAS,2011-06-06,5500.0
TAS,2011-06-07,5300.0
TAS,2011-06-08,5200.0
TAS,2011-06-09,5300.0
TAS,2011-06-10,5500.0
TAS,2011-06-13,5700.0
TAS,2011-06-14,5300.0
TAS,2011-06-15,5400.0
TAS,2011-06-16,5200.0
TAS,2011-06-17,5100.0
TAS,2011-06-20,5000.0
TAS,2011-06-21,5300.0
TAS,2011-06-22,5100.0
TAS,2011-06-23,5300.0
TAS,2011-06-24,5000.0
TAS,2011-06-27,4900.0
TAS,2011-06-28,4900.0
TAS,2011-06-29,4800.0
TAS,2011-06-30,4800.0
TAS,2011-07-01,4500.0
TAS,2011-07-04,4800.0
TAS,2011-07-05,5000.0
TAS,2011-07-06,5000.0
TAS,2011-07-07,4800.0
TAS,2011-07-08,5000.0
TAS,2011-07-11,4700.0
TAS,2011-07-12,4900.0
TAS,2011-07-13,5400.0
TAS,2011-07-14,5400.0
TAS,2011-07-15,5100.0
TAS,2011-07-18,5600.0
TAS,2011-07-19,5600.0
TAS,2011-07-20,5300.0
TAS,2011-07-21,5100.0
TAS,2011-07-22,5100.0
TAS,2011-07-25,4800.0
TAS,2011-07-26,4800.0
TAS,2011-07-27,4500.0
TAS,2011-07-28,4500.0
TAS,2011-07-29,4200.0
TAS,2011-08-01,4100.0
TAS,2011-08-02,3900.0
TAS,2011-08-03,4000.0
TAS,2011-08-04,4300.0
TAS,2011-08-05,4000.0
TAS,2011-08-08,4300.0
TAS,2011-08-09,4300.0
TAS,2011-08-10,4200.0
TAS,2011-08-11,4200.0
TAS,2011-08-12,4200.0
TAS,2011-08-15,4200.0
TAS,2011-08-16,4000.0
TAS,2011-08-17,4100.0
TAS,2011-08-18,4200.0
TAS,2011-08-19,4200.0
TAS,2011-08-22,4000.0
TAS,2011-08-23,3900.0
TAS,2011-08-24,3700.0
TAS,2011-08-25,3900.0
TAS,2011-08-26,3700.0
TAS,2011-08-29,3900.0
TAS,2011-08-30,4100.0
TAS,2011-08-31,4100.0
TAS,2011-09-01,4400.0
TAS,2011-09-05,4400.0
TAS,2011-09-06,4200.0
TAS,2011-09-07,4600.0
TAS,2011-09-08,4300.0
TAS,2011-09-09,4600.0
TAS,2011-09-12,4800.0
TAS,2011-09-13,5100.0
TAS,2011-09-14,4900.0
TAS,2011-09-15,4900.0
TAS,2011-09-16,4600.0
TAS,2011-09-19,4400.0
TAS,2011-09-20,4200.0
TAS,2011-09-21,4000.0
TAS,2011-09-22,4200.0
TAS,2011-09-23,4300.0
TAS,2011-09-26,4100.0
TAS,2011-09-27,4100.0
TAS,2011-09-28,4000.0
TAS,2011-09-29,3900.0
TAS,2011-09-30,3700.0
TAS,2011-10-03,3600.0
TAS,2011-10-04,3600.0
TAS,2011-10-05,3500.0
TAS,2011-10-06,3700.0
TAS,2011-10-07,3600.0
TAS,2011-10-10,3600.0
TAS,2011-10-11,3600.0
TAS,2011-10-12,3400.0
TAS,2011-10-13,3300.0
TAS,2011-10-14,3200.0
TAS,2011-10-17,3400.0
TAS,2011-10-18,3200.0
TAS,2011-10-19,3100.0
TAS,2011-10-20,3000.0
TAS,2011-10-21,3200.0
TAS,2011-10-24,3100.0
TAS,2011-10-25,3200.0
TAS,2011-10-26,3000.0
TAS,2011-10-27,2900.0
TAS,2011-10-28,3100.0
TAS,2011-10-31,3000.0
TAS,2011-11-01,2900.0
TAS,2011-11-02,2700.0
TAS,2011-11-03,2600.0
TAS,2011-11-04,2500.0
TAS,2011-11-07,2400.0
TAS,2011-11-08,2400.0
TAS,2011-11-09,2300.0
TAS,2011-11-10,2400.0
TAS,2011-11-11,2300.0
TAS,2011-11-14,2300.0
TAS,2011-11-15,2300.0
TAS,2011-11-16,2300.0
TAS,2011-11-17,2400.0
TAS,2011-11-18,2500.0
TAS,2011-11-21,2500.0
TAS,2011-11-22,2600.0
TAS,2011-11-23,2500.0
TAS,2011-11-24,2500.0
TAS,2011-11-25,2400.0
TAS,2011-11-28,2300.0
TAS,2011-11-29,2300.0
TAS,2011-11-30,2200.0
TAS,2011-12-01,2300.0
TAS,2011-12-02,2300.0
TAS,2011-12-05,2300.0
TAS,2011-12-06,2400.0
TAS,2011-12-07,2500.0
TAS,2011-12-08,2600.0
TAS,2011-12-09,2700.0
TAS,2011-12-12,2800.0
TAS,2011-12-13,2900.0
TAS,2011-12-14,3100.0
TAS,2011-12-15,2900.0
TAS,2011-12-16,2700.0
TAS,2011-12-19,2700.0
TAS,2011-12-20,2600.0
TAS,2011-12-21,2600.0
TAS,2011-12-22,2500.0
TAS,2011-12-23,2400.0
TAS,2011-12-26,2300.0
TAS,2011-12-27,2300.0
TAS,2011-12-28,2400.0
TAS,2011-12-29,2400.0
TAS,2011-12-30,2400.0
TAS,2012-01-03,2500.0
TAS,2012-01-04,2500.0
TAS,2012-01-05,2500.0
TAS,2012-01-06,2400.0
TAS,2012-01-09,2500.0
TAS,2012-01-10,2600.0
TAS,2012-01-11,2500.0
TAS,2012-01-12,2600.0
TAS,2012-01-13,2600.0
TAS,2012-01-16,2600.0
TAS,2012-01-17,2600.0
TAS,2012-01-18,2700.0
TAS,2012-01-19,2700.0
TAS,2012-01-20,2800.0
TAS,2012-01-30,2800.0
TAS,2012-01-31,2800.0
TAS,2012-02-01,2800.0
TAS,2012-02-02,3100.0
TAS,2012-02-03,2900.0
TAS,2012-02-06,3000.0
TAS,2012-02-07,3000.0
TAS,2012-02-08,3100.0
TAS,2012-02-09,2800.0
TAS,2012-02-10,2800.0
TAS,2012-02-13,2900.0
TAS,2012-02-14,3000.0
TAS,2012-02-15,2900.0
TAS,2012-02-16,2900.0
TAS,2012-02-17,3100.0
TAS,2012-02-20,3300.0
TAS,2012-02-21,3200.0
TAS,2012-02-22,3200.0
TAS,2012-02-23,3300.0
TAS,2012-02-24,3300.0
TAS,2012-02-27,3500.0
TAS,2012-02-28,3200.0
TAS,2012-02-29,3300.0
TAS,2012-03-01,3300.0
TAS,2012-03-02,3400.0
TAS,2012-03-05,3600.0
TAS,2012-03-06,3800.0
TAS,2012-03-07,3900.0
TAS,2012-03-08,3700.0
TAS,2012-03-09,4000.0
TAS,2012-03-12,4000.0
TAS,2012-03-13,4200.0
TAS,2012-03-14,4400.0
TAS,2012-03-15,4700.0
TAS,2012-03-16,5000.0
TAS,2012-03-19,5300.0
TAS,2012-03-20,5600.0
TAS,2012-03-21,5900.0
TAS,2012-03-22,6300.0
TAS,2012-03-23,6400.0
TAS,2012-03-26,6700.0
TAS,2012-03-27,6400.0
TAS,2012-03-28,6400.0
TAS,2012-03-29,6000.0
TAS,2012-03-30,5600.0
TAS,2012-04-03,5800.0
TAS,2012-04-04,5400.0
TAS,2012-04-05,5400.0
TAS,2012-04-06,4900.0
TAS,2012-04-09,5200.0
TAS,2012-04-10,5500.0
TAS,2012-04-11,5800.0
TAS,2012-04-12,5800.0
TAS,2012-04-13,5500.0
TAS,2012-04-16,5800.0
TAS,2012-04-17,6200.0
TAS,2012-04-18,6600.0
TAS,2012-04-19,6200.0
TAS,2012-04-20,6300.0
TAS,2012-04-23,6500.0
TAS,2012-04-24,6900.0
TAS,2012-04-25,7200.0
TAS,2012-04-26,6800.0
TAS,2012-04-27,7200.0
TAS,2012-05-02,7300.0
TAS,2012-05-03,6700.0
TAS,2012-05-04,6300.0
TAS,2012-05-07,6700.0
TAS,2012-05-08,6100.0
TAS,2012-05-09,5700.0
TAS,2012-05-10,5500.0
TAS,2012-05-11,5200.0
TAS,2012-05-14,4900.0
TAS,2012-05-15,4600.0
TAS,2012-05-16,4900.0
TAS,2012-05-17,5100.0
TAS,2012-05-18,5200.0
TAS,2012-05-21,5200.0
TAS,2012-05-22,5200.0
TAS,2012-05-23,5500.0
TAS,2012-05-24,5400.0
TAS,2012-05-25,5700.0
TAS,2012-05-28,5900.0
TAS,2012-05-29,6300.0
TAS,2012-05-30,6700.0
TAS,2012-05-31,6300.0
TAS,2012-06-01,6000.0
TAS,2012-06-04,5600.0
TAS,2012-06-05,5600.0
TAS,2012-06-06,5900.0
TAS,2012-06-07,6300.0
TAS,2012-06-08,5900.0
TAS,2012-06-11,5800.0
TAS,2012-06-12,5900.0
TAS,2012-06-13,6100.0
TAS,2012-06-14,6000.0
TAS,2012-06-15,5800.0
TAS,2012-06-18,6100.0
TAS,2012-06-19,6500.0
TAS,2012-06-20,6200.0
TAS,2012-06-21,5900.0
TAS,2012-06-22,5900.0
TAS,2012-06-25,5900.0
TAS,2012-06-26,5600.0
TAS,2012-06-27,5300.0
TAS,2012-06-28,5000.0
TAS,2012-06-29,5400.0
TAS,2012-07-02,5700.0
TAS,2012-07-03,5700.0
TAS,2012-07-04,5800.0
TAS,2012-07-05,5800.0
TAS,2012-07-06,5800.0
TAS,2012-07-09,5700.0
TAS,2012-07-10,5700.0
TAS,2012-07-11,5700.0
TAS,2012-07-12,5600.0
TAS,2012-07-13,5600.0
TAS,2012-07-16,5600.0
TAS,2012-07-17,5500.0
TAS,2012-07-18,5200.0
TAS,2012-07-19,5200.0
TAS,2012-07-20,5200.0
TAS,2012-07-23,4900.0
TAS,2012-07-24,5200.0
TAS,2012-07-25,5300.0
TAS,2012-07-26,5300.0
TAS,2012-07-27,5200.0
TAS,2012-07-30,4900.0
TAS,2012-07-31,4700.0
TAS,2012-08-01,4900.0
TAS,2012-08-02,5000.0
TAS,2012-08-03,5000.0
TAS,2012-08-06,5200.0
TAS,2012-08-07,5200.0
TAS,2012-08-08,5200.0
TAS,2012-08-09,5200.0
TAS,2012-08-10,5200.0
TAS,2012-08-13,5200.0
TAS,2012-08-14,5200.0
TAS,2012-08-15,5200.0
TAS,2012-08-16,5200.0
TAS,2012-08-17,4900.0
TAS,2012-08-20,4900.0
TAS,2012-08-21,4600.0
TAS,2012-08-22,4300.0
TAS,2012-08-23,4300.0
TAS,2012-08-24,4000.0
TAS,2012-08-27,4000.0
TAS,2012-08-28,4000.0
TAS,2012-08-29,3800.0
TAS,2012-08-30,3600.0
TAS,2012-08-31,3400.0
TAS,2012-09-04,3200.0
TAS,2012-09-05,3000.0
TAS,2012-09-06,2800.0
TAS,2012-09-07,2700.0
TAS,2012-09-10,2600.0
TAS,2012-09-11,2500.0
TAS,2012-09-12,2500.0
TAS,2012-09-13,2500.0
TAS,2012-09-14,2400.0
TAS,2012-09-17,2400.0
TAS,2012-09-18,2400.0
TAS,2012-09-19,2400.0
TAS,2012-09-20,2400.0
TAS,2012-09-21,2300.0
TAS,2012-09-24,2300.0
TAS,2012-09-25,2300.0
TAS,2012-09-26,2300.0
TAS,2012-09-27,2300.0
TAS,2012-09-28,2200.0
TAS,2012-10-01,2200.0
TAS,2012-10-02,2200.0
TAS,2012-10-03,2200.0
TAS,2012-10-04,2200.0
TAS,2012-10-05,2200.0
TAS,2012-10-08,2200.0
TAS,2012-10-09,2200.0
TAS,2012-10-10,2200.0
TAS,2012-10-11,2200.0
TAS,2012-10-12,2100.0
TAS,2012-10-15,2100.0
TAS,2012-10-16,2100.0
TAS,2012-10-17,2100.0
TAS,2012-10-18,2100.0
TAS,2012-10-19,2100.0
TAS,2012-10-22,2100.0
TAS,2012-10-23,2100.0
TAS,2012-10-24,2100.0
TAS,2012-10-25,2100.0
TAS,2012-10-26,2000.0
TAS,2012-10-29,2000.0
TAS,2012-10-30,2000.0
TAS,2012-10-31,2000.0
TAS,2012-11-01,2000.0
TAS,2012-11-02,1900.0
TAS,2012-11-05,1900.0
TAS,2012-11-06,1900.0
TAS,2012-11-07,1900.0
TAS,2012-11-08,1900.0
TAS,2012-11-09,1800.0
TAS,2012-11-12,1800.0
TAS,2012-11-13,1800.0
TAS,2012-11-14,1800.0
TAS,2012-11-15,1800.0
TAS,2012-11-16,1700.0
TAS,2012-11-19,1700.0
TAS,2012-11-20,1700.0
TAS,2012-11-21,1700.0
TAS,2012-11-22,1700.0
TAS,2012-11-23,1600.0
TAS,2012-11-26,1600.0
TAS,2012-11-27,1600.0
TAS,2012-11-28,1600.0
TAS,2012-11-29,1600.0
TAS,2012-11-30,1500.0
TAS,2012-12-03,1500.0
TAS,2012-12-04,1500.0
TAS,2012-12-05,1500.0
TAS,2012-12-06,1500.0
TAS,2012-12-07,1400.0
TAS,2012-12-10,1400.0
TAS,2012-12-11,1400.0
TAS,2012-12-12,1400.0
TAS,2012-12-13,1400.0
TAS,2012-12-14,1300.0
TAS,2012-12-17,1300.0
TAS,2012-12-18,1300.0
TAS,2012-12-19,1300.0
TAS,2012-12-20,1300.0
TAS,2012-12-21,1200.0
TAS,2012-12-24,1200.0
TAS,2012-12-25,1200.0
TAS,2012-12-26,1200.0
TAS,2012-12-27,1200.0
TAS,2012-12-28,1100.0
TAS,2013-01-02,1100.0
TAS,2013-01-03,1100.0
TAS,2013-01-04,1200.0
TAS,2013-01-07,1200.0
TAS,2013-01-08,1200.0
TAS,2013-01-09,1200.0
TAS,2013-01-10,1200.0
TAS,2013-01-11,1200.0
TAS,2013-01-14,1200.0
TAS,2013-01-15,1200.0
TAS,2013-01-16,1200.0
TAS,2013-01-17,1200.0
TAS,2013-01-18,1200.0
TAS,2013-01-21,1100.0
TAS,2013-01-22,1100.0
TAS,2013-01-23,1100.0
TAS,2013-01-24,1100.0
TAS,2013-01-25,1100.0
TAS,2013-01-28,1100.0
TAS,2013-01-29,1100.0
TAS,2013-01-30,1100.0
TAS,2013-01-31,1100.0
TAS,2013-02-01,1000.0
TAS,2013-02-04,1000.0
TAS,2013-02-05,1000.0
TAS,2013-02-06,1000.0
TAS,2013-02-07,1000.0
TAS,2013-02-08,1100.0
TAS,2013-02-18,1100.0
TAS,2013-02-19,1100.0
TAS,2013-02-20,1100.0
TAS,2013-02-21,1100.0
TAS,2013-02-22,1000.0
TAS,2013-02-25,1000.0
TAS,2013-02-26,1000.0
TAS,2013-02-27,1000.0
TAS,2013-02-28,1000.0
TAS,2013-03-01,900.0
TAS,2013-03-04,900.0
TAS,2013-03-05,900.0
TAS,2013-03-06,900.0
TAS,2013-03-07,900.0
TAS,2013-03-08,800.0
TAS,2013-03-11,800.0
TAS,2013-03-12,800.0
TAS,2013-03-13,800.0
TAS,2013-03-14,800.0
TAS,2013-03-15,900.0
TAS,2013-03-18,900.0
TAS,2013-03-19,900.0
TAS,2013-03-20,900.0
TAS,2013-03-21,900.0
TAS,2013-03-22,900.0
TAS,2013-03-25,900.0
TAS,2013-03-26,900.0
TAS,2013-03-27,900.0
TAS,2013-03-28,900.0
TAS,2013-03-29,1000.0
TAS,2013-04-01,1000.0
TAS,2013-04-02,1000.0
TAS,2013-04-03,1000.0
TAS,2013-04-04,1000.0
TAS,2013-04-05,900.0
TAS,2013-04-08,900.0
TAS,2013-04-09,900.0
TAS,2013-04-10,900.0
TAS,2013-04-11,900.0
TAS,2013-04-12,800.0
TAS,2013-04-15,800.0
TAS,2013-04-16,800.0
TAS,2013-04-17,800.0
TAS,2013-04-18,800.0
TAS,2013-04-22,800.0
TAS,2013-04-23,800.0
TAS,2013-04-24,800.0
TAS,2013-04-25,800.0
TAS,2013-04-26,800.0
TAS,2013-05-02,800.0
TAS,2013-05-03,800.0
TAS,2013-05-06,800.0
TAS,2013-05-07,800.0
TAS,2013-05-08,800.0
TAS,2013-05-09,800.0
TAS,2013-05-10,800.0
TAS,2013-05-13,800.0
TAS,2013-05-14,800.0
TAS,2013-05-15,800.0
TAS,2013-05-16,800.0
TAS,2013-05-17,800.0
TAS,2013-05-20,800.0
TAS,2013-05-21,800.0
TAS,2013-05-22,800.0
TAS,2013-05-23,800.0
TAS,2013-05-24,800.0
TAS,2013-05-27,800.0
TAS,2013-05-28,800.0
TAS,2013-05-29,800.0
TAS,2013-05-30,800.0
TAS,2013-05-31,900.0
TAS,2013-06-03,900.0
TAS,2013-06-04,900.0
TAS,2013-06-05,900.0
TAS,2013-06-06,900.0
TAS,2013-06-07,900.0
TAS,2013-06-10,1000.0
TAS,2013-06-11,1000.0
TAS,2013-06-12,900.0
TAS,2013-06-13,900.0
TAS,2013-06-14,900.0
TAS,2013-06-17,900.0
TAS,2013-06-18,900.0
TAS,2013-06-19,900.0
TAS,2013-06-20,900.0
TAS,2013-06-21,800.0
TAS,2013-06-24,800.0
TAS,2013-06-25,800.0
TAS,2013-06-26,800.0
TAS,2013-06-27,800.0
TAS,2013-06-28,900.0
TAS,2013-07-01,900.0
TAS,2013-07-02,900.0
TAS,2013-07-03,900.0
TAS,2013-07-04,900.0
TAS,2013-07-05,900.0
TAS,2013-07-08,900.0
TAS,2013-07-09,900.0
TAS,2013-07-10,900.0
TAS,2013-07-11,900.0
TAS,2013-07-12,900.0
TAS,2013-07-15,900.0
TAS,2013-07-16,900.0
TAS,2013-07-17,900.0
TAS,2013-07-18,900.0
TAS,2013-07-19,900.0
TAS,2013-07-22,900.0
TAS,2013-07-23,900.0
TAS,2013-07-24,900.0
TAS,2013-07-25,900.0
TAS,2013-07-26,900.0
TAS,2013-07-29,900.0
TAS,2013-07-30,900.0
TAS,2013-07-31,900.0
TAS,2013-08-01,900.0
TAS,2013-08-02,900.0
TAS,2013-08-05,900.0
TAS,2013-08-06,900.0
TAS,2013-08-07,900.0
TAS,2013-08-08,900.0
TAS,2013-08-09,900.0
TAS,2013-08-12,900.0
TAS,2013-08-13,900.0
TAS,2013-08-14,900.0
TAS,2013-08-15,900.0
TAS,2013-08-16,900.0
TAS,2013-08-19,900.0
TAS,2013-08-20,900.0
TAS,2013-08-21,900.0
TAS,2013-08-22,900.0
TAS,2013-08-23,900.0
TAS,2013-08-26,900.0
TAS,2013-08-27,900.0
TAS,2013-08-28,900.0
TAS,2013-08-29,900.0
TAS,2013-08-30,900.0
TAS,2013-09-03,900.0
TAS,2013-09-04,900.0
TAS,2013-09-05,900.0
TAS,2013-09-06,900.0
TAS,2013-09-09,900.0
TAS,2013-09-10,900.0
TAS,2013-09-11,900.0
TAS,2013-09-12,900.0
TAS,2013-09-13,900.0
TAS,2013-09-16,900.0
TAS,2013-09-17,900.0
TAS,2013-09-18,900.0
TAS,2013-09-19,900.0
TAS,2013-09-20,900.0
