THS,2013-11-12,4700.0
THS,2013-11-13,7200.0
THS,2013-11-14,7900.0
THS,2013-11-15,8000.0
THS,2013-11-18,7200.0
THS,2013-11-19,7100.0
THS,2013-11-20,7100.0
THS,2013-11-21,7100.0
THS,2013-11-22,6600.0
THS,2013-11-25,7200.0
THS,2013-11-26,7000.0
THS,2013-11-27,6900.0
THS,2013-11-28,6300.0
THS,2013-11-29,6600.0
THS,2013-12-02,6700.0
THS,2013-12-03,6300.0
THS,2013-12-04,6500.0
THS,2013-12-05,6400.0
THS,2013-12-06,6500.0
THS,2013-12-09,6400.0
THS,2013-12-10,6400.0
THS,2013-12-11,6500.0
THS,2013-12-12,6500.0
THS,2013-12-13,6300.0
THS,2013-12-16,6500.0
THS,2013-12-17,6500.0
THS,2013-12-18,6500.0
THS,2013-12-19,6500.0
THS,2013-12-20,6500.0
THS,2013-12-23,6500.0
THS,2013-12-24,5900.0
THS,2013-12-25,6400.0
THS,2013-12-26,6500.0
THS,2013-12-27,6500.0
THS,2013-12-30,6500.0
THS,2013-12-31,6500.0
THS,2014-01-02,6500.0
THS,2014-01-03,6500.0
THS,2014-01-06,6400.0
THS,2014-01-07,5800.0
THS,2014-01-08,6200.0
THS,2014-01-09,6400.0
THS,2014-01-10,6400.0
THS,2014-01-13,6400.0
THS,2014-01-14,6400.0
THS,2014-01-15,5800.0
THS,2014-01-16,5900.0
THS,2014-01-17,6200.0
THS,2014-01-20,6200.0
THS,2014-01-21,6000.0
THS,2014-01-22,6000.0
THS,2014-01-23,6000.0
THS,2014-01-24,6000.0
THS,2014-01-27,6000.0
THS,2014-02-06,6000.0
THS,2014-02-07,6000.0
THS,2014-02-10,6000.0
THS,2014-02-11,6000.0
THS,2014-02-12,6000.0
THS,2014-02-13,6000.0
THS,2014-02-14,6000.0
THS,2014-02-17,6400.0
THS,2014-02-18,6000.0
THS,2014-02-19,6200.0
THS,2014-02-20,6200.0
THS,2014-02-21,6000.0
THS,2014-02-24,5700.0
THS,2014-02-25,6100.0
THS,2014-02-26,6100.0
THS,2014-02-27,6100.0
THS,2014-02-28,6400.0
THS,2014-03-03,6300.0
THS,2014-03-04,6400.0
THS,2014-03-05,6600.0
THS,2014-03-06,6900.0
THS,2014-03-07,7200.0
THS,2014-03-10,7900.0
THS,2014-03-11,7300.0
THS,2014-03-12,7300.0
THS,2014-03-13,7000.0
THS,2014-03-14,7200.0
THS,2014-03-17,7000.0
THS,2014-03-18,7500.0
THS,2014-03-19,7500.0
THS,2014-03-20,7100.0
THS,2014-03-21,7300.0
THS,2014-03-24,7300.0
THS,2014-03-25,7100.0
THS,2014-03-26,7700.0
THS,2014-03-27,7100.0
THS,2014-03-28,7000.0
THS,2014-03-31,7400.0
THS,2014-04-01,7500.0
THS,2014-04-02,7300.0
THS,2014-04-03,7500.0
THS,2014-04-04,7500.0
THS,2014-04-07,7500.0
THS,2014-04-08,7300.0
THS,2014-04-10,7900.0
THS,2014-04-11,7900.0
THS,2014-04-14,7200.0
THS,2014-04-15,7200.0
THS,2014-04-16,7200.0
THS,2014-04-17,7300.0
THS,2014-04-18,7300.0
THS,2014-04-21,7300.0
THS,2014-04-22,7300.0
THS,2014-04-23,7400.0
THS,2014-04-24,7400.0
THS,2014-04-25,7400.0
THS,2014-04-28,7400.0
THS,2014-04-29,7400.0
THS,2014-05-05,7400.0
THS,2014-05-06,7400.0
THS,2014-05-07,7400.0
THS,2014-05-08,7000.0
THS,2014-05-09,7300.0
THS,2014-05-12,7300.0
THS,2014-05-13,7000.0
THS,2014-05-14,7000.0
THS,2014-05-15,7000.0
THS,2014-05-16,7000.0
THS,2014-05-19,7000.0
THS,2014-05-20,7000.0
THS,2014-05-21,7300.0
