TJC,2007-12-17,27900.0
TJC,2007-12-18,25800.0
TJC,2007-12-19,28400.0
TJC,2007-12-20,26800.0
TJC,2007-12-21,25200.0
TJC,2007-12-24,25700.0
TJC,2007-12-25,26000.0
TJC,2007-12-26,25900.0
TJC,2007-12-27,25500.0
TJC,2007-12-28,24600.0
TJC,2008-01-02,23500.0
TJC,2008-01-03,22100.0
TJC,2008-01-04,21300.0
TJC,2008-01-07,20900.0
TJC,2008-01-08,21200.0
TJC,2008-01-09,20700.0
TJC,2008-01-10,20800.0
TJC,2008-01-11,20700.0
TJC,2008-01-14,19600.0
TJC,2008-01-15,17700.0
TJC,2008-01-16,19700.0
TJC,2008-01-17,19300.0
TJC,2008-01-18,17900.0
TJC,2008-01-21,17900.0
TJC,2008-01-22,17900.0
TJC,2008-01-23,17900.0
TJC,2008-01-24,17700.0
TJC,2008-01-25,17800.0
TJC,2008-01-28,18200.0
TJC,2008-01-29,19000.0
TJC,2008-01-30,20100.0
TJC,2008-01-31,20100.0
TJC,2008-02-01,20900.0
TJC,2008-02-12,22300.0
TJC,2008-02-13,24400.0
TJC,2008-02-14,23500.0
TJC,2008-02-15,22900.0
TJC,2008-02-18,21100.0
TJC,2008-02-19,20700.0
TJC,2008-02-20,19000.0
TJC,2008-02-21,17400.0
TJC,2008-02-22,17800.0
TJC,2008-02-25,18700.0
TJC,2008-02-26,17900.0
TJC,2008-02-27,18200.0
TJC,2008-02-28,17900.0
TJC,2008-02-29,17400.0
TJC,2008-03-03,16900.0
TJC,2008-03-04,15300.0
TJC,2008-03-05,14500.0
TJC,2008-03-06,15600.0
TJC,2008-03-07,17200.0
TJC,2008-03-10,16800.0
TJC,2008-03-11,16400.0
TJC,2008-03-12,16800.0
TJC,2008-03-13,16200.0
TJC,2008-03-14,15900.0
TJC,2008-03-17,15100.0
TJC,2008-03-18,14500.0
TJC,2008-03-19,14200.0
TJC,2008-03-20,14200.0
TJC,2008-03-21,13700.0
TJC,2008-03-24,12300.0
TJC,2008-03-25,11300.0
TJC,2008-03-26,12500.0
TJC,2008-03-27,11600.0
TJC,2008-03-28,11800.0
TJC,2008-03-31,12000.0
TJC,2008-04-01,12200.0
TJC,2008-04-02,12500.0
TJC,2008-04-03,12700.0
TJC,2008-04-04,12900.0
TJC,2008-04-07,13200.0
TJC,2008-04-08,13400.0
TJC,2008-04-09,12900.0
TJC,2008-04-10,12700.0
TJC,2008-04-11,12300.0
TJC,2008-04-16,12000.0
TJC,2008-04-17,12400.0
TJC,2008-04-18,12300.0
TJC,2008-04-21,12200.0
TJC,2008-04-22,12300.0
TJC,2008-04-23,11900.0
TJC,2008-04-24,12300.0
TJC,2008-04-25,12200.0
TJC,2008-04-28,12200.0
TJC,2008-04-29,12000.0
TJC,2008-05-05,12300.0
TJC,2008-05-06,12300.0
TJC,2008-05-07,12300.0
TJC,2008-05-08,12300.0
TJC,2008-05-09,11900.0
TJC,2008-05-12,11900.0
TJC,2008-05-13,11600.0
TJC,2008-05-14,11200.0
TJC,2008-05-15,11000.0
TJC,2008-05-16,10700.0
TJC,2008-05-19,10500.0
TJC,2008-05-20,10300.0
TJC,2008-05-21,10100.0
TJC,2008-05-22,9900.0
TJC,2008-05-23,9600.0
TJC,2008-05-26,9300.0
TJC,2008-05-27,9200.0
TJC,2008-05-28,9000.0
TJC,2008-05-29,9400.0
TJC,2008-05-30,9200.0
TJC,2008-06-02,9300.0
TJC,2008-06-03,9200.0
TJC,2008-06-04,9200.0
TJC,2008-06-05,8900.0
TJC,2008-06-06,8700.0
TJC,2008-06-09,8600.0
TJC,2008-06-10,8600.0
TJC,2008-06-11,8800.0
TJC,2008-06-12,9000.0
TJC,2008-06-13,9300.0
TJC,2008-06-16,9500.0
TJC,2008-06-17,9700.0
TJC,2008-06-18,10000.0
TJC,2008-06-19,9600.0
TJC,2008-06-20,9300.0
TJC,2008-06-23,9300.0
TJC,2008-06-24,9300.0
TJC,2008-06-25,9600.0
TJC,2008-06-26,9900.0
TJC,2008-06-27,9700.0
TJC,2008-06-30,9500.0
TJC,2008-07-01,9900.0
TJC,2008-07-02,9900.0
TJC,2008-07-03,10100.0
TJC,2008-07-04,10400.0
TJC,2008-07-07,10100.0
TJC,2008-07-08,9900.0
TJC,2008-07-09,9900.0
TJC,2008-07-10,9600.0
TJC,2008-07-11,9900.0
TJC,2008-07-14,10100.0
TJC,2008-07-15,10400.0
TJC,2008-07-16,10400.0
TJC,2008-07-17,10700.0
TJC,2008-07-18,10200.0
TJC,2008-07-21,10700.0
TJC,2008-07-22,10700.0
TJC,2008-07-23,10800.0
TJC,2008-07-24,11000.0
TJC,2008-07-25,11400.0
TJC,2008-07-28,11800.0
TJC,2008-07-29,12200.0
TJC,2008-07-30,12700.0
TJC,2008-07-31,13200.0
TJC,2008-08-01,13600.0
TJC,2008-08-04,13500.0
TJC,2008-08-05,13200.0
TJC,2008-08-06,12700.0
TJC,2008-08-07,12200.0
TJC,2008-08-08,11900.0
TJC,2008-08-11,12400.0
TJC,2008-08-12,12800.0
TJC,2008-08-13,12800.0
TJC,2008-08-14,13400.0
TJC,2008-08-15,13800.0
TJC,2008-08-18,13300.0
TJC,2008-08-19,13000.0
TJC,2008-08-20,12100.0
TJC,2008-08-21,13000.0
TJC,2008-08-22,13300.0
TJC,2008-08-25,14600.0
TJC,2008-08-26,15500.0
TJC,2008-08-27,15600.0
TJC,2008-08-28,15800.0
TJC,2008-08-29,15600.0
TJC,2008-09-03,16000.0
TJC,2008-09-04,16200.0
TJC,2008-09-05,15600.0
TJC,2008-09-08,15600.0
TJC,2008-09-09,16100.0
TJC,2008-09-10,16800.0
TJC,2008-09-11,15800.0
TJC,2008-09-12,14800.0
TJC,2008-09-15,15800.0
TJC,2008-09-16,14400.0
TJC,2008-09-17,13300.0
TJC,2008-09-18,12200.0
TJC,2008-09-19,13200.0
TJC,2008-09-22,13300.0
TJC,2008-09-23,13700.0
TJC,2008-09-24,13400.0
TJC,2008-09-25,15100.0
TJC,2008-09-26,15600.0
TJC,2008-09-29,14900.0
TJC,2008-09-30,14300.0
TJC,2008-10-01,14500.0
TJC,2008-10-02,15300.0
TJC,2008-10-03,16300.0
TJC,2008-10-06,17400.0
TJC,2008-10-07,16200.0
TJC,2008-10-08,15600.0
TJC,2008-10-09,16700.0
TJC,2008-10-10,15400.0
TJC,2008-10-13,14400.0
TJC,2008-10-14,15600.0
TJC,2008-10-15,15800.0
TJC,2008-10-16,16500.0
TJC,2008-10-17,16300.0
TJC,2008-10-20,15400.0
TJC,2008-10-21,14700.0
TJC,2008-10-22,14500.0
TJC,2008-10-23,13300.0
TJC,2008-10-24,12300.0
TJC,2008-10-27,11600.0
TJC,2008-10-28,11500.0
TJC,2008-10-29,11600.0
TJC,2008-10-30,12200.0
TJC,2008-10-31,12500.0
TJC,2008-11-03,11300.0
TJC,2008-11-04,12100.0
TJC,2008-11-05,12800.0
TJC,2008-11-06,12800.0
TJC,2008-11-07,12100.0
TJC,2008-11-10,12100.0
TJC,2008-11-11,11500.0
TJC,2008-11-12,11600.0
TJC,2008-11-13,11900.0
TJC,2008-11-14,11700.0
TJC,2008-11-17,11100.0
TJC,2008-11-18,11900.0
TJC,2008-11-19,11800.0
TJC,2008-11-20,11200.0
TJC,2008-11-21,11500.0
TJC,2008-11-24,11900.0
TJC,2008-11-25,11800.0
TJC,2008-11-26,11600.0
TJC,2008-11-27,10800.0
TJC,2008-11-28,11800.0
TJC,2008-12-01,11800.0
TJC,2008-12-02,11600.0
TJC,2008-12-03,11000.0
TJC,2008-12-04,11000.0
TJC,2008-12-05,10400.0
TJC,2008-12-08,9700.0
TJC,2008-12-09,9400.0
TJC,2008-12-10,9000.0
TJC,2008-12-11,8400.0
TJC,2008-12-12,9100.0
TJC,2008-12-15,9600.0
TJC,2008-12-16,9000.0
TJC,2008-12-17,8700.0
TJC,2008-12-18,9000.0
TJC,2008-12-19,9300.0
TJC,2008-12-22,9600.0
TJC,2008-12-23,9100.0
TJC,2008-12-24,9000.0
TJC,2008-12-25,9000.0
TJC,2008-12-26,8800.0
TJC,2008-12-29,9000.0
TJC,2008-12-30,9300.0
TJC,2008-12-31,9300.0
TJC,2009-01-02,9100.0
TJC,2009-01-05,9100.0
TJC,2009-01-06,9500.0
TJC,2009-01-07,9500.0
TJC,2009-01-08,9600.0
TJC,2009-01-09,9900.0
TJC,2009-01-12,9300.0
TJC,2009-01-13,9300.0
TJC,2009-01-14,9300.0
TJC,2009-01-15,9200.0
TJC,2009-01-16,9300.0
TJC,2009-01-19,9000.0
TJC,2009-01-20,9400.0
TJC,2009-01-21,9400.0
TJC,2009-01-22,9000.0
TJC,2009-01-23,9500.0
TJC,2009-02-02,9500.0
TJC,2009-02-03,8900.0
TJC,2009-02-04,8700.0
TJC,2009-02-05,8300.0
TJC,2009-02-06,8300.0
TJC,2009-02-09,8900.0
TJC,2009-02-10,8700.0
TJC,2009-02-11,8400.0
TJC,2009-02-12,8400.0
TJC,2009-02-13,8200.0
TJC,2009-02-16,7800.0
TJC,2009-02-17,7800.0
TJC,2009-02-18,7600.0
TJC,2009-02-19,7500.0
TJC,2009-02-20,7100.0
TJC,2009-02-23,7100.0
TJC,2009-02-24,7100.0
TJC,2009-02-25,7500.0
TJC,2009-02-26,7500.0
TJC,2009-02-27,7500.0
TJC,2009-03-02,7100.0
TJC,2009-03-03,7400.0
TJC,2009-03-04,7400.0
TJC,2009-03-05,7400.0
TJC,2009-03-06,7300.0
TJC,2009-03-09,7400.0
TJC,2009-03-10,7500.0
TJC,2009-03-11,7700.0
TJC,2009-03-12,7400.0
TJC,2009-03-13,7500.0
TJC,2009-03-16,7500.0
TJC,2009-03-17,7700.0
TJC,2009-03-18,8000.0
TJC,2009-03-19,7500.0
TJC,2009-03-20,7700.0
TJC,2009-03-23,7500.0
TJC,2009-03-24,7700.0
TJC,2009-03-25,7700.0
TJC,2009-03-26,7700.0
TJC,2009-03-27,7600.0
TJC,2009-03-30,7600.0
TJC,2009-03-31,7500.0
TJC,2009-04-01,7800.0
TJC,2009-04-02,8000.0
TJC,2009-04-03,8600.0
TJC,2009-04-07,9000.0
TJC,2009-04-08,8600.0
TJC,2009-04-09,9100.0
TJC,2009-04-10,9600.0
TJC,2009-04-13,10200.0
TJC,2009-04-14,10400.0
TJC,2009-04-15,9700.0
TJC,2009-04-16,9100.0
TJC,2009-04-17,8700.0
TJC,2009-04-20,8000.0
TJC,2009-04-21,8100.0
TJC,2009-04-22,8200.0
TJC,2009-04-23,8500.0
TJC,2009-04-24,8400.0
TJC,2009-04-27,7900.0
TJC,2009-04-28,8000.0
TJC,2009-04-29,8000.0
TJC,2009-05-04,8700.0
TJC,2009-05-05,9000.0
TJC,2009-05-06,9100.0
TJC,2009-05-07,8800.0
TJC,2009-05-08,8600.0
TJC,2009-05-11,8700.0
TJC,2009-05-12,9100.0
TJC,2009-05-13,8900.0
TJC,2009-05-14,8900.0
TJC,2009-05-15,9400.0
TJC,2009-05-18,10000.0
TJC,2009-05-19,10600.0
TJC,2009-05-20,10900.0
TJC,2009-05-21,10200.0
TJC,2009-05-22,9800.0
TJC,2009-05-25,10400.0
TJC,2009-05-26,11000.0
TJC,2009-05-27,11400.0
TJC,2009-05-28,10800.0
TJC,2009-05-29,10800.0
TJC,2009-06-01,11100.0
TJC,2009-06-02,11100.0
TJC,2009-06-03,11000.0
TJC,2009-06-04,11800.0
TJC,2009-06-05,12400.0
TJC,2009-06-08,13200.0
TJC,2009-06-09,14100.0
TJC,2009-06-10,15100.0
TJC,2009-06-11,16100.0
TJC,2009-06-12,17200.0
TJC,2009-06-15,16700.0
TJC,2009-06-16,16100.0
TJC,2009-06-17,15900.0
TJC,2009-06-18,15100.0
TJC,2009-06-19,15800.0
TJC,2009-06-22,14300.0
TJC,2009-06-23,13400.0
TJC,2009-06-24,14300.0
TJC,2009-06-25,14700.0
TJC,2009-06-26,15000.0
TJC,2009-06-29,14100.0
TJC,2009-06-30,14200.0
TJC,2009-07-01,14500.0
TJC,2009-07-02,14700.0
TJC,2009-07-03,14700.0
TJC,2009-07-06,15000.0
TJC,2009-07-07,15200.0
TJC,2009-07-08,14700.0
TJC,2009-07-09,14500.0
TJC,2009-07-10,14100.0
TJC,2009-07-13,13900.0
TJC,2009-07-14,13600.0
TJC,2009-07-15,14100.0
TJC,2009-07-16,14500.0
TJC,2009-07-17,14300.0
TJC,2009-07-20,14100.0
TJC,2009-07-21,13100.0
TJC,2009-07-22,13100.0
TJC,2009-07-23,13800.0
TJC,2009-07-24,14100.0
TJC,2009-07-27,14400.0
TJC,2009-07-28,14000.0
TJC,2009-07-29,13400.0
TJC,2009-07-30,12600.0
TJC,2009-07-31,14100.0
TJC,2009-08-03,13400.0
TJC,2009-08-04,13400.0
TJC,2009-08-05,12800.0
TJC,2009-08-06,13300.0
TJC,2009-08-07,14200.0
TJC,2009-08-10,14400.0
TJC,2009-08-11,14700.0
TJC,2009-08-12,13800.0
TJC,2009-08-13,12900.0
TJC,2009-08-14,12700.0
TJC,2009-08-17,12800.0
TJC,2009-08-18,12800.0
TJC,2009-08-19,12700.0
TJC,2009-08-20,12500.0
TJC,2009-08-21,12400.0
TJC,2009-08-24,12000.0
TJC,2009-08-25,12300.0
TJC,2009-08-26,12500.0
TJC,2009-08-27,12200.0
TJC,2009-08-28,12900.0
TJC,2009-08-31,12600.0
TJC,2009-09-01,12700.0
TJC,2009-09-03,12700.0
TJC,2009-09-04,12700.0
TJC,2009-09-07,12500.0
TJC,2009-09-08,12400.0
TJC,2009-09-09,12400.0
TJC,2009-09-10,13500.0
TJC,2009-09-11,13500.0
TJC,2009-09-14,12900.0
TJC,2009-09-15,12900.0
TJC,2009-09-16,12900.0
TJC,2009-09-17,12900.0
TJC,2009-09-18,12900.0
TJC,2009-09-21,13200.0
TJC,2009-09-22,12900.0
TJC,2009-09-23,12800.0
TJC,2009-09-24,12400.0
TJC,2009-09-25,12300.0
TJC,2009-09-28,12600.0
TJC,2009-09-29,13500.0
TJC,2009-09-30,14100.0
TJC,2009-10-01,14100.0
TJC,2009-10-02,13600.0
TJC,2009-10-05,13200.0
TJC,2009-10-06,13400.0
TJC,2009-10-07,13800.0
TJC,2009-10-08,14600.0
TJC,2009-10-09,15600.0
TJC,2009-10-12,16600.0
TJC,2009-10-13,17700.0
TJC,2009-10-14,19000.0
TJC,2009-10-15,20200.0
TJC,2009-10-16,19400.0
TJC,2009-10-19,19200.0
TJC,2009-10-20,18600.0
TJC,2009-10-21,19500.0
TJC,2009-10-22,19200.0
TJC,2009-10-23,18600.0
TJC,2009-10-26,18300.0
TJC,2009-10-27,17400.0
TJC,2009-10-28,17400.0
TJC,2009-10-29,16300.0
TJC,2009-10-30,16400.0
TJC,2009-11-02,15000.0
TJC,2009-11-03,14000.0
TJC,2009-11-04,13100.0
TJC,2009-11-05,14200.0
TJC,2009-11-06,14200.0
TJC,2009-11-09,15600.0
TJC,2009-11-10,14900.0
TJC,2009-11-11,14600.0
TJC,2009-11-12,15000.0
TJC,2009-11-13,14300.0
TJC,2009-11-16,14300.0
TJC,2009-11-17,14900.0
TJC,2009-11-18,14800.0
TJC,2009-11-19,14800.0
TJC,2009-11-20,14900.0
TJC,2009-11-23,14300.0
TJC,2009-11-24,13800.0
TJC,2009-11-25,13100.0
TJC,2009-11-26,12300.0
TJC,2009-11-27,11800.0
TJC,2009-11-30,12000.0
TJC,2009-12-01,12600.0
TJC,2009-12-02,12000.0
TJC,2009-12-03,12200.0
TJC,2009-12-04,11900.0
TJC,2009-12-07,12100.0
TJC,2009-12-08,12200.0
TJC,2009-12-09,11600.0
TJC,2009-12-10,10900.0
TJC,2009-12-11,10200.0
TJC,2009-12-14,10900.0
TJC,2009-12-15,11300.0
TJC,2009-12-16,10500.0
TJC,2009-12-17,10500.0
TJC,2009-12-18,10700.0
TJC,2009-12-21,11400.0
TJC,2009-12-22,11100.0
TJC,2009-12-23,11300.0
TJC,2009-12-24,11400.0
TJC,2009-12-25,11600.0
TJC,2009-12-28,11500.0
TJC,2009-12-29,10800.0
TJC,2009-12-30,10900.0
TJC,2009-12-31,11600.0
TJC,2010-01-04,12300.0
TJC,2010-01-05,13100.0
TJC,2010-01-06,14000.0
TJC,2010-01-07,12900.0
TJC,2010-01-08,12300.0
TJC,2010-01-11,12100.0
TJC,2010-01-12,11400.0
TJC,2010-01-13,12200.0
TJC,2010-01-14,12500.0
TJC,2010-01-15,12200.0
TJC,2010-01-18,12000.0
TJC,2010-01-19,12800.0
TJC,2010-01-20,12400.0
TJC,2010-01-21,12000.0
TJC,2010-01-22,11800.0
TJC,2010-01-25,12400.0
TJC,2010-01-26,12900.0
TJC,2010-01-27,12000.0
TJC,2010-01-28,11800.0
TJC,2010-01-29,11800.0
TJC,2010-02-01,11500.0
TJC,2010-02-02,11700.0
TJC,2010-02-03,11900.0
TJC,2010-02-04,11900.0
TJC,2010-02-05,11700.0
TJC,2010-02-08,11400.0
TJC,2010-02-09,10900.0
TJC,2010-02-10,11100.0
TJC,2010-02-11,11600.0
TJC,2010-02-12,12300.0
TJC,2010-02-22,13100.0
TJC,2010-02-23,12500.0
TJC,2010-02-24,12300.0
TJC,2010-02-25,12400.0
TJC,2010-02-26,12200.0
TJC,2010-03-01,13300.0
TJC,2010-03-02,13500.0
TJC,2010-03-03,14000.0
TJC,2010-03-04,13600.0
TJC,2010-03-05,13500.0
TJC,2010-03-08,13500.0
TJC,2010-03-09,13300.0
TJC,2010-03-10,13400.0
TJC,2010-03-11,13300.0
TJC,2010-03-12,13500.0
TJC,2010-03-15,13300.0
TJC,2010-03-16,12700.0
TJC,2010-03-17,13300.0
TJC,2010-03-18,13500.0
TJC,2010-03-19,13100.0
TJC,2010-03-22,13100.0
TJC,2010-03-23,12900.0
TJC,2010-03-24,13200.0
TJC,2010-03-25,14100.0
TJC,2010-03-26,14600.0
TJC,2010-03-29,15600.0
TJC,2010-03-30,15200.0
TJC,2010-03-31,15100.0
TJC,2010-04-01,15500.0
TJC,2010-04-02,15300.0
TJC,2010-04-05,15200.0
TJC,2010-04-06,15600.0
TJC,2010-04-07,16700.0
TJC,2010-04-08,17800.0
TJC,2010-04-09,17400.0
TJC,2010-04-12,16900.0
TJC,2010-04-13,16700.0
TJC,2010-04-14,16700.0
TJC,2010-04-15,16600.0
TJC,2010-04-16,17900.0
TJC,2010-04-19,18200.0
TJC,2010-04-20,19500.0
TJC,2010-04-21,20800.0
TJC,2010-04-22,20900.0
TJC,2010-04-26,20500.0
TJC,2010-04-27,21800.0
TJC,2010-04-28,23100.0
TJC,2010-04-29,24500.0
TJC,2010-05-04,26200.0
TJC,2010-05-05,26200.0
TJC,2010-05-06,28000.0
TJC,2010-05-07,26000.0
TJC,2010-05-10,24400.0
TJC,2010-05-11,22700.0
TJC,2010-05-12,21300.0
TJC,2010-05-13,19800.0
TJC,2010-05-14,20700.0
TJC,2010-05-17,20300.0
TJC,2010-05-18,19000.0
TJC,2010-05-19,18200.0
TJC,2010-05-20,17900.0
TJC,2010-05-21,16000.0
TJC,2010-05-24,16200.0
TJC,2010-05-25,15700.0
TJC,2010-05-26,17000.0
TJC,2010-05-27,18100.0
TJC,2010-05-28,19300.0
TJC,2010-05-31,18400.0
TJC,2010-06-01,18200.0
TJC,2010-06-02,18900.0
TJC,2010-06-03,18900.0
TJC,2010-06-04,18200.0
TJC,2010-06-07,17000.0
TJC,2010-06-08,17200.0
TJC,2010-06-09,17000.0
TJC,2010-06-10,16900.0
TJC,2010-06-11,17100.0
TJC,2010-06-14,18300.0
TJC,2010-06-15,18100.0
TJC,2010-06-16,18500.0
TJC,2010-06-17,18000.0
TJC,2010-06-18,17900.0
TJC,2010-06-21,19000.0
TJC,2010-06-22,20000.0
TJC,2010-06-23,19900.0
TJC,2010-06-24,19300.0
TJC,2010-06-25,18500.0
TJC,2010-06-28,18700.0
TJC,2010-06-29,19100.0
TJC,2010-06-30,18300.0
TJC,2010-07-01,19000.0
TJC,2010-07-02,18900.0
TJC,2010-07-05,18900.0
TJC,2010-07-06,18000.0
TJC,2010-07-07,17700.0
TJC,2010-07-08,17800.0
TJC,2010-07-09,18400.0
TJC,2010-07-12,19000.0
TJC,2010-07-13,19900.0
TJC,2010-07-14,21200.0
TJC,2010-07-15,19800.0
TJC,2010-07-16,20100.0
TJC,2010-07-19,21500.0
TJC,2010-07-20,22700.0
TJC,2010-07-21,21200.0
TJC,2010-07-22,20500.0
TJC,2010-07-23,20700.0
TJC,2010-07-26,20700.0
TJC,2010-07-27,20000.0
TJC,2010-07-28,19400.0
TJC,2010-07-29,19300.0
TJC,2010-07-30,19400.0
TJC,2010-08-02,18600.0
TJC,2010-08-03,18600.0
TJC,2010-08-04,17900.0
TJC,2010-08-05,18000.0
TJC,2010-08-06,17900.0
TJC,2010-08-09,16900.0
TJC,2010-08-10,15900.0
TJC,2010-08-11,16500.0
TJC,2010-08-12,15000.0
TJC,2010-08-13,16000.0
TJC,2010-08-16,16700.0
TJC,2010-08-17,16200.0
TJC,2010-08-18,15600.0
TJC,2010-08-19,15200.0
TJC,2010-08-20,15200.0
TJC,2010-08-23,14700.0
TJC,2010-08-24,14000.0
TJC,2010-08-25,13100.0
TJC,2010-08-26,13000.0
TJC,2010-08-27,12400.0
TJC,2010-08-30,13400.0
TJC,2010-08-31,14300.0
TJC,2010-09-01,15200.0
TJC,2010-09-06,16100.0
TJC,2010-09-07,15500.0
TJC,2010-09-08,14900.0
TJC,2010-09-09,15800.0
TJC,2010-09-10,14600.0
TJC,2010-09-13,13900.0
TJC,2010-09-14,14500.0
TJC,2010-09-15,14000.0
TJC,2010-09-16,14200.0
TJC,2010-09-17,15000.0
TJC,2010-09-20,15900.0
TJC,2010-09-21,15200.0
TJC,2010-09-22,15200.0
TJC,2010-09-23,14900.0
TJC,2010-09-24,15000.0
TJC,2010-09-27,15000.0
TJC,2010-09-28,14800.0
TJC,2010-09-29,14500.0
TJC,2010-09-30,14400.0
TJC,2010-10-01,14000.0
TJC,2010-10-04,13300.0
TJC,2010-10-05,14000.0
TJC,2010-10-06,14200.0
TJC,2010-10-07,13600.0
TJC,2010-10-08,13400.0
TJC,2010-10-11,13400.0
TJC,2010-10-12,13200.0
TJC,2010-10-13,13300.0
TJC,2010-10-14,13300.0
TJC,2010-10-15,13300.0
TJC,2010-10-18,13100.0
TJC,2010-10-19,12400.0
TJC,2010-10-20,11700.0
TJC,2010-10-21,11900.0
TJC,2010-10-22,11400.0
TJC,2010-10-25,11500.0
TJC,2010-10-26,12100.0
TJC,2010-10-27,11400.0
TJC,2010-10-28,11500.0
TJC,2010-10-29,11600.0
TJC,2010-11-01,11500.0
TJC,2010-11-02,11100.0
TJC,2010-11-03,10800.0
TJC,2010-11-04,10800.0
TJC,2010-11-05,11400.0
TJC,2010-11-08,11000.0
TJC,2010-11-09,10400.0
TJC,2010-11-10,10200.0
TJC,2010-11-11,10200.0
TJC,2010-11-12,9900.0
TJC,2010-11-15,9700.0
TJC,2010-11-16,9500.0
TJC,2010-11-17,9600.0
TJC,2010-11-18,10000.0
TJC,2010-11-19,9900.0
TJC,2010-11-22,9500.0
TJC,2010-11-23,9800.0
TJC,2010-11-24,9800.0
TJC,2010-11-25,10200.0
TJC,2010-11-26,10100.0
TJC,2010-11-29,10500.0
TJC,2010-11-30,10800.0
TJC,2010-12-01,10700.0
TJC,2010-12-02,11700.0
TJC,2010-12-03,12100.0
TJC,2010-12-06,12100.0
TJC,2010-12-07,11500.0
TJC,2010-12-08,11000.0
TJC,2010-12-09,11300.0
TJC,2010-12-10,11500.0
TJC,2010-12-13,12100.0
TJC,2010-12-14,11400.0
TJC,2010-12-15,11300.0
TJC,2010-12-16,10800.0
TJC,2010-12-17,11500.0
TJC,2010-12-20,11300.0
TJC,2010-12-21,11100.0
TJC,2010-12-22,10800.0
TJC,2010-12-23,10600.0
TJC,2010-12-24,10500.0
TJC,2010-12-27,10600.0
TJC,2010-12-28,11100.0
TJC,2010-12-29,10600.0
TJC,2010-12-30,10900.0
TJC,2010-12-31,10800.0
TJC,2011-01-04,10800.0
TJC,2011-01-05,10300.0
TJC,2011-01-06,10100.0
TJC,2011-01-07,9900.0
TJC,2011-01-10,9800.0
TJC,2011-01-11,9400.0
TJC,2011-01-12,9500.0
TJC,2011-01-13,9900.0
TJC,2011-01-14,9800.0
TJC,2011-01-17,9700.0
TJC,2011-01-18,9700.0
TJC,2011-01-19,9600.0
TJC,2011-01-20,9700.0
TJC,2011-01-21,9600.0
TJC,2011-01-24,9500.0
TJC,2011-01-25,9700.0
TJC,2011-01-26,9700.0
TJC,2011-01-27,9800.0
TJC,2011-01-28,9700.0
TJC,2011-02-08,10200.0
TJC,2011-02-09,9700.0
TJC,2011-02-10,9800.0
TJC,2011-02-11,9700.0
TJC,2011-02-14,9500.0
TJC,2011-02-15,9400.0
TJC,2011-02-16,9300.0
TJC,2011-02-17,9200.0
TJC,2011-02-18,9000.0
TJC,2011-02-21,8500.0
TJC,2011-02-22,7900.0
TJC,2011-02-23,8400.0
TJC,2011-02-24,8000.0
TJC,2011-02-25,8300.0
TJC,2011-02-28,8100.0
TJC,2011-03-01,8100.0
TJC,2011-03-02,7600.0
TJC,2011-03-03,7200.0
TJC,2011-03-04,7400.0
TJC,2011-03-07,7400.0
TJC,2011-03-08,7200.0
TJC,2011-03-09,7000.0
TJC,2011-03-10,7600.0
TJC,2011-03-11,8000.0
TJC,2011-03-14,7600.0
TJC,2011-03-15,7300.0
TJC,2011-03-16,7300.0
TJC,2011-03-17,7600.0
TJC,2011-03-18,7800.0
TJC,2011-03-21,7500.0
TJC,2011-03-22,7300.0
TJC,2011-03-23,7400.0
TJC,2011-03-24,7400.0
TJC,2011-03-25,7400.0
TJC,2011-03-28,7400.0
TJC,2011-03-29,7300.0
TJC,2011-03-30,7400.0
TJC,2011-03-31,7100.0
TJC,2011-04-01,7100.0
TJC,2011-04-04,7400.0
TJC,2011-04-05,7200.0
TJC,2011-04-06,7300.0
TJC,2011-04-07,7100.0
TJC,2011-04-08,7200.0
TJC,2011-04-13,7100.0
TJC,2011-04-14,7000.0
TJC,2011-04-15,7100.0
TJC,2011-04-18,6700.0
TJC,2011-04-19,6600.0
TJC,2011-04-20,6600.0
TJC,2011-04-21,6500.0
TJC,2011-04-22,6300.0
TJC,2011-04-25,6600.0
TJC,2011-04-26,6400.0
TJC,2011-04-27,6300.0
TJC,2011-04-28,6100.0
TJC,2011-04-29,6100.0
TJC,2011-05-04,5600.0
TJC,2011-05-05,5500.0
TJC,2011-05-06,5900.0
TJC,2011-05-09,5900.0
TJC,2011-05-10,5700.0
TJC,2011-05-11,6000.0
TJC,2011-05-12,6000.0
TJC,2011-05-13,6000.0
TJC,2011-05-16,6000.0
TJC,2011-05-17,6300.0
TJC,2011-05-18,6000.0
TJC,2011-05-19,5700.0
TJC,2011-05-20,5500.0
TJC,2011-05-23,5300.0
TJC,2011-05-24,5000.0
TJC,2011-05-25,4800.0
TJC,2011-05-26,4500.0
TJC,2011-05-27,4800.0
TJC,2011-05-30,4400.0
TJC,2011-05-31,4800.0
TJC,2011-06-01,5000.0
TJC,2011-06-02,5100.0
TJC,2011-06-03,5100.0
TJC,2011-06-06,5000.0
TJC,2011-06-07,5200.0
TJC,2011-06-08,5000.0
TJC,2011-06-09,5100.0
TJC,2011-06-10,5300.0
TJC,2011-06-13,5700.0
TJC,2011-06-14,5600.0
TJC,2011-06-15,5400.0
TJC,2011-06-16,5800.0
TJC,2011-06-17,5400.0
TJC,2011-06-20,5100.0
TJC,2011-06-21,5100.0
TJC,2011-06-22,5100.0
TJC,2011-06-23,5000.0
TJC,2011-06-24,5100.0
TJC,2011-06-27,5200.0
TJC,2011-06-28,5100.0
TJC,2011-06-29,5100.0
TJC,2011-06-30,4900.0
TJC,2011-07-01,5000.0
TJC,2011-07-04,5100.0
TJC,2011-07-05,5100.0
TJC,2011-07-06,4900.0
TJC,2011-07-07,4600.0
TJC,2011-07-08,5000.0
TJC,2011-07-11,4800.0
TJC,2011-07-12,4900.0
TJC,2011-07-13,4700.0
TJC,2011-07-14,4700.0
TJC,2011-07-15,4700.0
TJC,2011-07-18,4600.0
TJC,2011-07-19,4600.0
TJC,2011-07-20,4600.0
TJC,2011-07-21,4300.0
TJC,2011-07-22,4500.0
TJC,2011-07-25,4300.0
TJC,2011-07-26,4500.0
TJC,2011-07-27,4300.0
TJC,2011-07-28,4300.0
TJC,2011-07-29,4200.0
TJC,2011-08-01,4100.0
TJC,2011-08-02,4100.0
TJC,2011-08-03,4200.0
TJC,2011-08-04,4100.0
TJC,2011-08-05,4000.0
TJC,2011-08-08,4000.0
TJC,2011-08-09,4100.0
TJC,2011-08-10,4100.0
TJC,2011-08-11,4100.0
TJC,2011-08-12,4300.0
TJC,2011-08-15,4400.0
TJC,2011-08-16,4500.0
TJC,2011-08-17,4700.0
TJC,2011-08-18,4800.0
TJC,2011-08-19,4500.0
TJC,2011-08-22,4800.0
TJC,2011-08-23,4600.0
TJC,2011-08-24,4600.0
TJC,2011-08-25,4600.0
TJC,2011-08-26,4800.0
TJC,2011-08-29,4700.0
TJC,2011-08-30,4900.0
TJC,2011-08-31,4600.0
TJC,2011-09-01,5200.0
TJC,2011-09-05,5000.0
TJC,2011-09-06,5000.0
TJC,2011-09-07,5100.0
TJC,2011-09-08,5100.0
TJC,2011-09-09,5000.0
TJC,2011-09-12,5300.0
TJC,2011-09-13,5600.0
TJC,2011-09-14,5600.0
TJC,2011-09-15,5400.0
TJC,2011-09-16,5100.0
TJC,2011-09-19,5400.0
TJC,2011-09-20,5300.0
TJC,2011-09-21,5200.0
TJC,2011-09-22,5300.0
TJC,2011-09-23,5000.0
TJC,2011-09-26,5200.0
TJC,2011-09-27,5100.0
TJC,2011-09-28,4900.0
TJC,2011-09-29,4700.0
TJC,2011-09-30,5000.0
TJC,2011-10-03,4800.0
TJC,2011-10-04,4500.0
TJC,2011-10-05,4800.0
TJC,2011-10-06,5000.0
TJC,2011-10-07,5000.0
TJC,2011-10-10,5000.0
TJC,2011-10-11,5000.0
TJC,2011-10-12,5200.0
TJC,2011-10-13,5200.0
TJC,2011-10-14,5000.0
TJC,2011-10-17,5000.0
TJC,2011-10-18,4900.0
TJC,2011-10-19,4800.0
TJC,2011-10-20,4700.0
TJC,2011-10-21,4500.0
TJC,2011-10-24,4800.0
TJC,2011-10-25,4500.0
TJC,2011-10-26,4500.0
TJC,2011-10-27,4500.0
TJC,2011-10-28,4800.0
TJC,2011-10-31,4800.0
TJC,2011-11-01,4500.0
TJC,2011-11-02,4500.0
TJC,2011-11-03,4200.0
TJC,2011-11-04,4400.0
TJC,2011-11-07,4700.0
TJC,2011-11-08,4700.0
TJC,2011-11-09,4700.0
TJC,2011-11-10,4700.0
TJC,2011-11-11,4700.0
TJC,2011-11-14,4700.0
TJC,2011-11-15,4700.0
TJC,2011-11-16,4600.0
TJC,2011-11-17,4600.0
TJC,2011-11-18,4700.0
TJC,2011-11-21,4700.0
TJC,2011-11-22,4700.0
TJC,2011-11-23,4700.0
TJC,2011-11-24,4700.0
TJC,2011-11-25,4700.0
TJC,2011-11-28,4400.0
TJC,2011-11-29,4400.0
TJC,2011-11-30,4100.0
TJC,2011-12-01,4100.0
TJC,2011-12-02,3900.0
TJC,2011-12-05,3900.0
TJC,2011-12-06,4000.0
TJC,2011-12-07,4000.0
TJC,2011-12-08,4000.0
TJC,2011-12-09,4000.0
TJC,2011-12-12,4000.0
TJC,2011-12-13,4000.0
TJC,2011-12-14,4000.0
TJC,2011-12-15,4000.0
TJC,2011-12-16,3800.0
TJC,2011-12-19,3800.0
TJC,2011-12-20,3600.0
TJC,2011-12-21,3400.0
TJC,2011-12-22,3400.0
TJC,2011-12-23,3200.0
TJC,2011-12-26,3000.0
TJC,2011-12-27,2800.0
TJC,2011-12-28,2900.0
TJC,2011-12-29,2700.0
TJC,2011-12-30,2800.0
TJC,2012-01-03,2900.0
TJC,2012-01-04,2900.0
TJC,2012-01-05,3100.0
TJC,2012-01-06,3100.0
TJC,2012-01-09,3100.0
TJC,2012-01-10,3100.0
TJC,2012-01-11,2900.0
TJC,2012-01-12,2900.0
TJC,2012-01-13,2900.0
TJC,2012-01-16,2700.0
TJC,2012-01-17,2700.0
TJC,2012-01-18,2700.0
TJC,2012-01-19,2700.0
TJC,2012-01-20,2800.0
TJC,2012-01-30,2800.0
TJC,2012-01-31,2900.0
TJC,2012-02-01,3000.0
TJC,2012-02-02,3200.0
TJC,2012-02-03,3400.0
TJC,2012-02-06,3300.0
TJC,2012-02-07,3400.0
TJC,2012-02-08,3400.0
TJC,2012-02-09,3200.0
TJC,2012-02-10,3100.0
TJC,2012-02-13,3000.0
TJC,2012-02-14,3200.0
TJC,2012-02-15,3200.0
TJC,2012-02-16,3200.0
TJC,2012-02-17,3200.0
TJC,2012-02-20,3400.0
TJC,2012-02-21,3200.0
TJC,2012-02-22,3300.0
TJC,2012-02-23,3400.0
TJC,2012-02-24,3500.0
TJC,2012-02-27,3500.0
TJC,2012-02-28,3400.0
TJC,2012-02-29,3400.0
TJC,2012-03-01,3300.0
TJC,2012-03-02,3300.0
TJC,2012-03-05,3700.0
TJC,2012-03-06,3900.0
TJC,2012-03-07,3700.0
TJC,2012-03-08,3700.0
TJC,2012-03-09,3700.0
TJC,2012-03-12,3700.0
TJC,2012-03-13,3900.0
TJC,2012-03-14,3600.0
TJC,2012-03-15,3700.0
TJC,2012-03-16,3400.0
TJC,2012-03-19,3600.0
TJC,2012-03-20,3700.0
TJC,2012-03-21,3800.0
TJC,2012-03-22,3600.0
TJC,2012-03-23,3600.0
TJC,2012-03-26,3800.0
TJC,2012-03-27,3700.0
TJC,2012-03-28,3600.0
TJC,2012-03-29,3600.0
TJC,2012-03-30,3700.0
TJC,2012-04-03,3700.0
TJC,2012-04-04,3500.0
TJC,2012-04-05,3600.0
TJC,2012-04-06,3500.0
TJC,2012-04-09,3700.0
TJC,2012-04-10,3600.0
TJC,2012-04-11,3700.0
TJC,2012-04-12,3500.0
TJC,2012-04-13,3400.0
TJC,2012-04-16,3600.0
TJC,2012-04-17,3700.0
TJC,2012-04-18,3600.0
TJC,2012-04-19,3600.0
TJC,2012-04-20,3700.0
TJC,2012-04-23,3700.0
TJC,2012-04-24,3700.0
TJC,2012-04-25,3900.0
TJC,2012-04-26,3700.0
TJC,2012-04-27,3800.0
TJC,2012-05-02,3800.0
TJC,2012-05-03,3600.0
TJC,2012-05-04,3800.0
TJC,2012-05-07,4000.0
TJC,2012-05-08,4200.0
TJC,2012-05-09,4400.0
TJC,2012-05-10,4700.0
TJC,2012-05-11,4800.0
TJC,2012-05-14,4300.0
TJC,2012-05-15,4300.0
TJC,2012-05-16,3900.0
TJC,2012-05-17,4000.0
TJC,2012-05-18,4000.0
TJC,2012-05-21,4000.0
TJC,2012-05-22,4200.0
TJC,2012-05-23,4200.0
TJC,2012-05-24,4200.0
TJC,2012-05-25,4100.0
TJC,2012-05-28,3800.0
TJC,2012-05-29,3900.0
TJC,2012-05-30,4100.0
TJC,2012-05-31,4300.0
TJC,2012-06-01,4100.0
TJC,2012-06-04,4100.0
TJC,2012-06-05,4000.0
TJC,2012-06-06,4100.0
TJC,2012-06-07,4100.0
TJC,2012-06-08,4100.0
TJC,2012-06-11,4200.0
TJC,2012-06-12,4200.0
TJC,2012-06-13,4200.0
TJC,2012-06-14,4000.0
TJC,2012-06-15,3800.0
TJC,2012-06-18,3700.0
TJC,2012-06-19,3500.0
TJC,2012-06-20,3700.0
TJC,2012-06-21,3800.0
TJC,2012-06-22,3600.0
TJC,2012-06-25,3400.0
TJC,2012-06-26,3400.0
TJC,2012-06-27,3600.0
TJC,2012-06-28,3600.0
TJC,2012-06-29,3600.0
TJC,2012-07-02,3800.0
TJC,2012-07-03,3800.0
TJC,2012-07-04,3800.0
TJC,2012-07-05,3800.0
TJC,2012-07-06,3800.0
TJC,2012-07-09,3800.0
TJC,2012-07-10,3800.0
TJC,2012-07-11,3600.0
TJC,2012-07-12,3600.0
TJC,2012-07-13,3600.0
TJC,2012-07-16,3400.0
TJC,2012-07-17,3600.0
TJC,2012-07-18,3600.0
TJC,2012-07-19,3800.0
TJC,2012-07-20,3600.0
TJC,2012-07-23,3400.0
TJC,2012-07-24,3200.0
TJC,2012-07-25,3200.0
TJC,2012-07-26,3400.0
TJC,2012-07-27,3400.0
TJC,2012-07-30,3600.0
TJC,2012-07-31,3400.0
TJC,2012-08-01,3400.0
TJC,2012-08-02,3400.0
TJC,2012-08-03,3400.0
TJC,2012-08-06,3500.0
TJC,2012-08-07,3500.0
TJC,2012-08-08,3500.0
TJC,2012-08-09,3500.0
TJC,2012-08-10,3300.0
TJC,2012-08-13,3100.0
TJC,2012-08-14,3100.0
TJC,2012-08-15,3100.0
TJC,2012-08-16,3100.0
TJC,2012-08-17,3100.0
TJC,2012-08-20,3100.0
TJC,2012-08-21,3000.0
TJC,2012-08-22,2900.0
TJC,2012-08-23,2900.0
TJC,2012-08-24,2700.0
TJC,2012-08-27,2800.0
TJC,2012-08-28,2700.0
TJC,2012-08-29,2700.0
TJC,2012-08-30,2600.0
TJC,2012-08-31,2700.0
TJC,2012-09-04,2800.0
TJC,2012-09-05,2700.0
TJC,2012-09-06,2700.0
TJC,2012-09-07,2800.0
TJC,2012-09-10,2700.0
TJC,2012-09-11,2600.0
TJC,2012-09-12,2600.0
TJC,2012-09-13,2700.0
TJC,2012-09-14,2800.0
TJC,2012-09-17,2800.0
TJC,2012-09-18,2800.0
TJC,2012-09-19,2800.0
TJC,2012-09-20,2700.0
TJC,2012-09-21,2800.0
TJC,2012-09-24,2900.0
TJC,2012-09-25,2700.0
TJC,2012-09-26,2700.0
TJC,2012-09-27,2700.0
TJC,2012-09-28,2600.0
TJC,2012-10-01,2700.0
TJC,2012-10-02,2700.0
TJC,2012-10-03,2700.0
TJC,2012-10-04,2700.0
TJC,2012-10-05,2700.0
TJC,2012-10-08,2700.0
TJC,2012-10-09,2600.0
TJC,2012-10-10,2500.0
TJC,2012-10-11,2400.0
TJC,2012-10-12,2300.0
TJC,2012-10-15,2400.0
TJC,2012-10-16,2500.0
TJC,2012-10-17,2600.0
TJC,2012-10-18,2600.0
TJC,2012-10-19,2500.0
TJC,2012-10-22,2500.0
TJC,2012-10-23,2500.0
TJC,2012-10-24,2500.0
TJC,2012-10-25,2500.0
TJC,2012-10-26,2500.0
TJC,2012-10-29,2500.0
TJC,2012-10-30,2500.0
TJC,2012-10-31,2500.0
TJC,2012-11-01,2600.0
TJC,2012-11-02,2600.0
TJC,2012-11-05,2500.0
TJC,2012-11-06,2400.0
TJC,2012-11-07,2400.0
TJC,2012-11-08,2300.0
TJC,2012-11-09,2200.0
TJC,2012-11-12,2200.0
TJC,2012-11-13,2200.0
TJC,2012-11-14,2100.0
TJC,2012-11-15,2100.0
TJC,2012-11-16,2100.0
TJC,2012-11-19,2100.0
TJC,2012-11-20,2200.0
TJC,2012-11-21,2100.0
TJC,2012-11-22,2100.0
TJC,2012-11-23,2100.0
TJC,2012-11-26,2000.0
TJC,2012-11-27,2000.0
TJC,2012-11-28,2000.0
TJC,2012-11-29,2100.0
TJC,2012-11-30,2100.0
TJC,2012-12-03,2100.0
TJC,2012-12-04,2100.0
TJC,2012-12-05,2100.0
TJC,2012-12-06,2100.0
TJC,2012-12-07,2200.0
TJC,2012-12-10,2300.0
TJC,2012-12-11,2300.0
TJC,2012-12-12,2400.0
TJC,2012-12-13,2500.0
TJC,2012-12-14,2500.0
TJC,2012-12-17,2500.0
TJC,2012-12-18,2400.0
TJC,2012-12-19,2400.0
TJC,2012-12-20,2300.0
TJC,2012-12-21,2400.0
TJC,2012-12-24,2500.0
TJC,2012-12-25,2500.0
TJC,2012-12-26,2600.0
TJC,2012-12-27,2700.0
TJC,2012-12-28,2800.0
TJC,2013-01-02,2800.0
TJC,2013-01-03,2700.0
TJC,2013-01-04,2800.0
TJC,2013-01-07,2800.0
TJC,2013-01-08,2800.0
TJC,2013-01-09,2700.0
TJC,2013-01-10,2700.0
TJC,2013-01-11,2800.0
TJC,2013-01-14,2700.0
TJC,2013-01-15,2700.0
TJC,2013-01-16,2900.0
TJC,2013-01-17,2800.0
TJC,2013-01-18,2800.0
TJC,2013-01-21,2800.0
TJC,2013-01-22,2800.0
TJC,2013-01-23,2700.0
TJC,2013-01-24,2800.0
TJC,2013-01-25,2800.0
TJC,2013-01-28,2600.0
TJC,2013-01-29,2500.0
TJC,2013-01-30,2700.0
TJC,2013-01-31,2700.0
TJC,2013-02-01,2700.0
TJC,2013-02-04,2700.0
TJC,2013-02-05,2700.0
TJC,2013-02-06,2700.0
TJC,2013-02-07,2700.0
TJC,2013-02-08,2700.0
TJC,2013-02-18,2700.0
TJC,2013-02-19,2800.0
TJC,2013-02-20,2900.0
TJC,2013-02-21,2800.0
TJC,2013-02-22,2800.0
TJC,2013-02-25,2800.0
TJC,2013-02-26,2700.0
TJC,2013-02-27,2700.0
TJC,2013-02-28,2900.0
TJC,2013-03-01,2900.0
TJC,2013-03-04,2900.0
TJC,2013-03-05,2900.0
TJC,2013-03-06,2900.0
TJC,2013-03-07,2700.0
TJC,2013-03-08,2800.0
TJC,2013-03-11,2800.0
TJC,2013-03-12,2800.0
TJC,2013-03-13,2800.0
TJC,2013-03-14,2800.0
TJC,2013-03-15,2800.0
TJC,2013-03-18,2800.0
TJC,2013-03-19,2700.0
TJC,2013-03-20,2800.0
TJC,2013-03-21,2800.0
TJC,2013-03-22,2700.0
TJC,2013-03-25,2700.0
TJC,2013-03-26,2700.0
TJC,2013-03-27,2700.0
TJC,2013-03-28,2700.0
TJC,2013-03-29,2700.0
TJC,2013-04-01,2700.0
TJC,2013-04-02,2600.0
TJC,2013-04-03,2700.0
TJC,2013-04-04,2800.0
TJC,2013-04-05,2800.0
TJC,2013-04-08,2800.0
TJC,2013-04-09,2800.0
TJC,2013-04-10,2800.0
TJC,2013-04-11,2600.0
TJC,2013-04-12,2600.0
TJC,2013-04-15,2600.0
TJC,2013-04-16,2600.0
TJC,2013-04-17,2600.0
TJC,2013-04-18,2600.0
TJC,2013-04-22,2400.0
TJC,2013-04-23,2500.0
TJC,2013-04-24,2500.0
TJC,2013-04-25,2500.0
TJC,2013-04-26,2500.0
TJC,2013-05-02,2500.0
TJC,2013-05-03,2500.0
TJC,2013-05-06,2600.0
TJC,2013-05-07,2600.0
TJC,2013-05-08,2600.0
TJC,2013-05-09,2600.0
TJC,2013-05-10,2600.0
TJC,2013-05-13,2400.0
TJC,2013-05-14,2400.0
TJC,2013-05-15,2400.0
TJC,2013-05-16,2400.0
TJC,2013-05-17,2400.0
TJC,2013-05-20,2400.0
TJC,2013-05-21,2500.0
TJC,2013-05-22,2500.0
TJC,2013-05-23,2500.0
TJC,2013-05-24,2500.0
TJC,2013-05-27,2500.0
TJC,2013-05-28,2300.0
TJC,2013-05-29,2400.0
TJC,2013-05-30,2400.0
TJC,2013-05-31,2500.0
TJC,2013-06-03,2400.0
TJC,2013-06-04,2400.0
TJC,2013-06-05,2400.0
TJC,2013-06-06,2400.0
TJC,2013-06-07,2400.0
TJC,2013-06-10,2300.0
TJC,2013-06-11,2400.0
TJC,2013-06-12,2300.0
TJC,2013-06-13,2400.0
TJC,2013-06-14,2300.0
TJC,2013-06-17,2300.0
TJC,2013-06-18,2300.0
TJC,2013-06-19,2300.0
TJC,2013-06-20,2300.0
TJC,2013-06-21,2400.0
TJC,2013-06-24,2400.0
TJC,2013-06-25,2400.0
TJC,2013-06-26,2400.0
TJC,2013-06-27,2300.0
TJC,2013-06-28,2300.0
TJC,2013-07-01,2400.0
TJC,2013-07-02,2400.0
TJC,2013-07-03,2400.0
TJC,2013-07-04,2400.0
TJC,2013-07-05,2400.0
TJC,2013-07-08,2400.0
TJC,2013-07-09,2400.0
TJC,2013-07-10,2200.0
TJC,2013-07-11,2200.0
TJC,2013-07-12,2200.0
TJC,2013-07-15,2400.0
TJC,2013-07-16,2300.0
TJC,2013-07-17,2400.0
TJC,2013-07-18,2400.0
TJC,2013-07-19,2400.0
TJC,2013-07-22,2300.0
TJC,2013-07-23,2200.0
TJC,2013-07-24,2400.0
TJC,2013-07-25,2400.0
TJC,2013-07-26,2400.0
TJC,2013-07-29,2400.0
TJC,2013-07-30,2400.0
TJC,2013-07-31,2400.0
TJC,2013-08-01,2400.0
TJC,2013-08-02,2400.0
TJC,2013-08-05,2400.0
TJC,2013-08-06,2400.0
TJC,2013-08-07,2400.0
TJC,2013-08-08,2400.0
TJC,2013-08-09,2400.0
TJC,2013-08-12,2400.0
TJC,2013-08-13,2400.0
TJC,2013-08-14,2400.0
TJC,2013-08-15,2400.0
TJC,2013-08-16,2400.0
TJC,2013-08-19,2200.0
TJC,2013-08-20,2200.0
TJC,2013-08-21,2200.0
TJC,2013-08-22,2200.0
TJC,2013-08-23,2200.0
TJC,2013-08-26,2200.0
TJC,2013-08-27,2000.0
TJC,2013-08-28,2000.0
TJC,2013-08-29,2000.0
TJC,2013-08-30,2200.0
TJC,2013-09-03,2200.0
TJC,2013-09-04,2200.0
TJC,2013-09-05,2200.0
TJC,2013-09-06,2200.0
TJC,2013-09-09,2200.0
TJC,2013-09-10,2200.0
TJC,2013-09-11,2200.0
TJC,2013-09-12,2200.0
TJC,2013-09-13,2000.0
TJC,2013-09-16,2000.0
TJC,2013-09-17,2200.0
TJC,2013-09-18,2200.0
TJC,2013-09-19,2200.0
TJC,2013-09-20,2200.0
TJC,2013-09-23,2200.0
TJC,2013-09-24,2200.0
TJC,2013-09-25,2200.0
TJC,2013-09-26,2200.0
TJC,2013-09-27,2200.0
TJC,2013-09-30,2200.0
TJC,2013-10-01,2200.0
TJC,2013-10-02,2100.0
TJC,2013-10-03,2100.0
TJC,2013-10-04,2300.0
TJC,2013-10-07,2500.0
TJC,2013-10-08,2600.0
TJC,2013-10-09,2800.0
TJC,2013-10-10,2600.0
TJC,2013-10-11,2600.0
TJC,2013-10-14,2600.0
TJC,2013-10-15,2600.0
TJC,2013-10-16,2800.0
TJC,2013-10-17,3000.0
TJC,2013-10-18,3000.0
TJC,2013-10-21,3000.0
TJC,2013-10-22,2900.0
TJC,2013-10-23,2900.0
TJC,2013-10-24,2900.0
TJC,2013-10-25,2900.0
TJC,2013-10-28,2900.0
TJC,2013-10-29,2900.0
TJC,2013-10-30,2900.0
TJC,2013-10-31,2900.0
TJC,2013-11-01,2800.0
TJC,2013-11-04,2700.0
TJC,2013-11-05,2900.0
TJC,2013-11-06,2800.0
TJC,2013-11-07,2800.0
TJC,2013-11-08,2900.0
TJC,2013-11-11,2900.0
TJC,2013-11-12,3000.0
TJC,2013-11-13,3100.0
TJC,2013-11-14,3000.0
TJC,2013-11-15,3000.0
TJC,2013-11-18,3100.0
TJC,2013-11-19,3400.0
TJC,2013-11-20,3700.0
TJC,2013-11-21,4000.0
TJC,2013-11-22,3600.0
TJC,2013-11-25,3900.0
TJC,2013-11-26,4100.0
TJC,2013-11-27,4500.0
TJC,2013-11-28,4900.0
TJC,2013-11-29,5000.0
TJC,2013-12-02,4500.0
TJC,2013-12-03,4800.0
TJC,2013-12-04,4800.0
TJC,2013-12-05,4800.0
TJC,2013-12-06,4800.0
TJC,2013-12-09,4800.0
TJC,2013-12-10,4700.0
TJC,2013-12-11,4700.0
TJC,2013-12-12,4700.0
TJC,2013-12-13,4500.0
TJC,2013-12-16,4800.0
TJC,2013-12-17,4800.0
TJC,2013-12-18,4600.0
TJC,2013-12-19,4500.0
TJC,2013-12-20,4200.0
TJC,2013-12-23,3900.0
TJC,2013-12-24,4100.0
TJC,2013-12-25,4200.0
TJC,2013-12-26,4200.0
TJC,2013-12-27,3800.0
TJC,2013-12-30,4000.0
TJC,2013-12-31,4200.0
TJC,2014-01-02,4200.0
TJC,2014-01-03,4400.0
TJC,2014-01-06,4500.0
TJC,2014-01-07,4400.0
TJC,2014-01-08,4400.0
TJC,2014-01-09,4600.0
TJC,2014-01-10,4800.0
TJC,2014-01-13,4700.0
TJC,2014-01-14,4800.0
TJC,2014-01-15,4800.0
TJC,2014-01-16,4400.0
TJC,2014-01-17,4500.0
TJC,2014-01-20,4500.0
TJC,2014-01-21,4400.0
TJC,2014-01-22,4300.0
TJC,2014-01-23,4400.0
TJC,2014-01-24,4500.0
TJC,2014-01-27,4700.0
TJC,2014-02-06,4700.0
TJC,2014-02-07,4600.0
TJC,2014-02-10,5000.0
TJC,2014-02-11,5200.0
TJC,2014-02-12,4900.0
TJC,2014-02-13,5000.0
TJC,2014-02-14,4900.0
TJC,2014-02-17,5000.0
TJC,2014-02-18,5400.0
TJC,2014-02-19,5400.0
TJC,2014-02-20,5200.0
TJC,2014-02-21,5200.0
TJC,2014-02-24,4800.0
TJC,2014-02-25,4900.0
TJC,2014-02-26,5000.0
TJC,2014-02-27,5000.0
TJC,2014-02-28,5000.0
TJC,2014-03-03,5000.0
TJC,2014-03-04,5000.0
TJC,2014-03-05,5500.0
TJC,2014-03-06,5300.0
TJC,2014-03-07,5600.0
TJC,2014-03-10,5700.0
TJC,2014-03-11,6000.0
TJC,2014-03-12,6100.0
TJC,2014-03-13,6400.0
TJC,2014-03-14,6600.0
TJC,2014-03-17,7200.0
TJC,2014-03-18,7000.0
TJC,2014-03-19,7500.0
TJC,2014-03-20,7500.0
TJC,2014-03-21,8000.0
TJC,2014-03-24,8600.0
TJC,2014-03-25,8000.0
TJC,2014-03-26,7400.0
TJC,2014-03-27,7400.0
TJC,2014-03-28,7700.0
TJC,2014-03-31,7200.0
TJC,2014-04-01,7400.0
TJC,2014-04-02,7000.0
TJC,2014-04-03,7200.0
TJC,2014-04-04,7200.0
TJC,2014-04-07,7200.0
TJC,2014-04-08,7200.0
TJC,2014-04-10,7200.0
TJC,2014-04-11,7400.0
TJC,2014-04-14,7300.0
TJC,2014-04-15,7100.0
TJC,2014-04-16,6800.0
TJC,2014-04-17,6800.0
TJC,2014-04-18,6700.0
TJC,2014-04-21,6400.0
TJC,2014-04-22,7000.0
TJC,2014-04-23,7400.0
TJC,2014-04-24,7200.0
TJC,2014-04-25,7300.0
TJC,2014-04-28,7200.0
TJC,2014-04-29,7100.0
TJC,2014-05-05,7100.0
TJC,2014-05-06,6500.0
TJC,2014-05-07,6400.0
TJC,2014-05-08,5800.0
TJC,2014-05-09,6100.0
TJC,2014-05-12,5500.0
TJC,2014-05-13,5300.0
TJC,2014-05-14,5700.0
TJC,2014-05-15,5200.0
TJC,2014-05-16,5600.0
TJC,2014-05-19,5700.0
TJC,2014-05-20,5400.0
TJC,2014-05-21,5900.0
