TMC,2006-12-26,13900.0
TMC,2006-12-27,13200.0
TMC,2006-12-28,12600.0
TMC,2006-12-29,12100.0
TMC,2007-01-02,11500.0
TMC,2007-01-03,10900.0
TMC,2007-01-04,10400.0
TMC,2007-01-05,10800.0
TMC,2007-01-08,11400.0
TMC,2007-01-09,11800.0
TMC,2007-01-10,11400.0
TMC,2007-01-11,11300.0
TMC,2007-01-12,11500.0
TMC,2007-01-15,11000.0
TMC,2007-01-16,11100.0
TMC,2007-01-17,10600.0
TMC,2007-01-18,11100.0
TMC,2007-01-19,10800.0
TMC,2007-01-22,10600.0
TMC,2007-01-23,10300.0
TMC,2007-01-24,10300.0
TMC,2007-01-25,10600.0
TMC,2007-01-26,11100.0
TMC,2007-01-29,11300.0
TMC,2007-01-30,11300.0
TMC,2007-01-31,11500.0
TMC,2007-02-01,11500.0
TMC,2007-02-02,12000.0
TMC,2007-02-05,12600.0
TMC,2007-02-06,13200.0
TMC,2007-02-07,12800.0
TMC,2007-02-08,13400.0
TMC,2007-02-09,13400.0
TMC,2007-02-12,14000.0
TMC,2007-02-13,14600.0
TMC,2007-02-14,15300.0
TMC,2007-02-15,16000.0
TMC,2007-02-26,16700.0
TMC,2007-02-27,17600.0
TMC,2007-02-28,16700.0
TMC,2007-03-01,16300.0
TMC,2007-03-02,16000.0
TMC,2007-03-05,16700.0
TMC,2007-03-06,17400.0
TMC,2007-03-07,18100.0
TMC,2007-03-08,18700.0
TMC,2007-03-09,18900.0
TMC,2007-03-12,18000.0
TMC,2007-03-13,18900.0
TMC,2007-03-14,18400.0
TMC,2007-03-15,17600.0
TMC,2007-03-16,17600.0
TMC,2007-03-19,18400.0
TMC,2007-03-20,18100.0
TMC,2007-03-21,17400.0
TMC,2007-03-22,16600.0
TMC,2007-03-23,15900.0
TMC,2007-03-26,16300.0
TMC,2007-03-27,16000.0
TMC,2007-03-28,15300.0
TMC,2007-03-29,16000.0
TMC,2007-03-30,16500.0
TMC,2007-04-02,16000.0
TMC,2007-04-03,15300.0
TMC,2007-04-04,15700.0
TMC,2007-04-05,16000.0
TMC,2007-04-06,15700.0
TMC,2007-04-09,15300.0
TMC,2007-04-10,15000.0
TMC,2007-04-11,14800.0
TMC,2007-04-12,14100.0
TMC,2007-04-13,13400.0
TMC,2007-04-16,12800.0
TMC,2007-04-17,12300.0
TMC,2007-04-18,12700.0
TMC,2007-04-19,13300.0
TMC,2007-04-20,12800.0
TMC,2007-04-23,12300.0
TMC,2007-04-24,11800.0
TMC,2007-04-25,12300.0
TMC,2007-05-02,12800.0
TMC,2007-05-03,13100.0
TMC,2007-05-04,13000.0
TMC,2007-05-07,13000.0
TMC,2007-05-08,13300.0
TMC,2007-05-09,13400.0
TMC,2007-05-10,13200.0
TMC,2007-05-11,13200.0
TMC,2007-05-14,13800.0
TMC,2007-05-15,14400.0
TMC,2007-05-16,14600.0
TMC,2007-05-17,14600.0
TMC,2007-05-18,14600.0
TMC,2007-05-21,15300.0
TMC,2007-05-22,16000.0
TMC,2007-05-23,16500.0
TMC,2007-05-24,15700.0
TMC,2007-05-25,16300.0
TMC,2007-05-28,16500.0
TMC,2007-05-29,16500.0
TMC,2007-05-30,16300.0
TMC,2007-05-31,17000.0
TMC,2007-06-01,17800.0
TMC,2007-06-04,18600.0
TMC,2007-06-05,17800.0
TMC,2007-06-06,17400.0
TMC,2007-06-07,17700.0
TMC,2007-06-08,18500.0
TMC,2007-06-11,17700.0
TMC,2007-06-12,17900.0
TMC,2007-06-13,18600.0
TMC,2007-06-14,18100.0
TMC,2007-06-15,17700.0
TMC,2007-06-18,17200.0
TMC,2007-06-19,17200.0
TMC,2007-06-20,17700.0
TMC,2007-06-21,17300.0
TMC,2007-06-22,16800.0
TMC,2007-06-25,17100.0
TMC,2007-06-26,16500.0
TMC,2007-06-27,15600.0
TMC,2007-06-28,15200.0
TMC,2007-06-29,15300.0
TMC,2007-07-02,14700.0
TMC,2007-07-03,14200.0
TMC,2007-07-04,14300.0
TMC,2007-07-05,14300.0
TMC,2007-07-06,14900.0
TMC,2007-07-09,15600.0
TMC,2007-07-10,16300.0
TMC,2007-07-11,16500.0
TMC,2007-07-12,16100.0
TMC,2007-07-13,16100.0
TMC,2007-07-16,16100.0
TMC,2007-07-17,16600.0
TMC,2007-07-18,16600.0
TMC,2007-07-19,16600.0
TMC,2007-07-20,16600.0
TMC,2007-07-23,16600.0
TMC,2007-07-24,16500.0
TMC,2007-07-25,16100.0
TMC,2007-07-26,15700.0
TMC,2007-07-27,15500.0
TMC,2007-07-30,15300.0
TMC,2007-07-31,15200.0
TMC,2007-08-01,15800.0
TMC,2007-08-02,15500.0
TMC,2007-08-03,15200.0
TMC,2007-08-06,15000.0
TMC,2007-08-07,15200.0
TMC,2007-08-08,15000.0
TMC,2007-08-09,15300.0
TMC,2007-08-10,15300.0
TMC,2007-08-13,15000.0
TMC,2007-08-14,15200.0
TMC,2007-08-15,15300.0
TMC,2007-08-16,15200.0
TMC,2007-08-17,14900.0
TMC,2007-08-20,14900.0
TMC,2007-08-21,14900.0
TMC,2007-08-22,14700.0
TMC,2007-08-23,14900.0
TMC,2007-08-24,14900.0
TMC,2007-08-27,15000.0
TMC,2007-08-28,15000.0
TMC,2007-08-29,14900.0
TMC,2007-08-30,15000.0
TMC,2007-08-31,15000.0
TMC,2007-09-04,15200.0
TMC,2007-09-05,15600.0
TMC,2007-09-06,15700.0
TMC,2007-09-07,15800.0
TMC,2007-09-10,16000.0
TMC,2007-09-11,15800.0
TMC,2007-09-12,15800.0
TMC,2007-09-13,15700.0
TMC,2007-09-14,15300.0
TMC,2007-09-17,15300.0
TMC,2007-09-18,15700.0
TMC,2007-09-19,15700.0
TMC,2007-09-20,16000.0
TMC,2007-09-21,16000.0
TMC,2007-09-24,16600.0
TMC,2007-09-25,16900.0
TMC,2007-09-26,17700.0
TMC,2007-09-27,17100.0
TMC,2007-09-28,16900.0
TMC,2007-10-01,17200.0
TMC,2007-10-02,17200.0
TMC,2007-10-03,17200.0
TMC,2007-10-04,16800.0
TMC,2007-10-05,17200.0
TMC,2007-10-08,16800.0
TMC,2007-10-09,17400.0
TMC,2007-10-10,17400.0
TMC,2007-10-11,17400.0
TMC,2007-10-12,18200.0
TMC,2007-10-15,19000.0
TMC,2007-10-16,19900.0
TMC,2007-10-17,19300.0
TMC,2007-10-18,19000.0
TMC,2007-10-19,19000.0
TMC,2007-10-22,18500.0
TMC,2007-10-23,18500.0
TMC,2007-10-24,18500.0
TMC,2007-10-25,19000.0
TMC,2007-10-26,19900.0
TMC,2007-10-29,19500.0
TMC,2007-10-30,19600.0
TMC,2007-10-31,19600.0
TMC,2007-11-01,19600.0
TMC,2007-11-02,19600.0
TMC,2007-11-05,18800.0
TMC,2007-11-06,18200.0
TMC,2007-11-07,18000.0
TMC,2007-11-08,18800.0
TMC,2007-11-09,19100.0
TMC,2007-11-12,18200.0
TMC,2007-11-13,17400.0
TMC,2007-11-14,18200.0
TMC,2007-11-15,18200.0
TMC,2007-11-16,17900.0
TMC,2007-11-19,17900.0
TMC,2007-11-20,18000.0
TMC,2007-11-21,17700.0
TMC,2007-11-22,17700.0
TMC,2007-11-23,17600.0
TMC,2007-11-26,17700.0
TMC,2007-11-27,17700.0
TMC,2007-11-28,17600.0
TMC,2007-11-29,17700.0
TMC,2007-11-30,17600.0
TMC,2007-12-03,17400.0
TMC,2007-12-04,17400.0
TMC,2007-12-05,17100.0
TMC,2007-12-06,17900.0
TMC,2007-12-07,17700.0
TMC,2007-12-10,17100.0
TMC,2007-12-11,16600.0
TMC,2007-12-12,16600.0
TMC,2007-12-13,16500.0
TMC,2007-12-14,16300.0
TMC,2007-12-17,15500.0
TMC,2007-12-18,16000.0
TMC,2007-12-19,16600.0
TMC,2007-12-20,16100.0
TMC,2007-12-21,16100.0
TMC,2007-12-24,16500.0
TMC,2007-12-25,16300.0
TMC,2007-12-26,16500.0
TMC,2007-12-27,16500.0
TMC,2007-12-28,16500.0
TMC,2008-01-02,16500.0
TMC,2008-01-03,16500.0
TMC,2008-01-04,15800.0
TMC,2008-01-07,15700.0
TMC,2008-01-08,15800.0
TMC,2008-01-09,15500.0
TMC,2008-01-10,15700.0
TMC,2008-01-11,15800.0
TMC,2008-01-14,15000.0
TMC,2008-01-15,14300.0
TMC,2008-01-16,15000.0
TMC,2008-01-17,15200.0
TMC,2008-01-18,15000.0
TMC,2008-01-21,15500.0
TMC,2008-01-22,15300.0
TMC,2008-01-23,14600.0
TMC,2008-01-24,14600.0
TMC,2008-01-25,15000.0
TMC,2008-01-28,15000.0
TMC,2008-01-29,15000.0
TMC,2008-01-30,15800.0
TMC,2008-01-31,15700.0
TMC,2008-02-01,16300.0
TMC,2008-02-12,16000.0
TMC,2008-02-13,15700.0
TMC,2008-02-14,16100.0
TMC,2008-02-15,16000.0
TMC,2008-02-18,15300.0
TMC,2008-02-19,15800.0
TMC,2008-02-20,15000.0
TMC,2008-02-21,14300.0
TMC,2008-02-22,13600.0
TMC,2008-02-25,13600.0
TMC,2008-02-26,13000.0
TMC,2008-02-27,12700.0
TMC,2008-02-28,12500.0
TMC,2008-02-29,12200.0
TMC,2008-03-03,11600.0
TMC,2008-03-04,11000.0
TMC,2008-03-05,10500.0
TMC,2008-03-06,11000.0
TMC,2008-03-07,11500.0
TMC,2008-03-10,11000.0
TMC,2008-03-11,11000.0
TMC,2008-03-12,10500.0
TMC,2008-03-13,11000.0
TMC,2008-03-14,10800.0
TMC,2008-03-17,10200.0
TMC,2008-03-18,9700.0
TMC,2008-03-19,9300.0
TMC,2008-03-20,9200.0
TMC,2008-03-21,9000.0
TMC,2008-03-24,8600.0
TMC,2008-03-25,8200.0
TMC,2008-03-26,8200.0
TMC,2008-03-27,8300.0
TMC,2008-03-28,8400.0
TMC,2008-03-31,8400.0
TMC,2008-04-01,8500.0
TMC,2008-04-02,8500.0
TMC,2008-04-03,8600.0
TMC,2008-04-04,8700.0
TMC,2008-04-07,8800.0
TMC,2008-04-08,8900.0
TMC,2008-04-09,8700.0
TMC,2008-04-10,8500.0
TMC,2008-04-11,8400.0
TMC,2008-04-16,8200.0
TMC,2008-04-17,8400.0
TMC,2008-04-18,8400.0
TMC,2008-04-21,8500.0
TMC,2008-04-22,8700.0
TMC,2008-04-23,8500.0
TMC,2008-04-24,8600.0
TMC,2008-04-25,8600.0
TMC,2008-04-28,8700.0
TMC,2008-04-29,8700.0
TMC,2008-05-05,8900.0
TMC,2008-05-06,9100.0
TMC,2008-05-07,8900.0
TMC,2008-05-08,8700.0
TMC,2008-05-09,8600.0
TMC,2008-05-12,8400.0
TMC,2008-05-13,8200.0
TMC,2008-05-14,8100.0
TMC,2008-05-15,8000.0
TMC,2008-05-16,7800.0
TMC,2008-05-19,7700.0
TMC,2008-05-20,7600.0
TMC,2008-05-21,7400.0
TMC,2008-05-22,7300.0
TMC,2008-05-23,7200.0
TMC,2008-05-26,7000.0
TMC,2008-05-30,6900.0
TMC,2008-06-02,6800.0
TMC,2008-06-03,6600.0
TMC,2008-06-04,6500.0
TMC,2008-06-05,6400.0
TMC,2008-06-06,6300.0
TMC,2008-06-09,6200.0
TMC,2008-06-10,6100.0
TMC,2008-06-11,6200.0
TMC,2008-06-12,6300.0
TMC,2008-06-13,6400.0
TMC,2008-06-16,6500.0
TMC,2008-06-17,6600.0
TMC,2008-06-18,6500.0
TMC,2008-06-19,6300.0
TMC,2008-06-20,6400.0
TMC,2008-06-23,6500.0
TMC,2008-06-24,6700.0
TMC,2008-06-25,6900.0
TMC,2008-06-26,6800.0
TMC,2008-06-27,7000.0
TMC,2008-06-30,7000.0
TMC,2008-07-01,7200.0
TMC,2008-07-02,7400.0
TMC,2008-07-03,7600.0
TMC,2008-07-04,7800.0
TMC,2008-07-07,7600.0
TMC,2008-07-08,7800.0
TMC,2008-07-09,8000.0
TMC,2008-07-10,8300.0
TMC,2008-07-11,8500.0
TMC,2008-07-14,8700.0
TMC,2008-07-15,9000.0
TMC,2008-07-16,9200.0
TMC,2008-07-17,9500.0
TMC,2008-07-18,9700.0
TMC,2008-07-21,9500.0
TMC,2008-07-22,9200.0
TMC,2008-07-23,8900.0
TMC,2008-07-24,8700.0
TMC,2008-07-25,8700.0
TMC,2008-07-28,8900.0
TMC,2008-07-29,9200.0
TMC,2008-07-30,9500.0
TMC,2008-07-31,9700.0
TMC,2008-08-01,10000.0
TMC,2008-08-04,10300.0
TMC,2008-08-05,10000.0
TMC,2008-08-06,10200.0
TMC,2008-08-07,10000.0
TMC,2008-08-08,9800.0
TMC,2008-08-11,10000.0
TMC,2008-08-12,9900.0
TMC,2008-08-13,10100.0
TMC,2008-08-14,10400.0
TMC,2008-08-15,10700.0
TMC,2008-08-18,11200.0
TMC,2008-08-19,11200.0
TMC,2008-08-20,11500.0
TMC,2008-08-21,11900.0
TMC,2008-08-22,11600.0
TMC,2008-08-25,12200.0
TMC,2008-08-26,12600.0
TMC,2008-08-27,12600.0
TMC,2008-08-28,12000.0
TMC,2008-08-29,12600.0
TMC,2008-09-03,13200.0
TMC,2008-09-04,13900.0
TMC,2008-09-05,14500.0
TMC,2008-09-08,13800.0
TMC,2008-09-09,13100.0
TMC,2008-09-10,12500.0
TMC,2008-09-11,11900.0
TMC,2008-09-12,11300.0
TMC,2008-09-15,11400.0
TMC,2008-09-16,10900.0
TMC,2008-09-17,10400.0
TMC,2008-09-18,9900.0
TMC,2008-09-19,10300.0
TMC,2008-09-22,10900.0
TMC,2008-09-23,10900.0
TMC,2008-09-24,11300.0
TMC,2008-09-25,11600.0
TMC,2008-09-26,12100.0
TMC,2008-09-29,11600.0
TMC,2008-09-30,11100.0
TMC,2008-10-01,11600.0
TMC,2008-10-02,12200.0
TMC,2008-10-03,12600.0
TMC,2008-10-06,12000.0
TMC,2008-10-07,11400.0
TMC,2008-10-08,10900.0
TMC,2008-10-09,10300.0
TMC,2008-10-10,9800.0
TMC,2008-10-13,9400.0
TMC,2008-10-14,9800.0
TMC,2008-10-15,10300.0
TMC,2008-10-16,10500.0
TMC,2008-10-17,10900.0
TMC,2008-10-20,10400.0
TMC,2008-10-21,10000.0
TMC,2008-10-22,10000.0
TMC,2008-10-23,9600.0
TMC,2008-10-24,9500.0
TMC,2008-10-27,9100.0
TMC,2008-10-28,8600.0
TMC,2008-10-29,9000.0
TMC,2008-10-30,8900.0
TMC,2008-10-31,8800.0
TMC,2008-11-03,9000.0
TMC,2008-11-04,9100.0
TMC,2008-11-05,9600.0
TMC,2008-11-06,9100.0
TMC,2008-11-07,8700.0
TMC,2008-11-10,9000.0
TMC,2008-11-11,8800.0
TMC,2008-11-12,8400.0
TMC,2008-11-13,8100.0
TMC,2008-11-14,8500.0
TMC,2008-11-17,8000.0
TMC,2008-11-18,8200.0
TMC,2008-11-19,8300.0
TMC,2008-11-20,8100.0
TMC,2008-11-21,8400.0
TMC,2008-11-24,8000.0
TMC,2008-11-25,8100.0
TMC,2008-11-26,7700.0
TMC,2008-11-27,7400.0
TMC,2008-11-28,7800.0
TMC,2008-12-01,7800.0
TMC,2008-12-02,7400.0
TMC,2008-12-03,7700.0
TMC,2008-12-04,7300.0
TMC,2008-12-05,7200.0
TMC,2008-12-08,6800.0
TMC,2008-12-09,6700.0
TMC,2008-12-10,6700.0
TMC,2008-12-11,7000.0
TMC,2008-12-12,7400.0
TMC,2008-12-15,7700.0
TMC,2008-12-16,7400.0
TMC,2008-12-17,7700.0
TMC,2008-12-18,7600.0
TMC,2008-12-19,7300.0
TMC,2008-12-22,7200.0
TMC,2008-12-23,6900.0
TMC,2008-12-24,7000.0
TMC,2008-12-25,7000.0
TMC,2008-12-26,7200.0
TMC,2008-12-29,7400.0
TMC,2008-12-30,7700.0
TMC,2008-12-31,7700.0
TMC,2009-01-02,7700.0
TMC,2009-01-05,7700.0
TMC,2009-01-06,7500.0
TMC,2009-01-07,7500.0
TMC,2009-01-08,7500.0
TMC,2009-01-09,7400.0
TMC,2009-01-12,7500.0
TMC,2009-01-13,7500.0
TMC,2009-01-14,7500.0
TMC,2009-01-15,7800.0
TMC,2009-01-16,7900.0
TMC,2009-01-19,7700.0
TMC,2009-01-20,7400.0
TMC,2009-01-21,7700.0
TMC,2009-01-22,7500.0
TMC,2009-01-23,7700.0
TMC,2009-02-02,7700.0
TMC,2009-02-03,7400.0
TMC,2009-02-04,7400.0
TMC,2009-02-05,7400.0
TMC,2009-02-06,7600.0
TMC,2009-02-09,7900.0
TMC,2009-02-10,7600.0
TMC,2009-02-11,7500.0
TMC,2009-02-12,7500.0
TMC,2009-02-13,7400.0
TMC,2009-02-16,7500.0
TMC,2009-02-17,7300.0
TMC,2009-02-18,7000.0
TMC,2009-02-19,7000.0
TMC,2009-02-20,6800.0
TMC,2009-02-23,6700.0
TMC,2009-02-24,6900.0
TMC,2009-02-25,7200.0
TMC,2009-02-26,7300.0
TMC,2009-02-27,7300.0
TMC,2009-03-02,7000.0
TMC,2009-03-03,7400.0
TMC,2009-03-04,7500.0
TMC,2009-03-05,7500.0
TMC,2009-03-06,7400.0
TMC,2009-03-09,7300.0
TMC,2009-03-10,7400.0
TMC,2009-03-11,7500.0
TMC,2009-03-12,7200.0
TMC,2009-03-13,7100.0
TMC,2009-03-16,7400.0
TMC,2009-03-17,7700.0
TMC,2009-03-18,7900.0
TMC,2009-03-19,7800.0
TMC,2009-03-20,7500.0
TMC,2009-03-23,7500.0
TMC,2009-03-24,7700.0
TMC,2009-03-25,7900.0
TMC,2009-03-26,7800.0
TMC,2009-03-27,7800.0
TMC,2009-03-30,8100.0
TMC,2009-03-31,8500.0
TMC,2009-04-01,8900.0
TMC,2009-04-02,9300.0
TMC,2009-04-03,9700.0
TMC,2009-04-07,10000.0
TMC,2009-04-08,10200.0
TMC,2009-04-09,10200.0
TMC,2009-04-10,10400.0
TMC,2009-04-13,10700.0
TMC,2009-04-14,10700.0
TMC,2009-04-15,10100.0
TMC,2009-04-16,9800.0
TMC,2009-04-17,9300.0
TMC,2009-04-20,8900.0
TMC,2009-04-21,8500.0
TMC,2009-04-22,8800.0
TMC,2009-04-23,9200.0
TMC,2009-04-24,9200.0
TMC,2009-04-27,9700.0
TMC,2009-04-28,9800.0
TMC,2009-04-29,10000.0
TMC,2009-05-04,10500.0
TMC,2009-05-05,10700.0
TMC,2009-05-06,10600.0
TMC,2009-05-07,10900.0
TMC,2009-05-08,10700.0
TMC,2009-05-11,10700.0
TMC,2009-05-12,10900.0
TMC,2009-05-13,11100.0
TMC,2009-05-14,11200.0
TMC,2009-05-15,11300.0
TMC,2009-05-18,10700.0
TMC,2009-05-19,10800.0
TMC,2009-05-20,10800.0
TMC,2009-05-21,10600.0
TMC,2009-05-22,10600.0
TMC,2009-05-25,10700.0
TMC,2009-05-26,10400.0
TMC,2009-05-27,10500.0
TMC,2009-05-28,10500.0
TMC,2009-06-08,11200.0
TMC,2009-06-09,12000.0
TMC,2009-06-10,12800.0
TMC,2009-06-11,13700.0
TMC,2009-06-12,13800.0
TMC,2009-06-15,13100.0
TMC,2009-06-16,12200.0
TMC,2009-06-17,12000.0
TMC,2009-06-18,12200.0
TMC,2009-06-19,11100.0
TMC,2009-06-22,11300.0
TMC,2009-06-23,11500.0
TMC,2009-06-24,11500.0
TMC,2009-06-25,11700.0
TMC,2009-06-26,11800.0
TMC,2009-06-29,11900.0
TMC,2009-06-30,11200.0
TMC,2009-07-01,11300.0
TMC,2009-07-02,11600.0
TMC,2009-07-03,11100.0
TMC,2009-07-06,11500.0
TMC,2009-07-07,11400.0
TMC,2009-07-08,12000.0
TMC,2009-07-09,12000.0
TMC,2009-07-10,12000.0
TMC,2009-07-13,12000.0
TMC,2009-07-14,12000.0
TMC,2009-07-15,12400.0
TMC,2009-07-16,12300.0
TMC,2009-07-17,12400.0
TMC,2009-07-20,12200.0
TMC,2009-07-21,12400.0
TMC,2009-07-22,12400.0
TMC,2009-07-23,12600.0
TMC,2009-07-24,13000.0
TMC,2009-07-27,13100.0
TMC,2009-07-28,12900.0
TMC,2009-07-29,12800.0
TMC,2009-07-30,12700.0
TMC,2009-07-31,13100.0
TMC,2009-08-03,13100.0
TMC,2009-08-04,13200.0
TMC,2009-08-05,13200.0
TMC,2009-08-06,13200.0
TMC,2009-08-07,13100.0
TMC,2009-08-10,13500.0
TMC,2009-08-11,13800.0
TMC,2009-08-12,13800.0
TMC,2009-08-13,13500.0
TMC,2009-08-14,13300.0
TMC,2009-08-17,12700.0
TMC,2009-08-18,13100.0
TMC,2009-08-19,13700.0
TMC,2009-08-20,13700.0
TMC,2009-08-21,13700.0
TMC,2009-08-24,13800.0
TMC,2009-08-25,13800.0
TMC,2009-08-26,14400.0
TMC,2009-08-27,14700.0
TMC,2009-08-28,15800.0
TMC,2009-08-31,16800.0
TMC,2009-09-01,18000.0
TMC,2009-09-03,19200.0
TMC,2009-09-04,20500.0
TMC,2009-09-07,19100.0
TMC,2009-09-08,18900.0
TMC,2009-09-09,18600.0
TMC,2009-09-10,18300.0
TMC,2009-09-11,19300.0
TMC,2009-09-14,20000.0
TMC,2009-09-15,19700.0
TMC,2009-09-16,19500.0
TMC,2009-09-17,19200.0
TMC,2009-09-18,19200.0
TMC,2009-09-21,20500.0
TMC,2009-09-22,21500.0
TMC,2009-09-23,21200.0
TMC,2009-09-24,20700.0
TMC,2009-09-25,20700.0
TMC,2009-09-28,20700.0
TMC,2009-09-29,20100.0
TMC,2009-09-30,19900.0
TMC,2009-10-01,21200.0
TMC,2009-10-02,20300.0
TMC,2009-10-05,19700.0
TMC,2009-10-06,19700.0
TMC,2009-10-07,20000.0
TMC,2009-10-08,20200.0
TMC,2009-10-09,20200.0
TMC,2009-10-12,21500.0
TMC,2009-10-13,21300.0
TMC,2009-10-14,21100.0
TMC,2009-10-15,21300.0
TMC,2009-10-16,21100.0
TMC,2009-10-19,22100.0
TMC,2009-10-20,22400.0
TMC,2009-10-21,22100.0
TMC,2009-10-22,23100.0
TMC,2009-10-23,21500.0
TMC,2009-10-26,22100.0
TMC,2009-10-27,21700.0
TMC,2009-10-28,21500.0
TMC,2009-10-29,21100.0
TMC,2009-10-30,21700.0
TMC,2009-11-02,20400.0
TMC,2009-11-03,19900.0
TMC,2009-11-04,18900.0
TMC,2009-11-05,19700.0
TMC,2009-11-06,19500.0
TMC,2009-11-09,18100.0
TMC,2009-11-10,18000.0
TMC,2009-11-11,18900.0
TMC,2009-11-12,18900.0
TMC,2009-11-13,19300.0
TMC,2009-11-16,19100.0
TMC,2009-11-17,18900.0
TMC,2009-11-18,19300.0
TMC,2009-11-19,19900.0
TMC,2009-11-20,20400.0
TMC,2009-11-23,19500.0
TMC,2009-11-24,19300.0
TMC,2009-11-25,18100.0
TMC,2009-11-26,17100.0
TMC,2009-11-27,17500.0
TMC,2009-11-30,17100.0
TMC,2009-12-01,18300.0
TMC,2009-12-02,19200.0
TMC,2009-12-03,19400.0
TMC,2009-12-04,19400.0
TMC,2009-12-07,18900.0
TMC,2009-12-08,18700.0
TMC,2009-12-09,18100.0
TMC,2009-12-10,18200.0
TMC,2009-12-11,18200.0
TMC,2009-12-14,17600.0
TMC,2009-12-15,17600.0
TMC,2009-12-16,15900.0
TMC,2009-12-17,15700.0
TMC,2009-12-18,16800.0
TMC,2009-12-21,17800.0
TMC,2009-12-22,18500.0
TMC,2009-12-23,18500.0
TMC,2009-12-24,18500.0
TMC,2009-12-25,18900.0
TMC,2009-12-28,19200.0
TMC,2009-12-29,19200.0
TMC,2009-12-30,18900.0
TMC,2009-12-31,19000.0
TMC,2010-01-04,20300.0
TMC,2010-01-05,21600.0
TMC,2010-01-06,20900.0
TMC,2010-01-07,19900.0
TMC,2010-01-08,19000.0
TMC,2010-01-11,18700.0
TMC,2010-01-12,17300.0
TMC,2010-01-13,18600.0
TMC,2010-01-14,18800.0
TMC,2010-01-15,18700.0
TMC,2010-01-18,17700.0
TMC,2010-01-19,19100.0
TMC,2010-01-20,19000.0
TMC,2010-01-21,17300.0
TMC,2010-01-22,17700.0
TMC,2010-01-25,16600.0
TMC,2010-01-26,17700.0
TMC,2010-01-27,17100.0
TMC,2010-01-28,17300.0
TMC,2010-01-29,17300.0
TMC,2010-02-01,17300.0
TMC,2010-02-02,17400.0
TMC,2010-02-03,17600.0
TMC,2010-02-04,18400.0
TMC,2010-02-05,17900.0
TMC,2010-02-08,17700.0
TMC,2010-02-09,17500.0
TMC,2010-02-10,17700.0
TMC,2010-02-11,17800.0
TMC,2010-02-12,18000.0
TMC,2010-02-22,18100.0
TMC,2010-02-23,18100.0
TMC,2010-02-24,18100.0
TMC,2010-02-25,18000.0
TMC,2010-02-26,18000.0
TMC,2010-03-01,18200.0
TMC,2010-03-02,18200.0
TMC,2010-03-03,18300.0
TMC,2010-03-04,18500.0
TMC,2010-03-05,18700.0
TMC,2010-03-08,18800.0
TMC,2010-03-09,18800.0
TMC,2010-03-10,19000.0
TMC,2010-03-11,19200.0
TMC,2010-03-12,19300.0
TMC,2010-03-15,19500.0
TMC,2010-03-16,19100.0
TMC,2010-03-17,19100.0
TMC,2010-03-18,19300.0
TMC,2010-03-19,19200.0
TMC,2010-03-22,18400.0
TMC,2010-03-23,18700.0
TMC,2010-03-24,19000.0
TMC,2010-03-25,19200.0
TMC,2010-03-26,18700.0
TMC,2010-03-29,18800.0
TMC,2010-03-30,18900.0
TMC,2010-03-31,18700.0
TMC,2010-04-01,18700.0
TMC,2010-04-02,18900.0
TMC,2010-04-05,19200.0
TMC,2010-04-06,19100.0
TMC,2010-04-07,19700.0
TMC,2010-04-08,20500.0
TMC,2010-04-09,21300.0
TMC,2010-04-12,20500.0
TMC,2010-04-13,20600.0
TMC,2010-04-14,20400.0
TMC,2010-04-15,21200.0
TMC,2010-04-16,21300.0
TMC,2010-04-19,21800.0
TMC,2010-04-20,21700.0
TMC,2010-04-21,21300.0
TMC,2010-04-22,20300.0
TMC,2010-04-26,20700.0
TMC,2010-04-27,21300.0
TMC,2010-04-28,21300.0
TMC,2010-04-29,21300.0
TMC,2010-05-04,21300.0
TMC,2010-05-05,21200.0
TMC,2010-05-06,21900.0
TMC,2010-05-07,21700.0
TMC,2010-05-10,21300.0
TMC,2010-05-11,21600.0
TMC,2010-05-12,21300.0
TMC,2010-05-13,21300.0
TMC,2010-05-14,21100.0
TMC,2010-05-17,21100.0
TMC,2010-05-18,21300.0
TMC,2010-05-19,20900.0
TMC,2010-05-20,21300.0
TMC,2010-05-21,20900.0
TMC,2010-05-24,21100.0
TMC,2010-05-25,20900.0
TMC,2010-05-26,21600.0
TMC,2010-05-27,21500.0
TMC,2010-05-28,21600.0
TMC,2010-05-31,21600.0
TMC,2010-06-01,21600.0
TMC,2010-06-02,21600.0
TMC,2010-06-03,21500.0
TMC,2010-06-04,21400.0
TMC,2010-06-07,21600.0
TMC,2010-06-08,21500.0
TMC,2010-06-09,21300.0
TMC,2010-06-10,21300.0
TMC,2010-06-11,20300.0
TMC,2010-06-14,20000.0
TMC,2010-06-15,20200.0
TMC,2010-06-16,20100.0
TMC,2010-06-17,20000.0
TMC,2010-06-18,20000.0
TMC,2010-06-21,20000.0
TMC,2010-06-22,20300.0
TMC,2010-06-23,20700.0
TMC,2010-06-24,21300.0
TMC,2010-06-25,21200.0
TMC,2010-06-28,21900.0
TMC,2010-06-29,21800.0
TMC,2010-06-30,21600.0
TMC,2010-07-01,21600.0
TMC,2010-07-02,21600.0
TMC,2010-07-05,21800.0
TMC,2010-07-06,21900.0
TMC,2010-07-07,22700.0
TMC,2010-07-08,22100.0
TMC,2010-07-09,22500.0
TMC,2010-07-12,22600.0
TMC,2010-07-13,22600.0
TMC,2010-07-14,22600.0
TMC,2010-07-15,22600.0
TMC,2010-07-16,22500.0
TMC,2010-07-19,21300.0
TMC,2010-07-20,21400.0
TMC,2010-07-21,21600.0
TMC,2010-07-22,20300.0
TMC,2010-07-23,20300.0
TMC,2010-07-26,21200.0
TMC,2010-07-27,20700.0
TMC,2010-07-28,20300.0
TMC,2010-07-29,20100.0
TMC,2010-07-30,19900.0
TMC,2010-08-02,19800.0
TMC,2010-08-03,20300.0
TMC,2010-08-04,20000.0
TMC,2010-08-05,20000.0
TMC,2010-08-06,19600.0
TMC,2010-08-09,19700.0
TMC,2010-08-10,19300.0
TMC,2010-08-11,19800.0
TMC,2010-08-12,17900.0
TMC,2010-08-13,17300.0
TMC,2010-08-16,18500.0
TMC,2010-08-17,18600.0
TMC,2010-08-18,18800.0
TMC,2010-08-19,18300.0
TMC,2010-08-20,18300.0
TMC,2010-08-23,19500.0
TMC,2010-08-24,19500.0
TMC,2010-08-25,18100.0
TMC,2010-08-26,18100.0
TMC,2010-08-27,18400.0
TMC,2010-08-30,19100.0
TMC,2010-08-31,19100.0
TMC,2010-09-01,18100.0
TMC,2010-09-06,18100.0
TMC,2010-09-07,18100.0
TMC,2010-09-08,18100.0
TMC,2010-09-09,17700.0
TMC,2010-09-10,17900.0
TMC,2010-09-13,16800.0
TMC,2010-09-14,17300.0
TMC,2010-09-15,17300.0
TMC,2010-09-16,17300.0
TMC,2010-09-17,18400.0
TMC,2010-09-20,18200.0
TMC,2010-09-21,18200.0
TMC,2010-09-22,18200.0
TMC,2010-09-23,18200.0
TMC,2010-09-24,18100.0
TMC,2010-09-27,17300.0
TMC,2010-09-28,18200.0
TMC,2010-09-29,17300.0
TMC,2010-09-30,17300.0
TMC,2010-10-01,18700.0
TMC,2010-10-04,18700.0
TMC,2010-10-05,18700.0
TMC,2010-10-06,18600.0
TMC,2010-10-07,18600.0
TMC,2010-10-08,18600.0
TMC,2010-10-11,18600.0
TMC,2010-10-12,18600.0
TMC,2010-10-13,18600.0
TMC,2010-10-14,18600.0
TMC,2010-10-15,18600.0
TMC,2010-10-18,17600.0
TMC,2010-10-19,17600.0
TMC,2010-10-20,17600.0
TMC,2010-10-21,17600.0
TMC,2010-10-22,17600.0
TMC,2010-10-25,17600.0
TMC,2010-10-26,18300.0
TMC,2010-10-27,17300.0
TMC,2010-10-28,17300.0
TMC,2010-10-29,17300.0
TMC,2010-11-01,16900.0
TMC,2010-11-02,17300.0
TMC,2010-11-03,17300.0
TMC,2010-11-04,16100.0
TMC,2010-11-05,16100.0
TMC,2010-11-08,16100.0
TMC,2010-11-09,16700.0
TMC,2010-11-10,16700.0
TMC,2010-11-11,16700.0
TMC,2010-11-12,16300.0
TMC,2010-11-15,16300.0
TMC,2010-11-16,16300.0
TMC,2010-11-17,15900.0
TMC,2010-11-18,15900.0
TMC,2010-11-19,16600.0
TMC,2010-11-22,16600.0
TMC,2010-11-23,16600.0
TMC,2010-11-24,16600.0
TMC,2010-11-25,17100.0
TMC,2010-11-26,17300.0
TMC,2010-11-29,17300.0
TMC,2010-11-30,17300.0
TMC,2010-12-01,17300.0
TMC,2010-12-02,17300.0
TMC,2010-12-03,16600.0
TMC,2010-12-06,16800.0
TMC,2010-12-07,16100.0
TMC,2010-12-08,16500.0
TMC,2010-12-09,16500.0
TMC,2010-12-10,16500.0
TMC,2010-12-13,16700.0
TMC,2010-12-14,17400.0
TMC,2010-12-15,17400.0
TMC,2010-12-16,17400.0
TMC,2010-12-17,18500.0
TMC,2010-12-20,18700.0
TMC,2010-12-21,18700.0
TMC,2010-12-22,17400.0
TMC,2010-12-23,17400.0
TMC,2010-12-24,17400.0
TMC,2010-12-27,17400.0
TMC,2010-12-28,17400.0
TMC,2010-12-29,17700.0
TMC,2010-12-30,17000.0
TMC,2010-12-31,17000.0
TMC,2011-01-04,17000.0
TMC,2011-01-05,17000.0
TMC,2011-01-06,18200.0
TMC,2011-01-07,16900.0
TMC,2011-01-10,15800.0
TMC,2011-01-11,15000.0
TMC,2011-01-12,16000.0
TMC,2011-01-13,16000.0
TMC,2011-01-14,16000.0
TMC,2011-01-17,16000.0
TMC,2011-01-18,16000.0
TMC,2011-01-19,15000.0
TMC,2011-01-20,15000.0
TMC,2011-01-21,16000.0
TMC,2011-01-24,16000.0
TMC,2011-01-25,16000.0
TMC,2011-01-26,16000.0
TMC,2011-01-27,16000.0
TMC,2011-01-28,16000.0
TMC,2011-02-08,16000.0
TMC,2011-02-09,16000.0
TMC,2011-02-10,16000.0
TMC,2011-02-11,16000.0
TMC,2011-02-14,16000.0
TMC,2011-02-15,16000.0
TMC,2011-02-16,16000.0
TMC,2011-02-17,16000.0
TMC,2011-02-18,16000.0
TMC,2011-02-21,16000.0
TMC,2011-02-22,16000.0
TMC,2011-02-23,16000.0
TMC,2011-02-24,15900.0
TMC,2011-02-25,15900.0
TMC,2011-02-28,14800.0
TMC,2011-03-01,13800.0
TMC,2011-03-02,13800.0
TMC,2011-03-03,13800.0
TMC,2011-03-04,14000.0
TMC,2011-03-07,14000.0
TMC,2011-03-08,14000.0
TMC,2011-03-09,13600.0
TMC,2011-03-10,14300.0
TMC,2011-03-11,14300.0
TMC,2011-03-14,14300.0
TMC,2011-03-15,14300.0
TMC,2011-03-16,14300.0
TMC,2011-03-17,14300.0
TMC,2011-03-18,14300.0
TMC,2011-03-21,14500.0
TMC,2011-03-22,14500.0
TMC,2011-03-23,14500.0
TMC,2011-03-24,14500.0
TMC,2011-03-25,14500.0
TMC,2011-03-28,13600.0
TMC,2011-03-29,12900.0
TMC,2011-03-30,12900.0
TMC,2011-03-31,12900.0
TMC,2011-04-01,13100.0
TMC,2011-04-04,13100.0
TMC,2011-04-05,13100.0
TMC,2011-04-06,13300.0
TMC,2011-04-07,13600.0
TMC,2011-04-08,13400.0
TMC,2011-04-13,13400.0
TMC,2011-04-14,13400.0
TMC,2011-04-15,13900.0
TMC,2011-04-18,13900.0
TMC,2011-04-19,13900.0
TMC,2011-04-20,13900.0
TMC,2011-04-21,13900.0
TMC,2011-04-22,13900.0
TMC,2011-04-25,13900.0
TMC,2011-04-26,13900.0
TMC,2011-04-27,14300.0
TMC,2011-04-28,14100.0
TMC,2011-04-29,14100.0
TMC,2011-05-04,14100.0
TMC,2011-05-05,14000.0
TMC,2011-05-06,14000.0
TMC,2011-05-09,14000.0
TMC,2011-05-10,14000.0
TMC,2011-05-11,14000.0
TMC,2011-05-12,14000.0
TMC,2011-05-13,14000.0
TMC,2011-05-16,13500.0
TMC,2011-05-17,13600.0
TMC,2011-05-18,13900.0
TMC,2011-05-19,13900.0
TMC,2011-05-20,13000.0
TMC,2011-05-23,12900.0
TMC,2011-05-24,12900.0
TMC,2011-05-25,12900.0
TMC,2011-05-26,12900.0
TMC,2011-05-27,12900.0
TMC,2011-05-30,12900.0
TMC,2011-05-31,12900.0
TMC,2011-06-01,12900.0
TMC,2011-06-02,12900.0
TMC,2011-06-03,12100.0
TMC,2011-06-06,12100.0
TMC,2011-06-07,12100.0
TMC,2011-06-08,12000.0
TMC,2011-06-09,12000.0
TMC,2011-06-10,11200.0
TMC,2011-06-13,11300.0
TMC,2011-06-14,11300.0
TMC,2011-06-15,11300.0
TMC,2011-06-16,11300.0
TMC,2011-06-17,10600.0
TMC,2011-06-20,9900.0
TMC,2011-06-21,10200.0
TMC,2011-06-22,10800.0
TMC,2011-06-23,10800.0
TMC,2011-06-24,10800.0
TMC,2011-06-27,10800.0
TMC,2011-06-28,10100.0
TMC,2011-06-29,10300.0
TMC,2011-06-30,10300.0
TMC,2011-07-01,10300.0
TMC,2011-07-04,10300.0
TMC,2011-07-05,10300.0
TMC,2011-07-06,10300.0
TMC,2011-07-07,9700.0
TMC,2011-07-08,9700.0
TMC,2011-07-11,9300.0
TMC,2011-07-12,9300.0
TMC,2011-07-13,9300.0
TMC,2011-07-14,10000.0
TMC,2011-07-15,10000.0
TMC,2011-07-18,10000.0
TMC,2011-07-19,10000.0
TMC,2011-07-20,10000.0
TMC,2011-07-21,10200.0
TMC,2011-07-22,10200.0
TMC,2011-07-25,10200.0
TMC,2011-07-26,10200.0
TMC,2011-07-27,10200.0
TMC,2011-07-28,10200.0
TMC,2011-07-29,10200.0
TMC,2011-08-01,10200.0
TMC,2011-08-02,10200.0
TMC,2011-08-03,10200.0
TMC,2011-08-04,10800.0
TMC,2011-08-05,10100.0
TMC,2011-08-08,10100.0
TMC,2011-08-09,10100.0
TMC,2011-08-10,10100.0
TMC,2011-08-11,10100.0
TMC,2011-08-12,10100.0
TMC,2011-08-15,9600.0
TMC,2011-08-16,9600.0
TMC,2011-08-17,9600.0
TMC,2011-08-18,10000.0
TMC,2011-08-19,9200.0
TMC,2011-08-22,9300.0
TMC,2011-08-23,8900.0
TMC,2011-08-24,8300.0
TMC,2011-08-25,7900.0
TMC,2011-08-26,8500.0
TMC,2011-08-29,8800.0
TMC,2011-08-30,9400.0
TMC,2011-08-31,9700.0
TMC,2011-09-01,9700.0
TMC,2011-09-05,9700.0
TMC,2011-09-06,9700.0
TMC,2011-09-07,9700.0
TMC,2011-09-08,9700.0
TMC,2011-09-09,10100.0
TMC,2011-09-12,10300.0
TMC,2011-09-13,10600.0
TMC,2011-09-14,10800.0
TMC,2011-09-15,10800.0
TMC,2011-09-16,10800.0
TMC,2011-09-19,10600.0
TMC,2011-09-20,10800.0
TMC,2011-09-21,10800.0
TMC,2011-09-22,10800.0
TMC,2011-09-23,10800.0
TMC,2011-09-26,10600.0
TMC,2011-09-27,10600.0
TMC,2011-09-28,10600.0
TMC,2011-09-29,10600.0
TMC,2011-09-30,10600.0
TMC,2011-10-03,10600.0
TMC,2011-10-04,10400.0
TMC,2011-10-05,10400.0
TMC,2011-10-06,10400.0
TMC,2011-10-07,10100.0
TMC,2011-10-10,10100.0
TMC,2011-10-11,10100.0
TMC,2011-10-12,10100.0
TMC,2011-10-13,10100.0
TMC,2011-10-14,10700.0
TMC,2011-10-17,10200.0
TMC,2011-10-18,10300.0
TMC,2011-10-19,10300.0
TMC,2011-10-20,10300.0
TMC,2011-10-21,10300.0
TMC,2011-10-24,10100.0
TMC,2011-10-25,10100.0
TMC,2011-10-26,10100.0
TMC,2011-10-27,10100.0
TMC,2011-10-28,10000.0
TMC,2011-10-31,10000.0
TMC,2011-11-01,10000.0
TMC,2011-11-02,10000.0
TMC,2011-11-03,9500.0
TMC,2011-11-04,9500.0
TMC,2011-11-07,9500.0
TMC,2011-11-08,9500.0
TMC,2011-11-09,9500.0
TMC,2011-11-10,9500.0
TMC,2011-11-11,9500.0
TMC,2011-11-14,9500.0
TMC,2011-11-15,9500.0
TMC,2011-11-16,9400.0
TMC,2011-11-17,9400.0
TMC,2011-11-18,9100.0
TMC,2011-11-21,9300.0
TMC,2011-11-22,8900.0
TMC,2011-11-23,8900.0
TMC,2011-11-24,8900.0
TMC,2011-11-25,8300.0
TMC,2011-11-28,8000.0
TMC,2011-11-29,8000.0
TMC,2011-11-30,7900.0
TMC,2011-12-01,8500.0
TMC,2011-12-02,8000.0
TMC,2011-12-05,8000.0
TMC,2011-12-06,7900.0
TMC,2011-12-07,7900.0
TMC,2011-12-08,7900.0
TMC,2011-12-09,7900.0
TMC,2011-12-12,7900.0
TMC,2011-12-13,7900.0
TMC,2011-12-14,7900.0
TMC,2011-12-15,7500.0
TMC,2011-12-16,7700.0
TMC,2011-12-19,8300.0
TMC,2011-12-20,8000.0
TMC,2011-12-21,8100.0
TMC,2011-12-22,7700.0
TMC,2011-12-23,7200.0
TMC,2011-12-26,6700.0
TMC,2011-12-27,7000.0
TMC,2011-12-28,7400.0
TMC,2011-12-29,7000.0
TMC,2011-12-30,7000.0
TMC,2012-01-03,7000.0
TMC,2012-01-04,7200.0
TMC,2012-01-05,7200.0
TMC,2012-01-06,7200.0
TMC,2012-01-09,7200.0
TMC,2012-01-10,7200.0
TMC,2012-01-11,7200.0
TMC,2012-01-12,7200.0
TMC,2012-01-13,7400.0
TMC,2012-01-16,7400.0
TMC,2012-01-17,7400.0
TMC,2012-01-18,7700.0
TMC,2012-01-19,7900.0
TMC,2012-01-20,7900.0
TMC,2012-01-30,7900.0
TMC,2012-01-31,7900.0
TMC,2012-02-01,8400.0
TMC,2012-02-02,8400.0
TMC,2012-02-03,8400.0
TMC,2012-02-06,7900.0
TMC,2012-02-07,8100.0
TMC,2012-02-08,7600.0
TMC,2012-02-09,8100.0
TMC,2012-02-10,8100.0
TMC,2012-02-13,8000.0
TMC,2012-02-14,8000.0
TMC,2012-02-15,8000.0
TMC,2012-02-16,8000.0
TMC,2012-02-17,7700.0
TMC,2012-02-20,8400.0
TMC,2012-02-21,8100.0
TMC,2012-02-22,8100.0
TMC,2012-02-23,8100.0
TMC,2012-02-24,8100.0
TMC,2012-02-27,8000.0
TMC,2012-02-28,8000.0
TMC,2012-02-29,7900.0
TMC,2012-03-01,8000.0
TMC,2012-03-02,8100.0
TMC,2012-03-05,8500.0
TMC,2012-03-06,8900.0
TMC,2012-03-07,8300.0
TMC,2012-03-08,7900.0
TMC,2012-03-09,7800.0
TMC,2012-03-12,7700.0
TMC,2012-03-13,7700.0
TMC,2012-03-14,7800.0
TMC,2012-03-15,7700.0
TMC,2012-03-16,7900.0
TMC,2012-03-19,7900.0
TMC,2012-03-20,7900.0
TMC,2012-03-21,8200.0
TMC,2012-03-22,7900.0
TMC,2012-03-23,7700.0
TMC,2012-03-26,7800.0
TMC,2012-03-27,8000.0
TMC,2012-03-28,8000.0
TMC,2012-03-29,7700.0
TMC,2012-03-30,7700.0
TMC,2012-04-03,7700.0
TMC,2012-04-04,7900.0
TMC,2012-04-05,7900.0
TMC,2012-04-06,7900.0
TMC,2012-04-09,7900.0
TMC,2012-04-10,7900.0
TMC,2012-04-11,8000.0
TMC,2012-04-12,8100.0
TMC,2012-04-13,8100.0
TMC,2012-04-16,8100.0
TMC,2012-04-17,8100.0
TMC,2012-04-18,8100.0
TMC,2012-04-19,8100.0
TMC,2012-04-20,8000.0
TMC,2012-04-23,8100.0
TMC,2012-04-24,8100.0
TMC,2012-04-25,7900.0
TMC,2012-04-26,8100.0
TMC,2012-04-27,8100.0
TMC,2012-05-02,8100.0
TMC,2012-05-03,8300.0
TMC,2012-05-04,8800.0
TMC,2012-05-07,9300.0
TMC,2012-05-08,9400.0
TMC,2012-05-09,9000.0
TMC,2012-05-10,9000.0
TMC,2012-05-11,9100.0
TMC,2012-05-14,9200.0
TMC,2012-05-15,9400.0
TMC,2012-05-16,9400.0
TMC,2012-05-17,9100.0
TMC,2012-05-18,8600.0
TMC,2012-05-21,9100.0
TMC,2012-05-22,9500.0
TMC,2012-05-23,9500.0
TMC,2012-05-24,8900.0
TMC,2012-05-25,9100.0
TMC,2012-05-28,9300.0
TMC,2012-05-29,9300.0
TMC,2012-05-30,9500.0
TMC,2012-05-31,9500.0
TMC,2012-06-01,9500.0
TMC,2012-06-04,9500.0
TMC,2012-06-05,9500.0
TMC,2012-06-06,9500.0
TMC,2012-06-07,9900.0
TMC,2012-06-08,10000.0
TMC,2012-06-11,10000.0
TMC,2012-06-12,9500.0
TMC,2012-06-13,9300.0
TMC,2012-06-14,9300.0
TMC,2012-06-15,9300.0
TMC,2012-06-18,9100.0
TMC,2012-06-19,9600.0
TMC,2012-06-20,9600.0
TMC,2012-06-21,9100.0
TMC,2012-06-22,8600.0
TMC,2012-06-25,8600.0
TMC,2012-06-26,8700.0
TMC,2012-06-27,8700.0
TMC,2012-06-28,9100.0
TMC,2012-06-29,9100.0
TMC,2012-07-02,9300.0
TMC,2012-07-03,9300.0
TMC,2012-07-04,9300.0
TMC,2012-07-05,9500.0
TMC,2012-07-06,9600.0
TMC,2012-07-09,9000.0
TMC,2012-07-10,8600.0
TMC,2012-07-11,9100.0
TMC,2012-07-12,9700.0
TMC,2012-07-13,9500.0
TMC,2012-07-16,10000.0
TMC,2012-07-17,10000.0
TMC,2012-07-18,9300.0
TMC,2012-07-19,8700.0
TMC,2012-07-20,9100.0
TMC,2012-07-23,8800.0
TMC,2012-07-24,8800.0
TMC,2012-07-25,9400.0
TMC,2012-07-26,9100.0
TMC,2012-07-27,9100.0
TMC,2012-07-30,8800.0
TMC,2012-07-31,8700.0
TMC,2012-08-01,8700.0
TMC,2012-08-02,8700.0
TMC,2012-08-03,8700.0
TMC,2012-08-06,8100.0
TMC,2012-08-07,8600.0
TMC,2012-08-08,8400.0
TMC,2012-08-09,8400.0
TMC,2012-08-10,8700.0
TMC,2012-08-13,8700.0
TMC,2012-08-14,8300.0
TMC,2012-08-15,8900.0
TMC,2012-08-16,8600.0
TMC,2012-08-17,8600.0
TMC,2012-08-20,9000.0
TMC,2012-08-21,8600.0
TMC,2012-08-22,8300.0
TMC,2012-08-23,7800.0
TMC,2012-08-24,8300.0
TMC,2012-08-27,8600.0
TMC,2012-08-28,9200.0
TMC,2012-08-29,8700.0
TMC,2012-08-30,8700.0
TMC,2012-08-31,8400.0
TMC,2012-09-04,8700.0
TMC,2012-09-05,9100.0
TMC,2012-09-06,9100.0
TMC,2012-09-07,9100.0
TMC,2012-09-10,9100.0
TMC,2012-09-11,9100.0
TMC,2012-09-12,9100.0
TMC,2012-09-13,9100.0
TMC,2012-09-14,8600.0
TMC,2012-09-17,8600.0
TMC,2012-09-18,8000.0
TMC,2012-09-19,8000.0
TMC,2012-09-20,8000.0
TMC,2012-09-21,8000.0
TMC,2012-09-24,8500.0
TMC,2012-09-25,8500.0
TMC,2012-09-26,8500.0
TMC,2012-09-27,8500.0
TMC,2012-09-28,8500.0
TMC,2012-10-01,8500.0
TMC,2012-10-02,8500.0
TMC,2012-10-03,8600.0
TMC,2012-10-04,8600.0
TMC,2012-10-05,8600.0
TMC,2012-10-08,8300.0
TMC,2012-10-09,8300.0
TMC,2012-10-10,8500.0
TMC,2012-10-11,8500.0
TMC,2012-10-12,8500.0
TMC,2012-10-15,9100.0
TMC,2012-10-16,9100.0
TMC,2012-10-17,9100.0
TMC,2012-10-18,9500.0
TMC,2012-10-19,9500.0
TMC,2012-10-22,9500.0
TMC,2012-10-23,9500.0
TMC,2012-10-24,9500.0
TMC,2012-10-25,9500.0
TMC,2012-10-26,9500.0
TMC,2012-10-29,9000.0
TMC,2012-10-30,9000.0
TMC,2012-10-31,9000.0
TMC,2012-11-01,9000.0
TMC,2012-11-02,9000.0
TMC,2012-11-05,9100.0
TMC,2012-11-06,9100.0
TMC,2012-11-07,9100.0
TMC,2012-11-08,9100.0
TMC,2012-11-09,9700.0
TMC,2012-11-12,9100.0
TMC,2012-11-13,8900.0
TMC,2012-11-14,9000.0
TMC,2012-11-15,9500.0
TMC,2012-11-16,9500.0
TMC,2012-11-19,9500.0
TMC,2012-11-20,9500.0
TMC,2012-11-21,9500.0
TMC,2012-11-22,10200.0
TMC,2012-11-23,10700.0
TMC,2012-11-26,10000.0
TMC,2012-11-27,9300.0
TMC,2012-11-28,9300.0
TMC,2012-11-29,9800.0
TMC,2012-11-30,9500.0
TMC,2012-12-03,9500.0
TMC,2012-12-04,9500.0
TMC,2012-12-05,9100.0
TMC,2012-12-06,9100.0
TMC,2012-12-07,9600.0
TMC,2012-12-10,9500.0
TMC,2012-12-11,9500.0
TMC,2012-12-12,9500.0
TMC,2012-12-13,9700.0
TMC,2012-12-14,9500.0
TMC,2012-12-17,9000.0
TMC,2012-12-18,8600.0
TMC,2012-12-19,9100.0
TMC,2012-12-20,9100.0
TMC,2012-12-21,9100.0
TMC,2012-12-24,9300.0
TMC,2012-12-25,9500.0
TMC,2012-12-26,9500.0
TMC,2012-12-27,9500.0
TMC,2012-12-28,9500.0
TMC,2013-01-02,9500.0
TMC,2013-01-03,9500.0
TMC,2013-01-04,9600.0
TMC,2013-01-07,9600.0
TMC,2013-01-08,9300.0
TMC,2013-01-09,8800.0
TMC,2013-01-10,8300.0
TMC,2013-01-11,8300.0
TMC,2013-01-14,8800.0
TMC,2013-01-15,8300.0
TMC,2013-01-16,9000.0
TMC,2013-01-17,9100.0
TMC,2013-01-18,9100.0
TMC,2013-01-21,9100.0
TMC,2013-01-22,9100.0
TMC,2013-01-23,8800.0
TMC,2013-01-24,9600.0
TMC,2013-01-25,9600.0
TMC,2013-01-28,9600.0
TMC,2013-01-29,9600.0
TMC,2013-01-30,9600.0
TMC,2013-01-31,9800.0
TMC,2013-02-01,9600.0
TMC,2013-02-04,9000.0
TMC,2013-02-05,8300.0
TMC,2013-02-06,9800.0
TMC,2013-02-07,9600.0
TMC,2013-02-08,9600.0
TMC,2013-02-18,9600.0
TMC,2013-02-19,9600.0
TMC,2013-02-20,9600.0
TMC,2013-02-21,9600.0
TMC,2013-02-22,10500.0
TMC,2013-02-25,9800.0
TMC,2013-02-26,10000.0
TMC,2013-02-27,9400.0
TMC,2013-02-28,9600.0
TMC,2013-03-01,9600.0
TMC,2013-03-04,9600.0
TMC,2013-03-05,9600.0
TMC,2013-03-06,9400.0
TMC,2013-03-07,8700.0
TMC,2013-03-08,8700.0
TMC,2013-03-11,8700.0
TMC,2013-03-12,8700.0
TMC,2013-03-13,8800.0
TMC,2013-03-14,8800.0
TMC,2013-03-15,8800.0
TMC,2013-03-18,8800.0
TMC,2013-03-19,8800.0
TMC,2013-03-20,8800.0
TMC,2013-03-21,8800.0
TMC,2013-03-22,8800.0
TMC,2013-03-25,8300.0
TMC,2013-03-26,8300.0
TMC,2013-03-27,8300.0
TMC,2013-03-28,8300.0
TMC,2013-03-29,8700.0
TMC,2013-04-01,8700.0
TMC,2013-04-02,9500.0
TMC,2013-04-03,9500.0
TMC,2013-04-04,9100.0
TMC,2013-04-05,8900.0
TMC,2013-04-08,8900.0
TMC,2013-04-09,9100.0
TMC,2013-04-10,9100.0
TMC,2013-04-11,9100.0
TMC,2013-04-12,9100.0
TMC,2013-04-15,8700.0
TMC,2013-04-16,8800.0
TMC,2013-04-17,8900.0
TMC,2013-04-18,8900.0
TMC,2013-04-22,8900.0
TMC,2013-04-23,8900.0
TMC,2013-04-24,8700.0
TMC,2013-04-25,9000.0
TMC,2013-04-26,8700.0
TMC,2013-05-02,8900.0
TMC,2013-05-03,8700.0
TMC,2013-05-06,8700.0
TMC,2013-05-07,8700.0
TMC,2013-05-08,8900.0
TMC,2013-05-09,9000.0
TMC,2013-05-10,9100.0
TMC,2013-05-13,9100.0
TMC,2013-05-14,8800.0
TMC,2013-05-15,9100.0
TMC,2013-05-16,9100.0
TMC,2013-05-17,9100.0
TMC,2013-05-20,9100.0
TMC,2013-05-21,9100.0
TMC,2013-05-22,9000.0
TMC,2013-05-23,8800.0
TMC,2013-05-24,8400.0
TMC,2013-05-27,8400.0
TMC,2013-05-28,9200.0
TMC,2013-05-29,9200.0
TMC,2013-05-30,9200.0
TMC,2013-05-31,9700.0
TMC,2013-06-03,9600.0
TMC,2013-06-04,9600.0
TMC,2013-06-05,10100.0
TMC,2013-06-06,10100.0
TMC,2013-06-07,10100.0
TMC,2013-06-10,9900.0
TMC,2013-06-11,9200.0
TMC,2013-06-12,9600.0
TMC,2013-06-13,9100.0
TMC,2013-06-14,9300.0
TMC,2013-06-17,9300.0
TMC,2013-06-18,9100.0
TMC,2013-06-19,9300.0
TMC,2013-06-20,9300.0
TMC,2013-06-21,8800.0
TMC,2013-06-24,9000.0
TMC,2013-06-25,9000.0
TMC,2013-06-26,9400.0
TMC,2013-06-27,9600.0
TMC,2013-06-28,9600.0
TMC,2013-07-01,9600.0
TMC,2013-07-02,9600.0
TMC,2013-07-03,9600.0
TMC,2013-07-04,10200.0
TMC,2013-07-05,10200.0
TMC,2013-07-08,10200.0
TMC,2013-07-09,9600.0
TMC,2013-07-10,9600.0
TMC,2013-07-11,9500.0
TMC,2013-07-12,9500.0
TMC,2013-07-15,9500.0
TMC,2013-07-16,9500.0
TMC,2013-07-17,8800.0
TMC,2013-07-18,9100.0
TMC,2013-07-19,9100.0
TMC,2013-07-22,9100.0
TMC,2013-07-23,9300.0
TMC,2013-07-24,9300.0
TMC,2013-07-25,9400.0
TMC,2013-07-26,9400.0
TMC,2013-07-29,9400.0
TMC,2013-07-30,9100.0
TMC,2013-07-31,9100.0
TMC,2013-08-01,9400.0
TMC,2013-08-02,9400.0
TMC,2013-08-05,9100.0
TMC,2013-08-06,9100.0
TMC,2013-08-07,9100.0
TMC,2013-08-08,9600.0
TMC,2013-08-09,9600.0
TMC,2013-08-12,9600.0
TMC,2013-08-13,9600.0
TMC,2013-08-14,9600.0
TMC,2013-08-15,10600.0
TMC,2013-08-16,10600.0
TMC,2013-08-19,10600.0
TMC,2013-08-20,9500.0
TMC,2013-08-21,9500.0
TMC,2013-08-22,9500.0
TMC,2013-08-23,9600.0
TMC,2013-08-26,9600.0
TMC,2013-08-27,9600.0
TMC,2013-08-28,9000.0
TMC,2013-08-29,9600.0
TMC,2013-08-30,9600.0
TMC,2013-09-03,9600.0
TMC,2013-09-04,9600.0
TMC,2013-09-05,9600.0
TMC,2013-09-06,9400.0
TMC,2013-09-09,9400.0
TMC,2013-09-10,9200.0
TMC,2013-09-11,9200.0
TMC,2013-09-12,9600.0
TMC,2013-09-13,9600.0
TMC,2013-09-16,9600.0
TMC,2013-09-17,9600.0
TMC,2013-09-18,9600.0
TMC,2013-09-19,9600.0
TMC,2013-09-20,9600.0
TMC,2013-09-23,9600.0
TMC,2013-09-24,8900.0
TMC,2013-09-25,8900.0
TMC,2013-09-26,9400.0
TMC,2013-09-27,9300.0
TMC,2013-09-30,8900.0
TMC,2013-10-01,8900.0
TMC,2013-10-02,9100.0
TMC,2013-10-03,9100.0
TMC,2013-10-04,9000.0
TMC,2013-10-07,9100.0
TMC,2013-10-08,9100.0
TMC,2013-10-09,9200.0
TMC,2013-10-10,9200.0
TMC,2013-10-11,9100.0
TMC,2013-10-14,9100.0
TMC,2013-10-15,9100.0
TMC,2013-10-16,9300.0
TMC,2013-10-17,8900.0
TMC,2013-10-18,8900.0
TMC,2013-10-21,8900.0
TMC,2013-10-22,8900.0
TMC,2013-10-23,9100.0
TMC,2013-10-24,9200.0
TMC,2013-10-25,9200.0
TMC,2013-10-28,9200.0
TMC,2013-10-29,9200.0
TMC,2013-10-30,9200.0
TMC,2013-10-31,9200.0
TMC,2013-11-01,9200.0
TMC,2013-11-04,9600.0
TMC,2013-11-05,8700.0
TMC,2013-11-06,8900.0
TMC,2013-11-07,8900.0
TMC,2013-11-08,9100.0
TMC,2013-11-11,9500.0
TMC,2013-11-12,9300.0
TMC,2013-11-13,9300.0
TMC,2013-11-14,8800.0
TMC,2013-11-15,8800.0
TMC,2013-11-18,8800.0
TMC,2013-11-19,8800.0
TMC,2013-11-20,9300.0
TMC,2013-11-21,9200.0
TMC,2013-11-22,9200.0
TMC,2013-11-25,9200.0
TMC,2013-11-26,9100.0
TMC,2013-11-27,9000.0
TMC,2013-11-28,9100.0
TMC,2013-11-29,9100.0
TMC,2013-12-02,9100.0
TMC,2013-12-03,9100.0
TMC,2013-12-04,9100.0
TMC,2013-12-05,9600.0
TMC,2013-12-06,9600.0
TMC,2013-12-09,9200.0
TMC,2013-12-10,9200.0
TMC,2013-12-11,9200.0
TMC,2013-12-12,9000.0
TMC,2013-12-13,9000.0
TMC,2013-12-16,9000.0
TMC,2013-12-17,9000.0
TMC,2013-12-18,9500.0
TMC,2013-12-19,9500.0
TMC,2013-12-20,9800.0
TMC,2013-12-23,9600.0
TMC,2013-12-24,9600.0
TMC,2013-12-25,10100.0
TMC,2013-12-26,10200.0
TMC,2013-12-30,10200.0
TMC,2013-12-31,9600.0
TMC,2014-01-02,9900.0
TMC,2014-01-03,9900.0
TMC,2014-01-06,9600.0
TMC,2014-01-07,9500.0
TMC,2014-01-08,9700.0
TMC,2014-01-09,9700.0
TMC,2014-01-10,9600.0
TMC,2014-01-13,9600.0
TMC,2014-01-14,9700.0
TMC,2014-01-15,9700.0
TMC,2014-01-16,9700.0
TMC,2014-01-17,9800.0
TMC,2014-01-20,9800.0
TMC,2014-01-21,9700.0
TMC,2014-01-22,9800.0
TMC,2014-01-23,9900.0
TMC,2014-01-24,10000.0
TMC,2014-01-27,10700.0
TMC,2014-02-06,10600.0
TMC,2014-02-07,10500.0
TMC,2014-02-10,9900.0
TMC,2014-02-11,10500.0
TMC,2014-02-12,10100.0
TMC,2014-02-13,10100.0
TMC,2014-02-14,10200.0
TMC,2014-02-17,10200.0
TMC,2014-02-18,10200.0
TMC,2014-02-19,10100.0
TMC,2014-02-20,10200.0
TMC,2014-02-21,10300.0
TMC,2014-02-24,10300.0
TMC,2014-02-25,10000.0
TMC,2014-02-26,10300.0
TMC,2014-02-27,10800.0
TMC,2014-02-28,10500.0
TMC,2014-03-03,10500.0
TMC,2014-03-04,10500.0
TMC,2014-03-05,10700.0
TMC,2014-03-06,10800.0
TMC,2014-03-07,10500.0
TMC,2014-03-10,10500.0
TMC,2014-03-11,10600.0
TMC,2014-03-12,10800.0
TMC,2014-03-13,10500.0
TMC,2014-03-14,10600.0
TMC,2014-03-17,10600.0
TMC,2014-03-18,10500.0
TMC,2014-03-19,10700.0
TMC,2014-03-20,10900.0
TMC,2014-03-21,11200.0
TMC,2014-03-24,11500.0
TMC,2014-03-25,11200.0
TMC,2014-03-26,11000.0
TMC,2014-03-27,11400.0
TMC,2014-03-28,11400.0
TMC,2014-03-31,11200.0
TMC,2014-04-01,11000.0
TMC,2014-04-02,11000.0
TMC,2014-04-03,11000.0
TMC,2014-04-04,10000.0
TMC,2014-04-07,10800.0
TMC,2014-04-08,11000.0
TMC,2014-04-10,10800.0
TMC,2014-04-11,10500.0
TMC,2014-04-14,10500.0
TMC,2014-04-15,10900.0
TMC,2014-04-16,10000.0
TMC,2014-04-17,11000.0
TMC,2014-04-18,11000.0
TMC,2014-04-21,10500.0
TMC,2014-04-22,10500.0
TMC,2014-04-23,11000.0
TMC,2014-04-24,11000.0
TMC,2014-04-25,11000.0
TMC,2014-04-28,11000.0
TMC,2014-04-29,11000.0
TMC,2014-05-05,11000.0
TMC,2014-05-06,9600.0
TMC,2014-05-07,9600.0
TMC,2014-05-08,9000.0
TMC,2014-05-09,9000.0
TMC,2014-05-12,9000.0
TMC,2014-05-13,8200.0
TMC,2014-05-14,9000.0
TMC,2014-05-15,9000.0
TMC,2014-05-16,9900.0
TMC,2014-05-19,9900.0
TMC,2014-05-20,10500.0
TMC,2014-05-21,10500.0
