TMX,2009-11-02,15100.0
TMX,2009-11-03,14100.0
TMX,2009-11-04,13900.0
TMX,2009-11-05,12900.0
TMX,2009-11-06,12000.0
TMX,2009-11-09,11400.0
TMX,2009-11-10,10900.0
TMX,2009-11-11,10600.0
TMX,2009-11-12,11500.0
TMX,2009-11-13,11500.0
TMX,2009-11-16,10900.0
TMX,2009-11-17,10400.0
TMX,2009-11-18,10500.0
TMX,2009-11-19,10200.0
TMX,2009-11-20,9900.0
TMX,2009-11-23,9500.0
TMX,2009-11-24,9400.0
TMX,2009-11-25,8800.0
TMX,2009-11-26,8400.0
TMX,2009-11-27,8300.0
TMX,2009-11-30,8600.0
TMX,2009-12-01,8600.0
TMX,2009-12-02,8000.0
TMX,2009-12-03,8300.0
TMX,2009-12-04,8100.0
TMX,2009-12-07,8300.0
TMX,2009-12-08,8600.0
TMX,2009-12-09,8400.0
TMX,2009-12-10,8600.0
TMX,2009-12-11,8100.0
TMX,2009-12-14,8700.0
TMX,2009-12-15,8900.0
TMX,2009-12-16,8200.0
TMX,2009-12-17,8300.0
TMX,2009-12-18,8300.0
TMX,2009-12-21,8800.0
TMX,2009-12-22,8300.0
TMX,2009-12-23,8000.0
TMX,2009-12-24,8600.0
TMX,2009-12-25,8700.0
TMX,2009-12-28,8300.0
TMX,2009-12-29,8100.0
TMX,2009-12-30,8600.0
TMX,2009-12-31,8800.0
TMX,2010-01-04,9100.0
TMX,2010-01-05,9000.0
TMX,2010-01-06,9900.0
TMX,2010-01-07,9100.0
TMX,2010-01-08,9300.0
TMX,2010-01-11,8600.0
TMX,2010-01-12,8400.0
TMX,2010-01-13,8300.0
TMX,2010-01-14,8200.0
TMX,2010-01-15,8100.0
TMX,2010-01-18,8300.0
TMX,2010-01-19,8800.0
TMX,2010-01-20,8300.0
TMX,2010-01-21,8000.0
TMX,2010-01-22,8500.0
TMX,2010-01-25,8600.0
TMX,2010-01-26,8100.0
TMX,2010-01-27,8000.0
TMX,2010-01-28,7900.0
TMX,2010-01-29,8500.0
TMX,2010-02-01,8600.0
TMX,2010-02-02,8600.0
TMX,2010-02-03,8800.0
TMX,2010-02-04,8900.0
TMX,2010-02-05,9500.0
TMX,2010-02-08,9600.0
TMX,2010-02-09,9000.0
TMX,2010-02-10,9000.0
TMX,2010-02-11,8700.0
TMX,2010-02-12,9000.0
TMX,2010-02-22,9500.0
TMX,2010-02-23,9000.0
TMX,2010-02-24,8600.0
TMX,2010-02-25,9300.0
TMX,2010-02-26,9300.0
TMX,2010-03-01,9100.0
TMX,2010-03-02,9200.0
TMX,2010-03-03,9800.0
TMX,2010-03-04,9700.0
TMX,2010-03-05,10300.0
TMX,2010-03-08,10600.0
TMX,2010-03-09,11300.0
TMX,2010-03-10,12000.0
TMX,2010-03-11,12900.0
TMX,2010-03-12,13800.0
TMX,2010-03-15,14700.0
TMX,2010-03-16,15700.0
TMX,2010-03-17,16800.0
TMX,2010-03-18,18000.0
TMX,2010-03-19,17600.0
TMX,2010-03-22,19500.0
TMX,2010-03-23,18500.0
TMX,2010-03-24,18000.0
TMX,2010-03-25,17000.0
TMX,2010-03-26,16000.0
TMX,2010-03-29,17500.0
TMX,2010-03-30,18700.0
TMX,2010-03-31,17900.0
TMX,2010-04-01,19400.0
TMX,2010-04-02,20200.0
TMX,2010-04-05,21600.0
TMX,2010-04-06,23100.0
TMX,2010-04-07,24700.0
TMX,2010-04-08,23700.0
TMX,2010-04-09,24300.0
TMX,2010-04-12,23500.0
TMX,2010-04-13,24300.0
TMX,2010-04-14,25300.0
TMX,2010-04-15,25500.0
TMX,2010-04-16,24800.0
TMX,2010-04-19,26600.0
TMX,2010-04-20,26500.0
TMX,2010-04-21,26000.0
TMX,2010-04-22,24300.0
TMX,2010-04-26,23000.0
TMX,2010-04-27,24200.0
TMX,2010-04-28,24200.0
TMX,2010-04-29,23000.0
TMX,2010-05-04,22300.0
TMX,2010-05-05,20500.0
TMX,2010-05-06,22700.0
TMX,2010-05-07,24200.0
TMX,2010-05-10,22500.0
TMX,2010-05-11,21100.0
TMX,2010-05-12,19700.0
TMX,2010-05-13,18400.0
TMX,2010-05-14,17800.0
TMX,2010-05-17,16200.0
TMX,2010-05-18,15600.0
TMX,2010-05-19,14500.0
TMX,2010-05-20,15700.0
TMX,2010-05-21,15200.0
TMX,2010-05-24,16400.0
TMX,2010-05-25,16300.0
TMX,2010-05-26,16500.0
TMX,2010-05-27,17300.0
TMX,2010-05-28,18100.0
TMX,2010-05-31,19300.0
TMX,2010-06-01,20600.0
TMX,2010-06-02,22000.0
TMX,2010-06-03,23300.0
TMX,2010-06-04,23100.0
TMX,2010-06-07,21400.0
TMX,2010-06-08,20700.0
TMX,2010-06-09,20100.0
TMX,2010-06-10,20500.0
TMX,2010-06-11,20100.0
TMX,2010-06-14,21200.0
TMX,2010-06-15,20500.0
TMX,2010-06-16,20500.0
TMX,2010-06-17,19300.0
TMX,2010-06-18,19600.0
TMX,2010-06-21,20700.0
TMX,2010-06-22,20900.0
TMX,2010-06-23,20300.0
TMX,2010-06-24,20100.0
TMX,2010-06-25,19300.0
TMX,2010-06-28,19300.0
TMX,2010-06-29,18900.0
TMX,2010-06-30,18700.0
TMX,2010-07-01,18700.0
TMX,2010-07-02,19300.0
TMX,2010-07-05,19100.0
TMX,2010-07-06,18600.0
TMX,2010-07-07,20000.0
TMX,2010-07-08,21200.0
TMX,2010-07-09,20800.0
TMX,2010-07-12,21600.0
TMX,2010-07-13,21400.0
TMX,2010-07-14,22100.0
TMX,2010-07-15,21500.0
TMX,2010-07-16,20900.0
TMX,2010-07-19,20400.0
TMX,2010-07-20,20500.0
TMX,2010-07-21,20700.0
TMX,2010-07-22,20100.0
TMX,2010-07-23,20300.0
TMX,2010-07-26,19700.0
TMX,2010-07-27,19300.0
TMX,2010-07-28,19000.0
TMX,2010-07-29,19000.0
TMX,2010-07-30,19100.0
TMX,2010-08-02,18900.0
TMX,2010-08-03,18600.0
TMX,2010-08-04,17500.0
TMX,2010-08-05,17500.0
TMX,2010-08-06,17300.0
TMX,2010-08-09,16100.0
TMX,2010-08-10,15200.0
TMX,2010-08-11,15700.0
TMX,2010-08-12,14400.0
TMX,2010-08-13,14800.0
TMX,2010-08-16,15700.0
TMX,2010-08-17,15400.0
TMX,2010-08-18,14500.0
TMX,2010-08-19,14000.0
TMX,2010-08-20,13800.0
TMX,2010-08-23,13100.0
TMX,2010-08-24,12500.0
TMX,2010-08-25,11700.0
TMX,2010-08-26,11700.0
TMX,2010-08-27,11100.0
TMX,2010-08-30,11500.0
TMX,2010-08-31,12400.0
TMX,2010-09-01,13100.0
TMX,2010-09-06,13900.0
TMX,2010-09-07,14800.0
TMX,2010-09-08,14800.0
TMX,2010-09-09,15000.0
TMX,2010-09-10,14400.0
TMX,2010-09-13,13500.0
TMX,2010-09-14,14400.0
TMX,2010-09-15,13500.0
TMX,2010-09-16,14100.0
TMX,2010-09-17,14900.0
TMX,2010-09-20,14400.0
TMX,2010-09-21,14400.0
TMX,2010-09-22,14800.0
TMX,2010-09-23,14100.0
TMX,2010-09-24,14000.0
TMX,2010-09-27,14100.0
TMX,2010-09-28,14700.0
TMX,2010-09-29,14000.0
TMX,2010-09-30,14100.0
TMX,2010-10-01,13600.0
TMX,2010-10-04,12800.0
TMX,2010-10-05,13100.0
TMX,2010-10-06,13200.0
TMX,2010-10-07,13000.0
TMX,2010-10-08,12800.0
TMX,2010-10-11,12300.0
TMX,2010-10-12,12200.0
TMX,2010-10-13,12200.0
TMX,2010-10-14,12600.0
TMX,2010-10-15,12600.0
TMX,2010-10-18,12800.0
TMX,2010-10-19,12000.0
TMX,2010-10-20,11500.0
TMX,2010-10-21,11500.0
TMX,2010-10-22,11300.0
TMX,2010-10-25,11800.0
TMX,2010-10-26,12400.0
TMX,2010-10-27,12400.0
TMX,2010-10-28,11500.0
TMX,2010-10-29,11400.0
TMX,2010-11-01,10900.0
TMX,2010-11-02,11400.0
TMX,2010-11-03,10900.0
TMX,2010-11-04,10700.0
TMX,2010-11-05,11400.0
TMX,2010-11-08,10500.0
TMX,2010-11-09,9900.0
TMX,2010-11-10,9900.0
TMX,2010-11-11,9700.0
TMX,2010-11-12,9700.0
TMX,2010-11-15,9700.0
TMX,2010-11-16,9500.0
TMX,2010-11-17,9400.0
TMX,2010-11-18,9500.0
TMX,2010-11-19,9300.0
TMX,2010-11-22,9100.0
TMX,2010-11-23,9200.0
TMX,2010-11-24,9300.0
TMX,2010-11-25,9400.0
TMX,2010-11-26,9500.0
TMX,2010-11-29,10100.0
TMX,2010-11-30,10500.0
TMX,2010-12-01,10700.0
TMX,2010-12-02,11400.0
TMX,2010-12-03,11600.0
TMX,2010-12-06,11500.0
TMX,2010-12-07,11300.0
TMX,2010-12-08,10700.0
TMX,2010-12-09,10700.0
TMX,2010-12-10,11500.0
TMX,2010-12-13,12100.0
TMX,2010-12-14,12000.0
TMX,2010-12-15,12000.0
TMX,2010-12-16,11200.0
TMX,2010-12-17,11400.0
TMX,2010-12-20,10700.0
TMX,2010-12-21,10100.0
TMX,2010-12-22,10800.0
TMX,2010-12-23,10100.0
TMX,2010-12-24,11900.0
TMX,2010-12-27,11100.0
TMX,2010-12-28,11300.0
TMX,2010-12-29,11400.0
TMX,2010-12-30,11400.0
TMX,2010-12-31,12200.0
TMX,2011-01-04,11100.0
TMX,2011-01-05,10300.0
TMX,2011-01-06,10400.0
TMX,2011-01-07,11000.0
TMX,2011-01-10,11000.0
TMX,2011-01-11,10300.0
TMX,2011-01-12,10900.0
TMX,2011-01-13,10400.0
TMX,2011-01-14,10700.0
TMX,2011-01-17,10700.0
TMX,2011-01-18,9900.0
TMX,2011-01-19,10600.0
TMX,2011-01-20,10900.0
TMX,2011-01-21,10200.0
TMX,2011-01-24,10300.0
TMX,2011-01-25,10100.0
TMX,2011-01-26,10300.0
TMX,2011-01-27,10000.0
TMX,2011-01-28,10600.0
TMX,2011-02-08,10700.0
TMX,2011-02-09,10000.0
TMX,2011-02-10,10700.0
TMX,2011-02-11,10900.0
TMX,2011-02-14,10100.0
TMX,2011-02-15,9900.0
TMX,2011-02-16,10300.0
TMX,2011-02-17,9600.0
TMX,2011-02-18,9400.0
TMX,2011-02-21,8900.0
TMX,2011-02-22,8400.0
TMX,2011-02-23,8300.0
TMX,2011-02-24,8400.0
TMX,2011-02-25,8700.0
TMX,2011-02-28,8700.0
TMX,2011-03-01,8800.0
TMX,2011-03-02,8200.0
TMX,2011-03-03,7700.0
TMX,2011-03-04,7800.0
TMX,2011-03-07,7900.0
TMX,2011-03-08,7900.0
TMX,2011-03-09,7400.0
TMX,2011-03-10,8100.0
TMX,2011-03-11,8500.0
TMX,2011-03-14,9000.0
TMX,2011-03-15,8400.0
TMX,2011-03-16,8400.0
TMX,2011-03-17,8400.0
TMX,2011-03-18,8100.0
TMX,2011-03-21,7700.0
TMX,2011-03-22,7700.0
TMX,2011-03-23,7700.0
TMX,2011-03-24,7700.0
TMX,2011-03-25,8200.0
TMX,2011-03-28,7700.0
TMX,2011-03-29,7400.0
TMX,2011-03-30,7100.0
TMX,2011-03-31,7400.0
TMX,2011-04-01,7400.0
TMX,2011-04-04,7700.0
TMX,2011-04-05,7100.0
TMX,2011-04-06,7000.0
TMX,2011-04-07,7200.0
TMX,2011-04-08,6700.0
TMX,2011-04-13,7200.0
TMX,2011-04-14,7100.0
TMX,2011-04-15,6900.0
TMX,2011-04-18,6700.0
TMX,2011-04-19,6700.0
TMX,2011-04-20,6700.0
TMX,2011-04-21,6900.0
TMX,2011-04-22,7100.0
TMX,2011-04-25,6800.0
TMX,2011-04-26,6900.0
TMX,2011-04-27,7000.0
TMX,2011-04-28,7500.0
TMX,2011-04-29,7200.0
TMX,2011-05-04,7300.0
TMX,2011-05-05,7200.0
TMX,2011-05-06,7500.0
TMX,2011-05-09,7100.0
TMX,2011-05-10,6800.0
TMX,2011-05-11,7300.0
TMX,2011-05-12,7200.0
TMX,2011-05-13,6800.0
TMX,2011-05-16,7400.0
TMX,2011-05-17,7000.0
TMX,2011-05-18,7100.0
TMX,2011-05-19,7500.0
TMX,2011-05-20,7000.0
TMX,2011-05-23,7400.0
TMX,2011-05-24,7300.0
TMX,2011-05-25,6500.0
TMX,2011-05-26,6200.0
TMX,2011-05-27,6200.0
TMX,2011-05-30,6500.0
TMX,2011-05-31,6500.0
TMX,2011-06-01,6500.0
TMX,2011-06-02,6900.0
TMX,2011-06-03,6900.0
TMX,2011-06-06,6900.0
TMX,2011-06-07,7100.0
TMX,2011-06-08,7500.0
TMX,2011-06-09,8000.0
TMX,2011-06-10,8400.0
TMX,2011-06-13,8200.0
TMX,2011-06-14,8500.0
TMX,2011-06-15,8000.0
TMX,2011-06-16,7900.0
TMX,2011-06-17,8000.0
TMX,2011-06-20,7100.0
TMX,2011-06-21,7300.0
TMX,2011-06-22,6900.0
TMX,2011-06-23,6900.0
TMX,2011-06-24,6900.0
TMX,2011-06-27,7300.0
TMX,2011-06-28,7400.0
TMX,2011-06-29,7600.0
TMX,2011-06-30,7000.0
TMX,2011-07-01,6900.0
TMX,2011-07-04,7300.0
TMX,2011-07-05,7300.0
TMX,2011-07-06,7800.0
TMX,2011-07-07,7300.0
TMX,2011-07-08,7700.0
TMX,2011-07-11,7200.0
TMX,2011-07-12,6900.0
TMX,2011-07-13,7300.0
TMX,2011-07-14,7300.0
TMX,2011-07-15,6900.0
TMX,2011-07-18,6900.0
TMX,2011-07-19,6900.0
TMX,2011-07-20,6900.0
TMX,2011-07-21,6600.0
TMX,2011-07-22,6600.0
TMX,2011-07-25,6600.0
TMX,2011-07-26,6600.0
TMX,2011-07-27,6400.0
TMX,2011-07-28,6700.0
TMX,2011-07-29,6600.0
TMX,2011-08-01,6900.0
TMX,2011-08-02,6500.0
TMX,2011-08-03,6800.0
TMX,2011-08-04,7100.0
TMX,2011-08-05,6600.0
TMX,2011-08-08,6600.0
TMX,2011-08-09,6200.0
TMX,2011-08-10,5900.0
TMX,2011-08-11,6600.0
TMX,2011-08-12,6200.0
TMX,2011-08-15,6300.0
TMX,2011-08-16,6300.0
TMX,2011-08-17,6600.0
TMX,2011-08-18,6700.0
TMX,2011-08-19,6600.0
TMX,2011-08-22,6500.0
TMX,2011-08-23,6300.0
TMX,2011-08-24,6300.0
TMX,2011-08-25,6000.0
TMX,2011-08-26,6100.0
TMX,2011-08-29,6500.0
TMX,2011-08-30,6200.0
TMX,2011-08-31,6200.0
TMX,2011-09-01,6300.0
TMX,2011-09-05,6300.0
TMX,2011-09-06,6300.0
TMX,2011-09-07,6300.0
TMX,2011-09-08,6300.0
TMX,2011-09-09,6600.0
TMX,2011-09-12,6800.0
TMX,2011-09-13,6900.0
TMX,2011-09-14,6600.0
TMX,2011-09-15,6600.0
TMX,2011-09-16,6200.0
TMX,2011-09-19,6600.0
TMX,2011-09-20,6300.0
TMX,2011-09-21,5900.0
TMX,2011-09-22,5600.0
TMX,2011-09-23,5600.0
TMX,2011-09-26,5400.0
TMX,2011-09-27,5500.0
TMX,2011-09-28,5800.0
TMX,2011-09-29,5800.0
TMX,2011-09-30,5800.0
TMX,2011-10-03,6000.0
TMX,2011-10-04,5800.0
TMX,2011-10-05,5800.0
TMX,2011-10-06,5800.0
TMX,2011-10-07,5900.0
TMX,2011-10-10,5900.0
TMX,2011-10-11,5600.0
TMX,2011-10-12,5600.0
TMX,2011-10-13,5600.0
TMX,2011-10-14,5600.0
TMX,2011-10-17,5600.0
TMX,2011-10-18,6000.0
TMX,2011-10-19,5900.0
TMX,2011-10-20,6300.0
TMX,2011-10-21,6700.0
TMX,2011-10-24,6900.0
TMX,2011-10-25,6600.0
TMX,2011-10-26,6600.0
TMX,2011-10-27,6600.0
TMX,2011-10-28,6600.0
TMX,2011-10-31,6600.0
TMX,2011-11-01,6600.0
TMX,2011-11-02,6900.0
TMX,2011-11-03,6700.0
TMX,2011-11-04,6600.0
TMX,2011-11-07,6500.0
TMX,2011-11-08,6500.0
TMX,2011-11-09,6500.0
TMX,2011-11-10,6500.0
TMX,2011-11-11,6300.0
TMX,2011-11-14,6200.0
TMX,2011-11-15,6300.0
TMX,2011-11-16,6300.0
TMX,2011-11-17,6300.0
TMX,2011-11-18,6300.0
TMX,2011-11-21,6300.0
TMX,2011-11-22,6300.0
TMX,2011-11-23,6300.0
TMX,2011-11-24,6300.0
TMX,2011-11-25,6400.0
TMX,2011-11-28,6400.0
TMX,2011-11-29,6400.0
TMX,2011-11-30,6400.0
TMX,2011-12-01,6400.0
TMX,2011-12-02,6200.0
TMX,2011-12-05,6300.0
TMX,2011-12-06,6300.0
TMX,2011-12-07,6700.0
TMX,2011-12-08,6400.0
TMX,2011-12-09,6200.0
TMX,2011-12-12,6600.0
TMX,2011-12-13,6300.0
TMX,2011-12-14,6300.0
TMX,2011-12-15,6300.0
TMX,2011-12-16,6300.0
TMX,2011-12-19,6300.0
TMX,2011-12-20,6300.0
TMX,2011-12-21,6800.0
TMX,2011-12-22,7100.0
TMX,2011-12-23,7300.0
TMX,2011-12-26,7500.0
TMX,2011-12-27,7600.0
TMX,2011-12-28,8100.0
TMX,2011-12-29,8600.0
TMX,2011-12-30,8600.0
TMX,2012-01-03,8700.0
TMX,2012-01-04,8200.0
TMX,2012-01-05,8200.0
TMX,2012-01-06,7600.0
TMX,2012-01-09,7200.0
TMX,2012-01-10,6700.0
TMX,2012-01-11,6700.0
TMX,2012-01-12,6300.0
TMX,2012-01-13,6600.0
TMX,2012-01-16,6600.0
TMX,2012-01-17,6300.0
TMX,2012-01-18,6300.0
TMX,2012-01-19,6300.0
TMX,2012-01-20,6300.0
TMX,2012-01-30,6600.0
TMX,2012-01-31,6600.0
TMX,2012-02-01,6600.0
TMX,2012-02-02,6600.0
TMX,2012-02-03,6600.0
TMX,2012-02-06,6600.0
TMX,2012-02-07,6600.0
TMX,2012-02-08,6600.0
TMX,2012-02-09,6600.0
TMX,2012-02-10,6600.0
TMX,2012-02-13,6600.0
TMX,2012-02-14,6600.0
TMX,2012-02-15,6600.0
TMX,2012-02-16,6600.0
TMX,2012-02-17,6300.0
TMX,2012-02-20,6200.0
TMX,2012-02-21,6100.0
TMX,2012-02-22,6400.0
TMX,2012-02-23,6200.0
TMX,2012-02-24,6200.0
TMX,2012-02-27,6200.0
TMX,2012-02-28,6400.0
TMX,2012-02-29,6400.0
TMX,2012-03-01,6400.0
TMX,2012-03-02,6400.0
TMX,2012-03-05,6800.0
TMX,2012-03-06,7000.0
TMX,2012-03-07,7000.0
TMX,2012-03-08,7000.0
TMX,2012-03-09,7000.0
TMX,2012-03-12,7100.0
TMX,2012-03-13,7500.0
TMX,2012-03-14,7300.0
TMX,2012-03-15,7200.0
TMX,2012-03-16,7200.0
TMX,2012-03-19,7200.0
TMX,2012-03-20,6700.0
TMX,2012-03-21,6900.0
TMX,2012-03-22,6900.0
TMX,2012-03-23,6900.0
TMX,2012-03-26,6900.0
TMX,2012-03-27,6500.0
TMX,2012-03-28,6500.0
TMX,2012-03-29,6500.0
TMX,2012-03-30,6500.0
TMX,2012-04-03,6300.0
TMX,2012-04-04,6100.0
TMX,2012-04-05,6500.0
TMX,2012-04-06,6600.0
TMX,2012-04-09,6600.0
TMX,2012-04-10,6600.0
TMX,2012-04-11,7100.0
TMX,2012-04-12,7100.0
TMX,2012-04-13,7100.0
TMX,2012-04-16,7100.0
TMX,2012-04-17,6600.0
TMX,2012-04-18,6300.0
TMX,2012-04-19,6300.0
TMX,2012-04-20,6300.0
TMX,2012-04-23,6700.0
TMX,2012-04-24,6800.0
TMX,2012-04-25,7200.0
TMX,2012-04-26,7000.0
TMX,2012-04-27,7000.0
TMX,2012-05-02,6900.0
TMX,2012-05-03,6900.0
TMX,2012-05-04,6900.0
TMX,2012-05-07,7300.0
TMX,2012-05-08,7300.0
TMX,2012-05-09,7300.0
TMX,2012-05-10,7600.0
TMX,2012-05-11,7400.0
TMX,2012-05-14,7400.0
TMX,2012-05-15,7400.0
TMX,2012-05-16,6900.0
TMX,2012-05-17,6900.0
TMX,2012-05-18,6900.0
TMX,2012-05-21,7400.0
TMX,2012-05-22,7400.0
TMX,2012-05-23,6900.0
TMX,2012-05-24,6900.0
TMX,2012-05-25,7300.0
TMX,2012-05-28,7300.0
TMX,2012-05-29,7300.0
TMX,2012-05-30,7400.0
TMX,2012-05-31,7400.0
TMX,2012-06-01,7400.0
TMX,2012-06-04,7400.0
TMX,2012-06-05,7400.0
TMX,2012-06-06,7400.0
TMX,2012-06-07,7600.0
TMX,2012-06-08,7300.0
TMX,2012-06-11,7100.0
TMX,2012-06-12,7400.0
TMX,2012-06-13,7400.0
TMX,2012-06-14,7400.0
TMX,2012-06-15,7400.0
TMX,2012-06-18,7400.0
TMX,2012-06-19,7400.0
TMX,2012-06-20,7400.0
TMX,2012-06-21,7400.0
TMX,2012-06-22,7400.0
TMX,2012-06-25,7400.0
TMX,2012-06-26,7400.0
TMX,2012-06-27,7400.0
TMX,2012-06-28,7400.0
TMX,2012-06-29,7600.0
TMX,2012-07-02,7800.0
TMX,2012-07-03,7800.0
TMX,2012-07-04,7800.0
TMX,2012-07-05,7300.0
TMX,2012-07-06,7200.0
TMX,2012-07-09,7200.0
TMX,2012-07-10,7300.0
TMX,2012-07-11,7200.0
TMX,2012-07-12,7100.0
TMX,2012-07-13,7100.0
TMX,2012-07-16,7100.0
TMX,2012-07-17,7100.0
TMX,2012-07-18,7200.0
TMX,2012-07-19,7200.0
TMX,2012-07-20,6900.0
TMX,2012-07-23,6900.0
TMX,2012-07-24,6900.0
TMX,2012-07-25,6600.0
TMX,2012-07-26,6600.0
TMX,2012-07-27,6600.0
TMX,2012-07-30,6600.0
TMX,2012-07-31,6300.0
TMX,2012-08-01,6600.0
TMX,2012-08-02,6600.0
TMX,2012-08-03,6600.0
TMX,2012-08-06,6600.0
TMX,2012-08-07,6600.0
TMX,2012-08-08,6600.0
TMX,2012-08-09,6600.0
TMX,2012-08-10,6300.0
TMX,2012-08-13,6000.0
TMX,2012-08-14,6000.0
TMX,2012-08-15,6000.0
TMX,2012-08-16,6000.0
TMX,2012-08-17,6000.0
TMX,2012-08-20,6000.0
TMX,2012-08-21,5600.0
TMX,2012-08-22,5300.0
TMX,2012-08-23,5300.0
TMX,2012-08-24,5300.0
TMX,2012-08-27,5300.0
TMX,2012-08-28,5300.0
TMX,2012-08-29,5300.0
TMX,2012-08-30,5200.0
TMX,2012-08-31,5200.0
TMX,2012-09-04,5200.0
TMX,2012-09-05,5200.0
TMX,2012-09-06,5200.0
TMX,2012-09-07,5200.0
TMX,2012-09-10,4900.0
TMX,2012-09-11,4900.0
TMX,2012-09-12,4900.0
TMX,2012-09-13,4700.0
TMX,2012-09-14,4700.0
TMX,2012-09-17,4700.0
TMX,2012-09-18,4900.0
TMX,2012-09-19,4900.0
TMX,2012-09-20,5200.0
TMX,2012-09-21,5200.0
TMX,2012-09-24,5500.0
TMX,2012-09-25,5200.0
TMX,2012-09-26,5200.0
TMX,2012-09-27,5200.0
TMX,2012-09-28,4800.0
TMX,2012-10-01,4600.0
TMX,2012-10-02,4400.0
TMX,2012-10-03,4400.0
TMX,2012-10-04,4300.0
TMX,2012-10-05,4300.0
TMX,2012-10-08,4300.0
TMX,2012-10-09,4600.0
TMX,2012-10-10,4300.0
TMX,2012-10-11,4600.0
TMX,2012-10-12,4300.0
TMX,2012-10-15,4600.0
TMX,2012-10-16,4800.0
TMX,2012-10-17,4800.0
TMX,2012-10-18,4700.0
TMX,2012-10-19,4700.0
TMX,2012-10-22,4700.0
TMX,2012-10-23,4700.0
TMX,2012-10-24,4700.0
TMX,2012-10-25,4700.0
TMX,2012-10-26,4600.0
TMX,2012-10-29,4700.0
TMX,2012-10-30,4700.0
TMX,2012-10-31,4700.0
TMX,2012-11-01,4700.0
TMX,2012-11-02,4600.0
TMX,2012-11-05,4600.0
TMX,2012-11-06,4800.0
TMX,2012-11-07,4800.0
TMX,2012-11-08,4600.0
TMX,2012-11-09,4300.0
TMX,2012-11-12,4600.0
TMX,2012-11-13,4700.0
TMX,2012-11-14,4800.0
TMX,2012-11-15,4800.0
TMX,2012-11-16,4800.0
TMX,2012-11-19,5000.0
TMX,2012-11-20,4700.0
TMX,2012-11-21,4700.0
TMX,2012-11-22,4500.0
TMX,2012-11-23,4600.0
TMX,2012-11-26,4600.0
TMX,2012-11-27,4600.0
TMX,2012-11-28,4800.0
TMX,2012-11-29,4800.0
TMX,2012-11-30,4800.0
TMX,2012-12-03,4800.0
TMX,2012-12-04,4800.0
TMX,2012-12-05,4800.0
TMX,2012-12-06,5000.0
TMX,2012-12-07,5000.0
TMX,2012-12-10,4700.0
TMX,2012-12-11,4700.0
TMX,2012-12-12,4700.0
TMX,2012-12-13,4700.0
TMX,2012-12-14,5000.0
TMX,2012-12-17,5000.0
TMX,2012-12-18,5000.0
TMX,2012-12-19,4800.0
TMX,2012-12-20,4800.0
TMX,2012-12-21,4800.0
TMX,2012-12-24,4800.0
TMX,2012-12-25,4800.0
TMX,2012-12-26,4800.0
TMX,2012-12-27,5100.0
TMX,2012-12-28,5400.0
TMX,2013-01-02,5400.0
TMX,2013-01-03,5800.0
TMX,2013-01-04,5800.0
TMX,2013-01-07,6100.0
TMX,2013-01-08,6300.0
TMX,2013-01-09,6200.0
TMX,2013-01-10,6000.0
TMX,2013-01-11,6000.0
TMX,2013-01-14,6000.0
TMX,2013-01-15,6000.0
TMX,2013-01-16,6000.0
TMX,2013-01-17,6000.0
TMX,2013-01-18,6000.0
TMX,2013-01-21,6000.0
TMX,2013-01-22,6000.0
TMX,2013-01-23,6000.0
TMX,2013-01-24,5400.0
TMX,2013-01-25,5400.0
TMX,2013-01-28,5700.0
TMX,2013-01-29,5700.0
TMX,2013-01-30,5700.0
TMX,2013-01-31,5500.0
TMX,2013-02-01,5500.0
TMX,2013-02-04,5500.0
TMX,2013-02-05,5500.0
TMX,2013-02-06,5500.0
TMX,2013-02-07,5500.0
TMX,2013-02-08,5500.0
TMX,2013-02-18,5500.0
TMX,2013-02-19,5600.0
TMX,2013-02-20,5600.0
TMX,2013-02-21,5400.0
TMX,2013-02-22,5400.0
TMX,2013-02-25,5400.0
TMX,2013-02-26,5500.0
TMX,2013-02-27,5500.0
TMX,2013-02-28,5600.0
TMX,2013-03-01,5900.0
TMX,2013-03-04,5900.0
TMX,2013-03-05,5400.0
TMX,2013-03-06,5400.0
TMX,2013-03-07,5400.0
TMX,2013-03-08,5400.0
TMX,2013-03-11,5400.0
TMX,2013-03-12,5400.0
TMX,2013-03-13,5400.0
TMX,2013-03-14,5400.0
TMX,2013-03-15,5400.0
TMX,2013-03-18,6000.0
TMX,2013-03-19,6000.0
TMX,2013-03-20,6000.0
TMX,2013-03-21,6000.0
TMX,2013-03-22,6000.0
TMX,2013-03-25,6000.0
TMX,2013-03-26,5400.0
TMX,2013-03-27,5400.0
TMX,2013-03-28,5400.0
TMX,2013-03-29,5400.0
TMX,2013-04-01,5400.0
TMX,2013-04-02,5400.0
TMX,2013-04-03,5400.0
TMX,2013-04-04,5400.0
TMX,2013-04-05,5400.0
TMX,2013-04-08,5400.0
TMX,2013-04-09,5400.0
TMX,2013-04-10,5400.0
TMX,2013-04-11,5400.0
TMX,2013-04-12,5400.0
TMX,2013-04-15,5400.0
TMX,2013-04-16,5400.0
TMX,2013-04-17,5400.0
TMX,2013-04-18,5400.0
TMX,2013-04-22,5400.0
TMX,2013-04-23,5400.0
TMX,2013-04-24,5400.0
TMX,2013-04-25,5400.0
TMX,2013-04-26,5400.0
TMX,2013-05-02,5400.0
TMX,2013-05-03,5400.0
TMX,2013-05-06,5400.0
TMX,2013-05-07,5400.0
TMX,2013-05-08,5400.0
TMX,2013-05-09,5500.0
TMX,2013-05-10,5500.0
TMX,2013-05-13,5900.0
TMX,2013-05-14,5900.0
TMX,2013-05-15,5900.0
TMX,2013-05-16,5900.0
TMX,2013-05-17,5900.0
TMX,2013-05-20,5900.0
TMX,2013-05-21,5900.0
TMX,2013-05-22,5900.0
TMX,2013-05-23,5900.0
TMX,2013-05-24,5900.0
TMX,2013-05-27,5900.0
TMX,2013-05-28,5600.0
TMX,2013-05-29,5600.0
TMX,2013-05-30,5600.0
TMX,2013-05-31,5600.0
TMX,2013-06-03,5600.0
TMX,2013-06-04,5600.0
TMX,2013-06-05,5600.0
TMX,2013-06-06,5700.0
TMX,2013-06-07,6000.0
TMX,2013-06-10,6000.0
TMX,2013-06-11,6000.0
TMX,2013-06-12,6000.0
TMX,2013-06-13,6100.0
TMX,2013-06-14,6100.0
TMX,2013-06-17,6300.0
TMX,2013-06-18,6600.0
TMX,2013-06-19,6600.0
TMX,2013-06-20,6600.0
TMX,2013-06-21,6600.0
TMX,2013-06-24,6600.0
TMX,2013-06-25,6100.0
TMX,2013-06-26,6100.0
TMX,2013-06-27,6100.0
TMX,2013-06-28,6700.0
TMX,2013-07-01,6100.0
TMX,2013-07-02,5800.0
TMX,2013-07-03,6200.0
TMX,2013-07-04,6500.0
TMX,2013-07-05,6800.0
TMX,2013-07-08,6800.0
TMX,2013-07-09,6800.0
TMX,2013-07-10,6800.0
TMX,2013-07-11,6800.0
TMX,2013-07-12,6800.0
TMX,2013-07-15,6800.0
TMX,2013-07-16,6800.0
TMX,2013-07-17,7400.0
TMX,2013-07-18,7400.0
TMX,2013-07-19,7400.0
TMX,2013-07-22,8100.0
TMX,2013-07-23,8400.0
TMX,2013-07-24,9200.0
TMX,2013-07-25,9200.0
TMX,2013-07-26,9200.0
TMX,2013-07-29,9200.0
TMX,2013-07-30,9200.0
TMX,2013-07-31,8500.0
TMX,2013-08-01,7900.0
TMX,2013-08-02,7500.0
TMX,2013-08-05,8100.0
TMX,2013-08-06,7300.0
TMX,2013-08-07,7900.0
TMX,2013-08-08,7200.0
TMX,2013-08-09,7200.0
TMX,2013-08-12,7200.0
TMX,2013-08-13,7200.0
TMX,2013-08-14,7900.0
TMX,2013-08-15,7900.0
TMX,2013-08-16,7900.0
TMX,2013-08-19,7200.0
TMX,2013-08-20,7200.0
TMX,2013-08-21,7200.0
TMX,2013-08-22,7200.0
TMX,2013-08-23,7200.0
TMX,2013-08-26,7200.0
TMX,2013-08-27,7000.0
TMX,2013-08-28,7000.0
TMX,2013-08-29,7100.0
TMX,2013-08-30,7000.0
TMX,2013-09-03,7000.0
TMX,2013-09-04,7000.0
TMX,2013-09-05,7000.0
TMX,2013-09-06,7000.0
TMX,2013-09-09,7000.0
TMX,2013-09-10,7000.0
TMX,2013-09-11,7000.0
TMX,2013-09-12,7000.0
TMX,2013-09-13,7000.0
TMX,2013-09-16,7000.0
TMX,2013-09-17,6700.0
TMX,2013-09-18,6700.0
TMX,2013-09-19,6700.0
TMX,2013-09-20,6700.0
TMX,2013-09-23,6700.0
TMX,2013-09-24,6700.0
TMX,2013-09-25,6700.0
TMX,2013-09-26,6700.0
TMX,2013-09-27,6700.0
TMX,2013-09-30,6700.0
TMX,2013-10-01,6700.0
TMX,2013-10-02,6700.0
TMX,2013-10-03,6700.0
TMX,2013-10-04,6700.0
TMX,2013-10-07,6700.0
TMX,2013-10-08,6700.0
TMX,2013-10-09,6100.0
TMX,2013-10-10,6100.0
TMX,2013-10-11,6100.0
TMX,2013-10-14,6100.0
TMX,2013-10-15,6100.0
TMX,2013-10-16,6100.0
TMX,2013-10-17,6100.0
TMX,2013-10-18,6100.0
TMX,2013-10-21,6100.0
TMX,2013-10-22,6100.0
TMX,2013-10-23,6100.0
TMX,2013-10-24,6100.0
TMX,2013-10-25,6700.0
TMX,2013-10-28,6800.0
TMX,2013-10-29,6800.0
TMX,2013-10-30,7300.0
TMX,2013-10-31,8000.0
TMX,2013-11-01,8700.0
TMX,2013-11-04,9100.0
TMX,2013-11-05,9900.0
TMX,2013-11-06,10000.0
TMX,2013-11-07,10400.0
TMX,2013-11-08,10500.0
TMX,2013-11-11,10400.0
TMX,2013-11-12,10400.0
TMX,2013-11-13,10300.0
TMX,2013-11-14,10200.0
TMX,2013-11-15,10100.0
TMX,2013-11-18,10100.0
TMX,2013-11-19,10000.0
TMX,2013-11-20,9900.0
TMX,2013-11-21,9900.0
TMX,2013-11-22,9800.0
TMX,2013-11-25,9800.0
TMX,2013-11-26,9700.0
TMX,2013-11-27,9700.0
TMX,2013-11-28,9700.0
TMX,2013-11-29,9700.0
TMX,2013-12-02,9700.0
TMX,2013-12-03,9700.0
TMX,2013-12-04,9700.0
TMX,2013-12-05,9600.0
TMX,2013-12-06,9500.0
TMX,2013-12-09,9500.0
TMX,2013-12-10,9500.0
TMX,2013-12-11,9400.0
TMX,2013-12-12,9400.0
TMX,2013-12-13,9400.0
TMX,2013-12-16,9300.0
TMX,2013-12-17,9200.0
TMX,2013-12-18,9200.0
TMX,2013-12-19,9200.0
TMX,2013-12-20,9100.0
TMX,2013-12-23,9100.0
TMX,2013-12-24,9000.0
TMX,2013-12-25,9000.0
TMX,2013-12-26,9000.0
TMX,2013-12-27,9000.0
TMX,2013-12-30,9000.0
TMX,2013-12-31,9000.0
TMX,2014-01-02,9000.0
TMX,2014-01-03,9000.0
TMX,2014-01-06,9000.0
TMX,2014-01-07,9000.0
TMX,2014-01-08,9000.0
TMX,2014-01-09,8900.0
TMX,2014-01-10,8900.0
TMX,2014-01-13,8900.0
TMX,2014-01-14,8900.0
TMX,2014-01-15,8900.0
TMX,2014-01-16,8900.0
TMX,2014-01-17,8900.0
TMX,2014-01-20,8900.0
TMX,2014-01-21,8800.0
TMX,2014-01-22,8800.0
TMX,2014-01-23,8800.0
TMX,2014-01-24,9600.0
TMX,2014-01-27,10500.0
TMX,2014-02-06,10500.0
TMX,2014-02-07,10500.0
TMX,2014-02-10,10500.0
TMX,2014-02-11,10500.0
TMX,2014-02-12,11400.0
TMX,2014-02-13,11400.0
TMX,2014-02-14,11400.0
TMX,2014-02-17,11400.0
TMX,2014-02-18,11400.0
TMX,2014-02-19,11400.0
TMX,2014-02-20,11400.0
TMX,2014-02-21,11400.0
TMX,2014-02-24,11400.0
TMX,2014-02-25,11400.0
TMX,2014-02-26,11400.0
TMX,2014-02-27,11400.0
TMX,2014-02-28,11400.0
TMX,2014-03-03,11400.0
TMX,2014-03-04,11400.0
TMX,2014-03-05,11400.0
TMX,2014-03-06,11400.0
TMX,2014-03-07,11400.0
TMX,2014-03-10,10300.0
TMX,2014-03-11,9500.0
TMX,2014-03-12,8600.0
TMX,2014-03-13,8600.0
TMX,2014-03-14,8900.0
TMX,2014-03-17,8600.0
TMX,2014-03-18,8600.0
TMX,2014-03-19,9000.0
TMX,2014-03-20,9000.0
TMX,2014-03-21,9000.0
TMX,2014-03-24,9000.0
TMX,2014-03-25,9000.0
TMX,2014-03-26,9000.0
TMX,2014-03-27,9000.0
TMX,2014-03-28,8600.0
TMX,2014-03-31,8600.0
TMX,2014-04-01,8600.0
TMX,2014-04-02,8500.0
TMX,2014-04-03,8700.0
TMX,2014-04-04,8700.0
TMX,2014-04-07,8700.0
TMX,2014-04-08,8700.0
TMX,2014-04-10,8700.0
TMX,2014-04-11,8800.0
TMX,2014-04-14,8400.0
TMX,2014-04-15,8400.0
TMX,2014-04-16,8300.0
TMX,2014-04-17,8300.0
TMX,2014-04-18,8200.0
TMX,2014-04-21,8200.0
TMX,2014-04-22,8200.0
TMX,2014-04-23,8200.0
TMX,2014-04-24,8200.0
TMX,2014-04-25,8200.0
TMX,2014-04-28,8200.0
TMX,2014-04-29,8200.0
TMX,2014-05-05,8200.0
TMX,2014-05-06,8200.0
TMX,2014-05-07,8200.0
TMX,2014-05-08,8100.0
TMX,2014-05-09,8100.0
TMX,2014-05-12,8100.0
TMX,2014-05-13,8100.0
TMX,2014-05-14,8100.0
TMX,2014-05-15,8100.0
TMX,2014-05-16,8100.0
TMX,2014-05-19,8100.0
TMX,2014-05-20,8100.0
TMX,2014-05-21,8100.0
