TPH,2006-12-15,12800.0
TPH,2006-12-18,12400.0
TPH,2006-12-19,12000.0
TPH,2006-12-20,11500.0
TPH,2006-12-21,11100.0
TPH,2006-12-22,10700.0
TPH,2006-12-25,9600.0
TPH,2006-12-26,8700.0
TPH,2006-12-27,9600.0
TPH,2006-12-28,10200.0
TPH,2006-12-29,9700.0
TPH,2007-01-02,10200.0
TPH,2007-01-03,10700.0
TPH,2007-01-04,11800.0
TPH,2007-01-05,12000.0
TPH,2007-01-08,11500.0
TPH,2007-01-09,11600.0
TPH,2007-01-10,11600.0
TPH,2007-01-11,10700.0
TPH,2007-01-12,10800.0
TPH,2007-01-15,11500.0
TPH,2007-01-16,11500.0
TPH,2007-01-17,12000.0
TPH,2007-01-18,13600.0
TPH,2007-01-19,14300.0
TPH,2007-01-22,15700.0
TPH,2007-01-23,15900.0
TPH,2007-01-24,16400.0
TPH,2007-01-25,14800.0
TPH,2007-01-26,13800.0
TPH,2007-01-29,14500.0
TPH,2007-01-30,15300.0
TPH,2007-01-31,16800.0
TPH,2007-02-01,16600.0
TPH,2007-02-02,16500.0
TPH,2007-02-05,16600.0
TPH,2007-02-06,16100.0
TPH,2007-02-07,15700.0
TPH,2007-02-08,15900.0
TPH,2007-02-09,15300.0
TPH,2007-02-12,16500.0
TPH,2007-02-13,16700.0
TPH,2007-02-14,16900.0
TPH,2007-02-15,17900.0
TPH,2007-02-26,19400.0
TPH,2007-02-27,19800.0
TPH,2007-02-28,20200.0
TPH,2007-03-01,21200.0
TPH,2007-03-02,23000.0
TPH,2007-03-05,24900.0
TPH,2007-03-06,27300.0
TPH,2007-03-07,29900.0
TPH,2007-03-08,32400.0
TPH,2007-03-09,33200.0
TPH,2007-03-12,33400.0
TPH,2007-03-13,32600.0
TPH,2007-03-14,29800.0
TPH,2007-03-15,27500.0
TPH,2007-03-16,30800.0
TPH,2007-03-19,33000.0
TPH,2007-03-20,33400.0
TPH,2007-03-21,33000.0
TPH,2007-03-22,32200.0
TPH,2007-03-23,30100.0
TPH,2007-03-26,28900.0
TPH,2007-03-27,27900.0
TPH,2007-03-28,28100.0
TPH,2007-03-29,28000.0
TPH,2007-03-30,26400.0
TPH,2007-04-02,24500.0
TPH,2007-04-03,23500.0
TPH,2007-04-04,24500.0
TPH,2007-04-05,24100.0
TPH,2007-04-06,23100.0
TPH,2007-04-09,22400.0
TPH,2007-04-10,21400.0
TPH,2007-04-11,20600.0
TPH,2007-04-12,20000.0
TPH,2007-04-13,20600.0
TPH,2007-04-16,18400.0
TPH,2007-04-17,16700.0
TPH,2007-04-18,18300.0
TPH,2007-04-19,20100.0
TPH,2007-04-20,20000.0
TPH,2007-04-23,16700.0
TPH,2007-04-24,18400.0
TPH,2007-04-25,19000.0
TPH,2007-05-02,20000.0
TPH,2007-05-03,18100.0
TPH,2007-05-04,18100.0
TPH,2007-05-07,20400.0
TPH,2007-05-08,19800.0
TPH,2007-05-09,19800.0
TPH,2007-05-10,21000.0
TPH,2007-05-11,21000.0
TPH,2007-05-14,20000.0
TPH,2007-05-15,19800.0
TPH,2007-05-16,19400.0
TPH,2007-05-17,19800.0
TPH,2007-05-18,20100.0
TPH,2007-05-21,21800.0
TPH,2007-05-22,23600.0
TPH,2007-05-23,24700.0
TPH,2007-05-24,23000.0
TPH,2007-05-25,24500.0
TPH,2007-05-28,26100.0
TPH,2007-05-29,28600.0
TPH,2007-05-30,28900.0
TPH,2007-05-31,27500.0
TPH,2007-06-01,28200.0
TPH,2007-06-04,25100.0
TPH,2007-06-05,24700.0
TPH,2007-06-06,25400.0
TPH,2007-06-07,25700.0
TPH,2007-06-08,25400.0
TPH,2007-06-11,24800.0
TPH,2007-06-12,24800.0
TPH,2007-06-13,23900.0
TPH,2007-06-14,24300.0
TPH,2007-06-15,24800.0
TPH,2007-06-18,23500.0
TPH,2007-06-19,23600.0
TPH,2007-06-20,23600.0
TPH,2007-06-21,21700.0
TPH,2007-06-22,23500.0
TPH,2007-06-25,23900.0
TPH,2007-06-26,24000.0
TPH,2007-06-27,23200.0
TPH,2007-06-28,23200.0
TPH,2007-06-29,20900.0
TPH,2007-07-02,18900.0
TPH,2007-07-03,17900.0
TPH,2007-07-04,19700.0
TPH,2007-07-05,21500.0
TPH,2007-07-06,21700.0
TPH,2007-07-09,19800.0
TPH,2007-07-10,21000.0
TPH,2007-07-11,21500.0
TPH,2007-07-12,21500.0
TPH,2007-07-13,19800.0
TPH,2007-07-16,19400.0
TPH,2007-07-17,19500.0
TPH,2007-07-18,19700.0
TPH,2007-07-19,19400.0
TPH,2007-07-20,19400.0
TPH,2007-07-23,19400.0
TPH,2007-07-24,19400.0
TPH,2007-07-25,19400.0
TPH,2007-07-26,19500.0
TPH,2007-07-27,19200.0
TPH,2007-07-30,19200.0
TPH,2007-07-31,19200.0
TPH,2007-08-01,21100.0
TPH,2007-08-02,19000.0
TPH,2007-08-03,17300.0
TPH,2007-08-06,17300.0
TPH,2007-08-07,17600.0
TPH,2007-08-08,17600.0
TPH,2007-08-09,17600.0
TPH,2007-08-10,17900.0
TPH,2007-08-13,17600.0
TPH,2007-08-14,15900.0
TPH,2007-08-15,17400.0
TPH,2007-08-16,17400.0
TPH,2007-08-17,17600.0
TPH,2007-08-20,17900.0
TPH,2007-08-21,17900.0
TPH,2007-08-22,17900.0
TPH,2007-08-23,16700.0
TPH,2007-08-24,16100.0
TPH,2007-08-27,16400.0
TPH,2007-08-28,17300.0
TPH,2007-08-29,16700.0
TPH,2007-08-30,16400.0
TPH,2007-08-31,16400.0
TPH,2007-09-04,17000.0
TPH,2007-09-05,17000.0
TPH,2007-09-06,17500.0
TPH,2007-09-07,16900.0
TPH,2007-09-10,17100.0
TPH,2007-09-11,18700.0
TPH,2007-09-12,20000.0
TPH,2007-09-13,18600.0
TPH,2007-09-14,18600.0
TPH,2007-09-17,18600.0
TPH,2007-09-18,19200.0
TPH,2007-09-19,20100.0
TPH,2007-09-20,19800.0
TPH,2007-09-21,19800.0
TPH,2007-09-24,19800.0
TPH,2007-09-25,20400.0
TPH,2007-09-26,21300.0
TPH,2007-09-27,20400.0
TPH,2007-09-28,22300.0
TPH,2007-10-01,23400.0
TPH,2007-10-02,24100.0
TPH,2007-10-03,25400.0
TPH,2007-10-04,25700.0
TPH,2007-10-05,24800.0
TPH,2007-10-08,23000.0
TPH,2007-10-09,24100.0
TPH,2007-10-10,23800.0
TPH,2007-10-11,24300.0
TPH,2007-10-12,25100.0
TPH,2007-10-15,27000.0
TPH,2007-10-16,28400.0
TPH,2007-10-17,30300.0
TPH,2007-10-18,28500.0
TPH,2007-10-19,29800.0
TPH,2007-10-22,30300.0
TPH,2007-10-23,30300.0
TPH,2007-10-24,30700.0
TPH,2007-10-25,33500.0
TPH,2007-10-26,36900.0
TPH,2007-10-29,40500.0
TPH,2007-10-30,37400.0
TPH,2007-10-31,34500.0
TPH,2007-11-01,38200.0
TPH,2007-11-02,36500.0
TPH,2007-11-05,34700.0
TPH,2007-11-06,34000.0
TPH,2007-11-07,35900.0
TPH,2007-11-08,36500.0
TPH,2007-11-09,35600.0
TPH,2007-11-12,36500.0
TPH,2007-11-13,32600.0
TPH,2007-11-14,36100.0
TPH,2007-11-15,32800.0
TPH,2007-11-16,32900.0
TPH,2007-11-19,35300.0
TPH,2007-11-20,32900.0
TPH,2007-11-21,34700.0
TPH,2007-11-22,35800.0
TPH,2007-11-23,32800.0
TPH,2007-11-26,32200.0
TPH,2007-11-27,32800.0
TPH,2007-11-28,34700.0
TPH,2007-11-29,34000.0
TPH,2007-11-30,33300.0
TPH,2007-12-03,34000.0
TPH,2007-12-04,34000.0
TPH,2007-12-05,33400.0
TPH,2007-12-06,34000.0
TPH,2007-12-07,33700.0
TPH,2007-12-10,33800.0
TPH,2007-12-11,30900.0
TPH,2007-12-12,34000.0
TPH,2007-12-13,31600.0
TPH,2007-12-14,30600.0
TPH,2007-12-17,30900.0
TPH,2007-12-18,31600.0
TPH,2007-12-19,30900.0
TPH,2007-12-20,30600.0
TPH,2007-12-21,31000.0
TPH,2007-12-24,30400.0
TPH,2007-12-25,28200.0
TPH,2007-12-26,28500.0
TPH,2007-12-27,28500.0
TPH,2007-12-28,29100.0
TPH,2008-01-02,28800.0
TPH,2008-01-03,27900.0
TPH,2008-01-04,26100.0
TPH,2008-01-07,26000.0
TPH,2008-01-08,25700.0
TPH,2008-01-09,26000.0
TPH,2008-01-10,24800.0
TPH,2008-01-11,26000.0
TPH,2008-01-14,23900.0
TPH,2008-01-15,22300.0
TPH,2008-01-16,24800.0
TPH,2008-01-17,24100.0
TPH,2008-01-18,25400.0
TPH,2008-01-21,23800.0
TPH,2008-01-22,23600.0
TPH,2008-01-23,23300.0
TPH,2008-01-24,22300.0
TPH,2008-01-25,22800.0
TPH,2008-01-28,22900.0
TPH,2008-01-29,23800.0
TPH,2008-01-30,26000.0
TPH,2008-01-31,25200.0
TPH,2008-02-01,24900.0
TPH,2008-02-12,24400.0
TPH,2008-02-13,24800.0
TPH,2008-02-14,24800.0
TPH,2008-02-15,23800.0
TPH,2008-02-18,23000.0
TPH,2008-02-19,23800.0
TPH,2008-02-20,22000.0
TPH,2008-02-21,19900.0
TPH,2008-02-22,19800.0
TPH,2008-02-25,20900.0
TPH,2008-02-26,21100.0
TPH,2008-02-27,20100.0
TPH,2008-02-28,18900.0
TPH,2008-02-29,18600.0
TPH,2008-03-03,18100.0
TPH,2008-03-04,15700.0
TPH,2008-03-05,14900.0
TPH,2008-03-06,16000.0
TPH,2008-03-07,17500.0
TPH,2008-03-10,19200.0
TPH,2008-03-11,17900.0
TPH,2008-03-12,17900.0
TPH,2008-03-13,18900.0
TPH,2008-03-14,18200.0
TPH,2008-03-17,16700.0
TPH,2008-03-18,15100.0
TPH,2008-03-19,14900.0
TPH,2008-03-20,14200.0
TPH,2008-03-21,13700.0
TPH,2008-03-24,12400.0
TPH,2008-03-25,11400.0
TPH,2008-03-26,12500.0
TPH,2008-03-27,12100.0
TPH,2008-03-28,12300.0
TPH,2008-03-31,12500.0
TPH,2008-04-01,12700.0
TPH,2008-04-02,13000.0
TPH,2008-04-03,13200.0
TPH,2008-04-04,13500.0
TPH,2008-04-07,13900.0
TPH,2008-04-08,13500.0
TPH,2008-04-09,13500.0
TPH,2008-04-10,13400.0
TPH,2008-04-11,13600.0
TPH,2008-04-16,12700.0
TPH,2008-04-17,13000.0
TPH,2008-04-18,13300.0
TPH,2008-04-21,12900.0
TPH,2008-04-22,12600.0
TPH,2008-04-23,12200.0
TPH,2008-04-24,11900.0
TPH,2008-04-25,11800.0
TPH,2008-04-28,11400.0
TPH,2008-04-29,11400.0
TPH,2008-05-05,11500.0
TPH,2008-05-06,11200.0
TPH,2008-05-07,10900.0
TPH,2008-05-08,10900.0
TPH,2008-05-09,10900.0
TPH,2008-05-12,10900.0
TPH,2008-05-13,10600.0
TPH,2008-05-14,10600.0
TPH,2008-05-15,10300.0
TPH,2008-05-16,10000.0
TPH,2008-05-19,9800.0
TPH,2008-05-20,9500.0
TPH,2008-05-21,9300.0
TPH,2008-05-22,9300.0
TPH,2008-05-23,9000.0
TPH,2008-05-26,9000.0
TPH,2008-05-27,8800.0
TPH,2008-05-28,8500.0
TPH,2008-05-29,8300.0
TPH,2008-05-30,8000.0
TPH,2008-06-02,7900.0
TPH,2008-06-03,7700.0
TPH,2008-06-04,7500.0
TPH,2008-06-05,7300.0
TPH,2008-06-06,7100.0
TPH,2008-06-09,6900.0
TPH,2008-06-10,6700.0
TPH,2008-06-11,6900.0
TPH,2008-06-12,7100.0
TPH,2008-06-13,7200.0
TPH,2008-06-16,7400.0
TPH,2008-06-17,7600.0
TPH,2008-06-18,7400.0
TPH,2008-06-19,7700.0
TPH,2008-06-20,7400.0
TPH,2008-06-23,7400.0
TPH,2008-06-24,7000.0
TPH,2008-06-25,7100.0
TPH,2008-06-26,6700.0
TPH,2008-06-27,6500.0
TPH,2008-06-30,6400.0
TPH,2008-07-01,6700.0
TPH,2008-07-02,6900.0
TPH,2008-07-03,7200.0
TPH,2008-07-04,7400.0
TPH,2008-07-07,7700.0
TPH,2008-07-08,7400.0
TPH,2008-07-09,7400.0
TPH,2008-07-10,7500.0
TPH,2008-07-11,7700.0
TPH,2008-07-14,8000.0
TPH,2008-07-15,8400.0
TPH,2008-07-16,8700.0
TPH,2008-07-17,8600.0
TPH,2008-07-18,8300.0
TPH,2008-07-21,8000.0
TPH,2008-07-22,7700.0
TPH,2008-07-23,7400.0
TPH,2008-07-24,7200.0
TPH,2008-07-25,6900.0
TPH,2008-07-28,6900.0
TPH,2008-07-29,6800.0
TPH,2008-07-30,6600.0
TPH,2008-07-31,6900.0
TPH,2008-08-01,6600.0
TPH,2008-08-04,6600.0
TPH,2008-08-05,6400.0
TPH,2008-08-06,6500.0
TPH,2008-08-07,6700.0
TPH,2008-08-08,6400.0
TPH,2008-08-11,6700.0
TPH,2008-08-12,6900.0
TPH,2008-08-13,7200.0
TPH,2008-08-14,7300.0
TPH,2008-08-15,7500.0
TPH,2008-08-18,7900.0
TPH,2008-08-19,7300.0
TPH,2008-08-20,7100.0
TPH,2008-08-21,7900.0
TPH,2008-08-22,7700.0
TPH,2008-08-25,8200.0
TPH,2008-08-26,8800.0
TPH,2008-08-27,9300.0
TPH,2008-08-28,9000.0
TPH,2008-08-29,10100.0
TPH,2008-09-03,10500.0
TPH,2008-09-04,11100.0
TPH,2008-09-05,11900.0
TPH,2008-09-08,11800.0
TPH,2008-09-09,12700.0
TPH,2008-09-10,13600.0
TPH,2008-09-11,12600.0
TPH,2008-09-12,12000.0
TPH,2008-09-15,12700.0
TPH,2008-09-16,11200.0
TPH,2008-09-17,10600.0
TPH,2008-09-18,11300.0
TPH,2008-09-19,11300.0
TPH,2008-09-22,11400.0
TPH,2008-09-23,11600.0
TPH,2008-09-24,11200.0
TPH,2008-09-25,11900.0
TPH,2008-09-26,13000.0
TPH,2008-09-29,12500.0
TPH,2008-09-30,12700.0
TPH,2008-10-01,13500.0
TPH,2008-10-02,12600.0
TPH,2008-10-03,11900.0
TPH,2008-10-06,11400.0
TPH,2008-10-07,12100.0
TPH,2008-10-08,12500.0
TPH,2008-10-09,11700.0
TPH,2008-10-10,12000.0
TPH,2008-10-13,12500.0
TPH,2008-10-14,12500.0
TPH,2008-10-15,12500.0
TPH,2008-10-16,12300.0
TPH,2008-10-17,11500.0
TPH,2008-10-20,12100.0
TPH,2008-10-21,12900.0
TPH,2008-10-22,12900.0
TPH,2008-10-23,12000.0
TPH,2008-10-24,11200.0
TPH,2008-10-27,11200.0
TPH,2008-10-28,10400.0
TPH,2008-10-29,9700.0
TPH,2008-10-30,9400.0
TPH,2008-10-31,8800.0
TPH,2008-11-03,8200.0
TPH,2008-11-04,8700.0
TPH,2008-11-05,8400.0
TPH,2008-11-06,7800.0
TPH,2008-11-07,7800.0
TPH,2008-11-10,7600.0
TPH,2008-11-11,7100.0
TPH,2008-11-12,7600.0
TPH,2008-11-13,7800.0
TPH,2008-11-14,7900.0
TPH,2008-11-17,7900.0
TPH,2008-11-18,7500.0
TPH,2008-11-19,7800.0
TPH,2008-11-20,7300.0
TPH,2008-11-21,7300.0
TPH,2008-11-24,7300.0
TPH,2008-11-25,7400.0
TPH,2008-11-26,7100.0
TPH,2008-11-27,6400.0
TPH,2008-11-28,6900.0
TPH,2008-12-01,6900.0
TPH,2008-12-02,6600.0
TPH,2008-12-03,6900.0
TPH,2008-12-04,7300.0
TPH,2008-12-05,7300.0
TPH,2008-12-08,7300.0
TPH,2008-12-09,7300.0
TPH,2008-12-10,7300.0
TPH,2008-12-11,7300.0
TPH,2008-12-12,7300.0
TPH,2008-12-15,7300.0
TPH,2008-12-16,6900.0
TPH,2008-12-17,7600.0
TPH,2008-12-18,8100.0
TPH,2008-12-19,8100.0
TPH,2008-12-22,8300.0
TPH,2008-12-23,8400.0
TPH,2008-12-24,8400.0
TPH,2008-12-25,7800.0
TPH,2008-12-26,8400.0
TPH,2008-12-29,7800.0
TPH,2008-12-30,8300.0
TPH,2008-12-31,7800.0
TPH,2009-01-02,7300.0
TPH,2009-01-05,7600.0
TPH,2009-01-06,7200.0
TPH,2009-01-07,7600.0
TPH,2009-01-08,7300.0
TPH,2009-01-09,7600.0
TPH,2009-01-12,7600.0
TPH,2009-01-13,7600.0
TPH,2009-01-14,7600.0
TPH,2009-01-15,7600.0
TPH,2009-01-16,7600.0
TPH,2009-01-19,7600.0
TPH,2009-01-20,7600.0
TPH,2009-01-21,7600.0
TPH,2009-01-22,7300.0
TPH,2009-01-23,6700.0
TPH,2009-02-02,6700.0
TPH,2009-02-03,7100.0
TPH,2009-02-04,7100.0
TPH,2009-02-05,7100.0
TPH,2009-02-06,7200.0
TPH,2009-02-09,7200.0
TPH,2009-02-10,7200.0
TPH,2009-02-11,7200.0
TPH,2009-02-12,7200.0
TPH,2009-02-13,7200.0
TPH,2009-02-16,7200.0
TPH,2009-02-17,7200.0
TPH,2009-02-18,7200.0
TPH,2009-02-19,7200.0
TPH,2009-02-20,7200.0
TPH,2009-02-23,6700.0
TPH,2009-02-24,6700.0
TPH,2009-02-25,6700.0
TPH,2009-02-26,6700.0
TPH,2009-02-27,6300.0
TPH,2009-03-02,6300.0
TPH,2009-03-03,5900.0
TPH,2009-03-04,6200.0
TPH,2009-03-05,6000.0
TPH,2009-03-06,6700.0
TPH,2009-03-09,6200.0
TPH,2009-03-10,6100.0
TPH,2009-03-11,6400.0
TPH,2009-03-12,6200.0
TPH,2009-03-13,6100.0
TPH,2009-03-16,6000.0
TPH,2009-03-17,5600.0
TPH,2009-03-18,6500.0
TPH,2009-03-19,6400.0
TPH,2009-03-20,6700.0
TPH,2009-03-23,7100.0
TPH,2009-03-24,7300.0
TPH,2009-03-25,6900.0
TPH,2009-03-26,7100.0
TPH,2009-03-27,7100.0
TPH,2009-03-30,7100.0
TPH,2009-03-31,7100.0
TPH,2009-04-01,6600.0
TPH,2009-04-02,6200.0
TPH,2009-04-03,6600.0
TPH,2009-04-07,6900.0
TPH,2009-04-08,6600.0
TPH,2009-04-09,6500.0
TPH,2009-04-10,6500.0
TPH,2009-04-13,7100.0
TPH,2009-04-14,7000.0
TPH,2009-04-15,7000.0
TPH,2009-04-16,6900.0
TPH,2009-04-17,6500.0
TPH,2009-04-20,6300.0
TPH,2009-04-21,6500.0
TPH,2009-04-22,6500.0
TPH,2009-04-23,6500.0
TPH,2009-04-24,6300.0
TPH,2009-04-27,6500.0
TPH,2009-04-28,6500.0
TPH,2009-04-29,6600.0
TPH,2009-05-04,6900.0
TPH,2009-05-05,7200.0
TPH,2009-05-06,6900.0
TPH,2009-05-07,6900.0
TPH,2009-05-08,6900.0
TPH,2009-05-11,6500.0
TPH,2009-05-12,6800.0
TPH,2009-05-13,6500.0
TPH,2009-05-14,6700.0
TPH,2009-05-15,7200.0
TPH,2009-05-18,7000.0
TPH,2009-05-19,7100.0
TPH,2009-05-20,7500.0
TPH,2009-05-21,7900.0
TPH,2009-05-22,8300.0
TPH,2009-05-25,8200.0
TPH,2009-05-26,8800.0
TPH,2009-05-27,9300.0
TPH,2009-05-28,8800.0
TPH,2009-05-29,9000.0
TPH,2009-06-01,9700.0
TPH,2009-06-02,9700.0
TPH,2009-06-03,9300.0
TPH,2009-06-04,9500.0
TPH,2009-06-05,10300.0
TPH,2009-06-08,11000.0
TPH,2009-06-09,11400.0
TPH,2009-06-10,10800.0
TPH,2009-06-11,11100.0
TPH,2009-06-12,10200.0
TPH,2009-06-15,10300.0
TPH,2009-06-16,9200.0
TPH,2009-06-17,9500.0
TPH,2009-06-18,9500.0
TPH,2009-06-19,9600.0
TPH,2009-06-22,9600.0
TPH,2009-06-23,8800.0
TPH,2009-06-24,9500.0
TPH,2009-06-25,9300.0
TPH,2009-06-26,9400.0
TPH,2009-06-29,8800.0
TPH,2009-06-30,8400.0
TPH,2009-07-01,7800.0
TPH,2009-07-02,8100.0
TPH,2009-07-03,8500.0
TPH,2009-07-06,8500.0
TPH,2009-07-07,8500.0
TPH,2009-07-08,8100.0
TPH,2009-07-09,8600.0
TPH,2009-07-10,8800.0
TPH,2009-07-13,8800.0
TPH,2009-07-14,8200.0
TPH,2009-07-15,8500.0
TPH,2009-07-16,8700.0
TPH,2009-07-17,8100.0
TPH,2009-07-20,8100.0
TPH,2009-07-21,8100.0
TPH,2009-07-22,7700.0
TPH,2009-07-23,8200.0
TPH,2009-07-24,8800.0
TPH,2009-07-27,8800.0
TPH,2009-07-28,8500.0
TPH,2009-07-29,8800.0
TPH,2009-07-30,8500.0
TPH,2009-07-31,8600.0
TPH,2009-08-03,8600.0
TPH,2009-08-04,8700.0
TPH,2009-08-05,9200.0
TPH,2009-08-06,9800.0
TPH,2009-08-07,10100.0
TPH,2009-08-10,10100.0
TPH,2009-08-11,9700.0
TPH,2009-08-12,9700.0
TPH,2009-08-13,9200.0
TPH,2009-08-14,9800.0
TPH,2009-08-17,9700.0
TPH,2009-08-18,9800.0
TPH,2009-08-19,9300.0
TPH,2009-08-20,9300.0
TPH,2009-08-21,9100.0
TPH,2009-08-24,9200.0
TPH,2009-08-25,9200.0
TPH,2009-08-26,9500.0
TPH,2009-08-27,9300.0
TPH,2009-08-28,9200.0
TPH,2009-08-31,9500.0
TPH,2009-09-01,9000.0
TPH,2009-09-03,9100.0
TPH,2009-09-04,9100.0
TPH,2009-09-07,8800.0
TPH,2009-09-08,8800.0
TPH,2009-09-09,9100.0
TPH,2009-09-10,9500.0
TPH,2009-09-11,9200.0
TPH,2009-09-14,9500.0
TPH,2009-09-15,9100.0
TPH,2009-09-16,9200.0
TPH,2009-09-17,8900.0
TPH,2009-09-18,8900.0
TPH,2009-09-21,9000.0
TPH,2009-09-22,9100.0
TPH,2009-09-23,9200.0
TPH,2009-09-24,8800.0
TPH,2009-09-25,9100.0
TPH,2009-09-28,9200.0
TPH,2009-09-29,9100.0
TPH,2009-09-30,9200.0
TPH,2009-10-01,9100.0
TPH,2009-10-02,8900.0
TPH,2009-10-05,9000.0
TPH,2009-10-06,9100.0
TPH,2009-10-07,9100.0
TPH,2009-10-08,9200.0
TPH,2009-10-09,9100.0
TPH,2009-10-12,9300.0
TPH,2009-10-13,8900.0
TPH,2009-10-14,9500.0
TPH,2009-10-15,10000.0
TPH,2009-10-16,10700.0
TPH,2009-10-19,11400.0
TPH,2009-10-20,12100.0
TPH,2009-10-21,11900.0
TPH,2009-10-22,11500.0
TPH,2009-10-23,10900.0
TPH,2009-10-26,10300.0
TPH,2009-10-27,10500.0
TPH,2009-10-28,10700.0
TPH,2009-10-29,10000.0
TPH,2009-10-30,10000.0
TPH,2009-11-02,9200.0
TPH,2009-11-03,9300.0
TPH,2009-11-04,9400.0
TPH,2009-11-05,9500.0
TPH,2009-11-06,9200.0
TPH,2009-11-09,8900.0
TPH,2009-11-10,8500.0
TPH,2009-11-11,8800.0
TPH,2009-11-12,8800.0
TPH,2009-11-13,8800.0
TPH,2009-11-16,9000.0
TPH,2009-11-17,9000.0
TPH,2009-11-18,9100.0
TPH,2009-11-19,8800.0
TPH,2009-11-20,9100.0
TPH,2009-11-23,8800.0
TPH,2009-11-24,8800.0
TPH,2009-11-25,8300.0
TPH,2009-11-26,8000.0
TPH,2009-11-27,8500.0
TPH,2009-11-30,8700.0
TPH,2009-12-01,8900.0
TPH,2009-12-02,8500.0
TPH,2009-12-03,8800.0
TPH,2009-12-04,8200.0
TPH,2009-12-07,8100.0
TPH,2009-12-08,7900.0
TPH,2009-12-09,7700.0
TPH,2009-12-10,7700.0
TPH,2009-12-11,7500.0
TPH,2009-12-14,7500.0
TPH,2009-12-15,7300.0
TPH,2009-12-16,7200.0
TPH,2009-12-17,6900.0
TPH,2009-12-18,6900.0
TPH,2009-12-21,7400.0
TPH,2009-12-22,7300.0
TPH,2009-12-23,7700.0
TPH,2009-12-24,7300.0
TPH,2009-12-25,7700.0
TPH,2009-12-28,8100.0
TPH,2009-12-29,7700.0
TPH,2009-12-30,8200.0
TPH,2009-12-31,8100.0
TPH,2010-01-04,8500.0
TPH,2010-01-05,8500.0
TPH,2010-01-06,8300.0
TPH,2010-01-07,8000.0
TPH,2010-01-08,7700.0
TPH,2010-01-11,7800.0
TPH,2010-01-12,7500.0
TPH,2010-01-13,7700.0
TPH,2010-01-14,8100.0
TPH,2010-01-15,8100.0
TPH,2010-01-18,7500.0
TPH,2010-01-19,7900.0
TPH,2010-01-20,7900.0
TPH,2010-01-21,7400.0
TPH,2010-01-22,7600.0
TPH,2010-01-25,7200.0
TPH,2010-01-26,7800.0
TPH,2010-01-27,7700.0
TPH,2010-01-28,7100.0
TPH,2010-01-29,7400.0
TPH,2010-02-01,7400.0
TPH,2010-02-02,7200.0
TPH,2010-02-03,7500.0
TPH,2010-02-04,7600.0
TPH,2010-02-05,7600.0
TPH,2010-02-08,7100.0
TPH,2010-02-09,6700.0
TPH,2010-02-10,7200.0
TPH,2010-02-11,7500.0
TPH,2010-02-12,7200.0
TPH,2010-02-22,7300.0
TPH,2010-02-23,7200.0
TPH,2010-02-24,7400.0
TPH,2010-02-25,7200.0
TPH,2010-02-26,7200.0
TPH,2010-03-01,7000.0
TPH,2010-03-02,7300.0
TPH,2010-03-03,7500.0
TPH,2010-03-04,7200.0
TPH,2010-03-05,7100.0
TPH,2010-03-08,7300.0
TPH,2010-03-09,7400.0
TPH,2010-03-10,7300.0
TPH,2010-03-11,7300.0
TPH,2010-03-12,7400.0
TPH,2010-03-15,7800.0
TPH,2010-03-16,7400.0
TPH,2010-03-17,7400.0
TPH,2010-03-18,7500.0
TPH,2010-03-19,7500.0
TPH,2010-03-22,7500.0
TPH,2010-03-23,7500.0
TPH,2010-03-24,7500.0
TPH,2010-03-25,7400.0
TPH,2010-03-26,7400.0
TPH,2010-03-29,7500.0
TPH,2010-03-30,7400.0
TPH,2010-03-31,7400.0
TPH,2010-04-01,7500.0
TPH,2010-04-02,7200.0
TPH,2010-04-05,7800.0
TPH,2010-04-06,7500.0
TPH,2010-04-07,7600.0
TPH,2010-04-08,7700.0
TPH,2010-04-09,7400.0
TPH,2010-04-12,7500.0
TPH,2010-04-13,7500.0
TPH,2010-04-14,7500.0
TPH,2010-04-15,7600.0
TPH,2010-04-16,8100.0
TPH,2010-04-19,7900.0
TPH,2010-04-20,8100.0
TPH,2010-04-21,8500.0
TPH,2010-04-22,8700.0
TPH,2010-04-26,8400.0
TPH,2010-04-27,8400.0
TPH,2010-04-28,8100.0
TPH,2010-04-29,8400.0
TPH,2010-05-04,8800.0
TPH,2010-05-05,9400.0
TPH,2010-05-06,10100.0
TPH,2010-05-07,10600.0
TPH,2010-05-10,11200.0
TPH,2010-05-11,11500.0
TPH,2010-05-12,10900.0
TPH,2010-05-13,10200.0
TPH,2010-05-14,9600.0
TPH,2010-05-17,9400.0
TPH,2010-05-18,9400.0
TPH,2010-05-19,9700.0
TPH,2010-05-20,9700.0
TPH,2010-05-21,9700.0
TPH,2010-05-24,9600.0
TPH,2010-05-25,9500.0
TPH,2010-05-26,9000.0
TPH,2010-05-27,9400.0
TPH,2010-05-28,9300.0
TPH,2010-05-31,9000.0
TPH,2010-06-01,9000.0
TPH,2010-06-02,8900.0
TPH,2010-06-03,8800.0
TPH,2010-06-04,8800.0
TPH,2010-06-07,8400.0
TPH,2010-06-08,8600.0
TPH,2010-06-09,8600.0
TPH,2010-06-10,8800.0
TPH,2010-06-11,8900.0
TPH,2010-06-14,9000.0
TPH,2010-06-15,9000.0
TPH,2010-06-16,8800.0
TPH,2010-06-17,8600.0
TPH,2010-06-18,9300.0
TPH,2010-06-21,9700.0
TPH,2010-06-22,9800.0
TPH,2010-06-23,9500.0
TPH,2010-06-24,9400.0
TPH,2010-06-25,9000.0
TPH,2010-06-28,9600.0
TPH,2010-06-29,10100.0
TPH,2010-06-30,10700.0
TPH,2010-07-01,10900.0
TPH,2010-07-02,10600.0
TPH,2010-07-05,11100.0
TPH,2010-07-06,10500.0
TPH,2010-07-07,9800.0
TPH,2010-07-08,9600.0
TPH,2010-07-09,9900.0
TPH,2010-07-12,10200.0
TPH,2010-07-13,9800.0
TPH,2010-07-14,9800.0
TPH,2010-07-15,9400.0
TPH,2010-07-16,10100.0
TPH,2010-07-19,10600.0
TPH,2010-07-20,11300.0
TPH,2010-07-21,12000.0
TPH,2010-07-22,11300.0
TPH,2010-07-23,10600.0
TPH,2010-07-26,10800.0
TPH,2010-07-27,10600.0
TPH,2010-07-28,10200.0
TPH,2010-07-29,10600.0
TPH,2010-07-30,10600.0
TPH,2010-08-02,10400.0
TPH,2010-08-03,10800.0
TPH,2010-08-04,10300.0
TPH,2010-08-05,10200.0
TPH,2010-08-06,9700.0
TPH,2010-08-09,9200.0
TPH,2010-08-10,8800.0
TPH,2010-08-11,9300.0
TPH,2010-08-12,8700.0
TPH,2010-08-13,8700.0
TPH,2010-08-16,9300.0
TPH,2010-08-17,9700.0
TPH,2010-08-18,9100.0
TPH,2010-08-19,9300.0
TPH,2010-08-20,9300.0
TPH,2010-08-23,9700.0
TPH,2010-08-24,9000.0
TPH,2010-08-25,8400.0
TPH,2010-08-26,7900.0
TPH,2010-08-27,7600.0
TPH,2010-08-30,8200.0
TPH,2010-08-31,8200.0
TPH,2010-09-01,8100.0
TPH,2010-09-06,8500.0
TPH,2010-09-07,8200.0
TPH,2010-09-08,8100.0
TPH,2010-09-09,8300.0
TPH,2010-09-10,7900.0
TPH,2010-09-13,7900.0
TPH,2010-09-14,7800.0
TPH,2010-09-15,8100.0
TPH,2010-09-16,7800.0
TPH,2010-09-17,7800.0
TPH,2010-09-20,7800.0
TPH,2010-09-21,7900.0
TPH,2010-09-22,8000.0
TPH,2010-09-23,7700.0
TPH,2010-09-24,7700.0
TPH,2010-09-27,7700.0
TPH,2010-09-28,7900.0
TPH,2010-09-29,7800.0
TPH,2010-09-30,7900.0
TPH,2010-10-01,7900.0
TPH,2010-10-04,7500.0
TPH,2010-10-05,7000.0
TPH,2010-10-06,7500.0
TPH,2010-10-07,7400.0
TPH,2010-10-08,7800.0
TPH,2010-10-11,7500.0
TPH,2010-10-12,7500.0
TPH,2010-10-13,7500.0
TPH,2010-10-14,7000.0
TPH,2010-10-15,6700.0
TPH,2010-10-18,6700.0
TPH,2010-10-19,7100.0
TPH,2010-10-20,6700.0
TPH,2010-10-21,6800.0
TPH,2010-10-22,6700.0
TPH,2010-10-25,6300.0
TPH,2010-10-26,6900.0
TPH,2010-10-27,6600.0
TPH,2010-10-28,6300.0
TPH,2010-10-29,6700.0
TPH,2010-11-01,6700.0
TPH,2010-11-02,6300.0
TPH,2010-11-03,6400.0
TPH,2010-11-04,6400.0
TPH,2010-11-05,6600.0
TPH,2010-11-08,6100.0
TPH,2010-11-09,5800.0
TPH,2010-11-10,6100.0
TPH,2010-11-11,6400.0
TPH,2010-11-12,6400.0
TPH,2010-11-15,6400.0
TPH,2010-11-16,6100.0
TPH,2010-11-17,5900.0
TPH,2010-11-18,6600.0
TPH,2010-11-19,6400.0
TPH,2010-11-22,6500.0
TPH,2010-11-23,6700.0
TPH,2010-11-24,6500.0
TPH,2010-11-25,6600.0
TPH,2010-11-26,6400.0
TPH,2010-11-29,6600.0
TPH,2010-11-30,7000.0
TPH,2010-12-01,6700.0
TPH,2010-12-02,6800.0
TPH,2010-12-03,7100.0
TPH,2010-12-06,7500.0
TPH,2010-12-07,6800.0
TPH,2010-12-08,6400.0
TPH,2010-12-09,6400.0
TPH,2010-12-10,6800.0
TPH,2010-12-13,7200.0
TPH,2010-12-14,6800.0
TPH,2010-12-15,7400.0
TPH,2010-12-16,6900.0
TPH,2010-12-17,6900.0
TPH,2010-12-20,6500.0
TPH,2010-12-21,6600.0
TPH,2010-12-22,7000.0
TPH,2010-12-23,7000.0
TPH,2010-12-24,7000.0
TPH,2010-12-27,7300.0
TPH,2010-12-28,7400.0
TPH,2010-12-29,7900.0
TPH,2010-12-30,7500.0
TPH,2010-12-31,7200.0
TPH,2011-01-04,7500.0
TPH,2011-01-05,7500.0
TPH,2011-01-06,7500.0
TPH,2011-01-07,7500.0
TPH,2011-01-10,7500.0
TPH,2011-01-11,7500.0
TPH,2011-01-12,8000.0
TPH,2011-01-13,8000.0
TPH,2011-01-14,7500.0
TPH,2011-01-17,7000.0
TPH,2011-01-18,6600.0
TPH,2011-01-19,6300.0
TPH,2011-01-20,6400.0
TPH,2011-01-21,6800.0
TPH,2011-01-24,6600.0
TPH,2011-01-25,6600.0
TPH,2011-01-26,7000.0
TPH,2011-01-27,7200.0
TPH,2011-01-28,7500.0
TPH,2011-02-08,7500.0
TPH,2011-02-09,7000.0
TPH,2011-02-10,7200.0
TPH,2011-02-11,7200.0
TPH,2011-02-14,6700.0
TPH,2011-02-15,6400.0
TPH,2011-02-16,6100.0
TPH,2011-02-17,6100.0
TPH,2011-02-18,6600.0
TPH,2011-02-21,6300.0
TPH,2011-02-22,5800.0
TPH,2011-02-23,6600.0
TPH,2011-02-24,6300.0
TPH,2011-02-25,6300.0
TPH,2011-02-28,6300.0
TPH,2011-03-01,6500.0
TPH,2011-03-02,6100.0
TPH,2011-03-03,5700.0
TPH,2011-03-04,5700.0
TPH,2011-03-07,5500.0
TPH,2011-03-08,5500.0
TPH,2011-03-09,5300.0
TPH,2011-03-10,5700.0
TPH,2011-03-11,5700.0
TPH,2011-03-14,5700.0
TPH,2011-03-15,5700.0
TPH,2011-03-16,5800.0
TPH,2011-03-17,5800.0
TPH,2011-03-18,5800.0
TPH,2011-03-21,5800.0
TPH,2011-03-22,5800.0
TPH,2011-03-23,5500.0
TPH,2011-03-24,5800.0
TPH,2011-03-25,6100.0
TPH,2011-03-28,5800.0
TPH,2011-03-29,5700.0
TPH,2011-03-30,6100.0
TPH,2011-03-31,5700.0
TPH,2011-04-01,5600.0
TPH,2011-04-04,5600.0
TPH,2011-04-05,5300.0
TPH,2011-04-06,5100.0
TPH,2011-04-07,5100.0
TPH,2011-04-08,4900.0
TPH,2011-04-13,5200.0
TPH,2011-04-14,5500.0
TPH,2011-04-15,5800.0
TPH,2011-04-18,5900.0
TPH,2011-04-19,5900.0
TPH,2011-04-20,5900.0
TPH,2011-04-21,5900.0
TPH,2011-04-22,5900.0
TPH,2011-04-25,5900.0
TPH,2011-04-26,5500.0
TPH,2011-04-27,5500.0
TPH,2011-04-28,5500.0
TPH,2011-04-29,5500.0
TPH,2011-05-04,5500.0
TPH,2011-05-05,5500.0
TPH,2011-05-06,5500.0
TPH,2011-05-09,5500.0
TPH,2011-05-10,5500.0
TPH,2011-05-11,5500.0
TPH,2011-05-12,5500.0
TPH,2011-05-13,5500.0
TPH,2011-05-16,5500.0
TPH,2011-05-17,5500.0
TPH,2011-05-18,5500.0
TPH,2011-05-19,5500.0
TPH,2011-05-20,5500.0
TPH,2011-05-23,5500.0
TPH,2011-05-24,5600.0
TPH,2011-05-25,5600.0
TPH,2011-05-26,5600.0
TPH,2011-05-27,5600.0
TPH,2011-05-30,5600.0
TPH,2011-05-31,5600.0
TPH,2011-06-01,5200.0
TPH,2011-06-02,4900.0
TPH,2011-06-03,4900.0
TPH,2011-06-06,4600.0
TPH,2011-06-07,4600.0
TPH,2011-06-08,4800.0
TPH,2011-06-09,5000.0
TPH,2011-06-10,4700.0
TPH,2011-06-13,4900.0
TPH,2011-06-14,4900.0
TPH,2011-06-15,4700.0
TPH,2011-06-16,4600.0
TPH,2011-06-17,4500.0
TPH,2011-06-20,4700.0
TPH,2011-06-21,4700.0
TPH,2011-06-22,4700.0
TPH,2011-06-23,4900.0
TPH,2011-06-24,4900.0
TPH,2011-06-27,4900.0
TPH,2011-06-28,4900.0
TPH,2011-06-29,4900.0
TPH,2011-06-30,4900.0
TPH,2011-07-01,5200.0
TPH,2011-07-04,5200.0
TPH,2011-07-05,5000.0
TPH,2011-07-06,5200.0
TPH,2011-07-07,5400.0
TPH,2011-07-08,5400.0
TPH,2011-07-11,5400.0
TPH,2011-07-12,5400.0
TPH,2011-07-13,5400.0
TPH,2011-07-14,5100.0
TPH,2011-07-15,5100.0
TPH,2011-07-18,4800.0
TPH,2011-07-19,4800.0
TPH,2011-07-20,4800.0
TPH,2011-07-21,5200.0
TPH,2011-07-22,5200.0
TPH,2011-07-25,5200.0
TPH,2011-07-26,5200.0
TPH,2011-07-27,5200.0
TPH,2011-07-28,5200.0
TPH,2011-07-29,5200.0
TPH,2011-08-01,5200.0
TPH,2011-08-02,5200.0
TPH,2011-08-03,5200.0
TPH,2011-08-04,5200.0
TPH,2011-08-05,4900.0
TPH,2011-08-08,4600.0
TPH,2011-08-09,4300.0
TPH,2011-08-10,4100.0
TPH,2011-08-11,4300.0
TPH,2011-08-12,4300.0
TPH,2011-08-15,4300.0
TPH,2011-08-16,4100.0
TPH,2011-08-17,4100.0
TPH,2011-08-18,4100.0
TPH,2011-08-19,4100.0
TPH,2011-08-22,3800.0
TPH,2011-08-23,3600.0
TPH,2011-08-24,3600.0
TPH,2011-08-25,3600.0
TPH,2011-08-26,3600.0
TPH,2011-08-29,3800.0
TPH,2011-08-30,4100.0
TPH,2011-08-31,4300.0
TPH,2011-09-01,4600.0
TPH,2011-09-05,4600.0
TPH,2011-09-06,4800.0
TPH,2011-09-07,5100.0
TPH,2011-09-08,5100.0
TPH,2011-09-09,5100.0
TPH,2011-09-12,5300.0
TPH,2011-09-13,5600.0
TPH,2011-09-14,5400.0
TPH,2011-09-15,5100.0
TPH,2011-09-16,5400.0
TPH,2011-09-19,5200.0
TPH,2011-09-20,4800.0
TPH,2011-09-21,4800.0
TPH,2011-09-22,4800.0
TPH,2011-09-23,4800.0
TPH,2011-09-26,4800.0
TPH,2011-09-27,4800.0
TPH,2011-09-28,4800.0
TPH,2011-09-29,4800.0
TPH,2011-09-30,4800.0
TPH,2011-10-03,4600.0
TPH,2011-10-04,4600.0
TPH,2011-10-05,4600.0
TPH,2011-10-06,4600.0
TPH,2011-10-07,4600.0
TPH,2011-10-10,4400.0
TPH,2011-10-11,4400.0
TPH,2011-10-12,4400.0
TPH,2011-10-13,4400.0
TPH,2011-10-14,4300.0
TPH,2011-10-17,4300.0
TPH,2011-10-18,4300.0
TPH,2011-10-19,4300.0
TPH,2011-10-20,4300.0
TPH,2011-10-21,4300.0
TPH,2011-10-24,4300.0
TPH,2011-10-25,4300.0
TPH,2011-10-26,4100.0
TPH,2011-10-27,4800.0
TPH,2011-10-28,4800.0
TPH,2011-10-31,4800.0
TPH,2011-11-01,4500.0
TPH,2011-11-02,4700.0
TPH,2011-11-03,4700.0
TPH,2011-11-04,4700.0
TPH,2011-11-07,4700.0
TPH,2011-11-08,4700.0
TPH,2011-11-09,4500.0
TPH,2011-11-10,4500.0
TPH,2011-11-11,4500.0
TPH,2011-11-14,4500.0
TPH,2011-11-15,4500.0
TPH,2011-11-16,4500.0
TPH,2011-11-17,4500.0
TPH,2011-11-18,4500.0
TPH,2011-11-21,4500.0
TPH,2011-11-22,4300.0
TPH,2011-11-23,4300.0
TPH,2011-11-24,4300.0
TPH,2011-11-25,4300.0
TPH,2011-11-28,4300.0
TPH,2011-11-29,4000.0
TPH,2011-11-30,4000.0
TPH,2011-12-01,4000.0
TPH,2011-12-02,4000.0
TPH,2011-12-05,4300.0
TPH,2011-12-06,4300.0
TPH,2011-12-07,4300.0
TPH,2011-12-08,4300.0
TPH,2011-12-09,4300.0
TPH,2011-12-12,4300.0
TPH,2011-12-13,4300.0
TPH,2011-12-14,4300.0
TPH,2011-12-15,4300.0
TPH,2011-12-16,4300.0
TPH,2011-12-19,4300.0
TPH,2011-12-20,4300.0
TPH,2011-12-21,4300.0
TPH,2011-12-22,4300.0
TPH,2011-12-23,4300.0
TPH,2011-12-26,4300.0
TPH,2011-12-27,4300.0
TPH,2011-12-28,4300.0
TPH,2011-12-29,4300.0
TPH,2011-12-30,4300.0
TPH,2012-01-03,4300.0
TPH,2012-01-04,4300.0
TPH,2012-01-05,4300.0
TPH,2012-01-06,4300.0
TPH,2012-01-09,4300.0
TPH,2012-01-10,4300.0
TPH,2012-01-11,4300.0
TPH,2012-01-12,4000.0
TPH,2012-01-13,3800.0
TPH,2012-01-16,3700.0
TPH,2012-01-17,3700.0
TPH,2012-01-18,3800.0
TPH,2012-01-19,3800.0
TPH,2012-01-20,3800.0
TPH,2012-01-30,3800.0
TPH,2012-01-31,3500.0
TPH,2012-02-01,3500.0
TPH,2012-02-02,3500.0
TPH,2012-02-03,3500.0
TPH,2012-02-06,3500.0
TPH,2012-02-07,3500.0
TPH,2012-02-08,3500.0
TPH,2012-02-09,3500.0
TPH,2012-02-10,3500.0
TPH,2012-02-13,3500.0
TPH,2012-02-14,3500.0
TPH,2012-02-15,3500.0
TPH,2012-02-16,3500.0
TPH,2012-02-17,3300.0
TPH,2012-02-20,3300.0
TPH,2012-02-21,3300.0
TPH,2012-02-22,3300.0
TPH,2012-02-23,3300.0
TPH,2012-02-24,3300.0
TPH,2012-02-27,3300.0
TPH,2012-02-28,3300.0
TPH,2012-02-29,3300.0
TPH,2012-03-01,3100.0
TPH,2012-03-02,3000.0
TPH,2012-03-05,3100.0
TPH,2012-03-06,3300.0
TPH,2012-03-07,3400.0
TPH,2012-03-08,3600.0
TPH,2012-03-09,3800.0
TPH,2012-03-12,3900.0
TPH,2012-03-13,4000.0
TPH,2012-03-14,3900.0
TPH,2012-03-15,3900.0
TPH,2012-03-16,4200.0
TPH,2012-03-19,3900.0
TPH,2012-03-20,4600.0
TPH,2012-03-21,4500.0
TPH,2012-03-22,4500.0
TPH,2012-03-23,4500.0
TPH,2012-03-26,4200.0
TPH,2012-03-27,4200.0
TPH,2012-03-28,4200.0
TPH,2012-03-29,4100.0
TPH,2012-03-30,4100.0
TPH,2012-04-03,4100.0
TPH,2012-04-04,4100.0
TPH,2012-04-05,4100.0
TPH,2012-04-06,4100.0
TPH,2012-04-09,4100.0
TPH,2012-04-10,4400.0
TPH,2012-04-11,4600.0
TPH,2012-04-12,4600.0
TPH,2012-04-13,4600.0
TPH,2012-04-16,4600.0
TPH,2012-04-17,4800.0
TPH,2012-04-18,5100.0
TPH,2012-04-19,4900.0
TPH,2012-04-20,4900.0
TPH,2012-04-23,4900.0
TPH,2012-04-24,5100.0
TPH,2012-04-25,5100.0
TPH,2012-04-26,5100.0
TPH,2012-04-27,4800.0
TPH,2012-05-02,4600.0
TPH,2012-05-03,4400.0
TPH,2012-05-04,4200.0
TPH,2012-05-07,4300.0
TPH,2012-05-08,4300.0
TPH,2012-05-09,4600.0
TPH,2012-05-10,4800.0
TPH,2012-05-11,4800.0
TPH,2012-05-14,4600.0
TPH,2012-05-15,4800.0
TPH,2012-05-16,4700.0
TPH,2012-05-17,4700.0
TPH,2012-05-18,4700.0
TPH,2012-05-21,4700.0
TPH,2012-05-22,4700.0
TPH,2012-05-23,4700.0
TPH,2012-05-24,4700.0
TPH,2012-05-25,4700.0
TPH,2012-05-28,4700.0
TPH,2012-05-29,4700.0
TPH,2012-05-30,4700.0
TPH,2012-05-31,4700.0
TPH,2012-06-01,4700.0
TPH,2012-06-04,4400.0
TPH,2012-06-05,4400.0
TPH,2012-06-06,4400.0
TPH,2012-06-07,4500.0
TPH,2012-06-08,4200.0
TPH,2012-06-11,4200.0
TPH,2012-06-12,4200.0
TPH,2012-06-13,4200.0
TPH,2012-06-14,4200.0
TPH,2012-06-15,4200.0
TPH,2012-06-18,4200.0
TPH,2012-06-19,4200.0
TPH,2012-06-20,4200.0
TPH,2012-06-21,4200.0
TPH,2012-06-22,4200.0
TPH,2012-06-25,4500.0
TPH,2012-06-26,4500.0
TPH,2012-06-27,4500.0
TPH,2012-06-28,4600.0
TPH,2012-06-29,4800.0
TPH,2012-07-02,4800.0
TPH,2012-07-03,5000.0
TPH,2012-07-04,5000.0
TPH,2012-07-05,5300.0
TPH,2012-07-06,5300.0
TPH,2012-07-09,5300.0
TPH,2012-07-10,4900.0
TPH,2012-07-11,4800.0
TPH,2012-07-12,4800.0
TPH,2012-07-13,4800.0
TPH,2012-07-16,4800.0
TPH,2012-07-17,4800.0
TPH,2012-07-18,5000.0
TPH,2012-07-19,4800.0
TPH,2012-07-20,4800.0
TPH,2012-07-23,4800.0
TPH,2012-07-24,4800.0
TPH,2012-07-25,4800.0
TPH,2012-07-26,4800.0
TPH,2012-07-27,4800.0
TPH,2012-07-30,4800.0
TPH,2012-07-31,4800.0
TPH,2012-08-01,4800.0
TPH,2012-08-02,4800.0
TPH,2012-08-03,4800.0
TPH,2012-08-06,4800.0
TPH,2012-08-07,4800.0
TPH,2012-08-08,4800.0
TPH,2012-08-09,4800.0
TPH,2012-08-10,4800.0
TPH,2012-08-13,4800.0
TPH,2012-08-14,4800.0
TPH,2012-08-15,4800.0
TPH,2012-08-16,4800.0
TPH,2012-08-17,4800.0
TPH,2012-08-20,4800.0
TPH,2012-08-21,4800.0
TPH,2012-08-22,4800.0
TPH,2012-08-23,4800.0
TPH,2012-08-24,4800.0
TPH,2012-08-27,4800.0
TPH,2012-08-28,4800.0
TPH,2012-08-29,4800.0
TPH,2012-08-30,4800.0
TPH,2012-08-31,4800.0
TPH,2012-09-04,4800.0
TPH,2012-09-05,4800.0
TPH,2012-09-06,4800.0
TPH,2012-09-07,4800.0
TPH,2012-09-10,4800.0
TPH,2012-09-11,4800.0
TPH,2012-09-12,4800.0
TPH,2012-09-13,4800.0
TPH,2012-09-14,4800.0
TPH,2012-09-17,4800.0
TPH,2012-09-18,4800.0
TPH,2012-09-19,4800.0
TPH,2012-09-20,4800.0
TPH,2012-09-21,4800.0
TPH,2012-09-24,4800.0
TPH,2012-09-25,4800.0
TPH,2012-09-26,4800.0
TPH,2012-09-27,4800.0
TPH,2012-09-28,4800.0
TPH,2012-10-01,4800.0
TPH,2012-10-02,4800.0
TPH,2012-10-03,4800.0
TPH,2012-10-04,4800.0
TPH,2012-10-05,4800.0
TPH,2012-10-08,4800.0
TPH,2012-10-09,4800.0
TPH,2012-10-10,4800.0
TPH,2012-10-11,4800.0
TPH,2012-10-12,4800.0
TPH,2012-10-15,4800.0
TPH,2012-10-16,4800.0
TPH,2012-10-17,4700.0
TPH,2012-10-18,4700.0
TPH,2012-10-19,4700.0
TPH,2012-10-22,4500.0
TPH,2012-10-23,4500.0
TPH,2012-10-24,4200.0
TPH,2012-10-25,4500.0
TPH,2012-10-26,4400.0
TPH,2012-10-29,4300.0
TPH,2012-10-30,4300.0
TPH,2012-10-31,4300.0
TPH,2012-11-01,4300.0
TPH,2012-11-02,4000.0
TPH,2012-11-05,4000.0
TPH,2012-11-06,4000.0
TPH,2012-11-07,4000.0
TPH,2012-11-08,4000.0
TPH,2012-11-09,4000.0
TPH,2012-11-12,4000.0
TPH,2012-11-13,4000.0
TPH,2012-11-14,4000.0
TPH,2012-11-15,4000.0
TPH,2012-11-16,4000.0
TPH,2012-11-19,4300.0
TPH,2012-11-20,4600.0
TPH,2012-11-21,4800.0
TPH,2012-11-22,5100.0
TPH,2012-11-23,5100.0
TPH,2012-11-26,5400.0
TPH,2012-11-27,5800.0
TPH,2012-11-28,5800.0
TPH,2012-11-29,6100.0
TPH,2012-11-30,6100.0
TPH,2012-12-03,6100.0
TPH,2012-12-04,6100.0
TPH,2012-12-05,6100.0
TPH,2012-12-06,6100.0
TPH,2012-12-07,6100.0
TPH,2012-12-10,6100.0
TPH,2012-12-11,6100.0
TPH,2012-12-12,6100.0
TPH,2012-12-13,5800.0
TPH,2012-12-14,5800.0
TPH,2012-12-17,5800.0
TPH,2012-12-18,5800.0
TPH,2012-12-19,5800.0
TPH,2012-12-20,5800.0
TPH,2012-12-21,5800.0
TPH,2012-12-24,5800.0
TPH,2012-12-25,5800.0
TPH,2012-12-26,5400.0
TPH,2012-12-27,5400.0
TPH,2012-12-28,5400.0
TPH,2013-01-02,5400.0
TPH,2013-01-03,5400.0
TPH,2013-01-04,5400.0
TPH,2013-01-07,5400.0
TPH,2013-01-08,5000.0
TPH,2013-01-09,4800.0
TPH,2013-01-10,4500.0
TPH,2013-01-11,4500.0
TPH,2013-01-14,4500.0
TPH,2013-01-15,4400.0
TPH,2013-01-16,4600.0
TPH,2013-01-17,4600.0
TPH,2013-01-18,4600.0
TPH,2013-01-21,4600.0
TPH,2013-01-22,4600.0
TPH,2013-01-23,4600.0
TPH,2013-01-24,4400.0
TPH,2013-01-25,4400.0
TPH,2013-01-28,4500.0
TPH,2013-01-29,4500.0
TPH,2013-01-30,4500.0
TPH,2013-01-31,4500.0
TPH,2013-02-01,4500.0
TPH,2013-02-04,4500.0
TPH,2013-02-05,4500.0
TPH,2013-02-06,4500.0
TPH,2013-02-07,4500.0
TPH,2013-02-08,4500.0
TPH,2013-02-18,4500.0
TPH,2013-02-19,4500.0
TPH,2013-02-20,4500.0
TPH,2013-02-21,4500.0
TPH,2013-02-22,4500.0
TPH,2013-02-25,4500.0
TPH,2013-02-26,4100.0
TPH,2013-02-27,4100.0
TPH,2013-02-28,4100.0
TPH,2013-03-01,4100.0
TPH,2013-03-04,4100.0
TPH,2013-03-05,4100.0
TPH,2013-03-06,3800.0
TPH,2013-03-07,3800.0
TPH,2013-03-08,3700.0
TPH,2013-03-11,4000.0
TPH,2013-03-12,4400.0
TPH,2013-03-13,4800.0
TPH,2013-03-14,4800.0
TPH,2013-03-15,5300.0
TPH,2013-03-18,5700.0
TPH,2013-03-19,5900.0
TPH,2013-03-20,6500.0
TPH,2013-03-21,5900.0
TPH,2013-03-22,6400.0
TPH,2013-03-25,6400.0
TPH,2013-03-26,5900.0
TPH,2013-03-27,5500.0
TPH,2013-03-28,5000.0
TPH,2013-03-29,5400.0
TPH,2013-04-01,5500.0
TPH,2013-04-02,5500.0
TPH,2013-04-03,5700.0
TPH,2013-04-04,5700.0
TPH,2013-04-05,6000.0
TPH,2013-04-08,6600.0
TPH,2013-04-09,6800.0
TPH,2013-04-10,6800.0
TPH,2013-04-11,6800.0
TPH,2013-04-12,6600.0
TPH,2013-04-15,6500.0
TPH,2013-04-16,6400.0
TPH,2013-04-17,6400.0
TPH,2013-04-18,6400.0
TPH,2013-04-22,6200.0
TPH,2013-04-23,6400.0
TPH,2013-04-24,7000.0
TPH,2013-04-25,7100.0
TPH,2013-04-26,7400.0
TPH,2013-05-02,7700.0
TPH,2013-05-03,7700.0
TPH,2013-05-06,7400.0
TPH,2013-05-07,7700.0
TPH,2013-05-08,7000.0
TPH,2013-05-09,7600.0
TPH,2013-05-10,7600.0
TPH,2013-05-13,7600.0
TPH,2013-05-14,6900.0
TPH,2013-05-15,7500.0
TPH,2013-05-16,7500.0
TPH,2013-05-17,7500.0
TPH,2013-05-20,7500.0
TPH,2013-05-21,7500.0
TPH,2013-05-22,7500.0
TPH,2013-05-23,7500.0
TPH,2013-05-24,7500.0
TPH,2013-05-27,7400.0
TPH,2013-05-28,7200.0
TPH,2013-05-29,7200.0
TPH,2013-05-30,7200.0
TPH,2013-05-31,7200.0
TPH,2013-06-03,6500.0
TPH,2013-06-04,6500.0
TPH,2013-06-05,6500.0
TPH,2013-06-06,6600.0
TPH,2013-06-07,6600.0
TPH,2013-06-10,6600.0
TPH,2013-06-11,6600.0
TPH,2013-06-12,6800.0
TPH,2013-06-13,6800.0
TPH,2013-06-14,6800.0
TPH,2013-06-17,6800.0
TPH,2013-06-18,6300.0
TPH,2013-06-19,6300.0
TPH,2013-06-20,6300.0
TPH,2013-06-21,6400.0
TPH,2013-06-24,6400.0
TPH,2013-06-25,6100.0
TPH,2013-06-26,6500.0
TPH,2013-06-27,6000.0
TPH,2013-06-28,6000.0
TPH,2013-07-01,6000.0
TPH,2013-07-02,6000.0
TPH,2013-07-03,6000.0
TPH,2013-07-04,6000.0
TPH,2013-07-05,6000.0
TPH,2013-07-08,6000.0
TPH,2013-07-09,5800.0
TPH,2013-07-10,5800.0
TPH,2013-07-11,5800.0
TPH,2013-07-12,5800.0
TPH,2013-07-15,5800.0
TPH,2013-07-16,6300.0
TPH,2013-07-17,6300.0
TPH,2013-07-18,6300.0
TPH,2013-07-19,6500.0
TPH,2013-07-22,6500.0
TPH,2013-07-23,6500.0
TPH,2013-07-24,6500.0
TPH,2013-07-25,6500.0
TPH,2013-07-26,6500.0
TPH,2013-07-29,6500.0
TPH,2013-07-30,6500.0
TPH,2013-07-31,6500.0
TPH,2013-08-01,6500.0
TPH,2013-08-02,6500.0
TPH,2013-08-05,6500.0
TPH,2013-08-06,6500.0
TPH,2013-08-07,6500.0
TPH,2013-08-08,6500.0
TPH,2013-08-09,6500.0
TPH,2013-08-12,6500.0
TPH,2013-08-13,6500.0
TPH,2013-08-14,6500.0
TPH,2013-08-15,6500.0
TPH,2013-08-16,6500.0
TPH,2013-08-19,6500.0
TPH,2013-08-20,6500.0
TPH,2013-08-21,6500.0
TPH,2013-08-22,6500.0
TPH,2013-08-23,6500.0
TPH,2013-08-26,6500.0
TPH,2013-08-27,6500.0
TPH,2013-08-28,6500.0
TPH,2013-08-29,6500.0
TPH,2013-08-30,6500.0
TPH,2013-09-03,6500.0
TPH,2013-09-04,6500.0
TPH,2013-09-05,6200.0
TPH,2013-09-06,6200.0
TPH,2013-09-09,6600.0
TPH,2013-09-10,7000.0
TPH,2013-09-11,7700.0
TPH,2013-09-12,7700.0
TPH,2013-09-13,7700.0
TPH,2013-09-16,7700.0
TPH,2013-09-17,7700.0
TPH,2013-09-18,7700.0
TPH,2013-09-19,8000.0
TPH,2013-09-20,7900.0
TPH,2013-09-23,7900.0
TPH,2013-09-24,7900.0
TPH,2013-09-25,7900.0
TPH,2013-09-26,7900.0
TPH,2013-09-27,7900.0
TPH,2013-09-30,8000.0
TPH,2013-10-01,8000.0
TPH,2013-10-02,8000.0
TPH,2013-10-03,8000.0
TPH,2013-10-04,8000.0
TPH,2013-10-07,8000.0
TPH,2013-10-08,7700.0
TPH,2013-10-09,7700.0
TPH,2013-10-10,7700.0
TPH,2013-10-11,7700.0
TPH,2013-10-14,7700.0
TPH,2013-10-15,7000.0
TPH,2013-10-16,7000.0
TPH,2013-10-17,7000.0
TPH,2013-10-18,7000.0
TPH,2013-10-21,6800.0
TPH,2013-10-22,6800.0
TPH,2013-10-23,6800.0
TPH,2013-10-24,7000.0
TPH,2013-10-25,7000.0
TPH,2013-10-28,7000.0
TPH,2013-10-29,7000.0
TPH,2013-10-30,7000.0
TPH,2013-10-31,7000.0
TPH,2013-11-01,7000.0
TPH,2013-11-04,7000.0
TPH,2013-11-05,6300.0
TPH,2013-11-06,6500.0
TPH,2013-11-07,6800.0
TPH,2013-11-08,6800.0
TPH,2013-11-11,6800.0
TPH,2013-11-12,6800.0
TPH,2013-11-13,6800.0
TPH,2013-11-14,6800.0
TPH,2013-11-15,6800.0
TPH,2013-11-18,6900.0
TPH,2013-11-19,6900.0
TPH,2013-11-20,6900.0
TPH,2013-11-21,6900.0
TPH,2013-11-22,6300.0
TPH,2013-11-25,6500.0
TPH,2013-11-26,6500.0
TPH,2013-11-27,7100.0
TPH,2013-11-28,6900.0
TPH,2013-11-29,6900.0
TPH,2013-12-02,6900.0
TPH,2013-12-03,6900.0
TPH,2013-12-04,6900.0
TPH,2013-12-05,6900.0
TPH,2013-12-06,6900.0
TPH,2013-12-09,6900.0
TPH,2013-12-10,6600.0
TPH,2013-12-11,6600.0
TPH,2013-12-12,6600.0
TPH,2013-12-13,6600.0
TPH,2013-12-16,6600.0
TPH,2013-12-17,6600.0
TPH,2013-12-18,6600.0
TPH,2013-12-19,6600.0
TPH,2013-12-20,6600.0
TPH,2013-12-23,6600.0
TPH,2013-12-24,6600.0
TPH,2013-12-25,6600.0
TPH,2013-12-26,6600.0
TPH,2013-12-27,6600.0
TPH,2013-12-30,6600.0
TPH,2013-12-31,6600.0
TPH,2014-01-02,6600.0
TPH,2014-01-03,6600.0
TPH,2014-01-06,6600.0
TPH,2014-01-07,6600.0
TPH,2014-01-08,6600.0
TPH,2014-01-09,6600.0
TPH,2014-01-10,6600.0
TPH,2014-01-13,6600.0
TPH,2014-01-14,6600.0
TPH,2014-01-15,6600.0
TPH,2014-01-16,6600.0
TPH,2014-01-17,6500.0
TPH,2014-01-20,7000.0
TPH,2014-01-21,7000.0
TPH,2014-01-22,6500.0
TPH,2014-01-23,6500.0
TPH,2014-01-24,6600.0
TPH,2014-01-27,6600.0
TPH,2014-02-06,6600.0
TPH,2014-02-07,6600.0
TPH,2014-02-10,6600.0
TPH,2014-02-11,6600.0
TPH,2014-02-12,7000.0
TPH,2014-02-13,7000.0
TPH,2014-02-14,7000.0
TPH,2014-02-17,7000.0
TPH,2014-02-18,7000.0
TPH,2014-02-19,7000.0
TPH,2014-02-20,7000.0
TPH,2014-02-21,7000.0
TPH,2014-02-24,7000.0
TPH,2014-02-25,7000.0
TPH,2014-02-26,7000.0
TPH,2014-02-27,7500.0
TPH,2014-02-28,7700.0
TPH,2014-03-03,7700.0
TPH,2014-03-04,7700.0
TPH,2014-03-05,7700.0
TPH,2014-03-06,7700.0
TPH,2014-03-07,7500.0
TPH,2014-03-10,7100.0
TPH,2014-03-11,7100.0
TPH,2014-03-12,7100.0
TPH,2014-03-13,7100.0
TPH,2014-03-14,7100.0
TPH,2014-03-17,7500.0
TPH,2014-03-19,8000.0
TPH,2014-03-20,8000.0
TPH,2014-03-21,7500.0
TPH,2014-03-24,8200.0
TPH,2014-03-25,8200.0
TPH,2014-03-26,8000.0
TPH,2014-03-27,8000.0
TPH,2014-03-28,7300.0
TPH,2014-03-31,7300.0
TPH,2014-04-01,7900.0
TPH,2014-04-02,7500.0
TPH,2014-04-03,7500.0
TPH,2014-04-04,7700.0
TPH,2014-04-07,7700.0
TPH,2014-04-08,7700.0
TPH,2014-04-10,7700.0
TPH,2014-04-11,7700.0
TPH,2014-04-14,7700.0
TPH,2014-04-15,7700.0
TPH,2014-04-16,7700.0
TPH,2014-04-17,7700.0
TPH,2014-04-18,7700.0
TPH,2014-04-21,7700.0
TPH,2014-04-22,7700.0
TPH,2014-04-23,8400.0
TPH,2014-04-24,8400.0
TPH,2014-04-25,8400.0
TPH,2014-04-28,8400.0
TPH,2014-04-29,8400.0
TPH,2014-05-05,8000.0
TPH,2014-05-06,8000.0
TPH,2014-05-07,8000.0
TPH,2014-05-08,8000.0
TPH,2014-05-09,8000.0
TPH,2014-05-12,7700.0
TPH,2014-05-13,7700.0
TPH,2014-05-14,7700.0
TPH,2014-05-15,7700.0
TPH,2014-05-16,8200.0
TPH,2014-05-19,8200.0
TPH,2014-05-20,7700.0
TPH,2014-05-21,7700.0
