TSM,2010-07-02,20500.0
TSM,2010-07-05,19700.0
TSM,2010-07-06,20000.0
TSM,2010-07-07,19400.0
TSM,2010-07-08,19700.0
TSM,2010-07-09,20400.0
TSM,2010-07-12,19000.0
TSM,2010-07-13,18000.0
TSM,2010-07-14,18100.0
TSM,2010-07-15,17000.0
TSM,2010-07-16,16700.0
TSM,2010-07-19,16000.0
TSM,2010-07-20,17100.0
TSM,2010-07-21,17700.0
TSM,2010-07-22,18500.0
TSM,2010-07-23,17400.0
TSM,2010-07-26,16300.0
TSM,2010-07-27,16000.0
TSM,2010-07-28,15600.0
TSM,2010-07-29,15800.0
TSM,2010-07-30,16700.0
TSM,2010-08-02,14800.0
TSM,2010-08-03,15200.0
TSM,2010-08-04,15800.0
TSM,2010-08-05,14400.0
TSM,2010-08-06,15000.0
TSM,2010-08-09,14200.0
TSM,2010-08-10,13300.0
TSM,2010-08-11,14200.0
TSM,2010-08-12,15000.0
TSM,2010-08-13,14700.0
TSM,2010-08-16,15000.0
TSM,2010-08-17,14700.0
TSM,2010-08-18,15100.0
TSM,2010-08-19,15000.0
TSM,2010-08-20,15000.0
TSM,2010-08-23,14500.0
TSM,2010-08-24,14500.0
TSM,2010-08-25,13600.0
TSM,2010-08-26,13300.0
TSM,2010-08-27,13300.0
TSM,2010-08-30,14100.0
TSM,2010-08-31,15100.0
TSM,2010-09-01,14100.0
TSM,2010-09-06,14200.0
TSM,2010-09-07,14200.0
TSM,2010-09-08,14200.0
TSM,2010-09-09,14100.0
TSM,2010-09-10,14100.0
TSM,2010-09-13,13300.0
TSM,2010-09-14,14200.0
TSM,2010-09-15,14200.0
TSM,2010-09-16,13800.0
TSM,2010-09-17,14200.0
TSM,2010-09-20,14200.0
TSM,2010-09-21,13800.0
TSM,2010-09-22,13400.0
TSM,2010-09-23,13900.0
TSM,2010-09-24,13900.0
TSM,2010-09-27,13800.0
TSM,2010-09-28,13800.0
TSM,2010-09-29,13400.0
TSM,2010-09-30,13400.0
TSM,2010-10-01,13400.0
TSM,2010-10-04,13500.0
TSM,2010-10-05,13500.0
TSM,2010-10-06,13400.0
TSM,2010-10-07,13400.0
TSM,2010-10-08,13400.0
TSM,2010-10-11,13400.0
TSM,2010-10-12,13000.0
TSM,2010-10-13,12600.0
TSM,2010-10-14,12200.0
TSM,2010-10-15,13000.0
TSM,2010-10-18,13000.0
TSM,2010-10-19,13000.0
TSM,2010-10-20,13000.0
TSM,2010-10-21,12300.0
TSM,2010-10-22,12300.0
TSM,2010-10-25,12300.0
TSM,2010-10-26,12300.0
TSM,2010-10-27,13000.0
TSM,2010-10-28,12200.0
TSM,2010-10-29,12600.0
TSM,2010-11-01,12600.0
TSM,2010-11-02,11800.0
TSM,2010-11-03,11800.0
TSM,2010-11-04,11800.0
TSM,2010-11-05,11800.0
TSM,2010-11-08,11800.0
TSM,2010-11-09,11800.0
TSM,2010-11-10,11800.0
TSM,2010-11-11,11800.0
TSM,2010-11-12,11800.0
TSM,2010-11-15,11800.0
TSM,2010-11-16,11100.0
TSM,2010-11-17,11100.0
TSM,2010-11-18,11100.0
TSM,2010-11-19,10700.0
TSM,2010-11-22,10700.0
TSM,2010-11-23,10700.0
TSM,2010-11-24,10700.0
TSM,2010-11-25,10700.0
TSM,2010-11-26,11400.0
TSM,2010-11-29,11800.0
TSM,2010-11-30,11800.0
TSM,2010-12-01,11100.0
TSM,2010-12-02,11800.0
TSM,2010-12-03,12500.0
TSM,2010-12-06,12500.0
TSM,2010-12-07,13300.0
TSM,2010-12-08,14200.0
TSM,2010-12-09,15200.0
TSM,2010-12-10,15200.0
TSM,2010-12-13,15200.0
TSM,2010-12-14,16200.0
TSM,2010-12-15,16200.0
TSM,2010-12-16,16200.0
TSM,2010-12-17,16200.0
TSM,2010-12-20,16200.0
TSM,2010-12-21,16200.0
TSM,2010-12-22,16200.0
TSM,2010-12-23,15100.0
TSM,2010-12-24,16200.0
TSM,2010-12-27,16200.0
TSM,2010-12-28,16200.0
TSM,2010-12-29,15100.0
TSM,2010-12-30,15100.0
TSM,2010-12-31,15100.0
TSM,2011-01-04,15100.0
TSM,2011-01-05,15100.0
TSM,2011-01-06,15100.0
TSM,2011-01-07,15100.0
TSM,2011-01-10,15100.0
TSM,2011-01-11,15100.0
TSM,2011-01-12,15100.0
TSM,2011-01-13,16100.0
TSM,2011-01-14,16100.0
TSM,2011-01-17,16100.0
TSM,2011-01-18,16100.0
TSM,2011-01-19,16100.0
TSM,2011-01-20,16100.0
TSM,2011-01-21,16100.0
TSM,2011-01-24,16100.0
TSM,2011-01-25,16100.0
TSM,2011-01-26,16100.0
TSM,2011-01-27,17200.0
TSM,2011-01-28,17200.0
TSM,2011-02-08,17200.0
TSM,2011-02-09,17200.0
TSM,2011-02-10,17200.0
TSM,2011-02-11,17200.0
TSM,2011-02-14,17200.0
TSM,2011-02-15,17200.0
TSM,2011-02-16,18400.0
TSM,2011-02-17,18400.0
TSM,2011-02-18,18400.0
TSM,2011-02-21,18400.0
TSM,2011-02-22,18400.0
TSM,2011-02-23,18400.0
TSM,2011-02-24,18400.0
TSM,2011-02-25,18400.0
TSM,2011-02-28,18400.0
TSM,2011-03-01,18400.0
TSM,2011-03-02,18400.0
TSM,2011-03-03,18400.0
TSM,2011-03-04,18400.0
TSM,2011-03-07,18400.0
TSM,2011-03-08,18400.0
TSM,2011-03-09,18400.0
TSM,2011-03-10,18400.0
TSM,2011-03-11,18400.0
TSM,2011-03-14,18400.0
TSM,2011-03-15,19700.0
TSM,2011-03-16,19700.0
TSM,2011-03-17,19700.0
TSM,2011-03-18,19700.0
TSM,2011-03-21,19700.0
TSM,2011-03-22,19700.0
TSM,2011-03-23,19700.0
TSM,2011-03-24,19700.0
TSM,2011-03-25,19700.0
TSM,2011-03-28,19700.0
TSM,2011-03-29,19700.0
TSM,2011-03-30,19700.0
TSM,2011-03-31,19700.0
TSM,2011-04-01,19700.0
TSM,2011-04-04,19700.0
TSM,2011-04-05,18300.0
TSM,2011-04-06,18300.0
TSM,2011-04-07,18300.0
TSM,2011-04-08,18300.0
TSM,2011-04-13,18300.0
TSM,2011-04-14,18300.0
TSM,2011-04-15,18300.0
TSM,2011-04-18,18300.0
TSM,2011-04-19,18300.0
TSM,2011-04-20,18300.0
TSM,2011-04-21,18300.0
TSM,2011-04-22,18300.0
TSM,2011-04-25,18300.0
TSM,2011-04-26,17100.0
TSM,2011-04-27,17100.0
TSM,2011-04-28,17100.0
TSM,2011-04-29,17100.0
TSM,2011-05-04,17100.0
TSM,2011-05-05,17100.0
TSM,2011-05-06,17100.0
TSM,2011-05-09,17100.0
TSM,2011-05-10,17100.0
TSM,2011-05-11,17100.0
TSM,2011-05-12,17100.0
TSM,2011-05-13,17100.0
TSM,2011-05-16,17100.0
TSM,2011-05-17,17100.0
TSM,2011-05-18,15900.0
TSM,2011-05-19,15900.0
TSM,2011-05-20,15900.0
TSM,2011-05-23,15900.0
TSM,2011-05-24,14900.0
TSM,2011-05-25,13900.0
TSM,2011-05-26,13000.0
TSM,2011-05-27,12100.0
TSM,2011-05-30,12100.0
TSM,2011-05-31,12100.0
TSM,2011-06-01,11300.0
TSM,2011-06-02,11300.0
TSM,2011-06-03,11300.0
TSM,2011-06-06,10500.0
TSM,2011-06-07,9800.0
TSM,2011-06-08,9200.0
TSM,2011-06-09,8900.0
TSM,2011-06-10,9000.0
TSM,2011-06-13,9000.0
TSM,2011-06-14,9000.0
TSM,2011-06-15,8400.0
TSM,2011-06-16,9000.0
TSM,2011-06-17,8400.0
TSM,2011-06-20,8400.0
TSM,2011-06-21,7800.0
TSM,2011-06-22,8400.0
TSM,2011-06-23,8400.0
TSM,2011-06-24,8400.0
TSM,2011-06-27,7800.0
TSM,2011-06-28,7800.0
TSM,2011-06-29,7800.0
TSM,2011-06-30,7800.0
TSM,2011-07-01,7800.0
TSM,2011-07-04,7800.0
TSM,2011-07-05,7500.0
TSM,2011-07-06,7300.0
TSM,2011-07-07,7300.0
TSM,2011-07-08,7300.0
TSM,2011-07-11,7300.0
TSM,2011-07-12,7300.0
TSM,2011-07-13,7300.0
TSM,2011-07-14,7700.0
TSM,2011-07-15,7700.0
TSM,2011-07-18,7700.0
TSM,2011-07-19,7200.0
TSM,2011-07-20,7000.0
TSM,2011-07-21,7000.0
TSM,2011-07-22,7000.0
TSM,2011-07-25,7000.0
TSM,2011-07-26,7000.0
TSM,2011-07-27,7000.0
TSM,2011-07-28,7000.0
TSM,2011-07-29,7000.0
TSM,2011-08-01,7000.0
TSM,2011-08-02,7000.0
TSM,2011-08-03,7000.0
TSM,2011-08-04,7000.0
TSM,2011-08-05,7000.0
TSM,2011-08-08,7000.0
TSM,2011-08-09,7000.0
TSM,2011-08-10,7000.0
TSM,2011-08-11,7000.0
TSM,2011-08-12,7000.0
TSM,2011-08-15,7000.0
TSM,2011-08-16,7000.0
TSM,2011-08-17,7000.0
TSM,2011-08-18,7000.0
TSM,2011-08-19,7000.0
TSM,2011-08-22,7000.0
TSM,2011-08-23,7300.0
TSM,2011-08-24,7300.0
TSM,2011-08-25,7300.0
TSM,2011-08-26,7000.0
TSM,2011-08-29,7000.0
TSM,2011-08-30,7000.0
TSM,2011-08-31,7000.0
TSM,2011-09-01,7000.0
TSM,2011-09-05,7000.0
TSM,2011-09-06,7000.0
TSM,2011-09-07,6500.0
TSM,2011-09-08,6100.0
TSM,2011-09-09,6400.0
TSM,2011-09-12,6700.0
TSM,2011-09-13,6700.0
TSM,2011-09-14,6700.0
TSM,2011-09-15,6700.0
TSM,2011-09-16,6500.0
TSM,2011-09-19,6100.0
TSM,2011-09-20,6400.0
TSM,2011-09-21,6200.0
TSM,2011-09-22,6200.0
TSM,2011-09-23,6200.0
TSM,2011-09-26,6200.0
TSM,2011-09-27,6200.0
TSM,2011-09-28,6200.0
TSM,2011-09-29,6200.0
TSM,2011-09-30,6200.0
TSM,2011-10-03,6200.0
TSM,2011-10-04,6200.0
TSM,2011-10-05,6200.0
TSM,2011-10-06,6200.0
TSM,2011-10-07,6200.0
TSM,2011-10-10,6100.0
TSM,2011-10-11,6100.0
TSM,2011-10-12,6100.0
TSM,2011-10-13,6100.0
TSM,2011-10-14,6100.0
TSM,2011-10-17,6100.0
TSM,2011-10-18,6400.0
TSM,2011-10-19,6400.0
TSM,2011-10-20,6100.0
TSM,2011-10-21,6100.0
TSM,2011-10-24,6400.0
TSM,2011-10-25,6400.0
TSM,2011-10-26,6400.0
TSM,2011-10-27,6400.0
TSM,2011-10-28,6400.0
TSM,2011-10-31,6400.0
TSM,2011-11-01,6100.0
TSM,2011-11-02,6100.0
TSM,2011-11-03,6400.0
TSM,2011-11-04,6400.0
TSM,2011-11-07,6400.0
TSM,2011-11-08,6100.0
TSM,2011-11-09,6100.0
TSM,2011-11-10,6100.0
TSM,2011-11-11,6100.0
TSM,2011-11-14,6100.0
TSM,2011-11-15,6100.0
TSM,2011-11-16,6100.0
TSM,2011-11-17,6300.0
TSM,2011-11-18,6300.0
TSM,2011-11-21,6100.0
TSM,2011-11-22,6100.0
TSM,2011-11-23,6100.0
TSM,2011-11-24,6300.0
TSM,2011-11-25,6300.0
TSM,2011-11-28,6700.0
TSM,2011-11-29,6700.0
TSM,2011-11-30,6700.0
TSM,2011-12-01,6700.0
TSM,2011-12-02,6700.0
TSM,2011-12-05,6700.0
TSM,2011-12-06,6700.0
TSM,2011-12-07,6700.0
TSM,2011-12-08,6700.0
TSM,2011-12-09,6700.0
TSM,2011-12-12,6700.0
TSM,2011-12-13,6700.0
TSM,2011-12-14,6700.0
TSM,2011-12-15,6700.0
TSM,2011-12-16,6700.0
TSM,2011-12-19,6700.0
TSM,2011-12-20,6700.0
TSM,2011-12-21,6700.0
TSM,2011-12-22,6700.0
TSM,2011-12-23,6700.0
TSM,2011-12-26,6700.0
TSM,2011-12-27,6700.0
TSM,2011-12-28,6700.0
TSM,2011-12-29,6700.0
TSM,2011-12-30,6700.0
TSM,2012-01-03,6700.0
TSM,2012-01-04,6700.0
TSM,2012-01-05,6700.0
TSM,2012-01-06,6700.0
TSM,2012-01-09,6700.0
TSM,2012-01-10,6700.0
TSM,2012-01-11,6700.0
TSM,2012-01-12,6700.0
TSM,2012-01-13,6700.0
TSM,2012-01-16,6700.0
TSM,2012-01-17,6300.0
TSM,2012-01-18,6300.0
TSM,2012-01-19,6300.0
TSM,2012-01-20,6300.0
TSM,2012-01-30,6300.0
TSM,2012-01-31,6300.0
TSM,2012-02-01,6300.0
TSM,2012-02-02,6300.0
TSM,2012-02-03,6300.0
TSM,2012-02-06,6300.0
TSM,2012-02-07,6300.0
TSM,2012-02-08,6300.0
TSM,2012-02-09,6300.0
TSM,2012-02-10,6300.0
TSM,2012-02-13,6300.0
TSM,2012-02-14,6300.0
TSM,2012-02-15,6300.0
TSM,2012-02-16,6300.0
TSM,2012-02-17,6300.0
TSM,2012-02-20,6300.0
TSM,2012-02-21,6300.0
TSM,2012-02-22,6300.0
TSM,2012-02-23,6300.0
TSM,2012-02-24,6300.0
TSM,2012-02-27,5800.0
TSM,2012-02-28,5800.0
TSM,2012-02-29,5800.0
TSM,2012-03-01,5800.0
TSM,2012-03-02,5800.0
TSM,2012-03-05,5800.0
TSM,2012-03-06,5800.0
TSM,2012-03-07,5800.0
TSM,2012-03-08,5800.0
TSM,2012-03-09,5800.0
TSM,2012-03-12,6200.0
TSM,2012-03-13,6200.0
TSM,2012-03-14,6200.0
TSM,2012-03-15,6200.0
TSM,2012-03-16,6200.0
TSM,2012-03-19,5800.0
TSM,2012-03-20,5800.0
TSM,2012-03-21,5800.0
TSM,2012-03-22,5800.0
TSM,2012-03-23,5500.0
TSM,2012-03-26,5200.0
TSM,2012-03-27,5200.0
TSM,2012-03-28,5200.0
TSM,2012-03-29,5200.0
TSM,2012-03-30,5200.0
TSM,2012-04-03,5200.0
TSM,2012-04-04,5200.0
TSM,2012-04-05,5200.0
TSM,2012-04-06,5200.0
TSM,2012-04-09,5200.0
TSM,2012-04-10,5200.0
TSM,2012-04-11,4900.0
TSM,2012-04-12,4900.0
TSM,2012-04-13,5100.0
TSM,2012-04-16,5500.0
TSM,2012-04-17,5800.0
TSM,2012-04-18,6100.0
TSM,2012-04-19,6100.0
TSM,2012-04-20,6100.0
TSM,2012-04-23,6100.0
TSM,2012-04-24,6100.0
TSM,2012-04-25,6100.0
TSM,2012-04-26,6100.0
TSM,2012-04-27,6100.0
TSM,2012-05-02,6100.0
TSM,2012-05-03,6100.0
TSM,2012-05-04,5800.0
TSM,2012-05-07,5800.0
TSM,2012-05-08,6200.0
TSM,2012-05-09,6500.0
TSM,2012-05-10,6500.0
TSM,2012-05-11,6500.0
TSM,2012-05-14,6500.0
TSM,2012-05-15,6500.0
TSM,2012-05-16,6500.0
TSM,2012-05-17,6500.0
TSM,2012-05-18,6500.0
TSM,2012-05-21,6700.0
TSM,2012-05-22,6700.0
TSM,2012-05-23,6700.0
TSM,2012-05-24,6700.0
TSM,2012-05-25,6700.0
TSM,2012-05-28,6700.0
TSM,2012-05-29,6700.0
TSM,2012-05-30,6700.0
TSM,2012-05-31,6700.0
TSM,2012-06-01,6700.0
TSM,2012-06-04,6300.0
TSM,2012-06-05,6300.0
TSM,2012-06-06,6300.0
TSM,2012-06-07,6300.0
TSM,2012-06-08,6300.0
TSM,2012-06-11,6300.0
TSM,2012-06-12,6300.0
TSM,2012-06-13,6300.0
TSM,2012-06-14,6300.0
TSM,2012-06-15,6300.0
TSM,2012-06-18,6700.0
TSM,2012-06-19,6700.0
TSM,2012-06-20,6700.0
TSM,2012-06-21,6700.0
TSM,2012-06-22,7100.0
TSM,2012-06-25,7100.0
TSM,2012-06-26,7100.0
TSM,2012-06-27,7600.0
TSM,2012-06-28,7600.0
TSM,2012-06-29,7600.0
TSM,2012-07-02,7600.0
TSM,2012-07-03,7600.0
TSM,2012-07-04,7600.0
TSM,2012-07-05,8100.0
TSM,2012-07-06,8100.0
TSM,2012-07-09,8100.0
TSM,2012-07-10,8100.0
TSM,2012-07-11,8100.0
TSM,2012-07-12,8100.0
TSM,2012-07-13,8100.0
TSM,2012-07-16,8100.0
TSM,2012-07-17,8100.0
TSM,2012-07-18,8100.0
TSM,2012-07-19,8100.0
TSM,2012-07-20,8100.0
TSM,2012-07-23,8100.0
TSM,2012-07-24,8100.0
TSM,2012-07-25,8100.0
TSM,2012-07-26,8100.0
TSM,2012-07-27,8100.0
TSM,2012-07-30,8100.0
TSM,2012-07-31,8100.0
TSM,2012-08-01,8100.0
TSM,2012-08-02,8100.0
TSM,2012-08-03,8100.0
TSM,2012-08-06,8100.0
TSM,2012-08-07,8100.0
TSM,2012-08-08,8100.0
TSM,2012-08-09,8100.0
TSM,2012-08-10,8100.0
TSM,2012-08-13,8100.0
TSM,2012-08-14,8100.0
TSM,2012-08-15,8100.0
TSM,2012-08-16,8100.0
TSM,2012-08-17,8100.0
TSM,2012-08-20,8100.0
TSM,2012-08-21,8100.0
TSM,2012-08-22,8100.0
TSM,2012-08-23,8100.0
TSM,2012-08-24,8100.0
TSM,2012-08-27,8100.0
TSM,2012-08-28,8100.0
TSM,2012-08-29,8100.0
TSM,2012-08-30,8100.0
TSM,2012-08-31,8100.0
TSM,2012-09-04,8100.0
TSM,2012-09-05,8100.0
TSM,2012-09-06,8100.0
TSM,2012-09-07,8100.0
TSM,2012-09-10,8100.0
TSM,2012-09-11,8100.0
TSM,2012-09-12,8100.0
TSM,2012-09-13,8100.0
TSM,2012-09-14,8100.0
TSM,2012-09-17,8100.0
TSM,2012-09-18,8100.0
TSM,2012-09-19,8100.0
TSM,2012-09-20,8100.0
TSM,2012-09-21,8100.0
TSM,2012-09-24,8100.0
TSM,2012-09-25,8100.0
TSM,2012-09-26,8100.0
TSM,2012-09-27,7600.0
TSM,2012-09-28,7600.0
TSM,2012-10-01,7600.0
TSM,2012-10-02,7600.0
TSM,2012-10-03,7600.0
TSM,2012-10-04,7600.0
TSM,2012-10-05,7600.0
TSM,2012-10-08,7600.0
TSM,2012-10-09,7600.0
TSM,2012-10-10,7600.0
TSM,2012-10-11,7600.0
TSM,2012-10-12,7600.0
TSM,2012-10-15,7600.0
TSM,2012-10-16,7600.0
TSM,2012-10-17,7600.0
TSM,2012-10-18,7600.0
TSM,2012-10-19,7600.0
TSM,2012-10-22,7600.0
TSM,2012-10-23,7600.0
TSM,2012-10-24,7600.0
TSM,2012-10-25,7600.0
TSM,2012-10-26,7600.0
TSM,2012-10-29,7600.0
TSM,2012-10-30,7600.0
TSM,2012-10-31,7600.0
TSM,2012-11-01,7000.0
TSM,2012-11-02,7000.0
TSM,2012-11-05,7000.0
TSM,2012-11-06,7000.0
TSM,2012-11-07,6600.0
TSM,2012-11-08,6600.0
TSM,2012-11-09,6200.0
TSM,2012-11-12,6200.0
TSM,2012-11-13,6500.0
TSM,2012-11-14,6500.0
TSM,2012-11-15,6500.0
TSM,2012-11-16,6500.0
TSM,2012-11-19,6500.0
TSM,2012-11-20,6500.0
TSM,2012-11-21,6500.0
TSM,2012-11-22,6500.0
TSM,2012-11-23,6500.0
TSM,2012-11-26,6500.0
TSM,2012-11-27,6500.0
TSM,2012-11-28,6500.0
TSM,2012-11-29,6500.0
TSM,2012-11-30,6500.0
TSM,2012-12-03,6500.0
TSM,2012-12-04,6500.0
TSM,2012-12-05,6500.0
TSM,2012-12-06,6500.0
TSM,2012-12-07,6500.0
TSM,2012-12-10,6500.0
TSM,2012-12-11,6500.0
TSM,2012-12-12,6500.0
TSM,2012-12-13,6500.0
TSM,2012-12-14,6500.0
TSM,2012-12-17,6100.0
TSM,2012-12-18,6100.0
TSM,2012-12-19,6100.0
TSM,2012-12-20,6100.0
TSM,2012-12-21,6100.0
TSM,2012-12-24,6100.0
TSM,2012-12-25,5700.0
TSM,2012-12-26,5700.0
TSM,2012-12-27,5400.0
TSM,2012-12-28,5000.0
TSM,2013-01-02,5000.0
TSM,2013-01-03,5000.0
TSM,2013-01-04,5000.0
TSM,2013-01-07,4700.0
TSM,2013-01-08,4700.0
TSM,2013-01-09,4700.0
TSM,2013-01-10,4700.0
TSM,2013-01-11,4700.0
TSM,2013-01-14,4700.0
TSM,2013-01-15,4700.0
TSM,2013-01-16,4700.0
TSM,2013-01-17,4700.0
TSM,2013-01-18,4700.0
TSM,2013-01-21,4700.0
TSM,2013-01-22,4700.0
TSM,2013-01-23,4700.0
TSM,2013-01-24,4700.0
TSM,2013-01-25,4700.0
TSM,2013-01-28,4700.0
TSM,2013-01-29,4700.0
TSM,2013-01-30,4700.0
TSM,2013-01-31,4700.0
TSM,2013-02-01,4700.0
TSM,2013-02-04,4700.0
TSM,2013-02-05,4700.0
TSM,2013-02-06,4700.0
TSM,2013-02-07,4700.0
TSM,2013-02-08,4700.0
TSM,2013-02-18,4700.0
TSM,2013-02-19,4700.0
TSM,2013-02-20,4700.0
TSM,2013-02-21,4700.0
TSM,2013-02-22,4700.0
TSM,2013-02-25,4700.0
TSM,2013-02-26,4700.0
TSM,2013-02-27,4700.0
TSM,2013-02-28,4700.0
TSM,2013-03-01,4700.0
TSM,2013-03-04,4700.0
TSM,2013-03-05,4700.0
TSM,2013-03-06,4700.0
TSM,2013-03-07,4700.0
TSM,2013-03-08,4700.0
TSM,2013-03-11,4700.0
TSM,2013-03-12,4700.0
TSM,2013-03-13,4700.0
TSM,2013-03-14,4700.0
TSM,2013-03-15,4700.0
TSM,2013-03-18,4700.0
TSM,2013-03-19,4700.0
TSM,2013-03-20,4700.0
TSM,2013-03-21,4700.0
TSM,2013-03-22,4300.0
TSM,2013-03-25,4300.0
TSM,2013-03-26,4300.0
TSM,2013-03-27,4300.0
TSM,2013-03-28,4300.0
TSM,2013-03-29,4300.0
TSM,2013-04-01,4300.0
TSM,2013-04-02,4300.0
TSM,2013-04-03,4300.0
TSM,2013-04-04,3900.0
TSM,2013-04-05,3600.0
TSM,2013-04-08,3600.0
TSM,2013-04-09,3600.0
TSM,2013-04-10,3600.0
TSM,2013-04-11,3600.0
TSM,2013-04-12,3600.0
TSM,2013-04-15,3600.0
TSM,2013-04-16,3600.0
TSM,2013-04-17,3600.0
TSM,2013-04-18,3600.0
TSM,2013-04-22,3600.0
TSM,2013-04-23,3600.0
TSM,2013-04-24,3600.0
TSM,2013-04-25,3600.0
TSM,2013-04-26,3600.0
TSM,2013-05-02,3600.0
TSM,2013-05-03,3600.0
TSM,2013-05-06,3600.0
TSM,2013-05-07,3600.0
TSM,2013-05-08,3600.0
TSM,2013-05-09,3600.0
TSM,2013-05-10,3600.0
TSM,2013-05-13,3600.0
TSM,2013-05-14,3600.0
TSM,2013-05-15,3600.0
TSM,2013-05-16,3600.0
TSM,2013-05-17,3600.0
TSM,2013-05-20,3300.0
TSM,2013-05-21,3300.0
TSM,2013-05-22,3300.0
TSM,2013-05-23,3300.0
TSM,2013-05-24,3000.0
TSM,2013-05-27,3000.0
TSM,2013-05-28,2700.0
TSM,2013-05-29,2700.0
TSM,2013-05-30,2700.0
TSM,2013-05-31,2700.0
TSM,2013-06-03,2700.0
TSM,2013-06-04,2700.0
TSM,2013-06-05,2700.0
TSM,2013-06-06,2700.0
TSM,2013-06-07,2700.0
TSM,2013-06-10,2700.0
TSM,2013-06-11,2700.0
TSM,2013-06-12,2700.0
TSM,2013-06-13,2700.0
TSM,2013-06-14,2700.0
TSM,2013-06-17,2700.0
TSM,2013-06-18,2700.0
TSM,2013-06-19,2700.0
TSM,2013-06-20,2700.0
TSM,2013-06-21,2700.0
TSM,2013-06-24,2700.0
TSM,2013-06-25,2700.0
TSM,2013-06-26,2700.0
TSM,2013-06-27,2700.0
TSM,2013-06-28,2700.0
TSM,2013-07-01,2700.0
TSM,2013-07-02,2700.0
TSM,2013-07-03,2700.0
TSM,2013-07-04,2700.0
TSM,2013-07-05,2700.0
TSM,2013-07-08,2700.0
TSM,2013-07-09,2700.0
TSM,2013-07-10,2700.0
TSM,2013-07-11,2700.0
TSM,2013-07-12,2700.0
TSM,2013-07-15,2700.0
TSM,2013-07-16,2700.0
TSM,2013-07-17,2700.0
TSM,2013-07-18,2700.0
TSM,2013-07-19,2700.0
TSM,2013-07-22,2700.0
TSM,2013-07-23,2700.0
TSM,2013-07-24,2700.0
TSM,2013-07-25,2700.0
TSM,2013-07-26,2700.0
TSM,2013-07-29,2700.0
TSM,2013-07-30,2700.0
TSM,2013-07-31,2700.0
TSM,2013-08-01,2700.0
TSM,2013-08-02,2700.0
TSM,2013-08-05,2700.0
TSM,2013-08-06,2700.0
TSM,2013-08-07,2700.0
TSM,2013-08-08,2700.0
TSM,2013-08-09,2700.0
TSM,2013-08-12,2700.0
TSM,2013-08-13,2700.0
TSM,2013-08-14,2700.0
TSM,2013-08-15,2700.0
TSM,2013-08-16,2700.0
TSM,2013-08-19,2700.0
TSM,2013-08-20,2700.0
TSM,2013-08-21,2700.0
TSM,2013-08-22,2700.0
TSM,2013-08-23,2700.0
TSM,2013-08-26,2700.0
TSM,2013-08-27,2700.0
TSM,2013-08-28,2700.0
TSM,2013-08-29,2700.0
TSM,2013-08-30,2700.0
TSM,2013-09-03,2700.0
TSM,2013-09-04,2700.0
TSM,2013-09-05,2700.0
TSM,2013-09-06,2700.0
TSM,2013-09-09,2700.0
TSM,2013-09-10,2700.0
TSM,2013-09-11,2700.0
TSM,2013-09-12,2700.0
TSM,2013-09-13,2700.0
TSM,2013-09-16,2700.0
TSM,2013-09-17,2700.0
TSM,2013-09-18,2700.0
TSM,2013-09-19,2700.0
TSM,2013-09-20,2700.0
TSM,2013-09-23,2700.0
TSM,2013-09-24,2700.0
TSM,2013-09-25,2700.0
TSM,2013-09-26,2700.0
TSM,2013-09-27,2700.0
TSM,2013-09-30,2700.0
TSM,2013-10-01,2700.0
TSM,2013-10-02,2700.0
TSM,2013-10-03,2700.0
TSM,2013-10-04,2700.0
TSM,2013-10-07,2700.0
TSM,2013-10-08,2700.0
TSM,2013-10-09,2700.0
TSM,2013-10-10,2700.0
TSM,2013-10-11,2700.0
TSM,2013-10-14,2700.0
TSM,2013-10-15,2700.0
TSM,2013-10-16,2700.0
TSM,2013-10-17,2700.0
TSM,2013-10-18,2700.0
TSM,2013-10-21,2700.0
TSM,2013-10-22,2700.0
TSM,2013-10-23,2700.0
TSM,2013-10-24,2700.0
TSM,2013-10-25,2700.0
TSM,2013-10-28,2700.0
TSM,2013-10-29,2700.0
TSM,2013-10-30,2700.0
TSM,2013-10-31,2700.0
TSM,2013-11-01,2700.0
TSM,2013-11-04,2700.0
TSM,2013-11-05,2700.0
TSM,2013-11-06,2700.0
TSM,2013-11-07,2700.0
TSM,2013-11-08,2700.0
TSM,2013-11-11,2700.0
TSM,2013-11-12,2700.0
TSM,2013-11-13,2700.0
TSM,2013-11-14,2700.0
TSM,2013-11-15,2700.0
TSM,2013-11-18,2700.0
TSM,2013-11-19,2700.0
TSM,2013-11-20,2700.0
TSM,2013-11-21,2700.0
TSM,2013-11-22,2700.0
TSM,2013-11-25,2700.0
TSM,2013-11-26,2700.0
TSM,2013-11-27,2700.0
TSM,2013-11-28,2700.0
TSM,2013-11-29,2700.0
TSM,2013-12-02,2700.0
TSM,2013-12-03,2700.0
TSM,2013-12-04,2700.0
TSM,2013-12-05,2700.0
TSM,2013-12-06,2700.0
TSM,2013-12-09,2700.0
TSM,2013-12-10,2500.0
TSM,2013-12-11,2500.0
TSM,2013-12-12,2500.0
TSM,2013-12-13,2500.0
TSM,2013-12-16,2500.0
TSM,2013-12-17,2500.0
TSM,2013-12-18,2500.0
TSM,2013-12-19,2500.0
TSM,2013-12-20,2500.0
TSM,2013-12-23,2500.0
TSM,2013-12-24,2500.0
TSM,2013-12-25,2500.0
TSM,2013-12-26,2500.0
TSM,2013-12-27,2500.0
TSM,2013-12-30,2500.0
TSM,2013-12-31,2500.0
TSM,2014-01-02,2500.0
TSM,2014-01-03,2500.0
TSM,2014-01-06,2500.0
TSM,2014-01-07,2500.0
TSM,2014-01-08,2500.0
TSM,2014-01-09,2500.0
TSM,2014-01-10,2500.0
TSM,2014-01-13,2500.0
TSM,2014-01-14,2500.0
TSM,2014-01-15,2500.0
TSM,2014-01-16,2500.0
TSM,2014-01-17,2500.0
TSM,2014-01-20,2500.0
TSM,2014-01-21,2500.0
TSM,2014-01-22,2500.0
TSM,2014-01-23,2500.0
TSM,2014-01-24,2500.0
TSM,2014-01-27,2500.0
TSM,2014-02-06,2500.0
TSM,2014-02-07,2500.0
TSM,2014-02-10,2500.0
TSM,2014-02-11,2500.0
TSM,2014-02-12,2500.0
TSM,2014-02-13,2500.0
TSM,2014-02-14,2500.0
TSM,2014-02-17,2500.0
TSM,2014-02-18,2500.0
TSM,2014-02-19,2500.0
TSM,2014-02-20,2500.0
TSM,2014-02-21,2500.0
TSM,2014-02-24,2500.0
TSM,2014-02-25,2500.0
TSM,2014-02-26,2500.0
TSM,2014-02-27,2500.0
TSM,2014-02-28,2700.0
TSM,2014-03-03,2700.0
TSM,2014-03-04,2700.0
TSM,2014-03-05,2700.0
TSM,2014-03-06,2700.0
TSM,2014-03-07,2700.0
TSM,2014-03-10,2900.0
TSM,2014-03-11,2900.0
TSM,2014-03-12,2900.0
TSM,2014-03-13,2900.0
TSM,2014-03-14,2900.0
TSM,2014-03-17,2900.0
TSM,2014-03-18,2900.0
TSM,2014-03-19,2700.0
TSM,2014-03-20,2700.0
TSM,2014-03-21,2700.0
TSM,2014-03-24,2700.0
TSM,2014-03-25,2700.0
TSM,2014-03-26,2700.0
TSM,2014-03-27,2900.0
TSM,2014-03-28,3100.0
TSM,2014-03-31,3100.0
TSM,2014-04-01,3100.0
TSM,2014-04-02,3400.0
TSM,2014-04-03,3700.0
TSM,2014-04-04,3700.0
TSM,2014-04-07,3700.0
TSM,2014-04-08,3700.0
TSM,2014-04-10,3700.0
TSM,2014-04-11,3700.0
TSM,2014-04-14,3700.0
TSM,2014-04-15,3700.0
TSM,2014-04-16,3700.0
TSM,2014-04-17,4000.0
TSM,2014-04-18,4000.0
TSM,2014-04-21,4000.0
TSM,2014-04-22,4000.0
TSM,2014-04-23,4000.0
TSM,2014-04-24,4000.0
TSM,2014-04-25,4000.0
TSM,2014-04-28,4000.0
TSM,2014-04-29,4000.0
TSM,2014-05-05,4000.0
TSM,2014-05-06,4000.0
TSM,2014-05-07,4000.0
TSM,2014-05-08,4000.0
TSM,2014-05-09,4000.0
TSM,2014-05-12,4000.0
TSM,2014-05-13,4000.0
TSM,2014-05-14,4000.0
TSM,2014-05-15,4000.0
TSM,2014-05-16,4000.0
TSM,2014-05-19,4000.0
TSM,2014-05-20,4000.0
TSM,2014-05-21,3600.0
