TVD,2011-01-11,10700.0
TVD,2011-01-12,10000.0
TVD,2011-01-13,10100.0
TVD,2011-01-14,9400.0
TVD,2011-01-17,8900.0
TVD,2011-01-18,8600.0
TVD,2011-01-19,8400.0
TVD,2011-01-20,7800.0
TVD,2011-01-21,7700.0
TVD,2011-01-24,7400.0
TVD,2011-01-25,7400.0
TVD,2011-01-26,7800.0
TVD,2011-01-27,7900.0
TVD,2011-01-28,7800.0
TVD,2011-02-08,8100.0
TVD,2011-02-09,8000.0
TVD,2011-02-10,7700.0
TVD,2011-02-11,8000.0
TVD,2011-02-14,8500.0
TVD,2011-02-15,8900.0
TVD,2011-02-16,9300.0
TVD,2011-02-17,9700.0
TVD,2011-02-18,9000.0
TVD,2011-02-21,8400.0
TVD,2011-02-22,8700.0
TVD,2011-02-23,8200.0
TVD,2011-02-24,8200.0
TVD,2011-02-25,8100.0
TVD,2011-02-28,8600.0
TVD,2011-03-01,8500.0
TVD,2011-03-02,8000.0
TVD,2011-03-03,7700.0
TVD,2011-03-04,8000.0
TVD,2011-03-07,7700.0
TVD,2011-03-08,7700.0
TVD,2011-03-09,7200.0
TVD,2011-03-10,7700.0
TVD,2011-03-11,7800.0
TVD,2011-03-14,7500.0
TVD,2011-03-15,7600.0
TVD,2011-03-16,7600.0
TVD,2011-03-17,7500.0
TVD,2011-03-18,7700.0
TVD,2011-03-21,7900.0
TVD,2011-03-22,7600.0
TVD,2011-03-23,7600.0
TVD,2011-03-24,7600.0
TVD,2011-03-25,7700.0
TVD,2011-03-28,7800.0
TVD,2011-03-29,7800.0
TVD,2011-03-30,7800.0
TVD,2011-03-31,7800.0
TVD,2011-04-01,8000.0
TVD,2011-04-04,8000.0
TVD,2011-04-05,8000.0
TVD,2011-04-06,8100.0
TVD,2011-04-07,8200.0
TVD,2011-04-08,8400.0
TVD,2011-04-13,8200.0
TVD,2011-04-14,8200.0
TVD,2011-04-15,8000.0
TVD,2011-04-18,8100.0
TVD,2011-04-19,7900.0
TVD,2011-04-20,8000.0
TVD,2011-04-21,7800.0
TVD,2011-04-22,7700.0
TVD,2011-04-25,7800.0
TVD,2011-04-26,7800.0
TVD,2011-04-27,7800.0
TVD,2011-04-28,7800.0
TVD,2011-04-29,7500.0
TVD,2011-05-04,7600.0
TVD,2011-05-05,8100.0
TVD,2011-05-06,8400.0
TVD,2011-05-09,8700.0
TVD,2011-05-10,8700.0
TVD,2011-05-11,8700.0
TVD,2011-05-12,8500.0
TVD,2011-05-13,8100.0
TVD,2011-05-16,8000.0
TVD,2011-05-17,8000.0
TVD,2011-05-18,7500.0
TVD,2011-05-19,7300.0
TVD,2011-05-20,7300.0
TVD,2011-05-23,7300.0
TVD,2011-05-24,6800.0
TVD,2011-05-25,7000.0
TVD,2011-05-26,7000.0
TVD,2011-05-27,7000.0
TVD,2011-05-30,6700.0
TVD,2011-05-31,6600.0
TVD,2011-06-01,6500.0
TVD,2011-06-02,6100.0
TVD,2011-06-03,6500.0
TVD,2011-06-06,6500.0
TVD,2011-06-07,6500.0
TVD,2011-06-08,6500.0
TVD,2011-06-09,6800.0
TVD,2011-06-10,7000.0
TVD,2011-06-13,6800.0
TVD,2011-06-14,7200.0
TVD,2011-06-15,6900.0
TVD,2011-06-16,7300.0
TVD,2011-06-17,7000.0
TVD,2011-06-20,6500.0
TVD,2011-06-21,7000.0
TVD,2011-06-22,6800.0
TVD,2011-06-23,6800.0
TVD,2011-06-24,6800.0
TVD,2011-06-27,6800.0
TVD,2011-06-28,6800.0
TVD,2011-06-29,6800.0
TVD,2011-06-30,6800.0
TVD,2011-07-01,6800.0
TVD,2011-07-04,6800.0
TVD,2011-07-05,7300.0
TVD,2011-07-06,6800.0
TVD,2011-07-07,7000.0
TVD,2011-07-08,7000.0
TVD,2011-07-11,7000.0
TVD,2011-07-12,7000.0
TVD,2011-07-13,7000.0
TVD,2011-07-14,7000.0
TVD,2011-07-15,7000.0
TVD,2011-07-18,6700.0
TVD,2011-07-19,6700.0
TVD,2011-07-20,6800.0
TVD,2011-07-21,6800.0
TVD,2011-07-22,6500.0
TVD,2011-07-25,6500.0
TVD,2011-07-26,6400.0
TVD,2011-07-27,6400.0
TVD,2011-07-28,6400.0
TVD,2011-07-29,6700.0
TVD,2011-08-01,6700.0
TVD,2011-08-02,6700.0
TVD,2011-08-03,6700.0
TVD,2011-08-04,6700.0
TVD,2011-08-05,6700.0
TVD,2011-08-08,6700.0
TVD,2011-08-09,6700.0
TVD,2011-08-10,6700.0
TVD,2011-08-11,6600.0
TVD,2011-08-12,6600.0
TVD,2011-08-15,6600.0
TVD,2011-08-16,6600.0
TVD,2011-08-17,6800.0
TVD,2011-08-18,6800.0
TVD,2011-08-19,6800.0
TVD,2011-08-22,6800.0
TVD,2011-08-23,6800.0
TVD,2011-08-24,6800.0
TVD,2011-08-25,6800.0
TVD,2011-08-26,6800.0
TVD,2011-08-29,6400.0
TVD,2011-08-30,6500.0
TVD,2011-08-31,6500.0
TVD,2011-09-01,6500.0
TVD,2011-09-05,6600.0
TVD,2011-09-06,6600.0
TVD,2011-09-07,6600.0
TVD,2011-09-08,6800.0
TVD,2011-09-09,7100.0
TVD,2011-09-12,7100.0
TVD,2011-09-13,7500.0
TVD,2011-09-14,6700.0
TVD,2011-09-15,6800.0
TVD,2011-09-16,7000.0
TVD,2011-09-19,6600.0
TVD,2011-09-20,6600.0
TVD,2011-09-21,6200.0
TVD,2011-09-22,6300.0
TVD,2011-09-23,6700.0
TVD,2011-09-26,6300.0
TVD,2011-09-27,6700.0
TVD,2011-09-28,7200.0
TVD,2011-09-29,6300.0
TVD,2011-09-30,6400.0
TVD,2011-10-03,6400.0
TVD,2011-10-04,6400.0
TVD,2011-10-05,6500.0
TVD,2011-10-06,6800.0
TVD,2011-10-07,6800.0
TVD,2011-10-10,6500.0
TVD,2011-10-11,6500.0
TVD,2011-10-12,6500.0
TVD,2011-10-13,6500.0
TVD,2011-10-14,6800.0
TVD,2011-10-17,6700.0
TVD,2011-10-18,7100.0
TVD,2011-10-19,6900.0
TVD,2011-10-20,7300.0
TVD,2011-10-21,7200.0
TVD,2011-10-24,7000.0
TVD,2011-10-25,6800.0
TVD,2011-10-26,6500.0
TVD,2011-10-27,6500.0
TVD,2011-10-28,6800.0
TVD,2011-10-31,6600.0
TVD,2011-11-01,7000.0
TVD,2011-11-02,6500.0
TVD,2011-11-03,6400.0
TVD,2011-11-04,6700.0
TVD,2011-11-07,6300.0
TVD,2011-11-08,6300.0
TVD,2011-11-09,6700.0
TVD,2011-11-10,6700.0
TVD,2011-11-11,6700.0
TVD,2011-11-14,6700.0
TVD,2011-11-15,6700.0
TVD,2011-11-16,6700.0
TVD,2011-11-17,6400.0
TVD,2011-11-18,6000.0
TVD,2011-11-21,6400.0
TVD,2011-11-22,6800.0
TVD,2011-11-23,6500.0
TVD,2011-11-24,6500.0
TVD,2011-11-25,7000.0
TVD,2011-11-28,7000.0
TVD,2011-11-29,7000.0
TVD,2011-11-30,7000.0
TVD,2011-12-01,7000.0
TVD,2011-12-02,6500.0
TVD,2011-12-05,6700.0
TVD,2011-12-06,6700.0
TVD,2011-12-07,6700.0
TVD,2011-12-08,6700.0
TVD,2011-12-09,6700.0
TVD,2011-12-12,6700.0
TVD,2011-12-13,7000.0
TVD,2011-12-14,7000.0
TVD,2011-12-15,7000.0
TVD,2011-12-16,7000.0
TVD,2011-12-19,7000.0
TVD,2011-12-20,7000.0
TVD,2011-12-21,6500.0
TVD,2011-12-22,6100.0
TVD,2011-12-23,6100.0
TVD,2011-12-26,6100.0
TVD,2011-12-27,6100.0
TVD,2011-12-28,6100.0
TVD,2011-12-29,6100.0
TVD,2011-12-30,6100.0
TVD,2012-01-03,6100.0
TVD,2012-01-04,6100.0
TVD,2012-01-05,6100.0
TVD,2012-01-06,6500.0
TVD,2012-01-09,6500.0
TVD,2012-01-10,6200.0
TVD,2012-01-11,6200.0
TVD,2012-01-12,6200.0
TVD,2012-01-13,6500.0
TVD,2012-01-16,6000.0
TVD,2012-01-17,6000.0
TVD,2012-01-18,6000.0
TVD,2012-01-19,6100.0
TVD,2012-01-20,6000.0
TVD,2012-01-30,6000.0
TVD,2012-01-31,5700.0
TVD,2012-02-01,6000.0
TVD,2012-02-02,6400.0
TVD,2012-02-03,6800.0
TVD,2012-02-06,7000.0
TVD,2012-02-07,7300.0
TVD,2012-02-08,7800.0
TVD,2012-02-09,8100.0
TVD,2012-02-10,8200.0
TVD,2012-02-13,8600.0
TVD,2012-02-14,8100.0
TVD,2012-02-15,8200.0
TVD,2012-02-16,8200.0
TVD,2012-02-17,8400.0
TVD,2012-02-20,8700.0
TVD,2012-02-21,8600.0
TVD,2012-02-22,8300.0
TVD,2012-02-23,8000.0
TVD,2012-02-24,8600.0
TVD,2012-02-27,9000.0
TVD,2012-02-28,8700.0
TVD,2012-02-29,8900.0
TVD,2012-03-01,8300.0
TVD,2012-03-02,8500.0
TVD,2012-03-05,9000.0
TVD,2012-03-06,8600.0
TVD,2012-03-07,8100.0
TVD,2012-03-08,7700.0
TVD,2012-03-09,7700.0
TVD,2012-03-12,7700.0
TVD,2012-03-13,7700.0
TVD,2012-03-14,7700.0
TVD,2012-03-15,8000.0
TVD,2012-03-16,8000.0
TVD,2012-03-19,8600.0
TVD,2012-03-20,8900.0
TVD,2012-03-21,9400.0
TVD,2012-03-22,9200.0
TVD,2012-03-23,9100.0
TVD,2012-03-26,9200.0
TVD,2012-03-27,9100.0
TVD,2012-03-28,9000.0
TVD,2012-03-29,8400.0
TVD,2012-03-30,8400.0
TVD,2012-04-03,8600.0
TVD,2012-04-04,8600.0
TVD,2012-04-05,9000.0
TVD,2012-04-06,9600.0
TVD,2012-04-09,10200.0
TVD,2012-04-10,10800.0
TVD,2012-04-11,11300.0
TVD,2012-04-12,10800.0
TVD,2012-04-13,10700.0
TVD,2012-04-16,10600.0
TVD,2012-04-17,10800.0
TVD,2012-04-18,10700.0
TVD,2012-04-19,10300.0
TVD,2012-04-20,10400.0
TVD,2012-04-23,10500.0
TVD,2012-04-24,10600.0
TVD,2012-04-25,11300.0
TVD,2012-04-26,12000.0
TVD,2012-04-27,12100.0
TVD,2012-05-02,11600.0
TVD,2012-05-03,11600.0
TVD,2012-05-04,11600.0
TVD,2012-05-07,12200.0
TVD,2012-05-08,12100.0
TVD,2012-05-09,11600.0
TVD,2012-05-10,11600.0
TVD,2012-05-11,11000.0
TVD,2012-05-14,10400.0
TVD,2012-05-15,10200.0
TVD,2012-05-16,10500.0
TVD,2012-05-17,10400.0
TVD,2012-05-18,9800.0
TVD,2012-05-21,10400.0
TVD,2012-05-22,10500.0
TVD,2012-05-23,10000.0
TVD,2012-05-24,9800.0
TVD,2012-05-25,10400.0
TVD,2012-05-28,10200.0
TVD,2012-05-29,9800.0
TVD,2012-05-30,10200.0
TVD,2012-05-31,10000.0
TVD,2012-06-01,10100.0
TVD,2012-06-04,9800.0
TVD,2012-06-05,9800.0
TVD,2012-06-06,9700.0
TVD,2012-06-07,10300.0
TVD,2012-06-08,10200.0
TVD,2012-06-11,10100.0
TVD,2012-06-12,9700.0
TVD,2012-06-13,9700.0
TVD,2012-06-14,9700.0
TVD,2012-06-15,9800.0
TVD,2012-06-18,9800.0
TVD,2012-06-19,9800.0
TVD,2012-06-20,9800.0
TVD,2012-06-21,9800.0
TVD,2012-06-22,9400.0
TVD,2012-06-25,9000.0
TVD,2012-06-26,8700.0
TVD,2012-06-27,8700.0
TVD,2012-06-28,8800.0
TVD,2012-06-29,8800.0
TVD,2012-07-02,8900.0
TVD,2012-07-03,8600.0
TVD,2012-07-04,8300.0
TVD,2012-07-05,8700.0
TVD,2012-07-06,8400.0
TVD,2012-07-09,8000.0
TVD,2012-07-10,8100.0
TVD,2012-07-11,8400.0
TVD,2012-07-12,8400.0
TVD,2012-07-13,9000.0
TVD,2012-07-16,8800.0
TVD,2012-07-17,8900.0
TVD,2012-07-18,8800.0
TVD,2012-07-19,9000.0
TVD,2012-07-20,8800.0
TVD,2012-07-23,8400.0
TVD,2012-07-24,8400.0
TVD,2012-07-25,8400.0
TVD,2012-07-26,8200.0
TVD,2012-07-27,7800.0
TVD,2012-07-30,7700.0
TVD,2012-07-31,7600.0
TVD,2012-08-01,7400.0
TVD,2012-08-02,7400.0
TVD,2012-08-03,7800.0
TVD,2012-08-06,7800.0
TVD,2012-08-07,7700.0
TVD,2012-08-08,7800.0
TVD,2012-08-09,7800.0
TVD,2012-08-10,7600.0
TVD,2012-08-13,7600.0
TVD,2012-08-14,7500.0
TVD,2012-08-15,7500.0
TVD,2012-08-16,7100.0
TVD,2012-08-17,7400.0
TVD,2012-08-20,7400.0
TVD,2012-08-21,6900.0
TVD,2012-08-22,6900.0
TVD,2012-08-23,6500.0
TVD,2012-08-24,6900.0
TVD,2012-08-27,6500.0
TVD,2012-08-28,6500.0
TVD,2012-08-29,6900.0
TVD,2012-08-30,6900.0
TVD,2012-08-31,6800.0
TVD,2012-09-04,7000.0
TVD,2012-09-05,7400.0
TVD,2012-09-06,7900.0
TVD,2012-09-07,8100.0
TVD,2012-09-10,7400.0
TVD,2012-09-11,7100.0
TVD,2012-09-12,7200.0
TVD,2012-09-13,7400.0
TVD,2012-09-14,7600.0
TVD,2012-09-17,7300.0
TVD,2012-09-18,7200.0
TVD,2012-09-19,7400.0
TVD,2012-09-20,7400.0
TVD,2012-09-21,7800.0
TVD,2012-09-24,7300.0
TVD,2012-09-25,7300.0
TVD,2012-09-26,7300.0
TVD,2012-09-27,7200.0
TVD,2012-09-28,7700.0
TVD,2012-10-01,7600.0
TVD,2012-10-02,7800.0
TVD,2012-10-03,7300.0
TVD,2012-10-04,7600.0
TVD,2012-10-05,7500.0
TVD,2012-10-08,7500.0
TVD,2012-10-09,7400.0
TVD,2012-10-10,7300.0
TVD,2012-10-11,7300.0
TVD,2012-10-12,7300.0
TVD,2012-10-15,7300.0
TVD,2012-10-16,7400.0
TVD,2012-10-17,7300.0
TVD,2012-10-18,7300.0
TVD,2012-10-19,7200.0
TVD,2012-10-22,7200.0
TVD,2012-10-23,7200.0
TVD,2012-10-24,6800.0
TVD,2012-10-25,6900.0
TVD,2012-10-26,6900.0
TVD,2012-10-29,7000.0
TVD,2012-10-30,6900.0
TVD,2012-10-31,6900.0
TVD,2012-11-01,7000.0
TVD,2012-11-02,6600.0
TVD,2012-11-05,6900.0
TVD,2012-11-06,6600.0
TVD,2012-11-07,6600.0
TVD,2012-11-08,6500.0
TVD,2012-11-09,6900.0
TVD,2012-11-12,6900.0
TVD,2012-11-13,6600.0
TVD,2012-11-14,6600.0
TVD,2012-11-15,6700.0
TVD,2012-11-16,6800.0
TVD,2012-11-19,6600.0
TVD,2012-11-20,6700.0
TVD,2012-11-21,6500.0
TVD,2012-11-22,6600.0
TVD,2012-11-23,6600.0
TVD,2012-11-26,6800.0
TVD,2012-11-27,6600.0
TVD,2012-11-28,6400.0
TVD,2012-11-29,6800.0
TVD,2012-11-30,6800.0
TVD,2012-12-03,6800.0
TVD,2012-12-04,7200.0
TVD,2012-12-05,7100.0
TVD,2012-12-06,6900.0
TVD,2012-12-07,6900.0
TVD,2012-12-10,7200.0
TVD,2012-12-11,7200.0
TVD,2012-12-12,7200.0
TVD,2012-12-13,7200.0
TVD,2012-12-14,7200.0
TVD,2012-12-17,7200.0
TVD,2012-12-18,7200.0
TVD,2012-12-19,7500.0
TVD,2012-12-20,7300.0
TVD,2012-12-21,7300.0
TVD,2012-12-24,7300.0
TVD,2012-12-25,7300.0
TVD,2012-12-26,7300.0
TVD,2012-12-27,7300.0
TVD,2012-12-28,7300.0
TVD,2013-01-02,7500.0
TVD,2013-01-03,7300.0
TVD,2013-01-04,7300.0
TVD,2013-01-07,7400.0
TVD,2013-01-08,7500.0
TVD,2013-01-09,7600.0
TVD,2013-01-10,7600.0
TVD,2013-01-11,7500.0
TVD,2013-01-14,7700.0
TVD,2013-01-15,7800.0
TVD,2013-01-16,8000.0
TVD,2013-01-17,8000.0
TVD,2013-01-18,8300.0
TVD,2013-01-21,8300.0
TVD,2013-01-22,7800.0
TVD,2013-01-23,7900.0
TVD,2013-01-24,7900.0
TVD,2013-01-25,7900.0
TVD,2013-01-28,7900.0
TVD,2013-01-29,7800.0
TVD,2013-01-30,7800.0
TVD,2013-01-31,7800.0
TVD,2013-02-01,7800.0
TVD,2013-02-04,7800.0
TVD,2013-02-05,7200.0
TVD,2013-02-06,8100.0
TVD,2013-02-07,8000.0
TVD,2013-02-08,8600.0
TVD,2013-02-18,9100.0
TVD,2013-02-19,9100.0
TVD,2013-02-20,9100.0
TVD,2013-02-21,8400.0
TVD,2013-02-22,8500.0
TVD,2013-02-25,8600.0
TVD,2013-02-26,8900.0
TVD,2013-02-27,8900.0
TVD,2013-02-28,8900.0
TVD,2013-03-01,8600.0
TVD,2013-03-04,8200.0
TVD,2013-03-05,8200.0
TVD,2013-03-06,8400.0
TVD,2013-03-07,8500.0
TVD,2013-03-08,8500.0
TVD,2013-03-11,8400.0
TVD,2013-03-12,8300.0
TVD,2013-03-13,8300.0
TVD,2013-03-14,8400.0
TVD,2013-03-15,8300.0
TVD,2013-03-18,8500.0
TVD,2013-03-19,8500.0
TVD,2013-03-20,8700.0
TVD,2013-03-21,9600.0
TVD,2013-03-22,9900.0
TVD,2013-03-25,9900.0
TVD,2013-03-26,9600.0
TVD,2013-03-27,9400.0
TVD,2013-03-28,9400.0
TVD,2013-03-29,9300.0
TVD,2013-04-01,9700.0
TVD,2013-04-02,9400.0
TVD,2013-04-03,9600.0
TVD,2013-04-04,9600.0
TVD,2013-04-05,9500.0
TVD,2013-04-08,9600.0
TVD,2013-04-09,9700.0
TVD,2013-04-10,9700.0
TVD,2013-04-11,9700.0
TVD,2013-04-12,9600.0
TVD,2013-04-15,9700.0
TVD,2013-04-16,9700.0
TVD,2013-04-17,9700.0
TVD,2013-04-18,9500.0
TVD,2013-04-22,9500.0
TVD,2013-04-23,9500.0
TVD,2013-04-24,9600.0
TVD,2013-04-25,9600.0
TVD,2013-04-26,9600.0
TVD,2013-05-02,9700.0
TVD,2013-05-03,9900.0
TVD,2013-05-06,10200.0
TVD,2013-05-07,10200.0
TVD,2013-05-08,10200.0
TVD,2013-05-09,10200.0
TVD,2013-05-10,10200.0
TVD,2013-05-13,10300.0
TVD,2013-05-14,9900.0
TVD,2013-05-15,10000.0
TVD,2013-05-16,10000.0
TVD,2013-05-17,10000.0
TVD,2013-05-20,10100.0
TVD,2013-05-21,10100.0
TVD,2013-05-22,10200.0
TVD,2013-05-23,10200.0
TVD,2013-05-24,10200.0
TVD,2013-05-27,10300.0
TVD,2013-05-28,10200.0
TVD,2013-05-29,10200.0
TVD,2013-05-30,10200.0
TVD,2013-05-31,10200.0
TVD,2013-06-03,10200.0
TVD,2013-06-04,10000.0
TVD,2013-06-05,10200.0
TVD,2013-06-06,10100.0
TVD,2013-06-07,10200.0
TVD,2013-06-10,10200.0
TVD,2013-06-11,10500.0
TVD,2013-06-12,10500.0
TVD,2013-06-13,10500.0
TVD,2013-06-14,10500.0
TVD,2013-06-17,10500.0
TVD,2013-06-18,10500.0
TVD,2013-06-19,10500.0
TVD,2013-06-20,10500.0
TVD,2013-06-21,10500.0
TVD,2013-06-24,10500.0
TVD,2013-06-25,10500.0
TVD,2013-06-26,10500.0
TVD,2013-06-27,10400.0
TVD,2013-06-28,10400.0
TVD,2013-07-01,9900.0
TVD,2013-07-02,10000.0
TVD,2013-07-03,10100.0
TVD,2013-07-04,9900.0
TVD,2013-07-05,9900.0
TVD,2013-07-08,9900.0
TVD,2013-07-09,9900.0
TVD,2013-07-10,10100.0
TVD,2013-07-11,10100.0
TVD,2013-07-12,10000.0
TVD,2013-07-15,9600.0
TVD,2013-07-16,9600.0
TVD,2013-07-17,9600.0
TVD,2013-07-18,9600.0
TVD,2013-07-19,9800.0
TVD,2013-07-22,9400.0
TVD,2013-07-23,9100.0
TVD,2013-07-24,9200.0
TVD,2013-07-25,9500.0
TVD,2013-07-26,9500.0
TVD,2013-07-29,9500.0
TVD,2013-07-30,9500.0
TVD,2013-07-31,9200.0
TVD,2013-08-01,9500.0
TVD,2013-08-02,9400.0
TVD,2013-08-05,9400.0
TVD,2013-08-06,9400.0
TVD,2013-08-07,9200.0
TVD,2013-08-08,9200.0
TVD,2013-08-09,9200.0
TVD,2013-08-12,9200.0
TVD,2013-08-13,9200.0
TVD,2013-08-14,9000.0
TVD,2013-08-15,9000.0
TVD,2013-08-16,8700.0
TVD,2013-08-19,8700.0
TVD,2013-08-20,9000.0
TVD,2013-08-21,9000.0
TVD,2013-08-22,9000.0
TVD,2013-08-23,8900.0
TVD,2013-08-26,8400.0
TVD,2013-08-27,8600.0
TVD,2013-08-28,8600.0
TVD,2013-08-29,8700.0
TVD,2013-08-30,8700.0
TVD,2013-09-03,8400.0
TVD,2013-09-04,9000.0
TVD,2013-09-05,9000.0
TVD,2013-09-06,9000.0
TVD,2013-09-09,8900.0
TVD,2013-09-10,8700.0
TVD,2013-09-11,8700.0
TVD,2013-09-12,9200.0
TVD,2013-09-13,9200.0
TVD,2013-09-16,8900.0
TVD,2013-09-17,8900.0
TVD,2013-09-18,9000.0
TVD,2013-09-19,9000.0
TVD,2013-09-20,9000.0
TVD,2013-09-23,9500.0
TVD,2013-09-24,9100.0
TVD,2013-09-25,9100.0
TVD,2013-09-26,9400.0
TVD,2013-09-27,9400.0
TVD,2013-09-30,9000.0
TVD,2013-10-01,9500.0
TVD,2013-10-02,9500.0
TVD,2013-10-03,9600.0
TVD,2013-10-04,9600.0
TVD,2013-10-07,9500.0
TVD,2013-10-08,9500.0
TVD,2013-10-09,9500.0
TVD,2013-10-10,9900.0
TVD,2013-10-11,9900.0
TVD,2013-10-14,9600.0
TVD,2013-10-15,9600.0
TVD,2013-10-16,9600.0
TVD,2013-10-17,9600.0
TVD,2013-10-18,9600.0
TVD,2013-10-21,9600.0
TVD,2013-10-22,9600.0
TVD,2013-10-23,9600.0
TVD,2013-10-24,9700.0
TVD,2013-10-25,9800.0
TVD,2013-10-28,10400.0
TVD,2013-10-29,10400.0
TVD,2013-10-30,10400.0
TVD,2013-10-31,10200.0
TVD,2013-11-01,10500.0
TVD,2013-11-04,9600.0
TVD,2013-11-05,10200.0
TVD,2013-11-06,10300.0
TVD,2013-11-07,10300.0
TVD,2013-11-08,10300.0
TVD,2013-11-11,10500.0
TVD,2013-11-12,10200.0
TVD,2013-11-13,10200.0
TVD,2013-11-14,11000.0
TVD,2013-11-15,10200.0
TVD,2013-11-18,10300.0
TVD,2013-11-19,10300.0
TVD,2013-11-20,10300.0
TVD,2013-11-21,10400.0
TVD,2013-11-22,10600.0
TVD,2013-11-25,10600.0
TVD,2013-11-26,11300.0
TVD,2013-11-27,11300.0
TVD,2013-11-28,10500.0
TVD,2013-11-29,10300.0
TVD,2013-12-02,10300.0
TVD,2013-12-03,10300.0
TVD,2013-12-04,10300.0
TVD,2013-12-05,10300.0
TVD,2013-12-06,10300.0
TVD,2013-12-09,10500.0
TVD,2013-12-10,10500.0
TVD,2013-12-11,10600.0
TVD,2013-12-12,10600.0
TVD,2013-12-13,9600.0
TVD,2013-12-16,10500.0
TVD,2013-12-17,10500.0
TVD,2013-12-18,10400.0
TVD,2013-12-19,10400.0
TVD,2013-12-20,10400.0
TVD,2013-12-23,10500.0
TVD,2013-12-24,10600.0
TVD,2013-12-25,10600.0
TVD,2013-12-26,10600.0
TVD,2013-12-27,10500.0
TVD,2013-12-30,10400.0
TVD,2013-12-31,10400.0
TVD,2014-01-02,10400.0
TVD,2014-01-03,10500.0
TVD,2014-01-06,10700.0
TVD,2014-01-07,10900.0
TVD,2014-01-08,11000.0
TVD,2014-01-09,11000.0
TVD,2014-01-10,11200.0
TVD,2014-01-13,11200.0
TVD,2014-01-14,11500.0
TVD,2014-01-15,11600.0
TVD,2014-01-16,11600.0
TVD,2014-01-17,11800.0
TVD,2014-01-20,12900.0
TVD,2014-01-21,13100.0
TVD,2014-01-22,13300.0
TVD,2014-01-23,13000.0
TVD,2014-01-24,13000.0
TVD,2014-01-27,13300.0
TVD,2014-02-06,14300.0
TVD,2014-02-07,13500.0
TVD,2014-02-10,14200.0
TVD,2014-02-11,14000.0
TVD,2014-02-12,14600.0
TVD,2014-02-13,14800.0
TVD,2014-02-14,16000.0
TVD,2014-02-17,16100.0
TVD,2014-02-18,16100.0
TVD,2014-02-19,16400.0
TVD,2014-02-20,16100.0
TVD,2014-02-21,15700.0
TVD,2014-02-24,16500.0
TVD,2014-02-25,16200.0
TVD,2014-02-26,15800.0
TVD,2014-02-27,15000.0
TVD,2014-02-28,15400.0
TVD,2014-03-03,14600.0
TVD,2014-03-04,14500.0
TVD,2014-03-05,15100.0
TVD,2014-03-06,15000.0
TVD,2014-03-07,15000.0
TVD,2014-03-10,15000.0
TVD,2014-03-11,14900.0
TVD,2014-03-12,14800.0
TVD,2014-03-13,15100.0
TVD,2014-03-14,14900.0
TVD,2014-03-17,14900.0
TVD,2014-03-18,14600.0
TVD,2014-03-19,14600.0
TVD,2014-03-20,15000.0
TVD,2014-03-21,15000.0
TVD,2014-03-24,15000.0
TVD,2014-03-25,15400.0
TVD,2014-03-26,15100.0
TVD,2014-03-27,14800.0
TVD,2014-03-28,15000.0
TVD,2014-03-31,15100.0
TVD,2014-04-01,15100.0
TVD,2014-04-02,15100.0
TVD,2014-04-03,15200.0
TVD,2014-04-04,15200.0
TVD,2014-04-07,15500.0
TVD,2014-04-08,15500.0
TVD,2014-04-10,15800.0
TVD,2014-04-11,15700.0
TVD,2014-04-14,15500.0
TVD,2014-04-15,16800.0
TVD,2014-04-16,16500.0
TVD,2014-04-17,16200.0
TVD,2014-04-18,16000.0
TVD,2014-04-21,15100.0
TVD,2014-04-22,15400.0
TVD,2014-04-23,15000.0
TVD,2014-04-24,15300.0
TVD,2014-04-25,13700.0
TVD,2014-04-28,12600.0
TVD,2014-04-29,13800.0
TVD,2014-05-05,13800.0
TVD,2014-05-06,13000.0
TVD,2014-05-07,13000.0
TVD,2014-05-08,12400.0
TVD,2014-05-09,12400.0
TVD,2014-05-12,12300.0
TVD,2014-05-13,12300.0
TVD,2014-05-14,13000.0
TVD,2014-05-15,12000.0
TVD,2014-05-16,11600.0
TVD,2014-05-19,12400.0
TVD,2014-05-20,12200.0
TVD,2014-05-21,12000.0
