VAT,2010-12-15,15300.0
VAT,2010-12-16,15400.0
VAT,2010-12-17,14400.0
VAT,2010-12-20,13900.0
VAT,2010-12-21,12900.0
VAT,2010-12-22,13900.0
VAT,2010-12-23,14500.0
VAT,2010-12-24,14500.0
VAT,2010-12-27,13600.0
VAT,2010-12-28,12800.0
VAT,2010-12-29,13200.0
VAT,2010-12-30,12500.0
VAT,2010-12-31,13000.0
VAT,2011-01-04,13000.0
VAT,2011-01-05,12200.0
VAT,2011-01-06,13000.0
VAT,2011-01-07,13000.0
VAT,2011-01-10,12100.0
VAT,2011-01-11,12200.0
VAT,2011-01-12,12200.0
VAT,2011-01-13,12200.0
VAT,2011-01-14,12200.0
VAT,2011-01-17,12500.0
VAT,2011-01-18,12100.0
VAT,2011-01-19,12200.0
VAT,2011-01-20,12000.0
VAT,2011-01-21,12200.0
VAT,2011-01-24,11500.0
VAT,2011-01-25,11100.0
VAT,2011-01-26,11800.0
VAT,2011-01-27,11800.0
VAT,2011-01-28,12200.0
VAT,2011-02-08,13000.0
VAT,2011-02-09,12100.0
VAT,2011-02-10,12000.0
VAT,2011-02-11,12200.0
VAT,2011-02-14,12200.0
VAT,2011-02-15,13000.0
VAT,2011-02-16,12100.0
VAT,2011-02-17,11600.0
VAT,2011-02-18,11800.0
VAT,2011-02-21,11200.0
VAT,2011-02-22,11100.0
VAT,2011-02-23,11100.0
VAT,2011-02-24,11100.0
VAT,2011-02-25,10600.0
VAT,2011-02-28,10800.0
VAT,2011-03-01,10700.0
VAT,2011-03-02,10200.0
VAT,2011-03-03,10500.0
VAT,2011-03-04,10500.0
VAT,2011-03-07,9800.0
VAT,2011-03-08,10300.0
VAT,2011-03-09,9700.0
VAT,2011-03-10,9700.0
VAT,2011-03-11,10200.0
VAT,2011-03-14,9500.0
VAT,2011-03-15,8800.0
VAT,2011-03-16,9400.0
VAT,2011-03-17,8800.0
VAT,2011-03-18,9400.0
VAT,2011-03-21,9700.0
VAT,2011-03-22,8800.0
VAT,2011-03-23,8800.0
VAT,2011-03-24,9500.0
VAT,2011-03-25,9500.0
VAT,2011-03-28,9600.0
VAT,2011-03-29,10200.0
VAT,2011-03-30,10100.0
VAT,2011-03-31,9500.0
VAT,2011-04-01,8900.0
VAT,2011-04-04,9400.0
VAT,2011-04-05,9400.0
VAT,2011-04-06,9100.0
VAT,2011-04-07,9000.0
VAT,2011-04-08,8600.0
VAT,2011-04-13,8600.0
VAT,2011-04-14,8600.0
VAT,2011-04-15,9100.0
VAT,2011-04-18,9500.0
VAT,2011-04-19,8900.0
VAT,2011-04-20,9100.0
VAT,2011-04-21,8500.0
VAT,2011-04-22,9100.0
VAT,2011-04-25,8900.0
VAT,2011-04-26,8300.0
VAT,2011-04-27,7900.0
VAT,2011-04-28,8300.0
VAT,2011-04-29,8900.0
VAT,2011-05-04,8500.0
VAT,2011-05-05,8400.0
VAT,2011-05-06,7900.0
VAT,2011-05-09,7500.0
VAT,2011-05-10,8100.0
VAT,2011-05-11,7900.0
VAT,2011-05-12,7800.0
VAT,2011-05-13,8500.0
VAT,2011-05-16,8000.0
VAT,2011-05-17,7600.0
VAT,2011-05-18,7600.0
VAT,2011-05-19,8100.0
VAT,2011-05-20,8100.0
VAT,2011-05-23,7500.0
VAT,2011-05-24,7000.0
VAT,2011-05-25,7400.0
VAT,2011-05-26,7400.0
VAT,2011-05-27,7800.0
VAT,2011-05-30,8000.0
VAT,2011-05-31,8100.0
VAT,2011-06-01,8300.0
VAT,2011-06-02,7700.0
VAT,2011-06-03,8100.0
VAT,2011-06-06,7500.0
VAT,2011-06-07,7800.0
VAT,2011-06-08,7900.0
VAT,2011-06-09,7800.0
VAT,2011-06-10,7400.0
VAT,2011-06-13,7500.0
VAT,2011-06-14,7600.0
VAT,2011-06-15,7200.0
VAT,2011-06-16,7700.0
VAT,2011-06-17,7700.0
VAT,2011-06-20,7200.0
VAT,2011-06-21,7000.0
VAT,2011-06-22,7100.0
VAT,2011-06-23,6700.0
VAT,2011-06-24,6600.0
VAT,2011-06-27,6600.0
VAT,2011-06-28,6800.0
VAT,2011-06-29,6700.0
VAT,2011-06-30,6700.0
VAT,2011-07-01,6700.0
VAT,2011-07-04,6700.0
VAT,2011-07-05,6800.0
VAT,2011-07-06,6700.0
VAT,2011-07-07,6600.0
VAT,2011-07-08,6800.0
VAT,2011-07-11,6800.0
VAT,2011-07-12,6500.0
VAT,2011-07-13,6500.0
VAT,2011-07-14,6600.0
VAT,2011-07-15,6600.0
VAT,2011-07-18,6600.0
VAT,2011-07-19,6600.0
VAT,2011-07-20,6500.0
VAT,2011-07-21,6600.0
VAT,2011-07-22,6700.0
VAT,2011-07-25,6600.0
VAT,2011-07-26,6600.0
VAT,2011-07-27,6600.0
VAT,2011-07-28,6500.0
VAT,2011-07-29,6500.0
VAT,2011-08-01,6500.0
VAT,2011-08-02,6500.0
VAT,2011-08-03,6700.0
VAT,2011-08-04,6200.0
VAT,2011-08-05,6300.0
VAT,2011-08-08,6300.0
VAT,2011-08-09,6300.0
VAT,2011-08-10,6300.0
VAT,2011-08-11,6500.0
VAT,2011-08-12,6500.0
VAT,2011-08-15,6600.0
VAT,2011-08-16,6600.0
VAT,2011-08-17,6700.0
VAT,2011-08-18,6700.0
VAT,2011-08-19,6200.0
VAT,2011-08-22,6200.0
VAT,2011-08-23,5700.0
VAT,2011-08-24,5400.0
VAT,2011-08-25,5500.0
VAT,2011-08-26,5500.0
VAT,2011-08-29,5100.0
VAT,2011-08-30,5500.0
VAT,2011-08-31,5700.0
VAT,2011-09-01,6100.0
VAT,2011-09-05,6400.0
VAT,2011-09-06,6000.0
VAT,2011-09-07,6400.0
VAT,2011-09-08,5900.0
VAT,2011-09-09,6100.0
VAT,2011-09-12,6300.0
VAT,2011-09-13,6400.0
VAT,2011-09-14,6400.0
VAT,2011-09-15,6300.0
VAT,2011-09-16,6200.0
VAT,2011-09-19,6400.0
VAT,2011-09-20,6000.0
VAT,2011-09-21,6100.0
VAT,2011-09-22,6000.0
VAT,2011-09-23,5700.0
VAT,2011-09-26,5400.0
VAT,2011-09-27,5500.0
VAT,2011-09-28,5500.0
VAT,2011-09-29,5500.0
VAT,2011-09-30,5600.0
VAT,2011-10-03,5700.0
VAT,2011-10-04,5400.0
VAT,2011-10-05,5100.0
VAT,2011-10-06,5200.0
VAT,2011-10-07,5000.0
VAT,2011-10-10,5300.0
VAT,2011-10-11,5400.0
VAT,2011-10-12,5100.0
VAT,2011-10-13,5300.0
VAT,2011-10-14,5300.0
VAT,2011-10-17,5000.0
VAT,2011-10-18,5200.0
VAT,2011-10-19,4900.0
VAT,2011-10-20,5200.0
VAT,2011-10-21,5100.0
VAT,2011-10-24,5200.0
VAT,2011-10-25,5200.0
VAT,2011-10-26,5200.0
VAT,2011-10-27,5200.0
VAT,2011-10-28,5100.0
VAT,2011-10-31,5100.0
VAT,2011-11-01,5100.0
VAT,2011-11-02,4800.0
VAT,2011-11-03,4900.0
VAT,2011-11-04,4900.0
VAT,2011-11-07,4700.0
VAT,2011-11-08,4400.0
VAT,2011-11-09,4700.0
VAT,2011-11-10,4700.0
VAT,2011-11-11,4700.0
VAT,2011-11-14,4700.0
VAT,2011-11-15,4700.0
VAT,2011-11-16,4700.0
VAT,2011-11-17,4500.0
VAT,2011-11-18,4700.0
VAT,2011-11-21,4700.0
VAT,2011-11-22,4700.0
VAT,2011-11-23,4700.0
VAT,2011-11-24,4700.0
VAT,2011-11-25,4700.0
VAT,2011-11-28,4700.0
VAT,2011-11-29,4800.0
VAT,2011-11-30,4500.0
VAT,2011-12-01,4300.0
VAT,2011-12-02,4600.0
VAT,2011-12-05,4500.0
VAT,2011-12-06,4300.0
VAT,2011-12-07,4300.0
VAT,2011-12-08,4500.0
VAT,2011-12-09,4500.0
VAT,2011-12-12,4500.0
VAT,2011-12-13,4500.0
VAT,2011-12-14,4200.0
VAT,2011-12-15,4400.0
VAT,2011-12-16,4400.0
VAT,2011-12-19,4400.0
VAT,2011-12-20,4400.0
VAT,2011-12-21,4400.0
VAT,2011-12-22,4400.0
VAT,2011-12-23,4400.0
VAT,2011-12-26,4400.0
VAT,2011-12-27,4400.0
VAT,2011-12-28,4400.0
VAT,2011-12-29,4400.0
VAT,2011-12-30,4400.0
VAT,2012-01-03,4100.0
VAT,2012-01-04,4100.0
VAT,2012-01-05,3900.0
VAT,2012-01-06,4100.0
VAT,2012-01-09,4100.0
VAT,2012-01-10,4200.0
VAT,2012-01-11,4300.0
VAT,2012-01-12,4300.0
VAT,2012-01-13,4100.0
VAT,2012-01-16,4100.0
VAT,2012-01-17,3900.0
VAT,2012-01-18,4000.0
VAT,2012-01-19,4200.0
VAT,2012-01-20,4100.0
VAT,2012-01-30,4300.0
VAT,2012-01-31,4300.0
VAT,2012-02-01,4400.0
VAT,2012-02-02,4500.0
VAT,2012-02-03,4600.0
VAT,2012-02-06,4600.0
VAT,2012-02-07,4300.0
VAT,2012-02-08,4000.0
VAT,2012-02-09,4300.0
VAT,2012-02-10,4400.0
VAT,2012-02-13,4100.0
VAT,2012-02-14,3900.0
VAT,2012-02-15,3700.0
VAT,2012-02-16,3500.0
VAT,2012-02-17,3500.0
VAT,2012-02-20,3700.0
VAT,2012-02-21,3500.0
VAT,2012-02-22,3300.0
VAT,2012-02-23,3100.0
VAT,2012-02-24,3300.0
VAT,2012-02-27,3600.0
VAT,2012-02-28,3800.0
VAT,2012-02-29,3900.0
VAT,2012-03-01,4000.0
VAT,2012-03-02,3800.0
VAT,2012-03-05,4000.0
VAT,2012-03-06,3800.0
VAT,2012-03-07,3600.0
VAT,2012-03-08,3400.0
VAT,2012-03-09,3400.0
VAT,2012-03-12,3400.0
VAT,2012-03-13,3600.0
VAT,2012-03-14,3500.0
VAT,2012-03-15,3700.0
VAT,2012-03-16,3600.0
VAT,2012-03-19,3600.0
VAT,2012-03-20,3600.0
VAT,2012-03-21,3600.0
VAT,2012-03-22,3900.0
VAT,2012-03-23,4000.0
VAT,2012-03-26,4200.0
VAT,2012-03-27,4200.0
VAT,2012-03-28,4200.0
VAT,2012-03-29,4000.0
VAT,2012-03-30,3900.0
VAT,2012-04-03,4100.0
VAT,2012-04-04,4000.0
VAT,2012-04-05,4000.0
VAT,2012-04-06,4100.0
VAT,2012-04-09,4100.0
VAT,2012-04-10,4200.0
VAT,2012-04-11,4200.0
VAT,2012-04-12,4300.0
VAT,2012-04-13,4300.0
VAT,2012-04-16,4400.0
VAT,2012-04-17,4500.0
VAT,2012-04-18,4400.0
VAT,2012-04-19,4400.0
VAT,2012-04-20,4500.0
VAT,2012-04-23,3900.0
VAT,2012-04-24,4300.0
VAT,2012-04-25,4000.0
VAT,2012-04-26,4400.0
VAT,2012-04-27,4300.0
VAT,2012-05-02,4600.0
VAT,2012-05-03,4700.0
VAT,2012-05-04,4700.0
VAT,2012-05-07,5000.0
VAT,2012-05-08,5100.0
VAT,2012-05-09,5400.0
VAT,2012-05-10,5400.0
VAT,2012-05-11,5100.0
VAT,2012-05-14,5300.0
VAT,2012-05-15,5000.0
VAT,2012-05-16,4700.0
VAT,2012-05-17,4900.0
VAT,2012-05-18,5100.0
VAT,2012-05-21,5100.0
VAT,2012-05-22,5400.0
VAT,2012-05-23,5400.0
VAT,2012-05-24,5400.0
VAT,2012-05-25,5400.0
VAT,2012-05-28,5400.0
VAT,2012-05-29,5700.0
VAT,2012-05-30,5400.0
VAT,2012-05-31,5400.0
VAT,2012-06-01,5400.0
VAT,2012-06-04,5100.0
VAT,2012-06-05,4800.0
VAT,2012-06-06,4500.0
VAT,2012-06-07,4500.0
VAT,2012-06-08,4200.0
VAT,2012-06-11,4400.0
VAT,2012-06-12,4400.0
VAT,2012-06-13,4100.0
VAT,2012-06-14,3900.0
VAT,2012-06-15,3700.0
VAT,2012-06-18,3900.0
VAT,2012-06-19,4100.0
VAT,2012-06-20,4300.0
VAT,2012-06-21,4600.0
VAT,2012-06-22,4800.0
VAT,2012-06-25,4800.0
VAT,2012-06-26,4800.0
VAT,2012-06-27,4800.0
VAT,2012-06-28,4500.0
VAT,2012-06-29,4500.0
VAT,2012-07-02,4500.0
VAT,2012-07-03,4200.0
VAT,2012-07-04,4200.0
VAT,2012-07-05,4200.0
VAT,2012-07-06,4200.0
VAT,2012-07-09,4000.0
VAT,2012-07-10,4000.0
VAT,2012-07-11,4000.0
VAT,2012-07-12,4000.0
VAT,2012-07-13,3800.0
VAT,2012-07-16,3800.0
VAT,2012-07-17,3900.0
VAT,2012-07-18,3900.0
VAT,2012-07-19,4000.0
VAT,2012-07-20,4000.0
VAT,2012-07-23,4000.0
VAT,2012-07-24,4000.0
VAT,2012-07-25,4000.0
VAT,2012-07-26,4100.0
VAT,2012-07-27,4200.0
VAT,2012-07-30,4200.0
VAT,2012-07-31,4200.0
VAT,2012-08-01,4200.0
VAT,2012-08-02,4200.0
VAT,2012-08-03,4200.0
VAT,2012-08-06,4400.0
VAT,2012-08-07,4400.0
VAT,2012-08-08,4600.0
VAT,2012-08-09,4900.0
VAT,2012-08-10,4900.0
VAT,2012-08-13,5200.0
VAT,2012-08-14,5400.0
VAT,2012-08-15,5700.0
VAT,2012-08-16,5400.0
VAT,2012-08-17,5400.0
VAT,2012-08-20,5400.0
VAT,2012-08-21,5400.0
VAT,2012-08-22,5400.0
VAT,2012-08-23,5700.0
VAT,2012-08-24,5700.0
VAT,2012-08-27,5700.0
VAT,2012-08-28,6000.0
VAT,2012-08-29,6000.0
VAT,2012-08-30,6000.0
VAT,2012-08-31,6400.0
VAT,2012-09-04,6400.0
VAT,2012-09-05,6400.0
VAT,2012-09-06,6800.0
VAT,2012-09-07,6800.0
VAT,2012-09-10,6800.0
VAT,2012-09-11,7100.0
VAT,2012-09-12,7100.0
VAT,2012-09-13,6700.0
VAT,2012-09-14,6700.0
VAT,2012-09-17,6300.0
VAT,2012-09-18,5900.0
VAT,2012-09-19,5500.0
VAT,2012-09-20,5200.0
VAT,2012-09-21,4900.0
VAT,2012-09-24,4600.0
VAT,2012-09-25,4500.0
VAT,2012-09-26,4500.0
VAT,2012-09-27,4700.0
VAT,2012-09-28,4700.0
VAT,2012-10-01,5000.0
VAT,2012-10-02,5000.0
VAT,2012-10-03,5000.0
VAT,2012-10-04,5000.0
VAT,2012-10-05,5000.0
VAT,2012-10-08,5000.0
VAT,2012-10-09,5000.0
VAT,2012-10-10,5000.0
VAT,2012-10-11,5000.0
VAT,2012-10-12,5000.0
VAT,2012-10-15,5000.0
VAT,2012-10-16,5000.0
VAT,2012-10-17,5000.0
VAT,2012-10-18,5000.0
VAT,2012-10-19,5000.0
VAT,2012-10-22,5000.0
VAT,2012-10-23,5000.0
VAT,2012-10-24,5000.0
VAT,2012-10-25,5000.0
VAT,2012-10-26,5000.0
VAT,2012-10-29,5300.0
VAT,2012-10-30,5300.0
VAT,2012-10-31,5300.0
VAT,2012-11-01,5300.0
VAT,2012-11-02,5300.0
VAT,2012-11-05,5300.0
VAT,2012-11-06,5300.0
VAT,2012-11-07,5300.0
VAT,2012-11-08,5300.0
VAT,2012-11-09,5300.0
VAT,2012-11-12,5300.0
VAT,2012-11-13,5300.0
VAT,2012-11-14,5300.0
VAT,2012-11-15,5300.0
VAT,2012-11-16,5300.0
VAT,2012-11-19,5300.0
VAT,2012-11-20,5300.0
VAT,2012-11-21,5300.0
VAT,2012-11-22,5300.0
VAT,2012-11-23,5300.0
VAT,2012-11-26,5300.0
VAT,2012-11-27,5300.0
VAT,2012-11-28,5300.0
VAT,2012-11-29,5300.0
VAT,2012-11-30,5300.0
VAT,2012-12-03,5300.0
VAT,2012-12-04,5300.0
VAT,2012-12-05,5300.0
VAT,2012-12-06,5300.0
VAT,2012-12-07,5300.0
VAT,2012-12-10,5600.0
VAT,2012-12-11,5900.0
VAT,2012-12-12,5900.0
VAT,2012-12-13,5900.0
VAT,2012-12-14,5900.0
VAT,2012-12-17,5900.0
VAT,2012-12-18,6300.0
VAT,2012-12-19,6700.0
VAT,2012-12-20,6700.0
VAT,2012-12-21,7100.0
VAT,2012-12-24,7100.0
VAT,2012-12-25,7100.0
VAT,2012-12-26,7100.0
VAT,2012-12-27,7100.0
VAT,2012-12-28,7100.0
VAT,2013-01-02,7100.0
VAT,2013-01-03,7500.0
VAT,2013-01-04,7500.0
VAT,2013-01-07,7000.0
VAT,2013-01-08,7000.0
VAT,2013-01-09,7000.0
VAT,2013-01-10,7000.0
VAT,2013-01-11,7000.0
VAT,2013-01-14,7000.0
VAT,2013-01-15,7000.0
VAT,2013-01-16,7000.0
VAT,2013-01-17,7000.0
VAT,2013-01-18,7000.0
VAT,2013-01-21,7000.0
VAT,2013-01-22,7000.0
VAT,2013-01-23,7000.0
VAT,2013-01-24,7000.0
VAT,2013-01-25,7000.0
VAT,2013-01-28,7000.0
VAT,2013-01-29,7000.0
VAT,2013-01-30,7000.0
VAT,2013-01-31,7000.0
VAT,2013-02-01,7700.0
VAT,2013-02-04,7700.0
VAT,2013-02-05,7700.0
VAT,2013-02-06,7700.0
VAT,2013-02-07,7700.0
VAT,2013-02-08,7000.0
VAT,2013-02-18,7000.0
VAT,2013-02-19,7000.0
VAT,2013-02-20,7000.0
VAT,2013-02-21,7000.0
VAT,2013-02-22,7000.0
VAT,2013-02-25,7000.0
VAT,2013-02-26,7000.0
VAT,2013-02-27,7000.0
VAT,2013-02-28,7000.0
VAT,2013-03-01,7000.0
VAT,2013-03-04,7000.0
VAT,2013-03-05,7000.0
VAT,2013-03-06,7000.0
VAT,2013-03-07,7000.0
VAT,2013-03-08,7000.0
VAT,2013-03-11,7000.0
VAT,2013-03-12,7000.0
VAT,2013-03-13,6300.0
VAT,2013-03-14,6300.0
VAT,2013-03-15,6300.0
VAT,2013-03-18,6300.0
VAT,2013-03-19,6300.0
VAT,2013-03-20,5700.0
VAT,2013-03-21,5700.0
VAT,2013-03-22,5700.0
VAT,2013-03-25,5200.0
VAT,2013-03-26,4700.0
VAT,2013-03-27,4300.0
VAT,2013-03-28,3900.0
VAT,2013-03-29,3600.0
VAT,2013-04-01,3300.0
VAT,2013-04-02,3500.0
VAT,2013-04-03,3600.0
VAT,2013-04-04,3500.0
VAT,2013-04-05,3200.0
VAT,2013-04-08,3200.0
VAT,2013-04-09,3200.0
VAT,2013-04-10,2900.0
VAT,2013-04-11,2900.0
VAT,2013-04-12,2900.0
VAT,2013-04-15,2900.0
VAT,2013-04-16,2900.0
VAT,2013-04-17,2800.0
VAT,2013-04-18,2800.0
VAT,2013-04-22,3000.0
VAT,2013-04-23,3000.0
VAT,2013-04-24,3200.0
VAT,2013-04-25,3200.0
VAT,2013-04-26,3200.0
VAT,2013-05-02,3200.0
VAT,2013-05-03,3200.0
VAT,2013-05-06,3200.0
VAT,2013-05-07,3100.0
VAT,2013-05-08,3100.0
VAT,2013-05-09,3100.0
VAT,2013-05-10,3100.0
VAT,2013-05-13,2800.0
VAT,2013-05-14,3000.0
VAT,2013-05-15,3000.0
VAT,2013-05-16,3000.0
VAT,2013-05-17,2700.0
VAT,2013-05-20,2700.0
VAT,2013-05-21,2500.0
VAT,2013-05-22,2500.0
VAT,2013-05-23,2600.0
VAT,2013-05-24,2800.0
VAT,2013-05-27,3000.0
VAT,2013-05-28,3300.0
VAT,2013-05-29,3600.0
VAT,2013-05-30,3900.0
VAT,2013-05-31,4100.0
VAT,2013-06-03,4400.0
VAT,2013-06-04,4800.0
VAT,2013-06-05,4800.0
VAT,2013-06-06,5100.0
VAT,2013-06-07,5100.0
VAT,2013-06-10,5100.0
VAT,2013-06-11,5100.0
VAT,2013-06-12,5100.0
VAT,2013-06-13,5100.0
VAT,2013-06-14,5100.0
VAT,2013-06-17,5100.0
VAT,2013-06-18,5100.0
VAT,2013-06-19,5100.0
VAT,2013-06-20,5100.0
VAT,2013-06-21,5100.0
VAT,2013-06-24,5100.0
VAT,2013-06-25,5100.0
VAT,2013-06-26,5100.0
VAT,2013-06-27,5100.0
VAT,2013-06-28,5100.0
VAT,2013-07-01,5100.0
VAT,2013-07-02,5100.0
VAT,2013-07-03,5600.0
VAT,2013-07-04,5600.0
VAT,2013-07-05,5600.0
VAT,2013-07-08,5600.0
VAT,2013-07-09,5600.0
VAT,2013-07-10,5600.0
VAT,2013-07-11,5600.0
VAT,2013-07-12,5600.0
VAT,2013-07-15,5600.0
VAT,2013-07-16,5600.0
VAT,2013-07-17,5600.0
VAT,2013-07-18,5600.0
VAT,2013-07-19,5100.0
VAT,2013-07-22,5100.0
VAT,2013-07-23,5100.0
VAT,2013-07-24,5100.0
VAT,2013-07-25,5100.0
VAT,2013-07-26,4600.0
VAT,2013-07-29,4600.0
VAT,2013-07-30,4600.0
VAT,2013-07-31,4600.0
VAT,2013-08-01,4600.0
VAT,2013-08-02,4600.0
VAT,2013-08-05,4600.0
VAT,2013-08-06,4600.0
VAT,2013-08-07,4600.0
VAT,2013-08-08,4600.0
VAT,2013-08-09,4600.0
VAT,2013-08-12,4600.0
VAT,2013-08-13,4600.0
VAT,2013-08-14,4600.0
VAT,2013-08-15,4600.0
VAT,2013-08-16,4600.0
VAT,2013-08-19,5000.0
VAT,2013-08-20,5000.0
VAT,2013-08-21,5000.0
VAT,2013-08-22,5000.0
VAT,2013-08-23,5000.0
VAT,2013-08-26,5000.0
VAT,2013-08-27,5000.0
VAT,2013-08-28,5000.0
VAT,2013-08-29,5000.0
VAT,2013-08-30,5000.0
VAT,2013-09-03,5000.0
VAT,2013-09-04,5000.0
VAT,2013-09-05,5000.0
VAT,2013-09-06,5000.0
VAT,2013-09-09,5000.0
VAT,2013-09-10,5000.0
VAT,2013-09-11,5000.0
VAT,2013-09-12,5000.0
VAT,2013-09-13,5000.0
VAT,2013-09-16,5000.0
VAT,2013-09-17,5000.0
VAT,2013-09-18,5000.0
VAT,2013-09-19,5000.0
VAT,2013-09-20,5000.0
VAT,2013-09-23,5000.0
VAT,2013-09-24,4500.0
VAT,2013-09-25,4500.0
VAT,2013-09-26,4500.0
VAT,2013-09-27,4500.0
VAT,2013-09-30,4500.0
VAT,2013-10-01,4800.0
VAT,2013-10-02,4800.0
VAT,2013-10-03,4800.0
VAT,2013-10-04,4400.0
VAT,2013-10-07,4400.0
VAT,2013-10-08,4400.0
VAT,2013-10-09,4000.0
VAT,2013-10-10,4000.0
VAT,2013-10-11,4000.0
VAT,2013-10-14,4000.0
VAT,2013-10-15,4000.0
VAT,2013-10-16,4000.0
VAT,2013-10-17,4000.0
VAT,2013-10-18,4400.0
VAT,2013-10-21,4400.0
VAT,2013-10-22,4400.0
VAT,2013-10-23,4000.0
VAT,2013-10-24,4200.0
VAT,2013-10-25,3800.0
VAT,2013-10-28,3800.0
VAT,2013-10-29,3800.0
VAT,2013-10-30,3800.0
VAT,2013-10-31,3800.0
VAT,2013-11-01,3500.0
VAT,2013-11-04,3800.0
VAT,2013-11-05,3500.0
VAT,2013-11-06,3500.0
VAT,2013-11-07,3200.0
VAT,2013-11-08,2900.0
VAT,2013-11-11,2700.0
VAT,2013-11-12,2800.0
VAT,2013-11-13,2700.0
VAT,2013-11-14,2900.0
VAT,2013-11-15,3000.0
VAT,2013-11-18,3300.0
VAT,2013-11-19,3500.0
VAT,2013-11-20,3300.0
VAT,2013-11-21,3100.0
VAT,2013-11-22,3100.0
VAT,2013-11-25,3200.0
VAT,2013-11-26,3200.0
VAT,2013-11-27,3200.0
VAT,2013-11-28,3400.0
VAT,2013-11-29,3500.0
VAT,2013-12-02,3200.0
VAT,2013-12-03,3200.0
VAT,2013-12-04,3100.0
VAT,2013-12-05,3200.0
VAT,2013-12-06,3200.0
VAT,2013-12-09,3200.0
VAT,2013-12-10,3200.0
VAT,2013-12-11,3000.0
VAT,2013-12-12,3000.0
VAT,2013-12-13,3200.0
VAT,2013-12-16,3200.0
VAT,2013-12-17,3500.0
VAT,2013-12-18,3800.0
VAT,2013-12-19,4100.0
VAT,2013-12-20,4000.0
VAT,2013-12-23,4000.0
VAT,2013-12-24,4000.0
VAT,2013-12-25,4000.0
VAT,2013-12-26,4000.0
VAT,2013-12-27,4100.0
VAT,2013-12-30,4100.0
VAT,2013-12-31,4500.0
VAT,2014-01-02,4400.0
VAT,2014-01-03,4400.0
VAT,2014-01-06,4400.0
VAT,2014-01-07,4300.0
VAT,2014-01-08,4200.0
VAT,2014-01-09,4200.0
VAT,2014-01-10,4500.0
VAT,2014-01-13,4200.0
VAT,2014-01-14,4200.0
VAT,2014-01-15,4500.0
VAT,2014-01-16,4900.0
VAT,2014-01-17,4500.0
VAT,2014-01-20,4200.0
VAT,2014-01-21,4300.0
VAT,2014-01-22,4000.0
VAT,2014-01-23,4200.0
VAT,2014-01-24,4600.0
VAT,2014-01-27,4900.0
VAT,2014-02-06,5200.0
VAT,2014-02-07,5200.0
VAT,2014-02-10,5200.0
VAT,2014-02-11,5100.0
VAT,2014-02-12,5200.0
VAT,2014-02-13,4900.0
VAT,2014-02-14,4500.0
VAT,2014-02-17,4400.0
VAT,2014-02-18,4100.0
VAT,2014-02-19,4100.0
VAT,2014-02-20,4500.0
VAT,2014-02-21,4500.0
VAT,2014-02-24,4600.0
VAT,2014-02-25,4600.0
VAT,2014-02-26,4500.0
VAT,2014-02-27,4500.0
VAT,2014-02-28,4600.0
VAT,2014-03-03,4400.0
VAT,2014-03-04,4600.0
VAT,2014-03-05,4800.0
VAT,2014-03-06,4800.0
VAT,2014-03-07,4800.0
VAT,2014-03-10,4800.0
VAT,2014-03-11,4400.0
VAT,2014-03-12,4400.0
VAT,2014-03-13,4800.0
VAT,2014-03-14,5200.0
VAT,2014-03-17,5600.0
VAT,2014-03-18,5900.0
VAT,2014-03-19,5400.0
VAT,2014-03-20,5600.0
VAT,2014-03-21,5700.0
VAT,2014-03-24,6000.0
VAT,2014-03-25,6400.0
VAT,2014-03-26,6200.0
VAT,2014-03-27,5800.0
VAT,2014-03-28,5900.0
VAT,2014-03-31,6000.0
VAT,2014-04-01,6000.0
VAT,2014-04-02,5500.0
VAT,2014-04-03,5900.0
VAT,2014-04-04,6200.0
VAT,2014-04-07,6400.0
VAT,2014-04-08,6400.0
VAT,2014-04-10,5800.0
VAT,2014-04-11,6100.0
VAT,2014-04-14,5600.0
VAT,2014-04-15,6000.0
VAT,2014-04-16,5500.0
VAT,2014-04-17,5400.0
VAT,2014-04-18,5400.0
VAT,2014-04-21,4900.0
VAT,2014-04-22,5200.0
VAT,2014-04-23,5200.0
VAT,2014-04-24,5700.0
VAT,2014-04-25,5700.0
VAT,2014-04-28,5700.0
VAT,2014-04-29,6000.0
VAT,2014-05-05,6500.0
VAT,2014-05-06,6500.0
VAT,2014-05-07,6500.0
VAT,2014-05-08,6500.0
VAT,2014-05-09,6500.0
VAT,2014-05-12,6500.0
VAT,2014-05-13,6500.0
VAT,2014-05-14,6500.0
VAT,2014-05-15,6500.0
VAT,2014-05-16,7000.0
VAT,2014-05-19,7000.0
VAT,2014-05-20,7000.0
VAT,2014-05-21,7000.0
