VC9,2009-11-05,26900.0
VC9,2009-11-06,24700.0
VC9,2009-11-09,24500.0
VC9,2009-11-10,23000.0
VC9,2009-11-11,21400.0
VC9,2009-11-12,21500.0
VC9,2009-11-13,21500.0
VC9,2009-11-16,21100.0
VC9,2009-11-17,21100.0
VC9,2009-11-18,21400.0
VC9,2009-11-19,22600.0
VC9,2009-11-20,22500.0
VC9,2009-11-23,21000.0
VC9,2009-11-24,20600.0
VC9,2009-11-25,19200.0
VC9,2009-11-26,17800.0
VC9,2009-11-27,17900.0
VC9,2009-11-30,18500.0
VC9,2009-12-01,18700.0
VC9,2009-12-02,17400.0
VC9,2009-12-03,17900.0
VC9,2009-12-04,17900.0
VC9,2009-12-07,17900.0
VC9,2009-12-08,17700.0
VC9,2009-12-09,17700.0
VC9,2009-12-10,16600.0
VC9,2009-12-11,15800.0
VC9,2009-12-14,16100.0
VC9,2009-12-15,15700.0
VC9,2009-12-16,14800.0
VC9,2009-12-17,15500.0
VC9,2009-12-18,15700.0
VC9,2009-12-21,16800.0
VC9,2009-12-22,16100.0
VC9,2009-12-23,16100.0
VC9,2009-12-24,16600.0
VC9,2009-12-25,17200.0
VC9,2009-12-28,18200.0
VC9,2009-12-29,17100.0
VC9,2009-12-30,16900.0
VC9,2009-12-31,16900.0
VC9,2010-01-04,18300.0
VC9,2010-01-05,19500.0
VC9,2010-01-06,18500.0
VC9,2010-01-07,19400.0
VC9,2010-01-08,19000.0
VC9,2010-01-11,18100.0
VC9,2010-01-12,17300.0
VC9,2010-01-13,18000.0
VC9,2010-01-14,17900.0
VC9,2010-01-15,17100.0
VC9,2010-01-18,17400.0
VC9,2010-01-19,16100.0
VC9,2010-01-20,16300.0
VC9,2010-01-21,15500.0
VC9,2010-01-22,15500.0
VC9,2010-01-25,16100.0
VC9,2010-01-26,17100.0
VC9,2010-01-27,15500.0
VC9,2010-01-28,16200.0
VC9,2010-01-29,15300.0
VC9,2010-02-01,15800.0
VC9,2010-02-02,16100.0
VC9,2010-02-03,16100.0
VC9,2010-02-04,16500.0
VC9,2010-02-05,15400.0
VC9,2010-02-08,14500.0
VC9,2010-02-09,15000.0
VC9,2010-02-10,16500.0
VC9,2010-02-11,16900.0
VC9,2010-02-12,16300.0
VC9,2010-02-22,16300.0
VC9,2010-02-23,15500.0
VC9,2010-02-24,15700.0
VC9,2010-02-25,15000.0
VC9,2010-02-26,15000.0
VC9,2010-03-01,15400.0
VC9,2010-03-02,15200.0
VC9,2010-03-03,16000.0
VC9,2010-03-04,16800.0
VC9,2010-03-05,18200.0
VC9,2010-03-08,19000.0
VC9,2010-03-09,18300.0
VC9,2010-03-10,17500.0
VC9,2010-03-11,18100.0
VC9,2010-03-12,18100.0
VC9,2010-03-15,18400.0
VC9,2010-03-16,18500.0
VC9,2010-03-17,18100.0
VC9,2010-03-18,18900.0
VC9,2010-03-19,18800.0
VC9,2010-03-22,19100.0
VC9,2010-03-23,18500.0
VC9,2010-03-24,19600.0
VC9,2010-03-25,20900.0
VC9,2010-03-26,21300.0
VC9,2010-03-29,21800.0
VC9,2010-03-30,21400.0
VC9,2010-03-31,20200.0
VC9,2010-04-01,20500.0
VC9,2010-04-02,21200.0
VC9,2010-04-05,22500.0
VC9,2010-04-06,22200.0
VC9,2010-04-07,24200.0
VC9,2010-04-08,24000.0
VC9,2010-04-09,23000.0
VC9,2010-04-12,23000.0
VC9,2010-04-13,22900.0
VC9,2010-04-14,23000.0
VC9,2010-04-15,23700.0
VC9,2010-04-16,23500.0
VC9,2010-04-19,22700.0
VC9,2010-04-20,22600.0
VC9,2010-04-21,23900.0
VC9,2010-04-22,22700.0
VC9,2010-04-26,21900.0
VC9,2010-04-27,21900.0
VC9,2010-04-28,23000.0
VC9,2010-04-29,23600.0
VC9,2010-05-04,25000.0
VC9,2010-05-05,25800.0
VC9,2010-05-06,27400.0
VC9,2010-05-07,25300.0
VC9,2010-05-10,24100.0
VC9,2010-05-11,23000.0
VC9,2010-05-12,21700.0
VC9,2010-05-13,21600.0
VC9,2010-05-14,22700.0
VC9,2010-05-17,21800.0
VC9,2010-05-18,21600.0
VC9,2010-05-19,20300.0
VC9,2010-05-20,20500.0
VC9,2010-05-21,18700.0
VC9,2010-05-24,19400.0
VC9,2010-05-25,18900.0
VC9,2010-05-26,20000.0
VC9,2010-05-27,20200.0
VC9,2010-05-28,21300.0
VC9,2010-05-31,20800.0
VC9,2010-06-01,20800.0
VC9,2010-06-02,21000.0
VC9,2010-06-03,20800.0
VC9,2010-06-04,20900.0
VC9,2010-06-07,19400.0
VC9,2010-06-08,19600.0
VC9,2010-06-09,19700.0
VC9,2010-06-10,19300.0
VC9,2010-06-11,19600.0
VC9,2010-06-14,20200.0
VC9,2010-06-15,20200.0
VC9,2010-06-16,20700.0
VC9,2010-06-17,20300.0
VC9,2010-06-18,20500.0
VC9,2010-06-21,20900.0
VC9,2010-06-22,20800.0
VC9,2010-06-23,20900.0
VC9,2010-06-24,21000.0
VC9,2010-06-25,20200.0
VC9,2010-06-28,20500.0
VC9,2010-06-29,20300.0
VC9,2010-06-30,19600.0
VC9,2010-07-01,20200.0
VC9,2010-07-02,20000.0
VC9,2010-07-05,20000.0
VC9,2010-07-06,19600.0
VC9,2010-07-07,19400.0
VC9,2010-07-08,19400.0
VC9,2010-07-09,19900.0
VC9,2010-07-12,19900.0
VC9,2010-07-13,20500.0
VC9,2010-07-14,20400.0
VC9,2010-07-15,20500.0
VC9,2010-07-16,20400.0
VC9,2010-07-19,20500.0
VC9,2010-07-20,20400.0
VC9,2010-07-21,20400.0
VC9,2010-07-22,20200.0
VC9,2010-07-23,19900.0
VC9,2010-07-26,19700.0
VC9,2010-07-27,19500.0
VC9,2010-07-28,19200.0
VC9,2010-07-29,19100.0
VC9,2010-07-30,19300.0
VC9,2010-08-02,19300.0
VC9,2010-08-03,19300.0
VC9,2010-08-04,19300.0
VC9,2010-08-05,19000.0
VC9,2010-08-06,19300.0
VC9,2010-08-09,18700.0
VC9,2010-08-10,18000.0
VC9,2010-08-11,18200.0
VC9,2010-08-12,16600.0
VC9,2010-08-13,17900.0
VC9,2010-08-16,18700.0
VC9,2010-08-17,18100.0
VC9,2010-08-18,17700.0
VC9,2010-08-19,18000.0
VC9,2010-08-20,17800.0
VC9,2010-08-23,18500.0
VC9,2010-08-24,17200.0
VC9,2010-08-25,16000.0
VC9,2010-08-26,15900.0
VC9,2010-08-27,15500.0
VC9,2010-08-30,16600.0
VC9,2010-08-31,16800.0
VC9,2010-09-01,17000.0
VC9,2010-09-06,17300.0
VC9,2010-09-07,17200.0
VC9,2010-09-08,16400.0
VC9,2010-09-09,16300.0
VC9,2010-09-10,15700.0
VC9,2010-09-13,15800.0
VC9,2010-09-14,16100.0
VC9,2010-09-15,15700.0
VC9,2010-09-16,15900.0
VC9,2010-09-17,16300.0
VC9,2010-09-20,16600.0
VC9,2010-09-21,16000.0
VC9,2010-09-22,16700.0
VC9,2010-09-23,16000.0
VC9,2010-09-24,15700.0
VC9,2010-09-27,15700.0
VC9,2010-09-28,16100.0
VC9,2010-09-29,15800.0
VC9,2010-09-30,16200.0
VC9,2010-10-01,16000.0
VC9,2010-10-04,15000.0
VC9,2010-10-05,15300.0
VC9,2010-10-06,16000.0
VC9,2010-10-07,15300.0
VC9,2010-10-08,15200.0
VC9,2010-10-11,14900.0
VC9,2010-10-12,14500.0
VC9,2010-10-13,14100.0
VC9,2010-10-14,14100.0
VC9,2010-10-15,14100.0
VC9,2010-10-18,14000.0
VC9,2010-10-19,13500.0
VC9,2010-10-20,12600.0
VC9,2010-10-21,12900.0
VC9,2010-10-22,12800.0
VC9,2010-10-25,12600.0
VC9,2010-10-26,12900.0
VC9,2010-10-27,12000.0
VC9,2010-10-28,12800.0
VC9,2010-10-29,12900.0
VC9,2010-11-01,12300.0
VC9,2010-11-02,11600.0
VC9,2010-11-03,11300.0
VC9,2010-11-04,11400.0
VC9,2010-11-05,11700.0
VC9,2010-11-08,11300.0
VC9,2010-11-09,10800.0
VC9,2010-11-10,10700.0
VC9,2010-11-11,9900.0
VC9,2010-11-12,9600.0
VC9,2010-11-15,9100.0
VC9,2010-11-16,9100.0
VC9,2010-11-17,9500.0
VC9,2010-11-18,9800.0
VC9,2010-11-19,9500.0
VC9,2010-11-22,9400.0
VC9,2010-11-23,9700.0
VC9,2010-11-24,9600.0
VC9,2010-11-25,9900.0
VC9,2010-11-26,10000.0
VC9,2010-11-29,10400.0
VC9,2010-11-30,10900.0
VC9,2010-12-01,10700.0
VC9,2010-12-02,11200.0
VC9,2010-12-03,11700.0
VC9,2010-12-06,11900.0
VC9,2010-12-07,11300.0
VC9,2010-12-08,10800.0
VC9,2010-12-09,11200.0
VC9,2010-12-10,11800.0
VC9,2010-12-13,12100.0
VC9,2010-12-14,11200.0
VC9,2010-12-15,11200.0
VC9,2010-12-16,10600.0
VC9,2010-12-17,11200.0
VC9,2010-12-20,11800.0
VC9,2010-12-21,12600.0
VC9,2010-12-22,13100.0
VC9,2010-12-23,12500.0
VC9,2010-12-24,12200.0
VC9,2010-12-27,12100.0
VC9,2010-12-28,12600.0
VC9,2010-12-29,12300.0
VC9,2010-12-30,12300.0
VC9,2010-12-31,12800.0
VC9,2011-01-04,12500.0
VC9,2011-01-05,12500.0
VC9,2011-01-06,12200.0
VC9,2011-01-07,11900.0
VC9,2011-01-10,11500.0
VC9,2011-01-11,11300.0
VC9,2011-01-12,11100.0
VC9,2011-01-13,11700.0
VC9,2011-01-14,11700.0
VC9,2011-01-17,12000.0
VC9,2011-01-18,11200.0
VC9,2011-01-19,11600.0
VC9,2011-01-20,11100.0
VC9,2011-01-21,11400.0
VC9,2011-01-24,11300.0
VC9,2011-01-25,10700.0
VC9,2011-01-26,10800.0
VC9,2011-01-27,11400.0
VC9,2011-01-28,11200.0
VC9,2011-02-08,11500.0
VC9,2011-02-09,11100.0
VC9,2011-02-10,10900.0
VC9,2011-02-11,10600.0
VC9,2011-02-14,10900.0
VC9,2011-02-15,10600.0
VC9,2011-02-16,10900.0
VC9,2011-02-17,10300.0
VC9,2011-02-18,10600.0
VC9,2011-02-21,9700.0
VC9,2011-02-22,9200.0
VC9,2011-02-23,9400.0
VC9,2011-02-24,9100.0
VC9,2011-02-25,9400.0
VC9,2011-02-28,9200.0
VC9,2011-03-01,9000.0
VC9,2011-03-02,8800.0
VC9,2011-03-03,8600.0
VC9,2011-03-04,8400.0
VC9,2011-03-07,8800.0
VC9,2011-03-08,8600.0
VC9,2011-03-09,8200.0
VC9,2011-03-10,8800.0
VC9,2011-03-11,9000.0
VC9,2011-03-14,8600.0
VC9,2011-03-15,8000.0
VC9,2011-03-16,8500.0
VC9,2011-03-17,8500.0
VC9,2011-03-18,8900.0
VC9,2011-03-21,9200.0
VC9,2011-03-22,9000.0
VC9,2011-03-23,9000.0
VC9,2011-03-24,9000.0
VC9,2011-03-25,8800.0
VC9,2011-03-28,8400.0
VC9,2011-03-29,8400.0
VC9,2011-03-30,8600.0
VC9,2011-03-31,8600.0
VC9,2011-04-01,8500.0
VC9,2011-04-04,8500.0
VC9,2011-04-05,8700.0
VC9,2011-04-06,9000.0
VC9,2011-04-07,9000.0
VC9,2011-04-08,8700.0
VC9,2011-04-13,9000.0
VC9,2011-04-14,8700.0
VC9,2011-04-15,8300.0
VC9,2011-04-18,8400.0
VC9,2011-04-19,8400.0
VC9,2011-04-20,8400.0
VC9,2011-04-21,8400.0
VC9,2011-04-22,7800.0
VC9,2011-04-25,8200.0
VC9,2011-04-26,8000.0
VC9,2011-04-27,8800.0
VC9,2011-04-28,8300.0
VC9,2011-04-29,7900.0
VC9,2011-05-04,7500.0
VC9,2011-05-05,7400.0
VC9,2011-05-06,7600.0
VC9,2011-05-09,7700.0
VC9,2011-05-10,8000.0
VC9,2011-05-11,7900.0
VC9,2011-05-12,7400.0
VC9,2011-05-13,7800.0
VC9,2011-05-16,8000.0
VC9,2011-05-17,7900.0
VC9,2011-05-18,7800.0
VC9,2011-05-19,7900.0
VC9,2011-05-20,7900.0
VC9,2011-05-23,7900.0
VC9,2011-05-24,7600.0
VC9,2011-05-25,6800.0
VC9,2011-05-26,6900.0
VC9,2011-05-27,7200.0
VC9,2011-05-30,6800.0
VC9,2011-05-31,6900.0
VC9,2011-06-01,7100.0
VC9,2011-06-02,7400.0
VC9,2011-06-03,7400.0
VC9,2011-06-06,7000.0
VC9,2011-06-07,7400.0
VC9,2011-06-08,7400.0
VC9,2011-06-09,7200.0
VC9,2011-06-10,7800.0
VC9,2011-06-13,7600.0
VC9,2011-06-14,7300.0
VC9,2011-06-15,7000.0
VC9,2011-06-16,7100.0
VC9,2011-06-17,7000.0
VC9,2011-06-20,7200.0
VC9,2011-06-21,7400.0
VC9,2011-06-22,7300.0
VC9,2011-06-23,7400.0
VC9,2011-06-24,7100.0
VC9,2011-06-27,7300.0
VC9,2011-06-28,7200.0
VC9,2011-06-29,7100.0
VC9,2011-06-30,6700.0
VC9,2011-07-01,6400.0
VC9,2011-07-04,7100.0
VC9,2011-07-05,6900.0
VC9,2011-07-06,7100.0
VC9,2011-07-07,7100.0
VC9,2011-07-08,6800.0
VC9,2011-07-11,6900.0
VC9,2011-07-12,6600.0
VC9,2011-07-13,6600.0
VC9,2011-07-14,6600.0
VC9,2011-07-15,6100.0
VC9,2011-07-18,6000.0
VC9,2011-07-19,6600.0
VC9,2011-07-20,6600.0
VC9,2011-07-21,6700.0
VC9,2011-07-22,6300.0
VC9,2011-07-25,6200.0
VC9,2011-07-26,6100.0
VC9,2011-07-27,6600.0
VC9,2011-07-28,6600.0
VC9,2011-07-29,6800.0
VC9,2011-08-01,6800.0
VC9,2011-08-02,6400.0
VC9,2011-08-03,6000.0
VC9,2011-08-04,6300.0
VC9,2011-08-05,6300.0
VC9,2011-08-08,6000.0
VC9,2011-08-09,6300.0
VC9,2011-08-10,6000.0
VC9,2011-08-11,5700.0
VC9,2011-08-12,5800.0
VC9,2011-08-15,6000.0
VC9,2011-08-16,6000.0
VC9,2011-08-17,6200.0
VC9,2011-08-18,6300.0
VC9,2011-08-19,6000.0
VC9,2011-08-22,6500.0
VC9,2011-08-23,6200.0
VC9,2011-08-24,6600.0
VC9,2011-08-25,6800.0
VC9,2011-08-26,6600.0
VC9,2011-08-29,6700.0
VC9,2011-08-30,6600.0
VC9,2011-08-31,6600.0
VC9,2011-09-01,6600.0
VC9,2011-09-05,6600.0
VC9,2011-09-06,6600.0
VC9,2011-09-07,6700.0
VC9,2011-09-08,6600.0
VC9,2011-09-09,6500.0
VC9,2011-09-12,6900.0
VC9,2011-09-13,7400.0
VC9,2011-09-14,7100.0
VC9,2011-09-15,6900.0
VC9,2011-09-16,6500.0
VC9,2011-09-19,6400.0
VC9,2011-09-20,6400.0
VC9,2011-09-21,6600.0
VC9,2011-09-22,6600.0
VC9,2011-09-23,6500.0
VC9,2011-09-26,6400.0
VC9,2011-09-27,6500.0
VC9,2011-09-28,6400.0
VC9,2011-09-29,6000.0
VC9,2011-09-30,6200.0
VC9,2011-10-03,5800.0
VC9,2011-10-04,5800.0
VC9,2011-10-05,5800.0
VC9,2011-10-06,6000.0
VC9,2011-10-07,5800.0
VC9,2011-10-10,5700.0
VC9,2011-10-11,5800.0
VC9,2011-10-12,5800.0
VC9,2011-10-13,6000.0
VC9,2011-10-14,5900.0
VC9,2011-10-17,5900.0
VC9,2011-10-18,5800.0
VC9,2011-10-19,5800.0
VC9,2011-10-20,6100.0
VC9,2011-10-21,6200.0
VC9,2011-10-24,6100.0
VC9,2011-10-25,5800.0
VC9,2011-10-26,5500.0
VC9,2011-10-27,5800.0
VC9,2011-10-28,5800.0
VC9,2011-10-31,5800.0
VC9,2011-11-01,6200.0
VC9,2011-11-02,5900.0
VC9,2011-11-03,5900.0
VC9,2011-11-04,6000.0
VC9,2011-11-07,5900.0
VC9,2011-11-08,5800.0
VC9,2011-11-09,6000.0
VC9,2011-11-10,5800.0
VC9,2011-11-11,6000.0
VC9,2011-11-14,5700.0
VC9,2011-11-15,6100.0
VC9,2011-11-16,6200.0
VC9,2011-11-17,6100.0
VC9,2011-11-18,5700.0
VC9,2011-11-21,5700.0
VC9,2011-11-22,5800.0
VC9,2011-11-23,5900.0
VC9,2011-11-24,5600.0
VC9,2011-11-25,5700.0
VC9,2011-11-28,5800.0
VC9,2011-11-29,5500.0
VC9,2011-11-30,5700.0
VC9,2011-12-01,5700.0
VC9,2011-12-02,5500.0
VC9,2011-12-05,5800.0
VC9,2011-12-06,5800.0
VC9,2011-12-07,5800.0
VC9,2011-12-08,5500.0
VC9,2011-12-09,5300.0
VC9,2011-12-12,5500.0
VC9,2011-12-13,5200.0
VC9,2011-12-14,5500.0
VC9,2011-12-15,5500.0
VC9,2011-12-16,5700.0
VC9,2011-12-19,5700.0
VC9,2011-12-20,5300.0
VC9,2011-12-21,5300.0
VC9,2011-12-22,5000.0
VC9,2011-12-23,5000.0
VC9,2011-12-26,5000.0
VC9,2011-12-27,4600.0
VC9,2011-12-28,4800.0
VC9,2011-12-29,4600.0
VC9,2011-12-30,4800.0
VC9,2012-01-03,4600.0
VC9,2012-01-04,4300.0
VC9,2012-01-05,4100.0
VC9,2012-01-06,4100.0
VC9,2012-01-09,4200.0
VC9,2012-01-10,4400.0
VC9,2012-01-11,4300.0
VC9,2012-01-12,4100.0
VC9,2012-01-13,4300.0
VC9,2012-01-16,4200.0
VC9,2012-01-17,4400.0
VC9,2012-01-18,4200.0
VC9,2012-01-19,4600.0
VC9,2012-01-20,4600.0
VC9,2012-01-30,4600.0
VC9,2012-01-31,4900.0
VC9,2012-02-01,5000.0
VC9,2012-02-02,5200.0
VC9,2012-02-03,4800.0
VC9,2012-02-06,4800.0
VC9,2012-02-07,5200.0
VC9,2012-02-08,5400.0
VC9,2012-02-09,5200.0
VC9,2012-02-10,4800.0
VC9,2012-02-13,4800.0
VC9,2012-02-14,5100.0
VC9,2012-02-15,4800.0
VC9,2012-02-16,5000.0
VC9,2012-02-17,4900.0
VC9,2012-02-20,5200.0
VC9,2012-02-21,5400.0
VC9,2012-02-22,5300.0
VC9,2012-02-23,5600.0
VC9,2012-02-24,5600.0
VC9,2012-02-27,5800.0
VC9,2012-02-28,5500.0
VC9,2012-02-29,5700.0
VC9,2012-03-01,5400.0
VC9,2012-03-02,5200.0
VC9,2012-03-05,5700.0
VC9,2012-03-06,5500.0
VC9,2012-03-07,5800.0
VC9,2012-03-08,5400.0
VC9,2012-03-09,5200.0
VC9,2012-03-12,5200.0
VC9,2012-03-13,5200.0
VC9,2012-03-14,5100.0
VC9,2012-03-15,5500.0
VC9,2012-03-16,5700.0
VC9,2012-03-19,6100.0
VC9,2012-03-20,6300.0
VC9,2012-03-21,6800.0
VC9,2012-03-22,6700.0
VC9,2012-03-23,6800.0
VC9,2012-03-26,6800.0
VC9,2012-03-27,6500.0
VC9,2012-03-28,6600.0
VC9,2012-03-29,6400.0
VC9,2012-03-30,6100.0
VC9,2012-04-03,5800.0
VC9,2012-04-04,6100.0
VC9,2012-04-05,6200.0
VC9,2012-04-06,6500.0
VC9,2012-04-09,6600.0
VC9,2012-04-10,6500.0
VC9,2012-04-11,6500.0
VC9,2012-04-12,6800.0
VC9,2012-04-13,6900.0
VC9,2012-04-16,7300.0
VC9,2012-04-17,7500.0
VC9,2012-04-18,7500.0
VC9,2012-04-19,7200.0
VC9,2012-04-20,6800.0
VC9,2012-04-23,6400.0
VC9,2012-04-24,6700.0
VC9,2012-04-25,6900.0
VC9,2012-04-26,6800.0
VC9,2012-04-27,6900.0
VC9,2012-05-02,7000.0
VC9,2012-05-03,6800.0
VC9,2012-05-04,6900.0
VC9,2012-05-07,7300.0
VC9,2012-05-08,7200.0
VC9,2012-05-09,7300.0
VC9,2012-05-10,7000.0
VC9,2012-05-11,6800.0
VC9,2012-05-14,6800.0
VC9,2012-05-15,6600.0
VC9,2012-05-16,6600.0
VC9,2012-05-17,6700.0
VC9,2012-05-18,6800.0
VC9,2012-05-21,6900.0
VC9,2012-05-22,6800.0
VC9,2012-05-23,6400.0
VC9,2012-05-24,6000.0
VC9,2012-05-25,6300.0
VC9,2012-05-28,6500.0
VC9,2012-05-29,6600.0
VC9,2012-05-30,6500.0
VC9,2012-05-31,6100.0
VC9,2012-06-01,6300.0
VC9,2012-06-04,5900.0
VC9,2012-06-05,6100.0
VC9,2012-06-06,6200.0
VC9,2012-06-07,6300.0
VC9,2012-06-08,6500.0
VC9,2012-06-11,6800.0
VC9,2012-06-12,6400.0
VC9,2012-06-13,6300.0
VC9,2012-06-14,6300.0
VC9,2012-06-15,6500.0
VC9,2012-06-18,6100.0
VC9,2012-06-19,5900.0
VC9,2012-06-20,6200.0
VC9,2012-06-21,6200.0
VC9,2012-06-22,6200.0
VC9,2012-06-25,6200.0
VC9,2012-06-26,5900.0
VC9,2012-06-27,5900.0
VC9,2012-06-28,6100.0
VC9,2012-06-29,6400.0
VC9,2012-07-02,6400.0
VC9,2012-07-03,6400.0
VC9,2012-07-04,6200.0
VC9,2012-07-05,6200.0
VC9,2012-07-06,5800.0
VC9,2012-07-09,5700.0
VC9,2012-07-10,6000.0
VC9,2012-07-11,5900.0
VC9,2012-07-12,6200.0
VC9,2012-07-13,5900.0
VC9,2012-07-16,5900.0
VC9,2012-07-17,6200.0
VC9,2012-07-18,6500.0
VC9,2012-07-19,6600.0
VC9,2012-07-20,6600.0
VC9,2012-07-23,6500.0
VC9,2012-07-24,6400.0
VC9,2012-07-25,6000.0
VC9,2012-07-26,6300.0
VC9,2012-07-27,6300.0
VC9,2012-07-30,6400.0
VC9,2012-07-31,6300.0
VC9,2012-08-01,6200.0
VC9,2012-08-02,6300.0
VC9,2012-08-03,6400.0
VC9,2012-08-06,6600.0
VC9,2012-08-07,6400.0
VC9,2012-08-08,6300.0
VC9,2012-08-09,6300.0
VC9,2012-08-10,6300.0
VC9,2012-08-13,5900.0
VC9,2012-08-14,6000.0
VC9,2012-08-15,6000.0
VC9,2012-08-16,6100.0
VC9,2012-08-17,6000.0
VC9,2012-08-20,6100.0
VC9,2012-08-21,5700.0
VC9,2012-08-22,5700.0
VC9,2012-08-23,5400.0
VC9,2012-08-24,5700.0
VC9,2012-08-27,5400.0
VC9,2012-08-28,5300.0
VC9,2012-08-29,5300.0
VC9,2012-08-30,5600.0
VC9,2012-08-31,5400.0
VC9,2012-09-04,5400.0
VC9,2012-09-05,5300.0
VC9,2012-09-06,5300.0
VC9,2012-09-07,5200.0
VC9,2012-09-10,5000.0
VC9,2012-09-11,5000.0
VC9,2012-09-12,5100.0
VC9,2012-09-13,5200.0
VC9,2012-09-14,5100.0
VC9,2012-09-17,5200.0
VC9,2012-09-18,5600.0
VC9,2012-09-19,5200.0
VC9,2012-09-20,5100.0
VC9,2012-09-21,5100.0
VC9,2012-09-24,5100.0
VC9,2012-09-25,5100.0
VC9,2012-09-26,5100.0
VC9,2012-09-27,5100.0
VC9,2012-09-28,4900.0
VC9,2012-10-01,4700.0
VC9,2012-10-02,4700.0
VC9,2012-10-03,4700.0
VC9,2012-10-04,4900.0
VC9,2012-10-05,5200.0
VC9,2012-10-08,5100.0
VC9,2012-10-09,5100.0
VC9,2012-10-10,5100.0
VC9,2012-10-11,5100.0
VC9,2012-10-12,5100.0
VC9,2012-10-15,4800.0
VC9,2012-10-16,4700.0
VC9,2012-10-17,5100.0
VC9,2012-10-18,5200.0
VC9,2012-10-19,5200.0
VC9,2012-10-22,4900.0
VC9,2012-10-23,4900.0
VC9,2012-10-24,4900.0
VC9,2012-10-25,4900.0
VC9,2012-10-26,4900.0
VC9,2012-10-29,4600.0
VC9,2012-10-30,4600.0
VC9,2012-10-31,4600.0
VC9,2012-11-01,4600.0
VC9,2012-11-02,4600.0
VC9,2012-11-05,4400.0
VC9,2012-11-06,4400.0
VC9,2012-11-07,4400.0
VC9,2012-11-08,4500.0
VC9,2012-11-09,4600.0
VC9,2012-11-12,4600.0
VC9,2012-11-13,4600.0
VC9,2012-11-14,4800.0
VC9,2012-11-15,4600.0
VC9,2012-11-16,4800.0
VC9,2012-11-19,4800.0
VC9,2012-11-20,4800.0
VC9,2012-11-21,4600.0
VC9,2012-11-22,4400.0
VC9,2012-11-23,4600.0
VC9,2012-11-26,4400.0
VC9,2012-11-27,4300.0
VC9,2012-11-28,4200.0
VC9,2012-11-29,4300.0
VC9,2012-11-30,4400.0
VC9,2012-12-03,4400.0
VC9,2012-12-04,4400.0
VC9,2012-12-05,4600.0
VC9,2012-12-06,4600.0
VC9,2012-12-07,4600.0
VC9,2012-12-10,4700.0
VC9,2012-12-11,5000.0
VC9,2012-12-12,5000.0
VC9,2012-12-13,5000.0
VC9,2012-12-14,5000.0
VC9,2012-12-17,4900.0
VC9,2012-12-18,4700.0
VC9,2012-12-19,5000.0
VC9,2012-12-20,5100.0
VC9,2012-12-21,4700.0
VC9,2012-12-24,4600.0
VC9,2012-12-25,4500.0
VC9,2012-12-26,4700.0
VC9,2012-12-27,4900.0
VC9,2012-12-28,4700.0
VC9,2013-01-02,5000.0
VC9,2013-01-03,4900.0
VC9,2013-01-04,5000.0
VC9,2013-01-07,5000.0
VC9,2013-01-08,5100.0
VC9,2013-01-09,4800.0
VC9,2013-01-10,5100.0
VC9,2013-01-11,4900.0
VC9,2013-01-14,5000.0
VC9,2013-01-15,5300.0
VC9,2013-01-16,5600.0
VC9,2013-01-17,5500.0
VC9,2013-01-18,5700.0
VC9,2013-01-21,5300.0
VC9,2013-01-22,5300.0
VC9,2013-01-23,5400.0
VC9,2013-01-24,5700.0
VC9,2013-01-25,5700.0
VC9,2013-01-28,5800.0
VC9,2013-01-29,5800.0
VC9,2013-01-30,5800.0
VC9,2013-01-31,5700.0
VC9,2013-02-01,5800.0
VC9,2013-02-04,5700.0
VC9,2013-02-05,5700.0
VC9,2013-02-06,5900.0
VC9,2013-02-07,6200.0
VC9,2013-02-08,6500.0
VC9,2013-02-18,6600.0
VC9,2013-02-19,7000.0
VC9,2013-02-20,6800.0
VC9,2013-02-21,6800.0
VC9,2013-02-22,7000.0
VC9,2013-02-25,7000.0
VC9,2013-02-26,6800.0
VC9,2013-02-27,6800.0
VC9,2013-02-28,6400.0
VC9,2013-03-01,6800.0
VC9,2013-03-04,6800.0
VC9,2013-03-05,6800.0
VC9,2013-03-06,6800.0
VC9,2013-03-07,6800.0
VC9,2013-03-08,6800.0
VC9,2013-03-11,6800.0
VC9,2013-03-12,6800.0
VC9,2013-03-13,6800.0
VC9,2013-03-14,6800.0
VC9,2013-03-15,6800.0
VC9,2013-03-18,6900.0
VC9,2013-03-19,6900.0
VC9,2013-03-20,6900.0
VC9,2013-03-21,7100.0
VC9,2013-03-22,6900.0
VC9,2013-03-25,6900.0
VC9,2013-03-26,7200.0
VC9,2013-03-27,7300.0
VC9,2013-03-28,7300.0
VC9,2013-03-29,7200.0
VC9,2013-04-01,7200.0
VC9,2013-04-02,7200.0
VC9,2013-04-03,7200.0
VC9,2013-04-04,6900.0
VC9,2013-04-05,7000.0
VC9,2013-04-08,7000.0
VC9,2013-04-09,7000.0
VC9,2013-04-10,7000.0
VC9,2013-04-11,7200.0
VC9,2013-04-12,7200.0
VC9,2013-04-15,7200.0
VC9,2013-04-16,7200.0
VC9,2013-04-17,7200.0
VC9,2013-04-18,7200.0
VC9,2013-04-22,7200.0
VC9,2013-04-23,7200.0
VC9,2013-04-24,7200.0
VC9,2013-04-25,7200.0
VC9,2013-04-26,7300.0
VC9,2013-05-02,7300.0
VC9,2013-05-03,7900.0
VC9,2013-05-06,7700.0
VC9,2013-05-07,7700.0
VC9,2013-05-08,7700.0
VC9,2013-05-09,7600.0
VC9,2013-05-10,7600.0
VC9,2013-05-13,8000.0
VC9,2013-05-14,7700.0
VC9,2013-05-15,7700.0
VC9,2013-05-16,7300.0
VC9,2013-05-17,7500.0
VC9,2013-05-20,7600.0
VC9,2013-05-21,7700.0
VC9,2013-05-22,7400.0
VC9,2013-05-23,7400.0
VC9,2013-05-24,7200.0
VC9,2013-05-27,7400.0
VC9,2013-05-28,6700.0
VC9,2013-05-29,7200.0
VC9,2013-05-30,7400.0
VC9,2013-05-31,7400.0
VC9,2013-06-03,7500.0
VC9,2013-06-04,7500.0
VC9,2013-06-05,7300.0
VC9,2013-06-06,7300.0
VC9,2013-06-07,7300.0
VC9,2013-06-10,7300.0
VC9,2013-06-11,7300.0
VC9,2013-06-12,7100.0
VC9,2013-06-13,7100.0
VC9,2013-06-14,7200.0
VC9,2013-06-17,7200.0
VC9,2013-06-18,7300.0
VC9,2013-06-19,7400.0
VC9,2013-06-20,7400.0
VC9,2013-06-21,7300.0
VC9,2013-06-24,7000.0
VC9,2013-06-25,7000.0
VC9,2013-06-26,6800.0
VC9,2013-06-27,6800.0
VC9,2013-06-28,6700.0
VC9,2013-07-01,6800.0
VC9,2013-07-02,6800.0
VC9,2013-07-03,6800.0
VC9,2013-07-04,6800.0
VC9,2013-07-05,6800.0
VC9,2013-07-08,6800.0
VC9,2013-07-09,7300.0
VC9,2013-07-10,7300.0
VC9,2013-07-11,7300.0
VC9,2013-07-12,7300.0
VC9,2013-07-15,7300.0
VC9,2013-07-16,7300.0
VC9,2013-07-17,7300.0
VC9,2013-07-18,7300.0
VC9,2013-07-19,7000.0
VC9,2013-07-22,7000.0
VC9,2013-07-23,7000.0
VC9,2013-07-24,7000.0
VC9,2013-07-25,7000.0
VC9,2013-07-26,7000.0
VC9,2013-07-29,6300.0
VC9,2013-07-30,6300.0
VC9,2013-07-31,6300.0
VC9,2013-08-01,6300.0
VC9,2013-08-02,6300.0
VC9,2013-08-05,6300.0
VC9,2013-08-06,6900.0
VC9,2013-08-07,6900.0
VC9,2013-08-08,6900.0
VC9,2013-08-09,6300.0
VC9,2013-08-12,6300.0
VC9,2013-08-13,6300.0
VC9,2013-08-14,6300.0
VC9,2013-08-15,6900.0
VC9,2013-08-16,6900.0
VC9,2013-08-19,6900.0
VC9,2013-08-20,6900.0
VC9,2013-08-21,6900.0
VC9,2013-08-22,6900.0
VC9,2013-08-23,6500.0
VC9,2013-08-26,6500.0
VC9,2013-08-27,6100.0
VC9,2013-08-28,6000.0
VC9,2013-08-29,6000.0
VC9,2013-08-30,6000.0
VC9,2013-09-03,5600.0
VC9,2013-09-04,5400.0
VC9,2013-09-05,5400.0
VC9,2013-09-06,5600.0
VC9,2013-09-09,5600.0
VC9,2013-09-10,5700.0
VC9,2013-09-11,5700.0
VC9,2013-09-12,5500.0
VC9,2013-09-13,5600.0
VC9,2013-09-16,5500.0
VC9,2013-09-17,5000.0
VC9,2013-09-18,5500.0
VC9,2013-09-19,5000.0
VC9,2013-09-20,5000.0
VC9,2013-09-23,5500.0
VC9,2013-09-24,5500.0
VC9,2013-09-25,6000.0
VC9,2013-09-26,6000.0
VC9,2013-09-27,6000.0
VC9,2013-09-30,6000.0
VC9,2013-10-01,6000.0
VC9,2013-10-02,6000.0
VC9,2013-10-03,5800.0
VC9,2013-10-04,5800.0
VC9,2013-10-07,5800.0
VC9,2013-10-08,5800.0
VC9,2013-10-09,5800.0
VC9,2013-10-10,5800.0
VC9,2013-10-11,5300.0
VC9,2013-10-14,5300.0
VC9,2013-10-15,5700.0
VC9,2013-10-16,6100.0
VC9,2013-10-17,6100.0
VC9,2013-10-18,6200.0
VC9,2013-10-21,6200.0
VC9,2013-10-22,6200.0
VC9,2013-10-23,6200.0
VC9,2013-10-24,6300.0
VC9,2013-10-25,5800.0
VC9,2013-10-28,5800.0
VC9,2013-10-29,5800.0
VC9,2013-10-30,5800.0
VC9,2013-10-31,5800.0
VC9,2013-11-01,5800.0
VC9,2013-11-04,6000.0
VC9,2013-11-05,6000.0
VC9,2013-11-06,6200.0
VC9,2013-11-07,6200.0
VC9,2013-11-08,6200.0
VC9,2013-11-11,5700.0
VC9,2013-11-12,6200.0
VC9,2013-11-13,6600.0
VC9,2013-11-14,6100.0
VC9,2013-11-15,6500.0
VC9,2013-11-18,6500.0
VC9,2013-11-19,6500.0
VC9,2013-11-20,6600.0
VC9,2013-11-21,6800.0
VC9,2013-11-22,6600.0
VC9,2013-11-25,6600.0
VC9,2013-11-26,6800.0
VC9,2013-11-27,6900.0
VC9,2013-11-28,7500.0
VC9,2013-11-29,7500.0
VC9,2013-12-02,7500.0
VC9,2013-12-03,7200.0
VC9,2013-12-04,7100.0
VC9,2013-12-05,7100.0
VC9,2013-12-06,7100.0
VC9,2013-12-09,6900.0
VC9,2013-12-10,7000.0
VC9,2013-12-11,7000.0
VC9,2013-12-12,6900.0
VC9,2013-12-13,7300.0
VC9,2013-12-16,7200.0
VC9,2013-12-17,7200.0
VC9,2013-12-18,7200.0
VC9,2013-12-19,7200.0
VC9,2013-12-20,7100.0
VC9,2013-12-23,7100.0
VC9,2013-12-24,7100.0
VC9,2013-12-25,7000.0
VC9,2013-12-26,6900.0
VC9,2013-12-27,6900.0
VC9,2013-12-30,6800.0
VC9,2013-12-31,6900.0
VC9,2014-01-02,6900.0
VC9,2014-01-03,7300.0
VC9,2014-01-06,6900.0
VC9,2014-01-07,6900.0
VC9,2014-01-08,7300.0
VC9,2014-01-09,7500.0
VC9,2014-01-10,7000.0
VC9,2014-01-13,7100.0
VC9,2014-01-14,7200.0
VC9,2014-01-15,7100.0
VC9,2014-01-16,7100.0
VC9,2014-01-17,7000.0
VC9,2014-01-20,6900.0
VC9,2014-01-21,7000.0
VC9,2014-01-22,6900.0
VC9,2014-01-23,6600.0
VC9,2014-01-24,6900.0
VC9,2014-01-27,7100.0
VC9,2014-02-06,7000.0
VC9,2014-02-07,7000.0
VC9,2014-02-10,7200.0
VC9,2014-02-11,7200.0
VC9,2014-02-12,7200.0
VC9,2014-02-13,7300.0
VC9,2014-02-14,7500.0
VC9,2014-02-17,7700.0
VC9,2014-02-18,7900.0
VC9,2014-02-19,7900.0
VC9,2014-02-20,7700.0
VC9,2014-02-21,7800.0
VC9,2014-02-24,7800.0
VC9,2014-02-25,7800.0
VC9,2014-02-26,7800.0
VC9,2014-02-27,7700.0
VC9,2014-02-28,7900.0
VC9,2014-03-03,7800.0
VC9,2014-03-04,7800.0
VC9,2014-03-05,7900.0
VC9,2014-03-06,7900.0
VC9,2014-03-07,8100.0
VC9,2014-03-10,7900.0
VC9,2014-03-11,8500.0
VC9,2014-03-12,8700.0
VC9,2014-03-13,8800.0
VC9,2014-03-14,8500.0
VC9,2014-03-17,8900.0
VC9,2014-03-18,9200.0
VC9,2014-03-19,8800.0
VC9,2014-03-20,8900.0
VC9,2014-03-21,9000.0
VC9,2014-03-24,9900.0
VC9,2014-03-25,9700.0
VC9,2014-03-26,9900.0
VC9,2014-03-27,9600.0
VC9,2014-03-28,9700.0
VC9,2014-03-31,9700.0
VC9,2014-04-01,9000.0
VC9,2014-04-02,9200.0
VC9,2014-04-03,9400.0
VC9,2014-04-04,9500.0
VC9,2014-04-07,9500.0
VC9,2014-04-08,9600.0
VC9,2014-04-10,9600.0
VC9,2014-04-11,9700.0
VC9,2014-04-14,9700.0
VC9,2014-04-15,9600.0
VC9,2014-04-16,9300.0
VC9,2014-04-17,9500.0
VC9,2014-04-18,9400.0
VC9,2014-04-21,9400.0
VC9,2014-04-22,9500.0
VC9,2014-04-23,9600.0
VC9,2014-04-24,9600.0
VC9,2014-04-25,9700.0
VC9,2014-04-28,9700.0
VC9,2014-04-29,9700.0
VC9,2014-05-05,9400.0
VC9,2014-05-06,9400.0
VC9,2014-05-07,9200.0
VC9,2014-05-08,8300.0
VC9,2014-05-09,9000.0
VC9,2014-05-12,8900.0
VC9,2014-05-13,8900.0
VC9,2014-05-14,9000.0
VC9,2014-05-15,8800.0
VC9,2014-05-16,9000.0
VC9,2014-05-19,8900.0
VC9,2014-05-20,9200.0
VC9,2014-05-21,9200.0
