VDS,2010-05-25,18500.0
VDS,2010-05-26,17100.0
VDS,2010-05-27,17600.0
VDS,2010-05-28,18200.0
VDS,2010-05-31,17000.0
VDS,2010-06-01,17000.0
VDS,2010-06-02,17000.0
VDS,2010-06-03,17000.0
VDS,2010-06-04,16900.0
VDS,2010-06-07,15800.0
VDS,2010-06-08,16000.0
VDS,2010-06-09,15400.0
VDS,2010-06-10,16500.0
VDS,2010-06-11,15500.0
VDS,2010-06-14,15900.0
VDS,2010-06-15,15900.0
VDS,2010-06-16,16800.0
VDS,2010-06-17,17400.0
VDS,2010-06-18,17100.0
VDS,2010-06-21,17300.0
VDS,2010-06-22,16800.0
VDS,2010-06-23,16700.0
VDS,2010-06-24,16400.0
VDS,2010-06-25,16200.0
VDS,2010-06-28,16200.0
VDS,2010-06-29,16500.0
VDS,2010-06-30,16000.0
VDS,2010-07-01,16000.0
VDS,2010-07-02,16200.0
VDS,2010-07-05,16000.0
VDS,2010-07-06,15600.0
VDS,2010-07-07,15800.0
VDS,2010-07-08,15900.0
VDS,2010-07-09,15800.0
VDS,2010-07-12,15800.0
VDS,2010-07-13,16800.0
VDS,2010-07-14,16400.0
VDS,2010-07-15,16400.0
VDS,2010-07-16,16400.0
VDS,2010-07-19,16200.0
VDS,2010-07-20,16400.0
VDS,2010-07-21,15900.0
VDS,2010-07-22,16100.0
VDS,2010-07-23,16100.0
VDS,2010-07-26,15700.0
VDS,2010-07-27,15500.0
VDS,2010-07-28,15200.0
VDS,2010-07-29,15200.0
VDS,2010-07-30,15200.0
VDS,2010-08-02,14900.0
VDS,2010-08-03,15000.0
VDS,2010-08-04,14700.0
VDS,2010-08-05,15000.0
VDS,2010-08-06,14400.0
VDS,2010-08-09,13800.0
VDS,2010-08-10,14000.0
VDS,2010-08-11,13200.0
VDS,2010-08-12,12700.0
VDS,2010-08-13,13400.0
VDS,2010-08-16,13900.0
VDS,2010-08-17,13600.0
VDS,2010-08-18,12800.0
VDS,2010-08-19,13400.0
VDS,2010-08-20,13700.0
VDS,2010-08-23,13000.0
VDS,2010-08-24,12000.0
VDS,2010-08-25,11200.0
VDS,2010-08-26,11500.0
VDS,2010-08-27,11400.0
VDS,2010-08-30,11700.0
VDS,2010-08-31,12400.0
VDS,2010-09-01,12900.0
VDS,2010-09-06,13200.0
VDS,2010-09-07,12600.0
VDS,2010-09-08,12000.0
VDS,2010-09-09,12600.0
VDS,2010-09-10,12000.0
VDS,2010-09-13,12000.0
VDS,2010-09-14,12000.0
VDS,2010-09-15,11900.0
VDS,2010-09-16,11900.0
VDS,2010-09-17,12400.0
VDS,2010-09-20,12000.0
VDS,2010-09-21,11800.0
VDS,2010-09-22,11700.0
VDS,2010-09-23,11700.0
VDS,2010-09-24,11500.0
VDS,2010-09-27,11700.0
VDS,2010-09-28,11800.0
VDS,2010-09-29,11400.0
VDS,2010-09-30,11400.0
VDS,2010-10-01,11300.0
VDS,2010-10-04,10900.0
VDS,2010-10-05,10900.0
VDS,2010-10-06,11400.0
VDS,2010-10-07,11300.0
VDS,2010-10-08,11000.0
VDS,2010-10-11,11000.0
VDS,2010-10-12,10900.0
VDS,2010-10-13,10900.0
VDS,2010-10-14,10900.0
VDS,2010-10-15,10900.0
VDS,2010-10-18,10900.0
VDS,2010-10-19,10500.0
VDS,2010-10-20,10100.0
VDS,2010-10-21,10500.0
VDS,2010-10-22,9900.0
VDS,2010-10-25,9900.0
VDS,2010-10-26,10200.0
VDS,2010-10-27,9900.0
VDS,2010-10-28,10000.0
VDS,2010-10-29,10100.0
VDS,2010-11-01,9900.0
VDS,2010-11-02,9800.0
VDS,2010-11-03,9700.0
VDS,2010-11-04,9700.0
VDS,2010-11-05,9800.0
VDS,2010-11-08,9700.0
VDS,2010-11-09,9500.0
VDS,2010-11-10,9500.0
VDS,2010-11-11,9500.0
VDS,2010-11-12,9100.0
VDS,2010-11-15,8900.0
VDS,2010-11-16,8800.0
VDS,2010-11-17,8900.0
VDS,2010-11-18,9400.0
VDS,2010-11-19,8900.0
VDS,2010-11-22,8900.0
VDS,2010-11-23,9000.0
VDS,2010-11-24,9000.0
VDS,2010-11-25,9100.0
VDS,2010-11-26,9400.0
VDS,2010-11-29,9500.0
VDS,2010-11-30,9600.0
VDS,2010-12-01,9300.0
VDS,2010-12-02,10500.0
VDS,2010-12-03,11000.0
VDS,2010-12-06,11500.0
VDS,2010-12-07,10900.0
VDS,2010-12-08,10700.0
VDS,2010-12-09,10900.0
VDS,2010-12-10,10800.0
VDS,2010-12-13,11500.0
VDS,2010-12-14,11500.0
VDS,2010-12-15,10800.0
VDS,2010-12-16,10100.0
VDS,2010-12-17,10100.0
VDS,2010-12-20,9600.0
VDS,2010-12-21,9700.0
VDS,2010-12-22,9300.0
VDS,2010-12-23,9300.0
VDS,2010-12-24,9500.0
VDS,2010-12-27,10000.0
VDS,2010-12-28,10000.0
VDS,2010-12-29,9600.0
VDS,2010-12-30,9500.0
VDS,2010-12-31,10100.0
VDS,2011-01-04,10200.0
VDS,2011-01-05,10000.0
VDS,2011-01-06,9700.0
VDS,2011-01-07,9800.0
VDS,2011-01-10,9900.0
VDS,2011-01-11,9700.0
VDS,2011-01-12,9900.0
VDS,2011-01-13,9900.0
VDS,2011-01-14,10000.0
VDS,2011-01-17,10100.0
VDS,2011-01-18,10000.0
VDS,2011-01-19,10100.0
VDS,2011-01-20,10000.0
VDS,2011-01-21,10300.0
VDS,2011-01-24,10100.0
VDS,2011-01-25,10000.0
VDS,2011-01-26,10100.0
VDS,2011-01-27,10100.0
VDS,2011-01-28,10100.0
VDS,2011-02-08,10400.0
VDS,2011-02-09,10100.0
VDS,2011-02-10,10000.0
VDS,2011-02-11,10100.0
VDS,2011-02-14,10000.0
VDS,2011-02-15,10000.0
VDS,2011-02-16,10200.0
VDS,2011-02-17,10000.0
VDS,2011-02-18,10000.0
VDS,2011-02-21,9600.0
VDS,2011-02-22,9800.0
VDS,2011-02-23,10000.0
VDS,2011-02-24,9800.0
VDS,2011-02-25,10000.0
VDS,2011-02-28,9500.0
VDS,2011-03-01,9500.0
VDS,2011-03-02,9500.0
VDS,2011-03-03,9200.0
VDS,2011-03-04,9500.0
VDS,2011-03-07,9600.0
VDS,2011-03-08,9400.0
VDS,2011-03-09,9000.0
VDS,2011-03-10,9600.0
VDS,2011-03-11,10200.0
VDS,2011-03-14,9500.0
VDS,2011-03-15,9600.0
VDS,2011-03-16,9600.0
VDS,2011-03-17,9600.0
VDS,2011-03-18,10000.0
VDS,2011-03-21,9900.0
VDS,2011-03-22,9900.0
VDS,2011-03-23,9900.0
VDS,2011-03-24,9900.0
VDS,2011-03-25,9900.0
VDS,2011-03-28,9600.0
VDS,2011-03-29,9400.0
VDS,2011-03-30,9900.0
VDS,2011-03-31,10000.0
VDS,2011-04-01,9400.0
VDS,2011-04-04,9200.0
VDS,2011-04-05,9400.0
VDS,2011-04-06,9400.0
VDS,2011-04-07,8900.0
VDS,2011-04-08,9200.0
VDS,2011-04-13,9000.0
VDS,2011-04-14,9000.0
VDS,2011-04-15,9000.0
VDS,2011-04-18,9100.0
VDS,2011-04-19,8800.0
VDS,2011-04-20,9000.0
VDS,2011-04-21,8600.0
VDS,2011-04-22,8300.0
VDS,2011-04-25,9000.0
VDS,2011-04-26,9100.0
VDS,2011-04-27,9000.0
VDS,2011-04-28,8500.0
VDS,2011-04-29,8700.0
VDS,2011-05-04,8600.0
VDS,2011-05-05,8300.0
VDS,2011-05-06,8300.0
VDS,2011-05-09,8400.0
VDS,2011-05-10,8400.0
VDS,2011-05-11,8400.0
VDS,2011-05-12,8500.0
VDS,2011-05-13,8500.0
VDS,2011-05-16,8500.0
VDS,2011-05-17,8100.0
VDS,2011-05-18,8000.0
VDS,2011-05-19,8300.0
VDS,2011-05-20,7900.0
VDS,2011-05-23,7800.0
VDS,2011-05-24,7300.0
VDS,2011-05-25,7500.0
VDS,2011-05-26,7000.0
VDS,2011-05-27,7000.0
VDS,2011-05-30,6900.0
VDS,2011-05-31,6600.0
VDS,2011-06-01,7000.0
VDS,2011-06-02,7400.0
VDS,2011-06-03,7800.0
VDS,2011-06-06,8200.0
VDS,2011-06-07,8500.0
VDS,2011-06-08,8500.0
VDS,2011-06-09,8400.0
VDS,2011-06-10,8900.0
VDS,2011-06-13,9200.0
VDS,2011-06-14,8600.0
VDS,2011-06-15,8000.0
VDS,2011-06-16,8000.0
VDS,2011-06-17,7700.0
VDS,2011-06-20,8200.0
VDS,2011-06-21,7700.0
VDS,2011-06-22,7200.0
VDS,2011-06-23,7200.0
VDS,2011-06-24,7700.0
VDS,2011-06-27,7600.0
VDS,2011-06-28,8000.0
VDS,2011-06-29,8000.0
VDS,2011-06-30,8000.0
VDS,2011-07-01,8000.0
VDS,2011-07-04,8000.0
VDS,2011-07-05,7500.0
VDS,2011-07-06,7000.0
VDS,2011-07-07,7000.0
VDS,2011-07-08,7000.0
VDS,2011-07-11,7000.0
VDS,2011-07-12,7300.0
VDS,2011-07-13,7700.0
VDS,2011-07-14,7200.0
VDS,2011-07-15,7200.0
VDS,2011-07-18,6700.0
VDS,2011-07-19,6700.0
VDS,2011-07-20,6700.0
VDS,2011-07-21,6300.0
VDS,2011-07-22,6700.0
VDS,2011-07-25,6300.0
VDS,2011-07-26,6400.0
VDS,2011-07-27,6300.0
VDS,2011-07-28,5900.0
VDS,2011-07-29,5900.0
VDS,2011-08-01,5900.0
VDS,2011-08-02,5900.0
VDS,2011-08-03,5900.0
VDS,2011-08-04,6300.0
VDS,2011-08-05,6400.0
VDS,2011-08-08,6800.0
VDS,2011-08-09,6400.0
VDS,2011-08-10,6600.0
VDS,2011-08-11,6200.0
VDS,2011-08-12,5800.0
VDS,2011-08-15,6000.0
VDS,2011-08-16,6200.0
VDS,2011-08-17,5800.0
VDS,2011-08-18,5400.0
VDS,2011-08-19,5100.0
VDS,2011-08-22,5400.0
VDS,2011-08-23,5500.0
VDS,2011-08-24,5800.0
VDS,2011-08-25,5400.0
VDS,2011-08-26,5200.0
VDS,2011-08-29,5500.0
VDS,2011-08-30,5600.0
VDS,2011-08-31,5200.0
VDS,2011-09-01,5500.0
VDS,2011-09-05,5400.0
VDS,2011-09-06,5400.0
VDS,2011-09-07,5400.0
VDS,2011-09-08,5200.0
VDS,2011-09-09,5400.0
VDS,2011-09-12,5300.0
VDS,2011-09-13,5600.0
VDS,2011-09-14,5800.0
VDS,2011-09-15,6200.0
VDS,2011-09-16,6200.0
VDS,2011-09-19,5600.0
VDS,2011-09-20,5600.0
VDS,2011-09-21,5600.0
VDS,2011-09-22,5400.0
VDS,2011-09-23,5600.0
VDS,2011-09-26,5600.0
VDS,2011-09-27,5300.0
VDS,2011-09-28,5000.0
VDS,2011-09-29,4700.0
VDS,2011-09-30,5000.0
VDS,2011-10-03,4700.0
VDS,2011-10-04,4600.0
VDS,2011-10-05,4400.0
VDS,2011-10-06,4900.0
VDS,2011-10-07,4900.0
VDS,2011-10-10,4500.0
VDS,2011-10-11,4200.0
VDS,2011-10-12,4700.0
VDS,2011-10-13,4400.0
VDS,2011-10-14,4700.0
VDS,2011-10-17,5000.0
VDS,2011-10-18,5200.0
VDS,2011-10-19,5400.0
VDS,2011-10-20,5500.0
VDS,2011-10-21,5400.0
VDS,2011-10-24,5400.0
VDS,2011-10-25,5600.0
VDS,2011-10-26,5600.0
VDS,2011-10-27,5800.0
VDS,2011-10-28,5900.0
VDS,2011-10-31,5900.0
VDS,2011-11-01,5800.0
VDS,2011-11-02,5800.0
VDS,2011-11-03,5600.0
VDS,2011-11-04,5800.0
VDS,2011-11-07,5700.0
VDS,2011-11-08,5700.0
VDS,2011-11-09,5800.0
VDS,2011-11-10,5400.0
VDS,2011-11-11,5700.0
VDS,2011-11-14,5400.0
VDS,2011-11-15,5100.0
VDS,2011-11-16,5000.0
VDS,2011-11-17,4800.0
VDS,2011-11-18,4500.0
VDS,2011-11-21,4200.0
VDS,2011-11-22,4000.0
VDS,2011-11-23,4000.0
VDS,2011-11-24,3800.0
VDS,2011-11-25,4000.0
VDS,2011-11-28,4000.0
VDS,2011-11-29,4000.0
VDS,2011-11-30,3900.0
VDS,2011-12-01,3600.0
VDS,2011-12-02,3400.0
VDS,2011-12-05,3500.0
VDS,2011-12-06,3500.0
VDS,2011-12-07,3700.0
VDS,2011-12-08,3700.0
VDS,2011-12-09,3800.0
VDS,2011-12-12,3800.0
VDS,2011-12-13,3800.0
VDS,2011-12-14,3800.0
VDS,2011-12-15,3800.0
VDS,2011-12-16,3600.0
VDS,2011-12-19,3600.0
VDS,2011-12-20,3600.0
VDS,2011-12-21,3600.0
VDS,2011-12-22,3600.0
VDS,2011-12-23,3600.0
VDS,2011-12-26,3600.0
VDS,2011-12-27,3600.0
VDS,2011-12-28,3600.0
VDS,2011-12-29,3600.0
VDS,2011-12-30,3500.0
VDS,2012-01-03,3500.0
VDS,2012-01-04,3300.0
VDS,2012-01-05,3300.0
VDS,2012-01-06,3100.0
VDS,2012-01-09,2900.0
VDS,2012-01-10,3000.0
VDS,2012-01-11,2900.0
VDS,2012-01-12,2900.0
VDS,2012-01-13,2900.0
VDS,2012-01-16,3000.0
VDS,2012-01-17,3000.0
VDS,2012-01-18,2900.0
VDS,2012-01-19,2800.0
VDS,2012-01-20,2800.0
VDS,2012-01-30,2900.0
VDS,2012-01-31,2700.0
VDS,2012-02-01,2800.0
VDS,2012-02-02,2800.0
VDS,2012-02-03,2700.0
VDS,2012-02-06,2700.0
VDS,2012-02-07,2700.0
VDS,2012-02-08,2800.0
VDS,2012-02-09,2900.0
VDS,2012-02-10,3000.0
VDS,2012-02-13,3000.0
VDS,2012-02-14,3100.0
VDS,2012-02-15,3100.0
VDS,2012-02-16,3100.0
VDS,2012-02-17,3100.0
VDS,2012-02-20,3300.0
VDS,2012-02-21,3500.0
VDS,2012-02-22,3700.0
VDS,2012-02-23,3900.0
VDS,2012-02-24,4100.0
VDS,2012-02-27,4300.0
VDS,2012-02-28,4600.0
VDS,2012-02-29,4900.0
VDS,2012-03-01,5200.0
VDS,2012-03-02,5500.0
VDS,2012-03-05,5800.0
VDS,2012-03-06,6100.0
VDS,2012-03-07,6500.0
VDS,2012-03-08,5900.0
VDS,2012-03-09,5500.0
VDS,2012-03-12,5200.0
VDS,2012-03-13,5500.0
VDS,2012-03-14,5300.0
VDS,2012-03-15,5700.0
VDS,2012-03-16,5800.0
VDS,2012-03-19,5700.0
VDS,2012-03-20,5800.0
VDS,2012-03-21,6000.0
VDS,2012-03-22,6300.0
VDS,2012-03-23,6600.0
VDS,2012-03-26,6400.0
VDS,2012-03-27,6100.0
VDS,2012-03-28,6100.0
VDS,2012-03-29,5900.0
VDS,2012-03-30,5900.0
VDS,2012-04-03,5800.0
VDS,2012-04-04,5400.0
VDS,2012-04-05,5800.0
VDS,2012-04-06,5800.0
VDS,2012-04-09,5800.0
VDS,2012-04-10,5500.0
VDS,2012-04-11,5800.0
VDS,2012-04-12,6100.0
VDS,2012-04-13,5800.0
VDS,2012-04-16,6000.0
VDS,2012-04-17,5900.0
VDS,2012-04-18,6100.0
VDS,2012-04-19,5800.0
VDS,2012-04-20,5900.0
VDS,2012-04-23,5900.0
VDS,2012-04-24,5900.0
VDS,2012-04-25,5900.0
VDS,2012-04-26,5600.0
VDS,2012-04-27,5500.0
VDS,2012-05-02,5400.0
VDS,2012-05-03,5500.0
VDS,2012-05-04,5500.0
VDS,2012-05-07,5800.0
VDS,2012-05-08,5700.0
VDS,2012-05-09,5800.0
VDS,2012-05-10,5800.0
VDS,2012-05-11,5900.0
VDS,2012-05-14,5500.0
VDS,2012-05-15,5200.0
VDS,2012-05-16,5600.0
VDS,2012-05-17,5300.0
VDS,2012-05-18,5000.0
VDS,2012-05-21,5400.0
VDS,2012-05-22,5400.0
VDS,2012-05-23,4900.0
VDS,2012-05-24,5000.0
VDS,2012-05-25,5300.0
VDS,2012-05-28,5200.0
VDS,2012-05-29,5400.0
VDS,2012-05-30,5400.0
VDS,2012-05-31,5200.0
VDS,2012-06-01,5300.0
VDS,2012-06-04,5000.0
VDS,2012-06-05,5200.0
VDS,2012-06-06,5400.0
VDS,2012-06-07,5600.0
VDS,2012-06-08,5500.0
VDS,2012-06-11,5300.0
VDS,2012-06-12,5500.0
VDS,2012-06-13,5600.0
VDS,2012-06-14,5400.0
VDS,2012-06-15,5600.0
VDS,2012-06-18,5500.0
VDS,2012-06-19,5400.0
VDS,2012-06-20,5400.0
VDS,2012-06-21,5400.0
VDS,2012-06-22,5300.0
VDS,2012-06-25,5300.0
VDS,2012-06-26,5300.0
VDS,2012-06-27,4800.0
VDS,2012-06-28,4900.0
VDS,2012-06-29,5000.0
VDS,2012-07-02,4800.0
VDS,2012-07-03,4700.0
VDS,2012-07-04,4800.0
VDS,2012-07-05,5100.0
VDS,2012-07-06,5300.0
VDS,2012-07-09,5300.0
VDS,2012-07-10,5300.0
VDS,2012-07-11,5300.0
VDS,2012-07-12,5300.0
VDS,2012-07-13,5000.0
VDS,2012-07-16,4900.0
VDS,2012-07-17,5100.0
VDS,2012-07-18,5200.0
VDS,2012-07-19,5000.0
VDS,2012-07-20,5200.0
VDS,2012-07-23,4800.0
VDS,2012-07-24,5100.0
VDS,2012-07-25,5100.0
VDS,2012-07-26,4800.0
VDS,2012-07-27,4800.0
VDS,2012-07-30,5100.0
VDS,2012-07-31,5000.0
VDS,2012-08-01,4700.0
VDS,2012-08-02,4900.0
VDS,2012-08-03,4900.0
VDS,2012-08-06,4700.0
VDS,2012-08-07,4700.0
VDS,2012-08-08,4900.0
VDS,2012-08-09,4600.0
VDS,2012-08-10,4600.0
VDS,2012-08-13,4900.0
VDS,2012-08-14,4600.0
VDS,2012-08-15,4600.0
VDS,2012-08-16,4500.0
VDS,2012-08-17,4500.0
VDS,2012-08-20,4500.0
VDS,2012-08-21,4200.0
VDS,2012-08-22,4400.0
VDS,2012-08-23,3900.0
VDS,2012-08-24,4000.0
VDS,2012-08-27,4000.0
VDS,2012-08-28,4100.0
VDS,2012-08-29,4000.0
VDS,2012-08-30,4000.0
VDS,2012-08-31,4000.0
VDS,2012-09-04,4000.0
VDS,2012-09-05,3800.0
VDS,2012-09-06,3800.0
VDS,2012-09-07,3800.0
VDS,2012-09-10,3600.0
VDS,2012-09-11,3600.0
VDS,2012-09-12,3600.0
VDS,2012-09-13,3800.0
VDS,2012-09-14,3500.0
VDS,2012-09-17,3700.0
VDS,2012-09-18,3500.0
VDS,2012-09-19,3300.0
VDS,2012-09-20,3400.0
VDS,2012-09-21,3200.0
VDS,2012-09-24,3200.0
VDS,2012-09-25,3000.0
VDS,2012-09-26,3000.0
VDS,2012-09-27,3000.0
VDS,2012-09-28,3000.0
VDS,2012-10-01,3000.0
VDS,2012-10-02,3100.0
VDS,2012-10-03,3200.0
VDS,2012-10-04,3400.0
VDS,2012-10-05,3400.0
VDS,2012-10-08,3400.0
VDS,2012-10-09,3600.0
VDS,2012-10-10,3500.0
VDS,2012-10-11,3300.0
VDS,2012-10-12,3500.0
VDS,2012-10-15,3500.0
VDS,2012-10-16,3700.0
VDS,2012-10-17,3700.0
VDS,2012-10-18,3700.0
VDS,2012-10-19,3700.0
VDS,2012-10-22,3700.0
VDS,2012-10-23,3900.0
VDS,2012-10-24,4000.0
VDS,2012-10-25,4000.0
VDS,2012-10-26,4100.0
VDS,2012-10-29,4100.0
VDS,2012-10-30,4100.0
VDS,2012-10-31,4100.0
VDS,2012-11-01,4100.0
VDS,2012-11-02,4100.0
VDS,2012-11-05,4100.0
VDS,2012-11-06,4100.0
VDS,2012-11-07,4300.0
VDS,2012-11-08,4300.0
VDS,2012-11-09,4300.0
VDS,2012-11-12,4300.0
VDS,2012-11-13,4300.0
VDS,2012-11-14,4300.0
VDS,2012-11-15,4300.0
VDS,2012-11-16,4300.0
VDS,2012-11-19,4000.0
VDS,2012-11-20,4000.0
VDS,2012-11-21,4000.0
VDS,2012-11-22,4200.0
VDS,2012-11-23,4200.0
VDS,2012-11-26,4200.0
VDS,2012-11-27,4200.0
VDS,2012-11-28,4200.0
VDS,2012-11-29,4400.0
VDS,2012-11-30,4400.0
VDS,2012-12-03,4400.0
VDS,2012-12-04,4400.0
VDS,2012-12-05,4400.0
VDS,2012-12-06,4400.0
VDS,2012-12-07,4100.0
VDS,2012-12-10,3900.0
VDS,2012-12-11,4100.0
VDS,2012-12-12,4100.0
VDS,2012-12-13,4200.0
VDS,2012-12-14,4000.0
VDS,2012-12-17,4000.0
VDS,2012-12-18,3800.0
VDS,2012-12-19,3900.0
VDS,2012-12-20,4000.0
VDS,2012-12-21,3900.0
VDS,2012-12-24,3900.0
VDS,2012-12-25,3900.0
VDS,2012-12-26,4000.0
VDS,2012-12-27,3900.0
VDS,2012-12-28,3900.0
VDS,2013-01-02,3900.0
VDS,2013-01-03,4000.0
VDS,2013-01-04,4000.0
VDS,2013-01-07,4100.0
VDS,2013-01-08,4200.0
VDS,2013-01-09,4000.0
VDS,2013-01-10,4000.0
VDS,2013-01-11,3900.0
VDS,2013-01-14,4100.0
VDS,2013-01-15,4200.0
VDS,2013-01-16,4300.0
VDS,2013-01-17,4200.0
VDS,2013-01-18,3900.0
VDS,2013-01-21,4100.0
VDS,2013-01-22,3700.0
VDS,2013-01-23,3900.0
VDS,2013-01-24,3700.0
VDS,2013-01-25,3700.0
VDS,2013-01-28,4000.0
VDS,2013-01-29,3700.0
VDS,2013-01-30,4300.0
VDS,2013-01-31,4000.0
VDS,2013-02-01,4000.0
VDS,2013-02-04,4100.0
VDS,2013-02-05,4100.0
VDS,2013-02-06,4000.0
VDS,2013-02-07,4100.0
VDS,2013-02-08,4200.0
VDS,2013-02-18,4100.0
VDS,2013-02-19,3900.0
VDS,2013-02-20,4100.0
VDS,2013-02-21,4100.0
VDS,2013-02-22,3800.0
VDS,2013-02-25,3700.0
VDS,2013-02-26,4000.0
VDS,2013-02-27,4000.0
VDS,2013-02-28,3800.0
VDS,2013-03-01,3800.0
VDS,2013-03-04,3800.0
VDS,2013-03-05,3800.0
VDS,2013-03-06,3800.0
VDS,2013-03-07,3700.0
VDS,2013-03-08,3800.0
VDS,2013-03-11,3900.0
VDS,2013-03-12,4200.0
VDS,2013-03-13,4000.0
VDS,2013-03-14,4100.0
VDS,2013-03-15,4200.0
VDS,2013-03-18,4200.0
VDS,2013-03-19,4100.0
VDS,2013-03-20,4100.0
VDS,2013-03-21,4000.0
VDS,2013-03-22,4000.0
VDS,2013-03-25,4000.0
VDS,2013-03-26,4200.0
VDS,2013-03-27,4100.0
VDS,2013-03-28,4100.0
VDS,2013-03-29,3900.0
VDS,2013-04-01,3900.0
VDS,2013-04-02,3900.0
VDS,2013-04-03,3900.0
VDS,2013-04-04,3900.0
VDS,2013-04-05,3800.0
VDS,2013-04-08,3700.0
VDS,2013-04-09,4000.0
VDS,2013-04-10,3800.0
VDS,2013-04-11,3800.0
VDS,2013-04-12,3600.0
VDS,2013-04-15,3500.0
VDS,2013-04-16,3700.0
VDS,2013-04-17,3800.0
VDS,2013-04-18,4000.0
VDS,2013-04-22,3600.0
VDS,2013-04-23,3800.0
VDS,2013-04-24,3800.0
VDS,2013-04-25,3600.0
VDS,2013-04-26,3600.0
VDS,2013-05-02,3600.0
VDS,2013-05-03,3600.0
VDS,2013-05-06,3700.0
VDS,2013-05-07,3700.0
VDS,2013-05-08,3600.0
VDS,2013-05-09,3700.0
VDS,2013-05-10,3700.0
VDS,2013-05-13,3700.0
VDS,2013-05-14,3500.0
VDS,2013-05-15,3500.0
VDS,2013-05-16,3500.0
VDS,2013-05-17,3500.0
VDS,2013-05-20,3200.0
VDS,2013-05-21,3500.0
VDS,2013-05-22,3800.0
VDS,2013-05-23,4100.0
VDS,2013-05-24,4100.0
VDS,2013-05-27,4000.0
VDS,2013-05-28,3600.0
VDS,2013-05-29,4000.0
VDS,2013-05-30,3600.0
VDS,2013-05-31,3900.0
VDS,2013-06-03,3900.0
VDS,2013-06-04,3900.0
VDS,2013-06-05,3900.0
VDS,2013-06-06,3800.0
VDS,2013-06-07,3800.0
VDS,2013-06-10,3500.0
VDS,2013-06-11,3800.0
VDS,2013-06-12,3800.0
VDS,2013-06-13,3700.0
VDS,2013-06-14,3900.0
VDS,2013-06-17,3600.0
VDS,2013-06-18,3700.0
VDS,2013-06-19,3700.0
VDS,2013-06-20,3700.0
VDS,2013-06-21,3800.0
VDS,2013-06-24,3900.0
VDS,2013-06-25,3900.0
VDS,2013-06-26,3900.0
VDS,2013-06-27,3900.0
VDS,2013-06-28,3900.0
VDS,2013-07-01,3900.0
VDS,2013-07-02,3900.0
VDS,2013-07-03,3900.0
VDS,2013-07-04,3900.0
VDS,2013-07-05,3900.0
VDS,2013-07-08,3900.0
VDS,2013-07-09,3800.0
VDS,2013-07-10,3600.0
VDS,2013-07-11,3900.0
VDS,2013-07-12,3900.0
VDS,2013-07-15,3900.0
VDS,2013-07-16,3800.0
VDS,2013-07-17,3800.0
VDS,2013-07-18,3800.0
VDS,2013-07-19,3900.0
VDS,2013-07-22,3900.0
VDS,2013-07-23,3600.0
VDS,2013-07-24,3600.0
VDS,2013-07-25,3800.0
VDS,2013-07-26,3600.0
VDS,2013-07-29,3600.0
VDS,2013-07-30,3700.0
VDS,2013-07-31,3700.0
VDS,2013-08-01,3700.0
VDS,2013-08-02,3600.0
VDS,2013-08-05,3400.0
VDS,2013-08-06,3400.0
VDS,2013-08-07,3400.0
VDS,2013-08-08,3400.0
VDS,2013-08-09,3200.0
VDS,2013-08-12,3300.0
VDS,2013-08-13,3200.0
VDS,2013-08-14,3200.0
VDS,2013-08-15,3200.0
VDS,2013-08-16,3200.0
VDS,2013-08-19,3400.0
VDS,2013-08-20,3500.0
VDS,2013-08-21,3500.0
VDS,2013-08-22,3500.0
VDS,2013-08-23,3500.0
VDS,2013-08-26,3500.0
VDS,2013-08-27,3500.0
VDS,2013-08-28,3500.0
VDS,2013-08-29,3500.0
VDS,2013-08-30,3500.0
VDS,2013-09-03,3500.0
VDS,2013-09-04,3500.0
VDS,2013-09-05,3500.0
VDS,2013-09-06,3500.0
VDS,2013-09-09,3500.0
VDS,2013-09-10,3500.0
VDS,2013-09-11,3500.0
VDS,2013-09-12,3500.0
VDS,2013-09-13,3500.0
VDS,2013-09-16,3500.0
VDS,2013-09-17,3200.0
VDS,2013-09-18,3500.0
VDS,2013-09-19,3200.0
VDS,2013-09-20,3200.0
VDS,2013-09-23,3200.0
VDS,2013-09-24,3200.0
VDS,2013-09-25,3400.0
VDS,2013-09-26,3400.0
VDS,2013-09-27,3400.0
VDS,2013-09-30,3400.0
VDS,2013-10-01,3200.0
VDS,2013-10-02,3200.0
VDS,2013-10-03,3200.0
VDS,2013-10-04,3200.0
VDS,2013-10-07,3000.0
VDS,2013-10-08,3000.0
VDS,2013-10-09,3000.0
VDS,2013-10-10,3000.0
VDS,2013-10-11,3000.0
VDS,2013-10-14,3000.0
VDS,2013-10-15,3000.0
VDS,2013-10-16,3100.0
VDS,2013-10-17,3000.0
VDS,2013-10-18,3300.0
VDS,2013-10-21,3300.0
VDS,2013-10-22,3300.0
VDS,2013-10-23,3300.0
VDS,2013-10-24,3300.0
VDS,2013-10-25,3300.0
VDS,2013-10-28,3200.0
VDS,2013-10-29,3000.0
VDS,2013-10-30,3100.0
VDS,2013-10-31,3100.0
VDS,2013-11-01,3100.0
VDS,2013-11-04,3300.0
VDS,2013-11-05,3300.0
VDS,2013-11-06,3200.0
VDS,2013-11-07,3200.0
VDS,2013-11-08,3200.0
VDS,2013-11-11,3300.0
VDS,2013-11-12,3100.0
VDS,2013-11-13,3200.0
VDS,2013-11-14,3200.0
VDS,2013-11-15,3300.0
VDS,2013-11-18,3300.0
VDS,2013-11-19,3300.0
VDS,2013-11-20,3400.0
VDS,2013-11-21,3500.0
VDS,2013-11-22,3500.0
VDS,2013-11-25,3500.0
VDS,2013-11-26,3500.0
VDS,2013-11-27,3300.0
VDS,2013-11-28,3400.0
VDS,2013-11-29,3400.0
VDS,2013-12-02,3400.0
VDS,2013-12-03,3400.0
VDS,2013-12-04,3400.0
VDS,2013-12-05,3500.0
VDS,2013-12-06,3600.0
VDS,2013-12-09,3600.0
VDS,2013-12-10,3500.0
VDS,2013-12-11,3500.0
VDS,2013-12-12,3500.0
VDS,2013-12-13,3500.0
VDS,2013-12-16,3500.0
VDS,2013-12-17,3300.0
VDS,2013-12-18,3200.0
VDS,2013-12-19,3200.0
VDS,2013-12-20,3200.0
VDS,2013-12-23,3300.0
VDS,2013-12-24,3300.0
VDS,2013-12-25,3300.0
VDS,2013-12-26,3300.0
VDS,2013-12-27,3300.0
VDS,2013-12-30,3300.0
VDS,2013-12-31,3300.0
VDS,2014-01-02,3300.0
VDS,2014-01-03,3300.0
VDS,2014-01-06,3300.0
VDS,2014-01-07,3100.0
VDS,2014-01-08,3400.0
VDS,2014-01-09,3500.0
VDS,2014-01-10,3400.0
VDS,2014-01-13,3500.0
VDS,2014-01-14,3300.0
VDS,2014-01-15,3400.0
VDS,2014-01-16,3300.0
VDS,2014-01-17,3500.0
VDS,2014-01-20,3500.0
VDS,2014-01-21,3500.0
VDS,2014-01-22,3500.0
VDS,2014-01-23,3300.0
VDS,2014-01-24,3500.0
VDS,2014-01-27,3700.0
VDS,2014-02-06,3500.0
VDS,2014-02-07,3500.0
VDS,2014-02-10,3500.0
VDS,2014-02-11,3500.0
VDS,2014-02-12,3600.0
VDS,2014-02-13,3700.0
VDS,2014-02-14,3900.0
VDS,2014-02-17,4200.0
VDS,2014-02-18,4600.0
VDS,2014-02-19,4800.0
VDS,2014-02-20,4400.0
VDS,2014-02-21,4400.0
VDS,2014-02-24,4100.0
VDS,2014-02-25,4400.0
VDS,2014-02-26,4500.0
VDS,2014-02-27,4400.0
VDS,2014-02-28,4200.0
VDS,2014-03-03,4300.0
VDS,2014-03-04,4000.0
VDS,2014-03-05,4200.0
VDS,2014-03-06,4100.0
VDS,2014-03-07,4100.0
VDS,2014-03-10,4500.0
VDS,2014-03-11,4900.0
VDS,2014-03-12,5300.0
VDS,2014-03-13,5800.0
VDS,2014-03-14,5700.0
VDS,2014-03-17,6000.0
VDS,2014-03-18,6000.0
VDS,2014-03-19,5900.0
VDS,2014-03-20,5900.0
VDS,2014-03-21,5900.0
VDS,2014-03-24,6400.0
VDS,2014-03-25,6800.0
VDS,2014-03-26,6200.0
VDS,2014-03-27,6100.0
VDS,2014-03-28,6100.0
VDS,2014-03-31,6000.0
VDS,2014-04-01,5800.0
VDS,2014-04-02,5700.0
VDS,2014-04-03,5800.0
VDS,2014-04-04,5400.0
VDS,2014-04-07,5500.0
VDS,2014-04-08,5800.0
VDS,2014-04-10,5600.0
VDS,2014-04-11,5700.0
VDS,2014-04-14,5600.0
VDS,2014-04-15,5400.0
VDS,2014-04-16,5000.0
VDS,2014-04-17,5100.0
VDS,2014-04-18,4600.0
VDS,2014-04-21,4600.0
VDS,2014-04-22,4900.0
VDS,2014-04-23,4800.0
VDS,2014-04-24,4700.0
VDS,2014-04-25,4900.0
VDS,2014-04-28,5100.0
VDS,2014-04-29,4800.0
VDS,2014-05-05,5000.0
VDS,2014-05-06,4800.0
VDS,2014-05-07,4700.0
VDS,2014-05-08,4300.0
VDS,2014-05-09,4500.0
VDS,2014-05-12,4100.0
VDS,2014-05-13,4100.0
VDS,2014-05-14,4300.0
VDS,2014-05-15,4100.0
VDS,2014-05-16,4300.0
VDS,2014-05-19,4300.0
VDS,2014-05-20,4700.0
VDS,2014-05-21,4700.0
