VE9,2008-01-23,12300.0
VE9,2008-01-24,15800.0
VE9,2008-01-25,15400.0
VE9,2008-01-28,13100.0
VE9,2008-01-29,13100.0
VE9,2008-01-30,14400.0
VE9,2008-01-31,13900.0
VE9,2008-02-01,15200.0
VE9,2008-02-12,15900.0
VE9,2008-02-13,15100.0
VE9,2008-02-14,15500.0
VE9,2008-02-15,15300.0
VE9,2008-02-18,13900.0
VE9,2008-02-19,13900.0
VE9,2008-02-20,13900.0
VE9,2008-02-21,13500.0
VE9,2008-02-22,12700.0
VE9,2008-02-25,13900.0
VE9,2008-02-26,14000.0
VE9,2008-02-27,13700.0
VE9,2008-02-28,13700.0
VE9,2008-02-29,12700.0
VE9,2008-03-03,13100.0
VE9,2008-03-04,12100.0
VE9,2008-03-05,11500.0
VE9,2008-03-06,14000.0
VE9,2008-03-07,15400.0
VE9,2008-03-10,15400.0
VE9,2008-03-11,15800.0
VE9,2008-03-12,14200.0
VE9,2008-03-13,12900.0
VE9,2008-03-14,11800.0
VE9,2008-03-17,11100.0
VE9,2008-03-18,10300.0
VE9,2008-03-19,9600.0
VE9,2008-03-20,8800.0
VE9,2008-03-21,8200.0
VE9,2008-03-24,8000.0
VE9,2008-03-25,7700.0
VE9,2008-03-26,8400.0
VE9,2008-03-27,8600.0
VE9,2008-03-28,8700.0
VE9,2008-03-31,8900.0
VE9,2008-04-01,9000.0
VE9,2008-04-02,9200.0
VE9,2008-04-03,9400.0
VE9,2008-04-04,9500.0
VE9,2008-04-07,9800.0
VE9,2008-04-08,9600.0
VE9,2008-04-09,9800.0
VE9,2008-04-10,10100.0
VE9,2008-04-11,9900.0
VE9,2008-04-16,9600.0
VE9,2008-04-17,9700.0
VE9,2008-04-18,9300.0
VE9,2008-04-21,9300.0
VE9,2008-04-22,9600.0
VE9,2008-04-23,9400.0
VE9,2008-04-24,9400.0
VE9,2008-04-25,9200.0
VE9,2008-04-28,9400.0
VE9,2008-04-29,9400.0
VE9,2008-05-05,9200.0
VE9,2008-05-06,9200.0
VE9,2008-05-07,8900.0
VE9,2008-05-08,8700.0
VE9,2008-05-09,8700.0
VE9,2008-05-12,8700.0
VE9,2008-05-13,8400.0
VE9,2008-05-14,8400.0
VE9,2008-05-15,8400.0
VE9,2008-05-16,8200.0
VE9,2008-05-19,8200.0
VE9,2008-05-20,7900.0
VE9,2008-05-21,7900.0
VE9,2008-05-22,7900.0
VE9,2008-05-23,7700.0
VE9,2008-05-26,7700.0
VE9,2008-05-27,7500.0
VE9,2008-05-28,7500.0
VE9,2008-05-29,7500.0
VE9,2008-05-30,7500.0
VE9,2008-06-02,7500.0
VE9,2008-06-03,7300.0
VE9,2008-06-04,7100.0
VE9,2008-06-05,6900.0
VE9,2008-06-06,6700.0
VE9,2008-06-09,6600.0
VE9,2008-06-10,6400.0
VE9,2008-06-11,6400.0
VE9,2008-06-12,6100.0
VE9,2008-06-13,6000.0
VE9,2008-06-16,6200.0
VE9,2008-06-17,6300.0
VE9,2008-06-18,6100.0
VE9,2008-06-19,6000.0
VE9,2008-06-20,5800.0
VE9,2008-06-23,5800.0
VE9,2008-06-24,6000.0
VE9,2008-06-25,5800.0
VE9,2008-06-26,5800.0
VE9,2008-06-27,5800.0
VE9,2008-06-30,5700.0
VE9,2008-07-01,5900.0
VE9,2008-07-02,6000.0
VE9,2008-07-03,6100.0
VE9,2008-07-04,6300.0
VE9,2008-07-07,6400.0
VE9,2008-07-08,6200.0
VE9,2008-07-09,6000.0
VE9,2008-07-10,5900.0
VE9,2008-07-11,6000.0
VE9,2008-07-14,6100.0
VE9,2008-07-15,6400.0
VE9,2008-07-16,6300.0
VE9,2008-07-17,6300.0
VE9,2008-07-18,6400.0
VE9,2008-07-21,6400.0
VE9,2008-07-22,6400.0
VE9,2008-07-23,6400.0
VE9,2008-07-24,6400.0
VE9,2008-07-25,6400.0
VE9,2008-07-28,6400.0
VE9,2008-07-29,6200.0
VE9,2008-07-30,6000.0
VE9,2008-07-31,5800.0
VE9,2008-08-01,5600.0
VE9,2008-08-04,5600.0
VE9,2008-08-05,5400.0
VE9,2008-08-06,5200.0
VE9,2008-08-07,4900.0
VE9,2008-08-08,4900.0
VE9,2008-08-11,5100.0
VE9,2008-08-12,5200.0
VE9,2008-08-13,5400.0
VE9,2008-08-14,5400.0
VE9,2008-08-15,5400.0
VE9,2008-08-18,5800.0
VE9,2008-08-19,6200.0
VE9,2008-08-20,6100.0
VE9,2008-08-21,6000.0
VE9,2008-08-22,5600.0
VE9,2008-08-25,5600.0
VE9,2008-08-26,5800.0
VE9,2008-08-27,6200.0
VE9,2008-08-28,6400.0
VE9,2008-08-29,6400.0
VE9,2008-09-03,6400.0
VE9,2008-09-04,6500.0
VE9,2008-09-05,7000.0
VE9,2008-09-08,7300.0
VE9,2008-09-09,7600.0
VE9,2008-09-10,7100.0
VE9,2008-09-11,7000.0
VE9,2008-09-12,6700.0
VE9,2008-09-15,6400.0
VE9,2008-09-16,6300.0
VE9,2008-09-17,6000.0
VE9,2008-09-18,5800.0
VE9,2008-09-19,6400.0
VE9,2008-09-22,6700.0
VE9,2008-09-23,7000.0
VE9,2008-09-24,6600.0
VE9,2008-09-25,7100.0
VE9,2008-09-26,7200.0
VE9,2008-09-29,7400.0
VE9,2008-09-30,7400.0
VE9,2008-10-01,6900.0
VE9,2008-10-02,7100.0
VE9,2008-10-03,6900.0
VE9,2008-10-06,6900.0
VE9,2008-10-07,6600.0
VE9,2008-10-08,6500.0
VE9,2008-10-09,6100.0
VE9,2008-10-10,5700.0
VE9,2008-10-13,5300.0
VE9,2008-10-14,5800.0
VE9,2008-10-15,5700.0
VE9,2008-10-16,5800.0
VE9,2008-10-17,6200.0
VE9,2008-10-20,6200.0
VE9,2008-10-21,6400.0
VE9,2008-10-22,6400.0
VE9,2008-10-23,5900.0
VE9,2008-10-24,5800.0
VE9,2008-10-27,6000.0
VE9,2008-10-28,6000.0
VE9,2008-10-29,5600.0
VE9,2008-10-30,5200.0
VE9,2008-10-31,4900.0
VE9,2008-11-03,5200.0
VE9,2008-11-04,5300.0
VE9,2008-11-05,5400.0
VE9,2008-11-06,4700.0
VE9,2008-11-07,4700.0
VE9,2008-11-10,4700.0
VE9,2008-11-11,4400.0
VE9,2008-11-12,4700.0
VE9,2008-11-13,4600.0
VE9,2008-11-14,4900.0
VE9,2008-11-17,5100.0
VE9,2008-11-18,5100.0
VE9,2008-11-19,4700.0
VE9,2008-11-20,5000.0
VE9,2008-11-21,4700.0
VE9,2008-11-24,5000.0
VE9,2008-11-25,4700.0
VE9,2008-11-26,5000.0
VE9,2008-11-27,5000.0
VE9,2008-11-28,5300.0
VE9,2008-12-01,5500.0
VE9,2008-12-02,5400.0
VE9,2008-12-03,5000.0
VE9,2008-12-04,4700.0
VE9,2008-12-05,4700.0
VE9,2008-12-08,4200.0
VE9,2008-12-09,4200.0
VE9,2008-12-10,4000.0
VE9,2008-12-11,3900.0
VE9,2008-12-12,3700.0
VE9,2008-12-15,3700.0
VE9,2008-12-16,4000.0
VE9,2008-12-17,3800.0
VE9,2008-12-18,3800.0
VE9,2008-12-19,3900.0
VE9,2008-12-22,3900.0
VE9,2008-12-23,3800.0
VE9,2008-12-24,3800.0
VE9,2008-12-25,3700.0
VE9,2008-12-26,3600.0
VE9,2008-12-29,3800.0
VE9,2008-12-30,3800.0
VE9,2008-12-31,3600.0
VE9,2009-01-02,3900.0
VE9,2009-01-05,3900.0
VE9,2009-01-06,4200.0
VE9,2009-01-07,4400.0
VE9,2009-01-08,4700.0
VE9,2009-01-09,5000.0
VE9,2009-01-12,4500.0
VE9,2009-01-13,4800.0
VE9,2009-01-14,5100.0
VE9,2009-01-15,5100.0
VE9,2009-01-16,5200.0
VE9,2009-01-19,5200.0
VE9,2009-01-20,5500.0
VE9,2009-01-21,4900.0
VE9,2009-01-22,4900.0
VE9,2009-01-23,5300.0
VE9,2009-02-02,4700.0
VE9,2009-02-03,5000.0
VE9,2009-02-04,5000.0
VE9,2009-02-05,5200.0
VE9,2009-02-06,5200.0
VE9,2009-02-09,5300.0
VE9,2009-02-10,5300.0
VE9,2009-02-11,5300.0
VE9,2009-02-12,5200.0
VE9,2009-02-13,5200.0
VE9,2009-02-16,5100.0
VE9,2009-02-17,4800.0
VE9,2009-02-18,4800.0
VE9,2009-02-19,4800.0
VE9,2009-02-20,4800.0
VE9,2009-02-23,4800.0
VE9,2009-02-24,4700.0
VE9,2009-02-25,4700.0
VE9,2009-02-26,4700.0
VE9,2009-02-27,4700.0
VE9,2009-03-02,4700.0
VE9,2009-03-03,4700.0
VE9,2009-03-04,4700.0
VE9,2009-03-05,4700.0
VE9,2009-03-06,4700.0
VE9,2009-03-09,4700.0
VE9,2009-03-10,4700.0
VE9,2009-03-11,4700.0
VE9,2009-03-12,4700.0
VE9,2009-03-13,4700.0
VE9,2009-03-16,4700.0
VE9,2009-03-17,4900.0
VE9,2009-03-18,5100.0
VE9,2009-03-19,5100.0
VE9,2009-03-20,5100.0
VE9,2009-03-23,5100.0
VE9,2009-03-24,5100.0
VE9,2009-03-25,5100.0
VE9,2009-03-26,5400.0
VE9,2009-03-27,5400.0
VE9,2009-03-30,5400.0
VE9,2009-03-31,5100.0
VE9,2009-04-01,5100.0
VE9,2009-04-02,4700.0
VE9,2009-04-03,4800.0
VE9,2009-04-07,4600.0
VE9,2009-04-08,4300.0
VE9,2009-04-09,4200.0
VE9,2009-04-10,4400.0
VE9,2009-04-13,4700.0
VE9,2009-04-14,4900.0
VE9,2009-04-15,4900.0
VE9,2009-04-16,4900.0
VE9,2009-04-17,5200.0
VE9,2009-04-20,4800.0
VE9,2009-04-21,4500.0
VE9,2009-04-22,4800.0
VE9,2009-04-23,4700.0
VE9,2009-04-24,5000.0
VE9,2009-04-27,5000.0
VE9,2009-04-28,5000.0
VE9,2009-04-29,5000.0
VE9,2009-05-04,5400.0
VE9,2009-05-05,5400.0
VE9,2009-05-06,5600.0
VE9,2009-05-07,5600.0
VE9,2009-05-08,5600.0
VE9,2009-05-11,5500.0
VE9,2009-05-12,5100.0
VE9,2009-05-13,5100.0
VE9,2009-05-14,5400.0
VE9,2009-05-15,5700.0
VE9,2009-05-18,5300.0
VE9,2009-05-19,5400.0
VE9,2009-05-20,5500.0
VE9,2009-05-21,5500.0
VE9,2009-05-22,5500.0
VE9,2009-05-25,5800.0
VE9,2009-05-26,5800.0
VE9,2009-05-27,5500.0
VE9,2009-05-28,5500.0
VE9,2009-05-29,5800.0
VE9,2009-06-01,6200.0
VE9,2009-06-02,6400.0
VE9,2009-06-03,6600.0
VE9,2009-06-04,6800.0
VE9,2009-06-05,7300.0
VE9,2009-06-08,7800.0
VE9,2009-06-09,7900.0
VE9,2009-06-10,7400.0
VE9,2009-06-11,7200.0
VE9,2009-06-12,7200.0
VE9,2009-06-15,6700.0
VE9,2009-06-16,6300.0
VE9,2009-06-17,7000.0
VE9,2009-06-18,7200.0
VE9,2009-06-19,6700.0
VE9,2009-06-22,6400.0
VE9,2009-06-23,6200.0
VE9,2009-06-24,6800.0
VE9,2009-06-25,6400.0
VE9,2009-06-26,6400.0
VE9,2009-06-29,6600.0
VE9,2009-06-30,6700.0
VE9,2009-07-01,6700.0
VE9,2009-07-02,6300.0
VE9,2009-07-03,6600.0
VE9,2009-07-06,6400.0
VE9,2009-07-07,6200.0
VE9,2009-07-08,6300.0
VE9,2009-07-09,5900.0
VE9,2009-07-10,6700.0
VE9,2009-07-13,7000.0
VE9,2009-07-14,7200.0
VE9,2009-07-15,6700.0
VE9,2009-07-16,6300.0
VE9,2009-07-17,6700.0
VE9,2009-07-20,6900.0
VE9,2009-07-21,6900.0
VE9,2009-07-22,6900.0
VE9,2009-07-23,6900.0
VE9,2009-07-24,6700.0
VE9,2009-07-27,6900.0
VE9,2009-07-28,7300.0
VE9,2009-07-29,7100.0
VE9,2009-07-30,7100.0
VE9,2009-07-31,6600.0
VE9,2009-08-03,6900.0
VE9,2009-08-04,6600.0
VE9,2009-08-05,6800.0
VE9,2009-08-06,6800.0
VE9,2009-08-07,6600.0
VE9,2009-08-10,6900.0
VE9,2009-08-11,7000.0
VE9,2009-08-12,7000.0
VE9,2009-08-13,6900.0
VE9,2009-08-14,6900.0
VE9,2009-08-17,6500.0
VE9,2009-08-18,6200.0
VE9,2009-08-19,6500.0
VE9,2009-08-20,6800.0
VE9,2009-08-21,6400.0
VE9,2009-08-24,6400.0
VE9,2009-08-25,6100.0
VE9,2009-08-26,6400.0
VE9,2009-08-27,6700.0
VE9,2009-08-28,6500.0
VE9,2009-08-31,6700.0
VE9,2009-09-01,6700.0
VE9,2009-09-03,6400.0
VE9,2009-09-04,6300.0
VE9,2009-09-07,6300.0
VE9,2009-09-08,6300.0
VE9,2009-09-09,6400.0
VE9,2009-09-10,6400.0
VE9,2009-09-11,6200.0
VE9,2009-09-14,6400.0
VE9,2009-09-15,6600.0
VE9,2009-09-16,6600.0
VE9,2009-09-17,6700.0
VE9,2009-09-18,6600.0
VE9,2009-09-21,7000.0
VE9,2009-09-22,7400.0
VE9,2009-09-23,7600.0
VE9,2009-09-24,7300.0
VE9,2009-09-25,7400.0
VE9,2009-09-28,7300.0
VE9,2009-09-29,7300.0
VE9,2009-09-30,7200.0
VE9,2009-10-01,7100.0
VE9,2009-10-02,6700.0
VE9,2009-10-05,7000.0
VE9,2009-10-06,6800.0
VE9,2009-10-07,6900.0
VE9,2009-10-08,6800.0
VE9,2009-10-09,7300.0
VE9,2009-10-12,7800.0
VE9,2009-10-13,8300.0
VE9,2009-10-14,8800.0
VE9,2009-10-15,9400.0
VE9,2009-10-16,10000.0
VE9,2009-10-19,10700.0
VE9,2009-10-20,11500.0
VE9,2009-10-21,11200.0
VE9,2009-10-22,12200.0
VE9,2009-10-23,13000.0
VE9,2009-10-26,13900.0
VE9,2009-10-27,12900.0
VE9,2009-10-28,12300.0
VE9,2009-10-29,11500.0
VE9,2009-10-30,10800.0
VE9,2009-11-02,10100.0
VE9,2009-11-03,9500.0
VE9,2009-11-04,9000.0
VE9,2009-11-05,9600.0
VE9,2009-11-06,9900.0
VE9,2009-11-09,9100.0
VE9,2009-11-10,8700.0
VE9,2009-11-11,8400.0
VE9,2009-11-12,9000.0
VE9,2009-11-13,9100.0
VE9,2009-11-16,9100.0
VE9,2009-11-17,8600.0
VE9,2009-11-18,8900.0
VE9,2009-11-19,9100.0
VE9,2009-11-20,9100.0
VE9,2009-11-23,8400.0
VE9,2009-11-24,7800.0
VE9,2009-11-25,7600.0
VE9,2009-11-26,7200.0
VE9,2009-11-27,6700.0
VE9,2009-11-30,7300.0
VE9,2009-12-01,7200.0
VE9,2009-12-02,6800.0
VE9,2009-12-03,7100.0
VE9,2009-12-04,6900.0
VE9,2009-12-07,7100.0
VE9,2009-12-08,6300.0
VE9,2009-12-09,6000.0
VE9,2009-12-10,6400.0
VE9,2009-12-11,6000.0
VE9,2009-12-14,6400.0
VE9,2009-12-15,6400.0
VE9,2009-12-16,6100.0
VE9,2009-12-17,5800.0
VE9,2009-12-18,6200.0
VE9,2009-12-21,6600.0
VE9,2009-12-22,6200.0
VE9,2009-12-23,6600.0
VE9,2009-12-24,6900.0
VE9,2009-12-25,7100.0
VE9,2009-12-28,7000.0
VE9,2009-12-29,6700.0
VE9,2009-12-30,6800.0
VE9,2009-12-31,7300.0
VE9,2010-01-04,7700.0
VE9,2010-01-05,8200.0
VE9,2010-01-06,8800.0
VE9,2010-01-07,9300.0
VE9,2010-01-08,8600.0
VE9,2010-01-11,8400.0
VE9,2010-01-12,7800.0
VE9,2010-01-13,8400.0
VE9,2010-01-14,8200.0
VE9,2010-01-15,7800.0
VE9,2010-01-18,7300.0
VE9,2010-01-19,7800.0
VE9,2010-01-20,7300.0
VE9,2010-01-21,7000.0
VE9,2010-01-22,7300.0
VE9,2010-01-25,7300.0
VE9,2010-01-26,7800.0
VE9,2010-01-27,7300.0
VE9,2010-01-28,7000.0
VE9,2010-01-29,7300.0
VE9,2010-02-01,7400.0
VE9,2010-02-02,7300.0
VE9,2010-02-03,7700.0
VE9,2010-02-04,7600.0
VE9,2010-02-05,7100.0
VE9,2010-02-08,7300.0
VE9,2010-02-09,6800.0
VE9,2010-02-10,6900.0
VE9,2010-02-11,7000.0
VE9,2010-02-12,6900.0
VE9,2010-02-22,6500.0
VE9,2010-02-23,6600.0
VE9,2010-02-24,6900.0
VE9,2010-02-25,6900.0
VE9,2010-02-26,7100.0
VE9,2010-03-01,7300.0
VE9,2010-03-02,7000.0
VE9,2010-03-03,7300.0
VE9,2010-03-04,7500.0
VE9,2010-03-05,7900.0
VE9,2010-03-08,8300.0
VE9,2010-03-09,8200.0
VE9,2010-03-10,8000.0
VE9,2010-03-11,7900.0
VE9,2010-03-12,8100.0
VE9,2010-03-15,8100.0
VE9,2010-03-16,7600.0
VE9,2010-03-17,7400.0
VE9,2010-03-18,7800.0
VE9,2010-03-19,7600.0
VE9,2010-03-22,7700.0
VE9,2010-03-23,7700.0
VE9,2010-03-24,7700.0
VE9,2010-03-25,7400.0
VE9,2010-03-26,7400.0
VE9,2010-03-29,7200.0
VE9,2010-03-30,7100.0
VE9,2010-03-31,7100.0
VE9,2010-04-01,7300.0
VE9,2010-04-02,7200.0
VE9,2010-04-05,7100.0
VE9,2010-04-06,7000.0
VE9,2010-04-07,7400.0
VE9,2010-04-08,7800.0
VE9,2010-04-09,7700.0
VE9,2010-04-12,7300.0
VE9,2010-04-13,7200.0
VE9,2010-04-14,7300.0
VE9,2010-04-15,7500.0
VE9,2010-04-16,7500.0
VE9,2010-04-19,7900.0
VE9,2010-04-20,8100.0
VE9,2010-04-21,8600.0
VE9,2010-04-22,8300.0
VE9,2010-04-26,8200.0
VE9,2010-04-27,8000.0
VE9,2010-04-28,8200.0
VE9,2010-04-29,8600.0
VE9,2010-05-04,9100.0
VE9,2010-05-05,9800.0
VE9,2010-05-06,10400.0
VE9,2010-05-07,11100.0
VE9,2010-05-10,11800.0
VE9,2010-05-11,12600.0
VE9,2010-05-12,13500.0
VE9,2010-05-13,14400.0
VE9,2010-05-14,14800.0
VE9,2010-05-17,15200.0
VE9,2010-05-18,14200.0
VE9,2010-05-19,14900.0
VE9,2010-05-20,16200.0
VE9,2010-05-21,17100.0
VE9,2010-05-24,18200.0
VE9,2010-05-25,19400.0
VE9,2010-05-26,19600.0
VE9,2010-05-27,19000.0
VE9,2010-05-28,19100.0
VE9,2010-05-31,19400.0
VE9,2010-06-01,19200.0
VE9,2010-06-02,18300.0
VE9,2010-06-03,18300.0
VE9,2010-06-04,19200.0
VE9,2010-06-07,20200.0
VE9,2010-06-08,21600.0
VE9,2010-06-09,23100.0
VE9,2010-06-10,24600.0
VE9,2010-06-11,26300.0
VE9,2010-06-14,28100.0
VE9,2010-06-15,30000.0
VE9,2010-06-16,32100.0
VE9,2010-06-17,34300.0
VE9,2010-06-18,36600.0
VE9,2010-06-21,39100.0
VE9,2010-06-22,41800.0
VE9,2010-06-23,44700.0
VE9,2010-06-24,47400.0
VE9,2010-06-25,50500.0
VE9,2010-06-28,46800.0
VE9,2010-06-29,43600.0
VE9,2010-06-30,45800.0
VE9,2010-07-01,40900.0
VE9,2010-07-02,40300.0
VE9,2010-07-05,41500.0
VE9,2010-07-06,44300.0
VE9,2010-07-07,46600.0
VE9,2010-07-08,43900.0
VE9,2010-07-09,41300.0
VE9,2010-07-12,39500.0
VE9,2010-07-13,41500.0
VE9,2010-07-14,44100.0
VE9,2010-07-15,44100.0
VE9,2010-07-16,43100.0
VE9,2010-07-19,42300.0
VE9,2010-07-20,42700.0
VE9,2010-07-21,42200.0
VE9,2010-07-22,44900.0
VE9,2010-07-23,43500.0
VE9,2010-07-26,46500.0
VE9,2010-07-27,43300.0
VE9,2010-07-28,41000.0
VE9,2010-07-29,41600.0
VE9,2010-07-30,41900.0
VE9,2010-08-02,40000.0
VE9,2010-08-03,40600.0
VE9,2010-08-04,40800.0
VE9,2010-08-05,39500.0
VE9,2010-08-06,38300.0
VE9,2010-08-09,36700.0
VE9,2010-08-10,36800.0
VE9,2010-08-11,37000.0
VE9,2010-08-12,36200.0
VE9,2010-08-13,36300.0
VE9,2010-08-16,38600.0
VE9,2010-08-17,36700.0
VE9,2010-08-18,36300.0
VE9,2010-08-19,35400.0
VE9,2010-08-20,34000.0
VE9,2010-08-23,34000.0
VE9,2010-08-24,34000.0
VE9,2010-08-25,33200.0
VE9,2010-08-26,32400.0
VE9,2010-08-27,30400.0
VE9,2010-08-30,33600.0
VE9,2010-08-31,34500.0
VE9,2010-09-01,34100.0
VE9,2010-09-06,35500.0
VE9,2010-09-07,37900.0
VE9,2010-09-08,37100.0
VE9,2010-09-09,36800.0
VE9,2010-09-10,34600.0
VE9,2010-09-13,33600.0
VE9,2010-09-14,32900.0
VE9,2010-09-15,33200.0
VE9,2010-09-16,31900.0
VE9,2010-09-17,33600.0
VE9,2010-09-20,33200.0
VE9,2010-09-21,32500.0
VE9,2010-09-22,30400.0
VE9,2010-09-23,28400.0
VE9,2010-09-24,26400.0
VE9,2010-09-27,24600.0
VE9,2010-09-28,25300.0
VE9,2010-09-29,26000.0
VE9,2010-09-30,24500.0
VE9,2010-10-01,23700.0
VE9,2010-10-04,22300.0
VE9,2010-10-05,21300.0
VE9,2010-10-06,22400.0
VE9,2010-10-07,22200.0
VE9,2010-10-08,20900.0
VE9,2010-10-11,20000.0
VE9,2010-10-12,19000.0
VE9,2010-10-13,18900.0
VE9,2010-10-14,18600.0
VE9,2010-10-15,18200.0
VE9,2010-10-18,17200.0
VE9,2010-10-19,16500.0
VE9,2010-10-20,15600.0
VE9,2010-10-21,15300.0
VE9,2010-10-22,14600.0
VE9,2010-10-25,15500.0
VE9,2010-10-26,16000.0
VE9,2010-10-27,17100.0
VE9,2010-10-28,16100.0
VE9,2010-10-29,16000.0
VE9,2010-11-01,15100.0
VE9,2010-11-02,14400.0
VE9,2010-11-03,14000.0
VE9,2010-11-04,14800.0
VE9,2010-11-05,15600.0
VE9,2010-11-08,15000.0
VE9,2010-11-09,14200.0
VE9,2010-11-10,15000.0
VE9,2010-11-11,14300.0
VE9,2010-11-12,14200.0
VE9,2010-11-15,14100.0
VE9,2010-11-16,14500.0
VE9,2010-11-17,14900.0
VE9,2010-11-18,16000.0
VE9,2010-11-19,16000.0
VE9,2010-11-22,17300.0
VE9,2010-11-23,18000.0
VE9,2010-11-24,19200.0
VE9,2010-11-25,20400.0
VE9,2010-11-26,21800.0
VE9,2010-11-29,23200.0
VE9,2010-11-30,22100.0
VE9,2010-12-01,21100.0
VE9,2010-12-02,23100.0
VE9,2010-12-03,24500.0
VE9,2010-12-06,22900.0
VE9,2010-12-07,22000.0
VE9,2010-12-08,20600.0
VE9,2010-12-09,22300.0
VE9,2010-12-10,23600.0
VE9,2010-12-13,23700.0
VE9,2010-12-14,22400.0
VE9,2010-12-15,21300.0
VE9,2010-12-16,20700.0
VE9,2010-12-17,22100.0
VE9,2010-12-20,21000.0
VE9,2010-12-21,20800.0
VE9,2010-12-22,20300.0
VE9,2010-12-23,19400.0
VE9,2010-12-24,19000.0
VE9,2010-12-27,19300.0
VE9,2010-12-28,20800.0
VE9,2010-12-29,21300.0
VE9,2010-12-30,20600.0
VE9,2010-12-31,21100.0
VE9,2011-01-04,21200.0
VE9,2011-01-05,20300.0
VE9,2011-01-06,20100.0
VE9,2011-01-07,21000.0
VE9,2011-01-10,20800.0
VE9,2011-01-11,19800.0
VE9,2011-01-12,20000.0
VE9,2011-01-13,20000.0
VE9,2011-01-14,19900.0
VE9,2011-01-17,19800.0
VE9,2011-01-18,19300.0
VE9,2011-01-19,19400.0
VE9,2011-01-20,19200.0
VE9,2011-01-21,18800.0
VE9,2011-01-24,18200.0
VE9,2011-01-25,18000.0
VE9,2011-01-26,18200.0
VE9,2011-01-27,18600.0
VE9,2011-01-28,18600.0
VE9,2011-02-08,18400.0
VE9,2011-02-09,18500.0
VE9,2011-02-10,18200.0
VE9,2011-02-11,18200.0
VE9,2011-02-14,18200.0
VE9,2011-02-15,17900.0
VE9,2011-02-16,17500.0
VE9,2011-02-17,16700.0
VE9,2011-02-18,16100.0
VE9,2011-02-21,15100.0
VE9,2011-02-22,14100.0
VE9,2011-02-23,14600.0
VE9,2011-02-24,13700.0
VE9,2011-02-25,14500.0
VE9,2011-02-28,14900.0
VE9,2011-03-01,14900.0
VE9,2011-03-02,14000.0
VE9,2011-03-03,13900.0
VE9,2011-03-04,14100.0
VE9,2011-03-07,14100.0
VE9,2011-03-08,13700.0
VE9,2011-03-09,13000.0
VE9,2011-03-10,13900.0
VE9,2011-03-11,14800.0
VE9,2011-03-14,13900.0
VE9,2011-03-15,13800.0
VE9,2011-03-16,14000.0
VE9,2011-03-17,14300.0
VE9,2011-03-18,15100.0
VE9,2011-03-21,16000.0
VE9,2011-03-22,16100.0
VE9,2011-03-23,16000.0
VE9,2011-03-24,15800.0
VE9,2011-03-25,15000.0
VE9,2011-03-28,14900.0
VE9,2011-03-29,14500.0
VE9,2011-03-30,14500.0
VE9,2011-03-31,14500.0
VE9,2011-04-01,14500.0
VE9,2011-04-04,14100.0
VE9,2011-04-05,14400.0
VE9,2011-04-06,14800.0
VE9,2011-04-07,14400.0
VE9,2011-04-08,14200.0
VE9,2011-04-13,14200.0
VE9,2011-04-14,14100.0
VE9,2011-04-15,13600.0
VE9,2011-04-18,13300.0
VE9,2011-04-19,13400.0
VE9,2011-04-20,13400.0
VE9,2011-04-21,13000.0
VE9,2011-04-22,13300.0
VE9,2011-04-25,13500.0
VE9,2011-04-26,13100.0
VE9,2011-04-27,12600.0
VE9,2011-04-28,12600.0
VE9,2011-04-29,12600.0
VE9,2011-05-04,12400.0
VE9,2011-05-05,11700.0
VE9,2011-05-06,12700.0
VE9,2011-05-09,13000.0
VE9,2011-05-10,13000.0
VE9,2011-05-11,12800.0
VE9,2011-05-12,12800.0
VE9,2011-05-13,12900.0
VE9,2011-05-16,12600.0
VE9,2011-05-17,12400.0
VE9,2011-05-18,12300.0
VE9,2011-05-19,12100.0
VE9,2011-05-20,11600.0
VE9,2011-05-23,11100.0
VE9,2011-05-24,10300.0
VE9,2011-05-25,9700.0
VE9,2011-05-26,9700.0
VE9,2011-05-27,10000.0
VE9,2011-05-30,9200.0
VE9,2011-05-31,8900.0
VE9,2011-06-01,9300.0
VE9,2011-06-02,9900.0
VE9,2011-06-03,10100.0
VE9,2011-06-06,10000.0
VE9,2011-06-07,10400.0
VE9,2011-06-08,10200.0
VE9,2011-06-09,11100.0
VE9,2011-06-10,11700.0
VE9,2011-06-13,12500.0
VE9,2011-06-14,12100.0
VE9,2011-06-15,11700.0
VE9,2011-06-16,11500.0
VE9,2011-06-17,10800.0
VE9,2011-06-20,10500.0
VE9,2011-06-21,11100.0
VE9,2011-06-22,11100.0
VE9,2011-06-23,10900.0
VE9,2011-06-24,11100.0
VE9,2011-06-27,11100.0
VE9,2011-06-28,10400.0
VE9,2011-06-29,10500.0
VE9,2011-06-30,10300.0
VE9,2011-07-01,9800.0
VE9,2011-07-04,10100.0
VE9,2011-07-05,10400.0
VE9,2011-07-06,10000.0
VE9,2011-07-07,10100.0
VE9,2011-07-08,10000.0
VE9,2011-07-11,9700.0
VE9,2011-07-12,10100.0
VE9,2011-07-13,9900.0
VE9,2011-07-14,9800.0
VE9,2011-07-15,10000.0
VE9,2011-07-18,9700.0
VE9,2011-07-19,9500.0
VE9,2011-07-20,10100.0
VE9,2011-07-21,10500.0
VE9,2011-07-22,10300.0
VE9,2011-07-25,10400.0
VE9,2011-07-26,10500.0
VE9,2011-07-27,10300.0
VE9,2011-07-28,10200.0
VE9,2011-07-29,9800.0
VE9,2011-08-01,9800.0
VE9,2011-08-02,9400.0
VE9,2011-08-03,9600.0
VE9,2011-08-04,10100.0
VE9,2011-08-05,9400.0
VE9,2011-08-08,9300.0
VE9,2011-08-09,8700.0
VE9,2011-08-10,9100.0
VE9,2011-08-11,8700.0
VE9,2011-08-12,8700.0
VE9,2011-08-15,8700.0
VE9,2011-08-16,8900.0
VE9,2011-08-17,9500.0
VE9,2011-08-18,9600.0
VE9,2011-08-19,9400.0
VE9,2011-08-22,10200.0
VE9,2011-08-23,10100.0
VE9,2011-08-24,9700.0
VE9,2011-08-25,10200.0
VE9,2011-08-26,10100.0
VE9,2011-08-29,10800.0
VE9,2011-08-30,11200.0
VE9,2011-08-31,11500.0
VE9,2011-09-01,11500.0
VE9,2011-09-05,11000.0
VE9,2011-09-06,10700.0
VE9,2011-09-07,11500.0
VE9,2011-09-08,11300.0
VE9,2011-09-09,11300.0
VE9,2011-09-12,12200.0
VE9,2011-09-13,12300.0
VE9,2011-09-14,11700.0
VE9,2011-09-15,11200.0
VE9,2011-09-16,10900.0
VE9,2011-09-19,11200.0
VE9,2011-09-20,10900.0
VE9,2011-09-21,11000.0
VE9,2011-09-22,11100.0
VE9,2011-09-23,10900.0
VE9,2011-09-26,10600.0
VE9,2011-09-27,10600.0
VE9,2011-09-28,10600.0
VE9,2011-09-29,9900.0
VE9,2011-09-30,10100.0
VE9,2011-10-03,9800.0
VE9,2011-10-04,10000.0
VE9,2011-10-05,10100.0
VE9,2011-10-06,10600.0
VE9,2011-10-07,9900.0
VE9,2011-10-10,9600.0
VE9,2011-10-11,9800.0
VE9,2011-10-12,9600.0
VE9,2011-10-13,9500.0
VE9,2011-10-14,9600.0
VE9,2011-10-17,9400.0
VE9,2011-10-18,9400.0
VE9,2011-10-19,9400.0
VE9,2011-10-20,9200.0
VE9,2011-10-21,9800.0
VE9,2011-10-24,9500.0
VE9,2011-10-25,9400.0
VE9,2011-10-26,9300.0
VE9,2011-10-27,9200.0
VE9,2011-10-28,9800.0
VE9,2011-10-31,9700.0
VE9,2011-11-01,9300.0
VE9,2011-11-02,9400.0
VE9,2011-11-03,9400.0
VE9,2011-11-04,8900.0
VE9,2011-11-07,9100.0
VE9,2011-11-08,9000.0
VE9,2011-11-09,8600.0
VE9,2011-11-10,8400.0
VE9,2011-11-11,8300.0
VE9,2011-11-14,7800.0
VE9,2011-11-15,7800.0
VE9,2011-11-16,8300.0
VE9,2011-11-17,7600.0
VE9,2011-11-18,7300.0
VE9,2011-11-21,7300.0
VE9,2011-11-22,7400.0
VE9,2011-11-23,7300.0
VE9,2011-11-24,7200.0
VE9,2011-11-25,7100.0
VE9,2011-11-28,7300.0
VE9,2011-11-29,7000.0
VE9,2011-11-30,7100.0
VE9,2011-12-01,7200.0
VE9,2011-12-02,7200.0
VE9,2011-12-05,7600.0
VE9,2011-12-06,7300.0
VE9,2011-12-07,7100.0
VE9,2011-12-08,6900.0
VE9,2011-12-09,6700.0
VE9,2011-12-12,6700.0
VE9,2011-12-13,6600.0
VE9,2011-12-14,6800.0
VE9,2011-12-15,6600.0
VE9,2011-12-16,6400.0
VE9,2011-12-19,6400.0
VE9,2011-12-20,6600.0
VE9,2011-12-21,6900.0
VE9,2011-12-22,6700.0
VE9,2011-12-23,6700.0
VE9,2011-12-26,6700.0
VE9,2011-12-27,6500.0
VE9,2011-12-28,6800.0
VE9,2011-12-29,6800.0
VE9,2011-12-30,7100.0
VE9,2012-01-03,7300.0
VE9,2012-01-04,7600.0
VE9,2012-01-05,8000.0
VE9,2012-01-06,8000.0
VE9,2012-01-09,8100.0
VE9,2012-01-10,8100.0
VE9,2012-01-11,7800.0
VE9,2012-01-12,8100.0
VE9,2012-01-13,8200.0
VE9,2012-01-16,8300.0
VE9,2012-01-17,8300.0
VE9,2012-01-18,9000.0
VE9,2012-01-19,9200.0
VE9,2012-01-20,9800.0
VE9,2012-01-30,9300.0
VE9,2012-01-31,8900.0
VE9,2012-02-01,8800.0
VE9,2012-02-02,9000.0
VE9,2012-02-03,8400.0
VE9,2012-02-06,8100.0
VE9,2012-02-07,8000.0
VE9,2012-02-08,8400.0
VE9,2012-02-09,8400.0
VE9,2012-02-10,8400.0
VE9,2012-02-13,8700.0
VE9,2012-02-14,9000.0
VE9,2012-02-15,9000.0
VE9,2012-02-16,9400.0
VE9,2012-02-17,9200.0
VE9,2012-02-20,9100.0
VE9,2012-02-21,8600.0
VE9,2012-02-22,8700.0
VE9,2012-02-23,8900.0
VE9,2012-02-24,9100.0
VE9,2012-02-27,9500.0
VE9,2012-02-28,8700.0
VE9,2012-02-29,8700.0
VE9,2012-03-01,8500.0
VE9,2012-03-02,9200.0
VE9,2012-03-05,9600.0
VE9,2012-03-06,9000.0
VE9,2012-03-07,9500.0
VE9,2012-03-08,9100.0
VE9,2012-03-09,8900.0
VE9,2012-03-12,8400.0
VE9,2012-03-13,8800.0
VE9,2012-03-14,8300.0
VE9,2012-03-15,8800.0
VE9,2012-03-16,8700.0
VE9,2012-03-19,8500.0
VE9,2012-03-20,8600.0
VE9,2012-03-21,8600.0
VE9,2012-03-22,8400.0
VE9,2012-03-23,8900.0
VE9,2012-03-26,9400.0
VE9,2012-03-27,8900.0
VE9,2012-03-28,8800.0
VE9,2012-03-29,8400.0
VE9,2012-03-30,8300.0
VE9,2012-04-03,8600.0
VE9,2012-04-04,8400.0
VE9,2012-04-05,8600.0
VE9,2012-04-06,8200.0
VE9,2012-04-09,8500.0
VE9,2012-04-10,8300.0
VE9,2012-04-11,8700.0
VE9,2012-04-12,8700.0
VE9,2012-04-13,8400.0
VE9,2012-04-16,8800.0
VE9,2012-04-17,8500.0
VE9,2012-04-18,8500.0
VE9,2012-04-19,8300.0
VE9,2012-04-20,8400.0
VE9,2012-04-23,8300.0
VE9,2012-04-24,8400.0
VE9,2012-04-25,9000.0
VE9,2012-04-26,9500.0
VE9,2012-04-27,10200.0
VE9,2012-05-02,10600.0
VE9,2012-05-03,9800.0
VE9,2012-05-04,10300.0
VE9,2012-05-07,10100.0
VE9,2012-05-08,10700.0
VE9,2012-05-09,11500.0
VE9,2012-05-10,11600.0
VE9,2012-05-11,10800.0
VE9,2012-05-14,10100.0
VE9,2012-05-15,9500.0
VE9,2012-05-16,9400.0
VE9,2012-05-17,8600.0
VE9,2012-05-18,8100.0
VE9,2012-05-21,8600.0
VE9,2012-05-22,8400.0
VE9,2012-05-23,8100.0
VE9,2012-05-24,7700.0
VE9,2012-05-25,8000.0
VE9,2012-05-28,8400.0
VE9,2012-05-29,8400.0
VE9,2012-05-30,8200.0
VE9,2012-05-31,7800.0
VE9,2012-06-01,7900.0
VE9,2012-06-04,7500.0
VE9,2012-06-05,7500.0
VE9,2012-06-06,7600.0
VE9,2012-06-07,8200.0
VE9,2012-06-08,8100.0
VE9,2012-06-11,8300.0
VE9,2012-06-12,8100.0
VE9,2012-06-13,8100.0
VE9,2012-06-14,8000.0
VE9,2012-06-15,7900.0
VE9,2012-06-18,7900.0
VE9,2012-06-19,7900.0
VE9,2012-06-20,8100.0
VE9,2012-06-21,7900.0
VE9,2012-06-22,7600.0
VE9,2012-06-25,7400.0
VE9,2012-06-26,7000.0
VE9,2012-06-27,7100.0
VE9,2012-06-28,7000.0
VE9,2012-06-29,7000.0
VE9,2012-07-02,7000.0
VE9,2012-07-03,7200.0
VE9,2012-07-04,7200.0
VE9,2012-07-05,7300.0
VE9,2012-07-06,7400.0
VE9,2012-07-09,7200.0
VE9,2012-07-10,7300.0
VE9,2012-07-11,7300.0
VE9,2012-07-12,7300.0
VE9,2012-07-13,7500.0
VE9,2012-07-16,7600.0
VE9,2012-07-17,7700.0
VE9,2012-07-18,7600.0
VE9,2012-07-19,7900.0
VE9,2012-07-20,7600.0
VE9,2012-07-23,7000.0
VE9,2012-07-24,7000.0
VE9,2012-07-25,6800.0
VE9,2012-07-26,6900.0
VE9,2012-07-27,7000.0
VE9,2012-07-30,7200.0
VE9,2012-07-31,7100.0
VE9,2012-08-01,7100.0
VE9,2012-08-02,7100.0
VE9,2012-08-03,6900.0
VE9,2012-08-06,7200.0
VE9,2012-08-07,7000.0
VE9,2012-08-08,7100.0
VE9,2012-08-09,7000.0
VE9,2012-08-10,7000.0
VE9,2012-08-13,6700.0
VE9,2012-08-14,6700.0
VE9,2012-08-15,6800.0
VE9,2012-08-16,6800.0
VE9,2012-08-17,6800.0
VE9,2012-08-20,6800.0
VE9,2012-08-21,6300.0
VE9,2012-08-22,6100.0
VE9,2012-08-23,5700.0
VE9,2012-08-24,5500.0
VE9,2012-08-27,5400.0
VE9,2012-08-28,5500.0
VE9,2012-08-29,5800.0
VE9,2012-08-30,5800.0
VE9,2012-08-31,5500.0
VE9,2012-09-04,5600.0
VE9,2012-09-05,5400.0
VE9,2012-09-06,5400.0
VE9,2012-09-07,5400.0
VE9,2012-09-10,5200.0
VE9,2012-09-11,5200.0
VE9,2012-09-12,5400.0
VE9,2012-09-13,5200.0
VE9,2012-09-14,5300.0
VE9,2012-09-17,5000.0
VE9,2012-09-18,5000.0
VE9,2012-09-19,5000.0
VE9,2012-09-20,5000.0
VE9,2012-09-21,4900.0
VE9,2012-09-24,5000.0
VE9,2012-09-25,5000.0
VE9,2012-09-26,5000.0
VE9,2012-09-27,5000.0
VE9,2012-09-28,5200.0
VE9,2012-10-01,5100.0
VE9,2012-10-02,5000.0
VE9,2012-10-03,5100.0
VE9,2012-10-04,5000.0
VE9,2012-10-05,5000.0
VE9,2012-10-08,5000.0
VE9,2012-10-09,4800.0
VE9,2012-10-10,4900.0
VE9,2012-10-11,5100.0
VE9,2012-10-12,5400.0
VE9,2012-10-15,5000.0
VE9,2012-10-16,5200.0
VE9,2012-10-17,5400.0
VE9,2012-10-18,5300.0
VE9,2012-10-19,5300.0
VE9,2012-10-22,5200.0
VE9,2012-10-23,5100.0
VE9,2012-10-24,5000.0
VE9,2012-10-25,4900.0
VE9,2012-10-26,5000.0
VE9,2012-10-29,5000.0
VE9,2012-10-30,5000.0
VE9,2012-10-31,5000.0
VE9,2012-11-01,4900.0
VE9,2012-11-02,4800.0
VE9,2012-11-05,4700.0
VE9,2012-11-06,4400.0
VE9,2012-11-07,4200.0
VE9,2012-11-08,4400.0
VE9,2012-11-09,4200.0
VE9,2012-11-12,4400.0
VE9,2012-11-13,4100.0
VE9,2012-11-14,4200.0
VE9,2012-11-15,4000.0
VE9,2012-11-16,4100.0
VE9,2012-11-19,4000.0
VE9,2012-11-20,4000.0
VE9,2012-11-21,3800.0
VE9,2012-11-22,3900.0
VE9,2012-11-23,3900.0
VE9,2012-11-26,4200.0
VE9,2012-11-27,3900.0
VE9,2012-11-28,4100.0
VE9,2012-11-29,4100.0
VE9,2012-11-30,4100.0
VE9,2012-12-03,4200.0
VE9,2012-12-04,4500.0
VE9,2012-12-05,4500.0
VE9,2012-12-06,4600.0
VE9,2012-12-07,4800.0
VE9,2012-12-10,4900.0
VE9,2012-12-11,4900.0
VE9,2012-12-12,4700.0
VE9,2012-12-13,4500.0
VE9,2012-12-14,4200.0
VE9,2012-12-17,4500.0
VE9,2012-12-18,4200.0
VE9,2012-12-19,4400.0
VE9,2012-12-20,4600.0
VE9,2012-12-21,4400.0
VE9,2012-12-24,4600.0
VE9,2012-12-25,4600.0
VE9,2012-12-26,4600.0
VE9,2012-12-27,4800.0
VE9,2012-12-28,4900.0
VE9,2013-01-02,5100.0
VE9,2013-01-03,5000.0
VE9,2013-01-04,5000.0
VE9,2013-01-07,5000.0
VE9,2013-01-08,5000.0
VE9,2013-01-09,5000.0
VE9,2013-01-10,5100.0
VE9,2013-01-11,5000.0
VE9,2013-01-14,5100.0
VE9,2013-01-15,5300.0
VE9,2013-01-16,5300.0
VE9,2013-01-17,5200.0
VE9,2013-01-18,5300.0
VE9,2013-01-21,5200.0
VE9,2013-01-22,5200.0
VE9,2013-01-23,5100.0
VE9,2013-01-24,5300.0
VE9,2013-01-25,5700.0
VE9,2013-01-28,6200.0
VE9,2013-01-29,6000.0
VE9,2013-01-30,5700.0
VE9,2013-01-31,5200.0
VE9,2013-02-01,5600.0
VE9,2013-02-04,5400.0
VE9,2013-02-05,5500.0
VE9,2013-02-06,5100.0
VE9,2013-02-07,5300.0
VE9,2013-02-08,5700.0
VE9,2013-02-18,6100.0
VE9,2013-02-19,5900.0
VE9,2013-02-20,5900.0
VE9,2013-02-21,5600.0
VE9,2013-02-22,5600.0
VE9,2013-02-25,5400.0
VE9,2013-02-26,5200.0
VE9,2013-02-27,5100.0
VE9,2013-02-28,5200.0
VE9,2013-03-01,5200.0
VE9,2013-03-04,4900.0
VE9,2013-03-05,4800.0
VE9,2013-03-06,5200.0
VE9,2013-03-07,5000.0
VE9,2013-03-08,5100.0
VE9,2013-03-11,5200.0
VE9,2013-03-12,5200.0
VE9,2013-03-13,5000.0
VE9,2013-03-14,5200.0
VE9,2013-03-15,5200.0
VE9,2013-03-18,5200.0
VE9,2013-03-19,5100.0
VE9,2013-03-20,5100.0
VE9,2013-03-21,5200.0
VE9,2013-03-22,5000.0
VE9,2013-03-25,5100.0
VE9,2013-03-26,5000.0
VE9,2013-03-27,5000.0
VE9,2013-03-28,5000.0
VE9,2013-03-29,5000.0
VE9,2013-04-01,5300.0
VE9,2013-04-02,5300.0
VE9,2013-04-03,5400.0
VE9,2013-04-04,5100.0
VE9,2013-04-05,5200.0
VE9,2013-04-08,5400.0
VE9,2013-04-09,5500.0
VE9,2013-04-10,5200.0
VE9,2013-04-11,5500.0
VE9,2013-04-12,5500.0
VE9,2013-04-15,5400.0
VE9,2013-04-16,5400.0
VE9,2013-04-17,5400.0
VE9,2013-04-18,5400.0
VE9,2013-04-22,5200.0
VE9,2013-04-23,5400.0
VE9,2013-04-24,5300.0
VE9,2013-04-25,5400.0
VE9,2013-04-26,5400.0
VE9,2013-05-02,5900.0
VE9,2013-05-03,5500.0
VE9,2013-05-06,5700.0
VE9,2013-05-07,5600.0
VE9,2013-05-08,5500.0
VE9,2013-05-09,5500.0
VE9,2013-05-10,5500.0
VE9,2013-05-13,5500.0
VE9,2013-05-14,5000.0
VE9,2013-05-15,5300.0
VE9,2013-05-16,5300.0
VE9,2013-05-17,5100.0
VE9,2013-05-20,5300.0
VE9,2013-05-21,5500.0
VE9,2013-05-22,5500.0
VE9,2013-05-23,5500.0
VE9,2013-05-24,5500.0
VE9,2013-05-27,5500.0
VE9,2013-05-28,5500.0
VE9,2013-05-29,5400.0
VE9,2013-05-30,5400.0
VE9,2013-05-31,5600.0
VE9,2013-06-03,5600.0
VE9,2013-06-04,5700.0
VE9,2013-06-05,5500.0
VE9,2013-06-06,5400.0
VE9,2013-06-07,5500.0
VE9,2013-06-10,5300.0
VE9,2013-06-11,5200.0
VE9,2013-06-12,5100.0
VE9,2013-06-13,5400.0
VE9,2013-06-14,5400.0
VE9,2013-06-17,5200.0
VE9,2013-06-18,5300.0
VE9,2013-06-19,5400.0
VE9,2013-06-20,5300.0
VE9,2013-06-21,5600.0
VE9,2013-06-24,5500.0
VE9,2013-06-25,5500.0
VE9,2013-06-26,5200.0
VE9,2013-06-27,5200.0
VE9,2013-06-28,5400.0
VE9,2013-07-01,5300.0
VE9,2013-07-02,5200.0
VE9,2013-07-03,5200.0
VE9,2013-07-04,5300.0
VE9,2013-07-05,5200.0
VE9,2013-07-08,5300.0
VE9,2013-07-09,5200.0
VE9,2013-07-10,5100.0
VE9,2013-07-11,5300.0
VE9,2013-07-12,5400.0
VE9,2013-07-15,5400.0
VE9,2013-07-16,5100.0
VE9,2013-07-17,5100.0
VE9,2013-07-18,5100.0
VE9,2013-07-19,5200.0
VE9,2013-07-22,5400.0
VE9,2013-07-23,5200.0
VE9,2013-07-24,5000.0
VE9,2013-07-25,5200.0
VE9,2013-07-26,5300.0
VE9,2013-07-29,5300.0
VE9,2013-07-30,5300.0
VE9,2013-07-31,5100.0
VE9,2013-08-01,5200.0
VE9,2013-08-02,5200.0
VE9,2013-08-05,5200.0
VE9,2013-08-06,5200.0
VE9,2013-08-07,5100.0
VE9,2013-08-08,5100.0
VE9,2013-08-09,5200.0
VE9,2013-08-12,5000.0
VE9,2013-08-13,5100.0
VE9,2013-08-14,5200.0
VE9,2013-08-15,5300.0
VE9,2013-08-16,5300.0
VE9,2013-08-19,5300.0
VE9,2013-08-20,5400.0
VE9,2013-08-21,5300.0
VE9,2013-08-22,5300.0
VE9,2013-08-23,5400.0
VE9,2013-08-26,5200.0
VE9,2013-08-27,5200.0
VE9,2013-08-28,5200.0
VE9,2013-08-29,5200.0
VE9,2013-08-30,5300.0
VE9,2013-09-03,5200.0
VE9,2013-09-04,5200.0
VE9,2013-09-05,5300.0
VE9,2013-09-06,5000.0
VE9,2013-09-09,5100.0
VE9,2013-09-10,5100.0
VE9,2013-09-11,5200.0
VE9,2013-09-12,5200.0
VE9,2013-09-13,5200.0
VE9,2013-09-16,5200.0
VE9,2013-09-17,5100.0
VE9,2013-09-18,5100.0
VE9,2013-09-19,5100.0
VE9,2013-09-20,5100.0
VE9,2013-09-23,5100.0
VE9,2013-09-24,5100.0
VE9,2013-09-25,5100.0
VE9,2013-09-26,5100.0
VE9,2013-09-27,5100.0
VE9,2013-09-30,5000.0
VE9,2013-10-01,5000.0
VE9,2013-10-02,5000.0
VE9,2013-10-03,5200.0
VE9,2013-10-04,5200.0
VE9,2013-10-07,5300.0
VE9,2013-10-08,5300.0
VE9,2013-10-09,5500.0
VE9,2013-10-10,5300.0
VE9,2013-10-11,5300.0
VE9,2013-10-14,5300.0
VE9,2013-10-15,5400.0
VE9,2013-10-16,5400.0
VE9,2013-10-17,5400.0
VE9,2013-10-18,5400.0
VE9,2013-10-21,5400.0
VE9,2013-10-22,5500.0
VE9,2013-10-23,5400.0
VE9,2013-10-24,5500.0
VE9,2013-10-25,5500.0
VE9,2013-10-28,5500.0
VE9,2013-10-29,5500.0
VE9,2013-10-30,5300.0
VE9,2013-10-31,5300.0
VE9,2013-11-01,5300.0
VE9,2013-11-04,5400.0
VE9,2013-11-05,5400.0
VE9,2013-11-06,5300.0
VE9,2013-11-07,5800.0
VE9,2013-11-08,5900.0
VE9,2013-11-11,6000.0
VE9,2013-11-12,5700.0
VE9,2013-11-13,5800.0
VE9,2013-11-14,5600.0
VE9,2013-11-15,5900.0
VE9,2013-11-18,5900.0
VE9,2013-11-19,5900.0
VE9,2013-11-20,6100.0
VE9,2013-11-21,6000.0
VE9,2013-11-22,6100.0
VE9,2013-11-25,5900.0
VE9,2013-11-26,5900.0
VE9,2013-11-27,5900.0
VE9,2013-11-28,5900.0
VE9,2013-11-29,5900.0
VE9,2013-12-02,6000.0
VE9,2013-12-03,6100.0
VE9,2013-12-04,6000.0
VE9,2013-12-05,6000.0
VE9,2013-12-06,6100.0
VE9,2013-12-09,6100.0
VE9,2013-12-10,6400.0
VE9,2013-12-11,6300.0
VE9,2013-12-12,6400.0
VE9,2013-12-13,6100.0
VE9,2013-12-16,6400.0
VE9,2013-12-17,6500.0
VE9,2013-12-18,6400.0
VE9,2013-12-19,6100.0
VE9,2013-12-20,6300.0
VE9,2013-12-23,6300.0
VE9,2013-12-24,6300.0
VE9,2013-12-25,6400.0
VE9,2013-12-26,7000.0
VE9,2013-12-27,7000.0
VE9,2013-12-30,6900.0
VE9,2013-12-31,6800.0
VE9,2014-01-02,6700.0
VE9,2014-01-03,6700.0
VE9,2014-01-06,6700.0
VE9,2014-01-07,6700.0
VE9,2014-01-08,6700.0
VE9,2014-01-09,6900.0
VE9,2014-01-10,6800.0
VE9,2014-01-13,6600.0
VE9,2014-01-14,6600.0
VE9,2014-01-15,6700.0
VE9,2014-01-16,6500.0
VE9,2014-01-17,6600.0
VE9,2014-01-20,6600.0
VE9,2014-01-21,6700.0
VE9,2014-01-22,6600.0
VE9,2014-01-23,6600.0
VE9,2014-01-24,6700.0
VE9,2014-01-27,6800.0
VE9,2014-02-06,6800.0
VE9,2014-02-07,6900.0
VE9,2014-02-10,6900.0
VE9,2014-02-11,7400.0
VE9,2014-02-12,7500.0
VE9,2014-02-13,7300.0
VE9,2014-02-14,7400.0
VE9,2014-02-17,7900.0
VE9,2014-02-18,8100.0
VE9,2014-02-19,8300.0
VE9,2014-02-20,7700.0
VE9,2014-02-21,7700.0
VE9,2014-02-24,7700.0
VE9,2014-02-25,7800.0
VE9,2014-02-26,7800.0
VE9,2014-02-27,8000.0
VE9,2014-02-28,8000.0
VE9,2014-03-03,7500.0
VE9,2014-03-04,7800.0
VE9,2014-03-05,7800.0
VE9,2014-03-06,7900.0
VE9,2014-03-07,7800.0
VE9,2014-03-10,8100.0
VE9,2014-03-11,8200.0
VE9,2014-03-12,8000.0
VE9,2014-03-13,8200.0
VE9,2014-03-14,9000.0
VE9,2014-03-17,9200.0
VE9,2014-03-18,9300.0
VE9,2014-03-19,10000.0
VE9,2014-03-20,9000.0
VE9,2014-03-21,9400.0
VE9,2014-03-24,9300.0
VE9,2014-03-25,9200.0
VE9,2014-03-26,8500.0
VE9,2014-03-27,8600.0
VE9,2014-03-28,9000.0
VE9,2014-03-31,8600.0
VE9,2014-04-01,9000.0
VE9,2014-04-02,8500.0
VE9,2014-04-03,8500.0
VE9,2014-04-04,9000.0
VE9,2014-04-07,8900.0
VE9,2014-04-08,9000.0
VE9,2014-04-10,8900.0
VE9,2014-04-11,8900.0
VE9,2014-04-14,9000.0
VE9,2014-04-15,8900.0
VE9,2014-04-16,8500.0
VE9,2014-04-17,8800.0
VE9,2014-04-18,8500.0
VE9,2014-04-21,8500.0
VE9,2014-04-22,8500.0
VE9,2014-04-23,8200.0
VE9,2014-04-24,8500.0
VE9,2014-04-25,8500.0
VE9,2014-04-28,8200.0
VE9,2014-04-29,8500.0
VE9,2014-05-05,7700.0
VE9,2014-05-06,8000.0
VE9,2014-05-07,8200.0
VE9,2014-05-08,8400.0
VE9,2014-05-09,8800.0
VE9,2014-05-12,8600.0
VE9,2014-05-13,8100.0
VE9,2014-05-14,8200.0
VE9,2014-05-15,8200.0
VE9,2014-05-16,8600.0
VE9,2014-05-19,8800.0
VE9,2014-05-20,8800.0
VE9,2014-05-21,8700.0
